30
2 40 32
1 16
3 22 24 42
1 47
1 23
2 36 11
3 43 44 31
2 1 33
3 2 13 38
1 37
0
2 35 0
2 6 28
1 25
2 20 8
2 48 26
2 5 19
2 3 29
1 7
1 10
2 27 4
1 9
2 14 21
2 41 30
2 34 46
1 17
1 39
1 45
1 18
3 49 15 12

Total makespan: 16
