25
6 83 120 113 37 12 134
6 128 143 29 116 4 132
3 65 46 72
7 95 6 121 140 10 3 57
6 75 123 115 66 59 142
8 61 147 67 96 14 74 5 117
6 88 41 148 131 122 56
8 144 146 71 108 1 13 98 149
3 31 63 77
7 76 49 0 34 104 48 52
6 51 100 45 73 53 8
6 39 16 85 129 133 103
5 25 69 135 24 92
9 145 124 20 137 106 33 139 18 30
6 90 138 21 62 22 125
7 43 141 87 60 136 68 80
5 97 40 19 35 2
3 127 126 99
5 105 44 130 17 58
7 93 94 107 79 91 82 86
4 9 50 32 64
7 26 89 110 47 102 7 23
6 111 81 112 70 15 55
8 27 118 84 101 36 54 109 38
6 119 28 11 114 78 42

Total makespan: 89

