15
18 60 206 204 228 63 23 219 143 176 25 129 76 46 18 104 207 9 27
19 131 188 199 108 107 139 1 35 175 215 174 150 210 115 32 74 26 96 122
17 130 154 190 148 47 239 65 89 196 198 22 24 133 243 114 137 218
16 140 105 212 54 146 229 125 167 68 244 152 147 6 66 231 158
15 179 21 2 59 4 155 110 99 119 232 120 75 134 163 3
18 44 87 51 123 184 249 236 112 42 222 52 70 45 195 124 138 205 19
13 72 209 85 227 169 144 189 77 48 91 185 245 240
15 13 230 149 203 246 28 241 84 90 36 226 86 172 56 193
22 64 191 73 38 31 109 242 194 192 12 157 16 159 151 10 220 156 186 0 238 178 136
14 33 208 20 101 50 53 216 15 92 164 98 55 106 39
18 17 30 213 170 5 135 161 111 49 141 166 117 61 162 211 34 62 180
16 197 168 118 81 82 201 248 80 173 116 177 132 221 126 160 97
12 182 223 102 94 128 40 121 237 95 7 153 113
20 214 202 69 183 234 93 235 83 41 43 58 103 71 145 233 181 37 187 57 14
17 200 127 29 247 100 171 142 165 67 11 224 88 79 78 217 225 8

Total makespan: 128

