30
8 37 105 229 77 144 175 122 87
8 133 51 45 188 181 219 152 242
10 238 26 214 5 158 173 12 86 27 53
9 220 38 135 178 92 182 162 228 236
6 11 117 169 54 150 46
9 0 119 35 104 106 136 156 57 233
8 125 217 157 139 154 193 110 225
9 201 161 66 235 174 33 202 13 48
8 196 100 215 230 49 64 172 146
9 21 72 78 89 90 131 111 167 69
8 7 234 147 224 165 3 168 4
11 25 95 108 187 47 132 191 76 116 198 73
9 42 118 58 22 32 213 114 227 30
9 141 1 226 244 180 143 245 99 15
9 179 210 130 203 20 103 23 128 91
10 160 8 200 101 60 17 40 197 138 190
9 149 61 88 129 164 39 240 248 153
8 211 18 183 163 71 96 107 176
10 68 148 75 206 70 41 14 207 142 10
8 74 113 65 81 112 121 52 166
9 189 186 59 44 19 171 63 241 16
8 205 134 170 208 115 55 184 109
7 56 246 221 159 231 124 82
7 31 24 194 177 237 83 98
10 120 6 199 216 140 247 155 67 151 232
6 28 185 212 34 2 192
7 218 36 80 249 127 50 9
7 243 43 204 145 102 94 97
7 223 84 123 29 209 93 137
7 62 222 195 126 79 85 239

Total makespan: 72

