I_50_10_S_1-124_5_MTZ_KB.lp_Gurobi	111	3600,00936317444	100
I_200_10_S_1-49_6_MTZ_KB.lp_Gurobi	259	3600,06736373901	238
I_150_10_S_1-99_9_MTZ_KB.lp_Gurobi	269	3612,25666427612	223
I_250_10_S_1-124_9_MTZ_KB.lp_Gurobi	548	3641,20112991333	351,078632067238
I_100_10_S_1-124_5_MTZ_KB.lp_Gurobi	222	3600,24907493591	186
I_50_15_S_1-99_4_MTZ_KB.lp_Gurobi	67	3600,06081390381	51
I_200_15_S_1-99_1_MTZ_KB.lp_Gurobi	248	3600,13962554932	157,661492345126
I_150_15_S_1-49_6_MTZ_KB.lp_Gurobi	139	3600,20007896423	100
I_100_15_S_1-49_4_MTZ_KB.lp_Gurobi	83	3600,02859306335	68
I_250_15_S_1-9_8_MTZ_KB.lp_Gurobi	145	3601,35118293762	124,579526776139
I_50_20_S_1-49_5_MTZ_KB.lp_Gurobi	29	1300,90574073792	29
I_50_25_S_1-9_4_MTZ_KB.lp_Gurobi	20	12,2163276672363	20
I_50_30_S_1-9_4_MTZ_KB.lp_Gurobi	16	106,425300598145	16
