30
2 21 42
5 48 7 46 30 17
3 41 9 97
3 36 71 84
3 57 66 14
3 6 91 77
4 85 86 87 92
4 80 90 83 74
4 20 81 89 34
2 95 45
2 78 53
4 29 69 56 59
2 44 12
4 60 93 75 33
3 99 10 62
3 94 88 52
2 1 8
4 73 82 63 58
2 11 54
6 13 27 98 72 38 51
3 67 76 79
4 26 68 18 47
3 37 31 24
3 0 40 43
4 5 35 3 96
4 65 15 64 22
4 32 49 39 61
4 25 19 16 28
2 55 4
4 2 23 70 50

Total makespan: 23

