20
6 92 67 77 136 14 116
7 18 68 17 1 149 44 22
6 106 20 49 55 48 114
5 117 72 148 126 146
5 78 63 66 112 43
8 46 128 13 110 143 85 29 56
6 30 6 69 61 121 71
9 127 124 105 135 82 91 76 2 25
6 84 138 23 35 3 19
7 108 122 59 132 79 144 26
8 94 83 58 53 37 101 36 120
7 75 99 130 134 16 39 98
9 74 47 28 60 50 15 145 73 115
13 100 9 40 62 90 118 45 81 123 80 32 140 103
9 88 125 93 24 119 54 147 52 95
7 8 27 0 87 41 137 129
8 57 5 141 133 97 31 42 34
8 21 38 4 65 96 51 86 142
7 70 131 64 12 10 104 11
9 7 102 89 33 109 113 107 139 111

Total makespan: 65

