30
1 39
1 16
3 42 45 22
1 47
1 23
2 36 11
1 48
2 1 33
4 2 13 38 43
1 28
1 24
2 35 0
2 6 40
1 25
2 20 8
1 26
3 5 15 19
2 27 3
1 7
1 10
2 29 4
3 17 44 18
2 21 9
2 41 30
2 34 46
0
2 49 14
1 31
1 32
2 12 37

Total makespan: 16
