30
3 75 60 13
3 36 59 55
2 51 76
5 64 15 23 9 86
3 25 80 6
3 22 47 48
5 56 65 93 54 28
4 0 73 8 26
4 58 31 4 37
5 35 52 21 16 10
4 11 78 42 99
3 92 67 87
3 79 74 70
3 96 90 3
4 32 2 61 41
3 18 44 19
2 72 20
3 69 33 62
4 30 98 27 5
4 85 43 82 71
4 1 89 84 83
2 34 39
3 97 17 14
3 50 53 7
2 29 40
3 88 95 24
2 66 38
3 94 12 57
5 63 81 77 46 91
3 68 49 45

Total makespan: 33

30
3 75 60 13
3 36 59 55
2 51 76
5 64 15 23 9 86
3 25 80 6
3 22 47 48
5 56 65 93 54 28
4 0 73 8 26
4 58 31 4 37
5 35 52 21 16 10
4 11 78 42 99
3 92 67 87
3 79 74 70
3 96 90 3
4 32 2 61 41
3 18 44 19
2 72 20
3 69 33 62
4 30 98 27 5
4 85 43 82 71
4 1 89 84 83
2 34 39
3 97 17 14
3 50 53 7
2 29 40
3 88 95 24
2 66 38
3 94 12 57
5 63 81 77 46 91
3 68 49 45

Total makespan: 33

30
3 75 60 13
3 36 59 55
2 51 76
5 64 15 23 9 86
3 25 80 6
3 22 47 48
5 56 65 93 54 28
4 0 73 8 26
4 58 31 4 37
5 35 52 21 16 10
4 11 78 42 99
3 92 67 87
3 79 74 70
3 96 90 3
4 32 2 61 41
3 18 44 19
2 72 20
3 69 33 62
4 30 98 27 5
4 85 43 82 71
4 1 89 84 83
2 34 39
3 97 17 14
3 50 53 7
2 29 40
3 88 95 24
2 66 38
3 94 12 57
5 63 81 77 46 91
3 68 49 45

Total makespan: 33

