30
4 79 61 77 32
3 83 92 48
2 43 16
3 15 14 1
3 68 26 66
3 25 76 34
3 21 44 7
4 64 63 0 50
3 39 52 54
3 75 73 80
4 9 2 17 4
3 42 87 94
4 36 30 55 71
3 98 97 95
3 47 11 81
3 46 38 74
4 69 86 51 6
2 49 13
3 60 65 12
3 85 57 3
3 53 37 82
4 29 27 58 78
5 23 70 24 40 59
2 10 18
4 35 96 88 5
5 41 90 56 31 45
3 22 19 89
3 62 84 93
5 20 67 28 33 91
3 8 99 72

Total makespan: 31

30
4 79 61 77 32
3 83 92 48
2 43 16
3 15 14 1
3 68 26 66
3 25 76 34
3 21 44 7
4 64 63 0 50
3 39 52 54
3 75 73 80
4 9 2 17 4
3 42 87 94
4 36 30 55 71
3 98 97 95
3 47 11 81
3 46 38 74
4 69 86 51 6
2 49 13
3 60 65 12
3 85 57 3
3 53 37 82
4 29 27 58 78
5 23 70 24 40 59
2 10 18
4 35 96 88 5
5 41 90 56 31 45
3 22 19 89
3 62 84 93
5 20 67 28 33 91
3 8 99 72

Total makespan: 31

