30
3 56 0 49
3 69 28 37
2 55 77
2 64 32
4 58 43 13 57
3 51 34 83
4 65 3 18 73
3 87 62 14
5 36 53 72 80 24
4 38 23 75 42
5 84 71 33 29 97
3 67 98 2
4 76 54 39 92
3 59 31 21
3 74 8 44
3 27 61 94
3 68 15 52
2 48 86
6 95 26 19 6 79 66
4 5 45 17 41
3 40 1 70
3 30 91 78
5 99 82 25 85 9
2 89 35
3 88 10 60
2 12 47
3 63 20 93
3 4 7 16
4 50 81 22 46
3 96 11 90

Total makespan: 38

30
3 56 0 49
3 69 28 37
2 55 77
2 64 32
4 58 43 13 57
3 51 34 83
4 65 3 18 73
3 87 62 14
5 36 53 72 80 24
4 38 23 75 42
5 84 71 33 29 97
3 67 98 2
4 76 54 39 92
3 59 31 21
3 74 8 44
3 27 61 94
3 68 15 52
2 48 86
6 95 26 19 6 79 66
4 5 45 17 41
3 40 1 70
3 30 91 78
5 99 82 25 85 9
2 89 35
3 88 10 60
2 12 47
3 63 20 93
3 4 7 16
4 50 81 22 46
3 96 11 90

Total makespan: 38

