20
5 32 44 72 4 26
5 87 6 81 46 65
6 95 41 83 48 85 37
6 99 40 92 2 67 0
7 28 78 86 11 53 9 8
5 69 5 22 62 33
7 96 35 66 42 18 68 52
5 38 56 82 54 98
4 43 3 64 50
5 21 73 55 16 93
3 7 90 91
5 51 17 29 57 58
2 60 89
4 25 30 27 10
5 74 76 88 75 19
4 45 97 70 63
3 59 13 77
8 12 20 47 15 31 24 84 94
7 23 49 71 36 1 39 34
4 61 80 14 79

Total makespan: 67

20
5 32 44 72 4 26
5 87 6 81 46 65
6 95 41 83 48 85 37
6 99 40 92 2 67 0
7 28 78 86 11 53 9 8
5 69 5 22 62 33
7 96 35 66 42 18 68 52
5 38 56 82 54 98
4 43 3 64 50
5 21 73 55 16 93
3 7 90 91
5 51 17 29 57 58
2 60 89
4 25 30 27 10
5 74 76 88 75 19
4 45 97 70 63
3 59 13 77
8 12 20 47 15 31 24 84 94
7 23 49 71 36 1 39 34
4 61 80 14 79

Total makespan: 67

