25
4 95 28 55 52
5 93 82 21 46 98
6 65 2 18 16 29 9
2 86 79
5 34 92 1 62 3
3 0 58 32
4 80 69 68 81
4 27 7 54 66
4 91 48 77 14
3 59 37 19
3 63 31 13
4 97 17 49 44
4 90 74 35 26
5 36 70 96 45 67
3 8 12 22
3 71 47 42
4 23 5 88 25
4 72 78 15 4
4 87 56 99 10
4 38 33 40 83
4 53 30 94 24
3 43 50 75
4 57 11 85 76
6 20 64 51 73 6 84
5 89 61 39 60 41

Total makespan: 55

25
4 95 28 55 52
5 93 82 21 46 98
6 65 2 18 16 29 9
2 86 79
5 34 92 1 62 3
3 0 58 32
4 80 69 68 81
4 27 7 54 66
4 91 48 77 14
3 59 37 19
3 63 31 13
4 97 17 49 44
4 90 74 35 26
5 36 70 96 45 67
3 8 12 22
3 71 47 42
4 23 5 88 25
4 72 78 15 4
4 87 56 99 10
4 38 33 40 83
4 53 30 94 24
3 43 50 75
4 57 11 85 76
6 20 64 51 73 6 84
5 89 61 39 60 41

Total makespan: 55

