25
4 22 57 38 52
4 89 26 19 7
4 97 56 5 31
5 50 83 94 45 3
5 84 49 1 4 90
6 10 43 32 73 96 53
7 98 35 16 0 28 41 20
5 64 70 81 55 8
3 63 91 9
4 51 99 76 21
4 48 23 61 93
3 46 6 68
3 85 92 80
4 65 2 33 29
4 12 14 72 27
4 11 71 69 34
3 47 75 62
3 18 59 77
3 74 86 42
2 13 66
5 67 88 40 17 78
4 36 24 39 87
4 95 58 37 30
3 25 44 60
4 82 79 54 15

Total makespan: 50

25
4 22 57 38 52
4 89 26 19 7
4 97 56 5 31
5 50 83 94 45 3
5 84 49 1 4 90
6 10 43 32 73 96 53
7 98 35 16 0 28 41 20
5 64 70 81 55 8
3 63 91 9
4 51 99 76 21
4 48 23 61 93
3 46 6 68
3 85 92 80
4 65 2 33 29
4 12 14 72 27
4 11 71 69 34
3 47 75 62
3 18 59 77
3 74 86 42
2 13 66
5 67 88 40 17 78
4 36 24 39 87
4 95 58 37 30
3 25 44 60
4 82 79 54 15

Total makespan: 50

