15
8 61 30 31 95 37 96 57 83
8 3 29 28 12 87 92 56 59
7 7 82 39 88 54 78 13
8 50 51 98 38 36 27 1 93
6 80 70 32 14 68 76
7 18 91 42 15 43 99 62
5 77 5 72 58 63
4 55 84 44 60
7 34 8 0 21 64 11 9
6 19 23 25 20 86 46
6 16 24 66 79 40 73
4 10 69 53 71
10 45 74 65 2 90 94 52 67 26 6
6 85 75 81 47 33 97
8 17 89 49 48 4 35 41 22

Total makespan: 65

15
8 61 30 31 95 37 96 57 83
8 3 29 28 12 87 92 56 59
7 7 82 39 88 54 78 13
8 50 51 98 38 36 27 1 93
6 80 70 32 14 68 76
7 18 91 42 15 43 99 62
5 77 5 72 58 63
4 55 84 44 60
7 34 8 0 21 64 11 9
6 19 23 25 20 86 46
6 16 24 66 79 40 73
4 10 69 53 71
10 45 74 65 2 90 94 52 67 26 6
6 85 75 81 47 33 97
8 17 89 49 48 4 35 41 22

Total makespan: 65

