20
5 57 89 31 43 77
5 19 13 36 47 28
6 60 20 99 87 78 42
7 23 17 86 94 95 35 74
4 5 65 49 4
5 33 30 61 38 22
7 12 82 52 68 84 34 25
4 0 71 56 79
4 97 27 18 58
5 69 96 14 70 9
6 1 26 11 16 32 7
4 6 39 21 90
5 54 91 2 24 45
5 8 75 80 72 93
5 73 98 37 3 63
4 55 66 85 50
7 15 46 48 62 81 59 10
4 76 53 51 92
4 40 41 83 88
4 64 67 29 44

Total makespan: 52

20
5 57 89 31 43 77
5 19 13 36 47 28
6 60 20 99 87 78 42
7 23 17 86 94 95 35 74
4 5 65 49 4
5 33 30 61 38 22
7 12 82 52 68 84 34 25
4 0 71 56 79
4 97 27 18 58
5 69 96 14 70 9
6 1 26 11 16 32 7
4 6 39 21 90
5 54 91 2 24 45
5 8 75 80 72 93
5 73 98 37 3 63
4 55 66 85 50
7 15 46 48 62 81 59 10
4 76 53 51 92
4 40 41 83 88
4 64 67 29 44

Total makespan: 52

