15
7 74 61 31 16 36 64 2
9 55 58 96 78 43 84 0 9 87
7 19 45 10 39 86 52 50
7 37 95 57 4 69 90 15
6 34 30 94 12 44 35
9 88 33 59 53 97 49 21 82 1
7 91 51 75 89 11 70 46
6 40 29 65 56 17 85
4 98 27 42 48
5 81 80 5 67 23
9 38 71 77 24 76 99 79 6 41
7 3 13 20 18 25 22 93
5 14 54 83 7 8
6 32 92 72 68 63 66
6 47 73 28 62 60 26

Total makespan: 62

15
7 74 61 31 16 36 64 2
9 55 58 96 78 43 84 0 9 87
7 19 45 10 39 86 52 50
7 37 95 57 4 69 90 15
6 34 30 94 12 44 35
9 88 33 59 53 97 49 21 82 1
7 91 51 75 89 11 70 46
6 40 29 65 56 17 85
4 98 27 42 48
5 81 80 5 67 23
9 38 71 77 24 76 99 79 6 41
7 3 13 20 18 25 22 93
5 14 54 83 7 8
6 32 92 72 68 63 66
6 47 73 28 62 60 26

Total makespan: 62

