20
4 40 70 9 99
5 90 23 49 87 67
5 59 17 80 1 86
3 91 34 85
5 35 58 69 81 54
8 3 12 44 21 64 79 96 6
4 55 4 8 26
6 19 33 77 74 20 0
5 30 43 5 15 84
6 38 52 61 65 41 95
4 46 73 11 53
4 37 47 93 13
7 62 68 16 14 72 56 24
6 94 82 18 36 97 32
4 60 48 88 27
5 10 63 78 7 39
5 50 57 42 25 29
2 28 75
6 98 31 66 45 2 92
6 89 51 83 76 71 22

Total makespan: 70

20
4 40 70 9 99
5 90 23 49 87 67
5 59 17 80 1 86
3 91 34 85
5 35 58 69 81 54
8 3 12 44 21 64 79 96 6
4 55 4 8 26
6 19 33 77 74 20 0
5 30 43 5 15 84
6 38 52 61 65 41 95
4 46 73 11 53
4 37 47 93 13
7 62 68 16 14 72 56 24
6 94 82 18 36 97 32
4 60 48 88 27
5 10 63 78 7 39
5 50 57 42 25 29
2 28 75
6 98 31 66 45 2 92
6 89 51 83 76 71 22

Total makespan: 70

