30
3 48 39 57
5 61 27 76 51 12
2 83 16
3 88 68 23
3 97 77 70
4 64 87 93 35
1 72
4 84 62 73 6
4 20 3 60 86
4 75 29 79 32
2 45 71
3 58 42 92
3 5 67 15
3 19 50 9
3 34 91 30
2 17 4
4 7 81 49 14
5 21 28 85 25 13
4 66 47 38 98
3 31 1 33
3 46 94 82
3 22 0 40
3 96 90 56
2 95 80
4 53 10 24 74
5 36 18 99 11 43
5 55 89 52 26 2
2 41 59
4 63 37 8 44
4 69 78 54 65

Total makespan: 41

30
3 48 39 57
5 61 27 76 51 12
2 83 16
3 88 68 23
3 97 77 70
4 64 87 93 35
1 72
4 84 62 73 6
4 20 3 60 86
4 75 29 79 32
2 45 71
3 58 42 92
3 5 67 15
3 19 50 9
3 34 91 30
2 17 4
4 7 81 49 14
5 21 28 85 25 13
4 66 47 38 98
3 31 1 33
3 46 94 82
3 22 0 40
3 96 90 56
2 95 80
4 53 10 24 74
5 36 18 99 11 43
5 55 89 52 26 2
2 41 59
4 63 37 8 44
4 69 78 54 65

Total makespan: 41

