25
5 94 25 63 48 21
4 91 41 88 82
4 98 31 23 11
4 76 95 29 40
5 26 99 17 45 37
4 67 4 24 87
3 80 89 71
3 75 55 28
3 96 57 74
4 8 56 59 34
4 70 97 16 83
4 42 86 18 65
4 14 20 22 90
5 15 2 46 44 5
5 27 78 77 72 73
4 35 30 60 93
4 38 79 53 51
4 3 19 36 39
4 66 1 0 12
5 9 13 7 64 54
3 52 6 47
3 62 43 58
4 68 84 85 32
4 92 61 33 69
4 10 81 49 50

Total makespan: 55

25
5 94 25 63 48 21
4 91 41 88 82
4 98 31 23 11
4 76 95 29 40
5 26 99 17 45 37
4 67 4 24 87
3 80 89 71
3 75 55 28
3 96 57 74
4 8 56 59 34
4 70 97 16 83
4 42 86 18 65
4 14 20 22 90
5 15 2 46 44 5
5 27 78 77 72 73
4 35 30 60 93
4 38 79 53 51
4 3 19 36 39
4 66 1 0 12
5 9 13 7 64 54
3 52 6 47
3 62 43 58
4 68 84 85 32
4 92 61 33 69
4 10 81 49 50

Total makespan: 55

