30
4 86 31 57 29
3 38 61 9
3 75 39 71
3 10 66 42
4 74 25 16 4
4 44 64 82 17
4 30 55 65 68
3 36 15 81
4 41 46 19 47
4 78 37 95 23
5 80 51 7 33 43
5 54 92 35 93 96
3 58 87 52
3 6 79 67
2 98 1
2 63 3
3 72 2 40
3 18 34 45
2 88 94
3 62 14 90
4 13 26 21 73
3 50 22 12
2 20 28
3 60 89 24
4 70 53 83 49
3 32 27 11
2 8 84
4 97 0 5 99
4 56 85 48 91
4 76 77 69 59

Total makespan: 42

30
4 86 31 57 29
3 38 61 9
3 75 39 71
3 10 66 42
4 74 25 16 4
4 44 64 82 17
4 30 55 65 68
3 36 15 81
4 41 46 19 47
4 78 37 95 23
5 80 51 7 33 43
5 54 92 35 93 96
3 58 87 52
3 6 79 67
2 98 1
2 63 3
3 72 2 40
3 18 34 45
2 88 94
3 62 14 90
4 13 26 21 73
3 50 22 12
2 20 28
3 60 89 24
4 70 53 83 49
3 32 27 11
2 8 84
4 97 0 5 99
4 56 85 48 91
4 76 77 69 59

Total makespan: 42

