25
4 37 41 57 49
5 84 99 94 67 50
3 43 10 75
4 1 36 18 52
2 47 93
3 4 96 39
4 69 35 97 44
4 98 0 68 7
6 48 33 40 2 11 34
5 70 28 88 45 16
4 92 8 80 81
3 65 51 53
4 95 14 62 66
5 17 12 86 26 42
5 3 9 79 76 31
3 22 15 59
4 25 64 61 19
3 58 87 6
7 71 30 89 13 46 23 21
2 83 60
4 90 73 27 72
3 85 74 5
4 82 77 54 29
5 56 20 38 24 32
4 91 55 78 63

Total makespan: 28

25
4 37 41 57 49
5 84 99 94 67 50
3 43 10 75
4 1 36 18 52
2 47 93
3 4 96 39
4 69 35 97 44
4 98 0 68 7
6 48 33 40 2 11 34
5 70 28 88 45 16
4 92 8 80 81
3 65 51 53
4 95 14 62 66
5 17 12 86 26 42
5 3 9 79 76 31
3 22 15 59
4 25 64 61 19
3 58 87 6
7 71 30 89 13 46 23 21
2 83 60
4 90 73 27 72
3 85 74 5
4 82 77 54 29
5 56 20 38 24 32
4 91 55 78 63

Total makespan: 28

25
4 37 41 57 49
5 84 99 94 67 50
3 43 10 75
4 1 36 18 52
2 47 93
3 4 96 39
4 69 35 97 44
4 98 0 68 7
6 48 33 40 2 11 34
5 70 28 88 45 16
4 92 8 80 81
3 65 51 53
4 95 14 62 66
5 17 12 86 26 42
5 3 9 79 76 31
3 22 15 59
4 25 64 61 19
3 58 87 6
7 71 30 89 13 46 23 21
2 83 60
4 90 73 27 72
3 85 74 5
4 82 77 54 29
5 56 20 38 24 32
4 91 55 78 63

Total makespan: 28

