20
5 36 66 17 6 22
5 60 48 46 82 14
3 83 94 45
3 23 86 13
4 49 68 9 67
5 24 20 95 63 58
6 11 97 39 51 21 78
6 71 96 98 40 76 25
5 90 57 37 79 29
6 38 54 8 75 15 19
6 59 91 44 41 74 64
4 55 89 3 42
4 73 81 77 27
5 70 69 65 7 31
5 53 85 30 50 99
6 10 84 80 43 4 87
6 61 56 12 28 1 26
6 88 92 2 93 5 0
7 34 47 35 62 32 72 52
3 16 33 18

Total makespan: 54

20
5 36 66 17 6 22
5 60 48 46 82 14
3 83 94 45
3 23 86 13
4 49 68 9 67
5 24 20 95 63 58
6 11 97 39 51 21 78
6 71 96 98 40 76 25
5 90 57 37 79 29
6 38 54 8 75 15 19
6 59 91 44 41 74 64
4 55 89 3 42
4 73 81 77 27
5 70 69 65 7 31
5 53 85 30 50 99
6 10 84 80 43 4 87
6 61 56 12 28 1 26
6 88 92 2 93 5 0
7 34 47 35 62 32 72 52
3 16 33 18

Total makespan: 54

