25
3 20 33 51
4 14 56 29 30
5 7 79 93 26 74
5 25 32 38 99 83
3 72 65 34
4 19 11 75 61
4 54 92 1 68
4 9 8 76 87
5 31 85 73 27 64
4 44 57 77 78
7 36 24 49 89 21 84 80
5 6 13 18 28 46
4 97 0 88 98
5 81 66 15 70 69
4 48 22 95 5
2 40 96
4 12 71 23 43
4 53 41 94 16
5 60 10 17 91 47
3 35 42 58
3 59 45 39
3 63 67 3
2 55 2
4 82 50 90 37
4 86 62 4 52

Total makespan: 45

25
3 20 33 51
4 14 56 29 30
5 7 79 93 26 74
5 25 32 38 99 83
3 72 65 34
4 19 11 75 61
4 54 92 1 68
4 9 8 76 87
5 31 85 73 27 64
4 44 57 77 78
7 36 24 49 89 21 84 80
5 6 13 18 28 46
4 97 0 88 98
5 81 66 15 70 69
4 48 22 95 5
2 40 96
4 12 71 23 43
4 53 41 94 16
5 60 10 17 91 47
3 35 42 58
3 59 45 39
3 63 67 3
2 55 2
4 82 50 90 37
4 86 62 4 52

Total makespan: 45

