25
4 96 5 98 29
3 25 47 64
6 33 58 0 85 68 6
4 26 79 63 94
5 57 28 52 74 67
3 2 42 20
3 18 51 1
3 45 41 54
3 21 75 60
3 38 12 39
6 16 35 44 17 50 62
4 72 27 80 4
5 66 90 78 93 14
5 49 82 34 88 11
5 23 70 31 76 61
3 10 13 36
5 37 86 71 69 84
3 65 22 24
3 83 43 7
6 32 46 40 97 95 92
4 30 87 48 55
4 73 19 89 53
4 3 77 91 81
4 15 99 59 56
2 9 8

Total makespan: 41

25
4 96 5 98 29
3 25 47 64
6 33 58 0 85 68 6
4 26 79 63 94
5 57 28 52 74 67
3 2 42 20
3 18 51 1
3 45 41 54
3 21 75 60
3 38 12 39
6 16 35 44 17 50 62
4 72 27 80 4
5 66 90 78 93 14
5 49 82 34 88 11
5 23 70 31 76 61
3 10 13 36
5 37 86 71 69 84
3 65 22 24
3 83 43 7
6 32 46 40 97 95 92
4 30 87 48 55
4 73 19 89 53
4 3 77 91 81
4 15 99 59 56
2 9 8

Total makespan: 41

