20
4 15 38 4 9
6 54 80 52 32 70 35
5 6 84 24 44 85
5 7 74 51 8 86
4 60 40 83 2
4 98 82 95 99
3 59 90 68
6 73 20 25 43 65 46
7 62 12 49 69 27 93 50
5 92 41 72 10 13
6 34 77 14 17 75 96
6 88 94 29 36 23 28
4 42 18 64 78
4 31 91 61 5
5 21 81 87 97 63
2 66 56
4 48 3 45 37
5 33 76 16 71 47
6 89 67 26 79 55 19
9 53 1 22 58 11 39 30 57 0

Total makespan: 41

20
4 15 38 4 9
6 54 80 52 32 70 35
5 6 84 24 44 85
5 7 74 51 8 86
4 60 40 83 2
4 98 82 95 99
3 59 90 68
6 73 20 25 43 65 46
7 62 12 49 69 27 93 50
5 92 41 72 10 13
6 34 77 14 17 75 96
6 88 94 29 36 23 28
4 42 18 64 78
4 31 91 61 5
5 21 81 87 97 63
2 66 56
4 48 3 45 37
5 33 76 16 71 47
6 89 67 26 79 55 19
9 53 1 22 58 11 39 30 57 0

Total makespan: 41

