25
3 14 42 93
5 53 29 83 84 21
3 97 41 52
3 78 58 92
3 23 27 13
4 70 3 80 17
5 89 33 26 32 54
3 24 44 2
3 82 68 4
3 12 81 63
3 34 51 40
4 75 9 5 30
5 1 10 90 36 77
2 94 66
3 73 86 64
5 28 74 57 35 96
6 11 72 55 79 76 47
5 46 37 65 19 39
5 20 7 38 25 88
3 60 43 85
3 6 87 62
6 15 91 59 16 95 61
6 22 18 50 48 98 99
4 31 0 56 49
5 71 45 69 67 8

Total makespan: 57

25
3 14 42 93
5 53 29 83 84 21
3 97 41 52
3 78 58 92
3 23 27 13
4 70 3 80 17
5 89 33 26 32 54
3 24 44 2
3 82 68 4
3 12 81 63
3 34 51 40
4 75 9 5 30
5 1 10 90 36 77
2 94 66
3 73 86 64
5 28 74 57 35 96
6 11 72 55 79 76 47
5 46 37 65 19 39
5 20 7 38 25 88
3 60 43 85
3 6 87 62
6 15 91 59 16 95 61
6 22 18 50 48 98 99
4 31 0 56 49
5 71 45 69 67 8

Total makespan: 57

25
3 14 42 93
5 53 29 83 84 21
3 97 41 52
3 78 58 92
3 23 27 13
4 70 3 80 17
5 89 33 26 32 54
3 24 44 2
3 82 68 4
3 12 81 63
3 34 51 40
4 75 9 5 30
5 1 10 90 36 77
2 94 66
3 73 86 64
5 28 74 57 35 96
6 11 72 55 79 76 47
5 46 37 65 19 39
5 20 7 38 25 88
3 60 43 85
3 6 87 62
6 15 91 59 16 95 61
6 22 18 50 48 98 99
4 31 0 56 49
5 71 45 69 67 8

Total makespan: 57

