25
5 1 77 67 73 20
3 11 9 79
3 62 22 87
4 4 43 54 37
3 7 99 65
4 13 69 48 76
4 6 90 47 52
4 16 85 78 81
4 38 66 27 93
3 28 25 59
3 36 68 34
6 10 74 15 64 44 82
5 83 97 56 33 32
6 5 58 23 63 0 17
2 96 70
6 98 30 14 42 84 40
2 53 39
4 80 19 21 46
3 26 72 61
4 89 2 49 51
6 24 57 8 60 95 55
5 35 71 92 86 88
5 91 75 12 31 29
2 41 94
4 45 18 50 3

Total makespan: 50

25
5 1 77 67 73 20
3 11 9 79
3 62 22 87
4 4 43 54 37
3 7 99 65
4 13 69 48 76
4 6 90 47 52
4 16 85 78 81
4 38 66 27 93
3 28 25 59
3 36 68 34
6 10 74 15 64 44 82
5 83 97 56 33 32
6 5 58 23 63 0 17
2 96 70
6 98 30 14 42 84 40
2 53 39
4 80 19 21 46
3 26 72 61
4 89 2 49 51
6 24 57 8 60 95 55
5 35 71 92 86 88
5 91 75 12 31 29
2 41 94
4 45 18 50 3

Total makespan: 50

25
5 1 77 67 73 20
3 11 9 79
3 62 22 87
4 4 43 54 37
3 7 99 65
4 13 69 48 76
4 6 90 47 52
4 16 85 78 81
4 38 66 27 93
3 28 25 59
3 36 68 34
6 10 74 15 64 44 82
5 83 97 56 33 32
6 5 58 23 63 0 17
2 96 70
6 98 30 14 42 84 40
2 53 39
4 80 19 21 46
3 26 72 61
4 89 2 49 51
6 24 57 8 60 95 55
5 35 71 92 86 88
5 91 75 12 31 29
2 41 94
4 45 18 50 3

Total makespan: 50

