20
7 38 59 5 4 48 13 56
4 67 8 70 44
6 29 94 93 35 78 42
7 65 12 2 90 11 74 89
5 31 43 81 84 62
7 98 25 18 24 49 57 36
4 80 50 83 7
1 92
4 63 77 1 41
5 75 53 10 33 15
7 39 79 16 54 17 37 23
5 34 3 64 82 71
8 87 28 14 96 99 86 20 9
6 85 95 55 91 73 26
4 0 30 51 47
4 60 6 52 88
5 68 46 58 32 61
3 21 76 22
3 45 66 69
5 19 72 27 40 97

Total makespan: 43

20
7 38 59 5 4 48 13 56
4 67 8 70 44
6 29 94 93 35 78 42
7 65 12 2 90 11 74 89
5 31 43 81 84 62
7 98 25 18 24 49 57 36
4 80 50 83 7
1 92
4 63 77 1 41
5 75 53 10 33 15
7 39 79 16 54 17 37 23
5 34 3 64 82 71
8 87 28 14 96 99 86 20 9
6 85 95 55 91 73 26
4 0 30 51 47
4 60 6 52 88
5 68 46 58 32 61
3 21 76 22
3 45 66 69
5 19 72 27 40 97

Total makespan: 43

20
7 38 59 5 4 48 13 56
4 67 8 70 44
6 29 94 93 35 78 42
7 65 12 2 90 11 74 89
5 31 43 81 84 62
7 98 25 18 24 49 57 36
4 80 50 83 7
1 92
4 63 77 1 41
5 75 53 10 33 15
7 39 79 16 54 17 37 23
5 34 3 64 82 71
8 87 28 14 96 99 86 20 9
6 85 95 55 91 73 26
4 0 30 51 47
4 60 6 52 88
5 68 46 58 32 61
3 21 76 22
3 45 66 69
5 19 72 27 40 97

Total makespan: 43

