25
5 56 25 85 80 59
3 84 73 18
5 64 21 78 99 86
4 94 42 50 87
5 93 69 15 10 27
5 57 37 44 81 68
2 90 49
3 24 4 3
4 54 83 31 43
3 9 17 63
4 51 60 35 14
5 66 48 98 40 79
3 75 96 74
2 13 28
2 52 16
3 97 6 0
3 23 82 70
8 61 1 12 76 19 67 5 34
5 7 36 26 8 65
4 41 30 29 91
5 39 47 11 92 45
4 38 71 2 55
5 89 62 95 33 22
5 58 53 72 77 46
3 20 88 32

Total makespan: 56

25
5 56 25 85 80 59
3 84 73 18
5 64 21 78 99 86
4 94 42 50 87
5 93 69 15 10 27
5 57 37 44 81 68
2 90 49
3 24 4 3
4 54 83 31 43
3 9 17 63
4 51 60 35 14
5 66 48 98 40 79
3 75 96 74
2 13 28
2 52 16
3 97 6 0
3 23 82 70
8 61 1 12 76 19 67 5 34
5 7 36 26 8 65
4 41 30 29 91
5 39 47 11 92 45
4 38 71 2 55
5 89 62 95 33 22
5 58 53 72 77 46
3 20 88 32

Total makespan: 56

