15
6 82 71 28 25 73 24
6 17 14 62 54 67 57
4 79 68 94 78
6 90 66 60 44 37 43
9 61 20 80 13 0 3 58 64 41
6 29 47 19 87 99 97
6 18 27 72 11 51 55
5 63 84 83 69 42
9 32 45 95 89 1 91 93 75 48
5 50 38 85 33 31
7 46 6 36 96 12 52 34
7 77 10 98 15 5 88 65
11 49 53 22 39 30 40 9 21 35 74 92
6 23 59 7 16 56 76
7 2 81 70 86 4 8 26

Total makespan: 108

15
6 82 71 28 25 73 24
6 17 14 62 54 67 57
4 79 68 94 78
6 90 66 60 44 37 43
9 61 20 80 13 0 3 58 64 41
6 29 47 19 87 99 97
6 18 27 72 11 51 55
5 63 84 83 69 42
9 32 45 95 89 1 91 93 75 48
5 50 38 85 33 31
7 46 6 36 96 12 52 34
7 77 10 98 15 5 88 65
11 49 53 22 39 30 40 9 21 35 74 92
6 23 59 7 16 56 76
7 2 81 70 86 4 8 26

Total makespan: 108

15
6 82 71 28 25 73 24
6 17 14 62 54 67 57
4 79 68 94 78
6 90 66 60 44 37 43
9 61 20 80 13 0 3 58 64 41
6 29 47 19 87 99 97
6 18 27 72 11 51 55
5 63 84 83 69 42
9 32 45 95 89 1 91 93 75 48
5 50 38 85 33 31
7 46 6 36 96 12 52 34
7 77 10 98 15 5 88 65
11 49 53 22 39 30 40 9 21 35 74 92
6 23 59 7 16 56 76
7 2 81 70 86 4 8 26

Total makespan: 108

