15
10 79 59 117 144 38 73 45 123 21 41
9 36 134 109 103 33 121 76 39 9
9 7 120 55 112 148 80 137 131 128
13 70 94 149 99 108 97 37 42 72 77 85 122 11
6 126 25 50 3 20 4
11 52 61 19 145 12 98 129 67 65 54 6
10 16 96 116 44 31 111 57 28 132 63
11 66 26 125 64 110 48 22 51 100 23 46
12 124 18 0 93 83 142 95 101 147 32 140 82
10 78 127 89 29 102 105 43 49 30 136
8 53 143 71 135 119 13 74 130
10 47 133 27 15 56 106 91 24 40 114
8 5 107 113 141 90 68 75 81
12 62 139 34 92 1 146 115 17 35 88 8 2
11 58 87 60 14 10 69 84 86 118 104 138

Total makespan: 158

15
10 79 59 117 144 38 73 45 123 21 41
9 36 134 109 103 33 121 76 39 9
9 7 120 55 112 148 80 137 131 128
13 70 94 149 99 108 97 37 42 72 77 85 122 11
6 126 25 50 3 20 4
11 52 61 19 145 12 98 129 67 65 54 6
10 16 96 116 44 31 111 57 28 132 63
11 66 26 125 64 110 48 22 51 100 23 46
12 124 18 0 93 83 142 95 101 147 32 140 82
10 78 127 89 29 102 105 43 49 30 136
8 53 143 71 135 119 13 74 130
10 47 133 27 15 56 106 91 24 40 114
8 5 107 113 141 90 68 75 81
12 62 139 34 92 1 146 115 17 35 88 8 2
11 58 87 60 14 10 69 84 86 118 104 138

Total makespan: 158

15
10 79 59 117 144 38 73 45 123 21 41
9 36 134 109 103 33 121 76 39 9
9 7 120 55 112 148 80 137 131 128
13 70 94 149 99 108 97 37 42 72 77 85 122 11
6 126 25 50 3 20 4
11 52 61 19 145 12 98 129 67 65 54 6
10 16 96 116 44 31 111 57 28 132 63
11 66 26 125 64 110 48 22 51 100 23 46
12 124 18 0 93 83 142 95 101 147 32 140 82
10 78 127 89 29 102 105 43 49 30 136
8 53 143 71 135 119 13 74 130
10 47 133 27 15 56 106 91 24 40 114
8 5 107 113 141 90 68 75 81
12 62 139 34 92 1 146 115 17 35 88 8 2
11 58 87 60 14 10 69 84 86 118 104 138

Total makespan: 158

