25
5 0 142 14 59 44
6 110 55 123 36 58 65
11 137 12 89 5 17 145 2 25 11 31 7
8 120 78 35 34 130 48 149 71
5 74 136 15 118 104
5 106 53 93 146 56
7 85 128 67 109 84 134 90
6 16 132 97 102 114 20
4 72 32 121 107
7 133 111 113 76 26 83 37
5 68 62 124 94 108
4 70 1 141 69
6 21 43 52 115 122 86
6 88 129 10 126 42 63
6 98 87 29 49 139 30
5 95 61 27 138 3
5 9 112 4 23 117
5 24 64 73 81 18
6 60 116 147 91 38 39
5 140 96 40 75 79
8 144 77 28 51 13 131 54 22
7 143 105 41 45 125 101 8
7 103 80 148 100 6 46 19
6 119 33 127 47 66 92
5 82 57 135 50 99

Total makespan: 77

25
5 0 142 14 59 44
6 110 55 123 36 58 65
11 137 12 89 5 17 145 2 25 11 31 7
8 120 78 35 34 130 48 149 71
5 74 136 15 118 104
5 106 53 93 146 56
7 85 128 67 109 84 134 90
6 16 132 97 102 114 20
4 72 32 121 107
7 133 111 113 76 26 83 37
5 68 62 124 94 108
4 70 1 141 69
6 21 43 52 115 122 86
6 88 129 10 126 42 63
6 98 87 29 49 139 30
5 95 61 27 138 3
5 9 112 4 23 117
5 24 64 73 81 18
6 60 116 147 91 38 39
5 140 96 40 75 79
8 144 77 28 51 13 131 54 22
7 143 105 41 45 125 101 8
7 103 80 148 100 6 46 19
6 119 33 127 47 66 92
5 82 57 135 50 99

Total makespan: 77

25
5 0 142 14 59 44
6 110 55 123 36 58 65
11 137 12 89 5 17 145 2 25 11 31 7
8 120 78 35 34 130 48 149 71
5 74 136 15 118 104
5 106 53 93 146 56
7 85 128 67 109 84 134 90
6 16 132 97 102 114 20
4 72 32 121 107
7 133 111 113 76 26 83 37
5 68 62 124 94 108
4 70 1 141 69
6 21 43 52 115 122 86
6 88 129 10 126 42 63
6 98 87 29 49 139 30
5 95 61 27 138 3
5 9 112 4 23 117
5 24 64 73 81 18
6 60 116 147 91 38 39
5 140 96 40 75 79
8 144 77 28 51 13 131 54 22
7 143 105 41 45 125 101 8
7 103 80 148 100 6 46 19
6 119 33 127 47 66 92
5 82 57 135 50 99

Total makespan: 77

