20
7 18 51 71 24 133 128 129
7 37 99 121 106 8 21 5
7 47 91 12 89 98 97 81
8 58 125 92 72 135 43 17 55
6 108 82 124 105 73 1
7 49 45 4 30 107 53 6
9 102 119 77 101 31 52 79 140 14
6 23 61 78 15 104 59
10 60 127 132 130 87 75 115 80 120 138
8 44 141 9 117 148 50 27 74
7 19 7 122 114 109 64 76
6 131 67 94 11 2 70
8 48 139 123 54 134 112 137 38
8 144 22 41 69 28 34 35 68
10 149 66 84 110 96 126 10 57 83 3
9 13 93 103 90 26 143 136 16 116
7 40 145 32 85 142 146 118
6 42 86 36 25 95 33
7 20 62 56 39 88 0 111
7 46 100 147 113 29 63 65

Total makespan: 99

20
7 18 51 71 24 133 128 129
7 37 99 121 106 8 21 5
7 47 91 12 89 98 97 81
8 58 125 92 72 135 43 17 55
6 108 82 124 105 73 1
7 49 45 4 30 107 53 6
9 102 119 77 101 31 52 79 140 14
6 23 61 78 15 104 59
10 60 127 132 130 87 75 115 80 120 138
8 44 141 9 117 148 50 27 74
7 19 7 122 114 109 64 76
6 131 67 94 11 2 70
8 48 139 123 54 134 112 137 38
8 144 22 41 69 28 34 35 68
10 149 66 84 110 96 126 10 57 83 3
9 13 93 103 90 26 143 136 16 116
7 40 145 32 85 142 146 118
6 42 86 36 25 95 33
7 20 62 56 39 88 0 111
7 46 100 147 113 29 63 65

Total makespan: 99

20
7 18 51 71 24 133 128 129
7 37 99 121 106 8 21 5
7 47 91 12 89 98 97 81
8 58 125 92 72 135 43 17 55
6 108 82 124 105 73 1
7 49 45 4 30 107 53 6
9 102 119 77 101 31 52 79 140 14
6 23 61 78 15 104 59
10 60 127 132 130 87 75 115 80 120 138
8 44 141 9 117 148 50 27 74
7 19 7 122 114 109 64 76
6 131 67 94 11 2 70
8 48 139 123 54 134 112 137 38
8 144 22 41 69 28 34 35 68
10 149 66 84 110 96 126 10 57 83 3
9 13 93 103 90 26 143 136 16 116
7 40 145 32 85 142 146 118
6 42 86 36 25 95 33
7 20 62 56 39 88 0 111
7 46 100 147 113 29 63 65

Total makespan: 99

