25
8 51 146 44 11 25 26 38 110
8 147 100 107 145 91 21 116 63
6 109 104 79 83 28 134
5 7 58 15 132 22
9 48 94 32 62 102 23 9 133 98
4 55 49 20 82
7 111 75 17 16 30 90 86
6 131 41 80 101 73 14
7 66 143 53 99 117 149 10
4 144 125 105 29
4 52 124 114 92
5 3 139 36 65 72
5 74 81 108 85 64
7 122 37 89 121 137 54 13
9 61 39 87 67 60 77 115 126 69
6 138 84 46 136 40 4
7 113 93 140 135 47 127 31
5 88 18 123 43 57
6 24 33 76 112 35 19
5 6 106 8 1 78
6 103 120 96 68 27 130
6 56 34 70 148 95 142
5 119 42 0 5 59
5 97 129 50 12 128
5 2 71 45 118 141

Total makespan: 53

25
8 51 146 44 11 25 26 38 110
8 147 100 107 145 91 21 116 63
6 109 104 79 83 28 134
5 7 58 15 132 22
9 48 94 32 62 102 23 9 133 98
4 55 49 20 82
7 111 75 17 16 30 90 86
6 131 41 80 101 73 14
7 66 143 53 99 117 149 10
4 144 125 105 29
4 52 124 114 92
5 3 139 36 65 72
5 74 81 108 85 64
7 122 37 89 121 137 54 13
9 61 39 87 67 60 77 115 126 69
6 138 84 46 136 40 4
7 113 93 140 135 47 127 31
5 88 18 123 43 57
6 24 33 76 112 35 19
5 6 106 8 1 78
6 103 120 96 68 27 130
6 56 34 70 148 95 142
5 119 42 0 5 59
5 97 129 50 12 128
5 2 71 45 118 141

Total makespan: 53

