25
4 23 38 44 129
5 147 126 68 62 9
7 125 103 105 78 8 14 76
7 27 42 118 143 141 24 46
5 89 130 86 146 63
6 31 26 113 134 4 12
4 95 145 48 5
5 112 107 111 87 97
8 102 79 139 94 39 36 30 142
6 110 121 91 55 50 100
8 21 123 47 138 53 3 77 96
8 17 90 109 116 106 122 35 34
7 20 59 135 41 104 69 71
5 149 99 132 136 18
4 57 19 0 114
6 82 25 81 85 58 13
4 6 101 22 108
5 84 83 28 16 124
7 70 133 7 117 148 51 61
7 98 54 52 37 131 120 49
5 56 119 2 40 137
5 74 93 15 29 115
6 140 67 45 1 43 127
9 73 60 64 128 92 65 10 32 11
7 75 88 33 80 72 144 66

Total makespan: 71

25
4 23 38 44 129
5 147 126 68 62 9
7 125 103 105 78 8 14 76
7 27 42 118 143 141 24 46
5 89 130 86 146 63
6 31 26 113 134 4 12
4 95 145 48 5
5 112 107 111 87 97
8 102 79 139 94 39 36 30 142
6 110 121 91 55 50 100
8 21 123 47 138 53 3 77 96
8 17 90 109 116 106 122 35 34
7 20 59 135 41 104 69 71
5 149 99 132 136 18
4 57 19 0 114
6 82 25 81 85 58 13
4 6 101 22 108
5 84 83 28 16 124
7 70 133 7 117 148 51 61
7 98 54 52 37 131 120 49
5 56 119 2 40 137
5 74 93 15 29 115
6 140 67 45 1 43 127
9 73 60 64 128 92 65 10 32 11
7 75 88 33 80 72 144 66

Total makespan: 71

