20
9 62 116 71 56 31 35 131 101 54
11 135 75 88 89 117 77 69 39 78 19 53
8 100 99 41 80 103 73 106 28
10 126 7 85 138 122 70 74 98 130 24
6 23 55 145 94 42 45
5 72 142 40 15 14
6 137 148 115 139 18 21
9 92 44 30 38 119 36 33 79 48
6 6 27 67 26 143 29
9 20 3 123 65 17 43 61 96 60
7 32 146 34 84 136 114 134
10 95 16 68 52 8 128 111 90 13 110
6 149 97 25 46 4 141
6 11 86 109 105 64 140
6 121 10 9 76 51 147
8 120 0 47 12 37 107 108 104
7 50 66 127 63 91 124 118
7 112 133 59 1 2 129 22
6 132 82 57 5 125 83
8 113 49 58 87 102 81 93 144

Total makespan: 52

20
9 62 116 71 56 31 35 131 101 54
11 135 75 88 89 117 77 69 39 78 19 53
8 100 99 41 80 103 73 106 28
10 126 7 85 138 122 70 74 98 130 24
6 23 55 145 94 42 45
5 72 142 40 15 14
6 137 148 115 139 18 21
9 92 44 30 38 119 36 33 79 48
6 6 27 67 26 143 29
9 20 3 123 65 17 43 61 96 60
7 32 146 34 84 136 114 134
10 95 16 68 52 8 128 111 90 13 110
6 149 97 25 46 4 141
6 11 86 109 105 64 140
6 121 10 9 76 51 147
8 120 0 47 12 37 107 108 104
7 50 66 127 63 91 124 118
7 112 133 59 1 2 129 22
6 132 82 57 5 125 83
8 113 49 58 87 102 81 93 144

Total makespan: 52

