20
8 69 49 97 96 25 11 126 70
6 120 8 13 134 59 12
8 130 51 142 104 34 84 122 127
6 50 148 87 135 145 36
7 74 143 93 138 14 147 112
6 7 52 78 124 40 128
7 44 38 37 109 16 125 146
6 71 5 61 83 22 62
6 29 133 107 17 73 39
7 26 2 136 23 116 141 28
9 132 81 105 57 35 123 103 82 55
9 31 144 4 42 21 10 79 60 101
9 80 56 98 99 27 58 140 67 41
9 129 114 139 6 95 94 54 53 75
7 121 111 85 9 119 76 137
7 102 100 15 32 113 89 115
6 77 92 86 106 33 110
7 30 1 3 20 149 47 90
11 18 45 24 66 72 65 48 131 118 63 88
9 19 64 0 91 68 43 117 108 46

Total makespan: 101

20
8 69 49 97 96 25 11 126 70
6 120 8 13 134 59 12
8 130 51 142 104 34 84 122 127
6 50 148 87 135 145 36
7 74 143 93 138 14 147 112
6 7 52 78 124 40 128
7 44 38 37 109 16 125 146
6 71 5 61 83 22 62
6 29 133 107 17 73 39
7 26 2 136 23 116 141 28
9 132 81 105 57 35 123 103 82 55
9 31 144 4 42 21 10 79 60 101
9 80 56 98 99 27 58 140 67 41
9 129 114 139 6 95 94 54 53 75
7 121 111 85 9 119 76 137
7 102 100 15 32 113 89 115
6 77 92 86 106 33 110
7 30 1 3 20 149 47 90
11 18 45 24 66 72 65 48 131 118 63 88
9 19 64 0 91 68 43 117 108 46

Total makespan: 101

20
8 69 49 97 96 25 11 126 70
6 120 8 13 134 59 12
8 130 51 142 104 34 84 122 127
6 50 148 87 135 145 36
7 74 143 93 138 14 147 112
6 7 52 78 124 40 128
7 44 38 37 109 16 125 146
6 71 5 61 83 22 62
6 29 133 107 17 73 39
7 26 2 136 23 116 141 28
9 132 81 105 57 35 123 103 82 55
9 31 144 4 42 21 10 79 60 101
9 80 56 98 99 27 58 140 67 41
9 129 114 139 6 95 94 54 53 75
7 121 111 85 9 119 76 137
7 102 100 15 32 113 89 115
6 77 92 86 106 33 110
7 30 1 3 20 149 47 90
11 18 45 24 66 72 65 48 131 118 63 88
9 19 64 0 91 68 43 117 108 46

Total makespan: 101

