15
12 25 4 38 130 117 135 37 10 111 46 21 58
13 73 148 133 22 39 65 99 33 132 54 108 97 106
9 82 126 142 11 29 6 34 85 93
13 51 26 9 23 2 120 41 28 47 79 13 50 8
9 30 116 42 92 139 40 105 144 45
9 70 14 101 88 129 27 114 91 147
10 5 128 149 59 100 3 35 48 36 83
9 134 94 20 16 109 69 140 64 112
10 62 67 119 72 145 63 76 138 121 125
11 77 136 55 74 43 18 61 53 66 0 127
9 24 104 84 131 81 60 17 113 19
11 95 68 143 124 107 49 141 15 98 44 137
8 102 115 52 56 12 110 78 146
9 57 7 89 118 80 96 90 71 123
8 31 86 32 75 103 122 87 1

Total makespan: 153

15
12 25 4 38 130 117 135 37 10 111 46 21 58
13 73 148 133 22 39 65 99 33 132 54 108 97 106
9 82 126 142 11 29 6 34 85 93
13 51 26 9 23 2 120 41 28 47 79 13 50 8
9 30 116 42 92 139 40 105 144 45
9 70 14 101 88 129 27 114 91 147
10 5 128 149 59 100 3 35 48 36 83
9 134 94 20 16 109 69 140 64 112
10 62 67 119 72 145 63 76 138 121 125
11 77 136 55 74 43 18 61 53 66 0 127
9 24 104 84 131 81 60 17 113 19
11 95 68 143 124 107 49 141 15 98 44 137
8 102 115 52 56 12 110 78 146
9 57 7 89 118 80 96 90 71 123
8 31 86 32 75 103 122 87 1

Total makespan: 153

15
12 25 4 38 130 117 135 37 10 111 46 21 58
13 73 148 133 22 39 65 99 33 132 54 108 97 106
9 82 126 142 11 29 6 34 85 93
13 51 26 9 23 2 120 41 28 47 79 13 50 8
9 30 116 42 92 139 40 105 144 45
9 70 14 101 88 129 27 114 91 147
10 5 128 149 59 100 3 35 48 36 83
9 134 94 20 16 109 69 140 64 112
10 62 67 119 72 145 63 76 138 121 125
11 77 136 55 74 43 18 61 53 66 0 127
9 24 104 84 131 81 60 17 113 19
11 95 68 143 124 107 49 141 15 98 44 137
8 102 115 52 56 12 110 78 146
9 57 7 89 118 80 96 90 71 123
8 31 86 32 75 103 122 87 1

Total makespan: 153

