15
13 0 25 102 142 17 132 31 91 71 43 146 22 47
10 58 119 94 51 149 97 29 52 34 101
5 63 121 14 68 90
11 144 24 20 86 36 83 110 82 38 87 12
7 42 131 136 62 141 127 37
9 3 118 69 15 61 115 39 19 116
10 55 84 59 100 113 4 145 137 23 135
11 111 33 108 67 129 81 96 65 140 126 13
14 60 79 18 147 57 16 8 138 148 41 56 10 103 64
11 114 130 50 80 106 6 117 27 48 21 46
10 93 35 89 123 77 107 74 44 88 70
9 28 104 120 54 133 5 109 75 11
7 105 45 40 30 73 98 143
12 2 92 95 85 112 66 7 76 134 26 99 9
11 139 122 128 1 125 124 32 72 53 78 49

Total makespan: 87

15
13 0 25 102 142 17 132 31 91 71 43 146 22 47
10 58 119 94 51 149 97 29 52 34 101
5 63 121 14 68 90
11 144 24 20 86 36 83 110 82 38 87 12
7 42 131 136 62 141 127 37
9 3 118 69 15 61 115 39 19 116
10 55 84 59 100 113 4 145 137 23 135
11 111 33 108 67 129 81 96 65 140 126 13
14 60 79 18 147 57 16 8 138 148 41 56 10 103 64
11 114 130 50 80 106 6 117 27 48 21 46
10 93 35 89 123 77 107 74 44 88 70
9 28 104 120 54 133 5 109 75 11
7 105 45 40 30 73 98 143
12 2 92 95 85 112 66 7 76 134 26 99 9
11 139 122 128 1 125 124 32 72 53 78 49

Total makespan: 87

