25
6 106 57 43 2 74 77
4 128 38 32 136
8 28 81 48 11 138 75 112 79
6 59 63 55 133 44 83
5 91 54 131 125 135
5 95 10 117 65 80
7 13 49 12 101 21 124 0
5 37 73 104 78 20
6 47 51 64 46 9 68
7 30 146 84 145 19 99 141
5 126 100 34 130 140
7 97 92 4 114 3 88 50
6 15 98 66 61 127 86
6 33 119 22 31 62 42
7 58 122 67 129 94 103 134
6 7 89 72 115 35 70
5 39 76 93 17 102
6 8 69 14 25 147 53
8 87 116 85 41 144 118 109 23
4 142 143 108 40
7 107 139 105 45 16 26 113
6 52 24 27 120 137 110
6 18 60 5 96 36 123
7 82 149 56 111 71 132 90
5 148 6 121 1 29

Total makespan: 61

25
6 106 57 43 2 74 77
4 128 38 32 136
8 28 81 48 11 138 75 112 79
6 59 63 55 133 44 83
5 91 54 131 125 135
5 95 10 117 65 80
7 13 49 12 101 21 124 0
5 37 73 104 78 20
6 47 51 64 46 9 68
7 30 146 84 145 19 99 141
5 126 100 34 130 140
7 97 92 4 114 3 88 50
6 15 98 66 61 127 86
6 33 119 22 31 62 42
7 58 122 67 129 94 103 134
6 7 89 72 115 35 70
5 39 76 93 17 102
6 8 69 14 25 147 53
8 87 116 85 41 144 118 109 23
4 142 143 108 40
7 107 139 105 45 16 26 113
6 52 24 27 120 137 110
6 18 60 5 96 36 123
7 82 149 56 111 71 132 90
5 148 6 121 1 29

Total makespan: 61

