30
4 19 34 56 27
4 48 140 114 9
6 36 81 134 43 79 139
7 58 132 33 11 63 99 148
5 77 137 69 131 141
4 39 104 108 14
6 144 31 3 103 88 24
3 7 53 146
6 96 32 44 30 111 72
4 8 42 49 98
4 37 35 52 102
4 125 123 119 18
5 2 95 83 65 16
5 92 67 59 126 113
5 110 136 62 50 46
3 0 26 25
7 41 94 45 68 112 29 75
7 76 128 121 122 73 57 5
6 74 20 54 147 106 80
5 10 120 47 61 60
7 38 15 135 105 90 17 87
5 91 93 66 138 1
4 107 13 115 82
3 101 133 40
5 143 78 12 89 117
6 100 86 129 118 97 55
4 6 109 71 130
5 21 70 124 28 149
7 22 23 116 4 51 64 84
4 142 127 145 85

Total makespan: 62

30
4 19 34 56 27
4 48 140 114 9
6 36 81 134 43 79 139
7 58 132 33 11 63 99 148
5 77 137 69 131 141
4 39 104 108 14
6 144 31 3 103 88 24
3 7 53 146
6 96 32 44 30 111 72
4 8 42 49 98
4 37 35 52 102
4 125 123 119 18
5 2 95 83 65 16
5 92 67 59 126 113
5 110 136 62 50 46
3 0 26 25
7 41 94 45 68 112 29 75
7 76 128 121 122 73 57 5
6 74 20 54 147 106 80
5 10 120 47 61 60
7 38 15 135 105 90 17 87
5 91 93 66 138 1
4 107 13 115 82
3 101 133 40
5 143 78 12 89 117
6 100 86 129 118 97 55
4 6 109 71 130
5 21 70 124 28 149
7 22 23 116 4 51 64 84
4 142 127 145 85

Total makespan: 62

30
4 19 34 56 27
4 48 140 114 9
6 36 81 134 43 79 139
7 58 132 33 11 63 99 148
5 77 137 69 131 141
4 39 104 108 14
6 144 31 3 103 88 24
3 7 53 146
6 96 32 44 30 111 72
4 8 42 49 98
4 37 35 52 102
4 125 123 119 18
5 2 95 83 65 16
5 92 67 59 126 113
5 110 136 62 50 46
3 0 26 25
7 41 94 45 68 112 29 75
7 76 128 121 122 73 57 5
6 74 20 54 147 106 80
5 10 120 47 61 60
7 38 15 135 105 90 17 87
5 91 93 66 138 1
4 107 13 115 82
3 101 133 40
5 143 78 12 89 117
6 100 86 129 118 97 55
4 6 109 71 130
5 21 70 124 28 149
7 22 23 116 4 51 64 84
4 142 127 145 85

Total makespan: 62

