30
4 121 20 65 63
4 74 96 82 88
5 55 85 52 46 41
7 66 76 26 72 33 117 48
6 143 30 144 101 27 128
5 35 17 22 114 44
6 14 145 97 78 28 71
6 57 9 53 91 124 113
4 36 80 49 24
6 50 68 23 147 100 136
3 8 81 13
3 115 102 111
7 146 98 86 12 83 132 39
8 103 11 141 59 56 109 5 133
8 18 125 67 54 107 106 137 42
3 93 31 47
2 16 51
5 122 15 3 1 73
4 38 58 95 64
6 34 87 29 140 94 70
6 123 119 37 90 116 110
4 0 21 69 84
4 45 108 43 118
5 112 25 6 142 127
4 99 92 19 79
4 40 120 131 105
4 61 138 104 2
7 7 75 148 134 60 139 126
6 130 4 129 89 149 10
4 32 135 77 62

Total makespan: 47

30
4 121 20 65 63
4 74 96 82 88
5 55 85 52 46 41
7 66 76 26 72 33 117 48
6 143 30 144 101 27 128
5 35 17 22 114 44
6 14 145 97 78 28 71
6 57 9 53 91 124 113
4 36 80 49 24
6 50 68 23 147 100 136
3 8 81 13
3 115 102 111
7 146 98 86 12 83 132 39
8 103 11 141 59 56 109 5 133
8 18 125 67 54 107 106 137 42
3 93 31 47
2 16 51
5 122 15 3 1 73
4 38 58 95 64
6 34 87 29 140 94 70
6 123 119 37 90 116 110
4 0 21 69 84
4 45 108 43 118
5 112 25 6 142 127
4 99 92 19 79
4 40 120 131 105
4 61 138 104 2
7 7 75 148 134 60 139 126
6 130 4 129 89 149 10
4 32 135 77 62

Total makespan: 47

