10
11 111 68 85 56 69 76 134 3 5 61 53
12 58 13 79 147 129 8 41 6 50 128 94 109
15 40 43 122 112 88 98 144 125 92 72 133 93 63 14 105
13 48 106 81 15 115 126 57 138 102 32 45 31 99
18 44 83 116 11 36 30 19 124 107 145 117 84 60 86 137 141 77 34
16 42 91 142 149 66 113 135 95 12 2 100 80 78 71 118 121
15 90 7 64 139 89 103 114 46 51 23 25 146 75 49 22
15 0 119 82 4 120 123 54 37 127 24 9 29 59 20 26
19 38 87 27 21 132 10 97 47 70 28 35 104 110 130 73 148 108 1 101
16 65 74 17 143 67 96 55 62 18 136 16 33 131 39 52 140

Total makespan: 261

10
11 111 68 85 56 69 76 134 3 5 61 53
12 58 13 79 147 129 8 41 6 50 128 94 109
15 40 43 122 112 88 98 144 125 92 72 133 93 63 14 105
13 48 106 81 15 115 126 57 138 102 32 45 31 99
18 44 83 116 11 36 30 19 124 107 145 117 84 60 86 137 141 77 34
16 42 91 142 149 66 113 135 95 12 2 100 80 78 71 118 121
15 90 7 64 139 89 103 114 46 51 23 25 146 75 49 22
15 0 119 82 4 120 123 54 37 127 24 9 29 59 20 26
19 38 87 27 21 132 10 97 47 70 28 35 104 110 130 73 148 108 1 101
16 65 74 17 143 67 96 55 62 18 136 16 33 131 39 52 140

Total makespan: 261

10
11 111 68 85 56 69 76 134 3 5 61 53
12 58 13 79 147 129 8 41 6 50 128 94 109
15 40 43 122 112 88 98 144 125 92 72 133 93 63 14 105
13 48 106 81 15 115 126 57 138 102 32 45 31 99
18 44 83 116 11 36 30 19 124 107 145 117 84 60 86 137 141 77 34
16 42 91 142 149 66 113 135 95 12 2 100 80 78 71 118 121
15 90 7 64 139 89 103 114 46 51 23 25 146 75 49 22
15 0 119 82 4 120 123 54 37 127 24 9 29 59 20 26
19 38 87 27 21 132 10 97 47 70 28 35 104 110 130 73 148 108 1 101
16 65 74 17 143 67 96 55 62 18 136 16 33 131 39 52 140

Total makespan: 261

