30
4 134 65 145 120
5 23 6 102 63 20
7 45 5 22 52 143 50 1
7 137 62 70 88 30 46 34
5 114 54 131 112 144
4 75 16 15 118
5 43 99 117 8 110
7 96 133 35 126 31 77 61
7 100 71 84 55 79 4 125
6 146 28 142 78 24 60
4 80 86 122 27
4 14 0 105 107
2 93 72
4 13 39 68 9
4 123 10 116 3
3 90 11 74
5 108 140 97 40 111
6 104 149 119 18 82 56
3 29 127 94
6 19 41 76 101 81 36
6 92 89 106 113 44 12
5 69 49 17 98 141
2 91 147
6 132 67 59 37 95 124
6 136 135 26 129 121 66
7 33 148 7 83 109 25 53
5 87 2 38 21 57
5 130 73 51 47 58
5 85 32 115 103 42
5 139 48 138 128 64

Total makespan: 33

30
4 134 65 145 120
5 23 6 102 63 20
7 45 5 22 52 143 50 1
7 137 62 70 88 30 46 34
5 114 54 131 112 144
4 75 16 15 118
5 43 99 117 8 110
7 96 133 35 126 31 77 61
7 100 71 84 55 79 4 125
6 146 28 142 78 24 60
4 80 86 122 27
4 14 0 105 107
2 93 72
4 13 39 68 9
4 123 10 116 3
3 90 11 74
5 108 140 97 40 111
6 104 149 119 18 82 56
3 29 127 94
6 19 41 76 101 81 36
6 92 89 106 113 44 12
5 69 49 17 98 141
2 91 147
6 132 67 59 37 95 124
6 136 135 26 129 121 66
7 33 148 7 83 109 25 53
5 87 2 38 21 57
5 130 73 51 47 58
5 85 32 115 103 42
5 139 48 138 128 64

Total makespan: 33

