30
3 139 82 68
6 10 4 73 101 25 79
3 41 122 48
5 26 124 117 111 106
4 64 1 140 2
5 105 128 57 72 107
6 21 96 119 90 143 58
5 98 44 116 146 15
7 53 89 145 39 123 49 29
5 136 93 102 129 76
5 54 22 95 121 109
6 99 43 46 94 112 32
7 75 135 6 38 115 127 16
5 84 70 80 31 47
5 0 33 50 104 138
3 34 62 87
6 23 74 85 17 59 133
6 110 36 118 9 130 12
5 141 7 71 61 13
5 100 97 55 40 103
5 137 3 52 77 5
6 8 88 20 14 63 83
5 132 18 27 92 134
3 113 142 147
4 56 67 11 28
3 19 131 114
7 65 37 91 35 149 148 86
5 66 51 45 81 24
5 69 78 60 120 30
5 144 42 126 108 125

Total makespan: 63

30
3 139 82 68
6 10 4 73 101 25 79
3 41 122 48
5 26 124 117 111 106
4 64 1 140 2
5 105 128 57 72 107
6 21 96 119 90 143 58
5 98 44 116 146 15
7 53 89 145 39 123 49 29
5 136 93 102 129 76
5 54 22 95 121 109
6 99 43 46 94 112 32
7 75 135 6 38 115 127 16
5 84 70 80 31 47
5 0 33 50 104 138
3 34 62 87
6 23 74 85 17 59 133
6 110 36 118 9 130 12
5 141 7 71 61 13
5 100 97 55 40 103
5 137 3 52 77 5
6 8 88 20 14 63 83
5 132 18 27 92 134
3 113 142 147
4 56 67 11 28
3 19 131 114
7 65 37 91 35 149 148 86
5 66 51 45 81 24
5 69 78 60 120 30
5 144 42 126 108 125

Total makespan: 63

