10
13 3 108 105 109 27 135 36 138 23 106 129 130 6
15 32 7 99 18 29 121 35 110 139 37 50 63 102 98 72
16 58 123 33 49 56 136 57 89 40 149 31 1 127 47 91 13
19 14 112 4 68 46 119 69 137 73 12 20 118 143 144 22 100 5 62 25
13 71 34 70 86 94 61 39 65 88 148 42 111 10
18 78 55 28 85 30 11 145 141 87 15 66 24 43 51 133 96 101 38
14 44 146 54 114 64 48 83 17 117 41 90 60 113 0
15 84 9 116 79 77 2 75 147 125 104 67 74 131 140 45
13 26 107 142 124 80 92 97 81 128 120 19 82 132
14 115 122 21 53 16 52 59 103 126 76 95 8 134 93

Total makespan: 206

10
13 3 108 105 109 27 135 36 138 23 106 129 130 6
15 32 7 99 18 29 121 35 110 139 37 50 63 102 98 72
16 58 123 33 49 56 136 57 89 40 149 31 1 127 47 91 13
19 14 112 4 68 46 119 69 137 73 12 20 118 143 144 22 100 5 62 25
13 71 34 70 86 94 61 39 65 88 148 42 111 10
18 78 55 28 85 30 11 145 141 87 15 66 24 43 51 133 96 101 38
14 44 146 54 114 64 48 83 17 117 41 90 60 113 0
15 84 9 116 79 77 2 75 147 125 104 67 74 131 140 45
13 26 107 142 124 80 92 97 81 128 120 19 82 132
14 115 122 21 53 16 52 59 103 126 76 95 8 134 93

Total makespan: 206

