30
3 70 28 51
3 80 115 7
5 137 126 49 13 104
5 119 103 36 125 121
6 93 114 86 16 120 74
4 17 107 72 50
5 116 113 14 54 44
6 138 73 87 109 10 132
5 71 90 148 100 145
5 39 130 112 85 24
7 23 110 65 123 46 0 92
6 41 4 58 76 11 81
4 61 101 45 47
4 21 32 60 27
5 59 78 15 9 56
4 97 2 22 37
6 88 62 94 105 139 146
4 136 129 66 31
5 83 128 52 118 20
5 34 43 135 63 18
6 68 111 99 75 29 84
5 12 91 96 124 149
3 141 26 106
6 5 3 122 127 82 95
7 79 38 19 69 33 8 35
3 30 98 142
6 48 140 6 131 143 40
5 102 67 134 64 144
5 1 108 89 57 55
7 42 147 53 117 133 77 25

Total makespan: 59

30
3 70 28 51
3 80 115 7
5 137 126 49 13 104
5 119 103 36 125 121
6 93 114 86 16 120 74
4 17 107 72 50
5 116 113 14 54 44
6 138 73 87 109 10 132
5 71 90 148 100 145
5 39 130 112 85 24
7 23 110 65 123 46 0 92
6 41 4 58 76 11 81
4 61 101 45 47
4 21 32 60 27
5 59 78 15 9 56
4 97 2 22 37
6 88 62 94 105 139 146
4 136 129 66 31
5 83 128 52 118 20
5 34 43 135 63 18
6 68 111 99 75 29 84
5 12 91 96 124 149
3 141 26 106
6 5 3 122 127 82 95
7 79 38 19 69 33 8 35
3 30 98 142
6 48 140 6 131 143 40
5 102 67 134 64 144
5 1 108 89 57 55
7 42 147 53 117 133 77 25

Total makespan: 59

