25
7 43 144 45 3 140 2 44
6 9 141 118 56 92 30
8 68 36 29 79 14 117 48 67
7 8 93 28 87 122 145 37
7 142 59 82 125 47 31 133
4 139 103 41 38
7 12 98 58 40 4 0 7
6 42 5 131 128 76 16
5 80 102 146 112 21
8 83 52 78 88 121 34 73 53
5 110 11 25 109 33
6 95 126 13 132 97 65
6 130 84 22 86 6 129
6 35 111 114 49 147 89
4 135 24 62 119
6 115 138 104 107 134 85
7 148 105 63 123 106 72 113
8 10 101 32 57 74 60 137 127
5 143 51 70 90 1
6 55 124 20 71 23 81
6 100 149 99 26 96 69
3 116 17 91
6 94 46 39 77 64 15
5 27 75 120 66 61
6 54 18 19 108 50 136

Total makespan: 36

25
7 43 144 45 3 140 2 44
6 9 141 118 56 92 30
8 68 36 29 79 14 117 48 67
7 8 93 28 87 122 145 37
7 142 59 82 125 47 31 133
4 139 103 41 38
7 12 98 58 40 4 0 7
6 42 5 131 128 76 16
5 80 102 146 112 21
8 83 52 78 88 121 34 73 53
5 110 11 25 109 33
6 95 126 13 132 97 65
6 130 84 22 86 6 129
6 35 111 114 49 147 89
4 135 24 62 119
6 115 138 104 107 134 85
7 148 105 63 123 106 72 113
8 10 101 32 57 74 60 137 127
5 143 51 70 90 1
6 55 124 20 71 23 81
6 100 149 99 26 96 69
3 116 17 91
6 94 46 39 77 64 15
5 27 75 120 66 61
6 54 18 19 108 50 136

Total makespan: 36

