25
9 98 96 48 24 53 148 80 110 63
6 72 78 8 118 116 37
7 3 117 132 71 134 28 112
6 108 141 74 27 120 129
7 147 58 75 144 2 61 143
6 100 104 23 113 119 13
5 65 115 57 14 73
6 99 7 69 88 106 84
4 131 107 79 82
9 41 55 59 40 52 5 85 77 18
6 16 103 39 109 86 33
6 128 126 46 70 94 136
5 56 60 12 95 125
5 19 54 31 114 130
5 102 9 29 135 6
6 43 1 127 142 50 66
7 26 137 47 21 32 89 36
7 4 45 64 30 97 76 146
5 15 20 38 0 145
5 123 90 87 35 133
6 139 51 93 67 121 11
5 68 111 83 17 22
6 44 62 101 122 149 81
5 138 140 10 105 42
6 92 124 49 25 34 91

Total makespan: 36

25
9 98 96 48 24 53 148 80 110 63
6 72 78 8 118 116 37
7 3 117 132 71 134 28 112
6 108 141 74 27 120 129
7 147 58 75 144 2 61 143
6 100 104 23 113 119 13
5 65 115 57 14 73
6 99 7 69 88 106 84
4 131 107 79 82
9 41 55 59 40 52 5 85 77 18
6 16 103 39 109 86 33
6 128 126 46 70 94 136
5 56 60 12 95 125
5 19 54 31 114 130
5 102 9 29 135 6
6 43 1 127 142 50 66
7 26 137 47 21 32 89 36
7 4 45 64 30 97 76 146
5 15 20 38 0 145
5 123 90 87 35 133
6 139 51 93 67 121 11
5 68 111 83 17 22
6 44 62 101 122 149 81
5 138 140 10 105 42
6 92 124 49 25 34 91

Total makespan: 36

