10
14 96 79 122 123 95 88 60 42 138 66 76 5 75 29
20 50 68 129 1 143 0 106 70 32 146 25 94 24 4 36 8 82 124 147 43
13 27 20 40 72 111 139 141 93 99 30 78 140 54
14 11 85 98 35 104 112 136 59 33 34 89 119 21 114
11 149 134 84 7 6 103 61 148 47 80 121
18 97 14 2 91 18 125 145 13 48 69 9 23 52 118 87 74 130 26
16 37 12 92 128 45 131 116 63 142 46 115 109 49 132 65 39
15 120 117 86 105 113 133 67 64 108 41 16 135 71 53 144
13 90 22 101 83 107 51 77 17 62 110 3 73 102
16 57 137 55 38 19 100 126 31 44 58 28 56 127 10 81 15

Total makespan: 176

10
14 96 79 122 123 95 88 60 42 138 66 76 5 75 29
20 50 68 129 1 143 0 106 70 32 146 25 94 24 4 36 8 82 124 147 43
13 27 20 40 72 111 139 141 93 99 30 78 140 54
14 11 85 98 35 104 112 136 59 33 34 89 119 21 114
11 149 134 84 7 6 103 61 148 47 80 121
18 97 14 2 91 18 125 145 13 48 69 9 23 52 118 87 74 130 26
16 37 12 92 128 45 131 116 63 142 46 115 109 49 132 65 39
15 120 117 86 105 113 133 67 64 108 41 16 135 71 53 144
13 90 22 101 83 107 51 77 17 62 110 3 73 102
16 57 137 55 38 19 100 126 31 44 58 28 56 127 10 81 15

Total makespan: 176

