25
6 116 69 102 60 115 85
8 59 144 24 9 110 44 61 47
6 39 49 93 14 5 84
7 65 101 108 87 96 51 20
7 32 41 19 121 40 16 90
6 29 66 42 114 54 140
6 79 118 83 81 71 133
8 137 112 10 26 25 98 147 34
6 100 55 74 12 124 15
5 141 50 28 117 46
5 107 67 131 120 58
5 6 111 125 143 77
3 95 43 134
4 4 23 132 75
4 91 146 18 38
6 17 92 1 64 127 45
9 53 78 0 128 88 36 21 113 109
5 145 57 11 73 68
5 103 119 123 13 135
6 138 27 136 82 148 30
6 8 35 94 105 48 139
7 80 86 2 3 142 72 97
5 129 104 126 52 63
9 122 76 106 99 149 33 7 70 130
6 31 22 56 89 37 62

Total makespan: 39

25
6 116 69 102 60 115 85
8 59 144 24 9 110 44 61 47
6 39 49 93 14 5 84
7 65 101 108 87 96 51 20
7 32 41 19 121 40 16 90
6 29 66 42 114 54 140
6 79 118 83 81 71 133
8 137 112 10 26 25 98 147 34
6 100 55 74 12 124 15
5 141 50 28 117 46
5 107 67 131 120 58
5 6 111 125 143 77
3 95 43 134
4 4 23 132 75
4 91 146 18 38
6 17 92 1 64 127 45
9 53 78 0 128 88 36 21 113 109
5 145 57 11 73 68
5 103 119 123 13 135
6 138 27 136 82 148 30
6 8 35 94 105 48 139
7 80 86 2 3 142 72 97
5 129 104 126 52 63
9 122 76 106 99 149 33 7 70 130
6 31 22 56 89 37 62

Total makespan: 39

25
6 116 69 102 60 115 85
8 59 144 24 9 110 44 61 47
6 39 49 93 14 5 84
7 65 101 108 87 96 51 20
7 32 41 19 121 40 16 90
6 29 66 42 114 54 140
6 79 118 83 81 71 133
8 137 112 10 26 25 98 147 34
6 100 55 74 12 124 15
5 141 50 28 117 46
5 107 67 131 120 58
5 6 111 125 143 77
3 95 43 134
4 4 23 132 75
4 91 146 18 38
6 17 92 1 64 127 45
9 53 78 0 128 88 36 21 113 109
5 145 57 11 73 68
5 103 119 123 13 135
6 138 27 136 82 148 30
6 8 35 94 105 48 139
7 80 86 2 3 142 72 97
5 129 104 126 52 63
9 122 76 106 99 149 33 7 70 130
6 31 22 56 89 37 62

Total makespan: 39

