20
12 1 141 111 128 120 83 135 90 80 105 137 65
8 89 38 106 24 86 51 96 37
5 59 70 32 3 54
9 110 23 102 52 46 100 48 138 143
8 148 94 82 131 35 84 10 103
6 79 129 61 67 101 5
6 63 125 118 107 12 57
8 0 149 21 88 56 60 112 142
5 31 16 13 124 44
12 123 18 76 109 98 147 126 17 134 2 116 34
6 77 29 53 93 104 81
9 27 144 47 45 95 78 127 6 28
8 91 73 69 62 42 49 58 99
5 136 71 9 117 92
7 4 74 87 64 85 26 30
8 97 66 121 14 139 122 113 39
7 11 8 36 19 72 130 115
5 20 114 41 55 146
5 75 119 22 25 132
11 140 50 145 33 43 7 108 15 68 133 40

Total makespan: 53

20
12 1 141 111 128 120 83 135 90 80 105 137 65
8 89 38 106 24 86 51 96 37
5 59 70 32 3 54
9 110 23 102 52 46 100 48 138 143
8 148 94 82 131 35 84 10 103
6 79 129 61 67 101 5
6 63 125 118 107 12 57
8 0 149 21 88 56 60 112 142
5 31 16 13 124 44
12 123 18 76 109 98 147 126 17 134 2 116 34
6 77 29 53 93 104 81
9 27 144 47 45 95 78 127 6 28
8 91 73 69 62 42 49 58 99
5 136 71 9 117 92
7 4 74 87 64 85 26 30
8 97 66 121 14 139 122 113 39
7 11 8 36 19 72 130 115
5 20 114 41 55 146
5 75 119 22 25 132
11 140 50 145 33 43 7 108 15 68 133 40

Total makespan: 53

