15
11 24 55 28 111 47 21 130 39 36 63 78
10 89 120 54 144 101 44 43 72 88 98
11 93 71 125 81 57 97 105 83 87 133 112
8 136 51 123 1 68 119 20 14
12 12 4 80 11 6 15 65 84 142 134 121 108
8 38 94 41 61 31 147 110 102
7 113 115 23 66 50 82 70
11 26 5 2 46 148 104 124 76 145 103 92
12 30 40 86 114 18 107 27 85 7 16 90 79
13 143 45 49 22 73 33 106 35 131 69 96 56 75
10 139 100 58 95 117 137 129 59 19 8
10 118 37 149 91 0 17 10 48 146 132
10 42 62 135 74 25 60 13 99 127 53
9 109 29 52 116 34 9 126 128 3
8 32 141 122 64 77 140 138 67

Total makespan: 150

15
11 24 55 28 111 47 21 130 39 36 63 78
10 89 120 54 144 101 44 43 72 88 98
11 93 71 125 81 57 97 105 83 87 133 112
8 136 51 123 1 68 119 20 14
12 12 4 80 11 6 15 65 84 142 134 121 108
8 38 94 41 61 31 147 110 102
7 113 115 23 66 50 82 70
11 26 5 2 46 148 104 124 76 145 103 92
12 30 40 86 114 18 107 27 85 7 16 90 79
13 143 45 49 22 73 33 106 35 131 69 96 56 75
10 139 100 58 95 117 137 129 59 19 8
10 118 37 149 91 0 17 10 48 146 132
10 42 62 135 74 25 60 13 99 127 53
9 109 29 52 116 34 9 126 128 3
8 32 141 122 64 77 140 138 67

Total makespan: 150

15
11 24 55 28 111 47 21 130 39 36 63 78
10 89 120 54 144 101 44 43 72 88 98
11 93 71 125 81 57 97 105 83 87 133 112
8 136 51 123 1 68 119 20 14
12 12 4 80 11 6 15 65 84 142 134 121 108
8 38 94 41 61 31 147 110 102
7 113 115 23 66 50 82 70
11 26 5 2 46 148 104 124 76 145 103 92
12 30 40 86 114 18 107 27 85 7 16 90 79
13 143 45 49 22 73 33 106 35 131 69 96 56 75
10 139 100 58 95 117 137 129 59 19 8
10 118 37 149 91 0 17 10 48 146 132
10 42 62 135 74 25 60 13 99 127 53
9 109 29 52 116 34 9 126 128 3
8 32 141 122 64 77 140 138 67

Total makespan: 150

