10
12 140 17 74 37 148 59 111 96 51 129 101 91
21 2 19 50 86 139 124 63 117 9 136 142 32 71 36 28 143 0 76 46 77 93
12 106 64 7 99 123 110 69 44 112 144 115 15
19 21 133 126 128 90 29 23 16 48 68 67 92 8 73 10 54 116 42 45
16 75 39 6 100 87 137 94 52 84 132 41 53 18 118 70 60
13 130 1 131 119 108 98 134 61 47 12 72 107 33
12 105 55 20 62 82 31 145 114 14 38 13 22
16 56 80 49 147 27 81 3 146 120 141 85 83 103 66 149 102
10 34 5 104 122 109 89 11 4 65 88
19 43 26 113 125 58 121 78 24 97 135 127 25 35 40 79 138 30 57 95

Total makespan: 163

10
12 140 17 74 37 148 59 111 96 51 129 101 91
21 2 19 50 86 139 124 63 117 9 136 142 32 71 36 28 143 0 76 46 77 93
12 106 64 7 99 123 110 69 44 112 144 115 15
19 21 133 126 128 90 29 23 16 48 68 67 92 8 73 10 54 116 42 45
16 75 39 6 100 87 137 94 52 84 132 41 53 18 118 70 60
13 130 1 131 119 108 98 134 61 47 12 72 107 33
12 105 55 20 62 82 31 145 114 14 38 13 22
16 56 80 49 147 27 81 3 146 120 141 85 83 103 66 149 102
10 34 5 104 122 109 89 11 4 65 88
19 43 26 113 125 58 121 78 24 97 135 127 25 35 40 79 138 30 57 95

Total makespan: 163

10
12 140 17 74 37 148 59 111 96 51 129 101 91
21 2 19 50 86 139 124 63 117 9 136 142 32 71 36 28 143 0 76 46 77 93
12 106 64 7 99 123 110 69 44 112 144 115 15
19 21 133 126 128 90 29 23 16 48 68 67 92 8 73 10 54 116 42 45
16 75 39 6 100 87 137 94 52 84 132 41 53 18 118 70 60
13 130 1 131 119 108 98 134 61 47 12 72 107 33
12 105 55 20 62 82 31 145 114 14 38 13 22
16 56 80 49 147 27 81 3 146 120 141 85 83 103 66 149 102
10 34 5 104 122 109 89 11 4 65 88
19 43 26 113 125 58 121 78 24 97 135 127 25 35 40 79 138 30 57 95

Total makespan: 163

