15
7 17 6 24 0 131 27 26
12 126 63 140 120 37 113 143 115 79 7 76 111
9 85 30 57 32 23 35 148 66 103
7 117 145 80 58 149 53 21
15 95 108 75 93 5 9 146 41 100 88 40 46 72 36 109
9 8 52 16 135 12 33 119 84 122
9 82 87 98 60 107 105 20 127 132
10 3 91 137 134 110 147 68 96 90 123
11 47 130 97 77 67 92 38 31 112 59 11
10 141 114 2 125 139 101 71 50 49 4
7 64 144 73 138 18 142 69
11 15 51 78 25 45 28 54 94 104 99 102
9 55 74 116 118 121 65 61 10 86
11 133 14 56 39 1 124 81 62 19 34 48
13 136 22 44 29 83 129 43 89 70 13 106 128 42

Total makespan: 124

15
7 17 6 24 0 131 27 26
12 126 63 140 120 37 113 143 115 79 7 76 111
9 85 30 57 32 23 35 148 66 103
7 117 145 80 58 149 53 21
15 95 108 75 93 5 9 146 41 100 88 40 46 72 36 109
9 8 52 16 135 12 33 119 84 122
9 82 87 98 60 107 105 20 127 132
10 3 91 137 134 110 147 68 96 90 123
11 47 130 97 77 67 92 38 31 112 59 11
10 141 114 2 125 139 101 71 50 49 4
7 64 144 73 138 18 142 69
11 15 51 78 25 45 28 54 94 104 99 102
9 55 74 116 118 121 65 61 10 86
11 133 14 56 39 1 124 81 62 19 34 48
13 136 22 44 29 83 129 43 89 70 13 106 128 42

Total makespan: 124

15
7 17 6 24 0 131 27 26
12 126 63 140 120 37 113 143 115 79 7 76 111
9 85 30 57 32 23 35 148 66 103
7 117 145 80 58 149 53 21
15 95 108 75 93 5 9 146 41 100 88 40 46 72 36 109
9 8 52 16 135 12 33 119 84 122
9 82 87 98 60 107 105 20 127 132
10 3 91 137 134 110 147 68 96 90 123
11 47 130 97 77 67 92 38 31 112 59 11
10 141 114 2 125 139 101 71 50 49 4
7 64 144 73 138 18 142 69
11 15 51 78 25 45 28 54 94 104 99 102
9 55 74 116 118 121 65 61 10 86
11 133 14 56 39 1 124 81 62 19 34 48
13 136 22 44 29 83 129 43 89 70 13 106 128 42

Total makespan: 124

