10
18 67 36 44 1 50 129 120 6 20 103 0 107 94 74 53 9 69 85
14 72 114 96 4 77 2 118 147 133 43 59 84 117 39
18 144 22 109 19 83 105 65 52 92 99 131 57 47 111 30 41 37 64
15 102 81 104 82 108 142 55 56 116 112 49 62 14 58 146
16 124 143 100 122 12 138 73 128 24 121 78 98 18 110 34 21
12 101 17 38 127 123 70 63 132 145 75 89 35
15 79 126 23 68 5 10 134 71 42 125 26 27 140 139 135
11 80 141 31 93 60 8 32 33 66 3 148
19 113 90 54 46 115 25 61 149 136 106 16 97 86 29 11 40 48 87 137
12 15 88 130 95 28 119 76 13 51 7 91 45

Total makespan: 264

10
18 67 36 44 1 50 129 120 6 20 103 0 107 94 74 53 9 69 85
14 72 114 96 4 77 2 118 147 133 43 59 84 117 39
18 144 22 109 19 83 105 65 52 92 99 131 57 47 111 30 41 37 64
15 102 81 104 82 108 142 55 56 116 112 49 62 14 58 146
16 124 143 100 122 12 138 73 128 24 121 78 98 18 110 34 21
12 101 17 38 127 123 70 63 132 145 75 89 35
15 79 126 23 68 5 10 134 71 42 125 26 27 140 139 135
11 80 141 31 93 60 8 32 33 66 3 148
19 113 90 54 46 115 25 61 149 136 106 16 97 86 29 11 40 48 87 137
12 15 88 130 95 28 119 76 13 51 7 91 45

Total makespan: 264

