25
6 27 123 41 34 48 124
7 82 104 14 47 68 63 87
6 5 36 17 100 43 67
6 98 62 22 42 39 46
7 96 21 133 53 79 58 23
6 121 64 32 137 106 90
7 116 134 136 91 55 94 3
5 110 132 50 45 102
5 119 144 128 83 99
9 149 33 65 122 12 26 61 25 81
6 66 75 76 140 115 8
7 18 143 109 146 147 111 120
7 69 49 89 126 129 31 142
5 59 93 112 130 86
6 19 38 37 54 35 117
7 114 20 74 16 51 85 1
6 105 145 125 131 28 52
5 40 108 103 118 97
6 6 107 127 77 95 30
9 56 0 44 10 135 4 138 73 113
5 60 139 29 92 78
4 24 15 70 72
4 88 148 9 84
4 11 80 141 2
5 7 101 13 57 71

Total makespan: 76

25
6 27 123 41 34 48 124
7 82 104 14 47 68 63 87
6 5 36 17 100 43 67
6 98 62 22 42 39 46
7 96 21 133 53 79 58 23
6 121 64 32 137 106 90
7 116 134 136 91 55 94 3
5 110 132 50 45 102
5 119 144 128 83 99
9 149 33 65 122 12 26 61 25 81
6 66 75 76 140 115 8
7 18 143 109 146 147 111 120
7 69 49 89 126 129 31 142
5 59 93 112 130 86
6 19 38 37 54 35 117
7 114 20 74 16 51 85 1
6 105 145 125 131 28 52
5 40 108 103 118 97
6 6 107 127 77 95 30
9 56 0 44 10 135 4 138 73 113
5 60 139 29 92 78
4 24 15 70 72
4 88 148 9 84
4 11 80 141 2
5 7 101 13 57 71

Total makespan: 76

25
6 27 123 41 34 48 124
7 82 104 14 47 68 63 87
6 5 36 17 100 43 67
6 98 62 22 42 39 46
7 96 21 133 53 79 58 23
6 121 64 32 137 106 90
7 116 134 136 91 55 94 3
5 110 132 50 45 102
5 119 144 128 83 99
9 149 33 65 122 12 26 61 25 81
6 66 75 76 140 115 8
7 18 143 109 146 147 111 120
7 69 49 89 126 129 31 142
5 59 93 112 130 86
6 19 38 37 54 35 117
7 114 20 74 16 51 85 1
6 105 145 125 131 28 52
5 40 108 103 118 97
6 6 107 127 77 95 30
9 56 0 44 10 135 4 138 73 113
5 60 139 29 92 78
4 24 15 70 72
4 88 148 9 84
4 11 80 141 2
5 7 101 13 57 71

Total makespan: 76

