10
14 82 60 20 129 90 2 108 10 121 29 55 142 98 19
18 15 1 148 48 104 136 37 46 106 126 9 91 11 147 143 5 110 118
14 107 33 38 58 109 93 27 66 28 4 145 59 67 105
16 128 41 75 84 132 130 116 47 102 39 138 49 133 79 18 68
13 25 21 86 3 103 24 30 131 57 74 114 62 34
15 8 16 135 23 137 144 42 92 122 87 32 36 44 43 124
19 89 123 73 63 45 94 83 65 140 76 139 61 115 70 81 13 50 141 14
14 77 31 0 95 26 22 100 113 125 117 52 40 72 127
13 120 12 56 6 97 111 51 146 112 96 85 35 78
14 53 69 7 119 64 80 99 134 149 101 88 71 54 17

Total makespan: 244

10
14 82 60 20 129 90 2 108 10 121 29 55 142 98 19
18 15 1 148 48 104 136 37 46 106 126 9 91 11 147 143 5 110 118
14 107 33 38 58 109 93 27 66 28 4 145 59 67 105
16 128 41 75 84 132 130 116 47 102 39 138 49 133 79 18 68
13 25 21 86 3 103 24 30 131 57 74 114 62 34
15 8 16 135 23 137 144 42 92 122 87 32 36 44 43 124
19 89 123 73 63 45 94 83 65 140 76 139 61 115 70 81 13 50 141 14
14 77 31 0 95 26 22 100 113 125 117 52 40 72 127
13 120 12 56 6 97 111 51 146 112 96 85 35 78
14 53 69 7 119 64 80 99 134 149 101 88 71 54 17

Total makespan: 244

