30
9 145 1 122 186 0 65 129 60 152
8 163 63 110 117 93 108 104 132
8 187 92 46 192 16 124 170 79
4 141 77 140 165
9 18 178 155 184 44 83 154 161 91
7 74 64 102 106 6 125 30
6 160 162 37 183 39 50
9 5 15 107 58 100 80 142 48 11
4 196 33 193 119
6 126 151 38 34 195 164
5 47 68 81 148 88
6 9 59 156 96 146 185
4 168 190 41 27
8 173 52 26 19 158 10 43 90
6 25 113 135 78 153 3
7 73 62 176 199 67 76 57
7 87 191 169 115 194 180 109
6 121 13 171 179 134 29
7 71 197 98 114 86 182 138
8 36 177 4 133 28 61 42 2
7 128 167 32 175 75 139 127
6 147 51 21 85 94 72
5 149 54 31 12 53
9 116 131 144 136 20 84 105 166 157
7 181 174 66 99 103 143 22
5 172 150 97 23 49
10 188 111 101 137 95 17 56 40 82 123
7 159 198 89 118 120 45 70
4 112 55 189 35
6 14 24 69 130 8 7

Total makespan: 74

30
9 145 1 122 186 0 65 129 60 152
8 163 63 110 117 93 108 104 132
8 187 92 46 192 16 124 170 79
4 141 77 140 165
9 18 178 155 184 44 83 154 161 91
7 74 64 102 106 6 125 30
6 160 162 37 183 39 50
9 5 15 107 58 100 80 142 48 11
4 196 33 193 119
6 126 151 38 34 195 164
5 47 68 81 148 88
6 9 59 156 96 146 185
4 168 190 41 27
8 173 52 26 19 158 10 43 90
6 25 113 135 78 153 3
7 73 62 176 199 67 76 57
7 87 191 169 115 194 180 109
6 121 13 171 179 134 29
7 71 197 98 114 86 182 138
8 36 177 4 133 28 61 42 2
7 128 167 32 175 75 139 127
6 147 51 21 85 94 72
5 149 54 31 12 53
9 116 131 144 136 20 84 105 166 157
7 181 174 66 99 103 143 22
5 172 150 97 23 49
10 188 111 101 137 95 17 56 40 82 123
7 159 198 89 118 120 45 70
4 112 55 189 35
6 14 24 69 130 8 7

Total makespan: 74

30
9 145 1 122 186 0 65 129 60 152
8 163 63 110 117 93 108 104 132
8 187 92 46 192 16 124 170 79
4 141 77 140 165
9 18 178 155 184 44 83 154 161 91
7 74 64 102 106 6 125 30
6 160 162 37 183 39 50
9 5 15 107 58 100 80 142 48 11
4 196 33 193 119
6 126 151 38 34 195 164
5 47 68 81 148 88
6 9 59 156 96 146 185
4 168 190 41 27
8 173 52 26 19 158 10 43 90
6 25 113 135 78 153 3
7 73 62 176 199 67 76 57
7 87 191 169 115 194 180 109
6 121 13 171 179 134 29
7 71 197 98 114 86 182 138
8 36 177 4 133 28 61 42 2
7 128 167 32 175 75 139 127
6 147 51 21 85 94 72
5 149 54 31 12 53
9 116 131 144 136 20 84 105 166 157
7 181 174 66 99 103 143 22
5 172 150 97 23 49
10 188 111 101 137 95 17 56 40 82 123
7 159 198 89 118 120 45 70
4 112 55 189 35
6 14 24 69 130 8 7

Total makespan: 74

