15
10 187 191 125 9 88 14 27 10 25 66
11 69 77 186 36 56 161 51 95 50 45 26
11 79 179 74 110 4 138 176 155 65 102 105
12 157 84 121 63 85 117 167 18 3 68 82 197
15 61 11 31 92 133 199 120 75 23 113 173 2 33 97 175
16 139 30 189 20 181 193 149 165 91 106 48 170 49 73 115 71
14 15 81 162 132 154 198 159 145 52 96 143 134 53 129
13 38 184 80 180 29 99 118 41 190 58 136 171 86
9 24 76 103 111 122 130 6 140 114
11 147 19 83 35 42 0 54 5 70 169 144
13 178 156 188 12 89 64 40 146 153 160 101 59 195
16 7 43 152 131 109 196 128 22 47 93 57 44 13 124 37 94
15 135 98 34 17 126 8 166 90 60 177 108 55 164 28 192
16 174 46 32 158 142 104 148 72 194 123 87 151 16 141 163 119
18 183 185 172 39 78 150 21 62 107 112 1 182 116 67 100 137 127 168

Total makespan: 191

15
10 187 191 125 9 88 14 27 10 25 66
11 69 77 186 36 56 161 51 95 50 45 26
11 79 179 74 110 4 138 176 155 65 102 105
12 157 84 121 63 85 117 167 18 3 68 82 197
15 61 11 31 92 133 199 120 75 23 113 173 2 33 97 175
16 139 30 189 20 181 193 149 165 91 106 48 170 49 73 115 71
14 15 81 162 132 154 198 159 145 52 96 143 134 53 129
13 38 184 80 180 29 99 118 41 190 58 136 171 86
9 24 76 103 111 122 130 6 140 114
11 147 19 83 35 42 0 54 5 70 169 144
13 178 156 188 12 89 64 40 146 153 160 101 59 195
16 7 43 152 131 109 196 128 22 47 93 57 44 13 124 37 94
15 135 98 34 17 126 8 166 90 60 177 108 55 164 28 192
16 174 46 32 158 142 104 148 72 194 123 87 151 16 141 163 119
18 183 185 172 39 78 150 21 62 107 112 1 182 116 67 100 137 127 168

Total makespan: 191

15
10 187 191 125 9 88 14 27 10 25 66
11 69 77 186 36 56 161 51 95 50 45 26
11 79 179 74 110 4 138 176 155 65 102 105
12 157 84 121 63 85 117 167 18 3 68 82 197
15 61 11 31 92 133 199 120 75 23 113 173 2 33 97 175
16 139 30 189 20 181 193 149 165 91 106 48 170 49 73 115 71
14 15 81 162 132 154 198 159 145 52 96 143 134 53 129
13 38 184 80 180 29 99 118 41 190 58 136 171 86
9 24 76 103 111 122 130 6 140 114
11 147 19 83 35 42 0 54 5 70 169 144
13 178 156 188 12 89 64 40 146 153 160 101 59 195
16 7 43 152 131 109 196 128 22 47 93 57 44 13 124 37 94
15 135 98 34 17 126 8 166 90 60 177 108 55 164 28 192
16 174 46 32 158 142 104 148 72 194 123 87 151 16 141 163 119
18 183 185 172 39 78 150 21 62 107 112 1 182 116 67 100 137 127 168

Total makespan: 191

