30
7 49 12 158 26 40 10 139
8 122 143 173 16 104 149 178 171
5 119 136 68 160 80
2 91 153
8 108 132 174 66 128 117 144 76
7 162 35 154 94 93 120 134
6 112 43 184 61 121 67
4 27 198 99 89
7 33 78 88 168 192 46 77
6 81 60 31 195 51 57
6 107 28 167 142 14 1
7 116 50 56 191 175 25 133
8 37 0 42 18 45 34 100 83
5 140 59 180 193 151
5 187 15 189 23 97
8 115 90 137 147 181 4 39 110
5 36 109 164 194 75
6 145 86 106 125 2 113
8 11 38 79 29 126 52 114 6
7 138 105 48 188 19 70 55
9 85 5 182 53 127 72 152 148 3
9 197 159 135 7 24 166 65 183 20
7 17 172 87 130 118 21 165
8 176 185 73 30 82 124 161 63
6 102 8 177 129 62 71
5 179 41 156 101 96
7 146 150 131 157 47 123 169
10 54 44 58 199 98 84 32 69 111 95
5 186 141 155 163 22
9 92 196 103 74 64 190 13 9 170

Total makespan: 59

30
7 49 12 158 26 40 10 139
8 122 143 173 16 104 149 178 171
5 119 136 68 160 80
2 91 153
8 108 132 174 66 128 117 144 76
7 162 35 154 94 93 120 134
6 112 43 184 61 121 67
4 27 198 99 89
7 33 78 88 168 192 46 77
6 81 60 31 195 51 57
6 107 28 167 142 14 1
7 116 50 56 191 175 25 133
8 37 0 42 18 45 34 100 83
5 140 59 180 193 151
5 187 15 189 23 97
8 115 90 137 147 181 4 39 110
5 36 109 164 194 75
6 145 86 106 125 2 113
8 11 38 79 29 126 52 114 6
7 138 105 48 188 19 70 55
9 85 5 182 53 127 72 152 148 3
9 197 159 135 7 24 166 65 183 20
7 17 172 87 130 118 21 165
8 176 185 73 30 82 124 161 63
6 102 8 177 129 62 71
5 179 41 156 101 96
7 146 150 131 157 47 123 169
10 54 44 58 199 98 84 32 69 111 95
5 186 141 155 163 22
9 92 196 103 74 64 190 13 9 170

Total makespan: 59

