20
7 51 139 83 193 154 161 175
12 29 98 76 142 179 11 168 69 173 128 187 182
11 55 119 9 60 151 111 93 89 27 39 80
12 132 116 44 110 26 174 32 163 64 49 34 164
9 73 134 65 123 79 19 117 129 61
8 100 74 196 71 67 153 77 113
9 82 1 148 31 17 186 102 149 152
13 178 85 45 167 38 37 180 40 90 62 120 108 194
6 115 91 59 22 23 183
11 94 78 95 68 10 188 118 147 189 124 81
12 50 14 165 4 3 198 159 13 136 176 166 2
12 56 43 46 0 131 107 106 197 48 181 101 169
9 54 105 130 20 97 185 53 158 157
9 143 104 126 155 88 6 177 172 84
7 28 135 35 18 99 8 140
10 72 170 47 144 16 109 190 15 63 57
14 160 21 199 86 195 41 30 33 12 146 171 52 7 184
10 103 58 150 125 122 25 121 114 66 191
9 42 137 70 112 92 162 156 192 145
10 75 127 96 133 36 138 141 87 24 5

Total makespan: 98

20
7 51 139 83 193 154 161 175
12 29 98 76 142 179 11 168 69 173 128 187 182
11 55 119 9 60 151 111 93 89 27 39 80
12 132 116 44 110 26 174 32 163 64 49 34 164
9 73 134 65 123 79 19 117 129 61
8 100 74 196 71 67 153 77 113
9 82 1 148 31 17 186 102 149 152
13 178 85 45 167 38 37 180 40 90 62 120 108 194
6 115 91 59 22 23 183
11 94 78 95 68 10 188 118 147 189 124 81
12 50 14 165 4 3 198 159 13 136 176 166 2
12 56 43 46 0 131 107 106 197 48 181 101 169
9 54 105 130 20 97 185 53 158 157
9 143 104 126 155 88 6 177 172 84
7 28 135 35 18 99 8 140
10 72 170 47 144 16 109 190 15 63 57
14 160 21 199 86 195 41 30 33 12 146 171 52 7 184
10 103 58 150 125 122 25 121 114 66 191
9 42 137 70 112 92 162 156 192 145
10 75 127 96 133 36 138 141 87 24 5

Total makespan: 98

20
7 51 139 83 193 154 161 175
12 29 98 76 142 179 11 168 69 173 128 187 182
11 55 119 9 60 151 111 93 89 27 39 80
12 132 116 44 110 26 174 32 163 64 49 34 164
9 73 134 65 123 79 19 117 129 61
8 100 74 196 71 67 153 77 113
9 82 1 148 31 17 186 102 149 152
13 178 85 45 167 38 37 180 40 90 62 120 108 194
6 115 91 59 22 23 183
11 94 78 95 68 10 188 118 147 189 124 81
12 50 14 165 4 3 198 159 13 136 176 166 2
12 56 43 46 0 131 107 106 197 48 181 101 169
9 54 105 130 20 97 185 53 158 157
9 143 104 126 155 88 6 177 172 84
7 28 135 35 18 99 8 140
10 72 170 47 144 16 109 190 15 63 57
14 160 21 199 86 195 41 30 33 12 146 171 52 7 184
10 103 58 150 125 122 25 121 114 66 191
9 42 137 70 112 92 162 156 192 145
10 75 127 96 133 36 138 141 87 24 5

Total makespan: 98

