20
13 37 165 59 129 179 195 73 60 152 146 57 135 103
9 46 62 10 40 189 70 92 139 11
7 44 141 15 91 76 198 140
8 9 28 158 143 4 131 186 0
10 106 33 34 41 16 156 67 12 197 97
8 94 86 180 125 148 102 194 80
11 93 184 69 61 137 1 29 114 25 127 124
6 171 190 147 6 105 8
11 162 56 108 78 157 118 138 3 87 88 77
11 167 117 64 98 83 161 128 164 149 115 123
11 178 181 132 153 19 172 163 168 89 166 17
9 159 49 35 53 196 109 193 23 58
10 170 150 116 121 18 96 39 24 177 107
7 5 151 36 183 38 14 110
12 192 185 32 136 187 55 134 100 79 174 142 169
13 81 84 126 42 160 22 145 51 47 85 188 155 111
8 66 50 2 13 144 75 119 31
12 133 101 48 182 21 154 30 68 199 191 43 95
10 122 20 54 120 63 104 45 52 130 113
14 112 175 71 26 74 82 72 27 176 90 7 65 173 99

Total makespan: 97

20
13 37 165 59 129 179 195 73 60 152 146 57 135 103
9 46 62 10 40 189 70 92 139 11
7 44 141 15 91 76 198 140
8 9 28 158 143 4 131 186 0
10 106 33 34 41 16 156 67 12 197 97
8 94 86 180 125 148 102 194 80
11 93 184 69 61 137 1 29 114 25 127 124
6 171 190 147 6 105 8
11 162 56 108 78 157 118 138 3 87 88 77
11 167 117 64 98 83 161 128 164 149 115 123
11 178 181 132 153 19 172 163 168 89 166 17
9 159 49 35 53 196 109 193 23 58
10 170 150 116 121 18 96 39 24 177 107
7 5 151 36 183 38 14 110
12 192 185 32 136 187 55 134 100 79 174 142 169
13 81 84 126 42 160 22 145 51 47 85 188 155 111
8 66 50 2 13 144 75 119 31
12 133 101 48 182 21 154 30 68 199 191 43 95
10 122 20 54 120 63 104 45 52 130 113
14 112 175 71 26 74 82 72 27 176 90 7 65 173 99

Total makespan: 97

20
13 37 165 59 129 179 195 73 60 152 146 57 135 103
9 46 62 10 40 189 70 92 139 11
7 44 141 15 91 76 198 140
8 9 28 158 143 4 131 186 0
10 106 33 34 41 16 156 67 12 197 97
8 94 86 180 125 148 102 194 80
11 93 184 69 61 137 1 29 114 25 127 124
6 171 190 147 6 105 8
11 162 56 108 78 157 118 138 3 87 88 77
11 167 117 64 98 83 161 128 164 149 115 123
11 178 181 132 153 19 172 163 168 89 166 17
9 159 49 35 53 196 109 193 23 58
10 170 150 116 121 18 96 39 24 177 107
7 5 151 36 183 38 14 110
12 192 185 32 136 187 55 134 100 79 174 142 169
13 81 84 126 42 160 22 145 51 47 85 188 155 111
8 66 50 2 13 144 75 119 31
12 133 101 48 182 21 154 30 68 199 191 43 95
10 122 20 54 120 63 104 45 52 130 113
14 112 175 71 26 74 82 72 27 176 90 7 65 173 99

Total makespan: 97

