10
16 19 137 62 98 81 20 11 67 4 16 116 3 135 118 50 10
20 45 130 109 156 9 129 5 169 91 58 194 140 60 180 38 78 193 146 2 148
25 147 48 35 191 73 1 69 65 128 127 105 30 53 176 117 145 68 71 29 141 92 165 120 49 134
19 133 37 112 110 101 164 166 102 85 111 59 8 138 136 13 189 125 87 132
16 75 63 77 82 126 86 90 14 84 185 170 150 54 121 22 159
22 108 186 47 131 172 40 197 76 83 114 94 139 43 32 27 17 57 66 167 100 61 115
24 142 33 52 97 103 41 95 123 190 149 96 154 163 93 21 174 104 198 188 119 7 51 124 12
19 155 18 23 168 144 161 64 15 99 143 153 72 80 25 24 160 70 56 152
20 26 39 88 183 122 182 162 157 0 44 181 175 187 196 74 184 106 195 173 6
19 28 42 113 31 192 55 158 171 199 107 36 89 178 79 179 46 151 34 177

Total makespan: 368

10
16 19 137 62 98 81 20 11 67 4 16 116 3 135 118 50 10
20 45 130 109 156 9 129 5 169 91 58 194 140 60 180 38 78 193 146 2 148
25 147 48 35 191 73 1 69 65 128 127 105 30 53 176 117 145 68 71 29 141 92 165 120 49 134
19 133 37 112 110 101 164 166 102 85 111 59 8 138 136 13 189 125 87 132
16 75 63 77 82 126 86 90 14 84 185 170 150 54 121 22 159
22 108 186 47 131 172 40 197 76 83 114 94 139 43 32 27 17 57 66 167 100 61 115
24 142 33 52 97 103 41 95 123 190 149 96 154 163 93 21 174 104 198 188 119 7 51 124 12
19 155 18 23 168 144 161 64 15 99 143 153 72 80 25 24 160 70 56 152
20 26 39 88 183 122 182 162 157 0 44 181 175 187 196 74 184 106 195 173 6
19 28 42 113 31 192 55 158 171 199 107 36 89 178 79 179 46 151 34 177

Total makespan: 368

10
16 19 137 62 98 81 20 11 67 4 16 116 3 135 118 50 10
20 45 130 109 156 9 129 5 169 91 58 194 140 60 180 38 78 193 146 2 148
25 147 48 35 191 73 1 69 65 128 127 105 30 53 176 117 145 68 71 29 141 92 165 120 49 134
19 133 37 112 110 101 164 166 102 85 111 59 8 138 136 13 189 125 87 132
16 75 63 77 82 126 86 90 14 84 185 170 150 54 121 22 159
22 108 186 47 131 172 40 197 76 83 114 94 139 43 32 27 17 57 66 167 100 61 115
24 142 33 52 97 103 41 95 123 190 149 96 154 163 93 21 174 104 198 188 119 7 51 124 12
19 155 18 23 168 144 161 64 15 99 143 153 72 80 25 24 160 70 56 152
20 26 39 88 183 122 182 162 157 0 44 181 175 187 196 74 184 106 195 173 6
19 28 42 113 31 192 55 158 171 199 107 36 89 178 79 179 46 151 34 177

Total makespan: 368

