15
16 160 52 110 192 20 85 132 189 43 88 59 56 191 9 42 137
15 53 144 93 154 33 199 74 30 158 21 25 94 54 142 37
14 84 78 99 2 185 109 169 177 187 27 96 61 164 122
15 159 171 186 101 22 124 14 89 125 100 183 115 57 86 1
13 16 80 146 126 62 15 77 92 190 5 68 184 167
14 139 10 117 4 102 72 76 133 17 63 87 121 116 51
12 150 0 194 131 55 173 34 3 174 29 75 156
13 50 119 81 176 65 44 157 45 107 103 71 195 155
13 180 39 111 151 166 172 19 69 123 38 161 147 47
12 145 197 98 66 97 11 188 26 196 70 48 7
14 179 32 141 90 12 129 82 182 108 8 138 40 13 79
11 91 149 49 193 136 143 134 148 83 181 41
15 113 64 60 175 23 130 24 6 118 163 198 178 165 114 135
10 112 168 120 67 105 152 35 58 153 31
13 106 140 28 73 36 162 95 170 128 104 46 127 18

Total makespan: 194

15
16 160 52 110 192 20 85 132 189 43 88 59 56 191 9 42 137
15 53 144 93 154 33 199 74 30 158 21 25 94 54 142 37
14 84 78 99 2 185 109 169 177 187 27 96 61 164 122
15 159 171 186 101 22 124 14 89 125 100 183 115 57 86 1
13 16 80 146 126 62 15 77 92 190 5 68 184 167
14 139 10 117 4 102 72 76 133 17 63 87 121 116 51
12 150 0 194 131 55 173 34 3 174 29 75 156
13 50 119 81 176 65 44 157 45 107 103 71 195 155
13 180 39 111 151 166 172 19 69 123 38 161 147 47
12 145 197 98 66 97 11 188 26 196 70 48 7
14 179 32 141 90 12 129 82 182 108 8 138 40 13 79
11 91 149 49 193 136 143 134 148 83 181 41
15 113 64 60 175 23 130 24 6 118 163 198 178 165 114 135
10 112 168 120 67 105 152 35 58 153 31
13 106 140 28 73 36 162 95 170 128 104 46 127 18

Total makespan: 194

15
16 160 52 110 192 20 85 132 189 43 88 59 56 191 9 42 137
15 53 144 93 154 33 199 74 30 158 21 25 94 54 142 37
14 84 78 99 2 185 109 169 177 187 27 96 61 164 122
15 159 171 186 101 22 124 14 89 125 100 183 115 57 86 1
13 16 80 146 126 62 15 77 92 190 5 68 184 167
14 139 10 117 4 102 72 76 133 17 63 87 121 116 51
12 150 0 194 131 55 173 34 3 174 29 75 156
13 50 119 81 176 65 44 157 45 107 103 71 195 155
13 180 39 111 151 166 172 19 69 123 38 161 147 47
12 145 197 98 66 97 11 188 26 196 70 48 7
14 179 32 141 90 12 129 82 182 108 8 138 40 13 79
11 91 149 49 193 136 143 134 148 83 181 41
15 113 64 60 175 23 130 24 6 118 163 198 178 165 114 135
10 112 168 120 67 105 152 35 58 153 31
13 106 140 28 73 36 162 95 170 128 104 46 127 18

Total makespan: 194

