10
18 93 19 53 60 169 84 26 87 52 22 112 199 126 35 18 100 141 190
17 10 8 162 143 41 80 67 153 25 184 149 48 177 88 16 71 73
19 61 21 114 40 97 47 14 29 174 193 33 125 128 79 0 92 139 123 189
21 36 119 144 150 90 145 192 172 43 134 156 66 163 127 115 31 42 135 197 101 82
23 107 130 173 185 170 77 51 27 70 188 121 105 187 186 58 11 17 180 175 37 194 154 191
17 56 161 3 148 15 151 147 20 98 108 142 117 28 55 118 158 6
24 102 49 78 133 12 136 96 72 116 182 95 106 38 76 44 69 155 23 137 198 68 50 104 124
25 59 62 140 178 120 57 176 132 81 75 171 24 83 159 5 179 103 131 109 64 65 122 196 160 89
18 99 4 86 195 152 2 63 166 129 167 111 146 7 32 113 110 138 54
18 1 39 74 30 157 164 181 13 94 34 45 46 9 168 183 91 165 85

Total makespan: 220

10
18 93 19 53 60 169 84 26 87 52 22 112 199 126 35 18 100 141 190
17 10 8 162 143 41 80 67 153 25 184 149 48 177 88 16 71 73
19 61 21 114 40 97 47 14 29 174 193 33 125 128 79 0 92 139 123 189
21 36 119 144 150 90 145 192 172 43 134 156 66 163 127 115 31 42 135 197 101 82
23 107 130 173 185 170 77 51 27 70 188 121 105 187 186 58 11 17 180 175 37 194 154 191
17 56 161 3 148 15 151 147 20 98 108 142 117 28 55 118 158 6
24 102 49 78 133 12 136 96 72 116 182 95 106 38 76 44 69 155 23 137 198 68 50 104 124
25 59 62 140 178 120 57 176 132 81 75 171 24 83 159 5 179 103 131 109 64 65 122 196 160 89
18 99 4 86 195 152 2 63 166 129 167 111 146 7 32 113 110 138 54
18 1 39 74 30 157 164 181 13 94 34 45 46 9 168 183 91 165 85

Total makespan: 220

