30
5 191 27 9 85 103
9 135 113 16 75 89 180 161 2 91
7 64 79 151 134 34 0 70
8 69 149 101 117 199 81 38 45
5 145 107 43 170 76
7 20 140 46 146 44 192 183
8 80 30 190 37 141 182 125 74
8 166 128 49 143 1 31 148 110
7 84 87 50 11 41 179 95
4 195 26 158 63
6 122 28 47 160 171 181
7 90 178 155 8 71 17 83
3 72 185 59
7 167 65 48 99 96 21 132
7 92 177 154 169 168 24 42
10 119 163 78 112 139 56 121 86 109 93
6 138 67 3 7 40 184
6 123 193 58 136 4 88
5 108 97 15 173 152
8 115 124 116 127 120 36 98 51
7 137 53 129 62 14 22 10
9 73 144 194 6 114 186 23 142 35
4 19 153 133 197
8 18 106 100 68 52 60 188 77
7 55 54 130 104 5 175 82
7 156 164 25 165 157 176 187
5 105 147 39 159 12
6 131 33 198 196 162 32
7 61 66 189 13 174 126 102
7 94 172 111 118 150 29 57

Total makespan: 80

30
5 191 27 9 85 103
9 135 113 16 75 89 180 161 2 91
7 64 79 151 134 34 0 70
8 69 149 101 117 199 81 38 45
5 145 107 43 170 76
7 20 140 46 146 44 192 183
8 80 30 190 37 141 182 125 74
8 166 128 49 143 1 31 148 110
7 84 87 50 11 41 179 95
4 195 26 158 63
6 122 28 47 160 171 181
7 90 178 155 8 71 17 83
3 72 185 59
7 167 65 48 99 96 21 132
7 92 177 154 169 168 24 42
10 119 163 78 112 139 56 121 86 109 93
6 138 67 3 7 40 184
6 123 193 58 136 4 88
5 108 97 15 173 152
8 115 124 116 127 120 36 98 51
7 137 53 129 62 14 22 10
9 73 144 194 6 114 186 23 142 35
4 19 153 133 197
8 18 106 100 68 52 60 188 77
7 55 54 130 104 5 175 82
7 156 164 25 165 157 176 187
5 105 147 39 159 12
6 131 33 198 196 162 32
7 61 66 189 13 174 126 102
7 94 172 111 118 150 29 57

Total makespan: 80

