15
14 94 167 41 130 177 87 10 34 9 89 164 15 134 46
15 12 25 157 135 56 21 86 78 184 123 58 37 90 172 140
12 32 33 194 72 185 155 45 151 23 92 2 44
13 160 43 26 146 161 149 95 180 141 107 31 88 142
13 174 66 98 80 153 30 189 97 125 192 24 51 193
10 165 122 48 11 176 93 117 79 170 168
13 53 173 169 19 6 111 171 57 70 7 83 145 126
12 199 59 181 85 163 35 154 75 62 39 27 47
14 99 17 121 13 133 5 100 132 73 139 195 143 112 81
18 109 69 104 77 115 36 178 65 3 187 120 68 0 182 82 129 148 137
15 50 20 16 52 158 197 114 138 162 179 49 159 102 106 113
16 191 136 55 76 74 175 84 144 60 166 119 127 18 156 150 42
13 131 4 198 152 8 186 38 101 22 91 103 29 1
13 61 108 67 96 40 71 105 64 118 116 110 188 124
9 54 190 196 28 128 183 63 14 147

Total makespan: 176

15
14 94 167 41 130 177 87 10 34 9 89 164 15 134 46
15 12 25 157 135 56 21 86 78 184 123 58 37 90 172 140
12 32 33 194 72 185 155 45 151 23 92 2 44
13 160 43 26 146 161 149 95 180 141 107 31 88 142
13 174 66 98 80 153 30 189 97 125 192 24 51 193
10 165 122 48 11 176 93 117 79 170 168
13 53 173 169 19 6 111 171 57 70 7 83 145 126
12 199 59 181 85 163 35 154 75 62 39 27 47
14 99 17 121 13 133 5 100 132 73 139 195 143 112 81
18 109 69 104 77 115 36 178 65 3 187 120 68 0 182 82 129 148 137
15 50 20 16 52 158 197 114 138 162 179 49 159 102 106 113
16 191 136 55 76 74 175 84 144 60 166 119 127 18 156 150 42
13 131 4 198 152 8 186 38 101 22 91 103 29 1
13 61 108 67 96 40 71 105 64 118 116 110 188 124
9 54 190 196 28 128 183 63 14 147

Total makespan: 176

15
14 94 167 41 130 177 87 10 34 9 89 164 15 134 46
15 12 25 157 135 56 21 86 78 184 123 58 37 90 172 140
12 32 33 194 72 185 155 45 151 23 92 2 44
13 160 43 26 146 161 149 95 180 141 107 31 88 142
13 174 66 98 80 153 30 189 97 125 192 24 51 193
10 165 122 48 11 176 93 117 79 170 168
13 53 173 169 19 6 111 171 57 70 7 83 145 126
12 199 59 181 85 163 35 154 75 62 39 27 47
14 99 17 121 13 133 5 100 132 73 139 195 143 112 81
18 109 69 104 77 115 36 178 65 3 187 120 68 0 182 82 129 148 137
15 50 20 16 52 158 197 114 138 162 179 49 159 102 106 113
16 191 136 55 76 74 175 84 144 60 166 119 127 18 156 150 42
13 131 4 198 152 8 186 38 101 22 91 103 29 1
13 61 108 67 96 40 71 105 64 118 116 110 188 124
9 54 190 196 28 128 183 63 14 147

Total makespan: 176

