25
8 106 39 63 9 31 70 7 184
7 51 199 105 61 108 19 174
8 129 189 81 180 91 122 120 69
5 101 25 44 168 172
8 182 114 23 11 67 132 102 1
5 16 41 131 149 152
8 71 163 150 92 80 58 55 43
11 75 125 188 121 65 27 176 185 37 130 193
7 53 128 20 162 22 8 119
10 181 124 159 4 88 133 12 93 113 175
11 0 76 77 165 135 145 66 141 142 56 10
9 169 73 179 24 5 192 47 46 147
9 154 171 183 49 15 72 86 115 96
7 95 3 97 90 112 143 190
9 138 82 98 170 198 21 64 28 50
9 139 123 111 89 144 173 99 136 197
6 29 74 62 26 146 14
10 148 94 52 17 45 34 60 13 134 196
7 140 178 161 118 126 57 107
7 35 153 156 177 33 87 137
6 167 195 187 186 155 117
8 160 78 100 116 85 6 166 151
8 164 36 48 110 109 40 157 158
7 30 103 127 84 54 2 194
10 104 38 79 32 68 83 18 191 42 59

Total makespan: 46

25
8 106 39 63 9 31 70 7 184
7 51 199 105 61 108 19 174
8 129 189 81 180 91 122 120 69
5 101 25 44 168 172
8 182 114 23 11 67 132 102 1
5 16 41 131 149 152
8 71 163 150 92 80 58 55 43
11 75 125 188 121 65 27 176 185 37 130 193
7 53 128 20 162 22 8 119
10 181 124 159 4 88 133 12 93 113 175
11 0 76 77 165 135 145 66 141 142 56 10
9 169 73 179 24 5 192 47 46 147
9 154 171 183 49 15 72 86 115 96
7 95 3 97 90 112 143 190
9 138 82 98 170 198 21 64 28 50
9 139 123 111 89 144 173 99 136 197
6 29 74 62 26 146 14
10 148 94 52 17 45 34 60 13 134 196
7 140 178 161 118 126 57 107
7 35 153 156 177 33 87 137
6 167 195 187 186 155 117
8 160 78 100 116 85 6 166 151
8 164 36 48 110 109 40 157 158
7 30 103 127 84 54 2 194
10 104 38 79 32 68 83 18 191 42 59

Total makespan: 46

