20
10 143 102 41 128 9 134 65 160 133 85
11 182 148 59 17 123 33 70 191 60 189 8
11 27 19 49 197 12 34 161 113 181 185 11
10 165 179 175 44 162 91 71 77 117 196
10 169 66 156 97 30 158 62 104 64 31
10 166 40 163 16 45 75 54 74 112 99
9 180 127 93 51 26 2 136 29 69
12 149 108 159 57 101 80 18 52 187 116 147 28
10 20 58 137 21 150 7 132 153 13 155
11 152 122 68 164 14 53 25 73 50 76 131
9 130 78 107 6 193 145 176 4 0
12 92 87 109 56 95 96 84 24 61 146 119 106
11 32 43 144 120 188 198 199 82 125 139 36
8 110 121 35 192 114 38 167 184
9 63 67 83 174 15 88 168 94 141
10 115 79 177 42 157 5 37 118 72 154
9 103 3 194 47 173 48 126 170 98
9 190 151 1 86 178 55 140 138 105
8 183 111 89 172 23 186 81 171
11 142 39 124 22 135 100 46 195 10 90 129

Total makespan: 68

20
10 143 102 41 128 9 134 65 160 133 85
11 182 148 59 17 123 33 70 191 60 189 8
11 27 19 49 197 12 34 161 113 181 185 11
10 165 179 175 44 162 91 71 77 117 196
10 169 66 156 97 30 158 62 104 64 31
10 166 40 163 16 45 75 54 74 112 99
9 180 127 93 51 26 2 136 29 69
12 149 108 159 57 101 80 18 52 187 116 147 28
10 20 58 137 21 150 7 132 153 13 155
11 152 122 68 164 14 53 25 73 50 76 131
9 130 78 107 6 193 145 176 4 0
12 92 87 109 56 95 96 84 24 61 146 119 106
11 32 43 144 120 188 198 199 82 125 139 36
8 110 121 35 192 114 38 167 184
9 63 67 83 174 15 88 168 94 141
10 115 79 177 42 157 5 37 118 72 154
9 103 3 194 47 173 48 126 170 98
9 190 151 1 86 178 55 140 138 105
8 183 111 89 172 23 186 81 171
11 142 39 124 22 135 100 46 195 10 90 129

Total makespan: 68

