20
14 121 48 95 13 148 168 38 199 24 161 173 50 175 83
9 171 115 172 93 78 185 90 128 59
10 140 86 81 69 5 85 34 96 4 76
10 36 106 12 54 138 133 58 57 101 181
8 132 74 177 17 170 141 40 142
6 131 152 32 22 75 184
12 66 99 156 117 55 134 157 158 125 155 28 30
10 80 91 107 166 180 21 102 1 169 41
12 61 194 153 160 53 52 94 100 45 159 87 174
11 109 129 165 191 116 27 113 122 89 8 33
11 147 31 65 10 68 135 29 67 16 20 92
10 119 198 2 11 84 88 164 127 187 188
8 73 14 150 79 111 182 103 114
9 7 44 183 154 105 189 167 126 9
10 56 18 146 186 60 39 130 145 82 77
10 6 196 19 110 62 98 37 136 42 195
10 143 118 23 43 120 112 70 123 71 144
8 178 0 63 97 176 149 35 179
11 51 162 72 26 3 137 108 15 193 139 151
11 49 47 25 124 104 163 190 46 197 64 192

Total makespan: 137

20
14 121 48 95 13 148 168 38 199 24 161 173 50 175 83
9 171 115 172 93 78 185 90 128 59
10 140 86 81 69 5 85 34 96 4 76
10 36 106 12 54 138 133 58 57 101 181
8 132 74 177 17 170 141 40 142
6 131 152 32 22 75 184
12 66 99 156 117 55 134 157 158 125 155 28 30
10 80 91 107 166 180 21 102 1 169 41
12 61 194 153 160 53 52 94 100 45 159 87 174
11 109 129 165 191 116 27 113 122 89 8 33
11 147 31 65 10 68 135 29 67 16 20 92
10 119 198 2 11 84 88 164 127 187 188
8 73 14 150 79 111 182 103 114
9 7 44 183 154 105 189 167 126 9
10 56 18 146 186 60 39 130 145 82 77
10 6 196 19 110 62 98 37 136 42 195
10 143 118 23 43 120 112 70 123 71 144
8 178 0 63 97 176 149 35 179
11 51 162 72 26 3 137 108 15 193 139 151
11 49 47 25 124 104 163 190 46 197 64 192

Total makespan: 137

