30
9 59 16 56 93 167 125 160 3 83
7 199 101 143 82 74 25 164
6 178 146 88 84 60 45
8 174 35 36 33 126 10 168 140
7 81 22 15 192 196 183 129
7 182 51 103 68 105 189 149
8 193 44 27 171 175 87 172 47
5 197 79 58 14 165
10 52 190 18 89 24 128 17 179 1 69
5 191 67 90 41 32
7 135 62 75 23 138 49 131
8 102 20 153 29 31 177 121 39
6 6 127 188 163 148 161
8 111 170 113 115 66 40 110 198
7 19 4 43 34 94 65 61
6 42 46 0 95 5 155
5 180 53 9 86 55
7 73 186 185 150 166 130 80
5 109 54 99 151 132
5 156 187 11 117 169
7 13 21 63 7 38 76 91
8 48 194 136 184 50 195 100 98
6 116 57 71 144 123 118
7 37 108 104 159 30 112 124
5 122 77 134 181 2
4 72 119 92 162
6 70 28 78 96 152 107
7 114 97 26 157 145 173 142
7 176 158 137 141 133 139 85
7 12 106 154 147 64 120 8

Total makespan: 39

30
9 59 16 56 93 167 125 160 3 83
7 199 101 143 82 74 25 164
6 178 146 88 84 60 45
8 174 35 36 33 126 10 168 140
7 81 22 15 192 196 183 129
7 182 51 103 68 105 189 149
8 193 44 27 171 175 87 172 47
5 197 79 58 14 165
10 52 190 18 89 24 128 17 179 1 69
5 191 67 90 41 32
7 135 62 75 23 138 49 131
8 102 20 153 29 31 177 121 39
6 6 127 188 163 148 161
8 111 170 113 115 66 40 110 198
7 19 4 43 34 94 65 61
6 42 46 0 95 5 155
5 180 53 9 86 55
7 73 186 185 150 166 130 80
5 109 54 99 151 132
5 156 187 11 117 169
7 13 21 63 7 38 76 91
8 48 194 136 184 50 195 100 98
6 116 57 71 144 123 118
7 37 108 104 159 30 112 124
5 122 77 134 181 2
4 72 119 92 162
6 70 28 78 96 152 107
7 114 97 26 157 145 173 142
7 176 158 137 141 133 139 85
7 12 106 154 147 64 120 8

Total makespan: 39

30
9 59 16 56 93 167 125 160 3 83
7 199 101 143 82 74 25 164
6 178 146 88 84 60 45
8 174 35 36 33 126 10 168 140
7 81 22 15 192 196 183 129
7 182 51 103 68 105 189 149
8 193 44 27 171 175 87 172 47
5 197 79 58 14 165
10 52 190 18 89 24 128 17 179 1 69
5 191 67 90 41 32
7 135 62 75 23 138 49 131
8 102 20 153 29 31 177 121 39
6 6 127 188 163 148 161
8 111 170 113 115 66 40 110 198
7 19 4 43 34 94 65 61
6 42 46 0 95 5 155
5 180 53 9 86 55
7 73 186 185 150 166 130 80
5 109 54 99 151 132
5 156 187 11 117 169
7 13 21 63 7 38 76 91
8 48 194 136 184 50 195 100 98
6 116 57 71 144 123 118
7 37 108 104 159 30 112 124
5 122 77 134 181 2
4 72 119 92 162
6 70 28 78 96 152 107
7 114 97 26 157 145 173 142
7 176 158 137 141 133 139 85
7 12 106 154 147 64 120 8

Total makespan: 39

