20
15 104 135 116 90 165 23 146 195 61 145 94 68 185 150 79
8 0 183 152 72 113 44 15 110
7 6 37 91 56 181 198 188
9 119 127 105 36 131 25 2 12 26
8 106 11 59 98 196 52 66 82
10 123 83 189 89 197 174 159 58 156 50
12 67 142 130 138 114 101 193 55 103 86 170 5
10 64 8 147 161 163 41 45 160 80 134
12 180 166 29 54 148 157 121 125 136 100 9 186
10 155 115 149 7 108 173 144 95 30 182
9 19 57 132 118 51 92 120 18 158
8 46 22 194 143 32 192 40 107
10 16 24 124 38 84 162 122 60 137 87
11 20 102 153 73 63 39 139 176 1 65 53
9 141 14 199 42 34 117 75 168 85
10 69 167 184 70 191 171 172 179 128 99
11 133 126 111 4 74 97 13 71 88 17 28
9 178 76 78 109 154 140 81 77 151
9 43 35 33 47 112 49 164 62 187
13 93 177 10 190 31 96 48 175 27 21 169 129 3

Total makespan: 134

20
15 104 135 116 90 165 23 146 195 61 145 94 68 185 150 79
8 0 183 152 72 113 44 15 110
7 6 37 91 56 181 198 188
9 119 127 105 36 131 25 2 12 26
8 106 11 59 98 196 52 66 82
10 123 83 189 89 197 174 159 58 156 50
12 67 142 130 138 114 101 193 55 103 86 170 5
10 64 8 147 161 163 41 45 160 80 134
12 180 166 29 54 148 157 121 125 136 100 9 186
10 155 115 149 7 108 173 144 95 30 182
9 19 57 132 118 51 92 120 18 158
8 46 22 194 143 32 192 40 107
10 16 24 124 38 84 162 122 60 137 87
11 20 102 153 73 63 39 139 176 1 65 53
9 141 14 199 42 34 117 75 168 85
10 69 167 184 70 191 171 172 179 128 99
11 133 126 111 4 74 97 13 71 88 17 28
9 178 76 78 109 154 140 81 77 151
9 43 35 33 47 112 49 164 62 187
13 93 177 10 190 31 96 48 175 27 21 169 129 3

Total makespan: 134

20
15 104 135 116 90 165 23 146 195 61 145 94 68 185 150 79
8 0 183 152 72 113 44 15 110
7 6 37 91 56 181 198 188
9 119 127 105 36 131 25 2 12 26
8 106 11 59 98 196 52 66 82
10 123 83 189 89 197 174 159 58 156 50
12 67 142 130 138 114 101 193 55 103 86 170 5
10 64 8 147 161 163 41 45 160 80 134
12 180 166 29 54 148 157 121 125 136 100 9 186
10 155 115 149 7 108 173 144 95 30 182
9 19 57 132 118 51 92 120 18 158
8 46 22 194 143 32 192 40 107
10 16 24 124 38 84 162 122 60 137 87
11 20 102 153 73 63 39 139 176 1 65 53
9 141 14 199 42 34 117 75 168 85
10 69 167 184 70 191 171 172 179 128 99
11 133 126 111 4 74 97 13 71 88 17 28
9 178 76 78 109 154 140 81 77 151
9 43 35 33 47 112 49 164 62 187
13 93 177 10 190 31 96 48 175 27 21 169 129 3

Total makespan: 134

