25
9 122 180 103 105 7 102 121 108 179
8 178 173 161 77 38 132 32 14
6 48 62 107 76 169 92
7 11 118 177 29 16 9 123
8 70 144 194 91 172 19 163 113
7 136 87 139 143 86 181 83
7 31 138 94 116 133 47 25
7 66 128 109 125 141 153 71
5 39 8 75 5 184
9 61 2 154 27 45 1 55 53 56
9 140 81 193 22 142 57 40 150 182
7 130 176 30 187 145 73 171
11 190 74 60 164 26 69 99 114 65 104 131
7 135 72 13 126 165 198 159
7 23 50 167 119 10 129 157
9 117 95 100 67 68 152 162 124 183
8 21 82 90 80 170 33 112 64
8 4 89 85 79 199 96 147 174
10 166 151 34 28 175 49 17 59 149 24
10 18 158 120 196 54 93 44 0 43 106
8 110 189 195 101 88 78 127 3
10 51 148 97 37 115 197 185 41 188 6
9 35 98 20 12 192 186 156 42 36
7 134 58 137 15 63 155 191
7 168 160 111 52 46 84 146

Total makespan: 72

25
9 122 180 103 105 7 102 121 108 179
8 178 173 161 77 38 132 32 14
6 48 62 107 76 169 92
7 11 118 177 29 16 9 123
8 70 144 194 91 172 19 163 113
7 136 87 139 143 86 181 83
7 31 138 94 116 133 47 25
7 66 128 109 125 141 153 71
5 39 8 75 5 184
9 61 2 154 27 45 1 55 53 56
9 140 81 193 22 142 57 40 150 182
7 130 176 30 187 145 73 171
11 190 74 60 164 26 69 99 114 65 104 131
7 135 72 13 126 165 198 159
7 23 50 167 119 10 129 157
9 117 95 100 67 68 152 162 124 183
8 21 82 90 80 170 33 112 64
8 4 89 85 79 199 96 147 174
10 166 151 34 28 175 49 17 59 149 24
10 18 158 120 196 54 93 44 0 43 106
8 110 189 195 101 88 78 127 3
10 51 148 97 37 115 197 185 41 188 6
9 35 98 20 12 192 186 156 42 36
7 134 58 137 15 63 155 191
7 168 160 111 52 46 84 146

Total makespan: 72

