15
11 18 117 196 136 29 11 30 9 69 193 137
17 28 3 59 149 68 191 21 96 99 2 4 186 31 94 146 25 199
12 173 166 128 92 84 129 41 51 46 73 107 162
13 114 65 124 185 26 87 141 174 15 85 52 111 192
10 180 177 127 116 183 42 23 83 72 184
13 27 153 44 144 132 104 152 188 43 156 89 47 115
9 56 195 22 154 79 168 138 81 33
12 109 171 112 80 145 77 67 6 70 194 20 108
16 98 133 45 179 95 121 8 163 10 106 54 130 58 19 169 55
15 90 78 101 40 62 49 39 38 181 53 147 150 48 0 110
13 66 103 182 88 164 12 187 190 82 170 176 24 158
15 32 198 16 140 172 97 71 75 175 13 57 35 105 86 76
18 178 189 167 36 34 134 165 123 125 60 63 91 113 118 74 5 1 139
14 131 160 161 102 126 17 100 148 64 37 135 142 151 159
12 122 157 61 143 50 93 119 197 14 155 7 120

Total makespan: 147

15
11 18 117 196 136 29 11 30 9 69 193 137
17 28 3 59 149 68 191 21 96 99 2 4 186 31 94 146 25 199
12 173 166 128 92 84 129 41 51 46 73 107 162
13 114 65 124 185 26 87 141 174 15 85 52 111 192
10 180 177 127 116 183 42 23 83 72 184
13 27 153 44 144 132 104 152 188 43 156 89 47 115
9 56 195 22 154 79 168 138 81 33
12 109 171 112 80 145 77 67 6 70 194 20 108
16 98 133 45 179 95 121 8 163 10 106 54 130 58 19 169 55
15 90 78 101 40 62 49 39 38 181 53 147 150 48 0 110
13 66 103 182 88 164 12 187 190 82 170 176 24 158
15 32 198 16 140 172 97 71 75 175 13 57 35 105 86 76
18 178 189 167 36 34 134 165 123 125 60 63 91 113 118 74 5 1 139
14 131 160 161 102 126 17 100 148 64 37 135 142 151 159
12 122 157 61 143 50 93 119 197 14 155 7 120

Total makespan: 147

