10
17 126 28 90 112 44 142 51 23 50 98 95 67 170 6 17 55 198
19 26 25 159 108 19 136 150 195 24 33 89 135 0 146 183 94 34 101 92
23 111 151 73 120 190 113 40 163 149 104 86 75 169 10 144 125 158 77 43 80 160 148 145
21 140 79 197 14 46 72 29 83 20 179 154 65 31 49 58 5 69 184 103 70 106
21 181 182 194 3 16 100 66 22 130 42 139 45 191 8 37 117 38 110 4 121 56
16 105 118 168 35 165 137 122 162 15 64 96 133 76 152 60 188
21 177 88 7 166 52 39 9 174 176 57 102 78 59 48 193 171 196 82 143 116 53
19 128 84 91 141 107 54 99 187 109 138 123 186 2 175 11 36 127 71 172
23 185 21 164 161 134 74 153 124 81 167 199 114 156 131 189 1 147 155 47 32 119 93 12
20 30 18 87 178 13 115 61 85 27 132 173 97 157 62 63 41 68 129 192 180

Total makespan: 341

10
17 126 28 90 112 44 142 51 23 50 98 95 67 170 6 17 55 198
19 26 25 159 108 19 136 150 195 24 33 89 135 0 146 183 94 34 101 92
23 111 151 73 120 190 113 40 163 149 104 86 75 169 10 144 125 158 77 43 80 160 148 145
21 140 79 197 14 46 72 29 83 20 179 154 65 31 49 58 5 69 184 103 70 106
21 181 182 194 3 16 100 66 22 130 42 139 45 191 8 37 117 38 110 4 121 56
16 105 118 168 35 165 137 122 162 15 64 96 133 76 152 60 188
21 177 88 7 166 52 39 9 174 176 57 102 78 59 48 193 171 196 82 143 116 53
19 128 84 91 141 107 54 99 187 109 138 123 186 2 175 11 36 127 71 172
23 185 21 164 161 134 74 153 124 81 167 199 114 156 131 189 1 147 155 47 32 119 93 12
20 30 18 87 178 13 115 61 85 27 132 173 97 157 62 63 41 68 129 192 180

Total makespan: 341

