10
23 207 236 196 90 19 72 42 16 237 126 54 177 222 2 223 104 32 201 101 45 100 11 219
25 67 205 35 51 53 186 245 183 141 63 119 68 165 131 111 1 113 159 74 182 122 163 99 121 106
30 161 226 21 244 149 12 49 87 62 200 79 168 43 78 249 48 58 198 86 61 38 181 6 231 184 246 34 170 133 158
21 228 208 109 132 84 172 138 8 216 144 148 247 134 193 112 91 10 204 195 137 197
20 211 238 80 173 153 130 227 136 31 9 242 27 218 57 14 147 174 39 192 129
28 105 33 162 37 243 146 22 239 213 135 44 214 157 178 199 240 234 97 224 26 230 120 188 155 171 96 13 217
23 190 18 98 241 56 89 70 210 94 175 156 24 5 108 23 15 64 150 142 25 209 36 20
27 77 40 82 169 60 179 140 232 166 206 117 235 203 164 55 143 187 115 50 194 73 212 29 118 102 93 65
27 46 176 124 189 7 88 202 233 30 3 220 52 151 17 154 128 248 167 145 83 123 221 47 114 69 225 139
26 160 110 92 41 229 125 81 215 28 75 0 95 59 107 103 4 71 185 76 116 127 180 152 191 66 85

Total makespan: 335

10
23 207 236 196 90 19 72 42 16 237 126 54 177 222 2 223 104 32 201 101 45 100 11 219
25 67 205 35 51 53 186 245 183 141 63 119 68 165 131 111 1 113 159 74 182 122 163 99 121 106
30 161 226 21 244 149 12 49 87 62 200 79 168 43 78 249 48 58 198 86 61 38 181 6 231 184 246 34 170 133 158
21 228 208 109 132 84 172 138 8 216 144 148 247 134 193 112 91 10 204 195 137 197
20 211 238 80 173 153 130 227 136 31 9 242 27 218 57 14 147 174 39 192 129
28 105 33 162 37 243 146 22 239 213 135 44 214 157 178 199 240 234 97 224 26 230 120 188 155 171 96 13 217
23 190 18 98 241 56 89 70 210 94 175 156 24 5 108 23 15 64 150 142 25 209 36 20
27 77 40 82 169 60 179 140 232 166 206 117 235 203 164 55 143 187 115 50 194 73 212 29 118 102 93 65
27 46 176 124 189 7 88 202 233 30 3 220 52 151 17 154 128 248 167 145 83 123 221 47 114 69 225 139
26 160 110 92 41 229 125 81 215 28 75 0 95 59 107 103 4 71 185 76 116 127 180 152 191 66 85

Total makespan: 335

10
23 207 236 196 90 19 72 42 16 237 126 54 177 222 2 223 104 32 201 101 45 100 11 219
25 67 205 35 51 53 186 245 183 141 63 119 68 165 131 111 1 113 159 74 182 122 163 99 121 106
30 161 226 21 244 149 12 49 87 62 200 79 168 43 78 249 48 58 198 86 61 38 181 6 231 184 246 34 170 133 158
21 228 208 109 132 84 172 138 8 216 144 148 247 134 193 112 91 10 204 195 137 197
20 211 238 80 173 153 130 227 136 31 9 242 27 218 57 14 147 174 39 192 129
28 105 33 162 37 243 146 22 239 213 135 44 214 157 178 199 240 234 97 224 26 230 120 188 155 171 96 13 217
23 190 18 98 241 56 89 70 210 94 175 156 24 5 108 23 15 64 150 142 25 209 36 20
27 77 40 82 169 60 179 140 232 166 206 117 235 203 164 55 143 187 115 50 194 73 212 29 118 102 93 65
27 46 176 124 189 7 88 202 233 30 3 220 52 151 17 154 128 248 167 145 83 123 221 47 114 69 225 139
26 160 110 92 41 229 125 81 215 28 75 0 95 59 107 103 4 71 185 76 116 127 180 152 191 66 85

Total makespan: 335

