15
13 86 199 37 27 41 161 156 116 169 147 84 47 83
17 78 60 85 11 197 53 127 249 131 157 123 39 95 126 142 111 139
17 97 189 185 93 65 105 34 216 201 154 20 108 66 43 194 235 89
15 77 71 7 48 31 29 120 107 230 150 13 206 98 145 9
14 153 140 18 44 138 137 183 6 59 176 73 40 172 136
17 215 162 30 188 2 184 36 10 149 61 25 79 96 204 35 152 187
17 133 208 191 178 119 146 164 217 3 247 221 244 163 220 160 218 104
14 243 209 246 57 92 222 4 42 158 17 50 229 151 100
20 112 46 113 170 228 248 236 114 75 121 159 196 49 143 212 15 232 102 72 233
19 21 103 165 62 186 23 168 226 180 101 175 181 182 94 125 155 205 122 87
14 200 58 245 234 193 129 88 174 110 240 207 231 210 109
19 99 56 32 173 24 224 22 74 69 118 106 38 80 26 45 213 198 8 134
16 81 227 64 1 238 124 115 144 130 192 237 82 68 167 51 214
21 195 211 203 128 171 28 141 70 16 242 117 0 63 179 148 132 225 241 55 239 5
17 19 12 91 135 166 219 223 33 67 202 14 177 90 190 76 52 54

Total makespan: 220

15
13 86 199 37 27 41 161 156 116 169 147 84 47 83
17 78 60 85 11 197 53 127 249 131 157 123 39 95 126 142 111 139
17 97 189 185 93 65 105 34 216 201 154 20 108 66 43 194 235 89
15 77 71 7 48 31 29 120 107 230 150 13 206 98 145 9
14 153 140 18 44 138 137 183 6 59 176 73 40 172 136
17 215 162 30 188 2 184 36 10 149 61 25 79 96 204 35 152 187
17 133 208 191 178 119 146 164 217 3 247 221 244 163 220 160 218 104
14 243 209 246 57 92 222 4 42 158 17 50 229 151 100
20 112 46 113 170 228 248 236 114 75 121 159 196 49 143 212 15 232 102 72 233
19 21 103 165 62 186 23 168 226 180 101 175 181 182 94 125 155 205 122 87
14 200 58 245 234 193 129 88 174 110 240 207 231 210 109
19 99 56 32 173 24 224 22 74 69 118 106 38 80 26 45 213 198 8 134
16 81 227 64 1 238 124 115 144 130 192 237 82 68 167 51 214
21 195 211 203 128 171 28 141 70 16 242 117 0 63 179 148 132 225 241 55 239 5
17 19 12 91 135 166 219 223 33 67 202 14 177 90 190 76 52 54

Total makespan: 220

