20
12 175 74 15 144 2 237 32 181 101 37 135 111
13 10 72 54 200 142 125 153 16 244 180 104 55 143
14 48 63 18 216 36 102 221 93 29 57 206 133 202 247
13 78 130 126 34 192 242 227 128 60 229 97 28 31
12 186 107 170 205 195 211 209 13 212 76 35 230
9 149 51 235 121 113 7 114 224 91
14 240 46 21 71 203 96 42 145 138 4 88 178 90 25
9 218 127 207 136 238 198 155 185 3
13 183 106 182 233 49 139 146 47 119 131 239 137 5
12 154 120 40 191 99 0 249 12 62 103 214 193
14 231 184 17 81 80 69 82 89 79 124 44 232 223 100
11 199 94 59 148 171 118 160 159 109 23 73
14 117 169 24 115 219 53 92 194 39 64 123 173 152 129
11 162 105 196 220 87 176 141 167 150 168 248
16 56 67 27 147 11 98 110 245 201 222 226 188 116 41 197 246
10 122 30 204 8 52 179 151 84 166 45
13 19 68 14 65 177 172 6 215 85 157 187 163 165
14 156 95 208 174 161 75 132 225 20 190 58 77 243 33
11 158 210 1 86 26 164 241 108 236 213 61
15 50 83 38 234 189 112 70 228 66 140 22 43 9 217 134

Total makespan: 126

20
12 175 74 15 144 2 237 32 181 101 37 135 111
13 10 72 54 200 142 125 153 16 244 180 104 55 143
14 48 63 18 216 36 102 221 93 29 57 206 133 202 247
13 78 130 126 34 192 242 227 128 60 229 97 28 31
12 186 107 170 205 195 211 209 13 212 76 35 230
9 149 51 235 121 113 7 114 224 91
14 240 46 21 71 203 96 42 145 138 4 88 178 90 25
9 218 127 207 136 238 198 155 185 3
13 183 106 182 233 49 139 146 47 119 131 239 137 5
12 154 120 40 191 99 0 249 12 62 103 214 193
14 231 184 17 81 80 69 82 89 79 124 44 232 223 100
11 199 94 59 148 171 118 160 159 109 23 73
14 117 169 24 115 219 53 92 194 39 64 123 173 152 129
11 162 105 196 220 87 176 141 167 150 168 248
16 56 67 27 147 11 98 110 245 201 222 226 188 116 41 197 246
10 122 30 204 8 52 179 151 84 166 45
13 19 68 14 65 177 172 6 215 85 157 187 163 165
14 156 95 208 174 161 75 132 225 20 190 58 77 243 33
11 158 210 1 86 26 164 241 108 236 213 61
15 50 83 38 234 189 112 70 228 66 140 22 43 9 217 134

Total makespan: 126

20
12 175 74 15 144 2 237 32 181 101 37 135 111
13 10 72 54 200 142 125 153 16 244 180 104 55 143
14 48 63 18 216 36 102 221 93 29 57 206 133 202 247
13 78 130 126 34 192 242 227 128 60 229 97 28 31
12 186 107 170 205 195 211 209 13 212 76 35 230
9 149 51 235 121 113 7 114 224 91
14 240 46 21 71 203 96 42 145 138 4 88 178 90 25
9 218 127 207 136 238 198 155 185 3
13 183 106 182 233 49 139 146 47 119 131 239 137 5
12 154 120 40 191 99 0 249 12 62 103 214 193
14 231 184 17 81 80 69 82 89 79 124 44 232 223 100
11 199 94 59 148 171 118 160 159 109 23 73
14 117 169 24 115 219 53 92 194 39 64 123 173 152 129
11 162 105 196 220 87 176 141 167 150 168 248
16 56 67 27 147 11 98 110 245 201 222 226 188 116 41 197 246
10 122 30 204 8 52 179 151 84 166 45
13 19 68 14 65 177 172 6 215 85 157 187 163 165
14 156 95 208 174 161 75 132 225 20 190 58 77 243 33
11 158 210 1 86 26 164 241 108 236 213 61
15 50 83 38 234 189 112 70 228 66 140 22 43 9 217 134

Total makespan: 126

