15
16 212 96 139 141 111 103 189 155 2 232 136 186 206 10 80 164
15 26 207 174 87 219 63 31 171 9 16 68 91 248 179 210
23 241 88 120 46 229 76 117 97 187 215 67 199 224 100 237 45 65 1 151 22 128 57 15
20 50 106 168 115 214 93 29 18 129 33 177 34 165 49 163 236 11 193 166 152
17 227 75 191 208 95 62 48 226 169 159 194 225 170 149 61 47 246
13 74 230 167 99 78 60 240 249 21 200 105 195 121
17 98 183 156 154 110 201 134 42 218 92 126 73 196 173 39 116 158
20 59 233 51 55 132 72 148 118 25 185 66 178 101 243 202 83 108 133 153 69
12 131 222 107 247 58 242 7 30 213 211 113 23
14 77 104 122 13 8 52 145 71 125 184 137 203 19 190
18 228 180 6 79 0 197 127 41 217 182 181 20 205 94 40 146 28 82
19 147 70 35 43 54 44 64 204 160 140 157 235 143 90 239 84 89 216 144
14 3 114 53 192 27 32 223 175 85 244 238 38 231 17
17 188 81 209 150 135 109 112 102 234 36 220 119 221 12 245 86 124
15 56 130 198 142 14 5 123 138 4 162 172 176 37 24 161

Total makespan: 221

15
16 212 96 139 141 111 103 189 155 2 232 136 186 206 10 80 164
15 26 207 174 87 219 63 31 171 9 16 68 91 248 179 210
23 241 88 120 46 229 76 117 97 187 215 67 199 224 100 237 45 65 1 151 22 128 57 15
20 50 106 168 115 214 93 29 18 129 33 177 34 165 49 163 236 11 193 166 152
17 227 75 191 208 95 62 48 226 169 159 194 225 170 149 61 47 246
13 74 230 167 99 78 60 240 249 21 200 105 195 121
17 98 183 156 154 110 201 134 42 218 92 126 73 196 173 39 116 158
20 59 233 51 55 132 72 148 118 25 185 66 178 101 243 202 83 108 133 153 69
12 131 222 107 247 58 242 7 30 213 211 113 23
14 77 104 122 13 8 52 145 71 125 184 137 203 19 190
18 228 180 6 79 0 197 127 41 217 182 181 20 205 94 40 146 28 82
19 147 70 35 43 54 44 64 204 160 140 157 235 143 90 239 84 89 216 144
14 3 114 53 192 27 32 223 175 85 244 238 38 231 17
17 188 81 209 150 135 109 112 102 234 36 220 119 221 12 245 86 124
15 56 130 198 142 14 5 123 138 4 162 172 176 37 24 161

Total makespan: 221

