30
8 203 248 184 90 142 115 103 58
10 134 132 78 82 124 16 13 128 131 210
12 17 30 206 61 178 123 189 179 34 39 193 199
8 36 191 166 10 233 5 69 231
8 11 152 23 42 122 215 55 194
11 38 98 19 150 62 234 162 170 211 7 144
9 182 24 238 137 4 52 175 165 217
8 228 57 81 216 208 44 121 21
8 31 196 174 226 120 64 71 181
7 227 53 133 102 201 222 141
9 72 149 187 125 65 8 37 183 164
5 48 109 47 22 112
9 221 242 110 220 173 241 116 6 40
7 247 43 229 213 91 246 237
6 59 33 153 161 205 223
8 168 88 97 200 12 84 87 224
7 245 190 54 118 86 67 74
9 41 68 106 45 177 35 249 127 32
10 93 136 151 56 105 25 143 101 197 107
9 80 63 204 0 209 188 108 202 163
11 244 111 9 77 180 232 95 70 243 138 154
8 239 51 20 198 219 29 50 96
10 186 117 60 75 171 240 99 14 160 225
5 185 169 176 119 26
7 145 15 79 135 147 172 85
9 3 236 46 192 28 195 214 159 66
6 126 113 83 140 130 2
8 139 148 230 89 18 207 157 218
9 76 158 129 73 146 94 167 27 100
9 1 114 235 156 92 104 49 212 155

Total makespan: 68

30
8 203 248 184 90 142 115 103 58
10 134 132 78 82 124 16 13 128 131 210
12 17 30 206 61 178 123 189 179 34 39 193 199
8 36 191 166 10 233 5 69 231
8 11 152 23 42 122 215 55 194
11 38 98 19 150 62 234 162 170 211 7 144
9 182 24 238 137 4 52 175 165 217
8 228 57 81 216 208 44 121 21
8 31 196 174 226 120 64 71 181
7 227 53 133 102 201 222 141
9 72 149 187 125 65 8 37 183 164
5 48 109 47 22 112
9 221 242 110 220 173 241 116 6 40
7 247 43 229 213 91 246 237
6 59 33 153 161 205 223
8 168 88 97 200 12 84 87 224
7 245 190 54 118 86 67 74
9 41 68 106 45 177 35 249 127 32
10 93 136 151 56 105 25 143 101 197 107
9 80 63 204 0 209 188 108 202 163
11 244 111 9 77 180 232 95 70 243 138 154
8 239 51 20 198 219 29 50 96
10 186 117 60 75 171 240 99 14 160 225
5 185 169 176 119 26
7 145 15 79 135 147 172 85
9 3 236 46 192 28 195 214 159 66
6 126 113 83 140 130 2
8 139 148 230 89 18 207 157 218
9 76 158 129 73 146 94 167 27 100
9 1 114 235 156 92 104 49 212 155

Total makespan: 68

