25
8 184 234 239 28 199 158 38 166
9 116 185 37 54 148 110 222 196 9
10 161 13 188 177 245 194 68 31 233 102
10 202 8 118 87 243 211 135 142 198 191
10 227 215 112 223 217 60 140 77 26 127
10 24 33 86 72 165 182 139 147 170 11
11 107 103 164 180 154 105 237 206 121 92 213
10 195 7 208 120 247 71 172 209 79 162
11 240 81 99 41 40 186 51 27 108 157 5
12 146 10 150 229 42 163 20 137 117 114 56 47
10 159 171 45 131 57 214 46 17 151 44
9 183 125 78 155 22 15 73 55 181
7 187 59 43 58 226 94 61
10 132 95 119 207 98 100 109 173 219 210
9 232 244 106 174 53 93 169 123 1
12 242 175 25 218 153 82 34 179 130 236 152 145
7 23 90 89 197 66 224 80
11 75 124 216 97 249 122 113 48 12 39 101
12 30 18 19 96 83 238 190 111 126 104 212 144
9 65 241 29 49 176 6 138 167 200
12 91 74 62 133 70 192 115 228 168 85 225 88
9 193 2 205 14 230 63 141 189 178
10 149 201 128 21 204 221 76 52 67 16
15 84 136 246 203 4 220 235 231 129 143 0 134 36 160 50
7 3 248 35 64 69 156 32

Total makespan: 127

25
8 184 234 239 28 199 158 38 166
9 116 185 37 54 148 110 222 196 9
10 161 13 188 177 245 194 68 31 233 102
10 202 8 118 87 243 211 135 142 198 191
10 227 215 112 223 217 60 140 77 26 127
10 24 33 86 72 165 182 139 147 170 11
11 107 103 164 180 154 105 237 206 121 92 213
10 195 7 208 120 247 71 172 209 79 162
11 240 81 99 41 40 186 51 27 108 157 5
12 146 10 150 229 42 163 20 137 117 114 56 47
10 159 171 45 131 57 214 46 17 151 44
9 183 125 78 155 22 15 73 55 181
7 187 59 43 58 226 94 61
10 132 95 119 207 98 100 109 173 219 210
9 232 244 106 174 53 93 169 123 1
12 242 175 25 218 153 82 34 179 130 236 152 145
7 23 90 89 197 66 224 80
11 75 124 216 97 249 122 113 48 12 39 101
12 30 18 19 96 83 238 190 111 126 104 212 144
9 65 241 29 49 176 6 138 167 200
12 91 74 62 133 70 192 115 228 168 85 225 88
9 193 2 205 14 230 63 141 189 178
10 149 201 128 21 204 221 76 52 67 16
15 84 136 246 203 4 220 235 231 129 143 0 134 36 160 50
7 3 248 35 64 69 156 32

Total makespan: 127

25
8 184 234 239 28 199 158 38 166
9 116 185 37 54 148 110 222 196 9
10 161 13 188 177 245 194 68 31 233 102
10 202 8 118 87 243 211 135 142 198 191
10 227 215 112 223 217 60 140 77 26 127
10 24 33 86 72 165 182 139 147 170 11
11 107 103 164 180 154 105 237 206 121 92 213
10 195 7 208 120 247 71 172 209 79 162
11 240 81 99 41 40 186 51 27 108 157 5
12 146 10 150 229 42 163 20 137 117 114 56 47
10 159 171 45 131 57 214 46 17 151 44
9 183 125 78 155 22 15 73 55 181
7 187 59 43 58 226 94 61
10 132 95 119 207 98 100 109 173 219 210
9 232 244 106 174 53 93 169 123 1
12 242 175 25 218 153 82 34 179 130 236 152 145
7 23 90 89 197 66 224 80
11 75 124 216 97 249 122 113 48 12 39 101
12 30 18 19 96 83 238 190 111 126 104 212 144
9 65 241 29 49 176 6 138 167 200
12 91 74 62 133 70 192 115 228 168 85 225 88
9 193 2 205 14 230 63 141 189 178
10 149 201 128 21 204 221 76 52 67 16
15 84 136 246 203 4 220 235 231 129 143 0 134 36 160 50
7 3 248 35 64 69 156 32

Total makespan: 127

