25
11 236 16 178 44 209 141 18 190 134 159 107
10 160 162 117 8 189 38 20 145 43 206
9 197 171 205 199 17 224 130 100 13
10 243 37 122 142 198 47 207 58 46 193
7 210 103 174 173 166 94 105
13 153 175 172 39 11 76 45 246 102 136 22 53 180
8 29 86 214 65 231 95 36 165
9 241 150 200 163 112 115 133 51 87
9 156 91 59 240 226 238 93 144 98
7 34 152 15 101 132 233 203
12 120 42 84 179 140 248 244 49 225 230 135 148
15 164 222 213 147 235 3 157 70 67 182 61 50 114 31 64
13 192 0 149 169 26 82 183 24 25 216 247 118 79
8 35 85 184 68 108 54 33 80
8 185 217 63 161 7 71 220 56
12 151 123 181 110 1 41 237 28 97 137 32 195
10 124 74 9 77 92 72 127 78 88 23
9 221 6 245 211 2 196 30 223 228
9 232 176 215 116 168 21 62 188 109
13 146 19 249 129 57 89 138 121 186 229 204 90 177
11 208 139 4 155 126 5 218 55 227 27 69
9 40 202 194 131 201 60 12 128 52
7 187 96 104 111 106 73 167
8 143 219 154 75 119 10 170 66
13 191 158 212 234 113 81 14 242 48 239 99 125 83

Total makespan: 124

25
11 236 16 178 44 209 141 18 190 134 159 107
10 160 162 117 8 189 38 20 145 43 206
9 197 171 205 199 17 224 130 100 13
10 243 37 122 142 198 47 207 58 46 193
7 210 103 174 173 166 94 105
13 153 175 172 39 11 76 45 246 102 136 22 53 180
8 29 86 214 65 231 95 36 165
9 241 150 200 163 112 115 133 51 87
9 156 91 59 240 226 238 93 144 98
7 34 152 15 101 132 233 203
12 120 42 84 179 140 248 244 49 225 230 135 148
15 164 222 213 147 235 3 157 70 67 182 61 50 114 31 64
13 192 0 149 169 26 82 183 24 25 216 247 118 79
8 35 85 184 68 108 54 33 80
8 185 217 63 161 7 71 220 56
12 151 123 181 110 1 41 237 28 97 137 32 195
10 124 74 9 77 92 72 127 78 88 23
9 221 6 245 211 2 196 30 223 228
9 232 176 215 116 168 21 62 188 109
13 146 19 249 129 57 89 138 121 186 229 204 90 177
11 208 139 4 155 126 5 218 55 227 27 69
9 40 202 194 131 201 60 12 128 52
7 187 96 104 111 106 73 167
8 143 219 154 75 119 10 170 66
13 191 158 212 234 113 81 14 242 48 239 99 125 83

Total makespan: 124

