25
12 156 249 123 210 248 35 6 140 149 231 26 63
10 21 36 240 111 57 188 165 58 171 74
12 66 159 121 211 178 142 205 185 167 52 162 16
10 201 151 208 197 106 200 3 239 55 135
9 195 24 153 129 161 122 237 76 93
9 89 48 96 117 81 238 59 12 10
7 198 8 128 206 138 176 241
13 22 18 125 134 2 177 202 246 224 131 155 1 207
13 215 242 87 83 47 228 62 109 227 214 213 116 73
11 4 14 84 139 180 90 186 212 137 181 80
10 98 38 104 132 247 145 168 225 37 60
11 7 133 33 34 199 40 51 15 91 41 187
10 113 209 72 102 136 42 184 5 146 196
11 191 79 154 101 229 71 234 54 217 157 86
11 220 53 45 23 88 95 110 85 172 50 150
6 245 222 68 183 78 164
8 65 160 243 100 166 0 194 127
12 219 64 148 92 69 9 94 124 13 179 19 221
8 11 115 112 77 189 46 130 218
7 20 236 82 67 204 170 114
11 32 108 144 31 141 244 216 39 193 143 29
11 56 226 118 182 25 97 192 27 99 152 107
11 235 173 230 105 163 126 49 147 174 175 44
6 203 75 120 190 103 119
11 158 70 223 28 233 17 61 30 43 232 169

Total makespan: 93

25
12 156 249 123 210 248 35 6 140 149 231 26 63
10 21 36 240 111 57 188 165 58 171 74
12 66 159 121 211 178 142 205 185 167 52 162 16
10 201 151 208 197 106 200 3 239 55 135
9 195 24 153 129 161 122 237 76 93
9 89 48 96 117 81 238 59 12 10
7 198 8 128 206 138 176 241
13 22 18 125 134 2 177 202 246 224 131 155 1 207
13 215 242 87 83 47 228 62 109 227 214 213 116 73
11 4 14 84 139 180 90 186 212 137 181 80
10 98 38 104 132 247 145 168 225 37 60
11 7 133 33 34 199 40 51 15 91 41 187
10 113 209 72 102 136 42 184 5 146 196
11 191 79 154 101 229 71 234 54 217 157 86
11 220 53 45 23 88 95 110 85 172 50 150
6 245 222 68 183 78 164
8 65 160 243 100 166 0 194 127
12 219 64 148 92 69 9 94 124 13 179 19 221
8 11 115 112 77 189 46 130 218
7 20 236 82 67 204 170 114
11 32 108 144 31 141 244 216 39 193 143 29
11 56 226 118 182 25 97 192 27 99 152 107
11 235 173 230 105 163 126 49 147 174 175 44
6 203 75 120 190 103 119
11 158 70 223 28 233 17 61 30 43 232 169

Total makespan: 93

25
12 156 249 123 210 248 35 6 140 149 231 26 63
10 21 36 240 111 57 188 165 58 171 74
12 66 159 121 211 178 142 205 185 167 52 162 16
10 201 151 208 197 106 200 3 239 55 135
9 195 24 153 129 161 122 237 76 93
9 89 48 96 117 81 238 59 12 10
7 198 8 128 206 138 176 241
13 22 18 125 134 2 177 202 246 224 131 155 1 207
13 215 242 87 83 47 228 62 109 227 214 213 116 73
11 4 14 84 139 180 90 186 212 137 181 80
10 98 38 104 132 247 145 168 225 37 60
11 7 133 33 34 199 40 51 15 91 41 187
10 113 209 72 102 136 42 184 5 146 196
11 191 79 154 101 229 71 234 54 217 157 86
11 220 53 45 23 88 95 110 85 172 50 150
6 245 222 68 183 78 164
8 65 160 243 100 166 0 194 127
12 219 64 148 92 69 9 94 124 13 179 19 221
8 11 115 112 77 189 46 130 218
7 20 236 82 67 204 170 114
11 32 108 144 31 141 244 216 39 193 143 29
11 56 226 118 182 25 97 192 27 99 152 107
11 235 173 230 105 163 126 49 147 174 175 44
6 203 75 120 190 103 119
11 158 70 223 28 233 17 61 30 43 232 169

Total makespan: 93

