30
7 237 106 168 57 242 119 114
11 243 104 223 171 212 2 158 39 80 123 71
10 129 177 43 59 140 126 84 111 33 76
6 75 86 216 47 100 176
10 197 29 208 175 203 53 159 198 110 193
9 122 37 192 149 186 102 238 230 146
9 113 138 36 206 41 95 234 0 3
11 74 154 245 249 21 96 73 187 229 89 116
9 202 118 152 92 16 56 127 124 88
5 200 61 15 68 65
7 17 13 40 248 81 185 105
4 244 32 144 23
9 64 247 157 183 184 214 165 191 115
8 188 227 69 211 112 83 141 108
7 170 11 51 50 228 236 97
5 54 147 181 246 209
8 98 145 190 180 155 22 219 70
8 55 240 66 120 62 210 85 160
5 58 107 5 220 101
11 232 239 77 205 125 178 27 82 63 14 222
11 139 161 143 42 67 196 134 7 179 128 45
8 87 194 46 60 91 4 90 48
10 121 204 164 1 18 26 235 30 167 19
12 162 137 226 218 44 151 24 78 201 217 12 163
11 173 79 93 221 132 148 49 10 233 225 156
8 213 72 199 28 20 150 31 136
8 9 241 133 207 35 172 166 34
8 8 135 174 142 25 195 131 117
7 153 224 94 169 6 189 99
8 38 231 130 103 52 182 109 215

Total makespan: 69

30
7 237 106 168 57 242 119 114
11 243 104 223 171 212 2 158 39 80 123 71
10 129 177 43 59 140 126 84 111 33 76
6 75 86 216 47 100 176
10 197 29 208 175 203 53 159 198 110 193
9 122 37 192 149 186 102 238 230 146
9 113 138 36 206 41 95 234 0 3
11 74 154 245 249 21 96 73 187 229 89 116
9 202 118 152 92 16 56 127 124 88
5 200 61 15 68 65
7 17 13 40 248 81 185 105
4 244 32 144 23
9 64 247 157 183 184 214 165 191 115
8 188 227 69 211 112 83 141 108
7 170 11 51 50 228 236 97
5 54 147 181 246 209
8 98 145 190 180 155 22 219 70
8 55 240 66 120 62 210 85 160
5 58 107 5 220 101
11 232 239 77 205 125 178 27 82 63 14 222
11 139 161 143 42 67 196 134 7 179 128 45
8 87 194 46 60 91 4 90 48
10 121 204 164 1 18 26 235 30 167 19
12 162 137 226 218 44 151 24 78 201 217 12 163
11 173 79 93 221 132 148 49 10 233 225 156
8 213 72 199 28 20 150 31 136
8 9 241 133 207 35 172 166 34
8 8 135 174 142 25 195 131 117
7 153 224 94 169 6 189 99
8 38 231 130 103 52 182 109 215

Total makespan: 69

