10
28 130 30 135 81 1 198 238 28 171 234 211 146 19 93 157 218 205 177 176 126 45 217 33 75 119 148 247 20
25 16 137 229 39 38 170 56 94 241 123 207 7 178 101 226 169 244 133 37 72 79 173 120 188 237
26 22 199 115 31 87 23 58 231 83 54 143 154 103 224 97 80 190 139 167 3 40 165 57 69 175 102
25 77 160 13 99 92 122 185 113 174 219 159 196 111 89 214 84 131 68 104 128 230 62 117 127 249
23 42 172 18 239 204 24 158 106 26 210 96 141 76 36 4 9 125 70 202 95 153 0 48
24 6 147 193 55 73 5 203 66 8 17 223 195 227 129 150 15 27 61 156 138 220 168 232 161
23 245 181 206 151 242 248 21 118 216 121 124 162 112 41 213 110 116 194 228 65 246 186 86
22 180 221 90 50 64 82 59 209 107 215 74 2 11 235 145 212 164 140 179 136 14 35
28 78 155 240 182 98 34 134 25 29 47 46 100 149 12 132 109 114 10 142 201 52 144 192 152 49 208 51 166
26 243 67 187 60 88 44 189 183 236 233 43 184 53 108 225 197 71 191 63 85 32 163 105 91 222 200

Total makespan: 382

10
28 130 30 135 81 1 198 238 28 171 234 211 146 19 93 157 218 205 177 176 126 45 217 33 75 119 148 247 20
25 16 137 229 39 38 170 56 94 241 123 207 7 178 101 226 169 244 133 37 72 79 173 120 188 237
26 22 199 115 31 87 23 58 231 83 54 143 154 103 224 97 80 190 139 167 3 40 165 57 69 175 102
25 77 160 13 99 92 122 185 113 174 219 159 196 111 89 214 84 131 68 104 128 230 62 117 127 249
23 42 172 18 239 204 24 158 106 26 210 96 141 76 36 4 9 125 70 202 95 153 0 48
24 6 147 193 55 73 5 203 66 8 17 223 195 227 129 150 15 27 61 156 138 220 168 232 161
23 245 181 206 151 242 248 21 118 216 121 124 162 112 41 213 110 116 194 228 65 246 186 86
22 180 221 90 50 64 82 59 209 107 215 74 2 11 235 145 212 164 140 179 136 14 35
28 78 155 240 182 98 34 134 25 29 47 46 100 149 12 132 109 114 10 142 201 52 144 192 152 49 208 51 166
26 243 67 187 60 88 44 189 183 236 233 43 184 53 108 225 197 71 191 63 85 32 163 105 91 222 200

Total makespan: 382

10
28 130 30 135 81 1 198 238 28 171 234 211 146 19 93 157 218 205 177 176 126 45 217 33 75 119 148 247 20
25 16 137 229 39 38 170 56 94 241 123 207 7 178 101 226 169 244 133 37 72 79 173 120 188 237
26 22 199 115 31 87 23 58 231 83 54 143 154 103 224 97 80 190 139 167 3 40 165 57 69 175 102
25 77 160 13 99 92 122 185 113 174 219 159 196 111 89 214 84 131 68 104 128 230 62 117 127 249
23 42 172 18 239 204 24 158 106 26 210 96 141 76 36 4 9 125 70 202 95 153 0 48
24 6 147 193 55 73 5 203 66 8 17 223 195 227 129 150 15 27 61 156 138 220 168 232 161
23 245 181 206 151 242 248 21 118 216 121 124 162 112 41 213 110 116 194 228 65 246 186 86
22 180 221 90 50 64 82 59 209 107 215 74 2 11 235 145 212 164 140 179 136 14 35
28 78 155 240 182 98 34 134 25 29 47 46 100 149 12 132 109 114 10 142 201 52 144 192 152 49 208 51 166
26 243 67 187 60 88 44 189 183 236 233 43 184 53 108 225 197 71 191 63 85 32 163 105 91 222 200

Total makespan: 382

