25
9 207 76 201 191 223 33 186 72 214
11 0 212 145 129 228 56 36 40 120 199 18
8 131 241 160 37 182 153 141 26
12 137 15 101 210 181 99 89 107 90 23 21 102
12 202 198 244 197 224 140 211 73 11 106 215 63
13 128 249 91 177 87 149 65 130 78 116 32 121 143
13 220 110 42 213 138 114 7 10 155 113 30 173 185
11 230 203 66 234 190 231 152 59 27 189 97
10 123 196 29 165 111 133 200 20 95 174
7 61 183 208 221 159 180 79
11 157 82 150 43 38 142 96 239 164 46 53
9 92 172 243 163 2 167 109 176 216
9 57 226 192 88 154 8 139 225 28
7 49 209 171 50 194 169 119
13 193 122 86 242 238 161 175 45 75 117 235 12 39
13 236 52 245 70 58 144 125 71 13 41 69 156 246
8 195 3 34 187 24 118 112 240
10 54 68 94 136 168 178 85 147 67 62
7 22 146 115 74 247 5 17
10 170 83 148 227 151 51 47 229 222 127
9 55 108 132 14 204 81 158 188 44
10 25 9 126 103 105 233 35 104 206 134
11 219 93 237 232 60 16 77 84 98 205 6
10 248 166 31 135 217 100 4 64 218 80
7 19 1 48 124 179 162 184

Total makespan: 111

25
9 207 76 201 191 223 33 186 72 214
11 0 212 145 129 228 56 36 40 120 199 18
8 131 241 160 37 182 153 141 26
12 137 15 101 210 181 99 89 107 90 23 21 102
12 202 198 244 197 224 140 211 73 11 106 215 63
13 128 249 91 177 87 149 65 130 78 116 32 121 143
13 220 110 42 213 138 114 7 10 155 113 30 173 185
11 230 203 66 234 190 231 152 59 27 189 97
10 123 196 29 165 111 133 200 20 95 174
7 61 183 208 221 159 180 79
11 157 82 150 43 38 142 96 239 164 46 53
9 92 172 243 163 2 167 109 176 216
9 57 226 192 88 154 8 139 225 28
7 49 209 171 50 194 169 119
13 193 122 86 242 238 161 175 45 75 117 235 12 39
13 236 52 245 70 58 144 125 71 13 41 69 156 246
8 195 3 34 187 24 118 112 240
10 54 68 94 136 168 178 85 147 67 62
7 22 146 115 74 247 5 17
10 170 83 148 227 151 51 47 229 222 127
9 55 108 132 14 204 81 158 188 44
10 25 9 126 103 105 233 35 104 206 134
11 219 93 237 232 60 16 77 84 98 205 6
10 248 166 31 135 217 100 4 64 218 80
7 19 1 48 124 179 162 184

Total makespan: 111

25
9 207 76 201 191 223 33 186 72 214
11 0 212 145 129 228 56 36 40 120 199 18
8 131 241 160 37 182 153 141 26
12 137 15 101 210 181 99 89 107 90 23 21 102
12 202 198 244 197 224 140 211 73 11 106 215 63
13 128 249 91 177 87 149 65 130 78 116 32 121 143
13 220 110 42 213 138 114 7 10 155 113 30 173 185
11 230 203 66 234 190 231 152 59 27 189 97
10 123 196 29 165 111 133 200 20 95 174
7 61 183 208 221 159 180 79
11 157 82 150 43 38 142 96 239 164 46 53
9 92 172 243 163 2 167 109 176 216
9 57 226 192 88 154 8 139 225 28
7 49 209 171 50 194 169 119
13 193 122 86 242 238 161 175 45 75 117 235 12 39
13 236 52 245 70 58 144 125 71 13 41 69 156 246
8 195 3 34 187 24 118 112 240
10 54 68 94 136 168 178 85 147 67 62
7 22 146 115 74 247 5 17
10 170 83 148 227 151 51 47 229 222 127
9 55 108 132 14 204 81 158 188 44
10 25 9 126 103 105 233 35 104 206 134
11 219 93 237 232 60 16 77 84 98 205 6
10 248 166 31 135 217 100 4 64 218 80
7 19 1 48 124 179 162 184

Total makespan: 111

