10
27 55 121 162 52 175 70 110 248 139 156 115 34 247 84 169 97 124 201 199 87 163 227 105 166 88 132 45
26 128 39 102 236 195 165 249 235 219 213 188 5 20 26 173 68 190 140 95 150 66 137 35 131 174 126
27 69 75 178 43 71 96 63 51 153 152 42 225 27 243 176 130 245 28 78 114 233 24 154 13 211 184 170
23 106 109 215 147 119 171 118 203 223 1 25 8 127 59 50 186 205 230 210 200 157 17 125
23 57 155 240 158 76 103 99 146 222 112 2 67 231 47 234 46 77 31 33 239 3 98 38
24 191 221 0 218 113 224 202 189 167 72 104 244 10 36 90 197 196 229 208 161 61 246 93 120
17 4 30 228 183 64 177 151 135 15 159 23 206 11 100 181 204 226
29 148 54 237 86 185 65 111 37 108 193 136 129 82 56 138 116 14 94 62 143 49 149 198 216 209 134 214 242 40
24 232 212 58 145 60 144 12 182 92 21 164 172 160 168 141 44 241 80 81 107 74 73 192 101
30 16 7 194 117 207 29 179 122 89 9 238 41 19 32 53 180 85 220 18 83 48 123 142 6 187 79 91 22 133 217

Total makespan: 336

10
27 55 121 162 52 175 70 110 248 139 156 115 34 247 84 169 97 124 201 199 87 163 227 105 166 88 132 45
26 128 39 102 236 195 165 249 235 219 213 188 5 20 26 173 68 190 140 95 150 66 137 35 131 174 126
27 69 75 178 43 71 96 63 51 153 152 42 225 27 243 176 130 245 28 78 114 233 24 154 13 211 184 170
23 106 109 215 147 119 171 118 203 223 1 25 8 127 59 50 186 205 230 210 200 157 17 125
23 57 155 240 158 76 103 99 146 222 112 2 67 231 47 234 46 77 31 33 239 3 98 38
24 191 221 0 218 113 224 202 189 167 72 104 244 10 36 90 197 196 229 208 161 61 246 93 120
17 4 30 228 183 64 177 151 135 15 159 23 206 11 100 181 204 226
29 148 54 237 86 185 65 111 37 108 193 136 129 82 56 138 116 14 94 62 143 49 149 198 216 209 134 214 242 40
24 232 212 58 145 60 144 12 182 92 21 164 172 160 168 141 44 241 80 81 107 74 73 192 101
30 16 7 194 117 207 29 179 122 89 9 238 41 19 32 53 180 85 220 18 83 48 123 142 6 187 79 91 22 133 217

Total makespan: 336

