10
27 164 26 152 243 80 13 248 155 127 140 207 44 146 74 237 120 70 15 134 156 185 22 21 211 7 189 143
29 131 47 219 76 39 194 172 186 75 144 92 45 149 166 9 128 126 123 63 55 100 48 224 158 170 78 110 14 49
25 101 4 129 72 235 51 247 103 148 88 24 157 42 197 205 191 97 91 10 200 107 17 73 142 206
28 93 165 190 141 65 6 5 187 216 69 64 240 178 68 112 113 20 82 66 132 104 114 234 220 89 54 18 223
21 221 242 193 133 236 230 176 188 71 168 32 174 98 125 16 109 139 222 160 169 117
25 130 208 228 0 79 231 95 196 38 179 122 105 167 115 181 180 177 96 137 61 43 35 121 175 213
21 29 238 84 229 241 154 138 249 60 111 151 226 27 57 85 86 106 3 53 159 99
25 34 50 163 244 183 209 36 225 118 56 30 119 33 124 182 218 116 11 67 102 150 217 195 215 8
21 147 184 25 135 37 204 145 246 59 81 198 62 31 19 233 12 203 239 136 210 77
28 227 1 162 245 192 153 87 90 40 202 212 214 23 108 201 161 199 28 41 232 83 52 2 46 58 171 173 94

Total makespan: 383

10
27 164 26 152 243 80 13 248 155 127 140 207 44 146 74 237 120 70 15 134 156 185 22 21 211 7 189 143
29 131 47 219 76 39 194 172 186 75 144 92 45 149 166 9 128 126 123 63 55 100 48 224 158 170 78 110 14 49
25 101 4 129 72 235 51 247 103 148 88 24 157 42 197 205 191 97 91 10 200 107 17 73 142 206
28 93 165 190 141 65 6 5 187 216 69 64 240 178 68 112 113 20 82 66 132 104 114 234 220 89 54 18 223
21 221 242 193 133 236 230 176 188 71 168 32 174 98 125 16 109 139 222 160 169 117
25 130 208 228 0 79 231 95 196 38 179 122 105 167 115 181 180 177 96 137 61 43 35 121 175 213
21 29 238 84 229 241 154 138 249 60 111 151 226 27 57 85 86 106 3 53 159 99
25 34 50 163 244 183 209 36 225 118 56 30 119 33 124 182 218 116 11 67 102 150 217 195 215 8
21 147 184 25 135 37 204 145 246 59 81 198 62 31 19 233 12 203 239 136 210 77
28 227 1 162 245 192 153 87 90 40 202 212 214 23 108 201 161 199 28 41 232 83 52 2 46 58 171 173 94

Total makespan: 383

