10
23 165 67 91 104 40 166 232 19 95 117 123 126 127 180 39 79 206 12 201 61 9 242 52
23 210 53 37 128 43 25 173 125 41 46 223 28 163 2 54 176 202 27 34 58 10 23 77
28 144 178 84 102 92 42 136 83 116 209 1 241 145 47 217 140 233 133 204 90 105 98 139 60 29 97 8 174
28 120 197 159 238 81 247 184 150 213 119 216 167 234 6 48 245 134 225 71 229 17 36 196 195 3 177 82 183
20 66 221 0 168 211 94 190 243 187 182 161 56 222 154 96 191 199 122 151 33
23 203 51 55 111 85 57 38 239 244 121 20 64 147 74 200 132 146 110 158 89 107 103 72
23 73 11 15 249 18 87 175 181 135 153 152 227 4 185 246 224 129 80 194 32 24 86 124
29 138 35 141 88 164 7 63 22 100 118 137 220 62 189 219 108 21 169 45 171 115 156 44 231 198 143 93 149 170
28 186 162 113 179 76 26 155 236 157 235 214 218 109 69 248 99 30 101 130 208 228 5 240 148 237 16 65 14
25 212 114 172 230 68 13 112 205 193 131 70 160 49 59 207 215 106 226 31 78 75 188 192 142 50

Total makespan: 276

10
23 165 67 91 104 40 166 232 19 95 117 123 126 127 180 39 79 206 12 201 61 9 242 52
23 210 53 37 128 43 25 173 125 41 46 223 28 163 2 54 176 202 27 34 58 10 23 77
28 144 178 84 102 92 42 136 83 116 209 1 241 145 47 217 140 233 133 204 90 105 98 139 60 29 97 8 174
28 120 197 159 238 81 247 184 150 213 119 216 167 234 6 48 245 134 225 71 229 17 36 196 195 3 177 82 183
20 66 221 0 168 211 94 190 243 187 182 161 56 222 154 96 191 199 122 151 33
23 203 51 55 111 85 57 38 239 244 121 20 64 147 74 200 132 146 110 158 89 107 103 72
23 73 11 15 249 18 87 175 181 135 153 152 227 4 185 246 224 129 80 194 32 24 86 124
29 138 35 141 88 164 7 63 22 100 118 137 220 62 189 219 108 21 169 45 171 115 156 44 231 198 143 93 149 170
28 186 162 113 179 76 26 155 236 157 235 214 218 109 69 248 99 30 101 130 208 228 5 240 148 237 16 65 14
25 212 114 172 230 68 13 112 205 193 131 70 160 49 59 207 215 106 226 31 78 75 188 192 142 50

Total makespan: 276

10
23 165 67 91 104 40 166 232 19 95 117 123 126 127 180 39 79 206 12 201 61 9 242 52
23 210 53 37 128 43 25 173 125 41 46 223 28 163 2 54 176 202 27 34 58 10 23 77
28 144 178 84 102 92 42 136 83 116 209 1 241 145 47 217 140 233 133 204 90 105 98 139 60 29 97 8 174
28 120 197 159 238 81 247 184 150 213 119 216 167 234 6 48 245 134 225 71 229 17 36 196 195 3 177 82 183
20 66 221 0 168 211 94 190 243 187 182 161 56 222 154 96 191 199 122 151 33
23 203 51 55 111 85 57 38 239 244 121 20 64 147 74 200 132 146 110 158 89 107 103 72
23 73 11 15 249 18 87 175 181 135 153 152 227 4 185 246 224 129 80 194 32 24 86 124
29 138 35 141 88 164 7 63 22 100 118 137 220 62 189 219 108 21 169 45 171 115 156 44 231 198 143 93 149 170
28 186 162 113 179 76 26 155 236 157 235 214 218 109 69 248 99 30 101 130 208 228 5 240 148 237 16 65 14
25 212 114 172 230 68 13 112 205 193 131 70 160 49 59 207 215 106 226 31 78 75 188 192 142 50

Total makespan: 276

