20
10 104 13 145 25 15 143 191 229 68 187
10 62 71 202 38 55 111 134 172 125 28
17 59 140 200 50 69 70 238 146 10 121 149 228 42 49 88 139 197
14 148 217 76 190 203 16 132 142 159 22 168 44 219 198
13 58 166 110 119 34 185 233 4 131 79 186 216 189
8 105 17 92 101 155 18 64 169
10 120 247 100 83 19 118 180 249 84 61
14 165 60 224 96 162 144 11 225 150 95 240 113 193 179
15 154 210 1 177 2 196 56 245 182 117 66 72 97 158 227
12 107 8 7 77 175 36 218 199 167 130 9 133
12 244 67 47 136 248 122 188 156 63 129 239 116
9 126 222 39 205 164 99 192 243 201
15 141 178 14 242 82 246 94 103 170 127 152 106 138 241 214
11 115 57 73 213 87 91 35 226 40 41 171
14 48 128 108 98 215 85 212 27 206 32 157 135 21 176
13 153 174 220 6 3 20 209 124 231 65 102 29 194
14 123 173 53 37 33 137 89 235 112 207 204 221 78 0
15 90 54 109 74 5 31 86 195 93 183 181 232 160 81 151
11 223 114 161 75 208 211 12 51 184 237 45
13 147 24 46 26 23 230 43 163 80 30 236 52 234

Total makespan: 144

20
10 104 13 145 25 15 143 191 229 68 187
10 62 71 202 38 55 111 134 172 125 28
17 59 140 200 50 69 70 238 146 10 121 149 228 42 49 88 139 197
14 148 217 76 190 203 16 132 142 159 22 168 44 219 198
13 58 166 110 119 34 185 233 4 131 79 186 216 189
8 105 17 92 101 155 18 64 169
10 120 247 100 83 19 118 180 249 84 61
14 165 60 224 96 162 144 11 225 150 95 240 113 193 179
15 154 210 1 177 2 196 56 245 182 117 66 72 97 158 227
12 107 8 7 77 175 36 218 199 167 130 9 133
12 244 67 47 136 248 122 188 156 63 129 239 116
9 126 222 39 205 164 99 192 243 201
15 141 178 14 242 82 246 94 103 170 127 152 106 138 241 214
11 115 57 73 213 87 91 35 226 40 41 171
14 48 128 108 98 215 85 212 27 206 32 157 135 21 176
13 153 174 220 6 3 20 209 124 231 65 102 29 194
14 123 173 53 37 33 137 89 235 112 207 204 221 78 0
15 90 54 109 74 5 31 86 195 93 183 181 232 160 81 151
11 223 114 161 75 208 211 12 51 184 237 45
13 147 24 46 26 23 230 43 163 80 30 236 52 234

Total makespan: 144

