20
12 86 0 232 103 108 88 128 16 18 48 40 201
14 134 221 126 180 163 155 173 38 11 172 3 161 68 218
14 26 233 229 200 239 102 67 97 29 84 188 74 66 76
10 154 213 54 208 157 6 1 220 75 8
12 183 63 60 171 92 9 226 89 59 98 133 122
13 178 2 196 25 234 120 10 205 146 46 80 45 49
14 184 131 231 32 246 7 142 174 52 230 148 53 124 58
15 91 55 69 156 170 242 94 167 204 114 110 197 152 100 145
10 165 51 211 64 153 15 23 61 5 34
10 187 19 166 72 212 164 21 198 50 30
17 214 111 132 99 104 247 85 158 181 33 82 185 244 17 224 101 127
10 240 12 190 149 186 243 13 20 179 83
9 248 217 195 4 93 65 28 140 194
13 42 207 130 109 237 119 113 27 169 77 129 245 47
11 168 121 228 56 123 125 87 96 189 222 112
14 81 191 137 206 199 115 238 36 141 223 225 39 159 182
16 135 175 73 116 24 209 236 117 22 57 176 79 105 150 71 139
12 14 44 227 215 90 31 118 62 37 95 106 144
11 138 235 216 136 219 202 143 78 41 193 210
13 160 241 177 192 70 147 162 43 35 151 203 249 107

Total makespan: 172

20
12 86 0 232 103 108 88 128 16 18 48 40 201
14 134 221 126 180 163 155 173 38 11 172 3 161 68 218
14 26 233 229 200 239 102 67 97 29 84 188 74 66 76
10 154 213 54 208 157 6 1 220 75 8
12 183 63 60 171 92 9 226 89 59 98 133 122
13 178 2 196 25 234 120 10 205 146 46 80 45 49
14 184 131 231 32 246 7 142 174 52 230 148 53 124 58
15 91 55 69 156 170 242 94 167 204 114 110 197 152 100 145
10 165 51 211 64 153 15 23 61 5 34
10 187 19 166 72 212 164 21 198 50 30
17 214 111 132 99 104 247 85 158 181 33 82 185 244 17 224 101 127
10 240 12 190 149 186 243 13 20 179 83
9 248 217 195 4 93 65 28 140 194
13 42 207 130 109 237 119 113 27 169 77 129 245 47
11 168 121 228 56 123 125 87 96 189 222 112
14 81 191 137 206 199 115 238 36 141 223 225 39 159 182
16 135 175 73 116 24 209 236 117 22 57 176 79 105 150 71 139
12 14 44 227 215 90 31 118 62 37 95 106 144
11 138 235 216 136 219 202 143 78 41 193 210
13 160 241 177 192 70 147 162 43 35 151 203 249 107

Total makespan: 172

