15
22 133 188 214 33 178 190 249 198 34 163 124 79 196 141 58 136 227 75 69 139 197 232
21 201 166 72 38 56 27 57 100 184 19 162 122 12 137 221 229 70 157 244 108 192
13 147 18 203 199 17 10 104 167 60 119 236 211 117
18 31 193 143 140 65 158 43 110 148 246 30 120 173 63 219 113 25 97
14 191 135 177 160 161 66 8 45 84 111 210 128 14 209
15 68 202 213 40 28 62 42 129 233 243 234 50 224 230 151
18 242 83 181 16 174 132 155 87 51 222 248 241 153 67 73 164 41 142
16 126 46 37 49 114 89 223 182 103 125 35 22 247 81 76 102
15 138 179 168 159 240 93 118 189 186 115 207 149 9 205 77
14 71 20 5 55 146 109 101 44 98 82 121 90 217 53
19 231 26 94 32 237 176 47 105 169 64 165 23 74 172 156 48 154 180 99
14 127 225 2 15 226 91 0 85 245 4 123 235 36 228
18 212 218 175 6 215 29 96 11 145 195 131 54 116 78 112 88 7 150
19 183 208 187 185 21 3 170 144 86 59 134 92 152 171 80 24 107 106 52
14 61 204 216 200 39 95 239 130 1 220 238 206 13 194

Total makespan: 210

15
22 133 188 214 33 178 190 249 198 34 163 124 79 196 141 58 136 227 75 69 139 197 232
21 201 166 72 38 56 27 57 100 184 19 162 122 12 137 221 229 70 157 244 108 192
13 147 18 203 199 17 10 104 167 60 119 236 211 117
18 31 193 143 140 65 158 43 110 148 246 30 120 173 63 219 113 25 97
14 191 135 177 160 161 66 8 45 84 111 210 128 14 209
15 68 202 213 40 28 62 42 129 233 243 234 50 224 230 151
18 242 83 181 16 174 132 155 87 51 222 248 241 153 67 73 164 41 142
16 126 46 37 49 114 89 223 182 103 125 35 22 247 81 76 102
15 138 179 168 159 240 93 118 189 186 115 207 149 9 205 77
14 71 20 5 55 146 109 101 44 98 82 121 90 217 53
19 231 26 94 32 237 176 47 105 169 64 165 23 74 172 156 48 154 180 99
14 127 225 2 15 226 91 0 85 245 4 123 235 36 228
18 212 218 175 6 215 29 96 11 145 195 131 54 116 78 112 88 7 150
19 183 208 187 185 21 3 170 144 86 59 134 92 152 171 80 24 107 106 52
14 61 204 216 200 39 95 239 130 1 220 238 206 13 194

Total makespan: 210

