20
14 196 35 88 58 83 95 59 89 103 96 142 79 115 125
13 177 110 244 134 165 237 163 51 36 216 14 69 164
14 161 8 70 62 136 39 63 166 203 176 102 234 158 248
11 178 2 210 180 239 46 9 140 106 76 67
13 207 149 232 227 231 170 224 187 91 65 12 126 19
12 117 21 16 228 139 78 101 172 247 121 111 119
14 108 193 154 175 86 171 162 191 31 75 57 56 99 133
10 10 202 157 28 145 233 50 127 109 74
11 105 34 219 245 60 18 43 194 11 97 174
14 130 215 45 26 81 116 23 209 186 55 17 29 53 114
17 152 204 113 249 223 100 38 37 52 240 192 129 135 118 156 41 48
15 217 173 124 94 236 214 0 238 54 137 229 148 181 242 84
12 205 226 150 155 218 49 146 40 199 72 179 33
11 64 225 246 243 120 208 132 77 4 198 213
12 185 44 131 167 212 112 42 82 144 13 220 169
11 159 141 188 47 128 32 71 182 221 61 153
10 87 1 80 98 27 24 73 160 90 197
11 190 68 211 85 123 15 147 104 222 235 168
13 3 25 22 230 107 6 7 143 201 66 189 138 151
12 195 241 5 206 200 183 92 184 20 122 93 30

Total makespan: 85

20
14 196 35 88 58 83 95 59 89 103 96 142 79 115 125
13 177 110 244 134 165 237 163 51 36 216 14 69 164
14 161 8 70 62 136 39 63 166 203 176 102 234 158 248
11 178 2 210 180 239 46 9 140 106 76 67
13 207 149 232 227 231 170 224 187 91 65 12 126 19
12 117 21 16 228 139 78 101 172 247 121 111 119
14 108 193 154 175 86 171 162 191 31 75 57 56 99 133
10 10 202 157 28 145 233 50 127 109 74
11 105 34 219 245 60 18 43 194 11 97 174
14 130 215 45 26 81 116 23 209 186 55 17 29 53 114
17 152 204 113 249 223 100 38 37 52 240 192 129 135 118 156 41 48
15 217 173 124 94 236 214 0 238 54 137 229 148 181 242 84
12 205 226 150 155 218 49 146 40 199 72 179 33
11 64 225 246 243 120 208 132 77 4 198 213
12 185 44 131 167 212 112 42 82 144 13 220 169
11 159 141 188 47 128 32 71 182 221 61 153
10 87 1 80 98 27 24 73 160 90 197
11 190 68 211 85 123 15 147 104 222 235 168
13 3 25 22 230 107 6 7 143 201 66 189 138 151
12 195 241 5 206 200 183 92 184 20 122 93 30

Total makespan: 85

