25
13 113 81 197 59 168 95 8 185 194 118 53 91 49
8 172 60 225 129 145 88 112 37
10 139 71 14 72 13 176 42 107 85 115
9 240 171 206 244 200 101 2 151 187
7 230 9 36 201 124 216 119
11 203 195 191 152 122 76 214 63 167 156 84
8 20 10 99 18 45 154 165 132
9 32 158 100 236 51 137 114 1 212
11 192 155 86 182 207 57 149 175 3 17 231
12 121 0 215 193 109 228 143 186 133 134 202 29
12 177 21 4 98 131 241 116 90 120 70 46 11
7 242 50 103 184 189 108 150
8 77 22 123 226 126 179 82 31
7 33 222 12 220 104 34 26
10 38 235 102 169 48 229 249 97 246 30
12 68 135 245 92 208 181 248 138 209 217 173 62
7 227 239 105 190 219 136 16
10 130 127 111 110 224 160 234 35 69 94
11 23 198 67 64 243 78 52 25 47 54 218
9 188 128 223 79 233 142 43 65 141
15 80 5 7 125 87 75 96 58 61 196 106 117 247 237 183
11 66 39 144 147 146 55 28 140 211 19 162
12 159 83 44 157 161 164 27 153 148 213 166 56
13 73 205 210 6 24 204 93 180 232 40 74 174 41
8 89 199 238 163 15 170 221 178

Total makespan: 63

25
13 113 81 197 59 168 95 8 185 194 118 53 91 49
8 172 60 225 129 145 88 112 37
10 139 71 14 72 13 176 42 107 85 115
9 240 171 206 244 200 101 2 151 187
7 230 9 36 201 124 216 119
11 203 195 191 152 122 76 214 63 167 156 84
8 20 10 99 18 45 154 165 132
9 32 158 100 236 51 137 114 1 212
11 192 155 86 182 207 57 149 175 3 17 231
12 121 0 215 193 109 228 143 186 133 134 202 29
12 177 21 4 98 131 241 116 90 120 70 46 11
7 242 50 103 184 189 108 150
8 77 22 123 226 126 179 82 31
7 33 222 12 220 104 34 26
10 38 235 102 169 48 229 249 97 246 30
12 68 135 245 92 208 181 248 138 209 217 173 62
7 227 239 105 190 219 136 16
10 130 127 111 110 224 160 234 35 69 94
11 23 198 67 64 243 78 52 25 47 54 218
9 188 128 223 79 233 142 43 65 141
15 80 5 7 125 87 75 96 58 61 196 106 117 247 237 183
11 66 39 144 147 146 55 28 140 211 19 162
12 159 83 44 157 161 164 27 153 148 213 166 56
13 73 205 210 6 24 204 93 180 232 40 74 174 41
8 89 199 238 163 15 170 221 178

Total makespan: 63

25
13 113 81 197 59 168 95 8 185 194 118 53 91 49
8 172 60 225 129 145 88 112 37
10 139 71 14 72 13 176 42 107 85 115
9 240 171 206 244 200 101 2 151 187
7 230 9 36 201 124 216 119
11 203 195 191 152 122 76 214 63 167 156 84
8 20 10 99 18 45 154 165 132
9 32 158 100 236 51 137 114 1 212
11 192 155 86 182 207 57 149 175 3 17 231
12 121 0 215 193 109 228 143 186 133 134 202 29
12 177 21 4 98 131 241 116 90 120 70 46 11
7 242 50 103 184 189 108 150
8 77 22 123 226 126 179 82 31
7 33 222 12 220 104 34 26
10 38 235 102 169 48 229 249 97 246 30
12 68 135 245 92 208 181 248 138 209 217 173 62
7 227 239 105 190 219 136 16
10 130 127 111 110 224 160 234 35 69 94
11 23 198 67 64 243 78 52 25 47 54 218
9 188 128 223 79 233 142 43 65 141
15 80 5 7 125 87 75 96 58 61 196 106 117 247 237 183
11 66 39 144 147 146 55 28 140 211 19 162
12 159 83 44 157 161 164 27 153 148 213 166 56
13 73 205 210 6 24 204 93 180 232 40 74 174 41
8 89 199 238 163 15 170 221 178

Total makespan: 63

