30
8 239 18 98 64 237 136 125 249
9 71 181 245 81 72 168 199 134 212
8 234 139 65 232 145 69 187 41
9 34 17 11 109 4 217 79 8 176
7 22 100 84 105 85 243 233
8 186 104 110 230 192 20 52 164
9 135 143 215 144 80 150 3 126 114
7 208 31 184 88 213 48 119
6 92 46 163 111 175 179
7 6 244 73 49 62 60 123
6 66 51 89 70 50 7
8 155 182 39 202 161 140 214 101
6 26 204 42 131 226 2
8 165 197 169 127 112 138 154 229
8 68 82 221 36 151 219 14 113
8 157 147 206 83 149 40 29 172
5 21 242 59 67 35
8 0 216 246 194 103 58 209 228
8 191 44 158 16 195 25 224 32
10 15 91 235 121 19 45 122 77 178 12
11 180 96 227 117 207 37 240 86 141 128 108
14 167 38 174 13 183 201 166 156 129 27 177 162 124 23
9 142 160 95 203 133 106 189 148 153
8 76 185 57 74 173 200 9 196
8 190 33 248 28 159 78 5 130
10 47 231 188 10 146 53 61 99 90 210
9 137 218 223 24 198 170 225 220 116
9 211 171 54 87 152 30 193 132 236
11 120 55 102 241 97 205 1 93 56 115 118
8 222 43 247 107 238 75 63 94

Total makespan: 45

30
8 239 18 98 64 237 136 125 249
9 71 181 245 81 72 168 199 134 212
8 234 139 65 232 145 69 187 41
9 34 17 11 109 4 217 79 8 176
7 22 100 84 105 85 243 233
8 186 104 110 230 192 20 52 164
9 135 143 215 144 80 150 3 126 114
7 208 31 184 88 213 48 119
6 92 46 163 111 175 179
7 6 244 73 49 62 60 123
6 66 51 89 70 50 7
8 155 182 39 202 161 140 214 101
6 26 204 42 131 226 2
8 165 197 169 127 112 138 154 229
8 68 82 221 36 151 219 14 113
8 157 147 206 83 149 40 29 172
5 21 242 59 67 35
8 0 216 246 194 103 58 209 228
8 191 44 158 16 195 25 224 32
10 15 91 235 121 19 45 122 77 178 12
11 180 96 227 117 207 37 240 86 141 128 108
14 167 38 174 13 183 201 166 156 129 27 177 162 124 23
9 142 160 95 203 133 106 189 148 153
8 76 185 57 74 173 200 9 196
8 190 33 248 28 159 78 5 130
10 47 231 188 10 146 53 61 99 90 210
9 137 218 223 24 198 170 225 220 116
9 211 171 54 87 152 30 193 132 236
11 120 55 102 241 97 205 1 93 56 115 118
8 222 43 247 107 238 75 63 94

Total makespan: 45

