20
12 216 41 21 50 73 90 100 13 58 31 178 227
12 1 233 197 82 34 2 210 228 219 200 87 134
12 98 92 114 220 198 80 85 5 129 127 156 189
13 42 96 144 107 224 22 3 84 97 188 163 158 101
10 55 67 119 8 225 240 142 193 201 77
13 9 215 204 17 209 7 69 74 174 145 157 195 4
12 29 226 139 12 150 38 237 70 109 110 213 181
11 37 57 10 161 89 162 146 86 241 47 232
14 25 190 234 186 132 54 177 121 35 143 43 123 165 64
13 95 136 91 222 72 63 196 24 147 28 128 126 159
17 249 112 49 180 141 160 244 221 122 36 66 205 235 83 62 71 15
14 39 230 44 104 105 184 206 130 65 155 6 0 106 183
12 245 27 242 60 164 248 23 108 168 153 247 243
13 138 187 182 231 212 166 137 148 118 185 194 45 217
13 113 111 19 238 94 75 202 133 26 14 149 173 199
12 52 99 218 236 93 59 11 170 179 33 78 103
10 117 48 53 203 46 68 154 30 191 176
11 192 131 135 211 20 167 79 172 116 223 246
15 51 124 115 16 120 151 32 207 239 169 88 56 76 125 171
11 214 81 152 229 40 175 208 18 140 61 102

Total makespan: 109

20
12 216 41 21 50 73 90 100 13 58 31 178 227
12 1 233 197 82 34 2 210 228 219 200 87 134
12 98 92 114 220 198 80 85 5 129 127 156 189
13 42 96 144 107 224 22 3 84 97 188 163 158 101
10 55 67 119 8 225 240 142 193 201 77
13 9 215 204 17 209 7 69 74 174 145 157 195 4
12 29 226 139 12 150 38 237 70 109 110 213 181
11 37 57 10 161 89 162 146 86 241 47 232
14 25 190 234 186 132 54 177 121 35 143 43 123 165 64
13 95 136 91 222 72 63 196 24 147 28 128 126 159
17 249 112 49 180 141 160 244 221 122 36 66 205 235 83 62 71 15
14 39 230 44 104 105 184 206 130 65 155 6 0 106 183
12 245 27 242 60 164 248 23 108 168 153 247 243
13 138 187 182 231 212 166 137 148 118 185 194 45 217
13 113 111 19 238 94 75 202 133 26 14 149 173 199
12 52 99 218 236 93 59 11 170 179 33 78 103
10 117 48 53 203 46 68 154 30 191 176
11 192 131 135 211 20 167 79 172 116 223 246
15 51 124 115 16 120 151 32 207 239 169 88 56 76 125 171
11 214 81 152 229 40 175 208 18 140 61 102

Total makespan: 109

