25
12 96 183 176 166 209 24 159 184 103 59 218 99
10 178 213 86 26 214 9 68 152 143 169
7 91 78 97 133 0 188 32
10 125 171 2 142 247 204 74 179 153 4
10 21 177 130 6 3 119 151 144 205 227
12 248 89 118 203 17 137 167 150 168 100 148 224
10 182 199 83 139 25 94 104 193 48 81
10 196 39 75 216 46 52 7 245 208 8
9 16 146 185 67 27 111 128 66 77
9 206 13 244 147 246 110 175 220 117
11 186 35 156 45 154 73 109 71 141 181 223
11 65 158 79 194 11 12 189 120 51 124 201
7 219 230 240 107 31 88 116
11 84 36 82 249 217 62 76 50 115 145 197
12 38 69 221 64 180 155 123 92 228 225 174 226
11 37 10 122 187 101 20 54 28 131 14 238
11 160 215 87 157 57 105 121 47 165 192 163
12 135 19 129 210 202 207 98 127 212 234 90 42
9 190 243 164 23 235 30 60 113 229
11 18 239 132 198 40 170 41 56 108 112 191
12 15 34 140 63 233 72 134 55 200 195 102 211
9 173 136 241 70 33 49 93 106 231
9 43 114 58 80 53 232 236 126 22
6 61 222 172 44 162 161
9 29 85 95 5 1 237 149 242 138

Total makespan: 61

25
12 96 183 176 166 209 24 159 184 103 59 218 99
10 178 213 86 26 214 9 68 152 143 169
7 91 78 97 133 0 188 32
10 125 171 2 142 247 204 74 179 153 4
10 21 177 130 6 3 119 151 144 205 227
12 248 89 118 203 17 137 167 150 168 100 148 224
10 182 199 83 139 25 94 104 193 48 81
10 196 39 75 216 46 52 7 245 208 8
9 16 146 185 67 27 111 128 66 77
9 206 13 244 147 246 110 175 220 117
11 186 35 156 45 154 73 109 71 141 181 223
11 65 158 79 194 11 12 189 120 51 124 201
7 219 230 240 107 31 88 116
11 84 36 82 249 217 62 76 50 115 145 197
12 38 69 221 64 180 155 123 92 228 225 174 226
11 37 10 122 187 101 20 54 28 131 14 238
11 160 215 87 157 57 105 121 47 165 192 163
12 135 19 129 210 202 207 98 127 212 234 90 42
9 190 243 164 23 235 30 60 113 229
11 18 239 132 198 40 170 41 56 108 112 191
12 15 34 140 63 233 72 134 55 200 195 102 211
9 173 136 241 70 33 49 93 106 231
9 43 114 58 80 53 232 236 126 22
6 61 222 172 44 162 161
9 29 85 95 5 1 237 149 242 138

Total makespan: 61

25
12 96 183 176 166 209 24 159 184 103 59 218 99
10 178 213 86 26 214 9 68 152 143 169
7 91 78 97 133 0 188 32
10 125 171 2 142 247 204 74 179 153 4
10 21 177 130 6 3 119 151 144 205 227
12 248 89 118 203 17 137 167 150 168 100 148 224
10 182 199 83 139 25 94 104 193 48 81
10 196 39 75 216 46 52 7 245 208 8
9 16 146 185 67 27 111 128 66 77
9 206 13 244 147 246 110 175 220 117
11 186 35 156 45 154 73 109 71 141 181 223
11 65 158 79 194 11 12 189 120 51 124 201
7 219 230 240 107 31 88 116
11 84 36 82 249 217 62 76 50 115 145 197
12 38 69 221 64 180 155 123 92 228 225 174 226
11 37 10 122 187 101 20 54 28 131 14 238
11 160 215 87 157 57 105 121 47 165 192 163
12 135 19 129 210 202 207 98 127 212 234 90 42
9 190 243 164 23 235 30 60 113 229
11 18 239 132 198 40 170 41 56 108 112 191
12 15 34 140 63 233 72 134 55 200 195 102 211
9 173 136 241 70 33 49 93 106 231
9 43 114 58 80 53 232 236 126 22
6 61 222 172 44 162 161
9 29 85 95 5 1 237 149 242 138

Total makespan: 61

