30
7 4 85 19 203 149 9 49
7 23 184 178 5 129 137 117
8 26 115 130 242 172 84 188 42
8 34 79 10 17 193 240 182 151
10 243 189 88 53 128 114 94 11 44 160
7 239 27 166 145 107 73 179
9 140 139 77 211 221 2 50 163 132
12 142 86 143 225 41 244 108 54 174 116 204 67
8 150 155 176 206 248 66 6 194
9 201 122 121 212 38 59 181 90 71
7 112 80 1 159 81 157 207
9 245 209 101 48 196 199 22 12 231
8 55 63 123 158 98 165 57 0
9 13 62 219 136 213 138 31 192 39
6 82 230 120 190 51 60
7 43 69 229 75 102 167 7
8 15 3 113 186 215 37 64 76
7 227 89 20 99 153 214 154
9 247 87 106 235 78 224 52 237 32
9 110 249 197 118 217 152 95 156 96
7 83 74 169 246 21 226 61
11 175 18 180 223 65 218 103 234 133 236 91
8 33 45 164 148 220 205 135 56
11 92 125 187 147 208 210 200 105 30 173 104
9 46 14 47 72 8 232 97 100 28
7 202 185 119 233 35 126 171
7 177 68 170 131 198 111 24
10 16 93 109 29 238 183 40 161 36 144
10 127 70 195 216 134 222 124 141 168 162
6 228 25 241 58 146 191

Total makespan: 93

30
7 4 85 19 203 149 9 49
7 23 184 178 5 129 137 117
8 26 115 130 242 172 84 188 42
8 34 79 10 17 193 240 182 151
10 243 189 88 53 128 114 94 11 44 160
7 239 27 166 145 107 73 179
9 140 139 77 211 221 2 50 163 132
12 142 86 143 225 41 244 108 54 174 116 204 67
8 150 155 176 206 248 66 6 194
9 201 122 121 212 38 59 181 90 71
7 112 80 1 159 81 157 207
9 245 209 101 48 196 199 22 12 231
8 55 63 123 158 98 165 57 0
9 13 62 219 136 213 138 31 192 39
6 82 230 120 190 51 60
7 43 69 229 75 102 167 7
8 15 3 113 186 215 37 64 76
7 227 89 20 99 153 214 154
9 247 87 106 235 78 224 52 237 32
9 110 249 197 118 217 152 95 156 96
7 83 74 169 246 21 226 61
11 175 18 180 223 65 218 103 234 133 236 91
8 33 45 164 148 220 205 135 56
11 92 125 187 147 208 210 200 105 30 173 104
9 46 14 47 72 8 232 97 100 28
7 202 185 119 233 35 126 171
7 177 68 170 131 198 111 24
10 16 93 109 29 238 183 40 161 36 144
10 127 70 195 216 134 222 124 141 168 162
6 228 25 241 58 146 191

Total makespan: 93

30
7 4 85 19 203 149 9 49
7 23 184 178 5 129 137 117
8 26 115 130 242 172 84 188 42
8 34 79 10 17 193 240 182 151
10 243 189 88 53 128 114 94 11 44 160
7 239 27 166 145 107 73 179
9 140 139 77 211 221 2 50 163 132
12 142 86 143 225 41 244 108 54 174 116 204 67
8 150 155 176 206 248 66 6 194
9 201 122 121 212 38 59 181 90 71
7 112 80 1 159 81 157 207
9 245 209 101 48 196 199 22 12 231
8 55 63 123 158 98 165 57 0
9 13 62 219 136 213 138 31 192 39
6 82 230 120 190 51 60
7 43 69 229 75 102 167 7
8 15 3 113 186 215 37 64 76
7 227 89 20 99 153 214 154
9 247 87 106 235 78 224 52 237 32
9 110 249 197 118 217 152 95 156 96
7 83 74 169 246 21 226 61
11 175 18 180 223 65 218 103 234 133 236 91
8 33 45 164 148 220 205 135 56
11 92 125 187 147 208 210 200 105 30 173 104
9 46 14 47 72 8 232 97 100 28
7 202 185 119 233 35 126 171
7 177 68 170 131 198 111 24
10 16 93 109 29 238 183 40 161 36 144
10 127 70 195 216 134 222 124 141 168 162
6 228 25 241 58 146 191

Total makespan: 93

