15
19 42 41 94 203 32 92 178 175 170 115 190 189 151 120 167 104 229 131 205
15 47 221 114 218 80 141 138 224 38 28 83 106 127 208 181
15 82 111 238 22 119 23 225 84 197 162 226 86 234 248 25
18 51 89 110 156 107 155 6 34 55 223 139 63 228 0 210 122 124 95
16 50 222 13 215 237 195 60 232 70 5 128 57 213 148 207 173
17 113 194 146 30 182 33 90 76 61 43 121 227 236 118 159 183 45
18 137 19 72 169 174 212 14 171 101 246 29 180 129 64 244 49 46 136
18 152 133 126 187 37 2 1 142 161 66 204 196 59 219 20 132 247 8
18 53 243 201 164 16 9 216 202 102 165 191 163 27 240 98 176 15 177
17 18 241 39 145 198 112 242 52 231 199 58 209 160 74 35 150 220
16 100 36 154 217 91 105 192 12 109 26 103 168 65 97 249 200
15 77 4 235 125 75 40 88 193 81 147 245 239 73 99 21
16 186 184 85 17 116 108 214 158 48 172 153 117 166 134 24 188
16 62 185 7 230 93 179 144 157 44 87 67 143 78 149 123 79
16 10 68 233 71 54 211 135 3 130 140 31 56 96 69 206 11

Total makespan: 248

15
19 42 41 94 203 32 92 178 175 170 115 190 189 151 120 167 104 229 131 205
15 47 221 114 218 80 141 138 224 38 28 83 106 127 208 181
15 82 111 238 22 119 23 225 84 197 162 226 86 234 248 25
18 51 89 110 156 107 155 6 34 55 223 139 63 228 0 210 122 124 95
16 50 222 13 215 237 195 60 232 70 5 128 57 213 148 207 173
17 113 194 146 30 182 33 90 76 61 43 121 227 236 118 159 183 45
18 137 19 72 169 174 212 14 171 101 246 29 180 129 64 244 49 46 136
18 152 133 126 187 37 2 1 142 161 66 204 196 59 219 20 132 247 8
18 53 243 201 164 16 9 216 202 102 165 191 163 27 240 98 176 15 177
17 18 241 39 145 198 112 242 52 231 199 58 209 160 74 35 150 220
16 100 36 154 217 91 105 192 12 109 26 103 168 65 97 249 200
15 77 4 235 125 75 40 88 193 81 147 245 239 73 99 21
16 186 184 85 17 116 108 214 158 48 172 153 117 166 134 24 188
16 62 185 7 230 93 179 144 157 44 87 67 143 78 149 123 79
16 10 68 233 71 54 211 135 3 130 140 31 56 96 69 206 11

Total makespan: 248

