10
27 236 187 205 142 29 57 16 162 242 19 199 96 172 21 53 183 60 222 226 41 106 77 44 33 54 181 241
25 234 188 196 118 38 231 170 248 99 70 165 32 43 71 211 80 134 227 137 8 107 240 78 65 216
21 10 218 28 244 128 74 105 73 94 179 184 110 150 127 117 111 214 143 163 89 125
26 220 102 152 9 90 58 17 24 64 139 161 1 85 201 164 63 121 18 75 189 246 131 88 104 108 72
26 14 5 62 81 225 97 100 206 91 122 130 52 239 141 42 182 30 215 46 174 15 120 113 84 249 146
25 126 175 129 148 195 159 0 224 140 173 31 22 68 223 229 124 230 200 209 158 2 37 138 6 50
24 208 213 171 67 49 245 76 203 202 86 92 144 176 69 178 27 177 221 87 180 40 235 151 3
29 34 145 13 147 217 4 237 61 194 193 160 219 185 25 154 190 186 204 155 82 247 238 20 36 198 26 197 133 103
22 232 45 109 47 116 101 115 169 79 7 112 135 136 55 191 95 149 167 156 166 39 48
25 243 66 119 212 12 51 56 210 35 157 132 114 228 153 93 192 23 98 168 83 233 123 207 59 11

Total makespan: 402

10
27 236 187 205 142 29 57 16 162 242 19 199 96 172 21 53 183 60 222 226 41 106 77 44 33 54 181 241
25 234 188 196 118 38 231 170 248 99 70 165 32 43 71 211 80 134 227 137 8 107 240 78 65 216
21 10 218 28 244 128 74 105 73 94 179 184 110 150 127 117 111 214 143 163 89 125
26 220 102 152 9 90 58 17 24 64 139 161 1 85 201 164 63 121 18 75 189 246 131 88 104 108 72
26 14 5 62 81 225 97 100 206 91 122 130 52 239 141 42 182 30 215 46 174 15 120 113 84 249 146
25 126 175 129 148 195 159 0 224 140 173 31 22 68 223 229 124 230 200 209 158 2 37 138 6 50
24 208 213 171 67 49 245 76 203 202 86 92 144 176 69 178 27 177 221 87 180 40 235 151 3
29 34 145 13 147 217 4 237 61 194 193 160 219 185 25 154 190 186 204 155 82 247 238 20 36 198 26 197 133 103
22 232 45 109 47 116 101 115 169 79 7 112 135 136 55 191 95 149 167 156 166 39 48
25 243 66 119 212 12 51 56 210 35 157 132 114 228 153 93 192 23 98 168 83 233 123 207 59 11

Total makespan: 402

