20
11 157 221 216 202 35 84 115 243 189 81 236
10 102 191 188 19 109 118 23 114 126 68
13 96 119 70 244 199 174 116 47 207 66 146 39 45
13 141 57 72 31 204 10 101 26 181 103 226 50 56
9 151 53 205 166 36 164 104 9 239
8 78 89 200 75 59 135 92 215
9 30 211 249 193 49 170 179 22 184
13 7 67 88 71 248 153 42 230 69 186 110 12 227
17 162 152 44 229 158 140 237 18 142 247 177 97 87 51 33 219 108
11 163 231 139 17 117 203 169 13 217 195 65
12 173 238 218 150 8 112 133 91 232 58 228 86
10 159 11 40 206 201 29 28 145 80 122
16 15 107 144 98 83 156 241 95 62 154 121 233 180 127 148 192
12 3 24 209 21 5 77 43 197 214 132 60 4
11 213 105 20 212 130 32 167 74 61 16 147
17 224 100 125 113 85 34 210 41 120 161 52 222 2 190 106 208 90
19 6 25 220 182 99 131 172 155 94 55 143 124 82 38 242 64 123 225 14
14 194 134 235 165 46 0 93 27 245 160 76 223 246 138
13 1 171 176 79 183 136 63 196 168 175 137 128 240
12 54 149 129 185 198 73 111 178 37 48 234 187

Total makespan: 171

20
11 157 221 216 202 35 84 115 243 189 81 236
10 102 191 188 19 109 118 23 114 126 68
13 96 119 70 244 199 174 116 47 207 66 146 39 45
13 141 57 72 31 204 10 101 26 181 103 226 50 56
9 151 53 205 166 36 164 104 9 239
8 78 89 200 75 59 135 92 215
9 30 211 249 193 49 170 179 22 184
13 7 67 88 71 248 153 42 230 69 186 110 12 227
17 162 152 44 229 158 140 237 18 142 247 177 97 87 51 33 219 108
11 163 231 139 17 117 203 169 13 217 195 65
12 173 238 218 150 8 112 133 91 232 58 228 86
10 159 11 40 206 201 29 28 145 80 122
16 15 107 144 98 83 156 241 95 62 154 121 233 180 127 148 192
12 3 24 209 21 5 77 43 197 214 132 60 4
11 213 105 20 212 130 32 167 74 61 16 147
17 224 100 125 113 85 34 210 41 120 161 52 222 2 190 106 208 90
19 6 25 220 182 99 131 172 155 94 55 143 124 82 38 242 64 123 225 14
14 194 134 235 165 46 0 93 27 245 160 76 223 246 138
13 1 171 176 79 183 136 63 196 168 175 137 128 240
12 54 149 129 185 198 73 111 178 37 48 234 187

Total makespan: 171

20
11 157 221 216 202 35 84 115 243 189 81 236
10 102 191 188 19 109 118 23 114 126 68
13 96 119 70 244 199 174 116 47 207 66 146 39 45
13 141 57 72 31 204 10 101 26 181 103 226 50 56
9 151 53 205 166 36 164 104 9 239
8 78 89 200 75 59 135 92 215
9 30 211 249 193 49 170 179 22 184
13 7 67 88 71 248 153 42 230 69 186 110 12 227
17 162 152 44 229 158 140 237 18 142 247 177 97 87 51 33 219 108
11 163 231 139 17 117 203 169 13 217 195 65
12 173 238 218 150 8 112 133 91 232 58 228 86
10 159 11 40 206 201 29 28 145 80 122
16 15 107 144 98 83 156 241 95 62 154 121 233 180 127 148 192
12 3 24 209 21 5 77 43 197 214 132 60 4
11 213 105 20 212 130 32 167 74 61 16 147
17 224 100 125 113 85 34 210 41 120 161 52 222 2 190 106 208 90
19 6 25 220 182 99 131 172 155 94 55 143 124 82 38 242 64 123 225 14
14 194 134 235 165 46 0 93 27 245 160 76 223 246 138
13 1 171 176 79 183 136 63 196 168 175 137 128 240
12 54 149 129 185 198 73 111 178 37 48 234 187

Total makespan: 171

