15
19 43 58 194 186 9 142 249 241 32 96 137 81 169 135 152 74 226 248 131
19 64 164 244 147 168 133 229 51 158 160 206 215 231 196 216 190 211 0 234
13 154 207 167 24 204 155 60 139 177 102 85 180 38
16 242 227 173 46 185 37 159 115 222 27 179 93 36 174 170 21
13 146 48 35 16 136 247 210 221 99 189 225 184 124
16 67 228 53 122 165 121 59 208 13 205 97 105 125 92 100 107
20 219 76 70 110 111 240 192 218 123 238 163 30 56 52 91 1 130 113 224 112
14 34 75 4 106 181 129 116 25 143 90 138 18 26 41
13 197 149 66 23 57 213 61 86 145 237 78 195 89
22 95 17 71 108 62 80 140 50 157 193 20 73 14 117 230 72 198 175 47 31 232 182
13 12 128 94 69 8 42 172 33 188 220 63 183 178
16 10 214 84 166 83 82 212 191 19 40 55 3 120 44 141 77
17 233 150 153 199 144 161 239 217 104 245 171 119 246 88 45 2 156
17 103 223 202 126 209 15 187 87 5 235 236 79 29 11 118 127 201
22 151 162 39 176 134 200 49 243 6 54 203 65 109 22 28 132 68 114 101 7 148 98

Total makespan: 237

15
19 43 58 194 186 9 142 249 241 32 96 137 81 169 135 152 74 226 248 131
19 64 164 244 147 168 133 229 51 158 160 206 215 231 196 216 190 211 0 234
13 154 207 167 24 204 155 60 139 177 102 85 180 38
16 242 227 173 46 185 37 159 115 222 27 179 93 36 174 170 21
13 146 48 35 16 136 247 210 221 99 189 225 184 124
16 67 228 53 122 165 121 59 208 13 205 97 105 125 92 100 107
20 219 76 70 110 111 240 192 218 123 238 163 30 56 52 91 1 130 113 224 112
14 34 75 4 106 181 129 116 25 143 90 138 18 26 41
13 197 149 66 23 57 213 61 86 145 237 78 195 89
22 95 17 71 108 62 80 140 50 157 193 20 73 14 117 230 72 198 175 47 31 232 182
13 12 128 94 69 8 42 172 33 188 220 63 183 178
16 10 214 84 166 83 82 212 191 19 40 55 3 120 44 141 77
17 233 150 153 199 144 161 239 217 104 245 171 119 246 88 45 2 156
17 103 223 202 126 209 15 187 87 5 235 236 79 29 11 118 127 201
22 151 162 39 176 134 200 49 243 6 54 203 65 109 22 28 132 68 114 101 7 148 98

Total makespan: 237

