15
18 70 116 160 55 46 171 233 123 172 155 170 43 100 53 215 122 209 133
22 237 35 120 226 84 163 7 75 247 183 134 166 27 94 90 204 223 65 110 221 240 80
14 194 241 161 103 135 210 33 21 59 164 220 181 151 68
18 8 104 245 224 238 93 88 99 41 213 20 206 87 187 146 130 106 42
16 105 243 1 217 5 216 3 127 97 232 61 58 196 199 96 185
17 179 158 39 147 202 57 177 128 231 195 192 32 67 118 244 174 153
15 112 176 16 25 212 140 229 44 207 208 178 19 201 51 200
13 242 45 150 126 131 77 117 82 31 145 63 76 30
19 167 78 230 60 236 214 246 222 203 95 157 47 159 49 81 189 40 225 197
17 218 175 29 98 38 141 18 182 11 152 115 6 132 74 139 52 108
15 129 188 9 102 10 168 156 85 15 149 0 64 23 26 138
17 109 79 114 173 113 13 121 14 54 125 91 56 205 92 62 24 154
13 198 186 136 191 111 148 227 48 4 180 107 72 2
20 228 137 193 86 142 169 17 37 36 22 101 219 34 234 71 248 28 184 73 235
16 50 66 162 239 211 249 143 89 144 119 165 124 83 12 69 190

Total makespan: 249

15
18 70 116 160 55 46 171 233 123 172 155 170 43 100 53 215 122 209 133
22 237 35 120 226 84 163 7 75 247 183 134 166 27 94 90 204 223 65 110 221 240 80
14 194 241 161 103 135 210 33 21 59 164 220 181 151 68
18 8 104 245 224 238 93 88 99 41 213 20 206 87 187 146 130 106 42
16 105 243 1 217 5 216 3 127 97 232 61 58 196 199 96 185
17 179 158 39 147 202 57 177 128 231 195 192 32 67 118 244 174 153
15 112 176 16 25 212 140 229 44 207 208 178 19 201 51 200
13 242 45 150 126 131 77 117 82 31 145 63 76 30
19 167 78 230 60 236 214 246 222 203 95 157 47 159 49 81 189 40 225 197
17 218 175 29 98 38 141 18 182 11 152 115 6 132 74 139 52 108
15 129 188 9 102 10 168 156 85 15 149 0 64 23 26 138
17 109 79 114 173 113 13 121 14 54 125 91 56 205 92 62 24 154
13 198 186 136 191 111 148 227 48 4 180 107 72 2
20 228 137 193 86 142 169 17 37 36 22 101 219 34 234 71 248 28 184 73 235
16 50 66 162 239 211 249 143 89 144 119 165 124 83 12 69 190

Total makespan: 249

15
18 70 116 160 55 46 171 233 123 172 155 170 43 100 53 215 122 209 133
22 237 35 120 226 84 163 7 75 247 183 134 166 27 94 90 204 223 65 110 221 240 80
14 194 241 161 103 135 210 33 21 59 164 220 181 151 68
18 8 104 245 224 238 93 88 99 41 213 20 206 87 187 146 130 106 42
16 105 243 1 217 5 216 3 127 97 232 61 58 196 199 96 185
17 179 158 39 147 202 57 177 128 231 195 192 32 67 118 244 174 153
15 112 176 16 25 212 140 229 44 207 208 178 19 201 51 200
13 242 45 150 126 131 77 117 82 31 145 63 76 30
19 167 78 230 60 236 214 246 222 203 95 157 47 159 49 81 189 40 225 197
17 218 175 29 98 38 141 18 182 11 152 115 6 132 74 139 52 108
15 129 188 9 102 10 168 156 85 15 149 0 64 23 26 138
17 109 79 114 173 113 13 121 14 54 125 91 56 205 92 62 24 154
13 198 186 136 191 111 148 227 48 4 180 107 72 2
20 228 137 193 86 142 169 17 37 36 22 101 219 34 234 71 248 28 184 73 235
16 50 66 162 239 211 249 143 89 144 119 165 124 83 12 69 190

Total makespan: 249

