20
12 119 82 87 230 22 56 170 78 176 57 188 80
5 147 173 51 117 130
15 61 154 241 6 200 35 248 98 201 71 126 95 180 2 110
11 64 209 155 48 146 29 179 145 182 103 0
17 223 219 69 60 47 26 90 165 240 174 217 158 159 4 164 32 17
18 19 199 24 128 163 15 189 237 238 184 149 229 62 106 84 181 10 221
12 116 247 31 39 109 231 218 102 68 171 156 214
11 161 220 207 127 227 134 44 160 142 89 21
16 135 191 129 203 30 222 124 228 150 72 91 25 96 46 34 137
9 111 213 162 53 190 123 168 94 185
9 36 136 38 8 242 76 81 93 121
15 99 115 169 152 239 235 49 108 50 175 187 120 28 211 206
13 113 212 202 63 125 233 194 204 131 12 157 107 18
10 55 183 216 42 65 104 9 249 234 166
12 83 144 193 172 45 208 88 114 192 86 141 5
16 77 148 140 167 105 11 79 225 178 210 37 153 13 243 92 186
14 138 27 118 196 40 101 7 224 66 122 139 205 74 246
11 1 132 151 59 133 232 112 245 97 75 54
13 73 143 177 52 198 226 14 215 195 67 70 23 236
11 244 197 43 58 100 33 20 85 16 41 3

Total makespan: 87

20
12 119 82 87 230 22 56 170 78 176 57 188 80
5 147 173 51 117 130
15 61 154 241 6 200 35 248 98 201 71 126 95 180 2 110
11 64 209 155 48 146 29 179 145 182 103 0
17 223 219 69 60 47 26 90 165 240 174 217 158 159 4 164 32 17
18 19 199 24 128 163 15 189 237 238 184 149 229 62 106 84 181 10 221
12 116 247 31 39 109 231 218 102 68 171 156 214
11 161 220 207 127 227 134 44 160 142 89 21
16 135 191 129 203 30 222 124 228 150 72 91 25 96 46 34 137
9 111 213 162 53 190 123 168 94 185
9 36 136 38 8 242 76 81 93 121
15 99 115 169 152 239 235 49 108 50 175 187 120 28 211 206
13 113 212 202 63 125 233 194 204 131 12 157 107 18
10 55 183 216 42 65 104 9 249 234 166
12 83 144 193 172 45 208 88 114 192 86 141 5
16 77 148 140 167 105 11 79 225 178 210 37 153 13 243 92 186
14 138 27 118 196 40 101 7 224 66 122 139 205 74 246
11 1 132 151 59 133 232 112 245 97 75 54
13 73 143 177 52 198 226 14 215 195 67 70 23 236
11 244 197 43 58 100 33 20 85 16 41 3

Total makespan: 87

20
12 119 82 87 230 22 56 170 78 176 57 188 80
5 147 173 51 117 130
15 61 154 241 6 200 35 248 98 201 71 126 95 180 2 110
11 64 209 155 48 146 29 179 145 182 103 0
17 223 219 69 60 47 26 90 165 240 174 217 158 159 4 164 32 17
18 19 199 24 128 163 15 189 237 238 184 149 229 62 106 84 181 10 221
12 116 247 31 39 109 231 218 102 68 171 156 214
11 161 220 207 127 227 134 44 160 142 89 21
16 135 191 129 203 30 222 124 228 150 72 91 25 96 46 34 137
9 111 213 162 53 190 123 168 94 185
9 36 136 38 8 242 76 81 93 121
15 99 115 169 152 239 235 49 108 50 175 187 120 28 211 206
13 113 212 202 63 125 233 194 204 131 12 157 107 18
10 55 183 216 42 65 104 9 249 234 166
12 83 144 193 172 45 208 88 114 192 86 141 5
16 77 148 140 167 105 11 79 225 178 210 37 153 13 243 92 186
14 138 27 118 196 40 101 7 224 66 122 139 205 74 246
11 1 132 151 59 133 232 112 245 97 75 54
13 73 143 177 52 198 226 14 215 195 67 70 23 236
11 244 197 43 58 100 33 20 85 16 41 3

Total makespan: 87

