15
20 11 81 168 139 142 133 147 206 23 210 21 164 27 116 115 43 104 19 226 208
17 249 86 240 14 103 247 234 61 60 29 158 201 80 196 221 162 34
16 84 51 108 237 190 42 145 132 106 25 33 214 241 32 16 137
17 207 72 69 124 3 235 212 98 182 114 172 242 243 169 205 186 140
14 120 150 170 20 52 0 101 30 5 22 66 77 220 9
18 71 178 83 167 128 64 248 38 233 216 40 63 232 95 244 223 230 215
20 125 152 180 130 198 93 39 55 1 121 160 218 109 102 179 18 227 211 245 193
12 79 157 192 37 229 129 184 155 7 85 70 183
16 144 165 87 119 199 185 171 49 131 219 236 146 99 122 92 173
17 76 187 17 191 65 166 175 110 28 12 143 195 231 105 96 57 100
17 159 134 54 13 148 90 91 153 73 74 202 56 97 213 204 154 53
13 6 4 194 163 10 58 46 189 35 217 200 225 174
17 161 118 127 181 50 8 126 156 113 197 59 68 47 94 151 117 138
19 141 75 123 209 222 188 88 246 89 62 26 48 44 224 112 111 136 45 203
17 2 15 135 228 36 239 31 238 24 177 176 82 78 149 107 41 67

Total makespan: 148

15
20 11 81 168 139 142 133 147 206 23 210 21 164 27 116 115 43 104 19 226 208
17 249 86 240 14 103 247 234 61 60 29 158 201 80 196 221 162 34
16 84 51 108 237 190 42 145 132 106 25 33 214 241 32 16 137
17 207 72 69 124 3 235 212 98 182 114 172 242 243 169 205 186 140
14 120 150 170 20 52 0 101 30 5 22 66 77 220 9
18 71 178 83 167 128 64 248 38 233 216 40 63 232 95 244 223 230 215
20 125 152 180 130 198 93 39 55 1 121 160 218 109 102 179 18 227 211 245 193
12 79 157 192 37 229 129 184 155 7 85 70 183
16 144 165 87 119 199 185 171 49 131 219 236 146 99 122 92 173
17 76 187 17 191 65 166 175 110 28 12 143 195 231 105 96 57 100
17 159 134 54 13 148 90 91 153 73 74 202 56 97 213 204 154 53
13 6 4 194 163 10 58 46 189 35 217 200 225 174
17 161 118 127 181 50 8 126 156 113 197 59 68 47 94 151 117 138
19 141 75 123 209 222 188 88 246 89 62 26 48 44 224 112 111 136 45 203
17 2 15 135 228 36 239 31 238 24 177 176 82 78 149 107 41 67

Total makespan: 148

15
20 11 81 168 139 142 133 147 206 23 210 21 164 27 116 115 43 104 19 226 208
17 249 86 240 14 103 247 234 61 60 29 158 201 80 196 221 162 34
16 84 51 108 237 190 42 145 132 106 25 33 214 241 32 16 137
17 207 72 69 124 3 235 212 98 182 114 172 242 243 169 205 186 140
14 120 150 170 20 52 0 101 30 5 22 66 77 220 9
18 71 178 83 167 128 64 248 38 233 216 40 63 232 95 244 223 230 215
20 125 152 180 130 198 93 39 55 1 121 160 218 109 102 179 18 227 211 245 193
12 79 157 192 37 229 129 184 155 7 85 70 183
16 144 165 87 119 199 185 171 49 131 219 236 146 99 122 92 173
17 76 187 17 191 65 166 175 110 28 12 143 195 231 105 96 57 100
17 159 134 54 13 148 90 91 153 73 74 202 56 97 213 204 154 53
13 6 4 194 163 10 58 46 189 35 217 200 225 174
17 161 118 127 181 50 8 126 156 113 197 59 68 47 94 151 117 138
19 141 75 123 209 222 188 88 246 89 62 26 48 44 224 112 111 136 45 203
17 2 15 135 228 36 239 31 238 24 177 176 82 78 149 107 41 67

Total makespan: 148

