30
6 190 140 27 153 111 202
9 244 175 51 0 180 135 112 227 208
6 23 173 199 139 43 119
8 121 79 245 85 146 122 69 114
10 1 74 249 113 144 239 42 82 132 10
6 213 198 236 210 222 232
9 154 187 117 136 18 240 54 101 78
9 128 126 20 89 19 109 203 195 181
7 25 108 103 13 3 163 87
9 237 137 52 4 44 88 229 67 8
10 179 141 219 64 72 159 35 183 21 127
9 47 205 221 63 30 60 65 164 228
10 16 134 166 238 248 149 176 40 152 129
8 14 115 211 212 36 12 131 184
8 125 116 59 100 200 230 214 71
11 94 95 124 56 22 194 220 151 192 167 97
7 133 148 81 2 158 37 31
6 142 174 84 234 96 196
8 66 38 105 226 168 32 118 61
11 207 224 28 34 161 58 130 191 83 225 15
9 24 75 7 29 156 70 247 218 80
8 186 177 17 189 162 50 120 145
11 6 62 90 41 209 157 98 11 185 5 77
7 216 123 68 217 107 46 49
9 170 169 188 76 160 197 99 93 193
9 102 26 48 223 147 143 235 53 182
10 233 33 155 92 201 91 231 110 106 246
7 150 215 242 172 243 86 204
8 104 165 178 55 73 241 206 57
5 39 171 138 45 9

Total makespan: 48

30
6 190 140 27 153 111 202
9 244 175 51 0 180 135 112 227 208
6 23 173 199 139 43 119
8 121 79 245 85 146 122 69 114
10 1 74 249 113 144 239 42 82 132 10
6 213 198 236 210 222 232
9 154 187 117 136 18 240 54 101 78
9 128 126 20 89 19 109 203 195 181
7 25 108 103 13 3 163 87
9 237 137 52 4 44 88 229 67 8
10 179 141 219 64 72 159 35 183 21 127
9 47 205 221 63 30 60 65 164 228
10 16 134 166 238 248 149 176 40 152 129
8 14 115 211 212 36 12 131 184
8 125 116 59 100 200 230 214 71
11 94 95 124 56 22 194 220 151 192 167 97
7 133 148 81 2 158 37 31
6 142 174 84 234 96 196
8 66 38 105 226 168 32 118 61
11 207 224 28 34 161 58 130 191 83 225 15
9 24 75 7 29 156 70 247 218 80
8 186 177 17 189 162 50 120 145
11 6 62 90 41 209 157 98 11 185 5 77
7 216 123 68 217 107 46 49
9 170 169 188 76 160 197 99 93 193
9 102 26 48 223 147 143 235 53 182
10 233 33 155 92 201 91 231 110 106 246
7 150 215 242 172 243 86 204
8 104 165 178 55 73 241 206 57
5 39 171 138 45 9

Total makespan: 48

