30
11 162 117 40 44 79 31 160 112 12 111 27
10 151 33 246 147 199 237 7 130 193 138
8 65 191 51 134 88 145 222 181
9 233 155 169 136 50 10 101 223 219
9 146 133 89 14 149 206 242 205 235
8 39 8 176 1 148 179 208 153
10 172 225 168 137 163 30 201 186 99 249
7 16 158 100 152 61 185 67
10 165 36 226 64 218 139 210 166 120 91
8 150 212 96 47 125 73 238 232
10 0 58 183 66 114 43 109 164 84 236
9 195 68 132 122 245 204 54 159 45
8 231 161 37 106 59 196 230 22
7 143 35 24 187 2 171 194
7 46 217 56 178 62 63 18
9 81 214 180 41 119 221 93 190 21
8 80 15 170 94 215 32 209 85
5 174 241 6 207 154
7 82 70 78 74 182 131 211
8 239 3 124 48 4 188 69 240
9 13 17 200 102 167 197 216 157 140
8 55 71 23 129 203 110 144 76
8 92 156 49 77 141 189 108 53
6 34 243 115 248 220 127
10 244 247 123 128 228 227 90 177 60 29
8 9 20 57 121 234 72 198 224
10 116 175 202 126 11 107 184 38 113 98
7 42 26 19 118 75 25 52
9 103 28 87 192 5 104 213 86 135
7 95 229 83 105 97 142 173

Total makespan: 94

30
11 162 117 40 44 79 31 160 112 12 111 27
10 151 33 246 147 199 237 7 130 193 138
8 65 191 51 134 88 145 222 181
9 233 155 169 136 50 10 101 223 219
9 146 133 89 14 149 206 242 205 235
8 39 8 176 1 148 179 208 153
10 172 225 168 137 163 30 201 186 99 249
7 16 158 100 152 61 185 67
10 165 36 226 64 218 139 210 166 120 91
8 150 212 96 47 125 73 238 232
10 0 58 183 66 114 43 109 164 84 236
9 195 68 132 122 245 204 54 159 45
8 231 161 37 106 59 196 230 22
7 143 35 24 187 2 171 194
7 46 217 56 178 62 63 18
9 81 214 180 41 119 221 93 190 21
8 80 15 170 94 215 32 209 85
5 174 241 6 207 154
7 82 70 78 74 182 131 211
8 239 3 124 48 4 188 69 240
9 13 17 200 102 167 197 216 157 140
8 55 71 23 129 203 110 144 76
8 92 156 49 77 141 189 108 53
6 34 243 115 248 220 127
10 244 247 123 128 228 227 90 177 60 29
8 9 20 57 121 234 72 198 224
10 116 175 202 126 11 107 184 38 113 98
7 42 26 19 118 75 25 52
9 103 28 87 192 5 104 213 86 135
7 95 229 83 105 97 142 173

Total makespan: 94

