15
15 227 2 216 189 219 113 41 234 231 104 21 74 183 29 49
12 10 60 14 170 92 137 94 123 136 202 180 4
14 20 184 124 57 220 208 122 218 244 242 69 161 247 99
18 95 139 13 198 143 240 224 151 115 79 201 66 102 65 121 142 34 235
17 158 157 128 1 138 211 176 212 153 106 129 147 236 168 230 177 191
20 199 169 26 130 68 46 11 86 73 131 107 25 76 17 85 214 144 78 84 30
19 0 53 44 112 156 192 96 88 167 15 164 35 179 103 56 6 24 141 31
17 155 117 193 245 133 5 87 55 7 210 223 18 243 229 185 166 125
13 159 162 83 38 187 195 127 246 97 165 45 47 9
17 116 232 215 186 226 51 160 42 3 50 70 149 194 146 64 118 204
22 37 82 206 221 145 114 91 32 225 200 152 28 150 58 209 111 98 108 40 140 148 19
12 93 207 81 109 173 238 54 172 174 119 75 80
17 190 8 52 249 181 126 228 205 36 239 22 39 213 33 23 197 62
21 182 217 222 237 163 12 154 100 16 71 77 196 188 43 59 203 171 233 175 241 48
16 89 67 134 132 63 72 61 178 110 120 105 27 248 90 135 101

Total makespan: 154

15
15 227 2 216 189 219 113 41 234 231 104 21 74 183 29 49
12 10 60 14 170 92 137 94 123 136 202 180 4
14 20 184 124 57 220 208 122 218 244 242 69 161 247 99
18 95 139 13 198 143 240 224 151 115 79 201 66 102 65 121 142 34 235
17 158 157 128 1 138 211 176 212 153 106 129 147 236 168 230 177 191
20 199 169 26 130 68 46 11 86 73 131 107 25 76 17 85 214 144 78 84 30
19 0 53 44 112 156 192 96 88 167 15 164 35 179 103 56 6 24 141 31
17 155 117 193 245 133 5 87 55 7 210 223 18 243 229 185 166 125
13 159 162 83 38 187 195 127 246 97 165 45 47 9
17 116 232 215 186 226 51 160 42 3 50 70 149 194 146 64 118 204
22 37 82 206 221 145 114 91 32 225 200 152 28 150 58 209 111 98 108 40 140 148 19
12 93 207 81 109 173 238 54 172 174 119 75 80
17 190 8 52 249 181 126 228 205 36 239 22 39 213 33 23 197 62
21 182 217 222 237 163 12 154 100 16 71 77 196 188 43 59 203 171 233 175 241 48
16 89 67 134 132 63 72 61 178 110 120 105 27 248 90 135 101

Total makespan: 154

15
15 227 2 216 189 219 113 41 234 231 104 21 74 183 29 49
12 10 60 14 170 92 137 94 123 136 202 180 4
14 20 184 124 57 220 208 122 218 244 242 69 161 247 99
18 95 139 13 198 143 240 224 151 115 79 201 66 102 65 121 142 34 235
17 158 157 128 1 138 211 176 212 153 106 129 147 236 168 230 177 191
20 199 169 26 130 68 46 11 86 73 131 107 25 76 17 85 214 144 78 84 30
19 0 53 44 112 156 192 96 88 167 15 164 35 179 103 56 6 24 141 31
17 155 117 193 245 133 5 87 55 7 210 223 18 243 229 185 166 125
13 159 162 83 38 187 195 127 246 97 165 45 47 9
17 116 232 215 186 226 51 160 42 3 50 70 149 194 146 64 118 204
22 37 82 206 221 145 114 91 32 225 200 152 28 150 58 209 111 98 108 40 140 148 19
12 93 207 81 109 173 238 54 172 174 119 75 80
17 190 8 52 249 181 126 228 205 36 239 22 39 213 33 23 197 62
21 182 217 222 237 163 12 154 100 16 71 77 196 188 43 59 203 171 233 175 241 48
16 89 67 134 132 63 72 61 178 110 120 105 27 248 90 135 101

Total makespan: 154

