10
25 192 158 31 30 132 61 239 52 235 116 32 71 65 12 60 46 207 4 66 67 180 151 245 206 139
29 97 36 70 11 162 33 200 26 125 169 128 20 41 165 157 137 215 219 226 106 86 148 230 78 213 6 127 217 114
28 191 23 88 138 197 58 196 212 240 130 39 144 243 155 84 62 77 176 224 64 89 108 173 141 72 93 101 110
23 34 5 170 167 227 238 204 231 178 74 175 159 195 57 177 203 185 241 221 113 21 172 18
19 22 94 187 118 47 24 147 82 164 100 222 119 136 223 171 28 43 131 188
24 198 17 174 135 154 228 166 120 87 0 146 236 69 129 111 122 121 19 59 56 68 50 161 8
28 124 160 211 9 179 150 44 76 163 143 168 248 54 53 109 42 48 152 142 112 14 216 15 184 81 126 73 189
25 134 104 117 214 49 133 25 220 234 13 233 7 38 199 145 51 218 186 246 35 194 190 103 107 237
25 95 45 1 244 16 202 96 249 153 99 156 10 27 90 182 79 37 2 105 193 91 201 210 40 80
24 232 115 123 75 3 247 92 63 183 149 29 102 229 85 83 55 225 208 209 242 205 140 98 181

Total makespan: 400

10
25 192 158 31 30 132 61 239 52 235 116 32 71 65 12 60 46 207 4 66 67 180 151 245 206 139
29 97 36 70 11 162 33 200 26 125 169 128 20 41 165 157 137 215 219 226 106 86 148 230 78 213 6 127 217 114
28 191 23 88 138 197 58 196 212 240 130 39 144 243 155 84 62 77 176 224 64 89 108 173 141 72 93 101 110
23 34 5 170 167 227 238 204 231 178 74 175 159 195 57 177 203 185 241 221 113 21 172 18
19 22 94 187 118 47 24 147 82 164 100 222 119 136 223 171 28 43 131 188
24 198 17 174 135 154 228 166 120 87 0 146 236 69 129 111 122 121 19 59 56 68 50 161 8
28 124 160 211 9 179 150 44 76 163 143 168 248 54 53 109 42 48 152 142 112 14 216 15 184 81 126 73 189
25 134 104 117 214 49 133 25 220 234 13 233 7 38 199 145 51 218 186 246 35 194 190 103 107 237
25 95 45 1 244 16 202 96 249 153 99 156 10 27 90 182 79 37 2 105 193 91 201 210 40 80
24 232 115 123 75 3 247 92 63 183 149 29 102 229 85 83 55 225 208 209 242 205 140 98 181

Total makespan: 400

