15
16 168 118 181 106 219 36 172 211 85 50 59 240 65 42 105 142
20 245 152 94 51 68 8 217 242 64 28 184 163 164 215 111 160 135 66 20 132
14 165 21 58 77 195 96 162 40 41 241 82 244 214 156
20 101 19 155 173 13 204 193 73 103 159 191 137 166 238 183 15 113 210 208 139
15 247 198 189 97 212 131 63 202 10 52 187 4 29 37 226
19 175 235 125 47 122 201 151 170 17 46 161 209 190 33 178 86 91 87 112
18 71 67 228 246 100 180 174 1 176 72 243 34 134 39 124 234 81 141
17 3 11 102 248 216 56 22 144 31 35 107 104 12 213 200 130 62
20 49 48 2 194 249 88 98 44 18 110 128 115 147 24 89 186 221 7 231 74
18 76 26 196 32 30 14 206 23 127 38 92 79 154 229 116 182 61 126
19 146 70 207 225 171 119 143 230 218 117 16 123 203 239 197 54 149 188 84
14 185 133 121 43 80 27 57 177 222 60 90 237 69 192
11 75 9 232 109 55 140 158 138 227 220 25
15 99 5 233 223 53 108 45 78 145 199 148 167 120 129 205
14 236 153 0 157 83 179 95 136 169 93 6 114 224 150

Total makespan: 221

15
16 168 118 181 106 219 36 172 211 85 50 59 240 65 42 105 142
20 245 152 94 51 68 8 217 242 64 28 184 163 164 215 111 160 135 66 20 132
14 165 21 58 77 195 96 162 40 41 241 82 244 214 156
20 101 19 155 173 13 204 193 73 103 159 191 137 166 238 183 15 113 210 208 139
15 247 198 189 97 212 131 63 202 10 52 187 4 29 37 226
19 175 235 125 47 122 201 151 170 17 46 161 209 190 33 178 86 91 87 112
18 71 67 228 246 100 180 174 1 176 72 243 34 134 39 124 234 81 141
17 3 11 102 248 216 56 22 144 31 35 107 104 12 213 200 130 62
20 49 48 2 194 249 88 98 44 18 110 128 115 147 24 89 186 221 7 231 74
18 76 26 196 32 30 14 206 23 127 38 92 79 154 229 116 182 61 126
19 146 70 207 225 171 119 143 230 218 117 16 123 203 239 197 54 149 188 84
14 185 133 121 43 80 27 57 177 222 60 90 237 69 192
11 75 9 232 109 55 140 158 138 227 220 25
15 99 5 233 223 53 108 45 78 145 199 148 167 120 129 205
14 236 153 0 157 83 179 95 136 169 93 6 114 224 150

Total makespan: 221

15
16 168 118 181 106 219 36 172 211 85 50 59 240 65 42 105 142
20 245 152 94 51 68 8 217 242 64 28 184 163 164 215 111 160 135 66 20 132
14 165 21 58 77 195 96 162 40 41 241 82 244 214 156
20 101 19 155 173 13 204 193 73 103 159 191 137 166 238 183 15 113 210 208 139
15 247 198 189 97 212 131 63 202 10 52 187 4 29 37 226
19 175 235 125 47 122 201 151 170 17 46 161 209 190 33 178 86 91 87 112
18 71 67 228 246 100 180 174 1 176 72 243 34 134 39 124 234 81 141
17 3 11 102 248 216 56 22 144 31 35 107 104 12 213 200 130 62
20 49 48 2 194 249 88 98 44 18 110 128 115 147 24 89 186 221 7 231 74
18 76 26 196 32 30 14 206 23 127 38 92 79 154 229 116 182 61 126
19 146 70 207 225 171 119 143 230 218 117 16 123 203 239 197 54 149 188 84
14 185 133 121 43 80 27 57 177 222 60 90 237 69 192
11 75 9 232 109 55 140 158 138 227 220 25
15 99 5 233 223 53 108 45 78 145 199 148 167 120 129 205
14 236 153 0 157 83 179 95 136 169 93 6 114 224 150

Total makespan: 221

