25
10 214 91 114 146 38 147 162 80 155 108
8 61 126 6 225 209 145 123 48
10 72 152 83 96 95 109 163 46 200 106
10 127 32 75 185 174 65 87 12 41 144
11 113 0 194 198 231 157 45 88 117 139 229
10 136 63 148 120 35 101 176 1 203 181
11 49 178 173 226 161 156 64 115 47 27 76
11 183 52 40 13 186 245 21 170 223 168 54
13 142 180 29 70 175 218 25 16 189 232 205 143 243
9 9 89 99 90 110 118 224 138 212
9 217 151 221 135 149 31 77 100 17
11 57 28 122 59 184 5 24 36 249 86 105
9 193 240 195 20 85 19 116 206 204
10 201 182 244 236 23 188 213 235 93 73
12 196 227 53 30 121 128 191 234 2 39 71 44
9 133 172 104 69 222 107 50 219 242
11 92 103 208 78 169 164 62 42 7 192 165
7 51 177 166 94 56 141 82
9 160 33 125 3 207 167 197 60 111
11 26 179 150 241 137 233 68 237 202 119 34
11 84 98 14 171 158 124 22 159 246 239 112
11 55 58 153 18 134 79 130 190 8 129 66
10 238 199 220 43 81 74 228 132 67 216
7 15 97 37 102 247 230 10
10 140 4 11 187 211 210 215 131 154 248

Total makespan: 113

25
10 214 91 114 146 38 147 162 80 155 108
8 61 126 6 225 209 145 123 48
10 72 152 83 96 95 109 163 46 200 106
10 127 32 75 185 174 65 87 12 41 144
11 113 0 194 198 231 157 45 88 117 139 229
10 136 63 148 120 35 101 176 1 203 181
11 49 178 173 226 161 156 64 115 47 27 76
11 183 52 40 13 186 245 21 170 223 168 54
13 142 180 29 70 175 218 25 16 189 232 205 143 243
9 9 89 99 90 110 118 224 138 212
9 217 151 221 135 149 31 77 100 17
11 57 28 122 59 184 5 24 36 249 86 105
9 193 240 195 20 85 19 116 206 204
10 201 182 244 236 23 188 213 235 93 73
12 196 227 53 30 121 128 191 234 2 39 71 44
9 133 172 104 69 222 107 50 219 242
11 92 103 208 78 169 164 62 42 7 192 165
7 51 177 166 94 56 141 82
9 160 33 125 3 207 167 197 60 111
11 26 179 150 241 137 233 68 237 202 119 34
11 84 98 14 171 158 124 22 159 246 239 112
11 55 58 153 18 134 79 130 190 8 129 66
10 238 199 220 43 81 74 228 132 67 216
7 15 97 37 102 247 230 10
10 140 4 11 187 211 210 215 131 154 248

Total makespan: 113

25
10 214 91 114 146 38 147 162 80 155 108
8 61 126 6 225 209 145 123 48
10 72 152 83 96 95 109 163 46 200 106
10 127 32 75 185 174 65 87 12 41 144
11 113 0 194 198 231 157 45 88 117 139 229
10 136 63 148 120 35 101 176 1 203 181
11 49 178 173 226 161 156 64 115 47 27 76
11 183 52 40 13 186 245 21 170 223 168 54
13 142 180 29 70 175 218 25 16 189 232 205 143 243
9 9 89 99 90 110 118 224 138 212
9 217 151 221 135 149 31 77 100 17
11 57 28 122 59 184 5 24 36 249 86 105
9 193 240 195 20 85 19 116 206 204
10 201 182 244 236 23 188 213 235 93 73
12 196 227 53 30 121 128 191 234 2 39 71 44
9 133 172 104 69 222 107 50 219 242
11 92 103 208 78 169 164 62 42 7 192 165
7 51 177 166 94 56 141 82
9 160 33 125 3 207 167 197 60 111
11 26 179 150 241 137 233 68 237 202 119 34
11 84 98 14 171 158 124 22 159 246 239 112
11 55 58 153 18 134 79 130 190 8 129 66
10 238 199 220 43 81 74 228 132 67 216
7 15 97 37 102 247 230 10
10 140 4 11 187 211 210 215 131 154 248

Total makespan: 113

