15
18 52 234 156 90 135 29 55 204 136 215 221 5 21 84 180 161 43 176
15 225 30 78 122 200 109 246 75 223 183 196 175 17 80 174
17 3 67 36 167 184 229 27 82 26 188 117 6 93 205 230 14 89
18 35 146 171 8 98 105 238 56 48 160 85 46 110 185 92 151 186 181
20 144 118 190 40 94 131 106 245 249 114 243 57 141 237 152 162 91 39 178 159
12 134 207 72 79 18 74 177 11 235 45 103 173
16 128 172 139 240 0 2 231 22 137 198 19 115 222 83 153 216
17 123 209 107 130 13 227 65 9 211 148 34 244 212 12 147 7 236
15 157 69 166 165 116 124 53 64 54 15 149 62 95 113 47
15 4 191 81 1 73 28 170 10 194 210 31 232 233 119 61
17 86 102 20 179 25 140 247 150 214 226 202 70 248 138 193 111 101
20 60 16 189 220 33 68 143 242 76 218 112 42 50 38 51 155 241 125 132 58
17 129 32 23 142 121 126 63 199 163 49 219 192 168 96 104 59 206
20 203 100 228 158 97 127 120 154 164 77 71 182 169 239 195 88 87 37 66 108
13 197 208 224 217 201 133 24 41 99 44 187 213 145

Total makespan: 137

15
18 52 234 156 90 135 29 55 204 136 215 221 5 21 84 180 161 43 176
15 225 30 78 122 200 109 246 75 223 183 196 175 17 80 174
17 3 67 36 167 184 229 27 82 26 188 117 6 93 205 230 14 89
18 35 146 171 8 98 105 238 56 48 160 85 46 110 185 92 151 186 181
20 144 118 190 40 94 131 106 245 249 114 243 57 141 237 152 162 91 39 178 159
12 134 207 72 79 18 74 177 11 235 45 103 173
16 128 172 139 240 0 2 231 22 137 198 19 115 222 83 153 216
17 123 209 107 130 13 227 65 9 211 148 34 244 212 12 147 7 236
15 157 69 166 165 116 124 53 64 54 15 149 62 95 113 47
15 4 191 81 1 73 28 170 10 194 210 31 232 233 119 61
17 86 102 20 179 25 140 247 150 214 226 202 70 248 138 193 111 101
20 60 16 189 220 33 68 143 242 76 218 112 42 50 38 51 155 241 125 132 58
17 129 32 23 142 121 126 63 199 163 49 219 192 168 96 104 59 206
20 203 100 228 158 97 127 120 154 164 77 71 182 169 239 195 88 87 37 66 108
13 197 208 224 217 201 133 24 41 99 44 187 213 145

Total makespan: 137

