15
17 71 132 19 72 182 234 95 160 37 126 100 29 4 211 226 82 218
16 26 1 240 28 171 175 219 197 134 76 57 75 248 213 242 55
14 18 238 10 191 39 221 25 244 106 34 187 30 120 23
13 114 212 64 152 125 113 206 80 40 108 236 103 144
15 233 91 180 58 168 8 143 150 177 243 45 59 237 208 44
16 202 32 229 245 188 20 56 130 172 195 247 67 5 3 27 118
21 70 207 136 12 184 115 15 31 49 127 110 204 116 16 190 124 203 89 24 117 157
16 166 169 151 173 129 112 104 65 101 54 178 194 52 9 147 141
18 105 17 239 196 93 223 0 174 22 140 81 148 86 216 149 90 158 36
18 137 193 119 97 162 200 61 74 121 63 179 96 21 78 88 135 246 228
12 154 99 176 235 159 42 77 11 123 51 35 210
19 47 224 161 131 6 85 128 66 60 199 209 146 139 62 48 50 183 84 156
18 122 92 170 215 94 111 98 222 68 33 43 46 107 7 227 83 198 109
17 14 249 185 38 73 41 214 189 241 133 220 217 164 231 153 155 232
20 13 181 201 53 87 2 225 186 167 69 79 205 138 145 165 102 192 142 230 163

Total makespan: 176

15
17 71 132 19 72 182 234 95 160 37 126 100 29 4 211 226 82 218
16 26 1 240 28 171 175 219 197 134 76 57 75 248 213 242 55
14 18 238 10 191 39 221 25 244 106 34 187 30 120 23
13 114 212 64 152 125 113 206 80 40 108 236 103 144
15 233 91 180 58 168 8 143 150 177 243 45 59 237 208 44
16 202 32 229 245 188 20 56 130 172 195 247 67 5 3 27 118
21 70 207 136 12 184 115 15 31 49 127 110 204 116 16 190 124 203 89 24 117 157
16 166 169 151 173 129 112 104 65 101 54 178 194 52 9 147 141
18 105 17 239 196 93 223 0 174 22 140 81 148 86 216 149 90 158 36
18 137 193 119 97 162 200 61 74 121 63 179 96 21 78 88 135 246 228
12 154 99 176 235 159 42 77 11 123 51 35 210
19 47 224 161 131 6 85 128 66 60 199 209 146 139 62 48 50 183 84 156
18 122 92 170 215 94 111 98 222 68 33 43 46 107 7 227 83 198 109
17 14 249 185 38 73 41 214 189 241 133 220 217 164 231 153 155 232
20 13 181 201 53 87 2 225 186 167 69 79 205 138 145 165 102 192 142 230 163

Total makespan: 176

