15
5 5 39 28 7 46
3 41 27 44
5 30 47 11 19 31
3 48 17 24
2 22 3
3 32 12 23
3 9 16 14
3 13 29 1
2 4 42
5 37 0 2 18 15
3 40 43 10
5 35 38 34 21 45
2 33 49
3 20 26 36
3 6 25 8

Total makespan: 62

15
5 5 39 28 7 46
3 41 27 44
5 30 47 11 19 31
3 48 17 24
2 22 3
3 32 12 23
3 9 16 14
3 13 29 1
2 4 42
5 37 0 2 18 15
3 40 43 10
5 35 38 34 21 45
2 33 49
3 20 26 36
3 6 25 8

Total makespan: 62

