20
2 14 41
3 10 36 34
2 15 35
2 28 16
3 45 11 30
2 0 23
4 1 37 27 5
2 7 22
4 29 43 44 8
2 46 31
2 39 38
3 26 47 6
3 4 17 24
2 13 12
2 42 33
4 19 2 49 48
3 32 20 40
2 9 21
2 25 3
1 18

Total makespan: 42

20
2 14 41
3 10 36 34
2 15 35
2 28 16
3 45 11 30
2 0 23
4 1 37 27 5
2 7 22
4 29 43 44 8
2 46 31
2 39 38
3 26 47 6
3 4 17 24
2 13 12
2 42 33
4 19 2 49 48
3 32 20 40
2 9 21
2 25 3
1 18

Total makespan: 42

20
2 14 41
3 10 36 34
2 15 35
2 28 16
3 45 11 30
2 0 23
4 1 37 27 5
2 7 22
4 29 43 44 8
2 46 31
2 39 38
3 26 47 6
3 4 17 24
2 13 12
2 42 33
4 19 2 49 48
3 32 20 40
2 9 21
2 25 3
1 18

Total makespan: 42

