25
1 28
2 8 25
1 19
1 43
1 49
1 45
2 33 42
2 4 3
3 22 5 47
2 18 27
3 46 41 23
2 2 0
2 7 44
4 6 31 37 48
3 29 24 20
2 38 17
1 36
2 11 40
2 14 39
3 13 21 15
1 1
3 34 12 30
2 16 26
2 10 9
2 35 32

Total makespan: 15

25
1 28
2 8 25
1 19
1 43
1 49
1 45
2 33 42
2 4 3
3 22 5 47
2 18 27
3 46 41 23
2 2 0
2 7 44
4 6 31 37 48
3 29 24 20
2 38 17
1 36
2 11 40
2 14 39
3 13 21 15
1 1
3 34 12 30
2 16 26
2 10 9
2 35 32

Total makespan: 15

25
1 28
2 8 25
1 19
1 43
1 49
1 45
2 33 42
2 4 3
3 22 5 47
2 18 27
3 46 41 23
2 2 0
2 7 44
4 6 31 37 48
3 29 24 20
2 38 17
1 36
2 11 40
2 14 39
3 13 21 15
1 1
3 34 12 30
2 16 26
2 10 9
2 35 32

Total makespan: 15

