30
2 29 26
3 49 20 42
1 9
3 11 44 1
2 47 37
1 16
2 32 46
1 45
2 24 40
2 14 36
1 4
1 3
2 41 25
2 13 39
2 21 0
1 31
1 15
1 27
1 19
1 6
1 2
3 5 8 10
2 38 34
2 35 17
1 18
2 43 33
1 28
1 48
3 12 7 22
2 30 23

Total makespan: 15

30
2 29 26
3 49 20 42
1 9
3 11 44 1
2 47 37
1 16
2 32 46
1 45
2 24 40
2 14 36
1 4
1 3
2 41 25
2 13 39
2 21 0
1 31
1 15
1 27
1 19
1 6
1 2
3 5 8 10
2 38 34
2 35 17
1 18
2 43 33
1 28
1 48
3 12 7 22
2 30 23

Total makespan: 15

30
2 29 26
3 49 20 42
1 9
3 11 44 1
2 47 37
1 16
2 32 46
1 45
2 24 40
2 14 36
1 4
1 3
2 41 25
2 13 39
2 21 0
1 31
1 15
1 27
1 19
1 6
1 2
3 5 8 10
2 38 34
2 35 17
1 18
2 43 33
1 28
1 48
3 12 7 22
2 30 23

Total makespan: 15

