25
2 31 27
2 30 8
3 36 44 14
4 35 21 5 24
2 38 9
1 29
1 2
2 1 16
2 25 32
4 22 3 4 33
2 47 10
2 13 7
2 41 0
2 12 26
2 39 11
2 23 19
2 45 42
2 37 34
2 46 20
2 15 48
2 18 43
1 28
1 17
2 49 6
1 40

Total makespan: 23

25
2 31 27
2 30 8
3 36 44 14
4 35 21 5 24
2 38 9
1 29
1 2
2 1 16
2 25 32
4 22 3 4 33
2 47 10
2 13 7
2 41 0
2 12 26
2 39 11
2 23 19
2 45 42
2 37 34
2 46 20
2 15 48
2 18 43
1 28
1 17
2 49 6
1 40

Total makespan: 23

