30
1 5
1 44
2 3 11
1 18
3 6 1 23
3 16 38 9
1 15
2 48 4
1 27
1 32
2 29 40
2 14 28
1 21
1 26
2 39 12
2 8 20
2 45 33
1 36
1 46
2 24 22
2 47 49
1 10
2 0 31
2 34 7
1 2
2 35 19
2 42 43
2 41 37
2 13 30
2 25 17

Total makespan: 23

30
1 5
1 44
2 3 11
1 18
3 6 1 23
3 16 38 9
1 15
2 48 4
1 27
1 32
2 29 40
2 14 28
1 21
1 26
2 39 12
2 8 20
2 45 33
1 36
1 46
2 24 22
2 47 49
1 10
2 0 31
2 34 7
1 2
2 35 19
2 42 43
2 41 37
2 13 30
2 25 17

Total makespan: 23

30
1 5
1 44
2 3 11
1 18
3 6 1 23
3 16 38 9
1 15
2 48 4
1 27
1 32
2 29 40
2 14 28
1 21
1 26
2 39 12
2 8 20
2 45 33
1 36
1 46
2 24 22
2 47 49
1 10
2 0 31
2 34 7
1 2
2 35 19
2 42 43
2 41 37
2 13 30
2 25 17

Total makespan: 23

