25
3 22 1 32
2 26 4
2 15 39
3 34 0 42
1 44
2 36 35
2 13 3
2 40 37
2 9 6
2 25 31
1 29
2 23 28
3 38 45 46
1 19
2 21 43
2 41 2
2 30 11
3 24 47 27
2 48 7
2 49 33
2 8 5
1 10
1 14
2 17 20
3 12 16 18

Total makespan: 25

25
3 22 1 32
2 26 4
2 15 39
3 34 0 42
1 44
2 36 35
2 13 3
2 40 37
2 9 6
2 25 31
1 29
2 23 28
3 38 45 46
1 19
2 21 43
2 41 2
2 30 11
3 24 47 27
2 48 7
2 49 33
2 8 5
1 10
1 14
2 17 20
3 12 16 18

Total makespan: 25

