20
2 14 36
4 10 38 9 22
2 15 5
3 16 4 18
1 45
2 8 40
3 43 47 26
3 7 13 42
3 35 32 44
3 27 31 33
2 19 25
3 20 24 0
3 11 41 48
4 23 29 49 28
2 39 2
3 6 21 30
2 1 12
2 34 3
1 37
2 46 17

Total makespan: 29

20
2 14 36
4 10 38 9 22
2 15 5
3 16 4 18
1 45
2 8 40
3 43 47 26
3 7 13 42
3 35 32 44
3 27 31 33
2 19 25
3 20 24 0
3 11 41 48
4 23 29 49 28
2 39 2
3 6 21 30
2 1 12
2 34 3
1 37
2 46 17

Total makespan: 29

