20
1 44
3 15 49 33
3 0 8 32
1 35
4 31 4 30 24
3 16 47 25
3 1 41 13
3 38 42 34
4 19 3 40 18
2 22 43
3 48 12 29
1 17
3 2 45 37
4 39 46 5 27
2 7 10
3 28 9 23
3 26 20 6
2 36 21
1 14
1 11

Total makespan: 23

20
1 44
3 15 49 33
3 0 8 32
1 35
4 31 4 30 24
3 16 47 25
3 1 41 13
3 38 42 34
4 19 3 40 18
2 22 43
3 48 12 29
1 17
3 2 45 37
4 39 46 5 27
2 7 10
3 28 9 23
3 26 20 6
2 36 21
1 14
1 11

Total makespan: 23

20
1 44
3 15 49 33
3 0 8 32
1 35
4 31 4 30 24
3 16 47 25
3 1 41 13
3 38 42 34
4 19 3 40 18
2 22 43
3 48 12 29
1 17
3 2 45 37
4 39 46 5 27
2 7 10
3 28 9 23
3 26 20 6
2 36 21
1 14
1 11

Total makespan: 23

