30
2 4 47
2 31 17
1 32
1 24
2 44 1
2 2 25
2 0 48
2 49 36
1 16
2 38 42
1 45
2 15 21
2 6 26
2 28 43
1 9
2 7 40
1 19
3 5 14 13
2 18 41
2 22 39
1 20
2 8 3
2 29 34
1 37
2 11 10
1 33
1 23
2 35 12
1 30
2 46 27

Total makespan: 18

30
2 4 47
2 31 17
1 32
1 24
2 44 1
2 2 25
2 0 48
2 49 36
1 16
2 38 42
1 45
2 15 21
2 6 26
2 28 43
1 9
2 7 40
1 19
3 5 14 13
2 18 41
2 22 39
1 20
2 8 3
2 29 34
1 37
2 11 10
1 33
1 23
2 35 12
1 30
2 46 27

Total makespan: 18

30
2 4 47
2 31 17
1 32
1 24
2 44 1
2 2 25
2 0 48
2 49 36
1 16
2 38 42
1 45
2 15 21
2 6 26
2 28 43
1 9
2 7 40
1 19
3 5 14 13
2 18 41
2 22 39
1 20
2 8 3
2 29 34
1 37
2 11 10
1 33
1 23
2 35 12
1 30
2 46 27

Total makespan: 18

