25
1 44
2 2 7
2 17 4
1 30
2 36 48
2 20 19
2 0 29
4 18 23 21 8
2 9 11
1 28
1 14
1 43
3 25 42 46
1 47
4 37 24 35 32
2 16 33
3 39 1 38
2 3 49
1 12
4 22 26 5 31
2 6 41
3 10 45 34
2 15 13
1 40
1 27

Total makespan: 23

25
1 44
2 2 7
2 17 4
1 30
2 36 48
2 20 19
2 0 29
4 18 23 21 8
2 9 11
1 28
1 14
1 43
3 25 42 46
1 47
4 37 24 35 32
2 16 33
3 39 1 38
2 3 49
1 12
4 22 26 5 31
2 6 41
3 10 45 34
2 15 13
1 40
1 27

Total makespan: 23

25
1 44
2 2 7
2 17 4
1 30
2 36 48
2 20 19
2 0 29
4 18 23 21 8
2 9 11
1 28
1 14
1 43
3 25 42 46
1 47
4 37 24 35 32
2 16 33
3 39 1 38
2 3 49
1 12
4 22 26 5 31
2 6 41
3 10 45 34
2 15 13
1 40
1 27

Total makespan: 23

