20
2 0 2
4 22 30 16 39
2 33 11
3 37 24 12
3 31 23 47
2 49 28
2 36 5
2 35 14
3 45 8 20
3 32 25 41
3 21 27 13
3 1 26 34
2 9 4
1 19
2 43 7
2 15 42
2 18 46
2 6 29
3 48 10 17
4 44 38 3 40

Total makespan: 34

20
2 0 2
4 22 30 16 39
2 33 11
3 37 24 12
3 31 23 47
2 49 28
2 36 5
2 35 14
3 45 8 20
3 32 25 41
3 21 27 13
3 1 26 34
2 9 4
1 19
2 43 7
2 15 42
2 18 46
2 6 29
3 48 10 17
4 44 38 3 40

Total makespan: 34

20
2 0 2
4 22 30 16 39
2 33 11
3 37 24 12
3 31 23 47
2 49 28
2 36 5
2 35 14
3 45 8 20
3 32 25 41
3 21 27 13
3 1 26 34
2 9 4
1 19
2 43 7
2 15 42
2 18 46
2 6 29
3 48 10 17
4 44 38 3 40

Total makespan: 34

