15
4 44 3 37 8
4 5 9 33 40
3 21 25 46
3 7 22 11
4 31 12 32 10
4 27 39 34 38
3 49 15 47
4 19 41 18 42
2 20 48
3 24 4 29
2 2 30
5 45 17 35 16 26
3 13 36 1
2 23 43
4 6 14 0 28

Total makespan: 45

15
4 44 3 37 8
4 5 9 33 40
3 21 25 46
3 7 22 11
4 31 12 32 10
4 27 39 34 38
3 49 15 47
4 19 41 18 42
2 20 48
3 24 4 29
2 2 30
5 45 17 35 16 26
3 13 36 1
2 23 43
4 6 14 0 28

Total makespan: 45

