10
6 28 20 0 18 17 36
6 42 2 19 5 21 26
5 7 37 46 44 40
4 34 9 32 15
5 25 39 16 3 11
6 31 43 8 49 30 24
3 4 27 6
7 45 23 38 13 33 1 48
4 14 10 12 22
4 47 35 41 29

Total makespan: 109

10
6 28 20 0 18 17 36
6 42 2 19 5 21 26
5 7 37 46 44 40
4 34 9 32 15
5 25 39 16 3 11
6 31 43 8 49 30 24
3 4 27 6
7 45 23 38 13 33 1 48
4 14 10 12 22
4 47 35 41 29

Total makespan: 109

10
6 28 20 0 18 17 36
6 42 2 19 5 21 26
5 7 37 46 44 40
4 34 9 32 15
5 25 39 16 3 11
6 31 43 8 49 30 24
3 4 27 6
7 45 23 38 13 33 1 48
4 14 10 12 22
4 47 35 41 29

Total makespan: 109

