20
2 35 19
1 7
3 14 20 21
2 15 24
3 44 1 26
4 12 9 42 45
2 2 43
2 16 39
4 13 10 17 25
1 33
2 40 49
2 22 18
1 36
2 29 23
5 31 28 46 41 47
3 0 38 8
2 3 48
2 11 5
3 32 30 37
4 4 27 34 6

Total makespan: 24

20
2 35 19
1 7
3 14 20 21
2 15 24
3 44 1 26
4 12 9 42 45
2 2 43
2 16 39
4 13 10 17 25
1 33
2 40 49
2 22 18
1 36
2 29 23
5 31 28 46 41 47
3 0 38 8
2 3 48
2 11 5
3 32 30 37
4 4 27 34 6

Total makespan: 24

20
2 35 19
1 7
3 14 20 21
2 15 24
3 44 1 26
4 12 9 42 45
2 2 43
2 16 39
4 13 10 17 25
1 33
2 40 49
2 22 18
1 36
2 29 23
5 31 28 46 41 47
3 0 38 8
2 3 48
2 11 5
3 32 30 37
4 4 27 34 6

Total makespan: 24

