20
3 24 45 27
2 38 44
2 35 1
2 34 22
3 3 29 46
4 15 39 21 5
3 20 47 18
3 48 11 8
3 19 36 28
3 10 49 9
2 2 26
1 32
1 6
3 33 31 42
3 4 13 37
1 43
3 23 14 12
2 16 7
3 17 41 40
3 25 30 0

Total makespan: 32

20
3 24 45 27
2 38 44
2 35 1
2 34 22
3 3 29 46
4 15 39 21 5
3 20 47 18
3 48 11 8
3 19 36 28
3 10 49 9
2 2 26
1 32
1 6
3 33 31 42
3 4 13 37
1 43
3 23 14 12
2 16 7
3 17 41 40
3 25 30 0

Total makespan: 32

20
3 24 45 27
2 38 44
2 35 1
2 34 22
3 3 29 46
4 15 39 21 5
3 20 47 18
3 48 11 8
3 19 36 28
3 10 49 9
2 2 26
1 32
1 6
3 33 31 42
3 4 13 37
1 43
3 23 14 12
2 16 7
3 17 41 40
3 25 30 0

Total makespan: 32

