15
4 10 5 35 16
2 4 49
3 13 21 28
4 39 26 15 32
3 43 11 24
2 1 18
3 20 37 41
2 14 23
5 22 3 17 42 40
3 7 38 36
5 34 48 30 2 44
3 12 9 47
3 31 33 46
5 29 25 0 19 6
3 45 8 27

Total makespan: 49

15
4 10 5 35 16
2 4 49
3 13 21 28
4 39 26 15 32
3 43 11 24
2 1 18
3 20 37 41
2 14 23
5 22 3 17 42 40
3 7 38 36
5 34 48 30 2 44
3 12 9 47
3 31 33 46
5 29 25 0 19 6
3 45 8 27

Total makespan: 49

