30
3 30 5 1
1 36
2 37 49
2 20 9
4 4 27 11 24
1 25
2 47 43
3 28 34 15
2 32 2
1 21
1 40
2 39 44
0 
1 38
1 8
3 6 48 18
1 33
2 26 10
1 3
1 46
2 19 14
2 22 42
2 45 7
1 12
2 35 13
1 29
1 31
1 0
2 17 16
2 41 23

Total makespan: 14

30
3 30 5 1
1 36
2 37 49
2 20 9
4 4 27 11 24
1 25
2 47 43
3 28 34 15
2 32 2
1 21
1 40
2 39 44
0 
1 38
1 8
3 6 48 18
1 33
2 26 10
1 3
1 46
2 19 14
2 22 42
2 45 7
1 12
2 35 13
1 29
1 31
1 0
2 17 16
2 41 23

Total makespan: 14

30
3 30 5 1
1 36
2 37 49
2 20 9
4 4 27 11 24
1 25
2 47 43
3 28 34 15
2 32 2
1 21
1 40
2 39 44
0 
1 38
1 8
3 6 48 18
1 33
2 26 10
1 3
1 46
2 19 14
2 22 42
2 45 7
1 12
2 35 13
1 29
1 31
1 0
2 17 16
2 41 23

Total makespan: 14

