30
1 39
1 32
2 22 28
1 30
2 33 37
2 47 16
2 35 41
2 42 24
1 18
2 13 2
1 46
1 14
2 7 6
2 49 38
1 5
2 26 17
1 34
1 36
2 12 40
2 9 44
3 11 43 21
2 15 1
2 19 0
1 3
2 10 25
2 20 29
2 45 8
2 31 23
2 48 4
1 27

Total makespan: 21

30
1 39
1 32
2 22 28
1 30
2 33 37
2 47 16
2 35 41
2 42 24
1 18
2 13 2
1 46
1 14
2 7 6
2 49 38
1 5
2 26 17
1 34
1 36
2 12 40
2 9 44
3 11 43 21
2 15 1
2 19 0
1 3
2 10 25
2 20 29
2 45 8
2 31 23
2 48 4
1 27

Total makespan: 21

