15
2 39 41
3 18 43 47
4 7 9 31 45
4 23 30 12 38
2 3 5
5 6 25 17 34 1
3 48 33 49
4 8 27 11 29
3 16 24 21
1 4
4 14 0 19 46
4 42 13 10 20
3 15 36 37
3 28 2 26
5 44 40 35 32 22

Total makespan: 35

15
2 39 41
3 18 43 47
4 7 9 31 45
4 23 30 12 38
2 3 5
5 6 25 17 34 1
3 48 33 49
4 8 27 11 29
3 16 24 21
1 4
4 14 0 19 46
4 42 13 10 20
3 15 36 37
3 28 2 26
5 44 40 35 32 22

Total makespan: 35

15
2 39 41
3 18 43 47
4 7 9 31 45
4 23 30 12 38
2 3 5
5 6 25 17 34 1
3 48 33 49
4 8 27 11 29
3 16 24 21
1 4
4 14 0 19 46
4 42 13 10 20
3 15 36 37
3 28 2 26
5 44 40 35 32 22

Total makespan: 35

