10
7 18 46 34 28 36 9 23
4 49 15 1 4
7 32 20 26 29 37 10 22
3 45 5 6
5 13 41 7 40 8
5 2 25 14 44 12
5 27 31 19 33 16
6 42 35 11 21 24 30
4 39 47 43 0
4 48 17 38 3

Total makespan: 107

10
7 18 46 34 28 36 9 23
4 49 15 1 4
7 32 20 26 29 37 10 22
3 45 5 6
5 13 41 7 40 8
5 2 25 14 44 12
5 27 31 19 33 16
6 42 35 11 21 24 30
4 39 47 43 0
4 48 17 38 3

Total makespan: 107

10
7 18 46 34 28 36 9 23
4 49 15 1 4
7 32 20 26 29 37 10 22
3 45 5 6
5 13 41 7 40 8
5 2 25 14 44 12
5 27 31 19 33 16
6 42 35 11 21 24 30
4 39 47 43 0
4 48 17 38 3

Total makespan: 107

