30
2 40 13
1 33
2 15 5
2 20 16
2 4 44
2 24 27
2 41 45
1 36
1 21
1 7
1 11
2 31 46
2 48 49
2 42 9
1 38
2 10 12
1 22
2 2 14
3 1 23 19
2 6 34
1 0
1 3
3 37 43 28
2 30 35
1 29
1 25
1 39
2 47 17
3 18 26 8
1 32

Total makespan: 13

30
2 40 13
1 33
2 15 5
2 20 16
2 4 44
2 24 27
2 41 45
1 36
1 21
1 7
1 11
2 31 46
2 48 49
2 42 9
1 38
2 10 12
1 22
2 2 14
3 1 23 19
2 6 34
1 0
1 3
3 37 43 28
2 30 35
1 29
1 25
1 39
2 47 17
3 18 26 8
1 32

Total makespan: 13

