10
6 22 16 39 47 26 13
4 17 9 2 12
6 14 21 36 10 19 23
6 15 25 38 24 5 4
5 32 44 18 30 43
6 41 11 28 45 6 29
3 37 49 48
5 40 35 27 8 34
5 46 3 20 31 33
4 1 7 0 42

Total makespan: 100

10
6 22 16 39 47 26 13
4 17 9 2 12
6 14 21 36 10 19 23
6 15 25 38 24 5 4
5 32 44 18 30 43
6 41 11 28 45 6 29
3 37 49 48
5 40 35 27 8 34
5 46 3 20 31 33
4 1 7 0 42

Total makespan: 100

10
6 22 16 39 47 26 13
4 17 9 2 12
6 14 21 36 10 19 23
6 15 25 38 24 5 4
5 32 44 18 30 43
6 41 11 28 45 6 29
3 37 49 48
5 40 35 27 8 34
5 46 3 20 31 33
4 1 7 0 42

Total makespan: 100

