30
2 33 17
1 45
2 20 12
2 3 9
2 29 22
2 7 32
1 37
2 5 36
1 1
1 8
2 30 11
2 0 48
1 42
1 34
3 6 38 4
1 49
3 43 19 15
3 31 28 40
3 25 14 16
3 10 47 39
1 13
0 
1 26
2 46 41
2 27 44
2 21 2
0 
1 18
1 24
2 23 35

Total makespan: 15

30
2 33 17
1 45
2 20 12
2 3 9
2 29 22
2 7 32
1 37
2 5 36
1 1
1 8
2 30 11
2 0 48
1 42
1 34
3 6 38 4
1 49
3 43 19 15
3 31 28 40
3 25 14 16
3 10 47 39
1 13
0 
1 26
2 46 41
2 27 44
2 21 2
0 
1 18
1 24
2 23 35

Total makespan: 15

30
2 33 17
1 45
2 20 12
2 3 9
2 29 22
2 7 32
1 37
2 5 36
1 1
1 8
2 30 11
2 0 48
1 42
1 34
3 6 38 4
1 49
3 43 19 15
3 31 28 40
3 25 14 16
3 10 47 39
1 13
0 
1 26
2 46 41
2 27 44
2 21 2
0 
1 18
1 24
2 23 35

Total makespan: 15

