30
2 34 6
3 38 10 5
2 23 42
1 19
2 26 13
1 7
2 28 39
1 27
1 47
2 49 1
3 24 37 40
2 20 8
3 25 4 36
2 44 48
1 3
1 30
2 29 22
1 14
2 32 17
1 46
3 12 31 45
1 43
2 41 0
1 35
1 21
1 11
1 2
2 15 18
2 16 9
1 33

Total makespan: 18

30
2 34 6
3 38 10 5
2 23 42
1 19
2 26 13
1 7
2 28 39
1 27
1 47
2 49 1
3 24 37 40
2 20 8
3 25 4 36
2 44 48
1 3
1 30
2 29 22
1 14
2 32 17
1 46
3 12 31 45
1 43
2 41 0
1 35
1 21
1 11
1 2
2 15 18
2 16 9
1 33

Total makespan: 18

