Instance....: instances/I_150_20_S_1-9_1.txt
Algorithm...: Simulated Annealing (alpha=0.990, saMax=10M, t0=1)
Other params: maxIters=100M, seed=2, timeLimit=360.00s

    /--------------------------------------------------------\
    |     Iter |   RDP(%) |       S* |       S' |       Time | 
    |----------|----------|----------|----------|------------|
    |        0 |        - |      864 |      864 |       0.00 | s0
    |        0 |        - |      861 |      861 |       0.00 | *
    |        3 |        - |      850 |      850 |       0.00 | *
    |        9 |        - |      830 |      830 |       0.01 | *
    |       11 |        - |      817 |      817 |       0.01 | *
    |       14 |        - |      808 |      808 |       0.01 | *
    |       15 |        - |      758 |      758 |       0.01 | *
    |       16 |        - |      726 |      726 |       0.01 | *
    |       17 |        - |      721 |      721 |       0.01 | *
    |       19 |        - |      674 |      674 |       0.03 | *
    |       20 |        - |      644 |      644 |       0.03 | *
    |       21 |        - |      622 |      622 |       0.03 | *
    |       24 |        - |      619 |      619 |       0.03 | *
    |       26 |        - |      603 |      603 |       0.03 | *
    |       28 |        - |      591 |      591 |       0.03 | *
    |       30 |        - |      589 |      589 |       0.03 | *
    |       31 |        - |      588 |      588 |       0.03 | *
    |       33 |        - |      552 |      552 |       0.03 | *
    |       34 |        - |      527 |      527 |       0.03 | *
    |       35 |        - |      526 |      526 |       0.03 | *
    |       37 |        - |      520 |      520 |       0.04 | *
    |       39 |        - |      518 |      518 |       0.04 | *
    |       42 |        - |      512 |      512 |       0.04 | *
    |       44 |        - |      505 |      505 |       0.04 | *
    |       47 |        - |      501 |      501 |       0.04 | *
    |       50 |        - |      499 |      499 |       0.04 | *
    |       69 |        - |      496 |      496 |       0.04 | *
    |       75 |        - |      495 |      495 |       0.04 | *
    |       76 |        - |      486 |      486 |       0.04 | *
    |       77 |        - |      485 |      485 |       0.04 | *
    |       84 |        - |      484 |      484 |       0.04 | *
    |       87 |        - |      482 |      482 |       0.04 | *
    |       88 |        - |      478 |      478 |       0.04 | *
    |       92 |        - |      476 |      476 |       0.04 | *
    |       95 |        - |      471 |      471 |       0.04 | *
    |       98 |        - |      458 |      458 |       0.04 | *
    |      103 |        - |      457 |      457 |       0.04 | *
    |      104 |        - |      456 |      456 |       0.04 | *
    |      107 |        - |      450 |      450 |       0.04 | *
    |      109 |        - |      447 |      447 |       0.04 | *
    |      116 |        - |      445 |      445 |       0.05 | *
    |      125 |        - |      444 |      444 |       0.05 | *
    |      128 |        - |      440 |      440 |       0.05 | *
    |      140 |        - |      439 |      439 |       0.05 | *
    |      142 |        - |      438 |      438 |       0.05 | *
    |      143 |        - |      435 |      435 |       0.05 | *
    |      194 |        - |      429 |      429 |       0.05 | *
    |      197 |        - |      425 |      425 |       0.05 | *
    |      209 |        - |      423 |      423 |       0.05 | *
    |      213 |        - |      422 |      422 |       0.05 | *
    |      215 |        - |      421 |      421 |       0.05 | *
    |      225 |        - |      417 |      417 |       0.05 | *
    |      228 |        - |      413 |      413 |       0.05 | *
    |      229 |        - |      406 |      406 |       0.05 | *
    |      246 |        - |      401 |      401 |       0.05 | *
    |      254 |        - |      398 |      398 |       0.05 | *
    |      267 |        - |      396 |      396 |       0.05 | *
    |      269 |        - |      394 |      394 |       0.05 | *
    |      271 |        - |      387 |      387 |       0.05 | *
    |      272 |        - |      384 |      384 |       0.05 | *
    |      277 |        - |      383 |      383 |       0.05 | *
    |      279 |        - |      382 |      382 |       0.05 | *
    |      290 |        - |      379 |      379 |       0.05 | *
    |      291 |        - |      378 |      378 |       0.05 | *
    |      300 |        - |      377 |      377 |       0.06 | *
    |      309 |        - |      376 |      376 |       0.06 | *
    |      311 |        - |      372 |      372 |       0.06 | *
    |      317 |        - |      369 |      369 |       0.06 | *
    |      321 |        - |      367 |      367 |       0.06 | *
    |      323 |        - |      366 |      366 |       0.06 | *
    |      328 |        - |      364 |      364 |       0.06 | *
    |      331 |        - |      363 |      363 |       0.06 | *
    |      341 |        - |      362 |      362 |       0.06 | *
    |      348 |        - |      361 |      361 |       0.06 | *
    |      364 |        - |      360 |      360 |       0.06 | *
    |      379 |        - |      352 |      352 |       0.06 | *
    |      419 |        - |      350 |      350 |       0.06 | *
    |      422 |        - |      341 |      341 |       0.06 | *
    |      427 |        - |      335 |      335 |       0.06 | *
    |      430 |        - |      334 |      334 |       0.06 | *
    |      432 |        - |      333 |      333 |       0.06 | *
    |      434 |        - |      331 |      331 |       0.06 | *
    |      451 |        - |      329 |      329 |       0.06 | *
    |      453 |        - |      324 |      324 |       0.06 | *
    |      458 |        - |      322 |      322 |       0.06 | *
    |      470 |        - |      317 |      317 |       0.06 | *
    |      492 |        - |      316 |      316 |       0.06 | *
    |      508 |        - |      314 |      314 |       0.06 | *
    |      511 |        - |      313 |      313 |       0.06 | *
    |      514 |        - |      312 |      312 |       0.06 | *
    |      521 |        - |      311 |      311 |       0.06 | *
    |      530 |        - |      308 |      308 |       0.06 | *
    |      552 |        - |      307 |      307 |       0.06 | *
    |      562 |        - |      306 |      306 |       0.06 | *
    |      574 |        - |      303 |      303 |       0.07 | *
    |      582 |        - |      301 |      301 |       0.07 | *
    |      598 |        - |      300 |      300 |       0.07 | *
    |      615 |        - |      299 |      299 |       0.07 | *
    |      628 |        - |      296 |      296 |       0.07 | *
    |      629 |        - |      294 |      294 |       0.07 | *
    |      632 |        - |      293 |      293 |       0.07 | *
    |      655 |        - |      289 |      289 |       0.07 | *
    |      662 |        - |      287 |      287 |       0.07 | *
    |      673 |        - |      286 |      286 |       0.07 | *
    |      676 |        - |      285 |      285 |       0.07 | *
    |      679 |        - |      282 |      282 |       0.07 | *
    |      680 |        - |      281 |      281 |       0.07 | *
    |      681 |        - |      280 |      280 |       0.07 | *
    |      696 |        - |      279 |      279 |       0.07 | *
    |      716 |        - |      278 |      278 |       0.07 | *
    |      717 |        - |      277 |      277 |       0.07 | *
    |      822 |        - |      276 |      276 |       0.07 | *
    |      837 |        - |      275 |      275 |       0.07 | *
    |      946 |        - |      274 |      274 |       0.07 | *
    |      948 |        - |      273 |      273 |       0.07 | *
    |      951 |        - |      271 |      271 |       0.07 | *
    |      958 |        - |      270 |      270 |       0.07 | *
    |      973 |        - |      269 |      269 |       0.07 | *
    |      976 |        - |      268 |      268 |       0.07 | *
    |      979 |        - |      266 |      266 |       0.07 | *
    |      981 |        - |      265 |      265 |       0.07 | *
    |      990 |        - |      263 |      263 |       0.07 | *
    |      998 |        - |      262 |      262 |       0.07 | *
    |      999 |        - |      261 |      261 |       0.07 | *
    |     1001 |        - |      260 |      260 |       0.07 | *
    |     1002 |        - |      259 |      259 |       0.08 | *
    |     1012 |        - |      258 |      258 |       0.08 | *
    |     1034 |        - |      257 |      257 |       0.08 | *
    |     1064 |        - |      254 |      254 |       0.08 | *
    |     1065 |        - |      251 |      251 |       0.08 | *
    |     1078 |        - |      250 |      250 |       0.08 | *
    |     1088 |        - |      249 |      249 |       0.08 | *
    |     1095 |        - |      247 |      247 |       0.08 | *
    |     1096 |        - |      246 |      246 |       0.08 | *
    |     1109 |        - |      245 |      245 |       0.08 | *
    |     1126 |        - |      244 |      244 |       0.08 | *
    |     1159 |        - |      243 |      243 |       0.08 | *
    |     1160 |        - |      242 |      242 |       0.08 | *
    |     1165 |        - |      241 |      241 |       0.08 | *
    |     1186 |        - |      240 |      240 |       0.08 | *
    |     1204 |        - |      239 |      239 |       0.08 | *
    |     1248 |        - |      238 |      238 |       0.08 | *
    |     1289 |        - |      237 |      237 |       0.08 | *
    |     1298 |        - |      236 |      236 |       0.08 | *
    |     1304 |        - |      235 |      235 |       0.08 | *
    |     1342 |        - |      234 |      234 |       0.08 | *
    |     1346 |        - |      233 |      233 |       0.08 | *
    |     1389 |        - |      232 |      232 |       0.08 | *
    |     1393 |        - |      231 |      231 |       0.08 | *
    |     1408 |        - |      230 |      230 |       0.08 | *
    |     1433 |        - |      229 |      229 |       0.08 | *
    |     1439 |        - |      228 |      228 |       0.08 | *
    |     1489 |        - |      227 |      227 |       0.08 | *
    |     1498 |        - |      226 |      226 |       0.08 | *
    |     1507 |        - |      224 |      224 |       0.08 | *
    |     1509 |        - |      223 |      223 |       0.08 | *
    |     1532 |        - |      222 |      222 |       0.08 | *
    |     1563 |        - |      219 |      219 |       0.08 | *
    |     1571 |        - |      216 |      216 |       0.08 | *
    |     1576 |        - |      215 |      215 |       0.09 | *
    |     1627 |        - |      214 |      214 |       0.09 | *
    |     1640 |        - |      213 |      213 |       0.09 | *
    |     1689 |        - |      212 |      212 |       0.09 | *
    |     1739 |        - |      211 |      211 |       0.09 | *
    |     1747 |        - |      210 |      210 |       0.09 | *
    |     1827 |        - |      209 |      209 |       0.09 | *
    |     1832 |        - |      207 |      207 |       0.09 | *
    |     1855 |        - |      206 |      206 |       0.09 | *
    |     1862 |        - |      205 |      205 |       0.09 | *
    |     1872 |        - |      204 |      204 |       0.09 | *
    |     1873 |        - |      203 |      203 |       0.09 | *
    |     1896 |        - |      202 |      202 |       0.09 | *
    |     1912 |        - |      201 |      201 |       0.09 | *
    |     1959 |        - |      200 |      200 |       0.09 | *
    |     1973 |        - |      199 |      199 |       0.09 | *
    |     1976 |        - |      198 |      198 |       0.09 | *
    |     2003 |        - |      197 |      197 |       0.09 | *
    |     2009 |        - |      196 |      196 |       0.09 | *
    |     2108 |        - |      195 |      195 |       0.09 | *
    |     2122 |        - |      192 |      192 |       0.09 | *
    |     2157 |        - |      191 |      191 |       0.09 | *
    |     2165 |        - |      190 |      190 |       0.09 | *
    |     2198 |        - |      189 |      189 |       0.09 | *
    |     2281 |        - |      188 |      188 |       0.09 | *
    |     2347 |        - |      187 |      187 |       0.09 | *
    |     2410 |        - |      186 |      186 |       0.10 | *
    |     2416 |        - |      185 |      185 |       0.10 | *
    |     2435 |        - |      182 |      182 |       0.10 | *
    |     2462 |        - |      181 |      181 |       0.10 | *
    |     2473 |        - |      180 |      180 |       0.10 | *
    |     2598 |        - |      179 |      179 |       0.10 | *
    |     2734 |        - |      178 |      178 |       0.10 | *
    |     2802 |        - |      176 |      176 |       0.10 | *
    |     2815 |        - |      175 |      175 |       0.10 | *
    |     2828 |        - |      174 |      174 |       0.10 | *
    |     2834 |        - |      173 |      173 |       0.10 | *
    |     2915 |        - |      172 |      172 |       0.10 | *
    |     2943 |        - |      171 |      171 |       0.10 | *
    |     2958 |        - |      170 |      170 |       0.10 | *
    |     2970 |        - |      168 |      168 |       0.10 | *
    |     3180 |        - |      167 |      167 |       0.10 | *
    |     3244 |        - |      166 |      166 |       0.10 | *
    |     3260 |        - |      165 |      165 |       0.10 | *
    |     3421 |        - |      164 |      164 |       0.11 | *
    |     3434 |        - |      163 |      163 |       0.11 | *
    |     3436 |        - |      162 |      162 |       0.11 | *
    |     3475 |        - |      161 |      161 |       0.11 | *
    |     3628 |        - |      160 |      160 |       0.11 | *
    |     3665 |        - |      159 |      159 |       0.11 | *
    |     3698 |        - |      158 |      158 |       0.11 | *
    |     3925 |        - |      157 |      157 |       0.11 | *
    |     3953 |        - |      156 |      156 |       0.11 | *
    |     3999 |        - |      155 |      155 |       0.11 | *
    |     4079 |        - |      154 |      154 |       0.11 | *
    |     4156 |        - |      153 |      153 |       0.11 | *
    |     4210 |        - |      152 |      152 |       0.11 | *
    |     4243 |        - |      151 |      151 |       0.11 | *
    |     4274 |        - |      150 |      150 |       0.11 | *
    |     4294 |        - |      149 |      149 |       0.12 | *
    |     4328 |        - |      148 |      148 |       0.12 | *
    |     4341 |        - |      147 |      147 |       0.12 | *
    |     4382 |        - |      146 |      146 |       0.12 | *
    |     4550 |        - |      145 |      145 |       0.12 | *
    |     4693 |        - |      144 |      144 |       0.12 | *
    |     4737 |        - |      143 |      143 |       0.12 | *
    |     4741 |        - |      142 |      142 |       0.12 | *
    |     5043 |        - |      141 |      141 |       0.12 | *
    |     5075 |        - |      140 |      140 |       0.12 | *
    |     5179 |        - |      139 |      139 |       0.12 | *
    |     5191 |        - |      138 |      138 |       0.12 | *
    |     5239 |        - |      137 |      137 |       0.12 | *
    |     5281 |        - |      135 |      135 |       0.12 | *
    |     5292 |        - |      134 |      134 |       0.12 | *
    |     5293 |        - |      133 |      133 |       0.12 | *
    |     5298 |        - |      132 |      132 |       0.12 | *
    |     5389 |        - |      131 |      131 |       0.12 | *
    |     5410 |        - |      130 |      130 |       0.12 | *
    |     5699 |        - |      129 |      129 |       0.12 | *
    |     6029 |        - |      128 |      128 |       0.13 | *
    |     6035 |        - |      127 |      127 |       0.13 | *
    |     6154 |        - |      126 |      126 |       0.13 | *
    |     6257 |        - |      125 |      125 |       0.13 | *
    |     6563 |        - |      124 |      124 |       0.13 | *
    |     7052 |        - |      123 |      123 |       0.13 | *
    |     7300 |        - |      122 |      122 |       0.13 | *
    |     7710 |        - |      121 |      121 |       0.13 | *
    |     7741 |        - |      120 |      120 |       0.13 | *
    |     7800 |        - |      119 |      119 |       0.13 | *
    |     7993 |        - |      118 |      118 |       0.13 | *
    |     8230 |        - |      117 |      117 |       0.13 | *
    |     8812 |        - |      116 |      116 |       0.14 | *
    |     9164 |        - |      115 |      115 |       0.14 | *
    |     9724 |        - |      114 |      114 |       0.14 | *
    |      10K |        - |      113 |      113 |       0.14 | *
    |      10K |        - |      112 |      112 |       0.14 | *
    |      10K |        - |      111 |      111 |       0.14 | *
    |      11K |        - |      110 |      110 |       0.15 | *
    |      11K |        - |      109 |      109 |       0.15 | *
    |      12K |        - |      108 |      108 |       0.15 | *
    |      12K |        - |      107 |      107 |       0.15 | *
    |      12K |        - |      106 |      106 |       0.15 | *
    |      12K |        - |      105 |      105 |       0.15 | *
    |      12K |        - |      104 |      104 |       0.15 | *
    |      12K |        - |      103 |      103 |       0.15 | *
    |      12K |        - |      102 |      102 |       0.15 | *
    |      13K |        - |      101 |      101 |       0.15 | *
    |      13K |        - |      100 |      100 |       0.16 | *
    |      13K |        - |       99 |       99 |       0.16 | *
    |      14K |        - |       98 |       98 |       0.16 | *
    |      17K |        - |       97 |       97 |       0.17 | *
    |      17K |        - |       96 |       96 |       0.17 | *
    |      17K |        - |       95 |       95 |       0.17 | *
    |      17K |        - |       94 |       94 |       0.17 | *
    |      18K |        - |       93 |       93 |       0.17 | *
    |      34K |        - |       92 |       92 |       0.22 | *
    |      34K |        - |       91 |       91 |       0.22 | *
    |      34K |        - |       90 |       90 |       0.22 | *
    |      35K |        - |       89 |       89 |       0.22 | *
    |      35K |        - |       88 |       88 |       0.23 | *
    |      38K |        - |       87 |       87 |       0.23 | *
    |      39K |        - |       86 |       86 |       0.24 | *
    |      48K |        - |       85 |       85 |       0.26 | *
    |      49K |        - |       84 |       84 |       0.27 | *
    |      51K |        - |       83 |       83 |       0.27 | *
    |      52K |        - |       82 |       82 |       0.27 | *
    |      52K |        - |       81 |       81 |       0.27 | *
    |      81K |        - |       80 |       80 |       0.33 | *
    |     160K |        - |       79 |       79 |       0.50 | *
    |     176K |        - |       78 |       78 |       0.54 | *
    |     190K |        - |       77 |       77 |       0.57 | *
    |     222K |        - |       76 |       76 |       0.63 | *
    |     222K |        - |       75 |       75 |       0.63 | *
    |    1182K |        - |       74 |       74 |       2.06 | *
    |    9689K |        - |       73 |       73 |      14.27 | *
    |      79M |        - |       72 |       72 |     105.85 | *
    |     122M |        - |       71 |       71 |     163.30 | *
    |     122M |        - |       70 |       70 |     163.34 | *
    |     170M |        - |       69 |       69 |     227.06 | *
    \--------------------------------------------------------/

Neighborhoods statistics (values in %):

    /----------------------------------------------------------------\
    | Move               | Improvs. | Sideways |  Accepts |  Rejects |
    |--------------------|----------|----------|----------|----------|
    | Shift(mk)          |     361K |     725K |    1345K |    9873K |
    | Shift              |      18K |    4076K |    4433K |    6802K |
    | ShiftSmart(mk)     |    1308K |    2454K |    4353K |    6873K |
    | ShiftSmart         |      66K |    7813K |    8227K |    2999K |
    | SimpSwap(mk)       |     2225 |     4488 |     8268 |      11M |
    | SimpSwap           |      263 |      15K |      18K |      11M |
    | SimpSwapSmart(mk)  |      14K |      27K |      50K |      11M |
    | SimpSwapSmart      |     1447 |      88K |     105K |      11M |
    | Swap(mk)           |     1573 |     3181 |     5828 |      11M |
    | Swap               |      167 |      12K |      14K |      11M |
    | SwapSmart(mk)      |     7079 |      13K |      24K |      11M |
    | SwapSmart          |      739 |      39K |      46K |      11M |
    | Switch(mk)         |     235K |    1986K |    2368K |    8856K |
    | Switch             |      12K |    4272K |    4522K |    6708K |
    | SwitchSmart(mk)    |     720K |    1251K |    2335K |    8905K |
    | SwitchSmart        |      36K |    5473K |    5871K |    5354K |
    | TaskMove(mk)       |      18K |      30K |      57K |      11M |
    | TaskMove           |      899 |      51K |      61K |      11M |
    | TaskMoveSmart(mk)  |      53K |      88K |     166K |      11M |
    | TaskMoveSmart      |     2827 |     151K |     177K |      11M |
    | 2-Shift(mk)        |     231K |     713K |    1088K |      10M |
    | 2-Shift            |      12K |    3049K |    3299K |    7922K |
    | 2-ShiftSmart(mk)   |    1192K |    2256K |    3836K |    7399K |
    | 2-ShiftSmart       |      60K |    6974K |    7350K |    3876K |
    \----------------------------------------------------------------/

Best makespan.....: 69
N. of Iterations..: 269449865
Total runtime.....: 360.01s
Academic license - for non-commercial use only
Academic license - for non-commercial use only
Academic license - for non-commercial use only
Academic license - for non-commercial use only
Academic license - for non-commercial use only
Academic license - for non-commercial use only
Academic license - for non-commercial use only
Academic license - for non-commercial use only
Academic license - for non-commercial use only
Academic license - for non-commercial use only
Academic license - for non-commercial use only
Academic license - for non-commercial use only
Academic license - for non-commercial use only
Academic license - for non-commercial use only
Academic license - for non-commercial use only
Academic license - for non-commercial use only
Academic license - for non-commercial use only
Academic license - for non-commercial use only
Academic license - for non-commercial use only
Academic license - for non-commercial use only
Academic license - for non-commercial use only
Academic license - for non-commercial use only
Academic license - for non-commercial use only
Academic license - for non-commercial use only
Academic license - for non-commercial use only
Academic license - for non-commercial use only
Academic license - for non-commercial use only
Academic license - for non-commercial use only
Academic license - for non-commercial use only
Academic license - for non-commercial use only
Academic license - for non-commercial use only
Academic license - for non-commercial use only
Academic license - for non-commercial use only
Academic license - for non-commercial use only
Academic license - for non-commercial use only
Academic license - for non-commercial use only
Academic license - for non-commercial use only
Academic license - for non-commercial use only
Academic license - for non-commercial use only
Academic license - for non-commercial use only
Academic license - for non-commercial use only
Academic license - for non-commercial use only
Academic license - for non-commercial use only
Academic license - for non-commercial use only
Academic license - for non-commercial use only
Academic license - for non-commercial use only
Academic license - for non-commercial use only
Academic license - for non-commercial use only
Academic license - for non-commercial use only
Academic license - for non-commercial use only
Academic license - for non-commercial use only
Academic license - for non-commercial use only
Academic license - for non-commercial use only
Academic license - for non-commercial use only
Academic license - for non-commercial use only
Academic license - for non-commercial use only
Academic license - for non-commercial use only
Academic license - for non-commercial use only
Academic license - for non-commercial use only
Academic license - for non-commercial use only
Academic license - for non-commercial use only
Academic license - for non-commercial use only
Academic license - for non-commercial use only
Academic license - for non-commercial use only
Academic license - for non-commercial use only
Academic license - for non-commercial use only
Academic license - for non-commercial use only
Academic license - for non-commercial use only
Academic license - for non-commercial use only
Academic license - for non-commercial use only
Academic license - for non-commercial use only
Academic license - for non-commercial use only
Academic license - for non-commercial use only
Academic license - for non-commercial use only
Academic license - for non-commercial use only
Academic license - for non-commercial use only
Academic license - for non-commercial use only
Academic license - for non-commercial use only
Academic license - for non-commercial use only
Academic license - for non-commercial use only
Academic license - for non-commercial use only
Academic license - for non-commercial use only
Academic license - for non-commercial use only
Academic license - for non-commercial use only
Academic license - for non-commercial use only
Academic license - for non-commercial use only
Academic license - for non-commercial use only
Academic license - for non-commercial use only
Academic license - for non-commercial use only
Academic license - for non-commercial use only
Academic license - for non-commercial use only
Academic license - for non-commercial use only
    /-------------------------------------------------------------------------------\
    |    Makespam   |   Free Jobs   | Free Machines |    It. Time   |   Total Time  | 
    |-------------------------------------------------------------------------------|
    |            69 |            33 |             5 |          0.30 |          0.89 | 
    |            69 |            39 |             6 |          2.47 |          3.51 | 
    |            69 |            46 |             7 |          1.49 |          5.20 | 
    |            69 |            55 |             8 |         22.01 |         27.37 | 
    |            69 |            44 |             7 |          6.65 |         34.18 | 
    |            69 |            52 |             8 |         22.00 |         56.36 | 
    |            69 |            41 |             6 |          0.92 |         57.40 | 
    |            68 |            49 |             6 |         22.01 |         79.56 | 
    |            68 |            49 |             6 |         10.36 |         90.09 | 
    |            68 |            58 |             9 |         22.04 |        112.45 | 
    |            68 |            46 |             6 |          1.37 |        114.01 | 
    |            68 |            55 |             8 |         22.01 |        136.23 | 
    |            68 |            44 |             6 |          0.79 |        137.17 | 
    |            68 |            52 |             7 |          0.97 |        138.31 | 
    |            68 |            62 |             9 |         22.01 |        160.69 | 
    |            68 |            49 |             7 |         22.01 |        182.84 | 
    |            67 |            39 |             6 |          1.35 |        184.27 | 
    |            67 |            39 |             6 |          0.30 |        184.71 | 
    |            67 |            46 |             6 |          7.18 |        192.04 | 
    |            67 |            55 |             8 |          1.06 |        193.33 | 
    |            67 |            66 |            10 |         22.01 |        215.73 | 
    |            67 |            52 |             7 |         22.01 |        238.02 | 
    |            67 |            41 |             6 |          2.45 |        240.59 | 
    |            67 |            49 |             7 |         22.01 |        262.79 | 
    |            67 |            39 |             6 |          0.38 |        263.29 | 
    |            67 |            46 |             7 |          2.62 |        265.99 | 
    |            67 |            55 |             8 |          3.97 |        270.25 | 
    |            67 |            66 |            10 |         22.03 |        292.69 | 
    |            67 |            52 |             9 |         22.01 |        314.95 | 
    |            67 |            41 |             7 |          3.46 |        318.57 | 
    |            67 |            49 |             7 |          2.36 |        321.17 | 
    |            67 |            58 |             9 |          1.46 |        322.92 | 
    |            67 |            69 |            10 |         22.01 |        345.30 | 
    |            67 |            55 |             8 |         22.01 |        367.50 | 
    |            67 |            44 |             7 |          2.13 |        369.76 | 
    |            67 |            52 |             8 |         22.00 |        391.99 | 
    |            67 |            41 |             7 |          2.70 |        394.82 | 
    |            67 |            49 |             7 |          6.84 |        401.86 | 
    |            67 |            58 |             8 |         22.00 |        424.05 | 
    |            67 |            46 |             7 |         12.17 |        436.33 | 
    |            67 |            55 |             7 |          0.73 |        437.20 | 
    |            67 |            66 |            10 |         22.01 |        459.55 | 
    |            67 |            52 |             8 |         22.00 |        481.75 | 
    |            67 |            41 |             6 |          1.06 |        482.90 | 
    |            67 |            49 |             7 |          3.39 |        486.43 | 
    |            67 |            58 |             8 |         22.00 |        508.75 | 
    |            67 |            46 |             7 |          1.91 |        510.79 | 
    |            67 |            55 |             7 |          0.83 |        511.80 | 
    |            67 |            66 |             9 |         22.01 |        534.13 | 
    |            67 |            52 |             7 |          0.71 |        534.96 | 
    |            67 |            62 |             8 |          1.38 |        536.63 | 
    |            67 |            74 |            10 |         22.01 |        559.18 | 
    |            67 |            59 |             8 |         22.01 |        581.41 | 
    |            67 |            47 |             7 |          7.93 |        589.45 | 
    |            67 |            56 |             7 |         14.37 |        604.01 | 
    |            67 |            67 |            10 |         22.01 |        626.34 | 
    |            67 |            53 |             8 |          1.22 |        627.77 | 
    |            67 |            63 |             9 |          2.50 |        630.60 | 
    |            67 |            75 |            11 |         22.01 |        653.19 | 
    |            67 |            60 |             9 |         22.00 |        675.44 | 
    |            67 |            48 |             8 |          0.78 |        676.42 | 
    |            67 |            57 |             8 |          1.26 |        677.88 | 
    |            67 |            68 |             9 |          2.20 |        680.60 | 
    |            67 |            81 |            11 |         22.01 |        703.14 | 
    |            67 |            64 |             9 |          1.64 |        705.05 | 
    |            67 |            76 |            10 |          3.59 |        709.37 | 
    |            67 |            91 |            12 |         22.01 |        732.04 | 
    |            67 |            72 |            10 |          4.03 |        736.66 | 
    |            67 |            86 |            12 |         22.01 |        759.35 | 
    |            67 |            68 |            10 |         22.04 |        781.81 | 
    |            67 |            54 |             9 |         22.01 |        804.07 | 
    |            67 |            43 |             7 |          5.07 |        809.25 | 
    |            67 |            51 |             7 |          6.13 |        815.67 | 
    |            67 |            61 |             9 |         22.01 |        838.00 | 
    |            67 |            48 |             8 |         11.64 |        849.82 | 
    |            67 |            57 |             9 |         22.01 |        872.10 | 
    |            67 |            45 |             6 |          0.83 |        873.04 | 
    |            67 |            54 |             8 |          4.55 |        877.78 | 
    |            67 |            64 |             8 |         22.01 |        900.12 | 
    |            67 |            51 |             8 |          6.07 |        906.34 | 
    |            67 |            61 |             8 |         12.73 |        919.51 | 
    |            67 |            73 |            11 |          4.19 |        924.15 | 
    |            67 |            87 |            12 |         22.01 |        946.74 | 
    |            67 |            69 |             9 |          2.25 |        949.28 | 
    |            67 |            82 |            10 |         10.96 |        960.91 | 
    |            67 |            98 |            14 |         12.88 |        974.87 | 
    |            67 |           117 |            16 |         24.95 |       1001.20 | 
    |            67 |            93 |            13 |         22.01 |       1024.09 | 
    |            67 |            74 |            11 |         22.02 |       1046.68 | 
    |            67 |            59 |             8 |         22.01 |       1069.05 | 
    |            67 |            47 |             7 |          7.03 |       1076.17 | 
    |            67 |            56 |             7 |         22.01 |       1098.41 | Academic license - for non-commercial use only
Academic license - for non-commercial use only
Academic license - for non-commercial use only
Academic license - for non-commercial use only
Academic license - for non-commercial use only
Academic license - for non-commercial use only
Academic license - for non-commercial use only
Academic license - for non-commercial use only
Academic license - for non-commercial use only
Academic license - for non-commercial use only
Academic license - for non-commercial use only
Academic license - for non-commercial use only
Academic license - for non-commercial use only
Academic license - for non-commercial use only
Academic license - for non-commercial use only
Academic license - for non-commercial use only
Academic license - for non-commercial use only
Academic license - for non-commercial use only
Academic license - for non-commercial use only
Academic license - for non-commercial use only
Academic license - for non-commercial use only
Academic license - for non-commercial use only
Academic license - for non-commercial use only
Academic license - for non-commercial use only
Academic license - for non-commercial use only
Academic license - for non-commercial use only
Academic license - for non-commercial use only
Academic license - for non-commercial use only
Academic license - for non-commercial use only
Academic license - for non-commercial use only
Academic license - for non-commercial use only
Academic license - for non-commercial use only
Academic license - for non-commercial use only
Academic license - for non-commercial use only
Academic license - for non-commercial use only
Academic license - for non-commercial use only
Academic license - for non-commercial use only
Academic license - for non-commercial use only
Academic license - for non-commercial use only
Academic license - for non-commercial use only
Academic license - for non-commercial use only
Academic license - for non-commercial use only
Academic license - for non-commercial use only
Academic license - for non-commercial use only
Academic license - for non-commercial use only
Academic license - for non-commercial use only
Academic license - for non-commercial use only
Academic license - for non-commercial use only
Academic license - for non-commercial use only
Academic license - for non-commercial use only
Academic license - for non-commercial use only
Academic license - for non-commercial use only
Academic license - for non-commercial use only
Academic license - for non-commercial use only
Academic license - for non-commercial use only
Academic license - for non-commercial use only
Academic license - for non-commercial use only
Academic license - for non-commercial use only
Academic license - for non-commercial use only
Academic license - for non-commercial use only
Academic license - for non-commercial use only
Academic license - for non-commercial use only
Academic license - for non-commercial use only
Academic license - for non-commercial use only
Academic license - for non-commercial use only
Academic license - for non-commercial use only
Academic license - for non-commercial use only
Academic license - for non-commercial use only
Academic license - for non-commercial use only
Academic license - for non-commercial use only
Academic license - for non-commercial use only
Academic license - for non-commercial use only
Academic license - for non-commercial use only
Academic license - for non-commercial use only
Academic license - for non-commercial use only
Academic license - for non-commercial use only
Academic license - for non-commercial use only
Academic license - for non-commercial use only
Academic license - for non-commercial use only
Academic license - for non-commercial use only
Academic license - for non-commercial use only
Academic license - for non-commercial use only
Academic license - for non-commercial use only
Academic license - for non-commercial use only
Academic license - for non-commercial use only
Academic license - for non-commercial use only
Academic license - for non-commercial use only
Academic license - for non-commercial use only
Academic license - for non-commercial use only
Academic license - for non-commercial use only
Academic license - for non-commercial use only
Academic license - for non-commercial use only
Academic license - for non-commercial use only
Academic license - for non-commercial use only
Academic license - for non-commercial use only

    |            67 |            44 |             7 |          3.96 |       1102.53 | 
    |            67 |            52 |             7 |         21.85 |       1124.60 | 
    |            67 |            62 |             9 |         22.01 |       1146.89 | 
    |            67 |            49 |             7 |         22.00 |       1169.01 | 
    |            67 |            39 |             6 |          2.71 |       1171.78 | 
    |            67 |            46 |             6 |          1.90 |       1173.80 | 
    |            67 |            55 |             7 |          7.66 |       1181.71 | 
    |            66 |            66 |             9 |         22.01 |       1204.05 | 
    |            66 |            66 |            10 |          2.96 |       1207.41 | 
    |            66 |            79 |            12 |          5.56 |       1213.53 | 
    |            66 |            94 |            13 |          8.35 |       1222.73 | 
    |            66 |           112 |            16 |         22.48 |       1246.53 | 
    |            66 |            89 |            12 |         22.01 |       1269.30 | 
    |            66 |            71 |            10 |         22.01 |       1291.70 | 
    |            66 |            56 |             9 |         22.01 |       1314.14 | 
    |            66 |            44 |             7 |          0.89 |       1315.18 | 
    |            66 |            52 |             7 |         22.00 |       1337.32 | 
    |            66 |            41 |             6 |          3.00 |       1340.47 | 
    |            66 |            49 |             7 |          1.84 |       1342.50 | 
    |            66 |            58 |             9 |         22.01 |       1364.77 | 
    |            66 |            46 |             7 |         19.30 |       1384.21 | 
    |            66 |            55 |             8 |          1.37 |       1385.77 | 
    |            66 |            66 |             9 |         22.01 |       1408.05 | 
    |            66 |            52 |             7 |         10.72 |       1418.92 | 
    |            66 |            62 |             8 |         22.01 |       1441.16 | 
    |            66 |            49 |             7 |         19.64 |       1460.98 | 
    |            66 |            58 |             9 |         22.01 |       1483.25 | 
    |            66 |            46 |             6 |          0.38 |       1483.85 | 
    |            66 |            55 |             8 |         10.99 |       1495.07 | 
    |            66 |            66 |             9 |         22.00 |       1517.38 | 
    |            66 |            52 |             8 |         22.00 |       1539.58 | 
    |            66 |            41 |             6 |          1.06 |       1540.72 | 
    |            66 |            49 |             7 |          8.35 |       1549.32 | 
    |            66 |            58 |             8 |         12.76 |       1562.26 | 
    |            66 |            69 |             9 |         22.01 |       1584.53 | 
    |            66 |            55 |             8 |          4.03 |       1588.80 | 
    |            66 |            66 |            10 |         18.44 |       1607.59 | 
    |            66 |            79 |            12 |         22.03 |       1630.23 | 
    |            66 |            63 |             9 |         20.24 |       1650.76 | 
    |            66 |            75 |            11 |         22.21 |       1673.57 | 
    |            66 |            60 |             8 |         13.99 |       1687.75 | 
    |            66 |            72 |            10 |         13.17 |       1701.30 | 
    |            66 |            86 |            12 |         22.01 |       1723.85 | 
    |            66 |            68 |             9 |         22.01 |       1746.18 | 
    |            66 |            54 |             8 |          1.12 |       1747.54 | 
    |            66 |            64 |             8 |         15.29 |       1763.13 | 
    |            66 |            76 |            11 |         22.01 |       1785.66 | 
    |            66 |            60 |             9 |         22.01 |       1807.91 | 
    |            66 |            48 |             8 |          6.20 |       1814.30 | 
    |            66 |            57 |             8 |         22.02 |       1836.56 | 
    |            65 |            45 |             6 |          0.54 |       1837.28 | 
    |            65 |            45 |             7 |          0.89 |       1838.31 | 
    |            65 |            54 |             8 |          4.83 |       1843.46 | 
    |            65 |            64 |            10 |         22.01 |       1865.76 | 
    |            65 |            51 |             8 |          2.23 |       1868.15 | 
    |            65 |            61 |             9 |         20.51 |       1888.96 | 
    |            65 |            73 |            11 |         22.01 |       1911.40 | 
    |            65 |            58 |             9 |          8.12 |       1919.76 | 
    |            65 |            69 |             9 |         22.00 |       1942.13 | 
    |            65 |            55 |             8 |          4.04 |       1946.33 | 
    |            65 |            66 |            10 |         22.02 |       1968.78 | 
    |            65 |            52 |             7 |          7.96 |       1976.88 | 
    |            65 |            62 |             9 |          2.00 |       1979.20 | 
    |            65 |            74 |            10 |         22.01 |       2001.56 | 
    |            65 |            59 |             7 |          0.91 |       2002.71 | 
    |            65 |            70 |            11 |          3.92 |       2007.16 | 
    |            65 |            84 |            12 |          5.81 |       2013.47 | 
    |            65 |           100 |            14 |         22.01 |       2036.31 | 
    |            65 |            80 |            11 |         22.02 |       2058.91 | 
    |            65 |            64 |             9 |         22.01 |       2081.11 | 
    |            65 |            51 |             7 |          3.31 |       2084.59 | 
    |            65 |            61 |             9 |         22.00 |       2107.05 | 
    |            65 |            48 |             7 |         15.52 |       2122.70 | 
    |            65 |            57 |             9 |          1.93 |       2124.88 | 
    |            65 |            68 |            10 |          2.87 |       2128.28 | 
    |            65 |            81 |            12 |         22.01 |       2150.82 | 
    |            65 |            64 |             9 |         22.02 |       2173.07 | 
    |            65 |            51 |             7 |          1.34 |       2174.67 | 
    |            65 |            61 |             9 |         22.00 |       2196.88 | 
    |            65 |            48 |             8 |          1.94 |       2199.03 | 
    |            65 |            57 |             9 |          1.67 |       2201.00 | 
    |            65 |            68 |            10 |         22.01 |       2223.37 | 
    |            65 |            54 |             8 |          7.48 |       2231.00 | 
    |            65 |            64 |             8 |          3.95 |       2235.26 | 
    |            65 |            76 |            11 |         22.01 |       2257.76 | 
    |            65 |            60 |             9 |          1.32 |       2259.32 | 
    |            65 |            72 |             9 |         22.01 |       2281.70 | 
    |            65 |            57 |             8 |          4.21 |       2286.13 | 
    |            65 |            68 |             9 |         22.04 |       2308.50 | 
    |            65 |            54 |             8 |          5.47 |       2314.17 | 
    |            65 |            64 |             8 |          5.55 |       2319.95 | 
    |            65 |            76 |            11 |         22.01 |       2342.42 | 
    |            65 |            60 |             8 |          4.47 |       2347.16 | 
    |            65 |            72 |            10 |          3.44 |       2351.07 | 
    |            65 |            86 |            12 |         22.04 |       2373.77 | Academic license - for non-commercial use only
Academic license - for non-commercial use only
Academic license - for non-commercial use only
Academic license - for non-commercial use only
Academic license - for non-commercial use only
Academic license - for non-commercial use only
Academic license - for non-commercial use only
Academic license - for non-commercial use only
Academic license - for non-commercial use only
Academic license - for non-commercial use only
Academic license - for non-commercial use only
Academic license - for non-commercial use only
Academic license - for non-commercial use only
Academic license - for non-commercial use only
Academic license - for non-commercial use only
Academic license - for non-commercial use only
Academic license - for non-commercial use only
Academic license - for non-commercial use only
Academic license - for non-commercial use only
Academic license - for non-commercial use only
Academic license - for non-commercial use only
Academic license - for non-commercial use only
Academic license - for non-commercial use only
Academic license - for non-commercial use only
Academic license - for non-commercial use only
Academic license - for non-commercial use only
Academic license - for non-commercial use only
Academic license - for non-commercial use only
Academic license - for non-commercial use only
Academic license - for non-commercial use only
Academic license - for non-commercial use only
Academic license - for non-commercial use only
Academic license - for non-commercial use only
Academic license - for non-commercial use only
Academic license - for non-commercial use only
Academic license - for non-commercial use only
Academic license - for non-commercial use only
Academic license - for non-commercial use only
Academic license - for non-commercial use only
Academic license - for non-commercial use only
Academic license - for non-commercial use only
Academic license - for non-commercial use only
Academic license - for non-commercial use only
Academic license - for non-commercial use only
Academic license - for non-commercial use only
Academic license - for non-commercial use only
Academic license - for non-commercial use only
Academic license - for non-commercial use only
Academic license - for non-commercial use only
Academic license - for non-commercial use only
Academic license - for non-commercial use only
Academic license - for non-commercial use only
Academic license - for non-commercial use only
Academic license - for non-commercial use only
Academic license - for non-commercial use only
Academic license - for non-commercial use only
Academic license - for non-commercial use only
Academic license - for non-commercial use only
Academic license - for non-commercial use only
Academic license - for non-commercial use only
Academic license - for non-commercial use only
Academic license - for non-commercial use only
Academic license - for non-commercial use only
Academic license - for non-commercial use only
Academic license - for non-commercial use only
Academic license - for non-commercial use only
Academic license - for non-commercial use only
Academic license - for non-commercial use only
Academic license - for non-commercial use only
Academic license - for non-commercial use only
Academic license - for non-commercial use only
Academic license - for non-commercial use only
Academic license - for non-commercial use only

    |            65 |            68 |            10 |          7.13 |       2381.20 | 
    |            65 |            81 |            12 |         22.01 |       2403.84 | 
    |            65 |            64 |             9 |          7.44 |       2411.52 | 
    |            65 |            76 |            10 |          3.37 |       2415.20 | 
    |            65 |            91 |            13 |          8.61 |       2424.59 | 
    |            65 |           109 |            15 |         22.02 |       2447.81 | 
    |            65 |            87 |            12 |         22.01 |       2470.62 | 
    |            65 |            69 |             9 |          7.09 |       2478.05 | 
    |            65 |            82 |            12 |         22.01 |       2500.87 | 
    |            65 |            65 |            10 |          3.05 |       2504.23 | 
    |            65 |            78 |            11 |         22.01 |       2526.77 | 
    |            65 |            62 |             9 |         22.01 |       2549.07 | 
    |            65 |            49 |             7 |          0.72 |       2549.90 | 
    |            65 |            58 |             8 |          3.47 |       2553.67 | 
    |            65 |            69 |             9 |          2.09 |       2556.08 | 
    |            65 |            82 |            12 |         22.01 |       2578.63 | 
    |            65 |            65 |             9 |         13.01 |       2591.89 | 
    |            65 |            78 |            11 |         22.01 |       2614.41 | 
    |            65 |            62 |             8 |         22.00 |       2636.63 | 
    |            65 |            49 |             7 |          3.20 |       2640.03 | 
    |            65 |            58 |             9 |          1.73 |       2642.07 | 
    |            65 |            69 |            10 |         22.01 |       2664.47 | 
    |            65 |            55 |             8 |         11.33 |       2676.03 | 
    |            65 |            66 |             9 |         22.01 |       2698.45 | 
    |            65 |            52 |             8 |         22.00 |       2720.61 | 
    |            65 |            41 |             6 |          0.32 |       2721.04 | 
    |            65 |            49 |             7 |          0.70 |       2721.95 | 
    |            65 |            58 |             8 |          6.40 |       2728.54 | 
    |            65 |            69 |            10 |         22.01 |       2750.94 | 
    |            65 |            55 |             8 |          2.77 |       2753.93 | 
    |            65 |            66 |             9 |          7.35 |       2761.63 | 
    |            65 |            79 |            11 |         22.02 |       2784.24 | 
    |            65 |            63 |             9 |          2.01 |       2786.50 | 
    |            65 |            75 |            11 |         22.01 |       2808.93 | 
    |            65 |            60 |             9 |          2.07 |       2811.30 | 
    |            65 |            72 |            11 |         22.02 |       2833.75 | 
    |            65 |            57 |             8 |         22.00 |       2855.90 | 
    |            65 |            45 |             7 |          1.06 |       2857.19 | 
    |            65 |            54 |             8 |          3.14 |       2860.54 | 
    |            65 |            64 |             9 |          1.77 |       2862.54 | 
    |            65 |            76 |            11 |         22.01 |       2885.01 | 
    |            65 |            60 |             9 |         22.01 |       2907.26 | 
    |            65 |            48 |             7 |          0.85 |       2908.21 | 
    |            65 |            57 |             9 |         22.01 |       2930.46 | 
    |            65 |            45 |             7 |          1.39 |       2932.04 | 
    |            65 |            54 |             8 |         22.00 |       2954.25 | 
    |            65 |            43 |             6 |          1.09 |       2955.45 | 
    |            65 |            51 |             7 |         22.00 |       2977.61 | 
    |            65 |            40 |             6 |          0.60 |       2978.33 | 
    |            65 |            48 |             7 |          0.50 |       2978.92 | 
    |            65 |            57 |             8 |          7.00 |       2986.24 | 
    |            65 |            68 |            10 |          2.41 |       2988.94 | 
    |            65 |            81 |            12 |          5.30 |       2994.78 | 
    |            65 |            97 |            14 |         22.01 |       3017.86 | 
    |            65 |            77 |            10 |         22.01 |       3040.29 | 
    |            65 |            61 |             9 |          6.66 |       3047.35 | 
    |            65 |            73 |            11 |         22.01 |       3069.89 | 
    |            65 |            58 |             9 |         22.01 |       3092.13 | 
    |            65 |            46 |             7 |         11.41 |       3103.66 | 
    |            65 |            55 |             8 |         22.00 |       3125.86 | 
    |            65 |            44 |             7 |          0.62 |       3126.76 | 
    |            65 |            52 |             7 |          1.06 |       3127.97 | 
    |            65 |            62 |             9 |         22.01 |       3150.27 | 
    |            65 |            49 |             6 |          0.36 |       3150.75 | 
    |            65 |            58 |             8 |          1.03 |       3151.98 | 
    |            65 |            69 |            10 |         22.00 |       3174.38 | 
    |            65 |            55 |             7 |          1.82 |       3176.32 | 
    |            65 |            66 |             9 |         22.01 |       3198.72 | 
    |            65 |            52 |             7 |          2.50 |       3201.37 | 
    |            65 |            62 |             9 |          1.93 |       3203.55 | 
    |            65 |            74 |            10 |         22.00 |       3225.89 | 
    |            65 |            59 |             8 |          1.66 |       3227.73 | 
    |            65 |            70 |            10 |         11.47 |       3239.52 | 
-10.76923076923077
