Instance....: instances/I_250_30_S_1-49_1.txt
Algorithm...: Simulated Annealing (alpha=0.990, saMax=10M, t0=1)
Other params: maxIters=100M, seed=2, timeLimit=360.00s

    /--------------------------------------------------------\
    |     Iter |   RDP(%) |       S* |       S' |       Time | 
    |----------|----------|----------|----------|------------|
    |        0 |        - |     1096 |     1096 |       0.00 | s0
    |        3 |        - |     1057 |     1057 |       0.01 | *
    |       11 |        - |     1007 |     1007 |       0.02 | *
    |       13 |        - |      993 |      993 |       0.03 | *
    |       14 |        - |      972 |      972 |       0.03 | *
    |       16 |        - |      967 |      967 |       0.03 | *
    |       17 |        - |      945 |      945 |       0.03 | *
    |       18 |        - |      941 |      941 |       0.03 | *
    |       24 |        - |      939 |      939 |       0.03 | *
    |       25 |        - |      936 |      936 |       0.03 | *
    |       26 |        - |      932 |      932 |       0.03 | *
    |       29 |        - |      917 |      917 |       0.03 | *
    |       30 |        - |      915 |      915 |       0.03 | *
    |       40 |        - |      913 |      913 |       0.03 | *
    |       43 |        - |      896 |      896 |       0.03 | *
    |       44 |        - |      877 |      877 |       0.03 | *
    |       46 |        - |      871 |      871 |       0.03 | *
    |       47 |        - |      867 |      867 |       0.03 | *
    |       50 |        - |      863 |      863 |       0.04 | *
    |       51 |        - |      847 |      847 |       0.04 | *
    |       52 |        - |      844 |      844 |       0.04 | *
    |       59 |        - |      829 |      829 |       0.04 | *
    |       60 |        - |      826 |      826 |       0.04 | *
    |       64 |        - |      825 |      825 |       0.04 | *
    |       65 |        - |      822 |      822 |       0.04 | *
    |       66 |        - |      821 |      821 |       0.04 | *
    |       68 |        - |      815 |      815 |       0.04 | *
    |       73 |        - |      805 |      805 |       0.04 | *
    |       74 |        - |      784 |      784 |       0.04 | *
    |       77 |        - |      780 |      780 |       0.04 | *
    |       79 |        - |      777 |      777 |       0.04 | *
    |       80 |        - |      766 |      766 |       0.04 | *
    |       91 |        - |      765 |      765 |       0.04 | *
    |       96 |        - |      761 |      761 |       0.04 | *
    |       97 |        - |      755 |      755 |       0.04 | *
    |       98 |        - |      745 |      745 |       0.04 | *
    |      106 |        - |      740 |      740 |       0.04 | *
    |      118 |        - |      737 |      737 |       0.05 | *
    |      128 |        - |      733 |      733 |       0.05 | *
    |      130 |        - |      731 |      731 |       0.05 | *
    |      134 |        - |      729 |      729 |       0.05 | *
    |      154 |        - |      719 |      719 |       0.05 | *
    |      155 |        - |      718 |      718 |       0.05 | *
    |      156 |        - |      717 |      717 |       0.05 | *
    |      157 |        - |      716 |      716 |       0.05 | *
    |      167 |        - |      715 |      715 |       0.05 | *
    |      177 |        - |      710 |      710 |       0.05 | *
    |      179 |        - |      708 |      708 |       0.05 | *
    |      182 |        - |      705 |      705 |       0.05 | *
    |      185 |        - |      703 |      703 |       0.05 | *
    |      188 |        - |      699 |      699 |       0.05 | *
    |      194 |        - |      689 |      689 |       0.05 | *
    |      201 |        - |      683 |      683 |       0.05 | *
    |      208 |        - |      682 |      682 |       0.05 | *
    |      210 |        - |      681 |      681 |       0.05 | *
    |      214 |        - |      677 |      677 |       0.05 | *
    |      218 |        - |      676 |      676 |       0.05 | *
    |      219 |        - |      673 |      673 |       0.05 | *
    |      224 |        - |      671 |      671 |       0.05 | *
    |      225 |        - |      667 |      667 |       0.05 | *
    |      227 |        - |      661 |      661 |       0.06 | *
    |      229 |        - |      658 |      658 |       0.06 | *
    |      230 |        - |      653 |      653 |       0.06 | *
    |      234 |        - |      648 |      648 |       0.06 | *
    |      236 |        - |      633 |      633 |       0.06 | *
    |      240 |        - |      632 |      632 |       0.06 | *
    |      251 |        - |      627 |      627 |       0.06 | *
    |      260 |        - |      626 |      626 |       0.06 | *
    |      263 |        - |      622 |      622 |       0.06 | *
    |      264 |        - |      621 |      621 |       0.06 | *
    |      268 |        - |      620 |      620 |       0.06 | *
    |      269 |        - |      613 |      613 |       0.06 | *
    |      271 |        - |      603 |      603 |       0.06 | *
    |      286 |        - |      600 |      600 |       0.06 | *
    |      291 |        - |      598 |      598 |       0.06 | *
    |      297 |        - |      597 |      597 |       0.06 | *
    |      312 |        - |      595 |      595 |       0.06 | *
    |      315 |        - |      592 |      592 |       0.06 | *
    |      333 |        - |      588 |      588 |       0.06 | *
    |      334 |        - |      586 |      586 |       0.06 | *
    |      337 |        - |      583 |      583 |       0.06 | *
    |      338 |        - |      579 |      579 |       0.06 | *
    |      352 |        - |      578 |      578 |       0.06 | *
    |      355 |        - |      575 |      575 |       0.06 | *
    |      359 |        - |      572 |      572 |       0.06 | *
    |      388 |        - |      564 |      564 |       0.06 | *
    |      389 |        - |      561 |      561 |       0.06 | *
    |      393 |        - |      558 |      558 |       0.06 | *
    |      394 |        - |      554 |      554 |       0.07 | *
    |      397 |        - |      551 |      551 |       0.07 | *
    |      398 |        - |      549 |      549 |       0.07 | *
    |      400 |        - |      546 |      546 |       0.07 | *
    |      403 |        - |      545 |      545 |       0.07 | *
    |      407 |        - |      544 |      544 |       0.07 | *
    |      412 |        - |      541 |      541 |       0.07 | *
    |      415 |        - |      539 |      539 |       0.07 | *
    |      437 |        - |      534 |      534 |       0.07 | *
    |      446 |        - |      533 |      533 |       0.07 | *
    |      502 |        - |      532 |      532 |       0.07 | *
    |      509 |        - |      530 |      530 |       0.07 | *
    |      513 |        - |      529 |      529 |       0.07 | *
    |      519 |        - |      528 |      528 |       0.07 | *
    |      524 |        - |      526 |      526 |       0.07 | *
    |      531 |        - |      525 |      525 |       0.07 | *
    |      542 |        - |      522 |      522 |       0.07 | *
    |      546 |        - |      521 |      521 |       0.07 | *
    |      559 |        - |      517 |      517 |       0.07 | *
    |      560 |        - |      515 |      515 |       0.07 | *
    |      562 |        - |      514 |      514 |       0.07 | *
    |      565 |        - |      512 |      512 |       0.07 | *
    |      573 |        - |      511 |      511 |       0.07 | *
    |      580 |        - |      509 |      509 |       0.07 | *
    |      587 |        - |      508 |      508 |       0.07 | *
    |      648 |        - |      507 |      507 |       0.07 | *
    |      652 |        - |      505 |      505 |       0.07 | *
    |      663 |        - |      504 |      504 |       0.07 | *
    |      665 |        - |      503 |      503 |       0.07 | *
    |      678 |        - |      501 |      501 |       0.08 | *
    |      679 |        - |      500 |      500 |       0.08 | *
    |      686 |        - |      499 |      499 |       0.08 | *
    |      693 |        - |      498 |      498 |       0.08 | *
    |      715 |        - |      495 |      495 |       0.08 | *
    |      731 |        - |      494 |      494 |       0.08 | *
    |      735 |        - |      492 |      492 |       0.08 | *
    |      740 |        - |      490 |      490 |       0.08 | *
    |      754 |        - |      485 |      485 |       0.08 | *
    |      759 |        - |      482 |      482 |       0.08 | *
    |      782 |        - |      481 |      481 |       0.08 | *
    |      794 |        - |      480 |      480 |       0.08 | *
    |      795 |        - |      479 |      479 |       0.08 | *
    |      797 |        - |      474 |      474 |       0.08 | *
    |      809 |        - |      473 |      473 |       0.08 | *
    |      816 |        - |      472 |      472 |       0.08 | *
    |      823 |        - |      469 |      469 |       0.08 | *
    |      825 |        - |      468 |      468 |       0.08 | *
    |      828 |        - |      467 |      467 |       0.08 | *
    |      830 |        - |      465 |      465 |       0.08 | *
    |      834 |        - |      464 |      464 |       0.08 | *
    |      840 |        - |      463 |      463 |       0.08 | *
    |      848 |        - |      461 |      461 |       0.08 | *
    |      867 |        - |      460 |      460 |       0.08 | *
    |      920 |        - |      459 |      459 |       0.08 | *
    |      958 |        - |      457 |      457 |       0.08 | *
    |      960 |        - |      454 |      454 |       0.09 | *
    |     1012 |        - |      451 |      451 |       0.09 | *
    |     1029 |        - |      450 |      450 |       0.09 | *
    |     1035 |        - |      449 |      449 |       0.09 | *
    |     1056 |        - |      447 |      447 |       0.09 | *
    |     1086 |        - |      446 |      446 |       0.09 | *
    |     1088 |        - |      444 |      444 |       0.09 | *
    |     1092 |        - |      441 |      441 |       0.09 | *
    |     1093 |        - |      440 |      440 |       0.09 | *
    |     1099 |        - |      438 |      438 |       0.09 | *
    |     1107 |        - |      437 |      437 |       0.09 | *
    |     1116 |        - |      436 |      436 |       0.09 | *
    |     1119 |        - |      433 |      433 |       0.09 | *
    |     1123 |        - |      430 |      430 |       0.09 | *
    |     1149 |        - |      426 |      426 |       0.09 | *
    |     1154 |        - |      425 |      425 |       0.09 | *
    |     1178 |        - |      424 |      424 |       0.09 | *
    |     1188 |        - |      422 |      422 |       0.09 | *
    |     1191 |        - |      421 |      421 |       0.09 | *
    |     1202 |        - |      419 |      419 |       0.09 | *
    |     1262 |        - |      418 |      418 |       0.09 | *
    |     1276 |        - |      416 |      416 |       0.09 | *
    |     1279 |        - |      414 |      414 |       0.09 | *
    |     1297 |        - |      413 |      413 |       0.09 | *
    |     1322 |        - |      412 |      412 |       0.09 | *
    |     1366 |        - |      409 |      409 |       0.09 | *
    |     1382 |        - |      408 |      408 |       0.09 | *
    |     1392 |        - |      405 |      405 |       0.09 | *
    |     1402 |        - |      404 |      404 |       0.10 | *
    |     1422 |        - |      401 |      401 |       0.10 | *
    |     1428 |        - |      400 |      400 |       0.10 | *
    |     1445 |        - |      399 |      399 |       0.10 | *
    |     1450 |        - |      392 |      392 |       0.10 | *
    |     1455 |        - |      390 |      390 |       0.10 | *
    |     1482 |        - |      389 |      389 |       0.10 | *
    |     1484 |        - |      388 |      388 |       0.10 | *
    |     1488 |        - |      387 |      387 |       0.10 | *
    |     1529 |        - |      386 |      386 |       0.10 | *
    |     1552 |        - |      385 |      385 |       0.10 | *
    |     1565 |        - |      382 |      382 |       0.10 | *
    |     1572 |        - |      381 |      381 |       0.10 | *
    |     1593 |        - |      380 |      380 |       0.10 | *
    |     1598 |        - |      379 |      379 |       0.10 | *
    |     1615 |        - |      378 |      378 |       0.10 | *
    |     1635 |        - |      377 |      377 |       0.10 | *
    |     1656 |        - |      376 |      376 |       0.10 | *
    |     1657 |        - |      374 |      374 |       0.10 | *
    |     1673 |        - |      372 |      372 |       0.10 | *
    |     1721 |        - |      369 |      369 |       0.10 | *
    |     1722 |        - |      368 |      368 |       0.10 | *
    |     1725 |        - |      367 |      367 |       0.10 | *
    |     1738 |        - |      363 |      363 |       0.10 | *
    |     1763 |        - |      362 |      362 |       0.11 | *
    |     1772 |        - |      361 |      361 |       0.11 | *
    |     1793 |        - |      359 |      359 |       0.11 | *
    |     1848 |        - |      358 |      358 |       0.11 | *
    |     1871 |        - |      356 |      356 |       0.11 | *
    |     1872 |        - |      354 |      354 |       0.11 | *
    |     1912 |        - |      353 |      353 |       0.11 | *
    |     1926 |        - |      352 |      352 |       0.11 | *
    |     1933 |        - |      351 |      351 |       0.11 | *
    |     1946 |        - |      350 |      350 |       0.11 | *
    |     1956 |        - |      348 |      348 |       0.11 | *
    |     1961 |        - |      347 |      347 |       0.11 | *
    |     1982 |        - |      346 |      346 |       0.11 | *
    |     2021 |        - |      344 |      344 |       0.11 | *
    |     2035 |        - |      343 |      343 |       0.11 | *
    |     2044 |        - |      342 |      342 |       0.11 | *
    |     2053 |        - |      340 |      340 |       0.11 | *
    |     2113 |        - |      338 |      338 |       0.11 | *
    |     2120 |        - |      337 |      337 |       0.11 | *
    |     2127 |        - |      336 |      336 |       0.11 | *
    |     2199 |        - |      335 |      335 |       0.11 | *
    |     2219 |        - |      332 |      332 |       0.11 | *
    |     2233 |        - |      331 |      331 |       0.11 | *
    |     2240 |        - |      330 |      330 |       0.11 | *
    |     2242 |        - |      328 |      328 |       0.11 | *
    |     2300 |        - |      327 |      327 |       0.11 | *
    |     2343 |        - |      326 |      326 |       0.11 | *
    |     2582 |        - |      325 |      325 |       0.12 | *
    |     2602 |        - |      324 |      324 |       0.12 | *
    |     2631 |        - |      323 |      323 |       0.12 | *
    |     2652 |        - |      322 |      322 |       0.12 | *
    |     2673 |        - |      321 |      321 |       0.12 | *
    |     2674 |        - |      320 |      320 |       0.12 | *
    |     2692 |        - |      318 |      318 |       0.12 | *
    |     2694 |        - |      317 |      317 |       0.12 | *
    |     2698 |        - |      316 |      316 |       0.12 | *
    |     2701 |        - |      314 |      314 |       0.12 | *
    |     2758 |        - |      311 |      311 |       0.12 | *
    |     2770 |        - |      310 |      310 |       0.12 | *
    |     2853 |        - |      309 |      309 |       0.12 | *
    |     2959 |        - |      308 |      308 |       0.12 | *
    |     2969 |        - |      307 |      307 |       0.12 | *
    |     2975 |        - |      306 |      306 |       0.12 | *
    |     3115 |        - |      305 |      305 |       0.12 | *
    |     3189 |        - |      304 |      304 |       0.12 | *
    |     3199 |        - |      303 |      303 |       0.12 | *
    |     3258 |        - |      302 |      302 |       0.12 | *
    |     3318 |        - |      300 |      300 |       0.12 | *
    |     3341 |        - |      299 |      299 |       0.12 | *
    |     3360 |        - |      298 |      298 |       0.12 | *
    |     3365 |        - |      297 |      297 |       0.12 | *
    |     3385 |        - |      296 |      296 |       0.12 | *
    |     3455 |        - |      295 |      295 |       0.13 | *
    |     3487 |        - |      293 |      293 |       0.13 | *
    |     3597 |        - |      288 |      288 |       0.13 | *
    |     3718 |        - |      287 |      287 |       0.13 | *
    |     3784 |        - |      286 |      286 |       0.13 | *
    |     3811 |        - |      283 |      283 |       0.13 | *
    |     3828 |        - |      281 |      281 |       0.13 | *
    |     3849 |        - |      280 |      280 |       0.13 | *
    |     3870 |        - |      279 |      279 |       0.13 | *
    |     3891 |        - |      278 |      278 |       0.13 | *
    |     3947 |        - |      277 |      277 |       0.13 | *
    |     4031 |        - |      275 |      275 |       0.13 | *
    |     4043 |        - |      274 |      274 |       0.13 | *
    |     4075 |        - |      273 |      273 |       0.13 | *
    |     4166 |        - |      272 |      272 |       0.13 | *
    |     4210 |        - |      271 |      271 |       0.14 | *
    |     4248 |        - |      270 |      270 |       0.14 | *
    |     4307 |        - |      269 |      269 |       0.14 | *
    |     4419 |        - |      268 |      268 |       0.14 | *
    |     4506 |        - |      267 |      267 |       0.14 | *
    |     4543 |        - |      266 |      266 |       0.14 | *
    |     4552 |        - |      265 |      265 |       0.14 | *
    |     4613 |        - |      264 |      264 |       0.14 | *
    |     4625 |        - |      263 |      263 |       0.14 | *
    |     4642 |        - |      262 |      262 |       0.14 | *
    |     4782 |        - |      261 |      261 |       0.14 | *
    |     5176 |        - |      260 |      260 |       0.14 | *
    |     5364 |        - |      259 |      259 |       0.14 | *
    |     5368 |        - |      258 |      258 |       0.14 | *
    |     5983 |        - |      257 |      257 |       0.14 | *
    |     6006 |        - |      256 |      256 |       0.14 | *
    |     6051 |        - |      255 |      255 |       0.14 | *
    |     6054 |        - |      253 |      253 |       0.14 | *
    |     6688 |        - |      252 |      252 |       0.15 | *
    |     6845 |        - |      251 |      251 |       0.15 | *
    |     6974 |        - |      250 |      250 |       0.15 | *
    |     6987 |        - |      249 |      249 |       0.15 | *
    |     7024 |        - |      248 |      248 |       0.15 | *
    |     7056 |        - |      247 |      247 |       0.15 | *
    |     7060 |        - |      246 |      246 |       0.15 | *
    |     7061 |        - |      245 |      245 |       0.15 | *
    |     7429 |        - |      244 |      244 |       0.15 | *
    |     7439 |        - |      243 |      243 |       0.15 | *
    |     7506 |        - |      242 |      242 |       0.15 | *
    |     7628 |        - |      241 |      241 |       0.15 | *
    |     7685 |        - |      240 |      240 |       0.15 | *
    |     7711 |        - |      239 |      239 |       0.15 | *
    |     7858 |        - |      237 |      237 |       0.15 | *
    |     7900 |        - |      235 |      235 |       0.15 | *
    |     8075 |        - |      234 |      234 |       0.15 | *
    |     8178 |        - |      233 |      233 |       0.15 | *
    |     8420 |        - |      231 |      231 |       0.15 | *
    |     8466 |        - |      230 |      230 |       0.16 | *
    |     8580 |        - |      229 |      229 |       0.16 | *
    |     8650 |        - |      228 |      228 |       0.16 | *
    |     8797 |        - |      225 |      225 |       0.16 | *
    |     8817 |        - |      224 |      224 |       0.16 | *
    |     8962 |        - |      222 |      222 |       0.16 | *
    |     9204 |        - |      221 |      221 |       0.16 | *
    |     9804 |        - |      220 |      220 |       0.16 | *
    |     9941 |        - |      219 |      219 |       0.16 | *
    |      10K |        - |      217 |      217 |       0.16 | *
    |      10K |        - |      216 |      216 |       0.16 | *
    |      10K |        - |      215 |      215 |       0.16 | *
    |      12K |        - |      214 |      214 |       0.16 | *
    |      12K |        - |      213 |      213 |       0.16 | *
    |      12K |        - |      212 |      212 |       0.16 | *
    |      12K |        - |      211 |      211 |       0.17 | *
    |      12K |        - |      210 |      210 |       0.17 | *
    |      12K |        - |      209 |      209 |       0.17 | *
    |      12K |        - |      208 |      208 |       0.17 | *
    |      13K |        - |      207 |      207 |       0.17 | *
    |      13K |        - |      206 |      206 |       0.17 | *
    |      13K |        - |      205 |      205 |       0.17 | *
    |      13K |        - |      204 |      204 |       0.17 | *
    |      13K |        - |      203 |      203 |       0.17 | *
    |      13K |        - |      202 |      202 |       0.17 | *
    |      13K |        - |      201 |      201 |       0.17 | *
    |      13K |        - |      200 |      200 |       0.17 | *
    |      14K |        - |      199 |      199 |       0.17 | *
    |      15K |        - |      198 |      198 |       0.17 | *
    |      15K |        - |      197 |      197 |       0.17 | *
    |      15K |        - |      196 |      196 |       0.17 | *
    |      15K |        - |      195 |      195 |       0.18 | *
    |      15K |        - |      194 |      194 |       0.18 | *
    |      16K |        - |      193 |      193 |       0.18 | *
    |      16K |        - |      192 |      192 |       0.18 | *
    |      17K |        - |      191 |      191 |       0.18 | *
    |      17K |        - |      190 |      190 |       0.18 | *
    |      17K |        - |      189 |      189 |       0.18 | *
    |      17K |        - |      187 |      187 |       0.18 | *
    |      18K |        - |      186 |      186 |       0.19 | *
    |      19K |        - |      185 |      185 |       0.19 | *
    |      19K |        - |      184 |      184 |       0.19 | *
    |      19K |        - |      183 |      183 |       0.19 | *
    |      20K |        - |      182 |      182 |       0.19 | *
    |      21K |        - |      181 |      181 |       0.20 | *
    |      21K |        - |      180 |      180 |       0.20 | *
    |      22K |        - |      179 |      179 |       0.20 | *
    |      22K |        - |      178 |      178 |       0.20 | *
    |      22K |        - |      177 |      177 |       0.20 | *
    |      22K |        - |      176 |      176 |       0.20 | *
    |      23K |        - |      175 |      175 |       0.20 | *
    |      23K |        - |      174 |      174 |       0.20 | *
    |      23K |        - |      173 |      173 |       0.20 | *
    |      23K |        - |      172 |      172 |       0.20 | *
    |      23K |        - |      171 |      171 |       0.20 | *
    |      24K |        - |      170 |      170 |       0.20 | *
    |      24K |        - |      169 |      169 |       0.21 | *
    |      24K |        - |      168 |      168 |       0.21 | *
    |      24K |        - |      166 |      166 |       0.21 | *
    |      25K |        - |      165 |      165 |       0.21 | *
    |      28K |        - |      164 |      164 |       0.21 | *
    |      29K |        - |      163 |      163 |       0.22 | *
    |      29K |        - |      162 |      162 |       0.22 | *
    |      29K |        - |      161 |      161 |       0.22 | *
    |      29K |        - |      160 |      160 |       0.22 | *
    |      29K |        - |      159 |      159 |       0.22 | *
    |      33K |        - |      158 |      158 |       0.23 | *
    |      33K |        - |      157 |      157 |       0.23 | *
    |      33K |        - |      156 |      156 |       0.23 | *
    |      34K |        - |      155 |      155 |       0.23 | *
    |      35K |        - |      154 |      154 |       0.23 | *
    |      36K |        - |      151 |      151 |       0.23 | *
    |      39K |        - |      150 |      150 |       0.24 | *
    |      40K |        - |      149 |      149 |       0.24 | *
    |      40K |        - |      148 |      148 |       0.24 | *
    |      40K |        - |      147 |      147 |       0.24 | *
    |      41K |        - |      146 |      146 |       0.24 | *
    |      46K |        - |      145 |      145 |       0.25 | *
    |      46K |        - |      144 |      144 |       0.26 | *
    |      46K |        - |      143 |      143 |       0.26 | *
    |      47K |        - |      142 |      142 |       0.26 | *
    |      57K |        - |      141 |      141 |       0.28 | *
    |      57K |        - |      140 |      140 |       0.28 | *
    |      58K |        - |      139 |      139 |       0.28 | *
    |      59K |        - |      138 |      138 |       0.28 | *
    |      60K |        - |      137 |      137 |       0.29 | *
    |      61K |        - |      136 |      136 |       0.29 | *
    |      64K |        - |      135 |      135 |       0.29 | *
    |      65K |        - |      134 |      134 |       0.29 | *
    |      65K |        - |      133 |      133 |       0.30 | *
    |      65K |        - |      132 |      132 |       0.30 | *
    |      73K |        - |      131 |      131 |       0.31 | *
    |      77K |        - |      130 |      130 |       0.32 | *
    |      77K |        - |      129 |      129 |       0.32 | *
    |      79K |        - |      128 |      128 |       0.32 | *
    |      83K |        - |      127 |      127 |       0.33 | *
    |      96K |        - |      126 |      126 |       0.36 | *
    |     103K |        - |      125 |      125 |       0.37 | *
    |     105K |        - |      124 |      124 |       0.38 | *
    |     105K |        - |      123 |      123 |       0.38 | *
    |     106K |        - |      122 |      122 |       0.38 | *
    |     107K |        - |      121 |      121 |       0.38 | *
    |     111K |        - |      120 |      120 |       0.39 | *
    |     115K |        - |      119 |      119 |       0.40 | *
    |     133K |        - |      118 |      118 |       0.44 | *
    |     136K |        - |      117 |      117 |       0.44 | *
    |     137K |        - |      116 |      116 |       0.45 | *
    |     164K |        - |      115 |      115 |       0.50 | *
    |     167K |        - |      114 |      114 |       0.50 | *
    |     172K |        - |      113 |      113 |       0.51 | *
    |     180K |        - |      112 |      112 |       0.52 | *
    |     287K |        - |      111 |      111 |       0.70 | *
    |     298K |        - |      110 |      110 |       0.71 | *
    |     303K |        - |      109 |      109 |       0.72 | *
    |     305K |        - |      108 |      108 |       0.72 | *
    |     371K |        - |      107 |      107 |       0.83 | *
    |     380K |        - |      106 |      106 |       0.84 | *
    |     381K |        - |      105 |      105 |       0.84 | *
    |     410K |        - |      104 |      104 |       0.89 | *
    |     417K |        - |      103 |      103 |       0.90 | *
    |     449K |        - |      102 |      102 |       0.95 | *
    |     453K |        - |      101 |      101 |       0.95 | *
    |     489K |        - |      100 |      100 |       1.01 | *
    |     538K |        - |       99 |       99 |       1.08 | *
    |     542K |        - |       98 |       98 |       1.09 | *
    |     604K |        - |       97 |       97 |       1.20 | *
    |     743K |        - |       96 |       96 |       1.49 | *
    |     757K |        - |       95 |       95 |       1.51 | *
    |     829K |        - |       94 |       94 |       1.62 | *
    |    1448K |        - |       93 |       93 |       2.62 | *
    |    2668K |        - |       92 |       92 |       4.38 | *
    |    2813K |        - |       91 |       91 |       4.59 | *
    |    2814K |        - |       90 |       90 |       4.59 | *
    |    2819K |        - |       89 |       89 |       4.60 | *
    |    2975K |        - |       88 |       88 |       4.85 | *
    |    3000K |        - |       87 |       87 |       4.89 | *
    |    3012K |        - |       86 |       86 |       4.91 | *
    |      46M |        - |       85 |       85 |      66.45 | *
    |      77M |        - |       84 |       84 |     112.76 | *
    |      78M |        - |       83 |       83 |     113.98 | *
    |     113M |        - |       82 |       82 |     165.17 | *
    |     114M |        - |       81 |       81 |     166.20 | *
    |     158M |        - |       80 |       80 |     230.98 | *
    \--------------------------------------------------------/

Neighborhoods statistics (values in %):

    /----------------------------------------------------------------\
    | Move               | Improvs. | Sideways |  Accepts |  Rejects |
    |--------------------|----------|----------|----------|----------|
    | Shift(mk)          |      28K |      38K |      76K |      10M |
    | Shift              |      917 |     350K |     373K |    9994K |
    | ShiftSmart(mk)     |     170K |     238K |     470K |    9884K |
    | ShiftSmart         |     5603 |    1633K |    1734K |    8622K |
    | SimpSwap(mk)       |      199 |      406 |      691 |      10M |
    | SimpSwap           |       18 |     1596 |     1812 |      10M |
    | SimpSwapSmart(mk)  |     1306 |     2745 |     4727 |      10M |
    | SimpSwapSmart      |      104 |      11K |      12K |      10M |
    | Swap(mk)           |       78 |      102 |      204 |      10M |
    | Swap               |        2 |      576 |      645 |      10M |
    | SwapSmart(mk)      |     1380 |     3029 |     5051 |      10M |
    | SwapSmart          |       95 |      10K |      12K |      10M |
    | Switch(mk)         |     9869 |    1210K |    1223K |    9127K |
    | Switch             |      337 |    1437K |    1446K |    8911K |
    | SwitchSmart(mk)    |      58K |      69K |     146K |      10M |
    | SwitchSmart        |     1878 |     594K |     635K |    9715K |
    | TaskMove(mk)       |     1975 |     4058 |     6884 |      10M |
    | TaskMove           |       68 |     8453 |     9620 |      10M |
    | TaskMoveSmart(mk)  |      13K |      27K |      46K |      10M |
    | TaskMoveSmart      |      473 |      55K |      63K |      10M |
    | 2-Shift(mk)        |      10K |     182K |     195K |      10M |
    | 2-Shift            |      337 |     355K |     364K |    9988K |
    | 2-ShiftSmart(mk)   |      71K |     348K |     435K |    9928K |
    | 2-ShiftSmart       |     2364 |     983K |    1022K |    9332K |
    \----------------------------------------------------------------/

Best makespan.....: 80
N. of Iterations..: 248503823
Total runtime.....: 360.01s
Academic license - for non-commercial use only
Academic license - for non-commercial use only
Academic license - for non-commercial use only
Academic license - for non-commercial use only
Academic license - for non-commercial use only
Academic license - for non-commercial use only
Academic license - for non-commercial use only
Academic license - for non-commercial use only
Academic license - for non-commercial use only
Academic license - for non-commercial use only
Academic license - for non-commercial use only
Academic license - for non-commercial use only
Academic license - for non-commercial use only
Academic license - for non-commercial use only
Academic license - for non-commercial use only
Academic license - for non-commercial use only
Academic license - for non-commercial use only
Academic license - for non-commercial use only
Academic license - for non-commercial use only
Academic license - for non-commercial use only
Academic license - for non-commercial use only
Academic license - for non-commercial use only
Academic license - for non-commercial use only
Academic license - for non-commercial use only
Academic license - for non-commercial use only
Academic license - for non-commercial use only
Academic license - for non-commercial use only
Academic license - for non-commercial use only
Academic license - for non-commercial use only
Academic license - for non-commercial use only
Academic license - for non-commercial use only
Academic license - for non-commercial use only
Academic license - for non-commercial use only
Academic license - for non-commercial use only
Academic license - for non-commercial use only
Academic license - for non-commercial use only
Academic license - for non-commercial use only
Academic license - for non-commercial use only
Academic license - for non-commercial use only
Academic license - for non-commercial use only
Academic license - for non-commercial use only
Academic license - for non-commercial use only
Academic license - for non-commercial use only
Academic license - for non-commercial use only
Academic license - for non-commercial use only
Academic license - for non-commercial use only
Academic license - for non-commercial use only
Academic license - for non-commercial use only
Academic license - for non-commercial use only
Academic license - for non-commercial use only
Academic license - for non-commercial use only
Academic license - for non-commercial use only
Academic license - for non-commercial use only
Academic license - for non-commercial use only
Academic license - for non-commercial use only
Academic license - for non-commercial use only
Academic license - for non-commercial use only
Academic license - for non-commercial use only
Academic license - for non-commercial use only
Academic license - for non-commercial use only
Academic license - for non-commercial use only
Academic license - for non-commercial use only
Academic license - for non-commercial use only
Academic license - for non-commercial use only
Academic license - for non-commercial use only
Academic license - for non-commercial use only
Academic license - for non-commercial use only
Academic license - for non-commercial use only
Academic license - for non-commercial use only
Academic license - for non-commercial use only
Academic license - for non-commercial use only
Academic license - for non-commercial use only
Academic license - for non-commercial use only
Academic license - for non-commercial use only
Academic license - for non-commercial use only
Academic license - for non-commercial use only
Academic license - for non-commercial use only
Academic license - for non-commercial use only
Academic license - for non-commercial use only
Academic license - for non-commercial use only
Academic license - for non-commercial use only
Academic license - for non-commercial use only
Academic license - for non-commercial use only
Academic license - for non-commercial use only
Academic license - for non-commercial use only
Academic license - for non-commercial use only
Academic license - for non-commercial use only
Academic license - for non-commercial use only
Academic license - for non-commercial use only
Academic license - for non-commercial use only
Academic license - for non-commercial use only
Academic license - for non-commercial use only
    /-------------------------------------------------------------------------------\
    |    Makespam   |   Free Jobs   | Free Machines |    It. Time   |   Total Time  | 
    |-------------------------------------------------------------------------------|
    |            80 |            33 |             4 |          0.22 |          0.76 | 
    |            79 |            39 |             6 |          0.49 |          1.39 | 
    |            79 |            39 |             5 |          6.06 |          7.54 | 
    |            79 |            46 |             6 |          1.39 |          9.02 | 
    |            79 |            55 |             7 |         22.01 |         31.23 | 
    |            79 |            44 |             5 |          0.71 |         32.01 | 
    |            79 |            52 |             7 |         22.01 |         54.16 | 
    |            79 |            41 |             5 |          0.48 |         54.75 | 
    |            79 |            49 |             7 |         20.54 |         75.47 | 
    |            79 |            58 |             8 |         12.51 |         88.23 | 
    |            79 |            69 |             9 |         22.01 |        110.71 | 
    |            78 |            55 |             7 |         22.01 |        132.89 | 
    |            78 |            55 |             7 |         22.00 |        155.04 | 
    |            78 |            44 |             5 |          0.45 |        155.58 | 
    |            78 |            52 |             6 |          1.34 |        157.02 | 
    |            78 |            62 |             9 |         22.01 |        179.39 | 
    |            78 |            49 |             6 |          3.26 |        182.83 | 
    |            78 |            58 |             8 |         22.01 |        205.04 | 
    |            78 |            46 |             6 |         11.01 |        216.17 | 
    |            78 |            55 |             7 |          6.08 |        222.45 | 
    |            78 |            66 |             8 |         22.01 |        244.79 | 
    |            78 |            52 |             6 |         10.73 |        255.64 | 
    |            78 |            62 |             9 |         22.02 |        277.90 | 
    |            78 |            49 |             6 |         22.00 |        300.03 | 
    |            78 |            39 |             6 |          1.40 |        301.55 | 
    |            77 |            46 |             6 |          3.07 |        304.71 | 
    |            76 |            46 |             6 |         13.25 |        318.17 | 
    |            76 |            46 |             6 |          1.70 |        319.99 | 
    |            76 |            55 |             8 |         22.01 |        342.23 | 
    |            76 |            44 |             6 |         22.00 |        364.42 | 
    |            76 |            35 |             5 |          0.22 |        364.69 | 
    |            76 |            42 |             6 |         15.96 |        380.74 | 
    |            76 |            50 |             7 |         22.00 |        402.92 | 
    |            76 |            40 |             6 |          1.52 |        404.57 | 
    |            76 |            48 |             7 |         22.01 |        426.75 | 
    |            76 |            38 |             6 |          2.19 |        429.02 | 
    |            76 |            45 |             7 |          3.85 |        432.98 | 
    |            76 |            54 |             7 |         22.01 |        455.18 | 
    |            76 |            43 |             5 |          1.31 |        456.56 | 
    |            76 |            51 |             6 |         22.01 |        478.72 | 
    |            76 |            40 |             5 |          1.41 |        480.22 | 
    |            76 |            48 |             6 |          1.94 |        482.29 | 
    |            76 |            57 |             7 |         22.01 |        504.54 | 
    |            76 |            45 |             7 |         22.00 |        526.66 | 
    |            76 |            36 |             6 |          2.30 |        529.08 | 
    |            76 |            43 |             6 |          3.90 |        533.09 | 
    |            75 |            51 |             7 |         10.08 |        543.32 | 
    |            75 |            51 |             7 |          0.85 |        544.30 | 
    |            75 |            61 |             8 |         22.01 |        566.58 | 
    |            75 |            48 |             6 |          0.78 |        567.51 | 
    |            75 |            57 |             8 |          1.55 |        569.28 | 
    |            75 |            68 |             8 |         22.01 |        591.52 | 
    |            75 |            54 |             7 |         22.00 |        613.68 | 
    |            75 |            43 |             6 |          4.49 |        618.24 | 
    |            75 |            51 |             6 |          4.49 |        622.87 | 
    |            75 |            61 |             8 |         22.01 |        645.17 | 
    |            75 |            48 |             6 |          7.50 |        652.78 | 
    |            75 |            57 |             7 |          2.30 |        655.27 | 
    |            75 |            68 |             9 |         22.01 |        677.59 | 
    |            75 |            54 |             7 |         22.00 |        699.81 | 
    |            75 |            43 |             5 |          1.96 |        701.84 | 
    |            75 |            51 |             6 |          1.87 |        703.85 | 
    |            75 |            61 |             7 |         22.01 |        726.00 | 
    |            75 |            48 |             6 |          2.13 |        728.33 | 
    |            75 |            57 |             7 |         22.00 |        750.60 | 
    |            75 |            45 |             6 |          1.13 |        751.80 | 
    |            75 |            54 |             7 |          6.78 |        758.72 | 
    |            75 |            64 |             8 |         22.01 |        781.00 | 
    |            74 |            51 |             7 |          3.89 |        785.05 | 
    |            74 |            51 |             6 |          1.19 |        786.32 | 
    |            74 |            61 |             8 |         22.00 |        808.59 | 
    |            74 |            48 |             6 |          2.41 |        811.15 | 
    |            74 |            57 |             8 |         15.71 |        827.04 | 
    |            74 |            68 |             8 |         22.01 |        849.29 | 
    |            74 |            54 |             7 |         12.69 |        862.21 | 
    |            74 |            64 |             8 |         22.01 |        884.44 | 
    |            74 |            51 |             7 |          0.95 |        885.62 | 
    |            74 |            61 |             7 |          6.53 |        892.32 | 
    |            74 |            73 |             9 |         22.01 |        914.65 | 
    |            74 |            58 |             7 |         11.79 |        926.59 | 
    |            74 |            69 |             8 |         22.01 |        948.84 | 
    |            74 |            55 |             7 |         22.00 |        970.99 | 
    |            74 |            44 |             6 |          1.93 |        972.99 | 
    |            74 |            52 |             7 |         22.00 |        995.17 | 
    |            74 |            41 |             5 |          2.50 |        997.78 | 
    |            74 |            49 |             7 |          0.90 |        998.87 | 
    |            74 |            58 |             7 |          4.43 |       1003.45 | 
    |            74 |            69 |             8 |         22.01 |       1025.70 | 
    |            74 |            55 |             7 |          8.61 |       1034.52 | 
    |            74 |            66 |             9 |         22.01 |       1056.79 | 
    |            74 |            52 |             7 |         20.75 |       1077.71 | 
    |            74 |            62 |             8 |         22.01 |       1099.99 | Academic license - for non-commercial use only
Academic license - for non-commercial use only
Academic license - for non-commercial use only
Academic license - for non-commercial use only
Academic license - for non-commercial use only
Academic license - for non-commercial use only
Academic license - for non-commercial use only
Academic license - for non-commercial use only
Academic license - for non-commercial use only
Academic license - for non-commercial use only
Academic license - for non-commercial use only
Academic license - for non-commercial use only
Academic license - for non-commercial use only
Academic license - for non-commercial use only
Academic license - for non-commercial use only
Academic license - for non-commercial use only
Academic license - for non-commercial use only
Academic license - for non-commercial use only
Academic license - for non-commercial use only
Academic license - for non-commercial use only
Academic license - for non-commercial use only
Academic license - for non-commercial use only
Academic license - for non-commercial use only
Academic license - for non-commercial use only
Academic license - for non-commercial use only
Academic license - for non-commercial use only
Academic license - for non-commercial use only
Academic license - for non-commercial use only
Academic license - for non-commercial use only
Academic license - for non-commercial use only
Academic license - for non-commercial use only
Academic license - for non-commercial use only
Academic license - for non-commercial use only
Academic license - for non-commercial use only
Academic license - for non-commercial use only
Academic license - for non-commercial use only
Academic license - for non-commercial use only
Academic license - for non-commercial use only
Academic license - for non-commercial use only
Academic license - for non-commercial use only
Academic license - for non-commercial use only
Academic license - for non-commercial use only
Academic license - for non-commercial use only
Academic license - for non-commercial use only
Academic license - for non-commercial use only
Academic license - for non-commercial use only
Academic license - for non-commercial use only
Academic license - for non-commercial use only
Academic license - for non-commercial use only
Academic license - for non-commercial use only
Academic license - for non-commercial use only
Academic license - for non-commercial use only
Academic license - for non-commercial use only
Academic license - for non-commercial use only
Academic license - for non-commercial use only
Academic license - for non-commercial use only
Academic license - for non-commercial use only
Academic license - for non-commercial use only
Academic license - for non-commercial use only
Academic license - for non-commercial use only
Academic license - for non-commercial use only
Academic license - for non-commercial use only
Academic license - for non-commercial use only
Academic license - for non-commercial use only
Academic license - for non-commercial use only
Academic license - for non-commercial use only
Academic license - for non-commercial use only
Academic license - for non-commercial use only
Academic license - for non-commercial use only
Academic license - for non-commercial use only
Academic license - for non-commercial use only
Academic license - for non-commercial use only
Academic license - for non-commercial use only
Academic license - for non-commercial use only
Academic license - for non-commercial use only
Academic license - for non-commercial use only
Academic license - for non-commercial use only
Academic license - for non-commercial use only
Academic license - for non-commercial use only
Academic license - for non-commercial use only
Academic license - for non-commercial use only
Academic license - for non-commercial use only
Academic license - for non-commercial use only
Academic license - for non-commercial use only
Academic license - for non-commercial use only
Academic license - for non-commercial use only
Academic license - for non-commercial use only
Academic license - for non-commercial use only
Academic license - for non-commercial use only
Academic license - for non-commercial use only
Academic license - for non-commercial use only
Academic license - for non-commercial use only
Academic license - for non-commercial use only
Academic license - for non-commercial use only
Academic license - for non-commercial use only

    |            74 |            49 |             7 |         22.00 |       1122.16 | 
    |            74 |            39 |             5 |          3.69 |       1125.90 | 
    |            74 |            46 |             6 |         22.00 |       1148.07 | 
    |            74 |            36 |             5 |          4.09 |       1152.22 | 
    |            74 |            43 |             6 |          1.42 |       1153.74 | 
    |            74 |            51 |             6 |          2.57 |       1156.44 | 
    |            74 |            61 |             8 |         22.01 |       1178.74 | 
    |            74 |            48 |             7 |          5.32 |       1184.17 | 
    |            74 |            57 |             8 |         22.00 |       1206.38 | 
    |            73 |            45 |             6 |          0.84 |       1207.31 | 
    |            73 |            45 |             6 |          1.34 |       1208.76 | 
    |            73 |            54 |             8 |         22.01 |       1230.91 | 
    |            73 |            43 |             5 |          0.69 |       1231.70 | 
    |            73 |            51 |             6 |          2.47 |       1234.26 | 
    |            73 |            61 |             8 |         22.01 |       1256.48 | 
    |            73 |            48 |             6 |          0.81 |       1257.37 | 
    |            73 |            57 |             8 |         19.59 |       1277.17 | 
    |            73 |            68 |             9 |          2.38 |       1279.80 | 
    |            73 |            81 |            11 |          5.48 |       1285.71 | 
    |            73 |            97 |            12 |         22.01 |       1308.66 | 
    |            73 |            77 |             9 |          2.81 |       1311.80 | 
    |            73 |            92 |            11 |         22.01 |       1334.53 | 
    |            73 |            73 |            10 |         22.01 |       1357.00 | 
    |            73 |            58 |             8 |         22.04 |       1379.29 | 
    |            73 |            46 |             7 |          4.73 |       1384.13 | 
    |            73 |            55 |             7 |          3.64 |       1388.00 | 
    |            73 |            66 |             9 |         22.01 |       1410.28 | 
    |            73 |            52 |             7 |         15.34 |       1425.80 | 
    |            73 |            62 |             8 |         22.01 |       1448.00 | 
    |            73 |            49 |             6 |          7.80 |       1455.91 | 
    |            73 |            58 |             8 |         22.01 |       1478.17 | 
    |            73 |            46 |             6 |         18.95 |       1497.21 | 
    |            73 |            55 |             7 |         21.91 |       1519.32 | 
    |            73 |            66 |             9 |         22.01 |       1541.64 | 
    |            73 |            52 |             7 |         10.81 |       1552.71 | 
    |            73 |            62 |             8 |          1.74 |       1554.65 | 
    |            73 |            74 |             9 |         22.01 |       1577.08 | 
    |            73 |            59 |             8 |         22.00 |       1599.27 | 
    |            73 |            47 |             6 |          2.00 |       1601.41 | 
    |            73 |            56 |             7 |         22.00 |       1623.56 | 
    |            73 |            44 |             6 |          0.49 |       1624.21 | 
    |            73 |            52 |             6 |          8.39 |       1632.76 | 
    |            73 |            62 |             8 |         22.01 |       1655.01 | 
    |            73 |            49 |             6 |          3.85 |       1658.94 | 
    |            73 |            58 |             8 |         22.01 |       1681.17 | 
    |            73 |            46 |             6 |          2.95 |       1684.21 | 
    |            73 |            55 |             7 |         22.00 |       1706.34 | 
    |            73 |            44 |             5 |          1.17 |       1707.63 | 
    |            73 |            52 |             6 |          9.34 |       1717.07 | 
    |            73 |            62 |             8 |         22.01 |       1739.33 | 
    |            73 |            49 |             6 |          1.87 |       1741.32 | 
    |            73 |            58 |             8 |         22.00 |       1763.52 | 
    |            73 |            46 |             6 |         22.00 |       1785.67 | 
    |            73 |            36 |             4 |          0.11 |       1785.81 | 
    |            73 |            43 |             6 |          4.20 |       1790.10 | 
    |            73 |            51 |             5 |          3.17 |       1793.35 | 
    |            73 |            61 |             7 |         22.00 |       1815.60 | 
    |            73 |            48 |             6 |          1.37 |       1817.13 | 
    |            73 |            57 |             7 |          8.55 |       1825.80 | 
    |            73 |            68 |             9 |         22.01 |       1848.11 | 
    |            73 |            54 |             7 |          4.26 |       1852.56 | 
    |            73 |            64 |             8 |         22.01 |       1874.75 | 
    |            73 |            51 |             6 |         22.00 |       1896.88 | 
    |            73 |            40 |             5 |          1.17 |       1898.11 | 
    |            73 |            48 |             7 |         22.02 |       1920.24 | 
    |            73 |            38 |             5 |          7.42 |       1927.76 | 
    |            73 |            45 |             6 |          3.70 |       1931.55 | 
    |            73 |            54 |             7 |          4.41 |       1936.15 | 
    |            73 |            64 |             8 |         22.00 |       1958.44 | 
    |            73 |            51 |             5 |          0.62 |       1959.16 | 
    |            73 |            61 |             8 |         22.00 |       1981.37 | 
    |            73 |            48 |             6 |          2.58 |       1984.04 | 
    |            73 |            57 |             8 |          9.21 |       1993.44 | 
    |            73 |            68 |             8 |          9.98 |       2003.63 | 
    |            72 |            81 |            10 |         22.02 |       2026.17 | 
    |            72 |            81 |            10 |         22.10 |       2048.68 | 
    |            72 |            64 |             8 |         22.01 |       2070.89 | 
    |            72 |            51 |             7 |         22.00 |       2093.06 | 
    |            72 |            40 |             6 |          0.38 |       2093.61 | 
    |            72 |            48 |             7 |          4.01 |       2097.81 | 
    |            72 |            57 |             7 |          1.03 |       2098.98 | 
    |            72 |            68 |             9 |          2.57 |       2101.86 | 
    |            72 |            81 |            11 |         22.01 |       2124.60 | 
    |            72 |            64 |             8 |         22.00 |       2146.80 | 
    |            72 |            51 |             6 |          1.61 |       2148.56 | 
    |            72 |            61 |             8 |         22.00 |       2170.85 | 
    |            72 |            48 |             7 |          0.73 |       2171.73 | 
    |            72 |            57 |             8 |         22.01 |       2193.98 | 
    |            72 |            45 |             6 |          4.21 |       2198.26 | 
    |            72 |            54 |             8 |          1.50 |       2199.96 | 
    |            72 |            64 |             9 |         22.01 |       2222.28 | 
    |            72 |            51 |             7 |         22.00 |       2244.45 | 
    |            72 |            40 |             6 |          0.35 |       2244.89 | 
    |            72 |            48 |             7 |         11.76 |       2256.77 | 
    |            72 |            57 |             8 |         22.01 |       2278.98 | Academic license - for non-commercial use only
Academic license - for non-commercial use only
Academic license - for non-commercial use only
Academic license - for non-commercial use only
Academic license - for non-commercial use only
Academic license - for non-commercial use only
Academic license - for non-commercial use only
Academic license - for non-commercial use only
Academic license - for non-commercial use only
Academic license - for non-commercial use only
Academic license - for non-commercial use only
Academic license - for non-commercial use only
Academic license - for non-commercial use only
Academic license - for non-commercial use only
Academic license - for non-commercial use only
Academic license - for non-commercial use only
Academic license - for non-commercial use only
Academic license - for non-commercial use only
Academic license - for non-commercial use only
Academic license - for non-commercial use only
Academic license - for non-commercial use only
Academic license - for non-commercial use only
Academic license - for non-commercial use only
Academic license - for non-commercial use only
Academic license - for non-commercial use only
Academic license - for non-commercial use only
Academic license - for non-commercial use only
Academic license - for non-commercial use only
Academic license - for non-commercial use only
Academic license - for non-commercial use only
Academic license - for non-commercial use only
Academic license - for non-commercial use only
Academic license - for non-commercial use only
Academic license - for non-commercial use only
Academic license - for non-commercial use only
Academic license - for non-commercial use only
Academic license - for non-commercial use only
Academic license - for non-commercial use only
Academic license - for non-commercial use only
Academic license - for non-commercial use only
Academic license - for non-commercial use only
Academic license - for non-commercial use only
Academic license - for non-commercial use only
Academic license - for non-commercial use only
Academic license - for non-commercial use only
Academic license - for non-commercial use only
Academic license - for non-commercial use only
Academic license - for non-commercial use only
Academic license - for non-commercial use only
Academic license - for non-commercial use only
Academic license - for non-commercial use only
Academic license - for non-commercial use only
Academic license - for non-commercial use only
Academic license - for non-commercial use only
Academic license - for non-commercial use only
Academic license - for non-commercial use only
Academic license - for non-commercial use only
Academic license - for non-commercial use only
Academic license - for non-commercial use only
Academic license - for non-commercial use only
Academic license - for non-commercial use only
Academic license - for non-commercial use only
Academic license - for non-commercial use only
Academic license - for non-commercial use only
Academic license - for non-commercial use only
Academic license - for non-commercial use only
Academic license - for non-commercial use only
Academic license - for non-commercial use only
Academic license - for non-commercial use only
Academic license - for non-commercial use only
Academic license - for non-commercial use only
Academic license - for non-commercial use only
Academic license - for non-commercial use only
Academic license - for non-commercial use only
Academic license - for non-commercial use only
Academic license - for non-commercial use only

    |            72 |            45 |             7 |          9.07 |       2288.25 | 
    |            72 |            54 |             7 |          5.26 |       2293.64 | 
    |            72 |            64 |             8 |         20.01 |       2313.89 | 
    |            72 |            76 |            11 |          4.75 |       2319.19 | 
    |            72 |            91 |            12 |         22.01 |       2341.95 | 
    |            72 |            72 |            10 |         22.01 |       2364.30 | 
    |            72 |            57 |             7 |          3.76 |       2368.26 | 
    |            72 |            68 |             9 |         22.01 |       2390.77 | 
    |            72 |            54 |             7 |          8.21 |       2399.16 | 
    |            72 |            64 |             9 |         22.03 |       2421.49 | 
    |            72 |            51 |             7 |          1.42 |       2423.08 | 
    |            72 |            61 |             8 |          7.35 |       2430.81 | 
    |            72 |            73 |            10 |         22.01 |       2453.24 | 
    |            72 |            58 |             8 |         22.01 |       2475.48 | 
    |            72 |            46 |             6 |          0.76 |       2476.34 | 
    |            72 |            55 |             7 |         22.01 |       2498.53 | 
    |            72 |            44 |             6 |          1.37 |       2499.99 | 
    |            72 |            52 |             7 |         22.00 |       2522.25 | 
    |            72 |            41 |             6 |          0.56 |       2522.91 | 
    |            72 |            49 |             7 |         22.00 |       2545.05 | 
    |            72 |            39 |             6 |          1.39 |       2546.53 | 
    |            72 |            46 |             6 |          2.33 |       2548.97 | 
    |            72 |            55 |             8 |          6.08 |       2555.18 | 
    |            72 |            66 |             9 |          2.53 |       2558.10 | 
    |            72 |            79 |            10 |         22.07 |       2580.52 | 
    |            72 |            63 |             9 |         22.01 |       2602.86 | 
    |            72 |            50 |             7 |          3.54 |       2606.59 | 
    |            72 |            60 |             9 |         22.00 |       2628.91 | 
    |            72 |            48 |             7 |          9.10 |       2638.16 | 
    |            72 |            57 |             7 |          4.78 |       2643.09 | 
    |            72 |            68 |             9 |         22.00 |       2665.43 | 
    |            72 |            54 |             7 |          4.95 |       2670.55 | 
    |            72 |            64 |             8 |         22.00 |       2692.78 | 
    |            72 |            51 |             6 |          3.77 |       2696.64 | 
    |            72 |            61 |             8 |         12.99 |       2709.88 | 
    |            72 |            73 |             9 |         22.01 |       2732.19 | 
    |            72 |            58 |             7 |          6.22 |       2738.54 | 
    |            72 |            69 |             9 |          2.35 |       2741.16 | 
    |            72 |            82 |            11 |         22.02 |       2763.73 | 
    |            72 |            65 |             8 |          5.33 |       2769.27 | 
    |            72 |            78 |            10 |         22.01 |       2791.88 | 
    |            72 |            62 |             8 |         22.00 |       2814.13 | 
    |            72 |            49 |             7 |         22.00 |       2836.26 | 
    |            72 |            39 |             6 |         10.95 |       2847.31 | 
    |            72 |            46 |             6 |          0.61 |       2848.04 | 
    |            72 |            55 |             7 |         22.01 |       2870.29 | 
    |            72 |            44 |             6 |          1.83 |       2872.22 | 
    |            72 |            52 |             7 |          4.07 |       2876.42 | 
    |            72 |            62 |             8 |         21.72 |       2898.33 | 
    |            72 |            74 |            11 |         18.25 |       2916.99 | 
    |            72 |            88 |            11 |         22.01 |       2939.54 | 
    |            71 |            70 |             9 |          5.49 |       2945.39 | 
    |            71 |            70 |             8 |          3.01 |       2948.79 | 
    |            71 |            84 |            11 |         22.48 |       2971.90 | 
    |            71 |            67 |             9 |         22.01 |       2994.26 | 
    |            71 |            53 |             7 |          4.31 |       2998.77 | 
    |            71 |            63 |             8 |         22.01 |       3020.98 | 
    |            71 |            50 |             7 |          1.66 |       3022.87 | 
    |            71 |            60 |             9 |          1.69 |       3024.92 | 
    |            71 |            72 |             9 |         22.00 |       3047.26 | 
    |            71 |            57 |             8 |         22.00 |       3069.47 | 
    |            71 |            45 |             6 |          3.30 |       3072.90 | 
    |            71 |            54 |             7 |          2.10 |       3075.23 | 
    |            71 |            64 |             8 |         22.01 |       3097.45 | 
    |            71 |            51 |             7 |         10.14 |       3107.70 | 
    |            71 |            61 |             7 |          5.27 |       3113.15 | 
    |            71 |            73 |            10 |          3.58 |       3117.16 | 
    |            71 |            87 |            10 |         22.01 |       3139.81 | 
    |            71 |            69 |             9 |         22.04 |       3162.14 | 
    |            71 |            55 |             7 |         22.00 |       3184.33 | 
    |            71 |            44 |             6 |          2.52 |       3186.93 | 
    |            71 |            52 |             7 |          3.44 |       3190.60 | 
    |            71 |            62 |             9 |         22.01 |       3212.92 | 
    |            71 |            49 |             7 |          2.58 |       3215.65 | 
    |            71 |            58 |             8 |         22.00 |       3237.87 | 
    |            71 |            46 |             6 |          1.10 |       3239.06 | 
-19.718309859154928
