I_50_10_S_1-9_1;65
I_50_10_S_1-9_2;54
I_50_10_S_1-9_3;67
I_50_10_S_1-9_4;63
I_50_10_S_1-9_5;67
I_50_10_S_1-9_6;72
I_50_10_S_1-9_7;66
I_50_10_S_1-9_8;67
I_50_10_S_1-9_9;67
I_50_10_S_1-9_10;60
I_50_10_S_1-49_1;75
I_50_10_S_1-49_2;81
I_50_10_S_1-49_3;73
I_50_10_S_1-49_4;107
I_50_10_S_1-49_5;85
I_50_10_S_1-49_6;77
I_50_10_S_1-49_7;90
I_50_10_S_1-49_8;93
I_50_10_S_1-49_9;95
I_50_10_S_1-49_10;95
I_50_10_S_1-99_1;105
I_50_10_S_1-99_2;109
I_50_10_S_1-99_3;105
I_50_10_S_1-99_4;97
I_50_10_S_1-99_5;107
I_50_10_S_1-99_6;108
I_50_10_S_1-99_7;112
I_50_10_S_1-99_8;93
I_50_10_S_1-99_9;104
I_50_10_S_1-99_10;99
I_50_10_S_1-124_1;103
I_50_10_S_1-124_2;123
I_50_10_S_1-124_3;108
I_50_10_S_1-124_4;106
I_50_10_S_1-124_5;110
I_50_10_S_1-124_6;111
I_50_10_S_1-124_7;109
I_50_10_S_1-124_8;107
I_50_10_S_1-124_9;106
I_50_10_S_1-124_10;114
I_50_15_S_1-9_1;33
I_50_15_S_1-9_2;37
I_50_15_S_1-9_3;36
I_50_15_S_1-9_4;35
I_50_15_S_1-9_5;36
I_50_15_S_1-9_6;37
I_50_15_S_1-9_7;33
I_50_15_S_1-9_8;35
I_50_15_S_1-9_9;38
I_50_15_S_1-9_10;34
I_50_15_S_1-49_1;54
I_50_15_S_1-49_2;51
I_50_15_S_1-49_3;53
I_50_15_S_1-49_4;57
I_50_15_S_1-49_5;49
I_50_15_S_1-49_6;49
I_50_15_S_1-49_7;45
I_50_15_S_1-49_8;49
I_50_15_S_1-49_9;47
I_50_15_S_1-49_10;49
I_50_15_S_1-99_1;65
I_50_15_S_1-99_2;57
I_50_15_S_1-99_3;58
I_50_15_S_1-99_4;59
I_50_15_S_1-99_5;61
I_50_15_S_1-99_6;62
I_50_15_S_1-99_7;59
I_50_15_S_1-99_8;52
I_50_15_S_1-99_9;64
I_50_15_S_1-99_10;66
I_50_15_S_1-124_1;67
I_50_15_S_1-124_2;65
I_50_15_S_1-124_3;62
I_50_15_S_1-124_4;65
I_50_15_S_1-124_5;57
I_50_15_S_1-124_6;69
I_50_15_S_1-124_7;67
I_50_15_S_1-124_8;68
I_50_15_S_1-124_9;66
I_50_15_S_1-124_10;62
I_50_20_S_1-9_1;28
I_50_20_S_1-9_2;24
I_50_20_S_1-9_3;27
I_50_20_S_1-9_4;21
I_50_20_S_1-9_5;22
I_50_20_S_1-9_6;23
I_50_20_S_1-9_7;23
I_50_20_S_1-9_8;24
I_50_20_S_1-9_9;24
I_50_20_S_1-9_10;25
I_50_20_S_1-49_1;34
I_50_20_S_1-49_2;29
I_50_20_S_1-49_3;33
I_50_20_S_1-49_4;29
I_50_20_S_1-49_5;30
I_50_20_S_1-49_6;30
I_50_20_S_1-49_7;33
I_50_20_S_1-49_8;32
I_50_20_S_1-49_9;34
I_50_20_S_1-49_10;35
I_50_20_S_1-99_1;39
I_50_20_S_1-99_2;40
I_50_20_S_1-99_3;40
I_50_20_S_1-99_4;44
I_50_20_S_1-99_5;41
I_50_20_S_1-99_6;34
I_50_20_S_1-99_7;38
I_50_20_S_1-99_8;37
I_50_20_S_1-99_9;39
I_50_20_S_1-99_10;39
I_50_20_S_1-124_1;46
I_50_20_S_1-124_2;42
I_50_20_S_1-124_3;44
I_50_20_S_1-124_4;43
I_50_20_S_1-124_5;39
I_50_20_S_1-124_6;44
I_50_20_S_1-124_7;39
I_50_20_S_1-124_8;41
I_50_20_S_1-124_9;45
I_50_20_S_1-124_10;41
I_50_25_S_1-9_1;22
I_50_25_S_1-9_2;19
I_50_25_S_1-9_3;16
I_50_25_S_1-9_4;20
I_50_25_S_1-9_5;23
I_50_25_S_1-9_6;17
I_50_25_S_1-9_7;15
I_50_25_S_1-9_8;16
I_50_25_S_1-9_9;17
I_50_25_S_1-9_10;21
I_50_25_S_1-49_1;22
I_50_25_S_1-49_2;24
I_50_25_S_1-49_3;23
I_50_25_S_1-49_4;26
I_50_25_S_1-49_5;20
I_50_25_S_1-49_6;22
I_50_25_S_1-49_7;26
I_50_25_S_1-49_8;24
I_50_25_S_1-49_9;22
I_50_25_S_1-49_10;25
I_50_25_S_1-99_1;27
I_50_25_S_1-99_2;31
I_50_25_S_1-99_3;28
I_50_25_S_1-99_4;31
I_50_25_S_1-99_5;31
I_50_25_S_1-99_6;27
I_50_25_S_1-99_7;29
I_50_25_S_1-99_8;27
I_50_25_S_1-99_9;28
I_50_25_S_1-99_10;30
I_50_25_S_1-124_1;28
I_50_25_S_1-124_2;33
I_50_25_S_1-124_3;28
I_50_25_S_1-124_4;28
I_50_25_S_1-124_5;30
I_50_25_S_1-124_6;29
I_50_25_S_1-124_7;28
I_50_25_S_1-124_8;27
I_50_25_S_1-124_9;32
I_50_25_S_1-124_10;29
I_50_30_S_1-9_1;11
I_50_30_S_1-9_2;13
I_50_30_S_1-9_3;16
I_50_30_S_1-9_4;16
I_50_30_S_1-9_5;13
I_50_30_S_1-9_6;15
I_50_30_S_1-9_7;15
I_50_30_S_1-9_8;15
I_50_30_S_1-9_9;14
I_50_30_S_1-9_10;14
I_50_30_S_1-49_1;18
I_50_30_S_1-49_2;19
I_50_30_S_1-49_3;17
I_50_30_S_1-49_4;18
I_50_30_S_1-49_5;17
I_50_30_S_1-49_6;18
I_50_30_S_1-49_7;18
I_50_30_S_1-49_8;18
I_50_30_S_1-49_9;19
I_50_30_S_1-49_10;20
I_50_30_S_1-99_1;21
I_50_30_S_1-99_2;21
I_50_30_S_1-99_3;19
I_50_30_S_1-99_4;23
I_50_30_S_1-99_5;19
I_50_30_S_1-99_6;22
I_50_30_S_1-99_7;24
I_50_30_S_1-99_8;23
I_50_30_S_1-99_9;21
I_50_30_S_1-99_10;22
I_50_30_S_1-124_1;21
I_50_30_S_1-124_2;21
I_50_30_S_1-124_3;21
I_50_30_S_1-124_4;24
I_50_30_S_1-124_5;22
I_50_30_S_1-124_6;25
I_50_30_S_1-124_7;20
I_50_30_S_1-124_8;23
I_50_30_S_1-124_9;22
I_50_30_S_1-124_10;18
I_100_10_S_1-9_1;114
I_100_10_S_1-9_2;117
I_100_10_S_1-9_3;103
I_100_10_S_1-9_4;117
I_100_10_S_1-9_5;109
I_100_10_S_1-9_6;111
I_100_10_S_1-9_7;116
I_100_10_S_1-9_8;119
I_100_10_S_1-9_9;127
I_100_10_S_1-9_10;116
I_100_10_S_1-49_1;151
I_100_10_S_1-49_2;133
I_100_10_S_1-49_3;155
I_100_10_S_1-49_4;150
I_100_10_S_1-49_5;156
I_100_10_S_1-49_6;145
I_100_10_S_1-49_7;149
I_100_10_S_1-49_8;154
I_100_10_S_1-49_9;160
I_100_10_S_1-49_10;145
I_100_10_S_1-99_1;194
I_100_10_S_1-99_2;185
I_100_10_S_1-99_3;168
I_100_10_S_1-99_4;176
I_100_10_S_1-99_5;166
I_100_10_S_1-99_6;190
I_100_10_S_1-99_7;161
I_100_10_S_1-99_8;174
I_100_10_S_1-99_9;162
I_100_10_S_1-99_10;155
I_100_10_S_1-124_1;192
I_100_10_S_1-124_2;180
I_100_10_S_1-124_3;172
I_100_10_S_1-124_4;204
I_100_10_S_1-124_5;201
I_100_10_S_1-124_6;172
I_100_10_S_1-124_7;191
I_100_10_S_1-124_8;187
I_100_10_S_1-124_9;192
I_100_10_S_1-124_10;198
I_100_15_S_1-9_1;60
I_100_15_S_1-9_2;61
I_100_15_S_1-9_3;62
I_100_15_S_1-9_4;70
I_100_15_S_1-9_5;65
I_100_15_S_1-9_6;68
I_100_15_S_1-9_7;60
I_100_15_S_1-9_8;63
I_100_15_S_1-9_9;61
I_100_15_S_1-9_10;58
I_100_15_S_1-49_1;86
I_100_15_S_1-49_2;81
I_100_15_S_1-49_3;86
I_100_15_S_1-49_4;77
I_100_15_S_1-49_5;80
I_100_15_S_1-49_6;87
I_100_15_S_1-49_7;94
I_100_15_S_1-49_8;88
I_100_15_S_1-49_9;84
I_100_15_S_1-49_10;81
I_100_15_S_1-99_1;102
I_100_15_S_1-99_2;97
I_100_15_S_1-99_3;104
I_100_15_S_1-99_4;112
I_100_15_S_1-99_5;109
I_100_15_S_1-99_6;97
I_100_15_S_1-99_7;107
I_100_15_S_1-99_8;101
I_100_15_S_1-99_9;105
I_100_15_S_1-99_10;108
I_100_15_S_1-124_1;119
I_100_15_S_1-124_2;107
I_100_15_S_1-124_3;111
I_100_15_S_1-124_4;113
I_100_15_S_1-124_5;110
I_100_15_S_1-124_6;108
I_100_15_S_1-124_7;114
I_100_15_S_1-124_8;111
I_100_15_S_1-124_9;109
I_100_15_S_1-124_10;114
I_100_20_S_1-9_1;41
I_100_20_S_1-9_2;39
I_100_20_S_1-9_3;43
I_100_20_S_1-9_4;43
I_100_20_S_1-9_5;41
I_100_20_S_1-9_6;44
I_100_20_S_1-9_7;41
I_100_20_S_1-9_8;39
I_100_20_S_1-9_9;38
I_100_20_S_1-9_10;39
I_100_20_S_1-49_1;61
I_100_20_S_1-49_2;52
I_100_20_S_1-49_3;54
I_100_20_S_1-49_4;58
I_100_20_S_1-49_5;55
I_100_20_S_1-49_6;54
I_100_20_S_1-49_7;57
I_100_20_S_1-49_8;58
I_100_20_S_1-49_9;60
I_100_20_S_1-49_10;58
I_100_20_S_1-99_1;68
I_100_20_S_1-99_2;73
I_100_20_S_1-99_3;69
I_100_20_S_1-99_4;74
I_100_20_S_1-99_5;74
I_100_20_S_1-99_6;73
I_100_20_S_1-99_7;74
I_100_20_S_1-99_8;68
I_100_20_S_1-99_9;69
I_100_20_S_1-99_10;73
I_100_20_S_1-124_1;83
I_100_20_S_1-124_2;75
I_100_20_S_1-124_3;85
I_100_20_S_1-124_4;72
I_100_20_S_1-124_5;80
I_100_20_S_1-124_6;76
I_100_20_S_1-124_7;80
I_100_20_S_1-124_8;76
I_100_20_S_1-124_9;81
I_100_20_S_1-124_10;73
I_100_25_S_1-9_1;26
I_100_25_S_1-9_2;28
I_100_25_S_1-9_3;30
I_100_25_S_1-9_4;28
I_100_25_S_1-9_5;29
I_100_25_S_1-9_6;31
I_100_25_S_1-9_7;30
I_100_25_S_1-9_8;28
I_100_25_S_1-9_9;30
I_100_25_S_1-9_10;24
I_100_25_S_1-49_1;42
I_100_25_S_1-49_2;44
I_100_25_S_1-49_3;44
I_100_25_S_1-49_4;42
I_100_25_S_1-49_5;41
I_100_25_S_1-49_6;44
I_100_25_S_1-49_7;40
I_100_25_S_1-49_8;46
I_100_25_S_1-49_9;43
I_100_25_S_1-49_10;42
I_100_25_S_1-99_1;52
I_100_25_S_1-99_2;57
I_100_25_S_1-99_3;58
I_100_25_S_1-99_4;58
I_100_25_S_1-99_5;52
I_100_25_S_1-99_6;50
I_100_25_S_1-99_7;58
I_100_25_S_1-99_8;58
I_100_25_S_1-99_9;55
I_100_25_S_1-99_10;53
I_100_25_S_1-124_1;62
I_100_25_S_1-124_2;57
I_100_25_S_1-124_3;60
I_100_25_S_1-124_4;57
I_100_25_S_1-124_5;60
I_100_25_S_1-124_6;59
I_100_25_S_1-124_7;60
I_100_25_S_1-124_8;57
I_100_25_S_1-124_9;57
I_100_25_S_1-124_10;58
I_100_30_S_1-9_1;24
I_100_30_S_1-9_2;20
I_100_30_S_1-9_3;19
I_100_30_S_1-9_4;22
I_100_30_S_1-9_5;24
I_100_30_S_1-9_6;21
I_100_30_S_1-9_7;23
I_100_30_S_1-9_8;23
I_100_30_S_1-9_9;20
I_100_30_S_1-9_10;20
I_100_30_S_1-49_1;35
I_100_30_S_1-49_2;34
I_100_30_S_1-49_3;37
I_100_30_S_1-49_4;33
I_100_30_S_1-49_5;33
I_100_30_S_1-49_6;33
I_100_30_S_1-49_7;34
I_100_30_S_1-49_8;32
I_100_30_S_1-49_9;32
I_100_30_S_1-49_10;36
I_100_30_S_1-99_1;43
I_100_30_S_1-99_2;42
I_100_30_S_1-99_3;44
I_100_30_S_1-99_4;42
I_100_30_S_1-99_5;42
I_100_30_S_1-99_6;41
I_100_30_S_1-99_7;41
I_100_30_S_1-99_8;42
I_100_30_S_1-99_9;40
I_100_30_S_1-99_10;45
I_100_30_S_1-124_1;44
I_100_30_S_1-124_2;47
I_100_30_S_1-124_3;45
I_100_30_S_1-124_4;47
I_100_30_S_1-124_5;47
I_100_30_S_1-124_6;47
I_100_30_S_1-124_7;46
I_100_30_S_1-124_8;46
I_100_30_S_1-124_9;45
I_100_30_S_1-124_10;46
I_150_10_S_1-9_1;173
I_150_10_S_1-9_2;185
I_150_10_S_1-9_3;160
I_150_10_S_1-9_4;176
I_150_10_S_1-9_5;167
I_150_10_S_1-9_6;161
I_150_10_S_1-9_7;171
I_150_10_S_1-9_8;185
I_150_10_S_1-9_9;154
I_150_10_S_1-9_10;164
I_150_10_S_1-49_1;210
I_150_10_S_1-49_2;223
I_150_10_S_1-49_3;204
I_150_10_S_1-49_4;199
I_150_10_S_1-49_5;200
I_150_10_S_1-49_6;202
I_150_10_S_1-49_7;184
I_150_10_S_1-49_8;212
I_150_10_S_1-49_9;197
I_150_10_S_1-49_10;185
I_150_10_S_1-99_1;230
I_150_10_S_1-99_2;246
I_150_10_S_1-99_3;232
I_150_10_S_1-99_4;247
I_150_10_S_1-99_5;247
I_150_10_S_1-99_6;237
I_150_10_S_1-99_7;235
I_150_10_S_1-99_8;233
I_150_10_S_1-99_9;235
I_150_10_S_1-99_10;226
I_150_10_S_1-124_1;262
I_150_10_S_1-124_2;254
I_150_10_S_1-124_3;264
I_150_10_S_1-124_4;257
I_150_10_S_1-124_5;239
I_150_10_S_1-124_6;263
I_150_10_S_1-124_7;250
I_150_10_S_1-124_8;271
I_150_10_S_1-124_9;269
I_150_10_S_1-124_10;250
I_150_15_S_1-9_1;86
I_150_15_S_1-9_2;86
I_150_15_S_1-9_3;89
I_150_15_S_1-9_4;87
I_150_15_S_1-9_5;79
I_150_15_S_1-9_6;90
I_150_15_S_1-9_7;93
I_150_15_S_1-9_8;89
I_150_15_S_1-9_9;91
I_150_15_S_1-9_10;83
I_150_15_S_1-49_1;122
I_150_15_S_1-49_2;110
I_150_15_S_1-49_3;111
I_150_15_S_1-49_4;122
I_150_15_S_1-49_5;117
I_150_15_S_1-49_6;107
I_150_15_S_1-49_7;124
I_150_15_S_1-49_8;123
I_150_15_S_1-49_9;123
I_150_15_S_1-49_10;117
I_150_15_S_1-99_1;143
I_150_15_S_1-99_2;140
I_150_15_S_1-99_3;140
I_150_15_S_1-99_4;143
I_150_15_S_1-99_5;146
I_150_15_S_1-99_6;143
I_150_15_S_1-99_7;139
I_150_15_S_1-99_8;128
I_150_15_S_1-99_9;141
I_150_15_S_1-99_10;137
I_150_15_S_1-124_1;168
I_150_15_S_1-124_2;159
I_150_15_S_1-124_3;145
I_150_15_S_1-124_4;168
I_150_15_S_1-124_5;161
I_150_15_S_1-124_6;151
I_150_15_S_1-124_7;153
I_150_15_S_1-124_8;145
I_150_15_S_1-124_9;154
I_150_15_S_1-124_10;151
I_150_20_S_1-9_1;64
I_150_20_S_1-9_2;54
I_150_20_S_1-9_3;52
I_150_20_S_1-9_4;55
I_150_20_S_1-9_5;59
I_150_20_S_1-9_6;59
I_150_20_S_1-9_7;57
I_150_20_S_1-9_8;53
I_150_20_S_1-9_9;53
I_150_20_S_1-9_10;54
I_150_20_S_1-49_1;79
I_150_20_S_1-49_2;76
I_150_20_S_1-49_3;78
I_150_20_S_1-49_4;81
I_150_20_S_1-49_5;84
I_150_20_S_1-49_6;81
I_150_20_S_1-49_7;74
I_150_20_S_1-49_8;77
I_150_20_S_1-49_9;75
I_150_20_S_1-49_10;80
I_150_20_S_1-99_1;98
I_150_20_S_1-99_2;104
I_150_20_S_1-99_3;101
I_150_20_S_1-99_4;95
I_150_20_S_1-99_5;95
I_150_20_S_1-99_6;97
I_150_20_S_1-99_7;103
I_150_20_S_1-99_8;97
I_150_20_S_1-99_9;98
I_150_20_S_1-99_10;96
I_150_20_S_1-124_1;106
I_150_20_S_1-124_2;105
I_150_20_S_1-124_3;115
I_150_20_S_1-124_4;107
I_150_20_S_1-124_5;109
I_150_20_S_1-124_6;114
I_150_20_S_1-124_7;111
I_150_20_S_1-124_8;107
I_150_20_S_1-124_9;110
I_150_20_S_1-124_10;115
I_150_25_S_1-9_1;40
I_150_25_S_1-9_2;39
I_150_25_S_1-9_3;36
I_150_25_S_1-9_4;39
I_150_25_S_1-9_5;42
I_150_25_S_1-9_6;39
I_150_25_S_1-9_7;40
I_150_25_S_1-9_8;36
I_150_25_S_1-9_9;40
I_150_25_S_1-9_10;40
I_150_25_S_1-49_1;62
I_150_25_S_1-49_2;63
I_150_25_S_1-49_3;54
I_150_25_S_1-49_4;58
I_150_25_S_1-49_5;59
I_150_25_S_1-49_6;58
I_150_25_S_1-49_7;63
I_150_25_S_1-49_8;60
I_150_25_S_1-49_9;58
I_150_25_S_1-49_10;61
I_150_25_S_1-99_1;73
I_150_25_S_1-99_2;78
I_150_25_S_1-99_3;73
I_150_25_S_1-99_4;76
I_150_25_S_1-99_5;79
I_150_25_S_1-99_6;79
I_150_25_S_1-99_7;81
I_150_25_S_1-99_8;80
I_150_25_S_1-99_9;72
I_150_25_S_1-99_10;73
I_150_25_S_1-124_1;85
I_150_25_S_1-124_2;83
I_150_25_S_1-124_3;85
I_150_25_S_1-124_4;88
I_150_25_S_1-124_5;86
I_150_25_S_1-124_6;89
I_150_25_S_1-124_7;87
I_150_25_S_1-124_8;84
I_150_25_S_1-124_9;81
I_150_25_S_1-124_10;85
I_150_30_S_1-9_1;31
I_150_30_S_1-9_2;34
I_150_30_S_1-9_3;32
I_150_30_S_1-9_4;31
I_150_30_S_1-9_5;32
I_150_30_S_1-9_6;32
I_150_30_S_1-9_7;32
I_150_30_S_1-9_8;30
I_150_30_S_1-9_9;30
I_150_30_S_1-9_10;31
I_150_30_S_1-49_1;47
I_150_30_S_1-49_2;46
I_150_30_S_1-49_3;49
I_150_30_S_1-49_4;46
I_150_30_S_1-49_5;48
I_150_30_S_1-49_6;49
I_150_30_S_1-49_7;47
I_150_30_S_1-49_8;51
I_150_30_S_1-49_9;52
I_150_30_S_1-49_10;49
I_150_30_S_1-99_1;61
I_150_30_S_1-99_2;64
I_150_30_S_1-99_3;64
I_150_30_S_1-99_4;64
I_150_30_S_1-99_5;59
I_150_30_S_1-99_6;61
I_150_30_S_1-99_7;64
I_150_30_S_1-99_8;64
I_150_30_S_1-99_9;62
I_150_30_S_1-99_10;59
I_150_30_S_1-124_1;65
I_150_30_S_1-124_2;68
I_150_30_S_1-124_3;72
I_150_30_S_1-124_4;68
I_150_30_S_1-124_5;67
I_150_30_S_1-124_6;67
I_150_30_S_1-124_7;67
I_150_30_S_1-124_8;65
I_150_30_S_1-124_9;71
I_150_30_S_1-124_10;67
I_200_10_S_1-9_1;241
I_200_10_S_1-9_2;210
I_200_10_S_1-9_3;224
I_200_10_S_1-9_4;211
I_200_10_S_1-9_5;201
I_200_10_S_1-9_6;215
I_200_10_S_1-9_7;218
I_200_10_S_1-9_8;239
I_200_10_S_1-9_9;219
I_200_10_S_1-9_10;222
I_200_10_S_1-49_1;260
I_200_10_S_1-49_2;268
I_200_10_S_1-49_3;267
I_200_10_S_1-49_4;268
I_200_10_S_1-49_5;259
I_200_10_S_1-49_6;243
I_200_10_S_1-49_7;254
I_200_10_S_1-49_8;255
I_200_10_S_1-49_9;247
I_200_10_S_1-49_10;265
I_200_10_S_1-99_1;321
I_200_10_S_1-99_2;298
I_200_10_S_1-99_3;300
I_200_10_S_1-99_4;289
I_200_10_S_1-99_5;308
I_200_10_S_1-99_6;278
I_200_10_S_1-99_7;312
I_200_10_S_1-99_8;302
I_200_10_S_1-99_9;328
I_200_10_S_1-99_10;292
I_200_10_S_1-124_1;326
I_200_10_S_1-124_2;321
I_200_10_S_1-124_3;321
I_200_10_S_1-124_4;343
I_200_10_S_1-124_5;335
I_200_10_S_1-124_6;308
I_200_10_S_1-124_7;337
I_200_10_S_1-124_8;320
I_200_10_S_1-124_9;327
I_200_10_S_1-124_10;324
I_200_15_S_1-9_1;119
I_200_15_S_1-9_2;123
I_200_15_S_1-9_3;105
I_200_15_S_1-9_4;114
I_200_15_S_1-9_5;119
I_200_15_S_1-9_6;105
I_200_15_S_1-9_7;109
I_200_15_S_1-9_8;113
I_200_15_S_1-9_9;109
I_200_15_S_1-9_10;114
I_200_15_S_1-49_1;149
I_200_15_S_1-49_2;142
I_200_15_S_1-49_3;151
I_200_15_S_1-49_4;144
I_200_15_S_1-49_5;151
I_200_15_S_1-49_6;139
I_200_15_S_1-49_7;155
I_200_15_S_1-49_8;144
I_200_15_S_1-49_9;131
I_200_15_S_1-49_10;142
I_200_15_S_1-99_1;174
I_200_15_S_1-99_2;177
I_200_15_S_1-99_3;169
I_200_15_S_1-99_4;189
I_200_15_S_1-99_5;178
I_200_15_S_1-99_6;175
I_200_15_S_1-99_7;182
I_200_15_S_1-99_8;168
I_200_15_S_1-99_9;169
I_200_15_S_1-99_10;183
I_200_15_S_1-124_1;182
I_200_15_S_1-124_2;178
I_200_15_S_1-124_3;196
I_200_15_S_1-124_4;181
I_200_15_S_1-124_5;190
I_200_15_S_1-124_6;193
I_200_15_S_1-124_7;171
I_200_15_S_1-124_8;185
I_200_15_S_1-124_9;182
I_200_15_S_1-124_10;185
I_200_20_S_1-9_1;69
I_200_20_S_1-9_2;70
I_200_20_S_1-9_3;70
I_200_20_S_1-9_4;75
I_200_20_S_1-9_5;73
I_200_20_S_1-9_6;72
I_200_20_S_1-9_7;71
I_200_20_S_1-9_8;72
I_200_20_S_1-9_9;70
I_200_20_S_1-9_10;68
I_200_20_S_1-49_1;97
I_200_20_S_1-49_2;96
I_200_20_S_1-49_3;100
I_200_20_S_1-49_4;97
I_200_20_S_1-49_5;98
I_200_20_S_1-49_6;95
I_200_20_S_1-49_7;98
I_200_20_S_1-49_8;99
I_200_20_S_1-49_9;96
I_200_20_S_1-49_10;102
I_200_20_S_1-99_1;122
I_200_20_S_1-99_2;129
I_200_20_S_1-99_3;131
I_200_20_S_1-99_4;121
I_200_20_S_1-99_5;129
I_200_20_S_1-99_6;131
I_200_20_S_1-99_7;130
I_200_20_S_1-99_8;122
I_200_20_S_1-99_9;132
I_200_20_S_1-99_10;122
I_200_20_S_1-124_1;132
I_200_20_S_1-124_2;137
I_200_20_S_1-124_3;139
I_200_20_S_1-124_4;136
I_200_20_S_1-124_5;133
I_200_20_S_1-124_6;143
I_200_20_S_1-124_7;131
I_200_20_S_1-124_8;140
I_200_20_S_1-124_9;130
I_200_20_S_1-124_10;137
I_200_25_S_1-9_1;51
I_200_25_S_1-9_2;52
I_200_25_S_1-9_3;49
I_200_25_S_1-9_4;52
I_200_25_S_1-9_5;50
I_200_25_S_1-9_6;51
I_200_25_S_1-9_7;51
I_200_25_S_1-9_8;47
I_200_25_S_1-9_9;49
I_200_25_S_1-9_10;50
I_200_25_S_1-49_1;75
I_200_25_S_1-49_2;73
I_200_25_S_1-49_3;75
I_200_25_S_1-49_4;75
I_200_25_S_1-49_5;79
I_200_25_S_1-49_6;73
I_200_25_S_1-49_7;74
I_200_25_S_1-49_8;75
I_200_25_S_1-49_9;78
I_200_25_S_1-49_10;74
I_200_25_S_1-99_1;94
I_200_25_S_1-99_2;93
I_200_25_S_1-99_3;93
I_200_25_S_1-99_4;102
I_200_25_S_1-99_5;99
I_200_25_S_1-99_6;99
I_200_25_S_1-99_7;93
I_200_25_S_1-99_8;94
I_200_25_S_1-99_9;95
I_200_25_S_1-99_10;103
I_200_25_S_1-124_1;103
I_200_25_S_1-124_2;111
I_200_25_S_1-124_3;103
I_200_25_S_1-124_4;107
I_200_25_S_1-124_5;110
I_200_25_S_1-124_6;101
I_200_25_S_1-124_7;107
I_200_25_S_1-124_8;105
I_200_25_S_1-124_9;105
I_200_25_S_1-124_10;107
I_200_30_S_1-9_1;40
I_200_30_S_1-9_2;37
I_200_30_S_1-9_3;39
I_200_30_S_1-9_4;38
I_200_30_S_1-9_5;39
I_200_30_S_1-9_6;41
I_200_30_S_1-9_7;36
I_200_30_S_1-9_8;41
I_200_30_S_1-9_9;37
I_200_30_S_1-9_10;41
I_200_30_S_1-49_1;61
I_200_30_S_1-49_2;59
I_200_30_S_1-49_3;59
I_200_30_S_1-49_4;60
I_200_30_S_1-49_5;60
I_200_30_S_1-49_6;66
I_200_30_S_1-49_7;63
I_200_30_S_1-49_8;61
I_200_30_S_1-49_9;59
I_200_30_S_1-49_10;62
I_200_30_S_1-99_1;80
I_200_30_S_1-99_2;79
I_200_30_S_1-99_3;81
I_200_30_S_1-99_4;81
I_200_30_S_1-99_5;78
I_200_30_S_1-99_6;83
I_200_30_S_1-99_7;77
I_200_30_S_1-99_8;80
I_200_30_S_1-99_9;78
I_200_30_S_1-99_10;73
I_200_30_S_1-124_1;88
I_200_30_S_1-124_2;89
I_200_30_S_1-124_3;86
I_200_30_S_1-124_4;89
I_200_30_S_1-124_5;84
I_200_30_S_1-124_6;88
I_200_30_S_1-124_7;89
I_200_30_S_1-124_8;85
I_200_30_S_1-124_9;85
I_200_30_S_1-124_10;84
I_250_10_S_1-9_1;262
I_250_10_S_1-9_2;265
I_250_10_S_1-9_3;264
I_250_10_S_1-9_4;287
I_250_10_S_1-9_5;269
I_250_10_S_1-9_6;273
I_250_10_S_1-9_7;269
I_250_10_S_1-9_8;259
I_250_10_S_1-9_9;272
I_250_10_S_1-9_10;252
I_250_10_S_1-49_1;340
I_250_10_S_1-49_2;320
I_250_10_S_1-49_3;330
I_250_10_S_1-49_4;321
I_250_10_S_1-49_5;320
I_250_10_S_1-49_6;318
I_250_10_S_1-49_7;289
I_250_10_S_1-49_8;329
I_250_10_S_1-49_9;306
I_250_10_S_1-49_10;322
I_250_10_S_1-99_1;361
I_250_10_S_1-99_2;378
I_250_10_S_1-99_3;359
I_250_10_S_1-99_4;381
I_250_10_S_1-99_5;354
I_250_10_S_1-99_6;350
I_250_10_S_1-99_7;384
I_250_10_S_1-99_8;353
I_250_10_S_1-99_9;377
I_250_10_S_1-99_10;348
I_250_10_S_1-124_1;368
I_250_10_S_1-124_2;374
I_250_10_S_1-124_3;379
I_250_10_S_1-124_4;404
I_250_10_S_1-124_5;362
I_250_10_S_1-124_6;375
I_250_10_S_1-124_7;382
I_250_10_S_1-124_8;366
I_250_10_S_1-124_9;365
I_250_10_S_1-124_10;366
I_250_15_S_1-9_1;134
I_250_15_S_1-9_2;146
I_250_15_S_1-9_3;133
I_250_15_S_1-9_4;136
I_250_15_S_1-9_5;153
I_250_15_S_1-9_6;146
I_250_15_S_1-9_7;138
I_250_15_S_1-9_8;128
I_250_15_S_1-9_9;137
I_250_15_S_1-9_10;133
I_250_15_S_1-49_1;172
I_250_15_S_1-49_2;167
I_250_15_S_1-49_3;169
I_250_15_S_1-49_4;176
I_250_15_S_1-49_5;173
I_250_15_S_1-49_6;167
I_250_15_S_1-49_7;168
I_250_15_S_1-49_8;168
I_250_15_S_1-49_9;174
I_250_15_S_1-49_10;176
I_250_15_S_1-99_1;204
I_250_15_S_1-99_2;208
I_250_15_S_1-99_3;218
I_250_15_S_1-99_4;217
I_250_15_S_1-99_5;227
I_250_15_S_1-99_6;212
I_250_15_S_1-99_7;199
I_250_15_S_1-99_8;206
I_250_15_S_1-99_9;211
I_250_15_S_1-99_10;208
I_250_15_S_1-124_1;219
I_250_15_S_1-124_2;222
I_250_15_S_1-124_3;233
I_250_15_S_1-124_4;219
I_250_15_S_1-124_5;232
I_250_15_S_1-124_6;222
I_250_15_S_1-124_7;229
I_250_15_S_1-124_8;209
I_250_15_S_1-124_9;226
I_250_15_S_1-124_10;234
I_250_20_S_1-9_1;88
I_250_20_S_1-9_2;84
I_250_20_S_1-9_3;89
I_250_20_S_1-9_4;88
I_250_20_S_1-9_5;88
I_250_20_S_1-9_6;85
I_250_20_S_1-9_7;84
I_250_20_S_1-9_8;75
I_250_20_S_1-9_9;89
I_250_20_S_1-9_10;85
I_250_20_S_1-49_1;114
I_250_20_S_1-49_2;118
I_250_20_S_1-49_3;123
I_250_20_S_1-49_4;109
I_250_20_S_1-49_5;109
I_250_20_S_1-49_6;107
I_250_20_S_1-49_7;122
I_250_20_S_1-49_8;116
I_250_20_S_1-49_9;114
I_250_20_S_1-49_10;123
I_250_20_S_1-99_1;145
I_250_20_S_1-99_2;139
I_250_20_S_1-99_3;150
I_250_20_S_1-99_4;143
I_250_20_S_1-99_5;144
I_250_20_S_1-99_6;145
I_250_20_S_1-99_7;146
I_250_20_S_1-99_8;145
I_250_20_S_1-99_9;147
I_250_20_S_1-99_10;151
I_250_20_S_1-124_1;165
I_250_20_S_1-124_2;172
I_250_20_S_1-124_3;159
I_250_20_S_1-124_4;160
I_250_20_S_1-124_5;159
I_250_20_S_1-124_6;158
I_250_20_S_1-124_7;160
I_250_20_S_1-124_8;157
I_250_20_S_1-124_9;164
I_250_20_S_1-124_10;157
I_250_25_S_1-9_1;63
I_250_25_S_1-9_2;63
I_250_25_S_1-9_3;61
I_250_25_S_1-9_4;59
I_250_25_S_1-9_5;60
I_250_25_S_1-9_6;63
I_250_25_S_1-9_7;57
I_250_25_S_1-9_8;61
I_250_25_S_1-9_9;57
I_250_25_S_1-9_10;60
I_250_25_S_1-49_1;90
I_250_25_S_1-49_2;88
I_250_25_S_1-49_3;86
I_250_25_S_1-49_4;86
I_250_25_S_1-49_5;96
I_250_25_S_1-49_6;88
I_250_25_S_1-49_7;88
I_250_25_S_1-49_8;86
I_250_25_S_1-49_9;89
I_250_25_S_1-49_10;95
I_250_25_S_1-99_1;116
I_250_25_S_1-99_2;111
I_250_25_S_1-99_3;116
I_250_25_S_1-99_4;116
I_250_25_S_1-99_5;116
I_250_25_S_1-99_6;118
I_250_25_S_1-99_7;116
I_250_25_S_1-99_8;118
I_250_25_S_1-99_9;113
I_250_25_S_1-99_10;120
I_250_25_S_1-124_1;123
I_250_25_S_1-124_2;132
I_250_25_S_1-124_3;131
I_250_25_S_1-124_4;122
I_250_25_S_1-124_5;129
I_250_25_S_1-124_6;128
I_250_25_S_1-124_7;126
I_250_25_S_1-124_8;131
I_250_25_S_1-124_9;127
I_250_25_S_1-124_10;130
I_250_30_S_1-9_1;47
I_250_30_S_1-9_2;48
I_250_30_S_1-9_3;50
I_250_30_S_1-9_4;46
I_250_30_S_1-9_5;49
I_250_30_S_1-9_6;47
I_250_30_S_1-9_7;45
I_250_30_S_1-9_8;50
I_250_30_S_1-9_9;46
I_250_30_S_1-9_10;47
I_250_30_S_1-49_1;70
I_250_30_S_1-49_2;69
I_250_30_S_1-49_3;74
I_250_30_S_1-49_4;73
I_250_30_S_1-49_5;70
I_250_30_S_1-49_6;70
I_250_30_S_1-49_7;71
I_250_30_S_1-49_8;70
I_250_30_S_1-49_9;72
I_250_30_S_1-49_10;67
I_250_30_S_1-99_1;93
I_250_30_S_1-99_2;94
I_250_30_S_1-99_3;93
I_250_30_S_1-99_4;97
I_250_30_S_1-99_5;88
I_250_30_S_1-99_6;89
I_250_30_S_1-99_7;97
I_250_30_S_1-99_8;91
I_250_30_S_1-99_9;96
I_250_30_S_1-99_10;94
I_250_30_S_1-124_1;103
I_250_30_S_1-124_2;103
I_250_30_S_1-124_3;103
I_250_30_S_1-124_4;101
I_250_30_S_1-124_5;105
I_250_30_S_1-124_6;103
I_250_30_S_1-124_7;103
I_250_30_S_1-124_8;107
I_250_30_S_1-124_9;106
I_250_30_S_1-124_10;103
