I_6_2_S_1-9_1;0;0.02
I_6_2_S_1-9_2;0;0.03
I_6_2_S_1-9_3;0;0.03
I_6_2_S_1-9_4;0;0.03
I_6_2_S_1-9_5;0;0.02
I_6_2_S_1-9_6;0;0.04
I_6_2_S_1-9_7;0;0.04
I_6_2_S_1-9_8;0;0.03
I_6_2_S_1-9_9;0;0.02
I_6_2_S_1-9_10;0;0.05
I_6_2_S_1-49_1;0;0.02
I_6_2_S_1-49_2;0;0.03
I_6_2_S_1-49_3;0;0.03
I_6_2_S_1-49_4;0;0.01
I_6_2_S_1-49_5;0;0.02
I_6_2_S_1-49_6;0;0.03
I_6_2_S_1-49_7;0;0.01
I_6_2_S_1-49_8;0;0.03
I_6_2_S_1-49_9;0;0.02
I_6_2_S_1-49_10;0;0.03
I_6_2_S_1-99_1;0;0.03
I_6_2_S_1-99_2;0;0.03
I_6_2_S_1-99_3;0;0.03
I_6_2_S_1-99_4;0;0.04
I_6_2_S_1-99_5;0;0.02
I_6_2_S_1-99_6;0;0.02
I_6_2_S_1-99_7;0;0.02
I_6_2_S_1-99_8;0;0.02
I_6_2_S_1-99_9;0;0.1
I_6_2_S_1-99_10;0;0.02
I_6_2_S_1-124_1;0;0.03
I_6_2_S_1-124_2;0;0.03
I_6_2_S_1-124_3;0;0.1
I_6_2_S_1-124_4;0;0.09
I_6_2_S_1-124_5;0;0.03
I_6_2_S_1-124_6;0;0.03
I_6_2_S_1-124_7;0;0.03
I_6_2_S_1-124_8;0;0.03
I_6_2_S_1-124_9;0;0.02
I_6_2_S_1-124_10;0;0.02
I_6_3_S_1-9_1;0;0.02
I_6_3_S_1-9_2;0;0.01
I_6_3_S_1-9_3;0;0.05
I_6_3_S_1-9_4;0;0.06
I_6_3_S_1-9_5;0;0.04
I_6_3_S_1-9_6;0;0.02
I_6_3_S_1-9_7;0;0.02
I_6_3_S_1-9_8;0;0.05
I_6_3_S_1-9_9;0;0.02
I_6_3_S_1-9_10;0;0.02
I_6_3_S_1-49_1;0;0.03
I_6_3_S_1-49_2;0;0.05
I_6_3_S_1-49_3;0;0.02
I_6_3_S_1-49_4;0;0.01
I_6_3_S_1-49_5;0;0.02
I_6_3_S_1-49_6;0;0.02
I_6_3_S_1-49_7;0;0.03
I_6_3_S_1-49_8;0;0.08
I_6_3_S_1-49_9;0;0.2
I_6_3_S_1-49_10;0;0.02
I_6_3_S_1-99_1;0;0.03
I_6_3_S_1-99_2;0;0.06
I_6_3_S_1-99_3;0;0.09
I_6_3_S_1-99_4;0;0.02
I_6_3_S_1-99_5;0;0.04
I_6_3_S_1-99_6;0;0.04
I_6_3_S_1-99_7;0;0.02
I_6_3_S_1-99_8;0;0.02
I_6_3_S_1-99_9;0;0.08
I_6_3_S_1-99_10;0;0.02
I_6_3_S_1-124_1;0;0.13
I_6_3_S_1-124_2;0;0.07
I_6_3_S_1-124_3;0;0.03
I_6_3_S_1-124_4;0;0.02
I_6_3_S_1-124_5;0;0.03
I_6_3_S_1-124_6;0;0.04
I_6_3_S_1-124_7;0;0.09
I_6_3_S_1-124_8;0;0.08
I_6_3_S_1-124_9;0;0.03
I_6_3_S_1-124_10;0;0.03
I_6_4_S_1-9_1;0;0.02
I_6_4_S_1-9_2;0;0.01
I_6_4_S_1-9_3;0;0.02
I_6_4_S_1-9_4;0;0.04
I_6_4_S_1-9_5;0;0.03
I_6_4_S_1-9_6;0;0.02
I_6_4_S_1-9_7;0;0.02
I_6_4_S_1-9_8;0;0.02
I_6_4_S_1-9_9;0;0.03
I_6_4_S_1-9_10;0;0.01
I_6_4_S_1-49_1;0;0.02
I_6_4_S_1-49_2;0;0.03
I_6_4_S_1-49_3;0;0.03
I_6_4_S_1-49_4;0;0.02
I_6_4_S_1-49_5;0;0.02
I_6_4_S_1-49_6;0;0.03
I_6_4_S_1-49_7;0;0.01
I_6_4_S_1-49_8;0;0.01
I_6_4_S_1-49_9;0;0.01
I_6_4_S_1-49_10;0;0.02
I_6_4_S_1-99_1;0;0.01
I_6_4_S_1-99_2;0;0.03
I_6_4_S_1-99_3;0;0.02
I_6_4_S_1-99_4;0;0.02
I_6_4_S_1-99_5;0;0.02
I_6_4_S_1-99_6;0;0.04
I_6_4_S_1-99_7;0;0.03
I_6_4_S_1-99_8;0;0.03
I_6_4_S_1-99_9;0;0.03
I_6_4_S_1-99_10;0;0.04
I_6_4_S_1-124_1;0;0.03
I_6_4_S_1-124_2;0;0.02
I_6_4_S_1-124_3;0;0.02
I_6_4_S_1-124_4;0;0.04
I_6_4_S_1-124_5;0;0.02
I_6_4_S_1-124_6;0;0.02
I_6_4_S_1-124_7;0;0.02
I_6_4_S_1-124_8;0;0.03
I_6_4_S_1-124_9;0;0.04
I_6_4_S_1-124_10;0;0.02
I_6_5_S_1-9_1;0;0.01
I_6_5_S_1-9_2;0;0.01
I_6_5_S_1-9_3;0;0.01
I_6_5_S_1-9_4;0;0.02
I_6_5_S_1-9_5;0;0.02
I_6_5_S_1-9_6;0;0.01
I_6_5_S_1-9_7;0;0.01
I_6_5_S_1-9_8;0;0.01
I_6_5_S_1-9_9;0;0.01
I_6_5_S_1-9_10;0;0.02
I_6_5_S_1-49_1;0;0.03
I_6_5_S_1-49_2;0;0.02
I_6_5_S_1-49_3;0;0.01
I_6_5_S_1-49_4;0;0.01
I_6_5_S_1-49_5;0;0.02
I_6_5_S_1-49_6;0;0.01
I_6_5_S_1-49_7;0;0.01
I_6_5_S_1-49_8;0;0.01
I_6_5_S_1-49_9;0;0.02
I_6_5_S_1-49_10;0;0.01
I_6_5_S_1-99_1;0;0.01
I_6_5_S_1-99_2;0;0.01
I_6_5_S_1-99_3;0;0.01
I_6_5_S_1-99_4;0;0.01
I_6_5_S_1-99_5;0;0.01
I_6_5_S_1-99_6;0;0.02
I_6_5_S_1-99_7;0;0.01
I_6_5_S_1-99_8;0;0.01
I_6_5_S_1-99_9;0;0.02
I_6_5_S_1-99_10;0;0.01
I_6_5_S_1-124_1;0;0.02
I_6_5_S_1-124_2;0;0.01
I_6_5_S_1-124_3;0;0.01
I_6_5_S_1-124_4;0;0.01
I_6_5_S_1-124_5;0;0.01
I_6_5_S_1-124_6;0;0.02
I_6_5_S_1-124_7;0;0.01
I_6_5_S_1-124_8;0;0.01
I_6_5_S_1-124_9;0;0.01
I_6_5_S_1-124_10;0;0.02
I_8_2_S_1-9_1;0;0.03
I_8_2_S_1-9_2;0;0.07
I_8_2_S_1-9_3;0;0.03
I_8_2_S_1-9_4;0;0.05
I_8_2_S_1-9_5;0;0.05
I_8_2_S_1-9_6;0;0.02
I_8_2_S_1-9_7;0;0.06
I_8_2_S_1-9_8;0;0.15
I_8_2_S_1-9_9;0;0.02
I_8_2_S_1-9_10;0;0.03
I_8_2_S_1-49_1;0;0.06
I_8_2_S_1-49_2;0;0.02
I_8_2_S_1-49_3;0;0.26
I_8_2_S_1-49_4;0;0.15
I_8_2_S_1-49_5;0;0.1
I_8_2_S_1-49_6;0;0.3
I_8_2_S_1-49_7;0;0.1
I_8_2_S_1-49_8;0;0.11
I_8_2_S_1-49_9;0;0.07
I_8_2_S_1-49_10;0;0.04
I_8_2_S_1-99_1;0;0.3
I_8_2_S_1-99_2;0;0.04
I_8_2_S_1-99_3;0;0.02
I_8_2_S_1-99_4;0;0.03
I_8_2_S_1-99_5;0;0.07
I_8_2_S_1-99_6;0;0.04
I_8_2_S_1-99_7;0;0.03
I_8_2_S_1-99_8;0;0.14
I_8_2_S_1-99_9;0;0.11
I_8_2_S_1-99_10;0;0.05
I_8_2_S_1-124_1;0;0.24
I_8_2_S_1-124_2;0;0.13
I_8_2_S_1-124_3;0;0.28
I_8_2_S_1-124_4;0;0.04
I_8_2_S_1-124_5;0;0.23
I_8_2_S_1-124_6;0;0.04
I_8_2_S_1-124_7;0;0.05
I_8_2_S_1-124_8;0;0.04
I_8_2_S_1-124_9;0;0.24
I_8_2_S_1-124_10;0;0.16
I_8_3_S_1-9_1;0;0.04
I_8_3_S_1-9_2;0;0.08
I_8_3_S_1-9_3;0;0.04
I_8_3_S_1-9_4;0;0.1
I_8_3_S_1-9_5;0;0.1
I_8_3_S_1-9_6;0;0.03
I_8_3_S_1-9_7;0;0.04
I_8_3_S_1-9_8;0;0.07
I_8_3_S_1-9_9;0;0.08
I_8_3_S_1-9_10;0;0.35
I_8_3_S_1-49_1;0;0.17
I_8_3_S_1-49_2;0;0.27
I_8_3_S_1-49_3;0;0.15
I_8_3_S_1-49_4;0;0.05
I_8_3_S_1-49_5;0;0.15
I_8_3_S_1-49_6;0;0.64
I_8_3_S_1-49_7;0;0.17
I_8_3_S_1-49_8;0;0.05
I_8_3_S_1-49_9;0;0.21
I_8_3_S_1-49_10;0;0.06
I_8_3_S_1-99_1;0;0.22
I_8_3_S_1-99_2;0;0.39
I_8_3_S_1-99_3;0;0.22
I_8_3_S_1-99_4;0;0.23
I_8_3_S_1-99_5;0;0.24
I_8_3_S_1-99_6;0;0.02
I_8_3_S_1-99_7;0;0.05
I_8_3_S_1-99_8;0;0.05
I_8_3_S_1-99_9;0;0.15
I_8_3_S_1-99_10;0;0.19
I_8_3_S_1-124_1;0;0.33
I_8_3_S_1-124_2;0;0.29
I_8_3_S_1-124_3;0;0.04
I_8_3_S_1-124_4;0;0.32
I_8_3_S_1-124_5;0;0.11
I_8_3_S_1-124_6;0;0.27
I_8_3_S_1-124_7;0;0.25
I_8_3_S_1-124_8;0;0.2
I_8_3_S_1-124_9;0;0.07
I_8_3_S_1-124_10;0;0.07
I_8_4_S_1-9_1;0;0.07
I_8_4_S_1-9_2;0;0.04
I_8_4_S_1-9_3;0;0.11
I_8_4_S_1-9_4;0;0.04
I_8_4_S_1-9_5;0;0.02
I_8_4_S_1-9_6;0;0.01
I_8_4_S_1-9_7;0;0.1
I_8_4_S_1-9_8;0;0.02
I_8_4_S_1-9_9;0;0.12
I_8_4_S_1-9_10;0;0.04
I_8_4_S_1-49_1;0;0.14
I_8_4_S_1-49_2;0;0.27
I_8_4_S_1-49_3;0;0.13
I_8_4_S_1-49_4;0;0.06
I_8_4_S_1-49_5;0;0.13
I_8_4_S_1-49_6;0;0.16
I_8_4_S_1-49_7;0;0.07
I_8_4_S_1-49_8;0;0.03
I_8_4_S_1-49_9;0;0.05
I_8_4_S_1-49_10;0;0.09
I_8_4_S_1-99_1;0;0.04
I_8_4_S_1-99_2;0;0.11
I_8_4_S_1-99_3;0;0.08
I_8_4_S_1-99_4;0;0.03
I_8_4_S_1-99_5;0;0.08
I_8_4_S_1-99_6;0;0.18
I_8_4_S_1-99_7;0;0.11
I_8_4_S_1-99_8;0;0.08
I_8_4_S_1-99_9;0;0.09
I_8_4_S_1-99_10;0;0.03
I_8_4_S_1-124_1;0;0.12
I_8_4_S_1-124_2;0;0.06
I_8_4_S_1-124_3;0;0.18
I_8_4_S_1-124_4;0;0.03
I_8_4_S_1-124_5;0;0.03
I_8_4_S_1-124_6;0;0.11
I_8_4_S_1-124_7;0;0.08
I_8_4_S_1-124_8;0;0.11
I_8_4_S_1-124_9;0;0.04
I_8_4_S_1-124_10;0;0.2
I_8_5_S_1-9_1;0;0.02
I_8_5_S_1-9_2;0;0.03
I_8_5_S_1-9_3;0;0.03
I_8_5_S_1-9_4;0;0.02
I_8_5_S_1-9_5;0;0.03
I_8_5_S_1-9_6;0;0.02
I_8_5_S_1-9_7;0;0.01
I_8_5_S_1-9_8;0;0.04
I_8_5_S_1-9_9;0;0.03
I_8_5_S_1-9_10;0;0.04
I_8_5_S_1-49_1;0;0.09
I_8_5_S_1-49_2;0;0.03
I_8_5_S_1-49_3;0;0.03
I_8_5_S_1-49_4;0;0.03
I_8_5_S_1-49_5;0;0.02
I_8_5_S_1-49_6;0;0.02
I_8_5_S_1-49_7;0;0.02
I_8_5_S_1-49_8;0;0.03
I_8_5_S_1-49_9;0;0.04
I_8_5_S_1-49_10;0;0.03
I_8_5_S_1-99_1;0;0.04
I_8_5_S_1-99_2;0;0.03
I_8_5_S_1-99_3;0;0.05
I_8_5_S_1-99_4;0;0.03
I_8_5_S_1-99_5;0;0.09
I_8_5_S_1-99_6;0;0.04
I_8_5_S_1-99_7;0;0.1
I_8_5_S_1-99_8;0;0.03
I_8_5_S_1-99_9;0;0.05
I_8_5_S_1-99_10;0;0.02
I_8_5_S_1-124_1;0;0.02
I_8_5_S_1-124_2;0;0.02
I_8_5_S_1-124_3;0;0.03
I_8_5_S_1-124_4;0;0.04
I_8_5_S_1-124_5;0;0.05
I_8_5_S_1-124_6;0;0.06
I_8_5_S_1-124_7;0;0.04
I_8_5_S_1-124_8;0;0.03
I_8_5_S_1-124_9;0;0.04
I_8_5_S_1-124_10;0;0.09
I_10_2_S_1-9_1;0;0.42
I_10_2_S_1-9_2;0;0.17
I_10_2_S_1-9_3;0;0.12
I_10_2_S_1-9_4;0;0.08
I_10_2_S_1-9_5;0;0.06
I_10_2_S_1-9_6;0;0.04
I_10_2_S_1-9_7;0;0.08
I_10_2_S_1-9_8;0;0.33
I_10_2_S_1-9_9;0;0.21
I_10_2_S_1-9_10;0;0.04
I_10_2_S_1-49_1;0;0.04
I_10_2_S_1-49_2;0;0.28
I_10_2_S_1-49_3;0;0.41
I_10_2_S_1-49_4;0;0.07
I_10_2_S_1-49_5;0;0.05
I_10_2_S_1-49_6;0;0.5
I_10_2_S_1-49_7;0;0.09
I_10_2_S_1-49_8;0;0.31
I_10_2_S_1-49_9;0;0.39
I_10_2_S_1-49_10;0;0.58
I_10_2_S_1-99_1;0;0.19
I_10_2_S_1-99_2;0;0.2
I_10_2_S_1-99_3;0;0.46
I_10_2_S_1-99_4;0;0.1
I_10_2_S_1-99_5;0;0.1
I_10_2_S_1-99_6;0;0.34
I_10_2_S_1-99_7;0;0.35
I_10_2_S_1-99_8;0;0.64
I_10_2_S_1-99_9;0;0.14
I_10_2_S_1-99_10;0;0.33
I_10_2_S_1-124_1;0;0.34
I_10_2_S_1-124_2;0;0.39
I_10_2_S_1-124_3;0;0.23
I_10_2_S_1-124_4;0;0.39
I_10_2_S_1-124_5;0;0.3
I_10_2_S_1-124_6;0;0.23
I_10_2_S_1-124_7;0;0.18
I_10_2_S_1-124_8;0;0.5
I_10_2_S_1-124_9;0;0.2
I_10_2_S_1-124_10;0;0.54
I_10_3_S_1-9_1;0;0.22
I_10_3_S_1-9_2;0;0.17
I_10_3_S_1-9_3;0;0.41
I_10_3_S_1-9_4;0;0.05
I_10_3_S_1-9_5;0;0.1
I_10_3_S_1-9_6;0;0.43
I_10_3_S_1-9_7;0;0.13
I_10_3_S_1-9_8;0;0.08
I_10_3_S_1-9_9;0;0.25
I_10_3_S_1-9_10;0;0.16
I_10_3_S_1-49_1;0;0.22
I_10_3_S_1-49_2;0;0.28
I_10_3_S_1-49_3;0;0.62
I_10_3_S_1-49_4;0;0.14
I_10_3_S_1-49_5;0;0.74
I_10_3_S_1-49_6;0;0.13
I_10_3_S_1-49_7;0;0.08
I_10_3_S_1-49_8;0;0.15
I_10_3_S_1-49_9;0;0.14
I_10_3_S_1-49_10;0;0.08
I_10_3_S_1-99_1;0;0.53
I_10_3_S_1-99_2;0;0.2
I_10_3_S_1-99_3;0;0.9
I_10_3_S_1-99_4;0;0.79
I_10_3_S_1-99_5;0;0.39
I_10_3_S_1-99_6;0;0.64
I_10_3_S_1-99_7;0;0.46
I_10_3_S_1-99_8;0;0.64
I_10_3_S_1-99_9;0;0.15
I_10_3_S_1-99_10;0;0.47
I_10_3_S_1-124_1;0;0.33
I_10_3_S_1-124_2;0.01;0.59
I_10_3_S_1-124_3;0;0.09
I_10_3_S_1-124_4;0;0.57
I_10_3_S_1-124_5;0;0.56
I_10_3_S_1-124_6;0;0.57
I_10_3_S_1-124_7;0;0.75
I_10_3_S_1-124_8;0;0.62
I_10_3_S_1-124_9;0;0.86
I_10_3_S_1-124_10;0;0.54
I_10_4_S_1-9_1;0;0.05
I_10_4_S_1-9_2;0;0.12
I_10_4_S_1-9_3;0;0.58
I_10_4_S_1-9_4;0;0.09
I_10_4_S_1-9_5;0;0.07
I_10_4_S_1-9_6;0;0.13
I_10_4_S_1-9_7;0;0.35
I_10_4_S_1-9_8;0;0.07
I_10_4_S_1-9_9;0;0.43
I_10_4_S_1-9_10;0;0.67
I_10_4_S_1-49_1;0;0.08
I_10_4_S_1-49_2;0;0.31
I_10_4_S_1-49_3;0;0.09
I_10_4_S_1-49_4;0;0.16
I_10_4_S_1-49_5;0;0.18
I_10_4_S_1-49_6;0;0.11
I_10_4_S_1-49_7;0;0.67
I_10_4_S_1-49_8;0;0.46
I_10_4_S_1-49_9;0;0.09
I_10_4_S_1-49_10;0;0.14
I_10_4_S_1-99_1;0;0.65
I_10_4_S_1-99_2;0;0.31
I_10_4_S_1-99_3;0;0.57
I_10_4_S_1-99_4;0;0.57
I_10_4_S_1-99_5;0;0.82
I_10_4_S_1-99_6;0;0.09
I_10_4_S_1-99_7;0;0.22
I_10_4_S_1-99_8;0;0.35
I_10_4_S_1-99_9;0;0.51
I_10_4_S_1-99_10;0;0.51
I_10_4_S_1-124_1;0;0.43
I_10_4_S_1-124_2;0;0.39
I_10_4_S_1-124_3;0;0.78
I_10_4_S_1-124_4;0;0.11
I_10_4_S_1-124_5;0;1.75
I_10_4_S_1-124_6;0;0.63
I_10_4_S_1-124_7;0;0.46
I_10_4_S_1-124_8;0;0.71
I_10_4_S_1-124_9;0;0.59
I_10_4_S_1-124_10;0;0.82
I_10_5_S_1-9_1;0;0.03
I_10_5_S_1-9_2;0;0.36
I_10_5_S_1-9_3;0;0.03
I_10_5_S_1-9_4;0;0.19
I_10_5_S_1-9_5;0;0.03
I_10_5_S_1-9_6;0;0.06
I_10_5_S_1-9_7;0;0.15
I_10_5_S_1-9_8;0;0.09
I_10_5_S_1-9_9;0;0.06
I_10_5_S_1-9_10;0;0.06
I_10_5_S_1-49_1;0;0.19
I_10_5_S_1-49_2;0;0.07
I_10_5_S_1-49_3;0;0.08
I_10_5_S_1-49_4;0;0.33
I_10_5_S_1-49_5;0;0.09
I_10_5_S_1-49_6;0;0.07
I_10_5_S_1-49_7;0;0.16
I_10_5_S_1-49_8;0;0.34
I_10_5_S_1-49_9;0;0.24
I_10_5_S_1-49_10;0;0.35
I_10_5_S_1-99_1;0;0.1
I_10_5_S_1-99_2;0;0.24
I_10_5_S_1-99_3;0;0.11
I_10_5_S_1-99_4;0;0.48
I_10_5_S_1-99_5;0;0.09
I_10_5_S_1-99_6;0;0.66
I_10_5_S_1-99_7;0;0.1
I_10_5_S_1-99_8;0;0.81
I_10_5_S_1-99_9;0;0.24
I_10_5_S_1-99_10;0;0.23
I_10_5_S_1-124_1;0;0.26
I_10_5_S_1-124_2;0;0.09
I_10_5_S_1-124_3;0;0.18
I_10_5_S_1-124_4;0;0.4
I_10_5_S_1-124_5;0;0.27
I_10_5_S_1-124_6;0;0.24
I_10_5_S_1-124_7;0;0.07
I_10_5_S_1-124_8;0;0.1
I_10_5_S_1-124_9;0;0.36
I_10_5_S_1-124_10;0;0.05
I_12_2_S_1-9_1;0;0.39
I_12_2_S_1-9_2;0;0.21
I_12_2_S_1-9_3;0;0.16
I_12_2_S_1-9_4;0;0.6
I_12_2_S_1-9_5;0;0.5
I_12_2_S_1-9_6;0;0.3
I_12_2_S_1-9_7;0;0.1
I_12_2_S_1-9_8;0;0.06
I_12_2_S_1-9_9;0;0.29
I_12_2_S_1-9_10;0;1.05
I_12_2_S_1-49_1;0;0.34
I_12_2_S_1-49_2;0;0.54
I_12_2_S_1-49_3;0;0.61
I_12_2_S_1-49_4;0;0.62
I_12_2_S_1-49_5;0;0.47
I_12_2_S_1-49_6;0;0.11
I_12_2_S_1-49_7;0;0.96
I_12_2_S_1-49_8;0;0.48
I_12_2_S_1-49_9;0;0.49
I_12_2_S_1-49_10;0;0.19
I_12_2_S_1-99_1;0;0.48
I_12_2_S_1-99_2;0;0.36
I_12_2_S_1-99_3;0;0.21
I_12_2_S_1-99_4;0;0.37
I_12_2_S_1-99_5;0;0.21
I_12_2_S_1-99_6;0;0.4
I_12_2_S_1-99_7;0;0.34
I_12_2_S_1-99_8;0;0.32
I_12_2_S_1-99_9;0;0.36
I_12_2_S_1-99_10;0;0.07
I_12_2_S_1-124_1;0;0.37
I_12_2_S_1-124_2;0;0.15
I_12_2_S_1-124_3;0;0.36
I_12_2_S_1-124_4;0;1.07
I_12_2_S_1-124_5;0;0.34
I_12_2_S_1-124_6;0;0.58
I_12_2_S_1-124_7;0;0.68
I_12_2_S_1-124_8;0;0.62
I_12_2_S_1-124_9;0;0.55
I_12_2_S_1-124_10;0;0.41
I_12_3_S_1-9_1;0;0.34
I_12_3_S_1-9_2;0;0.32
I_12_3_S_1-9_3;0;0.71
I_12_3_S_1-9_4;0;0.12
I_12_3_S_1-9_5;0;0.11
I_12_3_S_1-9_6;0;0.14
I_12_3_S_1-9_7;0;0.28
I_12_3_S_1-9_8;0;0.12
I_12_3_S_1-9_9;0;0.11
I_12_3_S_1-9_10;0;0.09
I_12_3_S_1-49_1;0;0.16
I_12_3_S_1-49_2;0;0.85
I_12_3_S_1-49_3;0;0.84
I_12_3_S_1-49_4;0;0.57
I_12_3_S_1-49_5;0;0.1
I_12_3_S_1-49_6;0;0.52
I_12_3_S_1-49_7;0;0.12
I_12_3_S_1-49_8;0;0.64
I_12_3_S_1-49_9;0;1
I_12_3_S_1-49_10;0;1.01
I_12_3_S_1-99_1;0;0.57
I_12_3_S_1-99_2;0;0.68
I_12_3_S_1-99_3;0;0.27
I_12_3_S_1-99_4;0;0.46
I_12_3_S_1-99_5;0;0.21
I_12_3_S_1-99_6;0;2.58
I_12_3_S_1-99_7;0;0.95
I_12_3_S_1-99_8;0;1.22
I_12_3_S_1-99_9;0;1.26
I_12_3_S_1-99_10;0;0.76
I_12_3_S_1-124_1;0;1.72
I_12_3_S_1-124_2;0;1.22
I_12_3_S_1-124_3;0;0.79
I_12_3_S_1-124_4;0;0.44
I_12_3_S_1-124_5;0;1.44
I_12_3_S_1-124_6;0;0.69
I_12_3_S_1-124_7;0;1.11
I_12_3_S_1-124_8;0;1.34
I_12_3_S_1-124_9;0;1.14
I_12_3_S_1-124_10;0;0.96
I_12_4_S_1-9_1;0;0.63
I_12_4_S_1-9_2;0;0.12
I_12_4_S_1-9_3;0;1.87
I_12_4_S_1-9_4;0;0.15
I_12_4_S_1-9_5;0;0.13
I_12_4_S_1-9_6;0;0.23
I_12_4_S_1-9_7;0;0.84
I_12_4_S_1-9_8;0;0.25
I_12_4_S_1-9_9;0;0.11
I_12_4_S_1-9_10;0;0.83
I_12_4_S_1-49_1;0;1.21
I_12_4_S_1-49_2;0;0.42
I_12_4_S_1-49_3;0;0.14
I_12_4_S_1-49_4;0;1.45
I_12_4_S_1-49_5;0;0.44
I_12_4_S_1-49_6;0;1.38
I_12_4_S_1-49_7;0;0.16
I_12_4_S_1-49_8;0;1.29
I_12_4_S_1-49_9;0;2.24
I_12_4_S_1-49_10;0;1.71
I_12_4_S_1-99_1;0;0.93
I_12_4_S_1-99_2;0;0.87
I_12_4_S_1-99_3;0;2.13
I_12_4_S_1-99_4;0;1.2
I_12_4_S_1-99_5;0.01;6.6
I_12_4_S_1-99_6;0;0.71
I_12_4_S_1-99_7;0.01;3.21
I_12_4_S_1-99_8;0;1.34
I_12_4_S_1-99_9;0;1.35
I_12_4_S_1-99_10;0;0.62
I_12_4_S_1-124_1;0;0.97
I_12_4_S_1-124_2;0;0.63
I_12_4_S_1-124_3;0;0.58
I_12_4_S_1-124_4;0;1.69
I_12_4_S_1-124_5;0;1.32
I_12_4_S_1-124_6;0;0.69
I_12_4_S_1-124_7;0;1.23
I_12_4_S_1-124_8;0;0.62
I_12_4_S_1-124_9;0;1.38
I_12_4_S_1-124_10;0;1.11
I_12_5_S_1-9_1;0;1.98
I_12_5_S_1-9_2;0;0.33
I_12_5_S_1-9_3;0;0.07
I_12_5_S_1-9_4;0;0.15
I_12_5_S_1-9_5;0;0.64
I_12_5_S_1-9_6;0;0.05
I_12_5_S_1-9_7;0;1.12
I_12_5_S_1-9_8;0;0.13
I_12_5_S_1-9_9;0;0.09
I_12_5_S_1-9_10;0;1.06
I_12_5_S_1-49_1;0;0.33
I_12_5_S_1-49_2;0;0.72
I_12_5_S_1-49_3;0;0.8
I_12_5_S_1-49_4;0;0.42
I_12_5_S_1-49_5;0;1.58
I_12_5_S_1-49_6;0;0.74
I_12_5_S_1-49_7;0;1.47
I_12_5_S_1-49_8;0;0.51
I_12_5_S_1-49_9;0;0.29
I_12_5_S_1-49_10;0;0.15
I_12_5_S_1-99_1;0;0.08
I_12_5_S_1-99_2;0;0.05
I_12_5_S_1-99_3;0;0.64
I_12_5_S_1-99_4;0;0.44
I_12_5_S_1-99_5;0;0.57
I_12_5_S_1-99_6;0;2
I_12_5_S_1-99_7;0;1.37
I_12_5_S_1-99_8;0;0.35
I_12_5_S_1-99_9;0;2.27
I_12_5_S_1-99_10;0;2.29
I_12_5_S_1-124_1;0;0.54
I_12_5_S_1-124_2;0;0.2
I_12_5_S_1-124_3;0;1.38
I_12_5_S_1-124_4;0;0.94
I_12_5_S_1-124_5;0;0.76
I_12_5_S_1-124_6;0;0.65
I_12_5_S_1-124_7;0;0.25
I_12_5_S_1-124_8;0;0.28
I_12_5_S_1-124_9;0;0.15
I_12_5_S_1-124_10;0;0.28
