30
6 104 77 126 28 63 40
7 24 140 14 11 134 73 42
8 138 108 183 103 94 157 5 172
6 185 117 60 36 154 102
5 88 150 128 169 49
7 114 59 6 53 130 17 136
6 33 181 27 127 143 58
6 182 196 81 55 147 47
6 122 111 195 100 96 161
6 142 148 192 165 170 46
5 156 109 113 19 16
7 95 57 98 179 199 141 26
8 83 107 2 30 32 21 91 54
8 145 64 112 160 23 159 50 68
7 106 9 189 61 12 135 146
7 31 0 131 164 76 89 153
6 177 92 41 121 124 20
7 115 70 119 152 118 4 166
8 22 86 171 15 51 167 180 123
6 74 62 25 72 144 38
9 190 39 158 187 163 139 84 99 151
7 71 129 176 194 186 65 43
7 101 174 3 149 125 66 44
6 69 193 34 85 8 93
8 79 133 29 35 45 75 10 1
5 52 110 56 173 82
7 191 18 132 67 80 197 37
8 13 178 97 78 7 188 90 198
5 116 168 137 184 48
6 155 175 120 105 87 162

Total makespan: 80

