Instance....: instances/I_100_20_S_1-124_6.txt
Algorithm...: Simulated Annealing (alpha=0.990, saMax=10M, t0=1)
Other params: maxIters=100M, seed=4, timeLimit=360.00s

    /--------------------------------------------------------\
    |     Iter |   RDP(%) |       S* |       S' |       Time | 
    |----------|----------|----------|----------|------------|
    |        0 |        - |     1169 |     1169 |       0.00 | s0
    |        0 |        - |     1136 |     1136 |       0.00 | *
    |        2 |        - |      997 |      997 |       0.00 | *
    |        3 |        - |      962 |      962 |       0.01 | *
    |        6 |        - |      934 |      934 |       0.02 | *
    |        8 |        - |      926 |      926 |       0.03 | *
    |       19 |        - |      910 |      910 |       0.03 | *
    |       21 |        - |      905 |      905 |       0.03 | *
    |       23 |        - |      893 |      893 |       0.03 | *
    |       26 |        - |      868 |      868 |       0.03 | *
    |       28 |        - |      857 |      857 |       0.03 | *
    |       30 |        - |      835 |      835 |       0.03 | *
    |       43 |        - |      811 |      811 |       0.03 | *
    |       65 |        - |      768 |      768 |       0.04 | *
    |       66 |        - |      761 |      761 |       0.04 | *
    |       69 |        - |      749 |      749 |       0.04 | *
    |       71 |        - |      745 |      745 |       0.04 | *
    |       74 |        - |      735 |      735 |       0.04 | *
    |       75 |        - |      708 |      708 |       0.04 | *
    |       82 |        - |      706 |      706 |       0.04 | *
    |       88 |        - |      693 |      693 |       0.04 | *
    |       96 |        - |      667 |      667 |       0.04 | *
    |      108 |        - |      655 |      655 |       0.04 | *
    |      113 |        - |      640 |      640 |       0.04 | *
    |      130 |        - |      629 |      629 |       0.04 | *
    |      132 |        - |      621 |      621 |       0.04 | *
    |      134 |        - |      612 |      612 |       0.04 | *
    |      139 |        - |      602 |      602 |       0.04 | *
    |      145 |        - |      594 |      594 |       0.04 | *
    |      146 |        - |      589 |      589 |       0.04 | *
    |      149 |        - |      588 |      588 |       0.04 | *
    |      150 |        - |      579 |      579 |       0.04 | *
    |      151 |        - |      574 |      574 |       0.04 | *
    |      156 |        - |      571 |      571 |       0.04 | *
    |      157 |        - |      556 |      556 |       0.04 | *
    |      175 |        - |      551 |      551 |       0.04 | *
    |      184 |        - |      528 |      528 |       0.05 | *
    |      186 |        - |      518 |      518 |       0.05 | *
    |      206 |        - |      508 |      508 |       0.05 | *
    |      220 |        - |      507 |      507 |       0.05 | *
    |      265 |        - |      504 |      504 |       0.05 | *
    |      274 |        - |      492 |      492 |       0.05 | *
    |      282 |        - |      489 |      489 |       0.05 | *
    |      284 |        - |      486 |      486 |       0.05 | *
    |      294 |        - |      484 |      484 |       0.05 | *
    |      302 |        - |      481 |      481 |       0.05 | *
    |      303 |        - |      477 |      477 |       0.05 | *
    |      309 |        - |      464 |      464 |       0.05 | *
    |      335 |        - |      462 |      462 |       0.05 | *
    |      350 |        - |      460 |      460 |       0.05 | *
    |      354 |        - |      456 |      456 |       0.05 | *
    |      356 |        - |      455 |      455 |       0.05 | *
    |      367 |        - |      451 |      451 |       0.05 | *
    |      376 |        - |      449 |      449 |       0.05 | *
    |      377 |        - |      446 |      446 |       0.05 | *
    |      392 |        - |      445 |      445 |       0.05 | *
    |      405 |        - |      441 |      441 |       0.05 | *
    |      420 |        - |      437 |      437 |       0.05 | *
    |      426 |        - |      436 |      436 |       0.05 | *
    |      439 |        - |      429 |      429 |       0.06 | *
    |      454 |        - |      426 |      426 |       0.06 | *
    |      465 |        - |      422 |      422 |       0.06 | *
    |      469 |        - |      417 |      417 |       0.06 | *
    |      487 |        - |      412 |      412 |       0.06 | *
    |      489 |        - |      410 |      410 |       0.06 | *
    |      504 |        - |      409 |      409 |       0.06 | *
    |      506 |        - |      400 |      400 |       0.06 | *
    |      521 |        - |      399 |      399 |       0.06 | *
    |      578 |        - |      398 |      398 |       0.06 | *
    |      587 |        - |      389 |      389 |       0.06 | *
    |      598 |        - |      382 |      382 |       0.06 | *
    |      609 |        - |      381 |      381 |       0.06 | *
    |      613 |        - |      380 |      380 |       0.06 | *
    |      617 |        - |      378 |      378 |       0.06 | *
    |      637 |        - |      375 |      375 |       0.06 | *
    |      666 |        - |      368 |      368 |       0.06 | *
    |      700 |        - |      364 |      364 |       0.06 | *
    |      702 |        - |      363 |      363 |       0.06 | *
    |      705 |        - |      361 |      361 |       0.06 | *
    |      707 |        - |      360 |      360 |       0.06 | *
    |      708 |        - |      358 |      358 |       0.06 | *
    |      721 |        - |      355 |      355 |       0.06 | *
    |      727 |        - |      352 |      352 |       0.06 | *
    |      748 |        - |      340 |      340 |       0.06 | *
    |      753 |        - |      339 |      339 |       0.06 | *
    |      754 |        - |      336 |      336 |       0.06 | *
    |      757 |        - |      331 |      331 |       0.06 | *
    |      760 |        - |      329 |      329 |       0.06 | *
    |      762 |        - |      326 |      326 |       0.06 | *
    |      878 |        - |      324 |      324 |       0.07 | *
    |      880 |        - |      323 |      323 |       0.07 | *
    |      922 |        - |      321 |      321 |       0.07 | *
    |      925 |        - |      320 |      320 |       0.07 | *
    |      928 |        - |      319 |      319 |       0.07 | *
    |      942 |        - |      315 |      315 |       0.07 | *
    |      944 |        - |      312 |      312 |       0.07 | *
    |      949 |        - |      307 |      307 |       0.07 | *
    |     1000 |        - |      305 |      305 |       0.07 | *
    |     1001 |        - |      300 |      300 |       0.07 | *
    |     1007 |        - |      299 |      299 |       0.07 | *
    |     1063 |        - |      298 |      298 |       0.07 | *
    |     1095 |        - |      294 |      294 |       0.07 | *
    |     1102 |        - |      292 |      292 |       0.07 | *
    |     1109 |        - |      285 |      285 |       0.07 | *
    |     1117 |        - |      279 |      279 |       0.07 | *
    |     1200 |        - |      278 |      278 |       0.07 | *
    |     1354 |        - |      277 |      277 |       0.07 | *
    |     1529 |        - |      275 |      275 |       0.07 | *
    |     1533 |        - |      270 |      270 |       0.07 | *
    |     1544 |        - |      269 |      269 |       0.07 | *
    |     1615 |        - |      267 |      267 |       0.07 | *
    |     1620 |        - |      266 |      266 |       0.08 | *
    |     1763 |        - |      265 |      265 |       0.08 | *
    |     1776 |        - |      264 |      264 |       0.08 | *
    |     1795 |        - |      263 |      263 |       0.08 | *
    |     1803 |        - |      261 |      261 |       0.08 | *
    |     1864 |        - |      260 |      260 |       0.08 | *
    |     1877 |        - |      258 |      258 |       0.08 | *
    |     1910 |        - |      256 |      256 |       0.08 | *
    |     1957 |        - |      246 |      246 |       0.08 | *
    |     1965 |        - |      245 |      245 |       0.08 | *
    |     1969 |        - |      242 |      242 |       0.08 | *
    |     1984 |        - |      240 |      240 |       0.08 | *
    |     2055 |        - |      239 |      239 |       0.08 | *
    |     2159 |        - |      238 |      238 |       0.08 | *
    |     2275 |        - |      234 |      234 |       0.08 | *
    |     2281 |        - |      233 |      233 |       0.08 | *
    |     2407 |        - |      230 |      230 |       0.08 | *
    |     2418 |        - |      229 |      229 |       0.08 | *
    |     2420 |        - |      228 |      228 |       0.08 | *
    |     2459 |        - |      227 |      227 |       0.08 | *
    |     2482 |        - |      225 |      225 |       0.09 | *
    |     2746 |        - |      223 |      223 |       0.09 | *
    |     2801 |        - |      221 |      221 |       0.09 | *
    |     2823 |        - |      218 |      218 |       0.09 | *
    |     2846 |        - |      216 |      216 |       0.09 | *
    |     2938 |        - |      214 |      214 |       0.09 | *
    |     2941 |        - |      212 |      212 |       0.09 | *
    |     3365 |        - |      210 |      210 |       0.09 | *
    |     3381 |        - |      209 |      209 |       0.09 | *
    |     3398 |        - |      208 |      208 |       0.09 | *
    |     4122 |        - |      207 |      207 |       0.09 | *
    |     4133 |        - |      206 |      206 |       0.09 | *
    |     4157 |        - |      205 |      205 |       0.09 | *
    |     4866 |        - |      204 |      204 |       0.09 | *
    |     4874 |        - |      201 |      201 |       0.09 | *
    |     4886 |        - |      200 |      200 |       0.10 | *
    |     5232 |        - |      199 |      199 |       0.10 | *
    |     5237 |        - |      197 |      197 |       0.10 | *
    |     5238 |        - |      196 |      196 |       0.10 | *
    |     6016 |        - |      195 |      195 |       0.10 | *
    |     7544 |        - |      194 |      194 |       0.10 | *
    |     7574 |        - |      193 |      193 |       0.10 | *
    |     8586 |        - |      192 |      192 |       0.11 | *
    |     8630 |        - |      191 |      191 |       0.11 | *
    |     8752 |        - |      190 |      190 |       0.11 | *
    |     9020 |        - |      189 |      189 |       0.11 | *
    |     9461 |        - |      187 |      187 |       0.11 | *
    |     9671 |        - |      186 |      186 |       0.11 | *
    |     9696 |        - |      185 |      185 |       0.11 | *
    |     9973 |        - |      184 |      184 |       0.11 | *
    |     9990 |        - |      183 |      183 |       0.11 | *
    |      10K |        - |      182 |      182 |       0.11 | *
    |      10K |        - |      181 |      181 |       0.11 | *
    |      11K |        - |      176 |      176 |       0.11 | *
    |      11K |        - |      175 |      175 |       0.11 | *
    |      13K |        - |      174 |      174 |       0.11 | *
    |      13K |        - |      172 |      172 |       0.12 | *
    |      13K |        - |      171 |      171 |       0.12 | *
    |      13K |        - |      170 |      170 |       0.12 | *
    |      14K |        - |      168 |      168 |       0.12 | *
    |      14K |        - |      165 |      165 |       0.12 | *
    |      14K |        - |      163 |      163 |       0.12 | *
    |      16K |        - |      162 |      162 |       0.12 | *
    |      17K |        - |      161 |      161 |       0.12 | *
    |      18K |        - |      158 |      158 |       0.13 | *
    |      19K |        - |      156 |      156 |       0.13 | *
    |      20K |        - |      155 |      155 |       0.13 | *
    |      20K |        - |      153 |      153 |       0.13 | *
    |      22K |        - |      150 |      150 |       0.14 | *
    |      22K |        - |      149 |      149 |       0.14 | *
    |      25K |        - |      147 |      147 |       0.14 | *
    |      25K |        - |      145 |      145 |       0.14 | *
    |      29K |        - |      144 |      144 |       0.15 | *
    |      29K |        - |      143 |      143 |       0.15 | *
    |      29K |        - |      141 |      141 |       0.15 | *
    |      29K |        - |      140 |      140 |       0.15 | *
    |      30K |        - |      139 |      139 |       0.15 | *
    |      36K |        - |      138 |      138 |       0.17 | *
    |      36K |        - |      137 |      137 |       0.18 | *
    |      37K |        - |      135 |      135 |       0.18 | *
    |      37K |        - |      134 |      134 |       0.18 | *
    |      38K |        - |      133 |      133 |       0.18 | *
    |      46K |        - |      132 |      132 |       0.21 | *
    |      51K |        - |      131 |      131 |       0.22 | *
    |      51K |        - |      130 |      130 |       0.22 | *
    |      56K |        - |      129 |      129 |       0.23 | *
    |      57K |        - |      128 |      128 |       0.23 | *
    |      71K |        - |      127 |      127 |       0.25 | *
    |      72K |        - |      126 |      126 |       0.26 | *
    |      74K |        - |      125 |      125 |       0.26 | *
    |      75K |        - |      123 |      123 |       0.26 | *
    |      75K |        - |      122 |      122 |       0.26 | *
    |      81K |        - |      121 |      121 |       0.27 | *
    |      85K |        - |      119 |      119 |       0.28 | *
    |      85K |        - |      118 |      118 |       0.28 | *
    |      88K |        - |      117 |      117 |       0.29 | *
    |      88K |        - |      116 |      116 |       0.29 | *
    |      90K |        - |      114 |      114 |       0.29 | *
    |      91K |        - |      113 |      113 |       0.30 | *
    |     100K |        - |      112 |      112 |       0.31 | *
    |     100K |        - |      111 |      111 |       0.31 | *
    |     101K |        - |      110 |      110 |       0.31 | *
    |     102K |        - |      109 |      109 |       0.31 | *
    |     107K |        - |      108 |      108 |       0.32 | *
    |     139K |        - |      107 |      107 |       0.39 | *
    |     192K |        - |      106 |      106 |       0.48 | *
    |     192K |        - |      105 |      105 |       0.48 | *
    |     263K |        - |      104 |      104 |       0.57 | *
    |     329K |        - |      103 |      103 |       0.65 | *
    |     333K |        - |      102 |      102 |       0.65 | *
    |     333K |        - |      101 |      101 |       0.65 | *
    |     333K |        - |      100 |      100 |       0.65 | *
    |     334K |        - |       99 |       99 |       0.65 | *
    |     338K |        - |       97 |       97 |       0.66 | *
    |     400K |        - |       96 |       96 |       0.73 | *
    |     476K |        - |       95 |       95 |       0.84 | *
    |     549K |        - |       94 |       94 |       0.93 | *
    |     916K |        - |       93 |       93 |       1.38 | *
    |    1161K |        - |       92 |       92 |       1.69 | *
    |    1162K |        - |       91 |       91 |       1.69 | *
    |    1213K |        - |       90 |       90 |       1.77 | *
    |    1213K |        - |       89 |       89 |       1.77 | *
    |    1685K |        - |       88 |       88 |       2.37 | *
    |    1766K |        - |       87 |       87 |       2.48 | *
    |    1789K |        - |       86 |       86 |       2.51 | *
    |    3762K |        - |       85 |       85 |       5.16 | *
    |    3763K |        - |       84 |       84 |       5.16 | *
    |    4516K |        - |       83 |       83 |       6.10 | *
    |      23M |        - |       82 |       82 |      29.94 | *
    |      25M |        - |       81 |       81 |      32.59 | *
    |      27M |        - |       80 |       80 |      34.55 | *
    |      30M |        - |       79 |       79 |      38.27 | *
    |      50M |        - |       78 |       78 |      64.69 | *
    |      50M |        - |       77 |       77 |      64.85 | *
    |      68M |        - |       76 |       76 |      87.86 | *
    \--------------------------------------------------------/

Neighborhoods statistics (values in %):

    /----------------------------------------------------------------\
    | Move               | Improvs. | Sideways |  Accepts |  Rejects |
    |--------------------|----------|----------|----------|----------|
    | Shift(mk)          |      13K |      18K |      34K |      12M |
    | Shift              |      698 |     196K |     209K |      11M |
    | ShiftSmart(mk)     |      43K |      59K |     111K |      12M |
    | ShiftSmart         |     2241 |     519K |     559K |      11M |
    | SimpSwap(mk)       |      146 |      125 |      309 |      12M |
    | SimpSwap           |       10 |     1051 |     1169 |      12M |
    | SimpSwapSmart(mk)  |      505 |      461 |     1142 |      12M |
    | SimpSwapSmart      |       46 |     3933 |     4361 |      12M |
    | Swap(mk)           |       58 |       33 |       97 |      12M |
    | Swap               |        3 |      411 |      455 |      12M |
    | SwapSmart(mk)      |      519 |      638 |     1320 |      12M |
    | SwapSmart          |       58 |     4178 |     4634 |      12M |
    | Switch(mk)         |     2104 |    2200K |    2203K |    9450K |
    | Switch             |      113 |    2561K |    2563K |    9090K |
    | SwitchSmart(mk)    |     6390 |      12K |      20K |      12M |
    | SwitchSmart        |      329 |     139K |     145K |      12M |
    | TaskMove(mk)       |      815 |      799 |     1906 |      12M |
    | TaskMove           |       57 |     3579 |     4121 |      12M |
    | TaskMoveSmart(mk)  |     3547 |     3631 |     8541 |      12M |
    | TaskMoveSmart      |      234 |      16K |      19K |      12M |
    | 2-Shift(mk)        |     8323 |     571K |     581K |      11M |
    | 2-Shift            |      412 |     939K |     947K |      11M |
    | 2-ShiftSmart(mk)   |      20K |     915K |     939K |      11M |
    | 2-ShiftSmart       |      996 |    1525K |    1537K |      10M |
    \----------------------------------------------------------------/

Best makespan.....: 76
N. of Iterations..: 279667282
Total runtime.....: 360.01s
Academic license - for non-commercial use only
Academic license - for non-commercial use only
Academic license - for non-commercial use only
Academic license - for non-commercial use only
Academic license - for non-commercial use only
Academic license - for non-commercial use only
Academic license - for non-commercial use only
Academic license - for non-commercial use only
Academic license - for non-commercial use only
Academic license - for non-commercial use only
Academic license - for non-commercial use only
Academic license - for non-commercial use only
Academic license - for non-commercial use only
Academic license - for non-commercial use only
Academic license - for non-commercial use only
Academic license - for non-commercial use only
Academic license - for non-commercial use only
Academic license - for non-commercial use only
Academic license - for non-commercial use only
Academic license - for non-commercial use only
Academic license - for non-commercial use only
Academic license - for non-commercial use only
Academic license - for non-commercial use only
Academic license - for non-commercial use only
Academic license - for non-commercial use only
Academic license - for non-commercial use only
Academic license - for non-commercial use only
Academic license - for non-commercial use only
Academic license - for non-commercial use only
Academic license - for non-commercial use only
Academic license - for non-commercial use only
Academic license - for non-commercial use only
Academic license - for non-commercial use only
Academic license - for non-commercial use only
Academic license - for non-commercial use only
Academic license - for non-commercial use only
Academic license - for non-commercial use only
Academic license - for non-commercial use only
Academic license - for non-commercial use only
Academic license - for non-commercial use only
Academic license - for non-commercial use only
Academic license - for non-commercial use only
Academic license - for non-commercial use only
Academic license - for non-commercial use only
Academic license - for non-commercial use only
Academic license - for non-commercial use only
Academic license - for non-commercial use only
Academic license - for non-commercial use only
Academic license - for non-commercial use only
Academic license - for non-commercial use only
Academic license - for non-commercial use only
Academic license - for non-commercial use only
Academic license - for non-commercial use only
Academic license - for non-commercial use only
Academic license - for non-commercial use only
Academic license - for non-commercial use only
Academic license - for non-commercial use only
Academic license - for non-commercial use only
Academic license - for non-commercial use only
Academic license - for non-commercial use only
Academic license - for non-commercial use only
Academic license - for non-commercial use only
Academic license - for non-commercial use only
Academic license - for non-commercial use only
Academic license - for non-commercial use only
Academic license - for non-commercial use only
Academic license - for non-commercial use only
Academic license - for non-commercial use only
Academic license - for non-commercial use only
Academic license - for non-commercial use only
Academic license - for non-commercial use only
Academic license - for non-commercial use only
Academic license - for non-commercial use only
Academic license - for non-commercial use only
Academic license - for non-commercial use only
Academic license - for non-commercial use only
Academic license - for non-commercial use only
Academic license - for non-commercial use only
Academic license - for non-commercial use only
Academic license - for non-commercial use only
Academic license - for non-commercial use only
Academic license - for non-commercial use only
Academic license - for non-commercial use only
Academic license - for non-commercial use only
Academic license - for non-commercial use only
Academic license - for non-commercial use only
Academic license - for non-commercial use only
Academic license - for non-commercial use only
Academic license - for non-commercial use only
Academic license - for non-commercial use only
Academic license - for non-commercial use only
Academic license - for non-commercial use only
    /-------------------------------------------------------------------------------\
    |    Makespam   |   Free Jobs   | Free Machines |    It. Time   |   Total Time  | 
    |-------------------------------------------------------------------------------|
    |            76 |            33 |             7 |          1.78 |          2.47 | 
    |            76 |            39 |             9 |         22.01 |         24.60 | 
    |            76 |            31 |             7 |          0.76 |         25.42 | 
    |            76 |            37 |             8 |          0.78 |         26.30 | 
    |            76 |            44 |             9 |         22.01 |         48.48 | 
    |            76 |            35 |             7 |          1.08 |         49.63 | 
    |            76 |            42 |             9 |         11.32 |         61.11 | 
    |            76 |            50 |            10 |         22.02 |         83.32 | 
    |            76 |            40 |             9 |         22.01 |        105.46 | 
    |            76 |            32 |             8 |          3.22 |        108.77 | 
    |            76 |            38 |             7 |          3.03 |        111.90 | 
    |            76 |            45 |             9 |         17.06 |        129.14 | 
    |            76 |            54 |            11 |         22.01 |        151.32 | 
    |            76 |            43 |             9 |         18.04 |        169.50 | 
    |            76 |            51 |            11 |         22.01 |        191.78 | 
    |            76 |            40 |             9 |         22.00 |        213.90 | 
    |            76 |            32 |             7 |          2.34 |        216.29 | 
    |            76 |            38 |             8 |         13.94 |        230.36 | 
    |            76 |            45 |             9 |         13.51 |        244.09 | 
    |            76 |            54 |            11 |         22.01 |        266.33 | 
    |            76 |            43 |             9 |         22.00 |        288.45 | 
    |            76 |            34 |             8 |          4.12 |        292.66 | 
    |            76 |            40 |             9 |         22.00 |        314.82 | 
    |            76 |            32 |             7 |          1.99 |        316.86 | 
    |            76 |            38 |             8 |          4.17 |        321.18 | 
    |            76 |            45 |             9 |         22.01 |        343.34 | 
    |            76 |            36 |             8 |         22.00 |        365.43 | 
    |            76 |            28 |             6 |          0.08 |        365.56 | 
    |            76 |            33 |             7 |          1.10 |        366.74 | 
    |            76 |            39 |             8 |          2.01 |        368.95 | 
    |            76 |            46 |             9 |          2.33 |        371.40 | 
    |            76 |            55 |            11 |         22.01 |        393.57 | 
    |            76 |            44 |             9 |         22.00 |        415.69 | 
    |            76 |            35 |             8 |          2.62 |        418.42 | 
    |            76 |            42 |             8 |         11.03 |        429.53 | 
    |            76 |            50 |            10 |         22.00 |        451.82 | 
    |            76 |            40 |             7 |          1.50 |        453.37 | 
    |            76 |            48 |            10 |         22.01 |        475.51 | 
    |            76 |            38 |             8 |          4.79 |        480.46 | 
    |            76 |            45 |            10 |         22.04 |        502.69 | 
    |            76 |            36 |             8 |          2.08 |        504.87 | 
    |            76 |            43 |             9 |         22.00 |        527.02 | 
    |            76 |            34 |             7 |          2.35 |        529.44 | 
    |            76 |            40 |             9 |         22.00 |        551.63 | 
    |            76 |            32 |             5 |          0.11 |        551.77 | 
    |            76 |            38 |             7 |          2.82 |        554.67 | 
    |            76 |            45 |            10 |         22.01 |        576.82 | 
    |            76 |            36 |             7 |          5.66 |        582.60 | 
    |            76 |            43 |             8 |          3.27 |        585.92 | 
    |            76 |            51 |            11 |         22.01 |        608.08 | 
    |            76 |            40 |             9 |         22.00 |        630.22 | 
    |            76 |            32 |             6 |          0.78 |        631.03 | 
    |            76 |            38 |             8 |         22.00 |        653.16 | 
    |            76 |            30 |             7 |          0.14 |        653.33 | 
    |            76 |            36 |             8 |         11.70 |        665.15 | 
    |            76 |            43 |             9 |         22.00 |        687.27 | 
    |            76 |            34 |             7 |          5.09 |        692.40 | 
    |            76 |            40 |             8 |          2.65 |        695.11 | 
    |            76 |            48 |             9 |         22.01 |        717.19 | 
    |            76 |            38 |             8 |          9.99 |        727.25 | 
    |            76 |            45 |             8 |          4.68 |        732.01 | 
    |            76 |            54 |            12 |         22.01 |        754.23 | 
    |            76 |            43 |             9 |          8.52 |        762.90 | 
    |            76 |            51 |            11 |         22.01 |        785.10 | 
    |            76 |            40 |             9 |         22.00 |        807.20 | 
    |            76 |            32 |             6 |          0.23 |        807.47 | 
    |            76 |            38 |             8 |          1.83 |        809.44 | 
    |            76 |            45 |             9 |         22.01 |        831.60 | 
    |            76 |            36 |             8 |          6.13 |        837.87 | 
    |            76 |            43 |            10 |         22.00 |        859.95 | 
    |            76 |            34 |             8 |          1.20 |        861.26 | 
    |            76 |            40 |             9 |          7.94 |        869.32 | 
    |            76 |            48 |            10 |         22.00 |        891.42 | 
    |            76 |            38 |             8 |          4.08 |        895.55 | 
    |            76 |            45 |             9 |         22.00 |        917.68 | 
    |            76 |            36 |             7 |          1.05 |        918.76 | 
    |            76 |            43 |             9 |         22.00 |        940.94 | 
    |            76 |            34 |             6 |          0.13 |        941.11 | 
    |            76 |            40 |             8 |          5.04 |        946.25 | 
    |            76 |            48 |            10 |         22.00 |        968.39 | 
    |            76 |            38 |             8 |          2.56 |        971.01 | 
    |            76 |            45 |             9 |         22.00 |        993.12 | 
    |            76 |            36 |             7 |          6.90 |       1000.07 | 
    |            76 |            43 |             8 |          1.70 |       1001.83 | 
    |            76 |            51 |            11 |         22.00 |       1023.99 | 
    |            76 |            40 |             9 |         10.13 |       1034.19 | 
    |            76 |            48 |            11 |         22.00 |       1056.34 | 
    |            76 |            38 |             8 |          6.66 |       1063.10 | 
    |            76 |            45 |             9 |         22.00 |       1085.18 | 
    |            76 |            36 |             7 |          3.90 |       1089.16 | 
    |            76 |            43 |             8 |         22.00 |       1111.21 | 
    |            76 |            34 |             6 |          0.41 |       1111.65 | Academic license - for non-commercial use only
Academic license - for non-commercial use only
Academic license - for non-commercial use only
Academic license - for non-commercial use only
Academic license - for non-commercial use only
Academic license - for non-commercial use only
Academic license - for non-commercial use only
Academic license - for non-commercial use only
Academic license - for non-commercial use only
Academic license - for non-commercial use only
Academic license - for non-commercial use only
Academic license - for non-commercial use only
Academic license - for non-commercial use only
Academic license - for non-commercial use only
Academic license - for non-commercial use only
Academic license - for non-commercial use only
Academic license - for non-commercial use only
Academic license - for non-commercial use only
Academic license - for non-commercial use only
Academic license - for non-commercial use only
Academic license - for non-commercial use only
Academic license - for non-commercial use only
Academic license - for non-commercial use only
Academic license - for non-commercial use only
Academic license - for non-commercial use only
Academic license - for non-commercial use only
Academic license - for non-commercial use only
Academic license - for non-commercial use only
Academic license - for non-commercial use only
Academic license - for non-commercial use only
Academic license - for non-commercial use only
Academic license - for non-commercial use only
Academic license - for non-commercial use only
Academic license - for non-commercial use only
Academic license - for non-commercial use only
Academic license - for non-commercial use only
Academic license - for non-commercial use only
Academic license - for non-commercial use only
Academic license - for non-commercial use only
Academic license - for non-commercial use only
Academic license - for non-commercial use only
Academic license - for non-commercial use only
Academic license - for non-commercial use only
Academic license - for non-commercial use only
Academic license - for non-commercial use only
Academic license - for non-commercial use only
Academic license - for non-commercial use only
Academic license - for non-commercial use only
Academic license - for non-commercial use only
Academic license - for non-commercial use only
Academic license - for non-commercial use only
Academic license - for non-commercial use only
Academic license - for non-commercial use only
Academic license - for non-commercial use only
Academic license - for non-commercial use only
Academic license - for non-commercial use only
Academic license - for non-commercial use only
Academic license - for non-commercial use only
Academic license - for non-commercial use only
Academic license - for non-commercial use only
Academic license - for non-commercial use only
Academic license - for non-commercial use only
Academic license - for non-commercial use only
Academic license - for non-commercial use only
Academic license - for non-commercial use only
Academic license - for non-commercial use only
Academic license - for non-commercial use only
Academic license - for non-commercial use only
Academic license - for non-commercial use only
Academic license - for non-commercial use only
Academic license - for non-commercial use only
Academic license - for non-commercial use only
Academic license - for non-commercial use only
Academic license - for non-commercial use only
Academic license - for non-commercial use only
Academic license - for non-commercial use only
Academic license - for non-commercial use only
Academic license - for non-commercial use only
Academic license - for non-commercial use only
Academic license - for non-commercial use only
Academic license - for non-commercial use only
Academic license - for non-commercial use only
Academic license - for non-commercial use only
Academic license - for non-commercial use only
Academic license - for non-commercial use only
Academic license - for non-commercial use only
Academic license - for non-commercial use only
Academic license - for non-commercial use only
Academic license - for non-commercial use only
Academic license - for non-commercial use only
Academic license - for non-commercial use only
Academic license - for non-commercial use only
Academic license - for non-commercial use only
Academic license - for non-commercial use only
Academic license - for non-commercial use only

    |            76 |            40 |             9 |         22.00 |       1133.81 | 
    |            76 |            32 |             5 |          0.10 |       1133.98 | 
    |            76 |            38 |             8 |         12.03 |       1146.08 | 
    |            76 |            45 |             9 |         22.00 |       1168.22 | 
    |            76 |            36 |             7 |          0.26 |       1168.55 | 
    |            76 |            43 |            10 |         22.00 |       1190.68 | 
    |            76 |            34 |             7 |          1.87 |       1192.59 | 
    |            76 |            40 |             8 |         22.00 |       1214.69 | 
    |            76 |            32 |             7 |          0.87 |       1215.59 | 
    |            76 |            38 |             9 |         22.00 |       1237.74 | 
    |            76 |            30 |             6 |          0.10 |       1237.86 | 
    |            76 |            36 |             7 |          1.90 |       1239.88 | 
    |            76 |            43 |             8 |         22.00 |       1261.95 | 
    |            76 |            34 |             8 |          1.87 |       1263.91 | 
    |            76 |            40 |             8 |         16.80 |       1280.79 | 
    |            76 |            48 |             9 |          3.01 |       1283.91 | 
    |            76 |            57 |            12 |         22.00 |       1306.14 | 
    |            76 |            45 |             9 |         22.00 |       1328.25 | 
    |            76 |            36 |             7 |          4.94 |       1333.23 | 
    |            76 |            43 |            10 |         22.01 |       1355.35 | 
    |            76 |            34 |             7 |          7.54 |       1362.98 | 
    |            76 |            40 |             9 |         22.00 |       1385.16 | 
    |            76 |            32 |             7 |          6.82 |       1392.03 | 
    |            76 |            38 |             8 |         22.00 |       1414.12 | 
    |            76 |            30 |             6 |          0.43 |       1414.58 | 
    |            76 |            36 |             8 |         16.52 |       1431.20 | 
    |            76 |            43 |             9 |         22.00 |       1453.29 | 
    |            76 |            34 |             8 |         22.00 |       1475.34 | 
    |            76 |            27 |             5 |          0.28 |       1475.68 | 
    |            76 |            32 |             6 |          0.20 |       1475.93 | 
    |            76 |            38 |             8 |         22.00 |       1498.06 | 
    |            76 |            30 |             6 |          0.71 |       1498.82 | 
    |            76 |            36 |             8 |          8.66 |       1507.57 | 
    |            76 |            43 |             8 |          6.77 |       1514.44 | 
    |            76 |            51 |            10 |         22.00 |       1536.61 | 
    |            76 |            40 |             8 |          3.00 |       1539.69 | 
    |            76 |            48 |            10 |         22.00 |       1561.84 | 
    |            75 |            38 |             8 |         22.00 |       1583.90 | 
    |            75 |            38 |             8 |          0.29 |       1584.29 | 
    |            75 |            45 |            11 |         22.01 |       1606.42 | 
    |            75 |            36 |             7 |          0.24 |       1606.73 | 
    |            75 |            43 |            10 |         22.00 |       1628.88 | 
    |            75 |            34 |             7 |          0.36 |       1629.28 | 
    |            75 |            40 |             9 |          2.32 |       1631.78 | 
    |            75 |            48 |            10 |         22.01 |       1653.92 | 
    |            75 |            38 |             8 |         10.99 |       1664.98 | 
    |            75 |            45 |             9 |          7.32 |       1672.42 | 
    |            75 |            54 |            12 |         22.01 |       1694.63 | 
    |            75 |            43 |            10 |          7.17 |       1701.93 | 
    |            75 |            51 |            11 |         22.00 |       1724.11 | 
    |            75 |            40 |             9 |          2.59 |       1726.85 | 
    |            75 |            48 |            10 |         15.61 |       1742.57 | 
    |            75 |            57 |            12 |         22.02 |       1764.78 | 
    |            75 |            45 |            10 |         22.00 |       1786.95 | 
    |            75 |            36 |             8 |          0.62 |       1787.63 | 
    |            75 |            43 |             9 |          5.95 |       1793.70 | 
    |            75 |            51 |            11 |         22.01 |       1815.92 | 
    |            75 |            40 |             9 |          0.28 |       1816.27 | 
    |            75 |            48 |            10 |          0.85 |       1817.22 | 
    |            75 |            57 |            12 |         22.01 |       1839.42 | 
    |            75 |            45 |            10 |         11.98 |       1851.51 | 
    |            75 |            54 |            11 |         22.00 |       1873.69 | 
    |            75 |            43 |             9 |          8.44 |       1882.25 | 
    |            75 |            51 |            11 |          5.32 |       1887.72 | 
    |            75 |            61 |            12 |         22.01 |       1909.94 | 
    |            75 |            48 |            10 |          0.68 |       1910.81 | 
    |            75 |            57 |            11 |          1.22 |       1912.21 | 
    |            75 |            68 |            14 |          3.53 |       1916.13 | 
    |            75 |            81 |            16 |          5.80 |       1922.42 | 
    |            75 |            97 |            20 |         11.88 |       1935.23 | 
    |            75 |           100 |            20 |         12.43 |       1948.55 | 
    |            75 |           100 |            20 |         12.18 |       1961.53 | 
    |            75 |           100 |            20 |         11.66 |       1974.05 | 
    |            75 |           100 |            20 |         11.58 |       1986.49 | 
    |            75 |           100 |            20 |         11.30 |       1998.59 | 
    |            75 |           100 |            20 |         10.94 |       2010.44 | 
    |            75 |           100 |            20 |         22.01 |       2033.24 | 
    |            75 |            80 |            16 |         22.01 |       2055.77 | 
    |            75 |            64 |            13 |         22.02 |       2078.16 | 
    |            75 |            51 |            10 |          4.32 |       2082.69 | 
    |            75 |            61 |            13 |         22.01 |       2105.01 | 
    |            75 |            48 |            10 |         22.00 |       2127.18 | 
    |            75 |            38 |             9 |         22.00 |       2149.25 | 
    |            75 |            30 |             6 |          0.65 |       2149.93 | 
    |            75 |            36 |             7 |          1.50 |       2151.50 | 
    |            75 |            43 |             9 |         14.42 |       2166.10 | 
    |            75 |            51 |            10 |         22.01 |       2188.26 | 
    |            75 |            40 |             9 |         22.00 |       2210.35 | 
    |            75 |            32 |             7 |          1.09 |       2211.51 | 
    |            75 |            38 |             8 |          3.15 |       2214.71 | 
    |            75 |            45 |            10 |         22.00 |       2236.85 | 
    |            75 |            36 |             8 |          1.61 |       2238.51 | 
    |            75 |            43 |             9 |          3.15 |       2241.78 | 
    |            75 |            51 |            11 |         22.00 |       2263.95 | 
    |            75 |            40 |             9 |          2.12 |       2266.13 | Academic license - for non-commercial use only
Academic license - for non-commercial use only
Academic license - for non-commercial use only
Academic license - for non-commercial use only
Academic license - for non-commercial use only
Academic license - for non-commercial use only
Academic license - for non-commercial use only
Academic license - for non-commercial use only
Academic license - for non-commercial use only
Academic license - for non-commercial use only
Academic license - for non-commercial use only
Academic license - for non-commercial use only
Academic license - for non-commercial use only
Academic license - for non-commercial use only
Academic license - for non-commercial use only
Academic license - for non-commercial use only
Academic license - for non-commercial use only
Academic license - for non-commercial use only
Academic license - for non-commercial use only
Academic license - for non-commercial use only
Academic license - for non-commercial use only
Academic license - for non-commercial use only
Academic license - for non-commercial use only
Academic license - for non-commercial use only
Academic license - for non-commercial use only
Academic license - for non-commercial use only
Academic license - for non-commercial use only
Academic license - for non-commercial use only
Academic license - for non-commercial use only
Academic license - for non-commercial use only
Academic license - for non-commercial use only
Academic license - for non-commercial use only
Academic license - for non-commercial use only
Academic license - for non-commercial use only
Academic license - for non-commercial use only
Academic license - for non-commercial use only
Academic license - for non-commercial use only
Academic license - for non-commercial use only
Academic license - for non-commercial use only
Academic license - for non-commercial use only
Academic license - for non-commercial use only
Academic license - for non-commercial use only
Academic license - for non-commercial use only
Academic license - for non-commercial use only
Academic license - for non-commercial use only
Academic license - for non-commercial use only
Academic license - for non-commercial use only
Academic license - for non-commercial use only
Academic license - for non-commercial use only
Academic license - for non-commercial use only
Academic license - for non-commercial use only
Academic license - for non-commercial use only
Academic license - for non-commercial use only
Academic license - for non-commercial use only
Academic license - for non-commercial use only
Academic license - for non-commercial use only
Academic license - for non-commercial use only
Academic license - for non-commercial use only
Academic license - for non-commercial use only
Academic license - for non-commercial use only
Academic license - for non-commercial use only
Academic license - for non-commercial use only
Academic license - for non-commercial use only
Academic license - for non-commercial use only
Academic license - for non-commercial use only
Academic license - for non-commercial use only
Academic license - for non-commercial use only
Academic license - for non-commercial use only
Academic license - for non-commercial use only
Academic license - for non-commercial use only
Academic license - for non-commercial use only
Academic license - for non-commercial use only
Academic license - for non-commercial use only
Academic license - for non-commercial use only
Academic license - for non-commercial use only
Academic license - for non-commercial use only
Academic license - for non-commercial use only
Academic license - for non-commercial use only
Academic license - for non-commercial use only
Academic license - for non-commercial use only
Academic license - for non-commercial use only
Academic license - for non-commercial use only
Academic license - for non-commercial use only
Academic license - for non-commercial use only
Academic license - for non-commercial use only

    |            75 |            48 |            10 |         22.00 |       2288.28 | 
    |            75 |            38 |             8 |          0.24 |       2288.61 | 
    |            75 |            45 |             9 |          2.24 |       2290.93 | 
    |            75 |            54 |            11 |          1.14 |       2292.24 | 
    |            75 |            64 |            13 |         22.00 |       2314.52 | 
    |            75 |            51 |            11 |         22.00 |       2336.63 | 
    |            75 |            40 |             9 |          2.52 |       2339.22 | 
    |            75 |            48 |            11 |         22.01 |       2361.38 | 
    |            75 |            38 |             9 |          3.72 |       2365.25 | 
    |            75 |            45 |             9 |          7.19 |       2372.56 | 
    |            75 |            54 |            12 |         22.02 |       2394.81 | 
    |            75 |            43 |             9 |          1.67 |       2396.62 | 
    |            75 |            51 |            10 |         22.00 |       2418.72 | 
    |            75 |            40 |             8 |          6.63 |       2425.45 | 
    |            75 |            48 |            10 |         22.00 |       2447.62 | 
    |            75 |            38 |             8 |          1.78 |       2449.49 | 
    |            75 |            45 |             9 |          1.98 |       2451.54 | 
    |            75 |            54 |            11 |         22.00 |       2473.69 | 
    |            75 |            43 |             9 |          1.54 |       2475.33 | 
    |            75 |            51 |            11 |         22.01 |       2497.47 | 
    |            75 |            40 |             9 |          3.91 |       2501.51 | 
    |            75 |            48 |            10 |          9.73 |       2511.34 | 
    |            75 |            57 |            11 |         22.01 |       2533.51 | 
    |            75 |            45 |             9 |          0.49 |       2534.12 | 
    |            75 |            54 |            11 |         16.68 |       2550.94 | 
    |            75 |            64 |            12 |          2.18 |       2553.36 | 
    |            75 |            76 |            15 |         22.01 |       2575.80 | 
    |            75 |            60 |            12 |         22.01 |       2598.11 | 
    |            75 |            48 |            10 |         10.48 |       2608.82 | 
    |            75 |            57 |            12 |         22.01 |       2631.07 | 
    |            75 |            45 |             9 |         22.00 |       2653.22 | 
    |            75 |            36 |             8 |          0.69 |       2653.97 | 
    |            75 |            43 |             9 |          5.39 |       2659.50 | 
    |            75 |            51 |            10 |         22.00 |       2681.73 | 
    |            75 |            40 |             9 |          0.37 |       2682.21 | 
    |            75 |            48 |            10 |          4.98 |       2687.28 | 
    |            75 |            57 |            12 |          1.97 |       2689.43 | 
    |            75 |            68 |            14 |         22.01 |       2711.77 | 
    |            75 |            54 |            12 |         22.01 |       2733.99 | 
    |            75 |            43 |             8 |          1.54 |       2735.63 | 
    |            75 |            51 |            11 |         22.00 |       2757.83 | 
    |            75 |            40 |             9 |          6.25 |       2764.20 | 
    |            75 |            48 |            10 |          4.08 |       2768.40 | 
    |            75 |            57 |            11 |          1.39 |       2769.95 | 
    |            75 |            68 |            13 |         22.01 |       2792.28 | 
    |            75 |            54 |            12 |         22.00 |       2814.53 | 
    |            75 |            43 |             9 |         22.00 |       2836.61 | 
    |            75 |            34 |             7 |          0.85 |       2837.51 | 
    |            75 |            40 |             9 |          2.18 |       2839.80 | 
    |            75 |            48 |            10 |         11.24 |       2851.30 | 
    |            75 |            57 |            12 |         22.00 |       2873.52 | 
    |            75 |            45 |             9 |          8.71 |       2882.35 | 
    |            75 |            54 |            11 |         22.00 |       2904.59 | 
    |            75 |            43 |             9 |          2.70 |       2907.37 | 
    |            75 |            51 |            11 |         22.00 |       2929.56 | 
    |            75 |            40 |             9 |          0.35 |       2930.02 | 
    |            75 |            48 |            11 |         22.00 |       2952.20 | 
    |            75 |            38 |             8 |          4.20 |       2956.45 | 
    |            75 |            45 |             9 |         22.01 |       2978.56 | 
    |            75 |            36 |             7 |          1.23 |       2979.88 | 
    |            75 |            43 |             8 |          2.98 |       2982.92 | 
    |            75 |            51 |            11 |         22.00 |       3005.08 | 
    |            75 |            40 |             9 |          2.34 |       3007.54 | 
    |            75 |            48 |            10 |          0.65 |       3008.31 | 
    |            75 |            57 |            11 |         22.01 |       3030.47 | 
    |            75 |            45 |            10 |         22.00 |       3052.60 | 
    |            75 |            36 |             7 |          0.38 |       3053.02 | 
    |            75 |            43 |             9 |          1.89 |       3055.04 | 
    |            75 |            51 |            10 |          0.78 |       3055.97 | 
    |            75 |            61 |            12 |         22.01 |       3078.17 | 
    |            75 |            48 |            10 |         22.00 |       3100.32 | 
    |            75 |            38 |             8 |          1.86 |       3102.23 | 
    |            75 |            45 |             9 |          4.43 |       3106.77 | 
    |            75 |            54 |            11 |         22.00 |       3128.94 | 
    |            75 |            43 |             9 |         12.97 |       3141.98 | 
    |            75 |            51 |            11 |         22.00 |       3164.14 | 
    |            75 |            40 |             9 |         22.00 |       3186.24 | 
    |            75 |            32 |             7 |          0.16 |       3186.48 | 
    |            75 |            38 |             8 |          4.19 |       3190.76 | 
    |            75 |            45 |            10 |         22.00 |       3212.90 | 
    |            75 |            36 |             8 |          0.31 |       3213.28 | 
    |            75 |            43 |             9 |          0.46 |       3213.89 | 
    |            75 |            51 |            10 |         22.00 |       3236.04 | 
    |            75 |            40 |             8 |          2.02 |       3238.12 | 
    |            75 |            48 |            10 |          1.37 |       3239.61 | 
-25.333333333333336
