Instance....: instances/I_150_15_S_1-49_6.txt
Algorithm...: Simulated Annealing (alpha=0.990, saMax=10M, t0=1)
Other params: maxIters=100M, seed=4, timeLimit=360.00s

    /--------------------------------------------------------\
    |     Iter |   RDP(%) |       S* |       S' |       Time | 
    |----------|----------|----------|----------|------------|
    |        0 |        - |     1055 |     1055 |       0.00 | s0
    |        0 |        - |     1042 |     1042 |       0.00 | *
    |        4 |        - |     1016 |     1016 |       0.02 | *
    |        6 |        - |      954 |      954 |       0.02 | *
    |        7 |        - |      937 |      937 |       0.02 | *
    |        8 |        - |      935 |      935 |       0.02 | *
    |       10 |        - |      930 |      930 |       0.02 | *
    |       12 |        - |      929 |      929 |       0.02 | *
    |       22 |        - |      858 |      858 |       0.02 | *
    |       23 |        - |      831 |      831 |       0.02 | *
    |       29 |        - |      828 |      828 |       0.03 | *
    |       34 |        - |      827 |      827 |       0.03 | *
    |       36 |        - |      821 |      821 |       0.03 | *
    |       40 |        - |      814 |      814 |       0.03 | *
    |       44 |        - |      779 |      779 |       0.03 | *
    |       49 |        - |      774 |      774 |       0.03 | *
    |       52 |        - |      755 |      755 |       0.03 | *
    |       58 |        - |      751 |      751 |       0.03 | *
    |       67 |        - |      745 |      745 |       0.03 | *
    |       72 |        - |      741 |      741 |       0.03 | *
    |       73 |        - |      733 |      733 |       0.03 | *
    |       85 |        - |      732 |      732 |       0.03 | *
    |       88 |        - |      726 |      726 |       0.03 | *
    |       99 |        - |      709 |      709 |       0.03 | *
    |      123 |        - |      692 |      692 |       0.03 | *
    |      125 |        - |      690 |      690 |       0.03 | *
    |      127 |        - |      687 |      687 |       0.03 | *
    |      137 |        - |      679 |      679 |       0.04 | *
    |      139 |        - |      674 |      674 |       0.04 | *
    |      140 |        - |      667 |      667 |       0.04 | *
    |      142 |        - |      663 |      663 |       0.04 | *
    |      171 |        - |      660 |      660 |       0.04 | *
    |      172 |        - |      648 |      648 |       0.04 | *
    |      177 |        - |      645 |      645 |       0.04 | *
    |      184 |        - |      644 |      644 |       0.04 | *
    |      195 |        - |      640 |      640 |       0.04 | *
    |      200 |        - |      639 |      639 |       0.04 | *
    |      202 |        - |      638 |      638 |       0.04 | *
    |      210 |        - |      635 |      635 |       0.04 | *
    |      212 |        - |      630 |      630 |       0.04 | *
    |      214 |        - |      627 |      627 |       0.04 | *
    |      215 |        - |      626 |      626 |       0.04 | *
    |      226 |        - |      624 |      624 |       0.04 | *
    |      246 |        - |      622 |      622 |       0.04 | *
    |      249 |        - |      617 |      617 |       0.04 | *
    |      251 |        - |      608 |      608 |       0.04 | *
    |      261 |        - |      596 |      596 |       0.04 | *
    |      265 |        - |      595 |      595 |       0.04 | *
    |      268 |        - |      588 |      588 |       0.04 | *
    |      277 |        - |      587 |      587 |       0.04 | *
    |      278 |        - |      585 |      585 |       0.04 | *
    |      293 |        - |      584 |      584 |       0.05 | *
    |      296 |        - |      583 |      583 |       0.05 | *
    |      298 |        - |      579 |      579 |       0.05 | *
    |      314 |        - |      578 |      578 |       0.05 | *
    |      317 |        - |      574 |      574 |       0.05 | *
    |      318 |        - |      573 |      573 |       0.05 | *
    |      320 |        - |      572 |      572 |       0.05 | *
    |      321 |        - |      567 |      567 |       0.05 | *
    |      346 |        - |      564 |      564 |       0.05 | *
    |      361 |        - |      558 |      558 |       0.05 | *
    |      384 |        - |      557 |      557 |       0.05 | *
    |      412 |        - |      553 |      553 |       0.05 | *
    |      435 |        - |      549 |      549 |       0.05 | *
    |      438 |        - |      538 |      538 |       0.05 | *
    |      446 |        - |      531 |      531 |       0.05 | *
    |      465 |        - |      525 |      525 |       0.05 | *
    |      466 |        - |      524 |      524 |       0.05 | *
    |      474 |        - |      518 |      518 |       0.05 | *
    |      478 |        - |      516 |      516 |       0.05 | *
    |      496 |        - |      515 |      515 |       0.05 | *
    |      509 |        - |      511 |      511 |       0.05 | *
    |      516 |        - |      507 |      507 |       0.05 | *
    |      517 |        - |      506 |      506 |       0.05 | *
    |      552 |        - |      504 |      504 |       0.05 | *
    |      554 |        - |      503 |      503 |       0.05 | *
    |      555 |        - |      502 |      502 |       0.05 | *
    |      572 |        - |      496 |      496 |       0.05 | *
    |      602 |        - |      494 |      494 |       0.06 | *
    |      604 |        - |      491 |      491 |       0.06 | *
    |      614 |        - |      490 |      490 |       0.06 | *
    |      624 |        - |      489 |      489 |       0.06 | *
    |      628 |        - |      488 |      488 |       0.06 | *
    |      637 |        - |      485 |      485 |       0.06 | *
    |      640 |        - |      484 |      484 |       0.06 | *
    |      641 |        - |      481 |      481 |       0.06 | *
    |      660 |        - |      477 |      477 |       0.06 | *
    |      675 |        - |      472 |      472 |       0.06 | *
    |      683 |        - |      471 |      471 |       0.06 | *
    |      684 |        - |      470 |      470 |       0.06 | *
    |      745 |        - |      469 |      469 |       0.06 | *
    |      748 |        - |      464 |      464 |       0.06 | *
    |      757 |        - |      462 |      462 |       0.06 | *
    |      784 |        - |      461 |      461 |       0.06 | *
    |      788 |        - |      458 |      458 |       0.06 | *
    |      792 |        - |      457 |      457 |       0.06 | *
    |      805 |        - |      456 |      456 |       0.06 | *
    |      807 |        - |      454 |      454 |       0.06 | *
    |      826 |        - |      453 |      453 |       0.06 | *
    |      828 |        - |      452 |      452 |       0.06 | *
    |      843 |        - |      444 |      444 |       0.06 | *
    |      852 |        - |      440 |      440 |       0.06 | *
    |      858 |        - |      438 |      438 |       0.06 | *
    |      878 |        - |      437 |      437 |       0.06 | *
    |      884 |        - |      435 |      435 |       0.06 | *
    |      906 |        - |      434 |      434 |       0.06 | *
    |      929 |        - |      430 |      430 |       0.06 | *
    |      945 |        - |      426 |      426 |       0.06 | *
    |      957 |        - |      424 |      424 |       0.06 | *
    |      970 |        - |      423 |      423 |       0.06 | *
    |      979 |        - |      422 |      422 |       0.07 | *
    |     1022 |        - |      420 |      420 |       0.07 | *
    |     1026 |        - |      418 |      418 |       0.07 | *
    |     1087 |        - |      412 |      412 |       0.07 | *
    |     1134 |        - |      408 |      408 |       0.07 | *
    |     1138 |        - |      407 |      407 |       0.07 | *
    |     1170 |        - |      406 |      406 |       0.07 | *
    |     1212 |        - |      404 |      404 |       0.07 | *
    |     1219 |        - |      399 |      399 |       0.07 | *
    |     1259 |        - |      398 |      398 |       0.07 | *
    |     1264 |        - |      393 |      393 |       0.07 | *
    |     1278 |        - |      392 |      392 |       0.07 | *
    |     1279 |        - |      390 |      390 |       0.07 | *
    |     1282 |        - |      389 |      389 |       0.07 | *
    |     1304 |        - |      386 |      386 |       0.07 | *
    |     1305 |        - |      385 |      385 |       0.07 | *
    |     1306 |        - |      384 |      384 |       0.07 | *
    |     1310 |        - |      378 |      378 |       0.07 | *
    |     1321 |        - |      377 |      377 |       0.07 | *
    |     1348 |        - |      375 |      375 |       0.07 | *
    |     1354 |        - |      374 |      374 |       0.07 | *
    |     1356 |        - |      372 |      372 |       0.07 | *
    |     1364 |        - |      371 |      371 |       0.07 | *
    |     1382 |        - |      368 |      368 |       0.07 | *
    |     1398 |        - |      367 |      367 |       0.07 | *
    |     1406 |        - |      365 |      365 |       0.07 | *
    |     1426 |        - |      364 |      364 |       0.07 | *
    |     1431 |        - |      362 |      362 |       0.07 | *
    |     1441 |        - |      361 |      361 |       0.07 | *
    |     1464 |        - |      359 |      359 |       0.07 | *
    |     1468 |        - |      357 |      357 |       0.07 | *
    |     1489 |        - |      355 |      355 |       0.07 | *
    |     1491 |        - |      352 |      352 |       0.07 | *
    |     1492 |        - |      350 |      350 |       0.07 | *
    |     1494 |        - |      349 |      349 |       0.07 | *
    |     1528 |        - |      348 |      348 |       0.07 | *
    |     1588 |        - |      347 |      347 |       0.07 | *
    |     1612 |        - |      345 |      345 |       0.08 | *
    |     1624 |        - |      343 |      343 |       0.08 | *
    |     1644 |        - |      342 |      342 |       0.08 | *
    |     1672 |        - |      340 |      340 |       0.08 | *
    |     1679 |        - |      339 |      339 |       0.08 | *
    |     1701 |        - |      338 |      338 |       0.08 | *
    |     1702 |        - |      335 |      335 |       0.08 | *
    |     1840 |        - |      332 |      332 |       0.08 | *
    |     1848 |        - |      331 |      331 |       0.08 | *
    |     1849 |        - |      330 |      330 |       0.08 | *
    |     1869 |        - |      329 |      329 |       0.08 | *
    |     2075 |        - |      327 |      327 |       0.08 | *
    |     2095 |        - |      326 |      326 |       0.08 | *
    |     2135 |        - |      325 |      325 |       0.08 | *
    |     2345 |        - |      323 |      323 |       0.08 | *
    |     2418 |        - |      322 |      322 |       0.08 | *
    |     2560 |        - |      321 |      321 |       0.08 | *
    |     2561 |        - |      320 |      320 |       0.08 | *
    |     2581 |        - |      318 |      318 |       0.08 | *
    |     2598 |        - |      316 |      316 |       0.08 | *
    |     2627 |        - |      310 |      310 |       0.08 | *
    |     2633 |        - |      306 |      306 |       0.08 | *
    |     2682 |        - |      305 |      305 |       0.08 | *
    |     2709 |        - |      303 |      303 |       0.08 | *
    |     2749 |        - |      297 |      297 |       0.08 | *
    |     2853 |        - |      296 |      296 |       0.08 | *
    |     2905 |        - |      295 |      295 |       0.08 | *
    |     2909 |        - |      294 |      294 |       0.08 | *
    |     2934 |        - |      291 |      291 |       0.09 | *
    |     2948 |        - |      287 |      287 |       0.09 | *
    |     2954 |        - |      286 |      286 |       0.09 | *
    |     3103 |        - |      285 |      285 |       0.09 | *
    |     3141 |        - |      284 |      284 |       0.09 | *
    |     3161 |        - |      283 |      283 |       0.09 | *
    |     3213 |        - |      281 |      281 |       0.09 | *
    |     3250 |        - |      280 |      280 |       0.09 | *
    |     3258 |        - |      279 |      279 |       0.09 | *
    |     3278 |        - |      278 |      278 |       0.09 | *
    |     3292 |        - |      272 |      272 |       0.09 | *
    |     3341 |        - |      269 |      269 |       0.09 | *
    |     3346 |        - |      267 |      267 |       0.09 | *
    |     3364 |        - |      264 |      264 |       0.09 | *
    |     3689 |        - |      261 |      261 |       0.09 | *
    |     3962 |        - |      260 |      260 |       0.09 | *
    |     3963 |        - |      259 |      259 |       0.09 | *
    |     3983 |        - |      258 |      258 |       0.09 | *
    |     4106 |        - |      257 |      257 |       0.09 | *
    |     4118 |        - |      255 |      255 |       0.09 | *
    |     4119 |        - |      254 |      254 |       0.09 | *
    |     4189 |        - |      253 |      253 |       0.09 | *
    |     4196 |        - |      251 |      251 |       0.10 | *
    |     4203 |        - |      249 |      249 |       0.10 | *
    |     4291 |        - |      247 |      247 |       0.10 | *
    |     4443 |        - |      246 |      246 |       0.10 | *
    |     4477 |        - |      243 |      243 |       0.10 | *
    |     4642 |        - |      242 |      242 |       0.10 | *
    |     5647 |        - |      241 |      241 |       0.10 | *
    |     5757 |        - |      238 |      238 |       0.10 | *
    |     5915 |        - |      237 |      237 |       0.10 | *
    |     6041 |        - |      236 |      236 |       0.10 | *
    |     6080 |        - |      234 |      234 |       0.10 | *
    |     6281 |        - |      233 |      233 |       0.10 | *
    |     6312 |        - |      231 |      231 |       0.10 | *
    |     6388 |        - |      230 |      230 |       0.10 | *
    |     6434 |        - |      229 |      229 |       0.10 | *
    |     6605 |        - |      228 |      228 |       0.10 | *
    |     6638 |        - |      227 |      227 |       0.10 | *
    |     6655 |        - |      226 |      226 |       0.10 | *
    |     6715 |        - |      224 |      224 |       0.10 | *
    |     7438 |        - |      223 |      223 |       0.11 | *
    |     7493 |        - |      222 |      222 |       0.11 | *
    |     7501 |        - |      221 |      221 |       0.11 | *
    |     7604 |        - |      219 |      219 |       0.11 | *
    |     7700 |        - |      218 |      218 |       0.11 | *
    |     7709 |        - |      217 |      217 |       0.11 | *
    |     7727 |        - |      216 |      216 |       0.11 | *
    |     7962 |        - |      215 |      215 |       0.11 | *
    |     8054 |        - |      212 |      212 |       0.11 | *
    |     8185 |        - |      211 |      211 |       0.11 | *
    |     8244 |        - |      210 |      210 |       0.11 | *
    |     8396 |        - |      209 |      209 |       0.11 | *
    |     8472 |        - |      208 |      208 |       0.11 | *
    |     8606 |        - |      206 |      206 |       0.11 | *
    |     8626 |        - |      205 |      205 |       0.11 | *
    |     8793 |        - |      201 |      201 |       0.11 | *
    |     9059 |        - |      200 |      200 |       0.11 | *
    |     9749 |        - |      199 |      199 |       0.11 | *
    |     9803 |        - |      198 |      198 |       0.11 | *
    |      12K |        - |      197 |      197 |       0.12 | *
    |      13K |        - |      195 |      195 |       0.12 | *
    |      13K |        - |      194 |      194 |       0.12 | *
    |      13K |        - |      192 |      192 |       0.12 | *
    |      13K |        - |      191 |      191 |       0.12 | *
    |      14K |        - |      190 |      190 |       0.12 | *
    |      14K |        - |      189 |      189 |       0.12 | *
    |      20K |        - |      187 |      187 |       0.13 | *
    |      20K |        - |      186 |      186 |       0.13 | *
    |      22K |        - |      184 |      184 |       0.14 | *
    |      24K |        - |      182 |      182 |       0.15 | *
    |      24K |        - |      181 |      181 |       0.15 | *
    |      25K |        - |      179 |      179 |       0.15 | *
    |      26K |        - |      178 |      178 |       0.15 | *
    |      26K |        - |      177 |      177 |       0.16 | *
    |      26K |        - |      176 |      176 |       0.16 | *
    |      26K |        - |      175 |      175 |       0.16 | *
    |      28K |        - |      173 |      173 |       0.16 | *
    |      28K |        - |      172 |      172 |       0.17 | *
    |      41K |        - |      171 |      171 |       0.19 | *
    |      41K |        - |      170 |      170 |       0.19 | *
    |      42K |        - |      169 |      169 |       0.19 | *
    |      42K |        - |      168 |      168 |       0.19 | *
    |      43K |        - |      167 |      167 |       0.19 | *
    |      45K |        - |      166 |      166 |       0.20 | *
    |      49K |        - |      164 |      164 |       0.20 | *
    |      50K |        - |      163 |      163 |       0.21 | *
    |      51K |        - |      162 |      162 |       0.21 | *
    |      52K |        - |      161 |      161 |       0.21 | *
    |      52K |        - |      160 |      160 |       0.21 | *
    |      67K |        - |      159 |      159 |       0.23 | *
    |      78K |        - |      158 |      158 |       0.26 | *
    |      79K |        - |      157 |      157 |       0.26 | *
    |      79K |        - |      156 |      156 |       0.26 | *
    |      80K |        - |      155 |      155 |       0.26 | *
    |      80K |        - |      154 |      154 |       0.26 | *
    |      81K |        - |      153 |      153 |       0.26 | *
    |      82K |        - |      152 |      152 |       0.26 | *
    |      85K |        - |      151 |      151 |       0.27 | *
    |      85K |        - |      149 |      149 |       0.27 | *
    |      92K |        - |      148 |      148 |       0.28 | *
    |      93K |        - |      147 |      147 |       0.28 | *
    |      95K |        - |      146 |      146 |       0.28 | *
    |      97K |        - |      145 |      145 |       0.29 | *
    |     100K |        - |      144 |      144 |       0.29 | *
    |     117K |        - |      143 |      143 |       0.32 | *
    |     118K |        - |      142 |      142 |       0.32 | *
    |     205K |        - |      141 |      141 |       0.44 | *
    |     231K |        - |      140 |      140 |       0.47 | *
    |     234K |        - |      139 |      139 |       0.48 | *
    |     236K |        - |      138 |      138 |       0.48 | *
    |     236K |        - |      137 |      137 |       0.48 | *
    |     577K |        - |      136 |      136 |       1.01 | *
    |     589K |        - |      135 |      135 |       1.03 | *
    |     594K |        - |      134 |      134 |       1.04 | *
    |     595K |        - |      133 |      133 |       1.04 | *
    |     771K |        - |      132 |      132 |       1.36 | *
    |     771K |        - |      131 |      131 |       1.36 | *
    |     785K |        - |      130 |      130 |       1.38 | *
    |     809K |        - |      128 |      128 |       1.41 | *
    |    1367K |        - |      127 |      127 |       2.18 | *
    |    1392K |        - |      126 |      126 |       2.21 | *
    |    2411K |        - |      125 |      125 |       3.64 | *
    |    2631K |        - |      124 |      124 |       3.95 | *
    |    2888K |        - |      123 |      123 |       4.34 | *
    |    3743K |        - |      122 |      122 |       5.43 | *
    |      12M |        - |      121 |      121 |      16.17 | *
    |      12M |        - |      120 |      120 |      16.69 | *
    |      24M |        - |      119 |      119 |      31.96 | *
    |      77M |        - |      118 |      118 |     103.14 | *
    |     182M |        - |      117 |      117 |     245.01 | *
    |     201M |        - |      116 |      116 |     271.23 | *
    |     228M |        - |      115 |      115 |     307.26 | *
    |     238M |        - |      114 |      114 |     320.03 | *
    \--------------------------------------------------------/

Neighborhoods statistics (values in %):

    /----------------------------------------------------------------\
    | Move               | Improvs. | Sideways |  Accepts |  Rejects |
    |--------------------|----------|----------|----------|----------|
    | Shift(mk)          |      21K |      26K |      55K |      11M |
    | Shift              |     1403 |     226K |     245K |      11M |
    | ShiftSmart(mk)     |     157K |     201K |     415K |      11M |
    | ShiftSmart         |      10K |    1350K |    1456K |    9659K |
    | SimpSwap(mk)       |      110 |      149 |      301 |      11M |
    | SimpSwap           |       10 |      601 |      704 |      11M |
    | SimpSwapSmart(mk)  |      921 |     1293 |     2663 |      11M |
    | SimpSwapSmart      |      125 |     5566 |     6546 |      11M |
    | Swap(mk)           |       27 |       37 |       77 |      11M |
    | Swap               |        1 |      160 |      189 |      11M |
    | SwapSmart(mk)      |      846 |     1539 |     2796 |      11M |
    | SwapSmart          |      128 |     5413 |     6299 |      11M |
    | Switch(mk)         |     6745 |    1148K |    1157K |    9960K |
    | Switch             |      469 |    1241K |    1247K |    9878K |
    | SwitchSmart(mk)    |      48K |      62K |     124K |      11M |
    | SwitchSmart        |     3293 |     458K |     496K |      11M |
    | TaskMove(mk)       |     1080 |     1602 |     3130 |      11M |
    | TaskMove           |       76 |     3733 |     4382 |      11M |
    | TaskMoveSmart(mk)  |     8347 |      13K |      25K |      11M |
    | TaskMoveSmart      |      638 |      30K |      36K |      11M |
    | 2-Shift(mk)        |     6263 |     149K |     158K |      11M |
    | 2-Shift            |      417 |     226K |     232K |      11M |
    | 2-ShiftSmart(mk)   |      56K |     309K |     378K |      11M |
    | 2-ShiftSmart       |     3771 |     718K |     753K |      10M |
    \----------------------------------------------------------------/

Best makespan.....: 114
N. of Iterations..: 266890689
Total runtime.....: 360.01s
Academic license - for non-commercial use only
Academic license - for non-commercial use only
Academic license - for non-commercial use only
Academic license - for non-commercial use only
Academic license - for non-commercial use only
Academic license - for non-commercial use only
Academic license - for non-commercial use only
Academic license - for non-commercial use only
Academic license - for non-commercial use only
Academic license - for non-commercial use only
Academic license - for non-commercial use only
Academic license - for non-commercial use only
Academic license - for non-commercial use only
Academic license - for non-commercial use only
Academic license - for non-commercial use only
Academic license - for non-commercial use only
Academic license - for non-commercial use only
Academic license - for non-commercial use only
Academic license - for non-commercial use only
Academic license - for non-commercial use only
Academic license - for non-commercial use only
Academic license - for non-commercial use only
Academic license - for non-commercial use only
Academic license - for non-commercial use only
Academic license - for non-commercial use only
Academic license - for non-commercial use only
Academic license - for non-commercial use only
Academic license - for non-commercial use only
Academic license - for non-commercial use only
Academic license - for non-commercial use only
Academic license - for non-commercial use only
Academic license - for non-commercial use only
Academic license - for non-commercial use only
Academic license - for non-commercial use only
Academic license - for non-commercial use only
Academic license - for non-commercial use only
Academic license - for non-commercial use only
Academic license - for non-commercial use only
Academic license - for non-commercial use only
Academic license - for non-commercial use only
Academic license - for non-commercial use only
Academic license - for non-commercial use only
Academic license - for non-commercial use only
Academic license - for non-commercial use only
Academic license - for non-commercial use only
Academic license - for non-commercial use only
Academic license - for non-commercial use only
Academic license - for non-commercial use only
Academic license - for non-commercial use only
Academic license - for non-commercial use only
Academic license - for non-commercial use only
Academic license - for non-commercial use only
Academic license - for non-commercial use only
Academic license - for non-commercial use only
Academic license - for non-commercial use only
Academic license - for non-commercial use only
Academic license - for non-commercial use only
Academic license - for non-commercial use only
Academic license - for non-commercial use only
Academic license - for non-commercial use only
Academic license - for non-commercial use only
Academic license - for non-commercial use only
Academic license - for non-commercial use only
Academic license - for non-commercial use only
Academic license - for non-commercial use only
Academic license - for non-commercial use only
Academic license - for non-commercial use only
Academic license - for non-commercial use only
Academic license - for non-commercial use only
Academic license - for non-commercial use only
Academic license - for non-commercial use only
Academic license - for non-commercial use only
Academic license - for non-commercial use only
Academic license - for non-commercial use only
Academic license - for non-commercial use only
Academic license - for non-commercial use only
Academic license - for non-commercial use only
Academic license - for non-commercial use only
Academic license - for non-commercial use only
Academic license - for non-commercial use only
Academic license - for non-commercial use only
Academic license - for non-commercial use only
Academic license - for non-commercial use only
Academic license - for non-commercial use only
Academic license - for non-commercial use only
Academic license - for non-commercial use only
Academic license - for non-commercial use only
Academic license - for non-commercial use only
Academic license - for non-commercial use only
Academic license - for non-commercial use only
Academic license - for non-commercial use only
Academic license - for non-commercial use only
    /-------------------------------------------------------------------------------\
    |    Makespam   |   Free Jobs   | Free Machines |    It. Time   |   Total Time  | 
    |-------------------------------------------------------------------------------|
    |           114 |            33 |             4 |          0.33 |          1.05 | 
    |           114 |            39 |             5 |          8.02 |          9.22 | 
    |           114 |            46 |             5 |         14.17 |         23.52 | 
    |           114 |            55 |             6 |         21.82 |         45.56 | 
    |           114 |            66 |             7 |         22.01 |         67.89 | 
    |           114 |            52 |             6 |         22.01 |         90.11 | 
    |           114 |            41 |             4 |          1.20 |         91.38 | 
    |           113 |            49 |             6 |         22.01 |        113.60 | 
    |           113 |            49 |             5 |          5.59 |        119.31 | 
    |           113 |            58 |             6 |         14.12 |        133.62 | 
    |           112 |            69 |             7 |         22.07 |        156.00 | 
    |           111 |            69 |             7 |         22.01 |        178.30 | 
    |           111 |            69 |             8 |         22.01 |        200.71 | 
    |           111 |            55 |             6 |          2.49 |        203.38 | 
    |           111 |            66 |             7 |         22.01 |        225.76 | 
    |           110 |            52 |             6 |         22.01 |        247.94 | 
    |           110 |            52 |             5 |          1.12 |        249.19 | 
    |           110 |            62 |             7 |         22.03 |        271.53 | 
    |           110 |            49 |             5 |          1.85 |        273.49 | 
    |           110 |            58 |             6 |          2.76 |        276.43 | 
    |           110 |            69 |             7 |         22.01 |        298.78 | 
    |           110 |            55 |             6 |          3.68 |        302.58 | 
    |           110 |            66 |             8 |         22.00 |        324.95 | 
    |           110 |            52 |             6 |         12.79 |        337.88 | 
    |           110 |            62 |             7 |          7.66 |        345.88 | 
    |           110 |            74 |             8 |         22.01 |        368.32 | 
    |           110 |            59 |             7 |         12.35 |        380.92 | 
    |           110 |            70 |             8 |         22.01 |        403.44 | 
    |           110 |            56 |             6 |          3.70 |        407.37 | 
    |           110 |            67 |             7 |          8.83 |        416.48 | 
    |           110 |            80 |             9 |         22.01 |        439.11 | 
    |           110 |            64 |             7 |          6.69 |        446.14 | 
    |           110 |            76 |             9 |         22.01 |        468.67 | 
    |           110 |            60 |             7 |         22.00 |        490.86 | 
    |           110 |            48 |             6 |         13.02 |        504.14 | 
    |           110 |            57 |             7 |          6.07 |        510.51 | 
    |           110 |            68 |             7 |         22.08 |        532.90 | 
    |           110 |            54 |             6 |          5.56 |        538.60 | 
    |           110 |            64 |             7 |         22.01 |        560.93 | 
    |           110 |            51 |             6 |          3.08 |        564.14 | 
    |           110 |            61 |             7 |         22.01 |        586.43 | 
    |           110 |            48 |             6 |         22.00 |        608.63 | 
    |           110 |            38 |             4 |          1.00 |        609.68 | 
    |           110 |            45 |             5 |          0.83 |        610.59 | 
    |           110 |            54 |             6 |         22.00 |        632.76 | 
    |           110 |            43 |             5 |          1.32 |        634.16 | 
    |           110 |            51 |             6 |          0.95 |        635.38 | 
    |           110 |            61 |             7 |         22.00 |        657.67 | 
    |           110 |            48 |             6 |          7.48 |        665.29 | 
    |           110 |            57 |             6 |          3.64 |        669.14 | 
    |           110 |            68 |             7 |         22.01 |        691.48 | 
    |           110 |            54 |             6 |          4.27 |        695.91 | 
    |           110 |            64 |             7 |         22.02 |        718.23 | 
    |           110 |            51 |             6 |          2.35 |        720.68 | 
    |           110 |            61 |             7 |         19.41 |        740.51 | 
    |           110 |            73 |             8 |         22.01 |        762.91 | 
    |           110 |            58 |             7 |         22.00 |        785.19 | 
    |           110 |            46 |             5 |          5.93 |        791.19 | 
    |           110 |            55 |             7 |         22.01 |        813.52 | 
    |           110 |            44 |             5 |          1.83 |        815.52 | 
    |           110 |            52 |             6 |          3.56 |        819.25 | 
    |           110 |            62 |             7 |          2.60 |        822.18 | 
    |           110 |            74 |             8 |         21.58 |        844.14 | 
    |           110 |            88 |            10 |         22.01 |        866.93 | 
    |           110 |            70 |             8 |         22.01 |        889.36 | 
    |           110 |            56 |             7 |          7.28 |        896.98 | 
    |           110 |            67 |             8 |         22.01 |        919.46 | 
    |           110 |            53 |             7 |          9.06 |        928.70 | 
    |           110 |            63 |             7 |         22.01 |        951.04 | 
    |           110 |            50 |             6 |          8.56 |        959.78 | 
    |           110 |            60 |             7 |         22.02 |        982.19 | 
    |           110 |            48 |             6 |         22.00 |       1004.34 | 
    |           110 |            38 |             5 |          0.35 |       1004.79 | 
    |           110 |            45 |             5 |          2.05 |       1006.98 | 
    |           110 |            54 |             6 |          5.66 |       1012.88 | 
    |           110 |            64 |             7 |         22.01 |       1035.13 | 
    |           110 |            51 |             6 |         22.02 |       1057.33 | 
    |           110 |            40 |             5 |          2.29 |       1059.74 | 
    |           110 |            48 |             6 |         22.00 |       1081.87 | 
    |           110 |            38 |             5 |          1.22 |       1083.20 | 
    |           110 |            45 |             6 |          5.08 |       1088.51 | 
    |           110 |            54 |             6 |         19.16 |       1107.86 | 
    |           110 |            64 |             8 |         22.01 |       1130.16 | 
    |           110 |            51 |             6 |         22.00 |       1152.33 | 
    |           110 |            40 |             4 |          0.30 |       1152.68 | 
    |           110 |            48 |             6 |          7.35 |       1160.24 | 
    |           110 |            57 |             7 |         12.97 |       1173.44 | 
    |           110 |            68 |             8 |         22.45 |       1196.26 | 
    |           110 |            54 |             6 |         13.84 |       1210.25 | 
    |           110 |            64 |             7 |         22.03 |       1232.59 | 
    |           110 |            51 |             6 |          6.30 |       1239.14 | 
    |           110 |            61 |             7 |         20.73 |       1260.12 | Academic license - for non-commercial use only
Academic license - for non-commercial use only
Academic license - for non-commercial use only
Academic license - for non-commercial use only
Academic license - for non-commercial use only
Academic license - for non-commercial use only
Academic license - for non-commercial use only
Academic license - for non-commercial use only
Academic license - for non-commercial use only
Academic license - for non-commercial use only
Academic license - for non-commercial use only
Academic license - for non-commercial use only
Academic license - for non-commercial use only
Academic license - for non-commercial use only
Academic license - for non-commercial use only
Academic license - for non-commercial use only
Academic license - for non-commercial use only
Academic license - for non-commercial use only
Academic license - for non-commercial use only
Academic license - for non-commercial use only
Academic license - for non-commercial use only
Academic license - for non-commercial use only
Academic license - for non-commercial use only
Academic license - for non-commercial use only
Academic license - for non-commercial use only
Academic license - for non-commercial use only
Academic license - for non-commercial use only
Academic license - for non-commercial use only
Academic license - for non-commercial use only
Academic license - for non-commercial use only
Academic license - for non-commercial use only
Academic license - for non-commercial use only
Academic license - for non-commercial use only
Academic license - for non-commercial use only
Academic license - for non-commercial use only
Academic license - for non-commercial use only
Academic license - for non-commercial use only
Academic license - for non-commercial use only
Academic license - for non-commercial use only
Academic license - for non-commercial use only
Academic license - for non-commercial use only
Academic license - for non-commercial use only
Academic license - for non-commercial use only
Academic license - for non-commercial use only
Academic license - for non-commercial use only
Academic license - for non-commercial use only
Academic license - for non-commercial use only
Academic license - for non-commercial use only
Academic license - for non-commercial use only
Academic license - for non-commercial use only
Academic license - for non-commercial use only
Academic license - for non-commercial use only
Academic license - for non-commercial use only
Academic license - for non-commercial use only
Academic license - for non-commercial use only
Academic license - for non-commercial use only
Academic license - for non-commercial use only
Academic license - for non-commercial use only
Academic license - for non-commercial use only
Academic license - for non-commercial use only
Academic license - for non-commercial use only
Academic license - for non-commercial use only
Academic license - for non-commercial use only
Academic license - for non-commercial use only
Academic license - for non-commercial use only
Academic license - for non-commercial use only
Academic license - for non-commercial use only
Academic license - for non-commercial use only
Academic license - for non-commercial use only
Academic license - for non-commercial use only
Academic license - for non-commercial use only
Academic license - for non-commercial use only
Academic license - for non-commercial use only
Academic license - for non-commercial use only
Academic license - for non-commercial use only
Academic license - for non-commercial use only
Academic license - for non-commercial use only
Academic license - for non-commercial use only
Academic license - for non-commercial use only
Academic license - for non-commercial use only
Academic license - for non-commercial use only
Academic license - for non-commercial use only
Academic license - for non-commercial use only
Academic license - for non-commercial use only
Academic license - for non-commercial use only
Academic license - for non-commercial use only
Academic license - for non-commercial use only
Academic license - for non-commercial use only
Academic license - for non-commercial use only
Academic license - for non-commercial use only
Academic license - for non-commercial use only
Academic license - for non-commercial use only
Academic license - for non-commercial use only
Academic license - for non-commercial use only
Academic license - for non-commercial use only

    |           110 |            73 |             8 |         22.01 |       1282.54 | 
    |           110 |            58 |             6 |          3.22 |       1285.92 | 
    |           110 |            69 |             8 |         22.00 |       1308.37 | 
    |           110 |            55 |             6 |          3.74 |       1312.25 | 
    |           110 |            66 |             8 |         22.02 |       1334.85 | 
    |           110 |            52 |             6 |          2.77 |       1337.78 | 
    |           110 |            62 |             7 |         22.01 |       1360.05 | 
    |           110 |            49 |             5 |          2.67 |       1362.84 | 
    |           110 |            58 |             6 |          4.50 |       1367.49 | 
    |           110 |            69 |             8 |         22.00 |       1389.90 | 
    |           110 |            55 |             7 |         22.04 |       1412.13 | 
    |           110 |            44 |             5 |          0.99 |       1413.24 | 
    |           110 |            52 |             6 |         22.00 |       1435.45 | 
    |           110 |            41 |             5 |          0.81 |       1436.34 | 
    |           110 |            49 |             6 |          2.34 |       1438.89 | 
    |           110 |            58 |             7 |         22.01 |       1461.10 | 
    |           110 |            46 |             6 |         13.00 |       1474.28 | 
    |           110 |            55 |             6 |          7.39 |       1481.86 | 
    |           110 |            66 |             8 |         22.03 |       1504.30 | 
    |           110 |            52 |             6 |          4.39 |       1508.89 | 
    |           110 |            62 |             7 |          7.92 |       1517.07 | 
    |           110 |            74 |             8 |         22.01 |       1539.50 | 
    |           110 |            59 |             7 |         22.00 |       1561.72 | 
    |           110 |            47 |             6 |         22.01 |       1583.83 | 
    |           110 |            37 |             4 |          0.28 |       1584.32 | 
    |           110 |            44 |             5 |          1.84 |       1586.28 | 
    |           110 |            52 |             6 |          7.85 |       1594.34 | 
    |           110 |            62 |             7 |         22.00 |       1616.68 | 
    |           110 |            49 |             6 |          9.93 |       1626.80 | 
    |           110 |            58 |             6 |          3.29 |       1630.28 | 
    |           110 |            69 |             8 |         22.01 |       1652.68 | 
    |           110 |            55 |             6 |         10.08 |       1662.93 | 
    |           110 |            66 |             7 |         17.82 |       1681.01 | 
    |           110 |            79 |             8 |         22.01 |       1703.49 | 
    |           110 |            63 |             7 |         22.06 |       1725.93 | 
    |           110 |            50 |             6 |          4.01 |       1730.15 | 
    |           110 |            60 |             6 |          6.58 |       1736.93 | 
    |           110 |            72 |             8 |         22.01 |       1759.38 | 
    |           110 |            57 |             7 |         22.02 |       1781.63 | 
    |           110 |            45 |             5 |          2.91 |       1784.63 | 
    |           110 |            54 |             6 |         15.43 |       1800.45 | 
    |           110 |            64 |             7 |         22.00 |       1822.76 | 
    |           110 |            51 |             6 |         22.00 |       1844.89 | 
    |           110 |            40 |             5 |          7.54 |       1852.50 | 
    |           110 |            48 |             5 |          1.04 |       1853.70 | 
    |           110 |            57 |             6 |          4.07 |       1858.01 | 
    |           110 |            68 |             8 |         22.06 |       1880.47 | 
    |           110 |            54 |             6 |          2.63 |       1883.24 | 
    |           110 |            64 |             7 |         22.00 |       1905.55 | 
    |           110 |            51 |             6 |          3.51 |       1909.29 | 
    |           110 |            61 |             7 |          9.76 |       1919.26 | 
    |           110 |            73 |             8 |         16.17 |       1935.85 | 
    |           110 |            87 |            10 |         22.01 |       1958.52 | 
    |           110 |            69 |             8 |         22.00 |       1980.97 | 
    |           110 |            55 |             7 |         22.00 |       2003.17 | 
    |           110 |            44 |             5 |          1.00 |       2004.25 | 
    |           110 |            52 |             7 |         22.01 |       2026.64 | 
    |           110 |            41 |             5 |          0.59 |       2027.30 | 
    |           110 |            49 |             6 |          1.08 |       2028.53 | 
    |           110 |            58 |             7 |         22.00 |       2050.83 | 
    |           110 |            46 |             5 |          1.50 |       2052.41 | 
    |           110 |            55 |             7 |         22.02 |       2074.75 | 
    |           110 |            44 |             5 |          0.73 |       2075.56 | 
    |           110 |            52 |             6 |         22.00 |       2097.73 | 
    |           110 |            41 |             5 |          4.79 |       2102.64 | 
    |           110 |            49 |             6 |          3.73 |       2106.52 | 
    |           110 |            58 |             7 |         22.00 |       2128.79 | 
    |           110 |            46 |             5 |          1.37 |       2130.24 | 
    |           110 |            55 |             6 |          3.23 |       2133.62 | 
    |           110 |            66 |             7 |         22.07 |       2156.04 | 
    |           110 |            52 |             6 |         22.00 |       2178.20 | 
    |           110 |            41 |             5 |          0.80 |       2179.11 | 
    |           110 |            49 |             6 |         22.00 |       2201.23 | 
    |           110 |            39 |             5 |          0.81 |       2202.19 | 
    |           110 |            46 |             5 |          1.14 |       2203.43 | 
    |           110 |            55 |             6 |         22.00 |       2225.62 | 
    |           110 |            44 |             5 |          1.71 |       2227.40 | 
    |           110 |            52 |             6 |          8.94 |       2236.49 | 
    |           110 |            62 |             7 |         22.02 |       2258.76 | 
    |           110 |            49 |             6 |         12.92 |       2271.90 | 
    |           110 |            58 |             7 |         22.01 |       2294.23 | 
    |           110 |            46 |             6 |         14.92 |       2309.26 | 
    |           110 |            55 |             7 |         22.02 |       2331.52 | 
    |           110 |            44 |             6 |         17.54 |       2349.21 | 
    |           110 |            52 |             6 |         22.00 |       2371.37 | 
    |           110 |            41 |             5 |          0.52 |       2371.94 | 
    |           110 |            49 |             6 |         22.00 |       2394.18 | 
    |           110 |            39 |             5 |          0.81 |       2395.08 | 
    |           110 |            46 |             5 |          2.42 |       2397.62 | 
    |           110 |            55 |             6 |         10.79 |       2408.56 | 
    |           110 |            66 |             7 |          6.62 |       2415.43 | 
    |           110 |            79 |             9 |         22.01 |       2438.02 | 
    |           110 |            63 |             7 |         22.03 |       2460.46 | 
    |           110 |            50 |             6 |          2.98 |       2463.55 | 
    |           110 |            60 |             6 |          3.58 |       2467.45 | Academic license - for non-commercial use only
Academic license - for non-commercial use only
Academic license - for non-commercial use only
Academic license - for non-commercial use only
Academic license - for non-commercial use only
Academic license - for non-commercial use only
Academic license - for non-commercial use only
Academic license - for non-commercial use only
Academic license - for non-commercial use only
Academic license - for non-commercial use only
Academic license - for non-commercial use only
Academic license - for non-commercial use only
Academic license - for non-commercial use only
Academic license - for non-commercial use only
Academic license - for non-commercial use only
Academic license - for non-commercial use only
Academic license - for non-commercial use only
Academic license - for non-commercial use only
Academic license - for non-commercial use only
Academic license - for non-commercial use only
Academic license - for non-commercial use only
Academic license - for non-commercial use only
Academic license - for non-commercial use only
Academic license - for non-commercial use only
Academic license - for non-commercial use only
Academic license - for non-commercial use only
Academic license - for non-commercial use only
Academic license - for non-commercial use only
Academic license - for non-commercial use only
Academic license - for non-commercial use only
Academic license - for non-commercial use only
Academic license - for non-commercial use only
Academic license - for non-commercial use only
Academic license - for non-commercial use only
Academic license - for non-commercial use only
Academic license - for non-commercial use only
Academic license - for non-commercial use only
Academic license - for non-commercial use only
Academic license - for non-commercial use only
Academic license - for non-commercial use only
Academic license - for non-commercial use only
Academic license - for non-commercial use only
Academic license - for non-commercial use only
Academic license - for non-commercial use only
Academic license - for non-commercial use only
Academic license - for non-commercial use only
Academic license - for non-commercial use only
Academic license - for non-commercial use only
Academic license - for non-commercial use only
Academic license - for non-commercial use only
Academic license - for non-commercial use only
Academic license - for non-commercial use only
Academic license - for non-commercial use only
Academic license - for non-commercial use only
Academic license - for non-commercial use only
Academic license - for non-commercial use only
Academic license - for non-commercial use only

    |           110 |            72 |             8 |         22.01 |       2489.75 | 
    |           110 |            57 |             7 |         22.00 |       2511.97 | 
    |           110 |            45 |             5 |          3.08 |       2515.15 | 
    |           110 |            54 |             6 |          1.10 |       2516.40 | 
    |           110 |            64 |             7 |         10.15 |       2526.92 | 
    |           110 |            76 |             9 |         22.01 |       2549.34 | 
    |           110 |            60 |             7 |          2.03 |       2551.56 | 
    |           110 |            72 |             9 |         22.01 |       2574.06 | 
    |           110 |            57 |             7 |         22.02 |       2596.44 | 
    |           110 |            45 |             6 |         22.00 |       2618.63 | 
    |           110 |            36 |             4 |          0.23 |       2618.90 | 
    |           110 |            43 |             5 |          1.74 |       2620.84 | 
    |           110 |            51 |             6 |         16.71 |       2637.69 | 
    |           110 |            61 |             7 |         12.80 |       2650.79 | 
    |           110 |            73 |             8 |         22.03 |       2673.18 | 
    |           110 |            58 |             7 |          9.12 |       2682.53 | 
    |           110 |            69 |             7 |         22.00 |       2704.81 | 
    |           110 |            55 |             6 |         22.00 |       2726.94 | 
    |           110 |            44 |             5 |          4.99 |       2732.05 | 
    |           110 |            52 |             6 |          5.67 |       2737.93 | 
    |           110 |            62 |             7 |         22.00 |       2760.17 | 
    |           110 |            49 |             6 |         22.00 |       2782.29 | 
    |           110 |            39 |             4 |          0.29 |       2782.63 | 
    |           110 |            46 |             5 |          0.84 |       2783.64 | 
    |           110 |            55 |             7 |         11.26 |       2795.14 | 
    |           110 |            66 |             7 |          8.88 |       2804.30 | 
    |           110 |            79 |             9 |         22.08 |       2826.91 | 
    |           110 |            63 |             7 |          7.40 |       2834.52 | 
    |           110 |            75 |             9 |         22.01 |       2857.02 | 
    |           110 |            60 |             7 |          5.95 |       2863.23 | 
    |           110 |            72 |             8 |         22.02 |       2885.69 | 
    |           110 |            57 |             6 |          4.68 |       2890.54 | 
    |           110 |            68 |             8 |         22.01 |       2912.96 | 
    |           110 |            54 |             7 |          8.29 |       2921.47 | 
    |           110 |            64 |             7 |         22.00 |       2943.71 | 
    |           110 |            51 |             6 |          9.05 |       2952.89 | 
    |           110 |            61 |             8 |         22.01 |       2975.28 | 
    |           110 |            48 |             6 |         13.87 |       2989.42 | 
    |           110 |            57 |             6 |          7.66 |       2997.27 | 
    |           110 |            68 |             8 |         22.02 |       3019.77 | 
    |           110 |            54 |             6 |         16.44 |       3036.34 | 
    |           110 |            64 |             7 |         22.01 |       3058.67 | 
    |           110 |            51 |             6 |         21.24 |       3080.10 | 
    |           110 |            61 |             7 |         22.02 |       3102.39 | 
    |           110 |            48 |             6 |          3.73 |       3106.29 | 
    |           110 |            57 |             7 |         22.01 |       3128.55 | 
    |           110 |            45 |             5 |          0.96 |       3129.64 | 
    |           110 |            54 |             6 |          5.50 |       3135.28 | 
    |           110 |            64 |             7 |         22.00 |       3157.57 | 
    |           110 |            51 |             6 |         22.00 |       3179.73 | 
    |           110 |            40 |             5 |          3.12 |       3182.94 | 
    |           110 |            48 |             5 |          2.58 |       3185.65 | 
    |           110 |            57 |             6 |          3.20 |       3189.05 | 
    |           110 |            68 |             7 |         22.01 |       3211.30 | 
    |           110 |            54 |             6 |         11.16 |       3222.61 | 
    |           110 |            64 |             7 |          2.31 |       3225.16 | 
    |           110 |            76 |             8 |         13.88 |       3239.58 | 
-10.909090909090908
