Instance....: instances/I_200_10_S_1-49_6.txt
Algorithm...: Simulated Annealing (alpha=0.990, saMax=10M, t0=1)
Other params: maxIters=100M, seed=4, timeLimit=360.00s

    /--------------------------------------------------------\
    |     Iter |   RDP(%) |       S* |       S' |       Time | 
    |----------|----------|----------|----------|------------|
    |        0 |        - |     1782 |     1782 |       0.00 | s0
    |        0 |        - |     1699 |     1699 |       0.00 | *
    |        2 |        - |     1671 |     1671 |       0.00 | *
    |        7 |        - |     1652 |     1652 |       0.02 | *
    |       14 |        - |     1647 |     1647 |       0.02 | *
    |       18 |        - |     1631 |     1631 |       0.02 | *
    |       20 |        - |     1627 |     1627 |       0.02 | *
    |       24 |        - |     1600 |     1600 |       0.02 | *
    |       25 |        - |     1598 |     1598 |       0.03 | *
    |       26 |        - |     1569 |     1569 |       0.03 | *
    |       27 |        - |     1563 |     1563 |       0.03 | *
    |       31 |        - |     1560 |     1560 |       0.03 | *
    |       35 |        - |     1555 |     1555 |       0.03 | *
    |       48 |        - |     1547 |     1547 |       0.03 | *
    |       53 |        - |     1527 |     1527 |       0.03 | *
    |       54 |        - |     1517 |     1517 |       0.03 | *
    |       58 |        - |     1504 |     1504 |       0.03 | *
    |       59 |        - |     1493 |     1493 |       0.03 | *
    |       60 |        - |     1458 |     1458 |       0.03 | *
    |       61 |        - |     1451 |     1451 |       0.03 | *
    |       72 |        - |     1440 |     1440 |       0.03 | *
    |       76 |        - |     1427 |     1427 |       0.03 | *
    |       80 |        - |     1408 |     1408 |       0.03 | *
    |       88 |        - |     1404 |     1404 |       0.03 | *
    |       98 |        - |     1401 |     1401 |       0.03 | *
    |      101 |        - |     1399 |     1399 |       0.03 | *
    |      104 |        - |     1396 |     1396 |       0.03 | *
    |      106 |        - |     1351 |     1351 |       0.03 | *
    |      108 |        - |     1344 |     1344 |       0.03 | *
    |      110 |        - |     1336 |     1336 |       0.03 | *
    |      114 |        - |     1320 |     1320 |       0.03 | *
    |      118 |        - |     1312 |     1312 |       0.03 | *
    |      120 |        - |     1311 |     1311 |       0.03 | *
    |      124 |        - |     1292 |     1292 |       0.03 | *
    |      128 |        - |     1284 |     1284 |       0.04 | *
    |      130 |        - |     1279 |     1279 |       0.04 | *
    |      131 |        - |     1273 |     1273 |       0.04 | *
    |      135 |        - |     1254 |     1254 |       0.04 | *
    |      141 |        - |     1243 |     1243 |       0.04 | *
    |      154 |        - |     1242 |     1242 |       0.04 | *
    |      155 |        - |     1237 |     1237 |       0.04 | *
    |      159 |        - |     1235 |     1235 |       0.04 | *
    |      160 |        - |     1232 |     1232 |       0.04 | *
    |      163 |        - |     1219 |     1219 |       0.04 | *
    |      173 |        - |     1217 |     1217 |       0.04 | *
    |      187 |        - |     1215 |     1215 |       0.04 | *
    |      198 |        - |     1214 |     1214 |       0.04 | *
    |      199 |        - |     1210 |     1210 |       0.04 | *
    |      203 |        - |     1206 |     1206 |       0.04 | *
    |      204 |        - |     1189 |     1189 |       0.04 | *
    |      206 |        - |     1187 |     1187 |       0.04 | *
    |      214 |        - |     1185 |     1185 |       0.04 | *
    |      224 |        - |     1177 |     1177 |       0.04 | *
    |      233 |        - |     1169 |     1169 |       0.04 | *
    |      236 |        - |     1166 |     1166 |       0.04 | *
    |      253 |        - |     1165 |     1165 |       0.04 | *
    |      261 |        - |     1159 |     1159 |       0.04 | *
    |      268 |        - |     1158 |     1158 |       0.04 | *
    |      277 |        - |     1153 |     1153 |       0.04 | *
    |      285 |        - |     1147 |     1147 |       0.04 | *
    |      288 |        - |     1144 |     1144 |       0.04 | *
    |      293 |        - |     1135 |     1135 |       0.04 | *
    |      296 |        - |     1132 |     1132 |       0.04 | *
    |      298 |        - |     1131 |     1131 |       0.05 | *
    |      315 |        - |     1114 |     1114 |       0.05 | *
    |      323 |        - |     1109 |     1109 |       0.05 | *
    |      338 |        - |     1102 |     1102 |       0.05 | *
    |      350 |        - |     1098 |     1098 |       0.05 | *
    |      353 |        - |     1094 |     1094 |       0.05 | *
    |      355 |        - |     1092 |     1092 |       0.05 | *
    |      356 |        - |     1088 |     1088 |       0.05 | *
    |      360 |        - |     1087 |     1087 |       0.05 | *
    |      372 |        - |     1079 |     1079 |       0.05 | *
    |      376 |        - |     1075 |     1075 |       0.05 | *
    |      390 |        - |     1072 |     1072 |       0.05 | *
    |      403 |        - |     1071 |     1071 |       0.05 | *
    |      415 |        - |     1066 |     1066 |       0.05 | *
    |      420 |        - |     1063 |     1063 |       0.05 | *
    |      436 |        - |     1059 |     1059 |       0.05 | *
    |      466 |        - |     1049 |     1049 |       0.05 | *
    |      468 |        - |     1048 |     1048 |       0.05 | *
    |      477 |        - |     1036 |     1036 |       0.05 | *
    |      489 |        - |     1032 |     1032 |       0.05 | *
    |      500 |        - |     1031 |     1031 |       0.05 | *
    |      502 |        - |     1020 |     1020 |       0.05 | *
    |      503 |        - |     1019 |     1019 |       0.05 | *
    |      506 |        - |     1015 |     1015 |       0.05 | *
    |      508 |        - |     1013 |     1013 |       0.06 | *
    |      518 |        - |     1004 |     1004 |       0.06 | *
    |      519 |        - |     1002 |     1002 |       0.06 | *
    |      521 |        - |     1001 |     1001 |       0.06 | *
    |      524 |        - |      993 |      993 |       0.06 | *
    |      526 |        - |      985 |      985 |       0.06 | *
    |      533 |        - |      981 |      981 |       0.06 | *
    |      534 |        - |      975 |      975 |       0.06 | *
    |      543 |        - |      968 |      968 |       0.06 | *
    |      550 |        - |      964 |      964 |       0.06 | *
    |      551 |        - |      959 |      959 |       0.06 | *
    |      554 |        - |      957 |      957 |       0.06 | *
    |      558 |        - |      952 |      952 |       0.06 | *
    |      561 |        - |      949 |      949 |       0.06 | *
    |      567 |        - |      948 |      948 |       0.06 | *
    |      583 |        - |      946 |      946 |       0.06 | *
    |      598 |        - |      942 |      942 |       0.06 | *
    |      602 |        - |      938 |      938 |       0.06 | *
    |      605 |        - |      936 |      936 |       0.06 | *
    |      624 |        - |      932 |      932 |       0.07 | *
    |      629 |        - |      930 |      930 |       0.07 | *
    |      643 |        - |      928 |      928 |       0.07 | *
    |      673 |        - |      927 |      927 |       0.07 | *
    |      691 |        - |      925 |      925 |       0.07 | *
    |      696 |        - |      924 |      924 |       0.07 | *
    |      704 |        - |      921 |      921 |       0.07 | *
    |      722 |        - |      918 |      918 |       0.07 | *
    |      743 |        - |      917 |      917 |       0.07 | *
    |      748 |        - |      914 |      914 |       0.07 | *
    |      778 |        - |      913 |      913 |       0.07 | *
    |      782 |        - |      905 |      905 |       0.07 | *
    |      783 |        - |      902 |      902 |       0.07 | *
    |      790 |        - |      894 |      894 |       0.07 | *
    |      796 |        - |      891 |      891 |       0.07 | *
    |      813 |        - |      888 |      888 |       0.07 | *
    |      844 |        - |      884 |      884 |       0.07 | *
    |      856 |        - |      881 |      881 |       0.07 | *
    |      877 |        - |      878 |      878 |       0.08 | *
    |      882 |        - |      875 |      875 |       0.08 | *
    |      885 |        - |      873 |      873 |       0.08 | *
    |      887 |        - |      869 |      869 |       0.08 | *
    |      888 |        - |      868 |      868 |       0.08 | *
    |      912 |        - |      859 |      859 |       0.08 | *
    |      941 |        - |      857 |      857 |       0.08 | *
    |      945 |        - |      852 |      852 |       0.08 | *
    |      959 |        - |      851 |      851 |       0.08 | *
    |      970 |        - |      850 |      850 |       0.08 | *
    |      971 |        - |      848 |      848 |       0.08 | *
    |      972 |        - |      847 |      847 |       0.08 | *
    |      977 |        - |      840 |      840 |       0.08 | *
    |      995 |        - |      838 |      838 |       0.08 | *
    |      996 |        - |      837 |      837 |       0.08 | *
    |     1031 |        - |      834 |      834 |       0.09 | *
    |     1039 |        - |      832 |      832 |       0.09 | *
    |     1042 |        - |      831 |      831 |       0.09 | *
    |     1051 |        - |      830 |      830 |       0.09 | *
    |     1089 |        - |      829 |      829 |       0.09 | *
    |     1112 |        - |      827 |      827 |       0.09 | *
    |     1151 |        - |      824 |      824 |       0.09 | *
    |     1152 |        - |      823 |      823 |       0.09 | *
    |     1172 |        - |      822 |      822 |       0.09 | *
    |     1179 |        - |      820 |      820 |       0.09 | *
    |     1184 |        - |      819 |      819 |       0.09 | *
    |     1188 |        - |      806 |      806 |       0.09 | *
    |     1197 |        - |      804 |      804 |       0.09 | *
    |     1202 |        - |      798 |      798 |       0.09 | *
    |     1216 |        - |      797 |      797 |       0.09 | *
    |     1218 |        - |      796 |      796 |       0.09 | *
    |     1225 |        - |      793 |      793 |       0.09 | *
    |     1234 |        - |      791 |      791 |       0.09 | *
    |     1270 |        - |      789 |      789 |       0.09 | *
    |     1273 |        - |      787 |      787 |       0.09 | *
    |     1275 |        - |      784 |      784 |       0.10 | *
    |     1288 |        - |      783 |      783 |       0.10 | *
    |     1302 |        - |      779 |      779 |       0.10 | *
    |     1306 |        - |      777 |      777 |       0.10 | *
    |     1360 |        - |      771 |      771 |       0.10 | *
    |     1363 |        - |      770 |      770 |       0.10 | *
    |     1380 |        - |      765 |      765 |       0.10 | *
    |     1385 |        - |      763 |      763 |       0.10 | *
    |     1389 |        - |      760 |      760 |       0.10 | *
    |     1400 |        - |      759 |      759 |       0.10 | *
    |     1406 |        - |      756 |      756 |       0.10 | *
    |     1410 |        - |      753 |      753 |       0.10 | *
    |     1414 |        - |      750 |      750 |       0.10 | *
    |     1457 |        - |      748 |      748 |       0.10 | *
    |     1480 |        - |      746 |      746 |       0.10 | *
    |     1497 |        - |      742 |      742 |       0.10 | *
    |     1505 |        - |      741 |      741 |       0.10 | *
    |     1507 |        - |      737 |      737 |       0.10 | *
    |     1537 |        - |      736 |      736 |       0.10 | *
    |     1572 |        - |      731 |      731 |       0.10 | *
    |     1610 |        - |      729 |      729 |       0.11 | *
    |     1611 |        - |      727 |      727 |       0.11 | *
    |     1629 |        - |      725 |      725 |       0.11 | *
    |     1637 |        - |      724 |      724 |       0.11 | *
    |     1732 |        - |      723 |      723 |       0.11 | *
    |     1745 |        - |      722 |      722 |       0.11 | *
    |     1763 |        - |      719 |      719 |       0.11 | *
    |     1764 |        - |      717 |      717 |       0.11 | *
    |     1777 |        - |      716 |      716 |       0.11 | *
    |     1802 |        - |      715 |      715 |       0.11 | *
    |     1809 |        - |      711 |      711 |       0.11 | *
    |     1818 |        - |      710 |      710 |       0.11 | *
    |     1827 |        - |      708 |      708 |       0.11 | *
    |     1836 |        - |      707 |      707 |       0.11 | *
    |     1851 |        - |      706 |      706 |       0.11 | *
    |     1940 |        - |      705 |      705 |       0.11 | *
    |     1960 |        - |      704 |      704 |       0.11 | *
    |     1982 |        - |      703 |      703 |       0.11 | *
    |     2003 |        - |      702 |      702 |       0.11 | *
    |     2004 |        - |      690 |      690 |       0.11 | *
    |     2005 |        - |      687 |      687 |       0.11 | *
    |     2008 |        - |      685 |      685 |       0.12 | *
    |     2024 |        - |      682 |      682 |       0.12 | *
    |     2035 |        - |      680 |      680 |       0.12 | *
    |     2055 |        - |      679 |      679 |       0.12 | *
    |     2058 |        - |      678 |      678 |       0.12 | *
    |     2073 |        - |      673 |      673 |       0.12 | *
    |     2122 |        - |      672 |      672 |       0.12 | *
    |     2145 |        - |      668 |      668 |       0.12 | *
    |     2156 |        - |      667 |      667 |       0.12 | *
    |     2167 |        - |      663 |      663 |       0.12 | *
    |     2176 |        - |      661 |      661 |       0.12 | *
    |     2192 |        - |      660 |      660 |       0.12 | *
    |     2278 |        - |      658 |      658 |       0.12 | *
    |     2283 |        - |      651 |      651 |       0.12 | *
    |     2371 |        - |      647 |      647 |       0.12 | *
    |     2392 |        - |      645 |      645 |       0.12 | *
    |     2439 |        - |      644 |      644 |       0.12 | *
    |     2476 |        - |      642 |      642 |       0.12 | *
    |     2479 |        - |      641 |      641 |       0.12 | *
    |     2506 |        - |      636 |      636 |       0.12 | *
    |     2510 |        - |      633 |      633 |       0.12 | *
    |     2575 |        - |      631 |      631 |       0.12 | *
    |     2595 |        - |      629 |      629 |       0.12 | *
    |     2608 |        - |      628 |      628 |       0.12 | *
    |     2629 |        - |      625 |      625 |       0.12 | *
    |     2676 |        - |      623 |      623 |       0.12 | *
    |     2731 |        - |      622 |      622 |       0.12 | *
    |     2841 |        - |      621 |      621 |       0.12 | *
    |     2850 |        - |      620 |      620 |       0.12 | *
    |     2893 |        - |      618 |      618 |       0.13 | *
    |     2895 |        - |      616 |      616 |       0.13 | *
    |     2900 |        - |      613 |      613 |       0.13 | *
    |     2943 |        - |      611 |      611 |       0.13 | *
    |     2961 |        - |      605 |      605 |       0.13 | *
    |     2962 |        - |      604 |      604 |       0.13 | *
    |     3017 |        - |      603 |      603 |       0.13 | *
    |     3038 |        - |      602 |      602 |       0.13 | *
    |     3075 |        - |      601 |      601 |       0.13 | *
    |     3093 |        - |      600 |      600 |       0.13 | *
    |     3138 |        - |      598 |      598 |       0.13 | *
    |     3247 |        - |      597 |      597 |       0.13 | *
    |     3250 |        - |      595 |      595 |       0.13 | *
    |     3271 |        - |      593 |      593 |       0.13 | *
    |     3279 |        - |      591 |      591 |       0.13 | *
    |     3403 |        - |      588 |      588 |       0.13 | *
    |     3422 |        - |      587 |      587 |       0.13 | *
    |     3449 |        - |      585 |      585 |       0.13 | *
    |     3522 |        - |      583 |      583 |       0.13 | *
    |     3530 |        - |      578 |      578 |       0.13 | *
    |     3564 |        - |      575 |      575 |       0.13 | *
    |     3615 |        - |      574 |      574 |       0.13 | *
    |     3633 |        - |      572 |      572 |       0.13 | *
    |     3651 |        - |      571 |      571 |       0.13 | *
    |     3719 |        - |      570 |      570 |       0.14 | *
    |     3752 |        - |      569 |      569 |       0.14 | *
    |     4034 |        - |      568 |      568 |       0.14 | *
    |     4077 |        - |      567 |      567 |       0.14 | *
    |     4079 |        - |      565 |      565 |       0.14 | *
    |     4144 |        - |      561 |      561 |       0.14 | *
    |     4145 |        - |      559 |      559 |       0.14 | *
    |     4148 |        - |      558 |      558 |       0.14 | *
    |     4200 |        - |      557 |      557 |       0.14 | *
    |     4261 |        - |      555 |      555 |       0.14 | *
    |     4262 |        - |      552 |      552 |       0.14 | *
    |     4323 |        - |      547 |      547 |       0.14 | *
    |     4357 |        - |      546 |      546 |       0.14 | *
    |     4386 |        - |      543 |      543 |       0.14 | *
    |     4437 |        - |      539 |      539 |       0.14 | *
    |     4597 |        - |      538 |      538 |       0.14 | *
    |     4683 |        - |      537 |      537 |       0.15 | *
    |     4754 |        - |      536 |      536 |       0.15 | *
    |     4780 |        - |      533 |      533 |       0.15 | *
    |     4963 |        - |      532 |      532 |       0.15 | *
    |     4997 |        - |      528 |      528 |       0.15 | *
    |     5018 |        - |      527 |      527 |       0.15 | *
    |     5082 |        - |      522 |      522 |       0.15 | *
    |     5114 |        - |      521 |      521 |       0.15 | *
    |     5121 |        - |      520 |      520 |       0.15 | *
    |     5201 |        - |      519 |      519 |       0.15 | *
    |     5217 |        - |      517 |      517 |       0.15 | *
    |     5235 |        - |      516 |      516 |       0.15 | *
    |     5270 |        - |      514 |      514 |       0.15 | *
    |     5328 |        - |      513 |      513 |       0.15 | *
    |     5592 |        - |      511 |      511 |       0.15 | *
    |     5663 |        - |      510 |      510 |       0.15 | *
    |     5693 |        - |      508 |      508 |       0.15 | *
    |     5782 |        - |      506 |      506 |       0.15 | *
    |     5921 |        - |      500 |      500 |       0.16 | *
    |     5972 |        - |      499 |      499 |       0.16 | *
    |     5989 |        - |      498 |      498 |       0.16 | *
    |     6020 |        - |      495 |      495 |       0.16 | *
    |     6070 |        - |      494 |      494 |       0.16 | *
    |     6145 |        - |      493 |      493 |       0.16 | *
    |     6166 |        - |      492 |      492 |       0.16 | *
    |     6242 |        - |      491 |      491 |       0.16 | *
    |     6498 |        - |      487 |      487 |       0.16 | *
    |     6556 |        - |      483 |      483 |       0.16 | *
    |     6583 |        - |      482 |      482 |       0.16 | *
    |     6594 |        - |      480 |      480 |       0.16 | *
    |     6618 |        - |      479 |      479 |       0.16 | *
    |     6622 |        - |      478 |      478 |       0.16 | *
    |     6908 |        - |      477 |      477 |       0.17 | *
    |     7035 |        - |      472 |      472 |       0.17 | *
    |     7048 |        - |      471 |      471 |       0.17 | *
    |     7223 |        - |      470 |      470 |       0.17 | *
    |     7232 |        - |      469 |      469 |       0.17 | *
    |     7324 |        - |      464 |      464 |       0.17 | *
    |     7542 |        - |      462 |      462 |       0.17 | *
    |     7659 |        - |      461 |      461 |       0.17 | *
    |     7732 |        - |      460 |      460 |       0.17 | *
    |     7812 |        - |      459 |      459 |       0.17 | *
    |     7829 |        - |      458 |      458 |       0.17 | *
    |     8002 |        - |      457 |      457 |       0.17 | *
    |     8423 |        - |      456 |      456 |       0.18 | *
    |     8426 |        - |      455 |      455 |       0.18 | *
    |     9383 |        - |      453 |      453 |       0.18 | *
    |     9420 |        - |      452 |      452 |       0.18 | *
    |     9449 |        - |      450 |      450 |       0.18 | *
    |     9525 |        - |      449 |      449 |       0.18 | *
    |      11K |        - |      448 |      448 |       0.19 | *
    |      11K |        - |      447 |      447 |       0.19 | *
    |      11K |        - |      445 |      445 |       0.19 | *
    |      11K |        - |      444 |      444 |       0.19 | *
    |      12K |        - |      443 |      443 |       0.19 | *
    |      12K |        - |      441 |      441 |       0.19 | *
    |      12K |        - |      439 |      439 |       0.20 | *
    |      12K |        - |      437 |      437 |       0.20 | *
    |      12K |        - |      436 |      436 |       0.20 | *
    |      12K |        - |      435 |      435 |       0.20 | *
    |      12K |        - |      432 |      432 |       0.20 | *
    |      12K |        - |      431 |      431 |       0.20 | *
    |      13K |        - |      430 |      430 |       0.20 | *
    |      13K |        - |      429 |      429 |       0.20 | *
    |      13K |        - |      428 |      428 |       0.20 | *
    |      13K |        - |      427 |      427 |       0.20 | *
    |      13K |        - |      425 |      425 |       0.20 | *
    |      13K |        - |      424 |      424 |       0.20 | *
    |      13K |        - |      423 |      423 |       0.20 | *
    |      13K |        - |      421 |      421 |       0.21 | *
    |      13K |        - |      420 |      420 |       0.21 | *
    |      13K |        - |      419 |      419 |       0.21 | *
    |      14K |        - |      418 |      418 |       0.21 | *
    |      14K |        - |      417 |      417 |       0.21 | *
    |      14K |        - |      416 |      416 |       0.21 | *
    |      15K |        - |      415 |      415 |       0.21 | *
    |      15K |        - |      414 |      414 |       0.21 | *
    |      15K |        - |      412 |      412 |       0.22 | *
    |      15K |        - |      411 |      411 |       0.22 | *
    |      15K |        - |      410 |      410 |       0.22 | *
    |      16K |        - |      408 |      408 |       0.22 | *
    |      16K |        - |      407 |      407 |       0.22 | *
    |      16K |        - |      406 |      406 |       0.22 | *
    |      17K |        - |      405 |      405 |       0.22 | *
    |      17K |        - |      404 |      404 |       0.23 | *
    |      17K |        - |      403 |      403 |       0.23 | *
    |      17K |        - |      402 |      402 |       0.23 | *
    |      17K |        - |      401 |      401 |       0.23 | *
    |      18K |        - |      400 |      400 |       0.23 | *
    |      18K |        - |      398 |      398 |       0.23 | *
    |      18K |        - |      395 |      395 |       0.23 | *
    |      18K |        - |      394 |      394 |       0.23 | *
    |      18K |        - |      393 |      393 |       0.23 | *
    |      18K |        - |      391 |      391 |       0.23 | *
    |      18K |        - |      387 |      387 |       0.23 | *
    |      19K |        - |      386 |      386 |       0.24 | *
    |      20K |        - |      385 |      385 |       0.24 | *
    |      20K |        - |      384 |      384 |       0.24 | *
    |      20K |        - |      383 |      383 |       0.24 | *
    |      20K |        - |      382 |      382 |       0.24 | *
    |      21K |        - |      381 |      381 |       0.25 | *
    |      21K |        - |      380 |      380 |       0.25 | *
    |      23K |        - |      377 |      377 |       0.25 | *
    |      23K |        - |      376 |      376 |       0.25 | *
    |      23K |        - |      373 |      373 |       0.25 | *
    |      31K |        - |      372 |      372 |       0.26 | *
    |      31K |        - |      371 |      371 |       0.26 | *
    |      32K |        - |      370 |      370 |       0.26 | *
    |      32K |        - |      369 |      369 |       0.27 | *
    |      34K |        - |      368 |      368 |       0.27 | *
    |      34K |        - |      366 |      366 |       0.27 | *
    |      36K |        - |      365 |      365 |       0.27 | *
    |      47K |        - |      363 |      363 |       0.29 | *
    |      47K |        - |      362 |      362 |       0.29 | *
    |      48K |        - |      361 |      361 |       0.29 | *
    |      49K |        - |      359 |      359 |       0.29 | *
    |      49K |        - |      357 |      357 |       0.29 | *
    |      54K |        - |      355 |      355 |       0.30 | *
    |      54K |        - |      354 |      354 |       0.30 | *
    |      56K |        - |      353 |      353 |       0.31 | *
    |      67K |        - |      351 |      351 |       0.33 | *
    |      67K |        - |      349 |      349 |       0.33 | *
    |      67K |        - |      348 |      348 |       0.33 | *
    |      71K |        - |      347 |      347 |       0.33 | *
    |      72K |        - |      346 |      346 |       0.33 | *
    |      72K |        - |      345 |      345 |       0.33 | *
    |      76K |        - |      344 |      344 |       0.34 | *
    |      77K |        - |      343 |      343 |       0.34 | *
    |      88K |        - |      341 |      341 |       0.36 | *
    |      89K |        - |      339 |      339 |       0.36 | *
    |      89K |        - |      338 |      338 |       0.36 | *
    |      90K |        - |      337 |      337 |       0.37 | *
    |      90K |        - |      335 |      335 |       0.37 | *
    |      93K |        - |      334 |      334 |       0.37 | *
    |      94K |        - |      333 |      333 |       0.38 | *
    |      94K |        - |      332 |      332 |       0.38 | *
    |      94K |        - |      330 |      330 |       0.38 | *
    |     145K |        - |      329 |      329 |       0.47 | *
    |     145K |        - |      328 |      328 |       0.47 | *
    |     146K |        - |      326 |      326 |       0.47 | *
    |     155K |        - |      324 |      324 |       0.49 | *
    |     155K |        - |      323 |      323 |       0.49 | *
    |     155K |        - |      322 |      322 |       0.49 | *
    |     156K |        - |      321 |      321 |       0.49 | *
    |     158K |        - |      320 |      320 |       0.50 | *
    |     158K |        - |      318 |      318 |       0.50 | *
    |     161K |        - |      317 |      317 |       0.50 | *
    |     161K |        - |      316 |      316 |       0.50 | *
    |     162K |        - |      315 |      315 |       0.50 | *
    |     162K |        - |      314 |      314 |       0.50 | *
    |     163K |        - |      313 |      313 |       0.50 | *
    |     163K |        - |      312 |      312 |       0.50 | *
    |     163K |        - |      311 |      311 |       0.50 | *
    |     165K |        - |      309 |      309 |       0.51 | *
    |     165K |        - |      308 |      308 |       0.51 | *
    |     165K |        - |      307 |      307 |       0.51 | *
    |     166K |        - |      306 |      306 |       0.51 | *
    |     196K |        - |      305 |      305 |       0.57 | *
    |     196K |        - |      304 |      304 |       0.57 | *
    |     197K |        - |      303 |      303 |       0.57 | *
    |     199K |        - |      301 |      301 |       0.57 | *
    |     227K |        - |      300 |      300 |       0.63 | *
    |     232K |        - |      299 |      299 |       0.63 | *
    |     236K |        - |      297 |      297 |       0.64 | *
    |     238K |        - |      296 |      296 |       0.64 | *
    |     241K |        - |      295 |      295 |       0.65 | *
    |     246K |        - |      294 |      294 |       0.66 | *
    |     528K |        - |      293 |      293 |       1.09 | *
    |     528K |        - |      292 |      292 |       1.09 | *
    |     529K |        - |      291 |      291 |       1.10 | *
    |     630K |        - |      290 |      290 |       1.25 | *
    |     738K |        - |      289 |      289 |       1.40 | *
    |     738K |        - |      288 |      288 |       1.41 | *
    |     738K |        - |      287 |      287 |       1.41 | *
    |     740K |        - |      286 |      286 |       1.41 | *
    |     783K |        - |      285 |      285 |       1.47 | *
    |     783K |        - |      284 |      284 |       1.47 | *
    |     785K |        - |      283 |      283 |       1.48 | *
    |     785K |        - |      282 |      282 |       1.48 | *
    |     785K |        - |      281 |      281 |       1.48 | *
    |    1065K |        - |      280 |      280 |       1.93 | *
    |    1126K |        - |      279 |      279 |       2.01 | *
    |    1149K |        - |      278 |      278 |       2.04 | *
    |    1151K |        - |      277 |      277 |       2.04 | *
    |    1346K |        - |      276 |      276 |       2.34 | *
    |    1400K |        - |      275 |      275 |       2.43 | *
    |    1401K |        - |      274 |      274 |       2.43 | *
    |    1406K |        - |      273 |      273 |       2.44 | *
    |    1417K |        - |      272 |      272 |       2.46 | *
    |    1436K |        - |      271 |      271 |       2.50 | *
    |      11M |        - |      270 |      270 |      16.91 | *
    |      13M |        - |      269 |      269 |      19.11 | *
    |      14M |        - |      268 |      268 |      20.26 | *
    |      14M |        - |      267 |      267 |      20.60 | *
    |      26M |        - |      266 |      266 |      37.59 | *
    |      26M |        - |      265 |      265 |      37.59 | *
    |      52M |        - |      264 |      264 |      74.99 | *
    |      52M |        - |      263 |      263 |      75.05 | *
    |      69M |        - |      262 |      262 |      99.58 | *
    |      79M |        - |      261 |      261 |     113.87 | *
    \--------------------------------------------------------/

Neighborhoods statistics (values in %):

    /----------------------------------------------------------------\
    | Move               | Improvs. | Sideways |  Accepts |  Rejects |
    |--------------------|----------|----------|----------|----------|
    | Shift(mk)          |     9587 |      13K |      27K |      10M |
    | Shift              |      939 |      91K |     101K |      10M |
    | ShiftSmart(mk)     |     154K |     201K |     417K |    9986K |
    | ShiftSmart         |      15K |    1097K |    1200K |    9203K |
    | SimpSwap(mk)       |       22 |       28 |       55 |      10M |
    | SimpSwap           |        4 |      127 |      148 |      10M |
    | SimpSwapSmart(mk)  |      432 |      607 |     1264 |      10M |
    | SimpSwapSmart      |       84 |     2089 |     2618 |      10M |
    | Swap(mk)           |        1 |        3 |        7 |      10M |
    | Swap               |        1 |       27 |       31 |      10M |
    | SwapSmart(mk)      |      325 |      532 |     1037 |      10M |
    | SwapSmart          |       57 |     1807 |     2162 |      10M |
    | Switch(mk)         |     2679 |     539K |     543K |    9858K |
    | Switch             |      263 |     558K |     560K |    9843K |
    | SwitchSmart(mk)    |      41K |      41K |      97K |      10M |
    | SwitchSmart        |     4092 |     317K |     351K |      10M |
    | TaskMove(mk)       |      285 |      399 |      838 |      10M |
    | TaskMove           |       28 |      814 |      999 |      10M |
    | TaskMoveSmart(mk)  |     4488 |     5804 |      13K |      10M |
    | TaskMoveSmart      |      567 |      13K |      17K |      10M |
    | 2-Shift(mk)        |     1210 |      32K |      34K |      10M |
    | 2-Shift            |      113 |      42K |      44K |      10M |
    | 2-ShiftSmart(mk)   |      39K |      84K |     133K |      10M |
    | 2-ShiftSmart       |     3854 |     319K |     344K |      10M |
    \----------------------------------------------------------------/

Best makespan.....: 261
N. of Iterations..: 249653361
Total runtime.....: 360.01s
Academic license - for non-commercial use only
Academic license - for non-commercial use only
Academic license - for non-commercial use only
Academic license - for non-commercial use only
Academic license - for non-commercial use only
Academic license - for non-commercial use only
Academic license - for non-commercial use only
Academic license - for non-commercial use only
Academic license - for non-commercial use only
Academic license - for non-commercial use only
Academic license - for non-commercial use only
Academic license - for non-commercial use only
Academic license - for non-commercial use only
Academic license - for non-commercial use only
Academic license - for non-commercial use only
Academic license - for non-commercial use only
Academic license - for non-commercial use only
Academic license - for non-commercial use only
Academic license - for non-commercial use only
Academic license - for non-commercial use only
Academic license - for non-commercial use only
Academic license - for non-commercial use only
Academic license - for non-commercial use only
Academic license - for non-commercial use only
Academic license - for non-commercial use only
Academic license - for non-commercial use only
Academic license - for non-commercial use only
Academic license - for non-commercial use only
Academic license - for non-commercial use only
Academic license - for non-commercial use only
Academic license - for non-commercial use only
Academic license - for non-commercial use only
Academic license - for non-commercial use only
Academic license - for non-commercial use only
Academic license - for non-commercial use only
Academic license - for non-commercial use only
Academic license - for non-commercial use only
Academic license - for non-commercial use only
Academic license - for non-commercial use only
Academic license - for non-commercial use only
Academic license - for non-commercial use only
Academic license - for non-commercial use only
Academic license - for non-commercial use only
Academic license - for non-commercial use only
Academic license - for non-commercial use only
Academic license - for non-commercial use only
Academic license - for non-commercial use only
Academic license - for non-commercial use only
Academic license - for non-commercial use only
Academic license - for non-commercial use only
Academic license - for non-commercial use only
Academic license - for non-commercial use only
Academic license - for non-commercial use only
Academic license - for non-commercial use only
Academic license - for non-commercial use only
Academic license - for non-commercial use only
Academic license - for non-commercial use only
Academic license - for non-commercial use only
Academic license - for non-commercial use only
Academic license - for non-commercial use only
Academic license - for non-commercial use only
Academic license - for non-commercial use only
Academic license - for non-commercial use only
Academic license - for non-commercial use only
Academic license - for non-commercial use only
Academic license - for non-commercial use only
Academic license - for non-commercial use only
Academic license - for non-commercial use only
Academic license - for non-commercial use only
Academic license - for non-commercial use only
Academic license - for non-commercial use only
Academic license - for non-commercial use only
Academic license - for non-commercial use only
Academic license - for non-commercial use only
Academic license - for non-commercial use only
Academic license - for non-commercial use only
Academic license - for non-commercial use only
Academic license - for non-commercial use only
Academic license - for non-commercial use only
Academic license - for non-commercial use only
Academic license - for non-commercial use only
Academic license - for non-commercial use only
Academic license - for non-commercial use only
Academic license - for non-commercial use only
Academic license - for non-commercial use only
Academic license - for non-commercial use only
Academic license - for non-commercial use only
Academic license - for non-commercial use only
Academic license - for non-commercial use only
Academic license - for non-commercial use only
Academic license - for non-commercial use only
Academic license - for non-commercial use only
    /-------------------------------------------------------------------------------\
    |    Makespam   |   Free Jobs   | Free Machines |    It. Time   |   Total Time  | 
    |-------------------------------------------------------------------------------|
    |           261 |            33 |             2 |          0.86 |          1.46 | 
    |           261 |            39 |             3 |          0.26 |          1.98 | 
    |           261 |            46 |             3 |          0.50 |          2.61 | 
    |           260 |            55 |             3 |          5.49 |          8.21 | 
    |           260 |            55 |             4 |          2.07 |         10.44 | 
    |           260 |            66 |             4 |          3.41 |         14.10 | 
    |           260 |            79 |             5 |          9.88 |         24.41 | 
    |           258 |            94 |             5 |         10.90 |         35.72 | 
    |           256 |            94 |             5 |         10.09 |         46.36 | 
    |           256 |            94 |             5 |         22.02 |         68.84 | 
    |           256 |            75 |             5 |         22.01 |         91.22 | 
    |           255 |            60 |             3 |          5.13 |         96.54 | 
    |           255 |            60 |             3 |          0.27 |         96.99 | 
    |           255 |            72 |             4 |         15.32 |        112.56 | 
    |           254 |            86 |             4 |         22.01 |        134.84 | 
    |           254 |            86 |             5 |         17.05 |        152.35 | 
    |           254 |           103 |             6 |         22.02 |        175.10 | 
    |           252 |            82 |             4 |          4.75 |        180.08 | 
    |           252 |            82 |             5 |         15.20 |        195.86 | 
    |           252 |            98 |             5 |         22.00 |        218.23 | 
    |           252 |            78 |             4 |         22.01 |        240.45 | 
    |           252 |            62 |             4 |         15.63 |        256.34 | 
    |           252 |            74 |             4 |         22.01 |        278.65 | 
    |           252 |            59 |             3 |          0.67 |        279.42 | 
    |           252 |            70 |             4 |          1.63 |        281.37 | 
    |           252 |            84 |             4 |          1.95 |        283.60 | 
    |           252 |           100 |             5 |         22.01 |        306.07 | 
    |           252 |            80 |             4 |         22.01 |        328.36 | 
    |           252 |            64 |             4 |         22.00 |        350.74 | 
    |           252 |            51 |             3 |          5.35 |        356.17 | 
    |           252 |            61 |             3 |          0.30 |        356.60 | 
    |           252 |            73 |             4 |         22.00 |        378.85 | 
    |           252 |            58 |             3 |          2.87 |        381.80 | 
    |           252 |            69 |             4 |          3.86 |        385.87 | 
    |           252 |            82 |             5 |         22.01 |        408.21 | 
    |           252 |            65 |             4 |          6.04 |        414.45 | 
    |           252 |            78 |             5 |         22.01 |        436.94 | 
    |           251 |            62 |             4 |         22.01 |        459.26 | 
    |           251 |            62 |             3 |          4.72 |        464.07 | 
    |           251 |            74 |             4 |         22.00 |        486.45 | 
    |           250 |            59 |             3 |          3.26 |        489.80 | 
    |           249 |            59 |             3 |          2.98 |        492.87 | 
    |           249 |            59 |             4 |         10.07 |        503.23 | 
    |           249 |            70 |             4 |          1.12 |        504.59 | 
    |           249 |            84 |             5 |         22.01 |        527.05 | 
    |           249 |            67 |             4 |          1.37 |        528.63 | 
    |           249 |            80 |             5 |         22.01 |        551.19 | 
    |           249 |            64 |             4 |          6.35 |        557.80 | 
    |           249 |            76 |             4 |         16.15 |        574.23 | 
    |           249 |            91 |             5 |         22.00 |        596.67 | 
    |           249 |            72 |             4 |          2.42 |        599.29 | 
    |           249 |            86 |             5 |         22.01 |        621.93 | 
    |           249 |            68 |             4 |          5.82 |        627.87 | 
    |           249 |            81 |             5 |         22.01 |        650.37 | 
    |           249 |            64 |             4 |          0.96 |        651.50 | 
    |           249 |            76 |             5 |         22.01 |        673.94 | 
    |           249 |            60 |             3 |          0.51 |        674.53 | 
    |           249 |            72 |             5 |          9.36 |        684.36 | 
    |           249 |            86 |             5 |          8.69 |        693.36 | 
    |           249 |           103 |             5 |         22.00 |        715.83 | 
    |           249 |            82 |             5 |         22.00 |        738.28 | 
    |           249 |            65 |             4 |         22.01 |        760.51 | 
    |           249 |            52 |             4 |          3.18 |        763.93 | 
    |           249 |            62 |             4 |          1.37 |        765.55 | 
    |           249 |            74 |             4 |         22.01 |        787.78 | 
    |           249 |            59 |             4 |         22.01 |        810.00 | 
    |           249 |            47 |             3 |          1.51 |        811.65 | 
    |           248 |            56 |             3 |          0.42 |        812.23 | 
    |           248 |            56 |             4 |         16.87 |        829.32 | 
    |           248 |            67 |             4 |          1.45 |        830.93 | 
    |           248 |            80 |             5 |         22.01 |        853.30 | 
    |           248 |            64 |             4 |          9.67 |        863.20 | 
    |           248 |            76 |             5 |         22.01 |        885.63 | 
    |           248 |            60 |             3 |          0.30 |        886.02 | 
    |           248 |            72 |             5 |         22.01 |        908.49 | 
    |           248 |            57 |             4 |          0.99 |        909.80 | 
    |           248 |            68 |             4 |          2.56 |        912.59 | 
    |           248 |            81 |             5 |         22.01 |        935.05 | 
    |           248 |            64 |             4 |         15.18 |        950.45 | 
    |           248 |            76 |             4 |          2.15 |        952.86 | 
    |           248 |            91 |             5 |          3.05 |        956.34 | 
    |           248 |           109 |             6 |         22.02 |        979.04 | 
    |           248 |            87 |             5 |         22.01 |       1001.65 | 
    |           248 |            69 |             4 |         22.01 |       1023.86 | 
    |           248 |            55 |             3 |          0.53 |       1024.49 | 
    |           248 |            66 |             4 |         19.44 |       1044.29 | 
    |           248 |            79 |             5 |         22.03 |       1066.80 | 
    |           248 |            63 |             3 |          0.82 |       1067.73 | 
    |           248 |            75 |             4 |         22.01 |       1090.03 | 
    |           247 |            60 |             4 |         17.03 |       1107.34 | 
    |           247 |            60 |             4 |          2.97 |       1110.52 | 
    |           247 |            72 |             4 |          2.06 |       1112.80 | Academic license - for non-commercial use only
Academic license - for non-commercial use only
Academic license - for non-commercial use only
Academic license - for non-commercial use only
Academic license - for non-commercial use only
Academic license - for non-commercial use only
Academic license - for non-commercial use only
Academic license - for non-commercial use only
Academic license - for non-commercial use only
Academic license - for non-commercial use only
Academic license - for non-commercial use only
Academic license - for non-commercial use only
Academic license - for non-commercial use only
Academic license - for non-commercial use only
Academic license - for non-commercial use only
Academic license - for non-commercial use only
Academic license - for non-commercial use only
Academic license - for non-commercial use only
Academic license - for non-commercial use only
Academic license - for non-commercial use only
Academic license - for non-commercial use only
Academic license - for non-commercial use only
Academic license - for non-commercial use only
Academic license - for non-commercial use only
Academic license - for non-commercial use only
Academic license - for non-commercial use only
Academic license - for non-commercial use only
Academic license - for non-commercial use only
Academic license - for non-commercial use only
Academic license - for non-commercial use only
Academic license - for non-commercial use only
Academic license - for non-commercial use only
Academic license - for non-commercial use only
Academic license - for non-commercial use only
Academic license - for non-commercial use only
Academic license - for non-commercial use only
Academic license - for non-commercial use only
Academic license - for non-commercial use only
Academic license - for non-commercial use only
Academic license - for non-commercial use only
Academic license - for non-commercial use only
Academic license - for non-commercial use only
Academic license - for non-commercial use only
Academic license - for non-commercial use only
Academic license - for non-commercial use only
Academic license - for non-commercial use only
Academic license - for non-commercial use only
Academic license - for non-commercial use only
Academic license - for non-commercial use only
Academic license - for non-commercial use only
Academic license - for non-commercial use only
Academic license - for non-commercial use only
Academic license - for non-commercial use only
Academic license - for non-commercial use only
Academic license - for non-commercial use only
Academic license - for non-commercial use only
Academic license - for non-commercial use only
Academic license - for non-commercial use only
Academic license - for non-commercial use only
Academic license - for non-commercial use only
Academic license - for non-commercial use only
Academic license - for non-commercial use only
Academic license - for non-commercial use only
Academic license - for non-commercial use only
Academic license - for non-commercial use only
Academic license - for non-commercial use only
Academic license - for non-commercial use only
Academic license - for non-commercial use only
Academic license - for non-commercial use only
Academic license - for non-commercial use only
Academic license - for non-commercial use only
Academic license - for non-commercial use only
Academic license - for non-commercial use only
Academic license - for non-commercial use only
Academic license - for non-commercial use only
Academic license - for non-commercial use only
Academic license - for non-commercial use only
Academic license - for non-commercial use only
Academic license - for non-commercial use only
Academic license - for non-commercial use only
Academic license - for non-commercial use only
Academic license - for non-commercial use only
Academic license - for non-commercial use only
Academic license - for non-commercial use only
Academic license - for non-commercial use only
Academic license - for non-commercial use only
Academic license - for non-commercial use only
Academic license - for non-commercial use only
Academic license - for non-commercial use only
Academic license - for non-commercial use only
Academic license - for non-commercial use only
Academic license - for non-commercial use only
Academic license - for non-commercial use only
Academic license - for non-commercial use only
Academic license - for non-commercial use only

    |           247 |            86 |             5 |         22.03 |       1135.18 | 
    |           247 |            68 |             4 |          6.67 |       1142.10 | 
    |           247 |            81 |             5 |         22.00 |       1164.59 | 
    |           247 |            64 |             3 |          1.41 |       1166.16 | 
    |           247 |            76 |             4 |         17.37 |       1183.79 | 
    |           247 |            91 |             5 |          5.04 |       1189.36 | 
    |           247 |           109 |             6 |         22.01 |       1212.15 | 
    |           247 |            87 |             5 |         22.01 |       1234.73 | 
    |           247 |            69 |             4 |         22.00 |       1256.93 | 
    |           247 |            55 |             3 |          2.88 |       1260.04 | 
    |           247 |            66 |             4 |          6.32 |       1266.57 | 
    |           247 |            79 |             4 |          1.62 |       1268.54 | 
    |           247 |            94 |             5 |          4.03 |       1272.99 | 
    |           247 |           112 |             7 |         22.02 |       1296.05 | 
    |           247 |            89 |             5 |         22.02 |       1318.48 | 
    |           247 |            71 |             4 |          3.29 |       1322.18 | 
    |           247 |            85 |             5 |         22.02 |       1344.57 | 
    |           247 |            68 |             4 |          2.42 |       1347.21 | 
    |           247 |            81 |             5 |         22.02 |       1369.62 | 
    |           247 |            64 |             4 |          3.07 |       1372.85 | 
    |           247 |            76 |             5 |          3.75 |       1377.04 | 
    |           247 |            91 |             5 |         22.01 |       1399.46 | 
    |           247 |            72 |             4 |          1.91 |       1401.72 | 
    |           247 |            86 |             4 |         22.00 |       1424.02 | 
    |           247 |            68 |             4 |          1.98 |       1426.31 | 
    |           247 |            81 |             5 |         22.00 |       1448.79 | 
    |           247 |            64 |             3 |          1.37 |       1450.26 | 
    |           247 |            76 |             4 |          3.81 |       1454.30 | 
    |           247 |            91 |             5 |         22.02 |       1476.80 | 
    |           247 |            72 |             4 |          1.86 |       1478.83 | 
    |           247 |            86 |             5 |         22.01 |       1501.28 | 
    |           247 |            68 |             4 |         22.00 |       1523.54 | 
    |           247 |            54 |             3 |          0.25 |       1523.87 | 
    |           247 |            64 |             4 |          1.37 |       1525.58 | 
    |           247 |            76 |             4 |          3.31 |       1529.14 | 
    |           247 |            91 |             5 |          3.80 |       1533.36 | 
    |           247 |           109 |             6 |         22.01 |       1556.24 | 
    |           247 |            87 |             5 |         22.01 |       1578.67 | 
    |           247 |            69 |             4 |          3.16 |       1582.09 | 
    |           247 |            82 |             5 |          4.28 |       1586.96 | 
    |           247 |            98 |             5 |         22.01 |       1609.58 | 
    |           247 |            78 |             4 |          2.59 |       1612.41 | 
    |           247 |            93 |             5 |         22.01 |       1634.97 | 
    |           247 |            74 |             4 |         15.91 |       1651.10 | 
    |           247 |            88 |             5 |         22.01 |       1673.61 | 
    |           247 |            70 |             4 |          1.73 |       1675.65 | 
    |           247 |            84 |             5 |          4.45 |       1680.72 | 
    |           247 |           100 |             6 |         22.01 |       1703.41 | 
    |           247 |            80 |             4 |         21.22 |       1724.91 | 
    |           247 |            96 |             5 |         15.81 |       1741.28 | 
    |           247 |           115 |             6 |         22.01 |       1764.00 | 
    |           247 |            92 |             5 |         22.01 |       1786.49 | 
    |           247 |            73 |             4 |         18.87 |       1805.68 | 
    |           247 |            87 |             5 |         22.00 |       1828.14 | 
    |           247 |            69 |             4 |         22.00 |       1850.39 | 
    |           247 |            55 |             3 |          2.65 |       1853.19 | 
    |           247 |            66 |             4 |          1.17 |       1854.73 | 
    |           247 |            79 |             4 |          3.23 |       1858.18 | 
    |           247 |            94 |             6 |          1.15 |       1860.05 | 
    |           247 |           112 |             6 |         22.01 |       1882.77 | 
    |           247 |            89 |             5 |         22.37 |       1905.67 | 
    |           247 |            71 |             4 |          3.48 |       1909.41 | 
    |           247 |            85 |             5 |          2.90 |       1912.80 | 
    |           247 |           102 |             5 |         22.10 |       1935.45 | 
    |           247 |            81 |             5 |         22.00 |       1957.81 | 
    |           247 |            64 |             4 |         22.00 |       1980.04 | 
    |           247 |            51 |             3 |          0.30 |       1980.46 | 
    |           247 |            61 |             3 |          0.66 |       1981.32 | 
    |           247 |            73 |             4 |          2.79 |       1984.36 | 
    |           247 |            87 |             5 |          7.99 |       1992.73 | 
    |           247 |           104 |             6 |         22.05 |       2015.53 | 
    |           247 |            83 |             5 |         22.01 |       2037.98 | 
    |           247 |            66 |             4 |          2.90 |       2041.13 | 
    |           247 |            79 |             4 |         22.00 |       2063.55 | 
    |           247 |            63 |             4 |         22.00 |       2085.79 | 
    |           247 |            50 |             3 |          0.58 |       2086.43 | 
    |           247 |            60 |             4 |          2.22 |       2089.00 | 
    |           247 |            72 |             4 |         14.76 |       2104.00 | 
    |           247 |            86 |             5 |         22.02 |       2126.39 | 
    |           247 |            68 |             4 |          2.46 |       2129.01 | 
    |           247 |            81 |             5 |          9.21 |       2138.67 | 
    |           247 |            97 |             5 |         22.01 |       2161.08 | 
    |           247 |            77 |             4 |         22.00 |       2183.32 | 
    |           247 |            61 |             3 |          5.09 |       2188.56 | 
    |           247 |            73 |             4 |         22.00 |       2210.88 | 
    |           247 |            58 |             4 |          1.36 |       2212.49 | 
    |           247 |            69 |             4 |         22.00 |       2234.73 | 
    |           247 |            55 |             3 |          0.52 |       2235.41 | 
    |           247 |            66 |             4 |          6.75 |       2242.45 | 
    |           247 |            79 |             4 |          6.51 |       2249.19 | 
    |           247 |            94 |             5 |         22.01 |       2271.63 | 
    |           247 |            75 |             5 |         22.01 |       2294.15 | 
    |           247 |            60 |             3 |          0.60 |       2294.87 | 
    |           247 |            72 |             4 |          6.67 |       2301.74 | 
    |           247 |            86 |             4 |         22.00 |       2324.13 | Academic license - for non-commercial use only
Academic license - for non-commercial use only
Academic license - for non-commercial use only
Academic license - for non-commercial use only
Academic license - for non-commercial use only
Academic license - for non-commercial use only
Academic license - for non-commercial use only
Academic license - for non-commercial use only
Academic license - for non-commercial use only
Academic license - for non-commercial use only
Academic license - for non-commercial use only
Academic license - for non-commercial use only
Academic license - for non-commercial use only
Academic license - for non-commercial use only
Academic license - for non-commercial use only
Academic license - for non-commercial use only
Academic license - for non-commercial use only
Academic license - for non-commercial use only
Academic license - for non-commercial use only
Academic license - for non-commercial use only
Academic license - for non-commercial use only
Academic license - for non-commercial use only
Academic license - for non-commercial use only
Academic license - for non-commercial use only
Academic license - for non-commercial use only
Academic license - for non-commercial use only
Academic license - for non-commercial use only
Academic license - for non-commercial use only
Academic license - for non-commercial use only
Academic license - for non-commercial use only
Academic license - for non-commercial use only
Academic license - for non-commercial use only
Academic license - for non-commercial use only
Academic license - for non-commercial use only
Academic license - for non-commercial use only
Academic license - for non-commercial use only
Academic license - for non-commercial use only
Academic license - for non-commercial use only
Academic license - for non-commercial use only
Academic license - for non-commercial use only
Academic license - for non-commercial use only
Academic license - for non-commercial use only
Academic license - for non-commercial use only
Academic license - for non-commercial use only
Academic license - for non-commercial use only
Academic license - for non-commercial use only
Academic license - for non-commercial use only
Academic license - for non-commercial use only
Academic license - for non-commercial use only
Academic license - for non-commercial use only
Academic license - for non-commercial use only
Academic license - for non-commercial use only
Academic license - for non-commercial use only
Academic license - for non-commercial use only
Academic license - for non-commercial use only
Academic license - for non-commercial use only
Academic license - for non-commercial use only
Academic license - for non-commercial use only
Academic license - for non-commercial use only
Academic license - for non-commercial use only
Academic license - for non-commercial use only
Academic license - for non-commercial use only
Academic license - for non-commercial use only
Academic license - for non-commercial use only
Academic license - for non-commercial use only
Academic license - for non-commercial use only
Academic license - for non-commercial use only
Academic license - for non-commercial use only
Academic license - for non-commercial use only
Academic license - for non-commercial use only
Academic license - for non-commercial use only
Academic license - for non-commercial use only
Academic license - for non-commercial use only
Academic license - for non-commercial use only

    |           247 |            68 |             4 |          2.06 |       2326.34 | 
    |           247 |            81 |             4 |          1.44 |       2328.08 | 
    |           247 |            97 |             5 |         18.39 |       2346.86 | 
    |           247 |           116 |             7 |         22.02 |       2370.01 | 
    |           247 |            92 |             5 |         22.01 |       2392.51 | 
    |           247 |            73 |             4 |          2.14 |       2394.83 | 
    |           247 |            87 |             5 |         22.01 |       2417.46 | 
    |           247 |            69 |             4 |         22.00 |       2439.66 | 
    |           247 |            55 |             3 |          1.14 |       2440.99 | 
    |           247 |            66 |             4 |          6.15 |       2447.41 | 
    |           247 |            79 |             4 |         22.00 |       2469.64 | 
    |           247 |            63 |             4 |          2.97 |       2472.85 | 
    |           247 |            75 |             4 |          6.97 |       2480.02 | 
    |           247 |            90 |             5 |         22.01 |       2502.50 | 
    |           247 |            72 |             4 |          2.02 |       2504.67 | 
    |           247 |            86 |             5 |         22.01 |       2527.22 | 
    |           247 |            68 |             4 |         22.00 |       2549.46 | 
    |           247 |            54 |             3 |          1.41 |       2551.00 | 
    |           247 |            64 |             3 |          1.48 |       2552.61 | 
    |           247 |            76 |             4 |          2.02 |       2554.99 | 
    |           247 |            91 |             5 |         22.03 |       2577.45 | 
    |           247 |            72 |             4 |         22.00 |       2599.65 | 
    |           247 |            57 |             4 |          2.23 |       2602.17 | 
    |           247 |            68 |             4 |          8.27 |       2610.65 | 
    |           247 |            81 |             5 |         22.00 |       2633.13 | 
    |           247 |            64 |             4 |         18.43 |       2651.78 | 
    |           247 |            76 |             4 |         22.00 |       2674.14 | 
    |           247 |            60 |             3 |          0.21 |       2674.43 | 
    |           247 |            72 |             4 |          2.32 |       2677.01 | 
    |           247 |            86 |             4 |          1.87 |       2679.16 | 
    |           247 |           103 |             6 |         22.01 |       2701.96 | 
    |           247 |            82 |             5 |         22.01 |       2724.39 | 
    |           247 |            65 |             3 |          2.87 |       2727.37 | 
    |           247 |            78 |             4 |          2.92 |       2730.64 | 
    |           247 |            93 |             5 |         22.01 |       2753.06 | 
    |           247 |            74 |             4 |         22.00 |       2775.25 | 
    |           247 |            59 |             4 |          0.89 |       2776.34 | 
    |           247 |            70 |             4 |         22.01 |       2798.68 | 
    |           247 |            56 |             3 |          0.22 |       2799.02 | 
    |           247 |            67 |             4 |          2.63 |       2801.95 | 
    |           247 |            80 |             5 |         22.01 |       2824.32 | 
    |           247 |            64 |             4 |         22.00 |       2846.55 | 
    |           247 |            51 |             3 |          0.73 |       2847.40 | 
    |           247 |            61 |             4 |          0.82 |       2848.49 | 
    |           247 |            73 |             4 |         22.00 |       2870.74 | 
    |           247 |            58 |             3 |          0.39 |       2871.25 | 
    |           247 |            69 |             4 |         22.00 |       2893.44 | 
    |           247 |            55 |             3 |          0.94 |       2894.50 | 
    |           247 |            66 |             3 |          0.64 |       2895.28 | 
    |           247 |            79 |             4 |          4.00 |       2899.53 | 
    |           247 |            94 |             6 |         22.01 |       2922.29 | 
    |           247 |            75 |             4 |         18.55 |       2941.03 | 
    |           247 |            90 |             5 |         22.00 |       2963.48 | 
    |           247 |            72 |             4 |          2.87 |       2966.57 | 
    |           247 |            86 |             5 |          3.23 |       2970.48 | 
    |           247 |           103 |             5 |         14.01 |       2985.01 | 
    |           247 |           123 |             6 |          1.31 |       2987.11 | 
    |           247 |           147 |             8 |         31.87 |       3020.83 | 
    |           247 |           117 |             6 |         22.01 |       3043.78 | 
    |           247 |            93 |             5 |         22.00 |       3066.37 | 
    |           247 |            74 |             4 |         22.00 |       3088.61 | 
    |           247 |            59 |             3 |          0.90 |       3089.71 | 
    |           247 |            70 |             4 |         19.20 |       3109.11 | 
    |           247 |            84 |             5 |          3.98 |       3113.56 | 
    |           247 |           100 |             6 |          1.34 |       3115.79 | 
    |           247 |           120 |             6 |          1.58 |       3118.28 | 
    |           247 |           144 |             7 |         22.02 |       3141.87 | 
    |           247 |           115 |             7 |         22.04 |       3165.06 | 
    |           247 |            92 |             5 |         22.02 |       3187.63 | 
    |           247 |            73 |             4 |          5.32 |       3193.30 | 
    |           247 |            87 |             5 |          3.48 |       3197.28 | 
    |           247 |           104 |             6 |         22.01 |       3219.96 | 
    |           247 |            83 |             5 |         14.31 |       3234.66 | 
    |           247 |            99 |             6 |          4.19 |       3239.55 | 
-16.194331983805668
