Instance....: instances/I_50_15_S_1-99_4.txt
Algorithm...: Simulated Annealing (alpha=0.990, saMax=10M, t0=1)
Other params: maxIters=100M, seed=4, timeLimit=360.00s

    /--------------------------------------------------------\
    |     Iter |   RDP(%) |       S* |       S' |       Time | 
    |----------|----------|----------|----------|------------|
    |        0 |        - |      549 |      549 |       0.00 | s0
    |        1 |        - |      515 |      515 |       0.02 | *
    |        2 |        - |      473 |      473 |       0.02 | *
    |        4 |        - |      456 |      456 |       0.02 | *
    |       15 |        - |      444 |      444 |       0.02 | *
    |       18 |        - |      441 |      441 |       0.02 | *
    |       20 |        - |      439 |      439 |       0.02 | *
    |       21 |        - |      379 |      379 |       0.02 | *
    |       25 |        - |      375 |      375 |       0.02 | *
    |       27 |        - |      371 |      371 |       0.02 | *
    |       28 |        - |      367 |      367 |       0.02 | *
    |       37 |        - |      355 |      355 |       0.02 | *
    |       38 |        - |      347 |      347 |       0.03 | *
    |       43 |        - |      342 |      342 |       0.03 | *
    |       54 |        - |      338 |      338 |       0.03 | *
    |       59 |        - |      302 |      302 |       0.03 | *
    |       68 |        - |      298 |      298 |       0.03 | *
    |       70 |        - |      293 |      293 |       0.03 | *
    |       71 |        - |      289 |      289 |       0.03 | *
    |       72 |        - |      286 |      286 |       0.03 | *
    |       82 |        - |      277 |      277 |       0.03 | *
    |       83 |        - |      273 |      273 |       0.03 | *
    |      110 |        - |      272 |      272 |       0.03 | *
    |      131 |        - |      269 |      269 |       0.03 | *
    |      133 |        - |      264 |      264 |       0.03 | *
    |      140 |        - |      252 |      252 |       0.03 | *
    |      151 |        - |      247 |      247 |       0.03 | *
    |      162 |        - |      246 |      246 |       0.03 | *
    |      176 |        - |      245 |      245 |       0.03 | *
    |      213 |        - |      244 |      244 |       0.03 | *
    |      222 |        - |      238 |      238 |       0.03 | *
    |      231 |        - |      233 |      233 |       0.03 | *
    |      235 |        - |      226 |      226 |       0.03 | *
    |      237 |        - |      220 |      220 |       0.03 | *
    |      271 |        - |      219 |      219 |       0.03 | *
    |      281 |        - |      212 |      212 |       0.03 | *
    |      291 |        - |      208 |      208 |       0.03 | *
    |      303 |        - |      205 |      205 |       0.04 | *
    |      320 |        - |      194 |      194 |       0.04 | *
    |      341 |        - |      193 |      193 |       0.04 | *
    |      405 |        - |      192 |      192 |       0.04 | *
    |      407 |        - |      191 |      191 |       0.04 | *
    |      471 |        - |      189 |      189 |       0.04 | *
    |      485 |        - |      188 |      188 |       0.04 | *
    |      525 |        - |      186 |      186 |       0.04 | *
    |      528 |        - |      183 |      183 |       0.04 | *
    |      552 |        - |      181 |      181 |       0.04 | *
    |      559 |        - |      180 |      180 |       0.04 | *
    |      569 |        - |      175 |      175 |       0.04 | *
    |      675 |        - |      172 |      172 |       0.04 | *
    |      684 |        - |      171 |      171 |       0.04 | *
    |      716 |        - |      165 |      165 |       0.04 | *
    |      790 |        - |      164 |      164 |       0.04 | *
    |      797 |        - |      163 |      163 |       0.04 | *
    |      806 |        - |      161 |      161 |       0.04 | *
    |      808 |        - |      157 |      157 |       0.04 | *
    |      864 |        - |      156 |      156 |       0.04 | *
    |      936 |        - |      155 |      155 |       0.04 | *
    |      940 |        - |      151 |      151 |       0.04 | *
    |     1710 |        - |      149 |      149 |       0.05 | *
    |     1766 |        - |      148 |      148 |       0.05 | *
    |     1782 |        - |      147 |      147 |       0.05 | *
    |     2130 |        - |      144 |      144 |       0.05 | *
    |     2230 |        - |      143 |      143 |       0.05 | *
    |     2268 |        - |      142 |      142 |       0.05 | *
    |     2315 |        - |      141 |      141 |       0.05 | *
    |     2347 |        - |      139 |      139 |       0.05 | *
    |     2407 |        - |      137 |      137 |       0.05 | *
    |     2497 |        - |      136 |      136 |       0.05 | *
    |     2498 |        - |      135 |      135 |       0.05 | *
    |     2665 |        - |      134 |      134 |       0.05 | *
    |     2698 |        - |      129 |      129 |       0.05 | *
    |     2856 |        - |      128 |      128 |       0.05 | *
    |     2975 |        - |      127 |      127 |       0.05 | *
    |     2977 |        - |      126 |      126 |       0.05 | *
    |     3145 |        - |      124 |      124 |       0.05 | *
    |     3153 |        - |      117 |      117 |       0.05 | *
    |     3165 |        - |      115 |      115 |       0.05 | *
    |     3177 |        - |      114 |      114 |       0.05 | *
    |     3501 |        - |      113 |      113 |       0.06 | *
    |     3599 |        - |      110 |      110 |       0.06 | *
    |     3607 |        - |      109 |      109 |       0.06 | *
    |     3906 |        - |      108 |      108 |       0.06 | *
    |     3961 |        - |      107 |      107 |       0.06 | *
    |     4512 |        - |      106 |      106 |       0.06 | *
    |     4694 |        - |      102 |      102 |       0.06 | *
    |     4697 |        - |      100 |      100 |       0.06 | *
    |     4765 |        - |       98 |       98 |       0.06 | *
    |     5284 |        - |       96 |       96 |       0.07 | *
    |      15K |        - |       95 |       95 |       0.08 | *
    |      15K |        - |       94 |       94 |       0.08 | *
    |      15K |        - |       93 |       93 |       0.08 | *
    |      15K |        - |       92 |       92 |       0.09 | *
    |      17K |        - |       89 |       89 |       0.09 | *
    |      17K |        - |       88 |       88 |       0.09 | *
    |      17K |        - |       87 |       87 |       0.09 | *
    |      19K |        - |       86 |       86 |       0.09 | *
    |      19K |        - |       85 |       85 |       0.09 | *
    |      20K |        - |       84 |       84 |       0.09 | *
    |      20K |        - |       83 |       83 |       0.09 | *
    |      24K |        - |       82 |       82 |       0.10 | *
    |      26K |        - |       81 |       81 |       0.10 | *
    |      27K |        - |       78 |       78 |       0.11 | *
    |      30K |        - |       76 |       76 |       0.11 | *
    |      31K |        - |       74 |       74 |       0.12 | *
    |      35K |        - |       73 |       73 |       0.12 | *
    |      37K |        - |       72 |       72 |       0.13 | *
    |      40K |        - |       71 |       71 |       0.14 | *
    |      53K |        - |       69 |       69 |       0.18 | *
    |      63K |        - |       68 |       68 |       0.21 | *
    |      69K |        - |       67 |       67 |       0.22 | *
    |      69K |        - |       66 |       66 |       0.22 | *
    |     383K |        - |       64 |       64 |       0.63 | *
    |     604K |        - |       63 |       63 |       0.92 | *
    |     604K |        - |       62 |       62 |       0.92 | *
    |    1618K |        - |       61 |       61 |       2.15 | *
    |    2403K |        - |       60 |       60 |       3.24 | *
    |    2417K |        - |       59 |       59 |       3.26 | *
    |      40M |        - |       58 |       58 |      49.09 | *
    \--------------------------------------------------------/

Neighborhoods statistics (values in %):

    /----------------------------------------------------------------\
    | Move               | Improvs. | Sideways |  Accepts |  Rejects |
    |--------------------|----------|----------|----------|----------|
    | Shift(mk)          |      51K |      37K |      96K |      12M |
    | Shift              |     3508 |     679K |     731K |      11M |
    | ShiftSmart(mk)     |      91K |      53K |     169K |      12M |
    | ShiftSmart         |     6185 |     917K |    1000K |      11M |
    | SimpSwap(mk)       |      519 |      546 |     1177 |      12M |
    | SimpSwap           |       75 |     5344 |     5868 |      12M |
    | SimpSwapSmart(mk)  |     1008 |     1232 |     2455 |      12M |
    | SimpSwapSmart      |      180 |      12K |      13K |      12M |
    | Swap(mk)           |      381 |      290 |      759 |      12M |
    | Swap               |       44 |     3706 |     4056 |      12M |
    | SwapSmart(mk)      |     1484 |     1421 |     3172 |      12M |
    | SwapSmart          |      222 |      15K |      16K |      12M |
    | Switch(mk)         |      15K |    3240K |    3257K |    8881K |
    | Switch             |     1038 |    4224K |    4240K |    7945K |
    | SwitchSmart(mk)    |      32K |      36K |      73K |      12M |
    | SwitchSmart        |     2146 |     612K |     647K |      12M |
    | TaskMove(mk)       |     1781 |     2621 |     4802 |      12M |
    | TaskMove           |      133 |     9201 |      11K |      12M |
    | TaskMoveSmart(mk)  |     5290 |     9543 |      16K |      12M |
    | TaskMoveSmart      |      375 |      29K |      33K |      12M |
    | 2-Shift(mk)        |      35K |    1329K |    1368K |      11M |
    | 2-Shift            |     2396 |    2757K |    2795K |    9395K |
    | 2-ShiftSmart(mk)   |      57K |    1692K |    1755K |      10M |
    | 2-ShiftSmart       |     3844 |    4071K |    4113K |    8073K |
    \----------------------------------------------------------------/

Best makespan.....: 58
N. of Iterations..: 292164668
Total runtime.....: 360.01s
Academic license - for non-commercial use only
Academic license - for non-commercial use only
Academic license - for non-commercial use only
Academic license - for non-commercial use only
Academic license - for non-commercial use only
Academic license - for non-commercial use only
Academic license - for non-commercial use only
Academic license - for non-commercial use only
Academic license - for non-commercial use only
Academic license - for non-commercial use only
Academic license - for non-commercial use only
Academic license - for non-commercial use only
Academic license - for non-commercial use only
Academic license - for non-commercial use only
Academic license - for non-commercial use only
Academic license - for non-commercial use only
Academic license - for non-commercial use only
Academic license - for non-commercial use only
Academic license - for non-commercial use only
Academic license - for non-commercial use only
Academic license - for non-commercial use only
Academic license - for non-commercial use only
Academic license - for non-commercial use only
Academic license - for non-commercial use only
Academic license - for non-commercial use only
Academic license - for non-commercial use only
Academic license - for non-commercial use only
Academic license - for non-commercial use only
Academic license - for non-commercial use only
Academic license - for non-commercial use only
Academic license - for non-commercial use only
Academic license - for non-commercial use only
Academic license - for non-commercial use only
Academic license - for non-commercial use only
Academic license - for non-commercial use only
Academic license - for non-commercial use only
Academic license - for non-commercial use only
Academic license - for non-commercial use only
Academic license - for non-commercial use only
Academic license - for non-commercial use only
Academic license - for non-commercial use only
Academic license - for non-commercial use only
Academic license - for non-commercial use only
Academic license - for non-commercial use only
Academic license - for non-commercial use only
Academic license - for non-commercial use only
Academic license - for non-commercial use only
Academic license - for non-commercial use only
Academic license - for non-commercial use only
Academic license - for non-commercial use only
Academic license - for non-commercial use only
Academic license - for non-commercial use only
Academic license - for non-commercial use only
Academic license - for non-commercial use only
Academic license - for non-commercial use only
Academic license - for non-commercial use only
Academic license - for non-commercial use only
Academic license - for non-commercial use only
Academic license - for non-commercial use only
Academic license - for non-commercial use only
Academic license - for non-commercial use only
Academic license - for non-commercial use only
Academic license - for non-commercial use only
Academic license - for non-commercial use only
Academic license - for non-commercial use only
Academic license - for non-commercial use only
Academic license - for non-commercial use only
Academic license - for non-commercial use only
Academic license - for non-commercial use only
Academic license - for non-commercial use only
Academic license - for non-commercial use only
Academic license - for non-commercial use only
Academic license - for non-commercial use only
Academic license - for non-commercial use only
Academic license - for non-commercial use only
Academic license - for non-commercial use only
Academic license - for non-commercial use only
Academic license - for non-commercial use only
Academic license - for non-commercial use only
Academic license - for non-commercial use only
Academic license - for non-commercial use only
Academic license - for non-commercial use only
Academic license - for non-commercial use only
Academic license - for non-commercial use only
Academic license - for non-commercial use only
Academic license - for non-commercial use only
Academic license - for non-commercial use only
Academic license - for non-commercial use only
Academic license - for non-commercial use only
Academic license - for non-commercial use only
Academic license - for non-commercial use only
Academic license - for non-commercial use only
    /-------------------------------------------------------------------------------\
    |    Makespam   |   Free Jobs   | Free Machines |    It. Time   |   Total Time  | 
    |-------------------------------------------------------------------------------|
    |            58 |            33 |            11 |         22.01 |         22.89 | 
    |            58 |            26 |             8 |          1.06 |         24.00 | 
    |            58 |            31 |            10 |          1.24 |         25.32 | 
    |            58 |            37 |            11 |          0.23 |         25.69 | 
    |            58 |            44 |            14 |          0.71 |         26.65 | 
    |            58 |            50 |            15 |         22.01 |         48.84 | 
    |            58 |            40 |            13 |          0.43 |         49.45 | 
    |            58 |            48 |            14 |          0.87 |         50.62 | 
    |            58 |            50 |            15 |         22.00 |         72.89 | 
    |            58 |            40 |            12 |         22.00 |         94.97 | 
    |            58 |            32 |            10 |         22.01 |        117.10 | 
    |            58 |            25 |             8 |          0.33 |        117.48 | 
    |            58 |            30 |             9 |          2.68 |        120.26 | 
    |            58 |            36 |            11 |         22.00 |        142.40 | 
    |            58 |            28 |             9 |          0.25 |        142.76 | 
    |            58 |            33 |            10 |          1.69 |        144.58 | 
    |            58 |            39 |            13 |          0.41 |        145.14 | 
    |            58 |            46 |            14 |         22.01 |        167.31 | 
    |            58 |            36 |            12 |          0.27 |        167.68 | 
    |            58 |            43 |            12 |         22.01 |        189.81 | 
    |            58 |            34 |            11 |         22.01 |        211.96 | 
    |            58 |            27 |             9 |          4.37 |        216.44 | 
    |            58 |            32 |            10 |          1.23 |        217.81 | 
    |            58 |            38 |            12 |          0.31 |        218.23 | 
    |            58 |            45 |            14 |         22.00 |        240.41 | 
    |            58 |            36 |            11 |         22.00 |        262.55 | 
    |            58 |            28 |             9 |          1.88 |        264.46 | 
    |            58 |            33 |            10 |         15.04 |        279.54 | 
    |            58 |            39 |            12 |         22.00 |        301.65 | 
    |            58 |            31 |            10 |         22.00 |        323.72 | 
    |            58 |            24 |             7 |          0.14 |        323.89 | 
    |            58 |            28 |             9 |          0.09 |        324.03 | 
    |            58 |            33 |            11 |         22.00 |        346.13 | 
    |            58 |            26 |             8 |          0.94 |        347.13 | 
    |            58 |            31 |            10 |          4.26 |        351.49 | 
    |            58 |            37 |            11 |          0.22 |        351.85 | 
    |            58 |            44 |            14 |         22.00 |        374.04 | 
    |            58 |            35 |            11 |         22.01 |        396.11 | 
    |            58 |            28 |             9 |          3.01 |        399.17 | 
    |            58 |            33 |            11 |          3.51 |        402.85 | 
    |            58 |            39 |            12 |         22.00 |        424.98 | 
    |            58 |            31 |            10 |         22.00 |        447.02 | 
    |            58 |            24 |             8 |          0.45 |        447.50 | 
    |            58 |            28 |             8 |          0.94 |        448.48 | 
    |            58 |            33 |            10 |          5.17 |        453.79 | 
    |            58 |            39 |            12 |         22.00 |        475.92 | 
    |            58 |            31 |            10 |          3.20 |        479.17 | 
    |            58 |            37 |            11 |          0.25 |        479.56 | 
    |            58 |            44 |            14 |          0.59 |        480.32 | 
    |            58 |            50 |            15 |          0.78 |        481.26 | 
    |            58 |            50 |            15 |          0.88 |        482.28 | 
    |            58 |            50 |            15 |          0.88 |        483.33 | 
    |            58 |            50 |            15 |          0.83 |        484.31 | 
    |            58 |            50 |            15 |         22.00 |        506.47 | 
    |            58 |            40 |            13 |          0.63 |        507.32 | 
    |            58 |            48 |            15 |         22.00 |        529.62 | 
    |            58 |            38 |            12 |         22.00 |        551.71 | 
    |            58 |            30 |             9 |          1.18 |        553.01 | 
    |            58 |            36 |            12 |          7.09 |        560.16 | 
    |            58 |            43 |            13 |         22.00 |        582.35 | 
    |            58 |            34 |            11 |         22.01 |        604.45 | 
    |            58 |            27 |             9 |          1.36 |        605.86 | 
    |            58 |            32 |             9 |          1.23 |        607.13 | 
    |            58 |            38 |            12 |         22.00 |        629.27 | 
    |            58 |            30 |            10 |          1.07 |        630.44 | 
    |            58 |            36 |            12 |          6.47 |        637.06 | 
    |            58 |            43 |            13 |          0.49 |        637.86 | 
    |            58 |            50 |            15 |         22.00 |        660.07 | 
    |            58 |            40 |            12 |         22.00 |        682.19 | 
    |            58 |            32 |            10 |          1.92 |        684.15 | 
    |            58 |            38 |            11 |          5.00 |        689.24 | 
    |            58 |            45 |            14 |          0.62 |        690.04 | 
    |            58 |            50 |            15 |          0.85 |        691.10 | 
    |            58 |            50 |            15 |          1.02 |        692.33 | 
    |            58 |            50 |            15 |          0.95 |        693.45 | 
    |            58 |            50 |            15 |          0.95 |        694.58 | 
    |            58 |            50 |            15 |          0.95 |        695.70 | 
    |            58 |            50 |            15 |          1.07 |        696.94 | 
    |            58 |            50 |            15 |         22.00 |        719.15 | 
    |            58 |            40 |            13 |         22.00 |        741.39 | 
    |            58 |            32 |            10 |         20.55 |        762.01 | 
    |            58 |            38 |            12 |         22.00 |        784.17 | 
    |            58 |            30 |            10 |          0.76 |        784.97 | 
    |            58 |            36 |            12 |         22.01 |        807.08 | 
    |            58 |            28 |             9 |          0.77 |        807.93 | 
    |            58 |            33 |            10 |         10.47 |        818.45 | 
    |            58 |            39 |            12 |         22.00 |        840.55 | 
    |            58 |            31 |            10 |         22.00 |        862.59 | 
    |            58 |            24 |             7 |          0.06 |        862.67 | 
    |            58 |            28 |             9 |         11.59 |        874.30 | 
    |            58 |            33 |            10 |          6.34 |        880.73 | 
    |            58 |            39 |            12 |         22.00 |        902.90 | Academic license - for non-commercial use only
Academic license - for non-commercial use only
Academic license - for non-commercial use only
Academic license - for non-commercial use only
Academic license - for non-commercial use only
Academic license - for non-commercial use only
Academic license - for non-commercial use only
Academic license - for non-commercial use only
Academic license - for non-commercial use only
Academic license - for non-commercial use only
Academic license - for non-commercial use only
Academic license - for non-commercial use only
Academic license - for non-commercial use only
Academic license - for non-commercial use only
Academic license - for non-commercial use only
Academic license - for non-commercial use only
Academic license - for non-commercial use only
Academic license - for non-commercial use only
Academic license - for non-commercial use only
Academic license - for non-commercial use only
Academic license - for non-commercial use only
Academic license - for non-commercial use only
Academic license - for non-commercial use only
Academic license - for non-commercial use only
Academic license - for non-commercial use only
Academic license - for non-commercial use only
Academic license - for non-commercial use only
Academic license - for non-commercial use only
Academic license - for non-commercial use only
Academic license - for non-commercial use only
Academic license - for non-commercial use only
Academic license - for non-commercial use only
Academic license - for non-commercial use only
Academic license - for non-commercial use only
Academic license - for non-commercial use only
Academic license - for non-commercial use only
Academic license - for non-commercial use only
Academic license - for non-commercial use only
Academic license - for non-commercial use only
Academic license - for non-commercial use only
Academic license - for non-commercial use only
Academic license - for non-commercial use only
Academic license - for non-commercial use only
Academic license - for non-commercial use only
Academic license - for non-commercial use only
Academic license - for non-commercial use only
Academic license - for non-commercial use only
Academic license - for non-commercial use only
Academic license - for non-commercial use only
Academic license - for non-commercial use only
Academic license - for non-commercial use only
Academic license - for non-commercial use only
Academic license - for non-commercial use only
Academic license - for non-commercial use only
Academic license - for non-commercial use only
Academic license - for non-commercial use only
Academic license - for non-commercial use only
Academic license - for non-commercial use only
Academic license - for non-commercial use only
Academic license - for non-commercial use only
Academic license - for non-commercial use only
Academic license - for non-commercial use only
Academic license - for non-commercial use only
Academic license - for non-commercial use only
Academic license - for non-commercial use only
Academic license - for non-commercial use only
Academic license - for non-commercial use only
Academic license - for non-commercial use only
Academic license - for non-commercial use only
Academic license - for non-commercial use only
Academic license - for non-commercial use only
Academic license - for non-commercial use only
Academic license - for non-commercial use only
Academic license - for non-commercial use only
Academic license - for non-commercial use only
Academic license - for non-commercial use only
Academic license - for non-commercial use only
Academic license - for non-commercial use only
Academic license - for non-commercial use only
Academic license - for non-commercial use only
Academic license - for non-commercial use only
Academic license - for non-commercial use only
Academic license - for non-commercial use only
Academic license - for non-commercial use only
Academic license - for non-commercial use only
Academic license - for non-commercial use only
Academic license - for non-commercial use only
Academic license - for non-commercial use only
Academic license - for non-commercial use only
Academic license - for non-commercial use only
Academic license - for non-commercial use only
Academic license - for non-commercial use only
Academic license - for non-commercial use only
Academic license - for non-commercial use only
Academic license - for non-commercial use only

    |            58 |            31 |             9 |          3.58 |        906.53 | 
    |            58 |            37 |            11 |          0.20 |        906.81 | 
    |            58 |            44 |            14 |         22.00 |        928.96 | 
    |            58 |            35 |            11 |         22.00 |        951.08 | 
    |            58 |            28 |             9 |          0.29 |        951.40 | 
    |            58 |            33 |            10 |         22.00 |        973.44 | 
    |            58 |            26 |             8 |          1.13 |        974.60 | 
    |            58 |            31 |             9 |          1.98 |        976.65 | 
    |            58 |            37 |            12 |         22.01 |        998.71 | 
    |            58 |            29 |             9 |          1.23 |       1000.03 | 
    |            58 |            34 |            11 |         22.00 |       1022.10 | 
    |            58 |            27 |             9 |          6.73 |       1028.88 | 
    |            58 |            32 |             9 |          1.44 |       1030.37 | 
    |            58 |            38 |            12 |         22.00 |       1052.48 | 
    |            58 |            30 |            10 |          1.74 |       1054.28 | 
    |            58 |            36 |            12 |         22.00 |       1076.42 | 
    |            58 |            28 |             9 |          0.70 |       1077.25 | 
    |            58 |            33 |            10 |          0.20 |       1077.52 | 
    |            58 |            39 |            12 |          0.41 |       1078.11 | 
    |            58 |            46 |            14 |          0.86 |       1079.17 | 
    |            58 |            50 |            15 |          0.88 |       1080.27 | 
    |            58 |            50 |            15 |          0.89 |       1081.33 | 
    |            58 |            50 |            15 |          0.83 |       1082.34 | 
    |            58 |            50 |            15 |          0.99 |       1083.49 | 
    |            58 |            50 |            15 |          1.06 |       1084.72 | 
    |            58 |            50 |            15 |          0.84 |       1085.73 | 
    |            58 |            50 |            15 |         22.00 |       1107.89 | 
    |            58 |            40 |            13 |         22.00 |       1130.00 | 
    |            58 |            32 |            10 |          6.99 |       1137.04 | 
    |            58 |            38 |            12 |         22.01 |       1159.17 | 
    |            58 |            30 |            10 |          0.31 |       1159.61 | 
    |            58 |            36 |            11 |         22.01 |       1181.70 | 
    |            58 |            28 |             9 |          0.78 |       1182.54 | 
    |            58 |            33 |            11 |         17.72 |       1200.33 | 
    |            58 |            39 |            13 |          0.40 |       1200.83 | 
    |            58 |            46 |            14 |         22.00 |       1222.99 | 
    |            58 |            36 |            11 |         22.00 |       1245.05 | 
    |            58 |            28 |             9 |          0.40 |       1245.48 | 
    |            58 |            33 |            11 |          6.16 |       1251.73 | 
    |            58 |            39 |            11 |          0.26 |       1252.08 | 
    |            58 |            46 |            14 |         22.00 |       1274.26 | 
    |            58 |            36 |            12 |         22.01 |       1296.44 | 
    |            58 |            28 |             8 |          3.05 |       1299.52 | 
    |            58 |            33 |            10 |         22.00 |       1321.65 | 
    |            58 |            26 |             8 |          0.37 |       1322.04 | 
    |            58 |            31 |            10 |         16.79 |       1338.87 | 
    |            58 |            37 |            12 |         22.00 |       1360.99 | 
    |            58 |            29 |             9 |          3.75 |       1364.77 | 
    |            58 |            34 |            11 |          4.43 |       1369.31 | 
    |            58 |            40 |            12 |          0.45 |       1369.93 | 
    |            58 |            48 |            15 |         22.00 |       1392.23 | 
    |            58 |            38 |            12 |         22.00 |       1414.33 | 
    |            58 |            30 |             9 |         17.39 |       1431.82 | 
    |            58 |            36 |            11 |         22.00 |       1453.95 | 
    |            58 |            28 |             9 |          0.39 |       1454.37 | 
    |            58 |            33 |            11 |         22.00 |       1476.44 | 
    |            58 |            26 |             8 |          0.90 |       1477.43 | 
    |            58 |            31 |            10 |          0.93 |       1478.43 | 
    |            58 |            37 |            12 |         22.00 |       1500.56 | 
    |            58 |            29 |             9 |          0.09 |       1500.73 | 
    |            58 |            34 |            11 |         22.00 |       1522.87 | 
    |            58 |            27 |             8 |          0.19 |       1523.09 | 
    |            58 |            32 |             9 |          0.12 |       1523.24 | 
    |            58 |            38 |            11 |          0.24 |       1523.61 | 
    |            58 |            45 |            14 |          0.59 |       1524.37 | 
    |            58 |            50 |            15 |         22.01 |       1546.62 | 
    |            58 |            40 |            12 |          0.36 |       1547.10 | 
    |            58 |            48 |            15 |          0.99 |       1548.24 | 
    |            58 |            50 |            15 |         22.01 |       1570.45 | 
    |            58 |            40 |            13 |         22.00 |       1592.56 | 
    |            58 |            32 |            11 |          4.10 |       1596.71 | 
    |            58 |            38 |            12 |         22.00 |       1618.82 | 
    |            58 |            30 |             9 |          3.27 |       1622.18 | 
    |            58 |            36 |            11 |         22.00 |       1644.23 | 
    |            58 |            28 |             8 |          0.88 |       1645.18 | 
    |            58 |            33 |            10 |          7.98 |       1653.20 | 
    |            58 |            39 |            12 |          7.76 |       1661.06 | 
    |            58 |            46 |            14 |          0.56 |       1661.75 | 
    |            58 |            50 |            15 |         22.00 |       1683.90 | 
    |            58 |            40 |            13 |          0.45 |       1684.43 | 
    |            58 |            48 |            15 |         22.01 |       1706.62 | 
    |            58 |            38 |            12 |         22.00 |       1728.72 | 
    |            58 |            30 |             9 |          8.17 |       1736.93 | 
    |            58 |            36 |            12 |         22.00 |       1759.02 | 
    |            58 |            28 |             9 |          2.05 |       1761.11 | 
    |            58 |            33 |            10 |          1.46 |       1762.61 | 
    |            58 |            39 |            12 |          0.26 |       1763.00 | 
    |            58 |            46 |            14 |         22.00 |       1785.13 | 
    |            58 |            36 |            12 |         22.00 |       1807.19 | 
    |            58 |            28 |            10 |          0.12 |       1807.42 | 
    |            58 |            33 |            10 |         19.64 |       1827.11 | 
    |            58 |            39 |            13 |         22.00 |       1849.24 | 
    |            58 |            31 |            10 |          8.55 |       1857.87 | 
    |            58 |            37 |            12 |          1.75 |       1859.68 | 
    |            58 |            44 |            14 |          0.62 |       1860.43 | Academic license - for non-commercial use only
Academic license - for non-commercial use only
Academic license - for non-commercial use only
Academic license - for non-commercial use only
Academic license - for non-commercial use only
Academic license - for non-commercial use only
Academic license - for non-commercial use only
Academic license - for non-commercial use only
Academic license - for non-commercial use only
Academic license - for non-commercial use only
Academic license - for non-commercial use only
Academic license - for non-commercial use only
Academic license - for non-commercial use only
Academic license - for non-commercial use only
Academic license - for non-commercial use only
Academic license - for non-commercial use only
Academic license - for non-commercial use only
Academic license - for non-commercial use only
Academic license - for non-commercial use only
Academic license - for non-commercial use only
Academic license - for non-commercial use only
Academic license - for non-commercial use only
Academic license - for non-commercial use only
Academic license - for non-commercial use only
Academic license - for non-commercial use only
Academic license - for non-commercial use only
Academic license - for non-commercial use only
Academic license - for non-commercial use only
Academic license - for non-commercial use only
Academic license - for non-commercial use only
Academic license - for non-commercial use only
Academic license - for non-commercial use only
Academic license - for non-commercial use only
Academic license - for non-commercial use only
Academic license - for non-commercial use only
Academic license - for non-commercial use only
Academic license - for non-commercial use only
Academic license - for non-commercial use only
Academic license - for non-commercial use only
Academic license - for non-commercial use only
Academic license - for non-commercial use only
Academic license - for non-commercial use only
Academic license - for non-commercial use only
Academic license - for non-commercial use only
Academic license - for non-commercial use only
Academic license - for non-commercial use only
Academic license - for non-commercial use only
Academic license - for non-commercial use only
Academic license - for non-commercial use only
Academic license - for non-commercial use only
Academic license - for non-commercial use only
Academic license - for non-commercial use only
Academic license - for non-commercial use only
Academic license - for non-commercial use only
Academic license - for non-commercial use only
Academic license - for non-commercial use only
Academic license - for non-commercial use only
Academic license - for non-commercial use only
Academic license - for non-commercial use only
Academic license - for non-commercial use only
Academic license - for non-commercial use only
Academic license - for non-commercial use only
Academic license - for non-commercial use only
Academic license - for non-commercial use only
Academic license - for non-commercial use only
Academic license - for non-commercial use only
Academic license - for non-commercial use only
Academic license - for non-commercial use only
Academic license - for non-commercial use only
Academic license - for non-commercial use only
Academic license - for non-commercial use only
Academic license - for non-commercial use only
Academic license - for non-commercial use only
Academic license - for non-commercial use only
Academic license - for non-commercial use only
Academic license - for non-commercial use only
Academic license - for non-commercial use only
Academic license - for non-commercial use only
Academic license - for non-commercial use only
Academic license - for non-commercial use only
Academic license - for non-commercial use only
Academic license - for non-commercial use only
Academic license - for non-commercial use only
Academic license - for non-commercial use only
Academic license - for non-commercial use only
Academic license - for non-commercial use only
Academic license - for non-commercial use only
Academic license - for non-commercial use only
Academic license - for non-commercial use only
Academic license - for non-commercial use only
Academic license - for non-commercial use only
Academic license - for non-commercial use only
Academic license - for non-commercial use only
Academic license - for non-commercial use only
Academic license - for non-commercial use only

    |            58 |            50 |            15 |          1.16 |       1861.77 | 
    |            58 |            50 |            15 |          1.14 |       1863.13 | 
    |            58 |            50 |            15 |          0.94 |       1864.24 | 
    |            58 |            50 |            15 |          1.05 |       1865.49 | 
    |            58 |            50 |            15 |          0.90 |       1866.57 | 
    |            58 |            50 |            15 |          1.09 |       1867.86 | 
    |            58 |            50 |            15 |          0.95 |       1868.99 | 
    |            58 |            50 |            15 |          1.02 |       1870.21 | 
    |            58 |            50 |            15 |          1.02 |       1871.43 | 
    |            58 |            50 |            15 |         22.00 |       1893.63 | 
    |            58 |            40 |            12 |          0.45 |       1894.18 | 
    |            58 |            48 |            15 |          0.99 |       1895.39 | 
    |            58 |            50 |            15 |          0.94 |       1896.50 | 
    |            58 |            50 |            15 |          0.95 |       1897.61 | 
    |            58 |            50 |            15 |          0.93 |       1898.71 | 
    |            58 |            50 |            15 |          1.06 |       1899.95 | 
    |            58 |            50 |            15 |         22.01 |       1922.11 | 
    |            58 |            40 |            13 |         22.00 |       1944.26 | 
    |            58 |            32 |            10 |          7.22 |       1951.52 | 
    |            58 |            38 |            12 |         22.00 |       1973.64 | 
    |            58 |            30 |            10 |          1.51 |       1975.26 | 
    |            58 |            36 |            11 |          6.07 |       1981.38 | 
    |            58 |            43 |            13 |          0.65 |       1982.18 | 
    |            58 |            50 |            15 |          1.09 |       1983.55 | 
    |            58 |            50 |            15 |         22.00 |       2005.85 | 
    |            58 |            40 |            13 |         22.00 |       2027.93 | 
    |            58 |            32 |            10 |         10.06 |       2038.03 | 
    |            58 |            38 |            12 |          0.32 |       2038.48 | 
    |            58 |            45 |            14 |         22.01 |       2060.68 | 
    |            58 |            36 |            12 |          0.25 |       2061.00 | 
    |            58 |            43 |            14 |          0.61 |       2061.73 | 
    |            58 |            50 |            15 |         22.00 |       2083.88 | 
    |            58 |            40 |            13 |         22.01 |       2106.04 | 
    |            58 |            32 |            10 |          9.41 |       2115.54 | 
    |            58 |            38 |            12 |          0.32 |       2115.93 | 
    |            58 |            45 |            14 |         22.00 |       2138.10 | 
    |            58 |            36 |            11 |         22.00 |       2160.21 | 
    |            58 |            28 |             9 |         18.21 |       2178.46 | 
    |            58 |            33 |            10 |          1.15 |       2179.65 | 
    |            58 |            39 |            12 |          0.32 |       2180.09 | 
    |            58 |            46 |            14 |         22.01 |       2202.25 | 
    |            58 |            36 |            10 |          2.61 |       2204.93 | 
    |            58 |            43 |            14 |          0.58 |       2205.63 | 
    |            58 |            50 |            15 |          0.82 |       2206.60 | 
    |            58 |            50 |            15 |          0.88 |       2207.65 | 
    |            58 |            50 |            15 |          0.99 |       2208.80 | 
    |            58 |            50 |            15 |         22.00 |       2231.06 | 
    |            58 |            40 |            13 |          0.37 |       2231.54 | 
    |            58 |            48 |            15 |          0.82 |       2232.52 | 
    |            58 |            50 |            15 |         22.00 |       2254.69 | 
    |            58 |            40 |            13 |         22.00 |       2276.81 | 
    |            58 |            32 |            10 |         22.00 |       2298.87 | 
    |            58 |            25 |             8 |          0.06 |       2298.95 | 
    |            58 |            30 |            10 |          1.10 |       2300.13 | 
    |            58 |            36 |            11 |          0.20 |       2300.43 | 
    |            58 |            43 |            13 |         22.00 |       2322.56 | 
    |            58 |            34 |            11 |         13.61 |       2336.23 | 
    |            58 |            40 |            12 |          0.33 |       2336.64 | 
    |            58 |            48 |            15 |          0.91 |       2337.71 | 
    |            58 |            50 |            15 |          0.97 |       2338.85 | 
    |            58 |            50 |            15 |         22.00 |       2361.07 | 
    |            58 |            40 |            13 |         22.00 |       2383.20 | 
    |            58 |            32 |            10 |          2.95 |       2386.19 | 
    |            58 |            38 |            12 |         22.00 |       2408.30 | 
    |            58 |            30 |            10 |         10.85 |       2419.22 | 
    |            58 |            36 |            12 |         22.00 |       2441.29 | 
    |            58 |            28 |             9 |          0.66 |       2442.03 | 
    |            58 |            33 |            10 |         22.00 |       2464.07 | 
    |            58 |            26 |             8 |          0.22 |       2464.31 | 
    |            58 |            31 |             9 |          0.09 |       2464.44 | 
    |            58 |            37 |            11 |         22.00 |       2486.55 | 
    |            58 |            29 |            10 |          1.32 |       2487.91 | 
    |            58 |            34 |            10 |          0.13 |       2488.13 | 
    |            58 |            40 |            12 |          0.36 |       2488.58 | 
    |            58 |            48 |            15 |          1.00 |       2489.74 | 
    |            58 |            50 |            15 |         22.00 |       2511.94 | 
    |            58 |            40 |            12 |         22.01 |       2534.01 | 
    |            58 |            32 |            11 |         22.00 |       2556.06 | 
    |            58 |            25 |             7 |          0.86 |       2556.95 | 
    |            58 |            30 |             9 |          1.48 |       2558.47 | 
    |            58 |            36 |            12 |         11.58 |       2570.22 | 
    |            58 |            43 |            13 |          0.60 |       2571.02 | 
    |            58 |            50 |            15 |          0.83 |       2572.00 | 
    |            58 |            50 |            15 |         22.00 |       2594.16 | 
    |            58 |            40 |            12 |          0.32 |       2594.57 | 
    |            58 |            48 |            15 |         22.00 |       2616.74 | 
    |            58 |            38 |            12 |         22.00 |       2638.82 | 
    |            58 |            30 |             9 |          2.98 |       2641.91 | 
    |            58 |            36 |            12 |         22.00 |       2664.01 | 
    |            58 |            28 |             9 |          1.04 |       2665.11 | 
    |            58 |            33 |            10 |          2.74 |       2667.90 | 
    |            58 |            39 |            13 |         22.00 |       2690.08 | 
    |            58 |            31 |            10 |          0.88 |       2691.00 | 
    |            58 |            37 |            11 |         22.00 |       2713.10 | 
    |            58 |            29 |            10 |          0.95 |       2714.09 | Academic license - for non-commercial use only
Academic license - for non-commercial use only
Academic license - for non-commercial use only
Academic license - for non-commercial use only
Academic license - for non-commercial use only
Academic license - for non-commercial use only
Academic license - for non-commercial use only
Academic license - for non-commercial use only
Academic license - for non-commercial use only
Academic license - for non-commercial use only
Academic license - for non-commercial use only
Academic license - for non-commercial use only
Academic license - for non-commercial use only
Academic license - for non-commercial use only
Academic license - for non-commercial use only
Academic license - for non-commercial use only
Academic license - for non-commercial use only
Academic license - for non-commercial use only
Academic license - for non-commercial use only
Academic license - for non-commercial use only
Academic license - for non-commercial use only
Academic license - for non-commercial use only
Academic license - for non-commercial use only
Academic license - for non-commercial use only
Academic license - for non-commercial use only
Academic license - for non-commercial use only
Academic license - for non-commercial use only
Academic license - for non-commercial use only
Academic license - for non-commercial use only
Academic license - for non-commercial use only
Academic license - for non-commercial use only
Academic license - for non-commercial use only
Academic license - for non-commercial use only
Academic license - for non-commercial use only
Academic license - for non-commercial use only
Academic license - for non-commercial use only
Academic license - for non-commercial use only
Academic license - for non-commercial use only
Academic license - for non-commercial use only
Academic license - for non-commercial use only
Academic license - for non-commercial use only
Academic license - for non-commercial use only
Academic license - for non-commercial use only
Academic license - for non-commercial use only
Academic license - for non-commercial use only
Academic license - for non-commercial use only
Academic license - for non-commercial use only
Academic license - for non-commercial use only
Academic license - for non-commercial use only
Academic license - for non-commercial use only
Academic license - for non-commercial use only
Academic license - for non-commercial use only
Academic license - for non-commercial use only
Academic license - for non-commercial use only
Academic license - for non-commercial use only
Academic license - for non-commercial use only
Academic license - for non-commercial use only
Academic license - for non-commercial use only

    |            58 |            34 |            11 |          0.22 |       2714.40 | 
    |            58 |            40 |            13 |          0.51 |       2715.04 | 
    |            58 |            48 |            15 |         22.00 |       2737.25 | 
    |            58 |            38 |            11 |          0.23 |       2737.54 | 
    |            58 |            45 |            14 |          0.66 |       2738.33 | 
    |            58 |            50 |            15 |          0.90 |       2739.41 | 
    |            58 |            50 |            15 |          0.97 |       2740.53 | 
    |            58 |            50 |            15 |          0.89 |       2741.58 | 
    |            58 |            50 |            15 |          0.96 |       2742.74 | 
    |            58 |            50 |            15 |         22.00 |       2764.92 | 
    |            58 |            40 |            13 |         22.00 |       2787.08 | 
    |            58 |            32 |            11 |          2.59 |       2789.71 | 
    |            58 |            38 |            12 |         22.01 |       2811.81 | 
    |            58 |            30 |            10 |          0.61 |       2812.51 | 
    |            58 |            36 |            12 |          0.29 |       2812.88 | 
    |            58 |            43 |            14 |          0.74 |       2813.75 | 
    |            58 |            50 |            15 |          0.93 |       2814.87 | 
    |            58 |            50 |            15 |          0.89 |       2815.94 | 
    |            58 |            50 |            15 |          0.86 |       2816.96 | 
    |            58 |            50 |            15 |          0.92 |       2818.07 | 
    |            58 |            50 |            15 |         22.01 |       2840.26 | 
    |            58 |            40 |            12 |          0.44 |       2840.84 | 
    |            58 |            48 |            15 |          0.97 |       2842.00 | 
    |            58 |            50 |            15 |         22.00 |       2864.19 | 
    |            58 |            40 |            13 |          0.48 |       2864.79 | 
    |            58 |            48 |            15 |          0.97 |       2865.93 | 
    |            58 |            50 |            15 |         22.01 |       2888.12 | 
    |            58 |            40 |            13 |         22.00 |       2910.24 | 
    |            58 |            32 |            10 |         22.00 |       2932.28 | 
    |            58 |            25 |             8 |          0.19 |       2932.51 | 
    |            58 |            30 |             9 |          1.00 |       2933.59 | 
    |            58 |            36 |            11 |         22.00 |       2955.69 | 
    |            58 |            28 |             9 |          1.02 |       2956.75 | 
    |            58 |            33 |            11 |          0.18 |       2957.04 | 
    |            58 |            39 |            12 |         22.00 |       2979.11 | 
    |            58 |            31 |            10 |          2.57 |       2981.75 | 
    |            58 |            37 |            12 |         22.00 |       3003.82 | 
    |            58 |            29 |             9 |          1.10 |       3004.96 | 
    |            58 |            34 |            11 |         20.90 |       3025.99 | 
    |            58 |            40 |            13 |         22.00 |       3048.11 | 
    |            58 |            32 |            10 |         22.00 |       3070.16 | 
    |            58 |            25 |             8 |          0.44 |       3070.63 | 
    |            58 |            30 |             9 |          2.16 |       3072.85 | 
    |            58 |            36 |            11 |          1.34 |       3074.24 | 
    |            58 |            43 |            14 |          0.69 |       3075.07 | 
    |            58 |            50 |            15 |         22.01 |       3097.23 | 
    |            58 |            40 |            12 |          0.30 |       3097.65 | 
    |            58 |            48 |            15 |         22.00 |       3119.80 | 
    |            58 |            38 |            12 |         22.00 |       3141.87 | 
    |            58 |            30 |             9 |          1.22 |       3143.13 | 
    |            58 |            36 |            11 |          8.29 |       3151.52 | 
    |            58 |            43 |            14 |         22.00 |       3173.71 | 
    |            58 |            34 |            11 |         22.00 |       3195.79 | 
    |            58 |            27 |             9 |          1.12 |       3196.94 | 
    |            58 |            32 |            11 |          1.30 |       3198.29 | 
    |            58 |            38 |            12 |         22.00 |       3220.40 | 
    |            58 |            30 |             9 |          1.73 |       3222.16 | 
    |            58 |            36 |            11 |         17.51 |       3239.73 | 
-17.24137931034483
