15
6 86 94 43 44 1 95
5 17 69 34 55 50
7 88 90 87 22 89 12 51
6 99 31 93 4 62 25
10 35 74 63 52 42 78 24 60 37 53
6 0 97 71 84 47 91
6 14 3 45 28 80 65
6 49 20 32 57 58 10
10 40 9 5 61 68 19 76 83 8 38
5 23 98 11 85 82
9 79 59 18 56 54 33 27 36 15
5 13 7 77 92 75
8 46 41 81 2 67 96 16 72
5 39 26 64 29 66
6 73 6 30 21 70 48

Total makespan: 77

