30
2 46 40
1 16
2 14 37
1 47
1 23
2 36 42
3 43 44 31
2 1 33
3 2 13 38
1 28
1 24
2 35 0
1 6
1 25
2 20 8
2 7 26
3 5 15 19
2 27 3
1 48
1 10
2 29 4
1 22
2 21 9
2 41 18
2 17 34
2 11 30
1 39
1 45
1 32
2 49 12

Total makespan: 16

