20
5 29 21 7 15 14
7 80 97 95 11 75 45 26
5 54 82 62 55 27
5 56 65 76 53 23
6 13 61 78 2 86 18
4 81 3 68 57
4 59 35 39 94
6 34 99 60 20 87 38
5 63 28 69 16 71
5 31 47 58 88 70
3 1 17 89
4 22 96 36 44
7 42 33 64 52 6 40 19
6 67 25 51 30 66 73
6 50 77 43 46 84 12
5 9 48 41 83 85
5 92 98 93 10 8
3 24 4 5
5 74 37 72 79 49
4 91 90 0 32

Total makespan: 58

