25
5 66 25 57 38 22
5 43 89 77 19 7
3 80 24 84
3 95 21 62
5 90 87 97 49 1
6 96 53 32 73 10 18
8 40 98 35 16 0 28 41 20
4 64 55 8 46
2 15 94
4 13 58 42 6
3 48 23 4
4 78 68 56 39
4 85 67 81 61
1 75
6 72 27 47 31 12 14
4 50 11 71 69
4 76 34 91 17
4 59 3 52 88
4 74 51 2 86
2 9 29
4 99 92 83 26
3 63 45 36
4 30 70 37 65
4 60 5 93 44
4 33 82 79 54

Total makespan: 56

