10
10 55 74 99 26 44 72 57 94 83 49
9 39 59 35 82 68 19 25 91 36
9 84 6 29 17 97 31 5 75 78
12 14 58 73 7 3 93 30 85 66 89 86 27
9 18 21 32 53 50 52 11 47 90
13 13 69 12 71 98 1 34 88 40 10 63 0 65
7 9 60 45 2 54 70 43
13 87 64 61 15 38 16 92 46 20 80 62 48 67
7 41 8 23 4 96 56 77
11 33 79 81 37 42 51 95 22 24 76 28

Total makespan: 147

