20
6 38 59 5 4 48 44
5 67 8 70 13 80
6 42 94 93 35 78 29
6 7 65 11 74 89 90
5 84 62 31 43 81
7 98 25 18 24 49 57 36
2 60 50
1 92
4 77 1 41 32
6 75 30 53 10 33 96
7 39 79 12 54 17 37 23
5 16 3 64 82 71
5 21 28 99 86 61
7 85 95 55 91 73 26 20
5 51 9 15 0 68
6 6 88 76 52 63 2
4 83 34 58 46
5 14 22 56 87 47
3 45 66 69
5 40 97 19 72 27

Total makespan: 43

