15
10 46 79 3 42 7 44 81 27 77 92
5 95 71 49 57 34
7 31 33 17 0 6 94 52
7 2 35 62 41 56 93 74
8 5 43 21 66 39 54 65 4
8 38 23 45 11 87 59 24 61
5 90 99 40 60 64
7 88 15 82 89 37 26 29
8 55 83 28 96 67 91 10 14
4 19 9 86 53
8 68 70 78 8 12 13 97 16
6 47 25 50 80 18 32
6 63 22 36 51 30 48
6 73 75 20 84 69 98
5 76 58 1 85 72

Total makespan: 87

