25
3 48 65 44
5 64 73 28 68 19
3 74 34 90
7 95 80 26 32 85 22 14
5 46 41 15 99 39
3 38 72 81
4 42 83 16 57
4 7 24 31 3
3 49 77 5
4 13 86 4 45
6 43 66 8 75 84 30
4 82 88 58 59
3 40 21 70
4 0 98 93 6
4 29 53 62 92
5 33 47 36 9 27
1 97
4 87 91 71 69
4 10 60 35 17
4 1 63 76 23
4 11 54 37 18
4 20 89 79 2
3 51 52 96
4 78 25 61 56
5 94 67 55 12 50

Total makespan: 57

