15
8 18 66 32 65 82 68 21 14
6 63 37 51 35 95 59
8 58 3 92 99 2 53 80 15
6 57 19 98 45 94 97
5 85 7 36 93 12
8 81 76 4 87 91 49 72 8
8 56 84 5 31 74 0 48 38
6 90 83 40 10 29 50
6 22 55 28 20 9 75
5 71 16 33 47 89
9 6 1 41 30 42 61 24 78 27
5 13 86 54 64 73
6 69 25 77 11 79 96
8 43 88 34 23 62 39 67 70
6 46 52 17 60 26 44

Total makespan: 94

