30
3 41 79 61
4 83 81 59 22
4 37 49 84 50
2 8 0
2 51 7
3 6 20 92
3 64 53 63
3 80 13 25
2 85 17
4 2 24 62 66
3 38 54 39
2 42 34
4 78 5 4 70
3 98 40 26
6 65 82 58 72 12 27
4 1 96 36 32
3 76 11 3
3 33 99 30
3 18 44 87
4 9 10 14 94
3 16 23 88
3 46 57 95
3 90 91 93
3 28 48 43
4 21 29 86 56
4 47 77 68 67
4 45 15 60 35
3 73 69 71
4 89 55 74 75
4 31 52 97 19

Total makespan: 34

