20
6 17 66 21 0 9 40
4 88 38 89 57
4 69 10 42 92
5 77 54 70 51 30
6 56 23 7 6 47 8
7 83 25 12 63 24 82 81
5 20 41 27 3 52
2 55 1
5 75 99 97 50 61
5 62 48 49 94 98
5 60 34 72 65 58
5 64 86 93 26 4
5 53 29 90 36 37
5 15 84 80 22 44
4 78 79 85 35
5 68 11 16 39 14
3 33 31 43
6 87 74 95 73 76 91
7 96 67 32 5 13 2 59
6 46 71 45 18 19 28

Total makespan: 61

