15
6 27 57 13 6 63 43
7 87 93 85 48 77 88 39
8 3 50 46 8 34 59 69 14
10 54 36 90 23 60 67 19 25 35 10
8 41 79 66 29 95 42 16 24
4 31 20 84 11
5 47 96 33 83 56
7 86 2 72 99 44 40 89
7 32 28 58 38 12 92 49
6 52 30 1 76 18 78
5 71 5 26 68 22
8 55 98 45 4 62 7 81 51
6 97 61 64 70 15 9
6 74 94 91 75 82 0
7 65 37 21 17 73 53 80

Total makespan: 60

