15
6 57 69 59 14 50 28
8 87 97 24 81 90 22 94 58
7 49 0 53 80 20 39 79
7 21 27 32 25 7 52 77
7 74 51 13 72 85 98 88
8 65 45 9 3 91 84 48 23
6 41 15 40 67 68 36
8 8 26 56 63 5 11 89 29
4 75 66 96 12
8 6 86 34 42 47 55 35 1
4 60 31 46 16
7 33 73 62 43 99 30 92
7 38 82 83 61 17 76 70
8 19 4 93 95 10 78 54 37
5 2 44 18 64 71

Total makespan: 109

