20
6 20 35 16 60 62 17
5 29 30 82 22 42
2 56 4
5 58 47 39 37 85
5 41 3 76 34 46
4 53 90 36 81
8 64 15 52 5 14 87 11 1
5 94 70 40 97 24
4 44 59 93 66
5 96 51 6 88 28
6 67 43 0 12 99 10
6 31 92 23 8 32 9
3 19 50 79
5 48 91 18 69 84
5 83 98 57 89 86
4 26 95 7 72
5 68 75 2 74 21
6 63 78 65 38 25 77
7 33 54 80 61 49 55 13
4 71 27 45 73

Total makespan: 79

