30
3 48 47 45
3 43 67 20
3 84 9 94
4 78 80 63 86
4 70 95 18 11
2 31 13
2 42 34
3 14 99 71
3 8 62 29
4 0 57 75 4
3 23 69 46
5 32 50 24 79 53
4 98 10 28 97
3 81 15 51
3 5 74 44
4 17 87 72 41
3 33 19 6
5 56 60 26 76 22
2 91 92
3 35 89 83
3 77 65 25
5 38 1 88 52 37
3 30 58 93
3 64 49 54
4 82 61 12 85
3 90 55 21
4 7 39 96 66
3 59 27 40
2 2 68
4 16 3 36 73

Total makespan: 43

