30
4 30 89 35 97
2 48 94
4 81 57 58 4
2 72 50
3 22 12 7
3 96 43 68
6 84 13 42 55 67 78
4 80 71 98 2
4 37 93 56 5
3 6 34 73
3 61 82 32
4 14 8 95 69
2 74 46
3 45 25 33
3 79 29 23
3 47 99 18
4 44 62 88 0
4 39 86 53 11
3 38 15 87
2 70 21
4 40 24 16 54
3 83 26 1
3 9 51 65
4 10 85 19 91
4 90 20 28 75
4 60 36 52 59
3 76 27 17
2 66 92
3 31 49 64
4 77 41 3 63

Total makespan: 22

