25
5 62 93 63 48 21
3 74 39 41
3 98 58 69
5 43 28 40 88 94
6 67 32 99 17 95 29
2 45 76
3 87 16 61
4 75 82 84 65
4 3 6 96 57
4 31 56 59 34
3 4 91 83
5 42 86 47 5 18
5 14 35 20 22 90
4 15 2 46 44
5 70 27 78 30 81
4 1 7 73 60
4 38 79 53 51
3 89 19 36
4 66 97 33 12
5 37 9 13 64 54
4 24 77 8 52
3 25 23 71
4 72 80 68 85
4 10 26 0 92
4 49 50 55 11

Total makespan: 58

