30
3 46 48 16
5 41 82 61 49 83
3 23 34 70
3 68 10 67
2 4 30
4 3 64 87 93
3 20 19 40
4 73 6 74 15
4 60 86 78 69
3 39 79 32
3 24 35 84
4 37 89 58 42
4 88 95 80 85
5 14 45 99 50 9
5 52 47 29 90 5
2 1 51
3 33 7 81
4 28 25 21 12
3 98 55 97
3 96 94 59
3 77 66 75
3 62 72 91
3 71 57 36
1 0
2 56 53
3 54 22 11
6 27 13 26 2 92 18
3 76 17 38
3 8 44 63
3 65 43 31

Total makespan: 47

