15
7 78 48 12 35 68 45 73
7 9 37 84 54 30 8 15
6 21 4 61 77 10 56
7 7 57 27 0 33 43 60
5 42 92 72 87 75
8 53 24 51 96 40 69 76 94
7 13 17 22 25 85 70 19
6 59 14 47 99 39 2
7 89 1 71 28 64 88 18
6 90 80 79 98 46 3
8 20 62 31 86 55 95 6 65
5 49 58 93 23 11
7 36 50 16 34 44 91 29
5 83 66 52 38 67
9 82 74 5 26 41 32 81 97 63

Total makespan: 112

