30
5 35 24 32 98 25
4 97 67 60 84
2 22 94
2 33 39
3 28 29 44
5 19 45 31 70 7
4 37 76 0 12
3 87 55 91
2 11 92
2 66 93
3 69 58 18
3 72 64 78
4 96 23 82 79
2 51 63
5 89 15 21 9 14
4 59 62 16 74
3 81 2 27
5 13 65 75 40 34
4 26 10 17 95
4 85 86 61 53
3 4 5 50
2 20 49
2 52 6
3 47 30 77
3 36 80 99
4 43 41 38 46
4 90 73 8 1
4 68 54 48 71
3 42 83 88
3 56 57 3

Total makespan: 35

