15
6 63 99 80 46 33 13
8 76 69 50 16 83 20 38 58
7 85 95 2 55 87 37 15
5 75 23 59 90 67
7 17 96 94 11 61 73 14
6 91 70 41 86 56 40
8 27 35 71 72 88 98 26 39
5 3 31 65 53 28
8 0 36 8 42 21 93 49 74
5 64 54 45 92 51
6 6 62 47 52 4 66
8 44 84 82 12 97 18 7 81
7 24 10 1 48 68 32 89
7 78 30 77 9 19 25 29
7 43 5 22 34 60 57 79

Total makespan: 109

