20
3 7 53 65
5 60 54 69 44 72
4 71 47 8 77
5 85 22 2 25 30
3 18 16 32
6 33 24 51 43 73 27
5 83 78 66 56 67
4 80 62 17 4
3 1 95 23
4 14 88 93 57
5 63 86 52 38 70
6 39 9 92 6 13 28
4 19 76 90 75
8 48 20 3 79 97 36 82 58
6 99 12 40 10 45 84
5 74 5 96 21 31
6 68 59 42 35 46 61
5 34 55 81 29 98
6 49 41 26 87 37 89
7 15 50 11 0 94 91 64

Total makespan: 59

