30
3 6 55 34
3 14 21 49
3 52 2 12
4 48 41 66 83
3 27 53 7
4 28 78 3 23
4 19 8 61 26
4 47 54 67 1
4 30 60 38 91
5 79 31 33 5 39
4 22 58 88 97
3 29 20 17
3 64 94 4
3 76 95 87
3 69 25 10
2 36 72
3 99 74 98
4 77 89 96 75
4 65 11 15 18
2 62 13
4 93 80 24 71
3 0 44 9
3 35 56 68
3 70 92 50
4 59 63 90 32
3 82 42 85
3 84 37 46
2 40 81
3 86 45 73
4 43 57 16 51

Total makespan: 46

