20
6 65 16 87 25 67 23
3 14 9 54
6 41 97 58 51 30 84
4 40 45 69 63
5 94 49 93 12 8
3 75 61 52
5 18 34 90 42 85
7 22 10 56 74 11 5 2
6 27 79 19 13 32 43
4 71 78 70 35
5 47 44 24 7 89
9 68 26 77 92 17 53 60 55 83
3 3 76 15
5 96 38 37 95 88
4 73 66 4 98
4 33 50 72 46
6 0 36 39 1 29 31
4 82 28 91 62
6 86 48 80 99 21 81
5 64 6 20 59 57

Total makespan: 41

