10
10 28 79 36 13 73 58 67 12 62 49
6 93 59 57 71 68 14
8 87 34 43 19 56 74 55 41
13 22 5 85 77 81 40 83 10 4 6 63 47 27
12 38 48 65 64 0 69 96 82 99 97 60 23
8 3 66 11 72 1 7 70 76
8 18 21 45 9 46 94 44 84
8 16 39 26 25 95 61 92 50
14 17 37 88 20 91 30 78 42 52 32 2 75 89 90
13 15 51 33 8 80 24 54 35 29 98 31 53 86

Total makespan: 198

