30
4 72 6 20 44
2 61 32
2 56 33
4 42 59 94 23
3 22 9 60
4 53 51 86 34
3 99 96 87
4 38 7 98 55
2 83 92
3 57 93 85
3 13 36 71
3 14 37 74
3 49 50 65
6 3 52 89 25 78 24
3 45 58 82
3 66 79 73
3 46 11 17
3 77 16 2
3 21 29 40
4 30 8 69 0
4 15 41 67 62
4 76 26 81 70
3 63 54 97
3 28 68 48
5 43 27 91 19 84
3 39 10 64
3 1 75 80
3 31 18 12
4 4 88 90 35
3 47 5 95

Total makespan: 46

