20
5 23 16 87 25 35
5 14 44 63 73 54
6 41 51 30 84 97 58
3 45 60 76
5 49 8 91 93 2
5 61 67 9 69 3
5 18 47 90 42 85
7 22 10 11 92 56 5 40
6 27 79 19 13 32 43
4 71 70 78 46
2 52 89
8 17 53 77 55 83 38 68 26
2 15 75
6 24 37 96 95 88 12
5 74 66 4 98 65
4 33 50 7 72
6 0 36 39 1 29 31
4 82 34 62 28
7 86 48 80 99 21 81 94
5 64 6 20 59 57

Total makespan: 43

