10
10 13 96 92 99 94 45 29 14 85 87
12 82 75 1 10 6 51 43 84 67 69 62 12
9 3 61 53 32 60 52 70 72 36
10 39 50 9 5 56 41 74 71 65 34
11 48 42 23 77 4 22 11 38 28 37 86
10 66 59 80 76 90 31 95 63 21 35
11 25 7 97 49 57 44 30 27 19 73 81
7 78 55 20 58 46 26 8
9 18 83 15 64 2 91 54 47 98
11 89 88 16 40 24 17 79 33 0 68 93

Total makespan: 145

