15
6 80 9 3 87 27 84
7 14 30 92 20 4 75 49
9 96 56 6 65 62 48 89 36 21
5 74 55 82 44 31
6 0 13 52 38 70 47
5 58 91 15 69 73
7 2 94 16 81 71 39 90
5 28 54 98 72 79
9 83 35 97 1 76 63 99 67 32
7 59 60 12 66 85 29 64
7 17 43 26 22 5 57 93
6 86 11 19 7 53 40
7 68 45 33 25 61 37 95
8 88 24 23 18 50 34 41 46
6 42 51 8 78 77 10

Total makespan: 114

