15
7 96 54 18 6 49 64 68
9 41 13 75 28 59 65 82 86 21
9 30 93 69 94 99 63 83 40 71
6 22 16 24 62 8 0
8 42 84 74 39 97 98 55 11
6 4 5 57 10 61 35
5 88 50 46 27 9
7 48 1 3 52 56 70 92
5 87 58 78 19 34
6 91 37 79 66 76 2
5 14 43 15 32 38
9 17 73 77 12 85 53 60 89 90
5 7 81 31 45 51
5 20 23 67 29 72
8 44 80 47 36 33 25 95 26

Total makespan: 61

