15
6 43 10 88 14 4 92
7 1 40 49 52 18 61 60
5 62 87 35 31 33
6 54 8 66 30 63 69
8 44 57 27 94 98 25 32 76
10 37 17 99 39 50 72 34 65 51 38
10 84 79 83 26 3 19 29 23 80 85
6 71 53 41 42 75 56
5 96 0 68 81 28
7 12 16 59 78 58 77 67
6 47 9 48 22 70 46
5 55 5 91 89 21
4 90 11 24 36
8 93 73 82 74 20 86 7 6
7 2 64 95 13 15 45 97

Total makespan: 102

