25
4 89 21 33 16
5 26 22 15 45 49
5 80 5 34 54 23
3 37 30 41
5 14 28 87 32 35
5 63 31 36 50 88
4 4 7 25 94
3 85 98 68
3 90 69 8
4 10 51 67 97
5 71 29 43 76 48
3 73 79 38
4 2 74 6 92
3 84 72 59
5 42 86 24 99 17
5 93 13 96 55 19
5 82 18 40 70 52
3 27 61 60
4 11 81 0 46
3 95 9 56
3 91 53 12
3 65 3 1
5 57 20 66 44 39
4 47 83 62 75
4 77 58 78 64

Total makespan: 60

