20
4 86 67 87 64
4 96 73 7 18
5 91 13 22 54 16
5 74 63 82 58 17
4 9 97 95 72
6 31 83 50 99 56 85
5 81 62 44 2 84
6 77 90 76 1 57 38
4 35 26 30 39
5 59 3 21 6 79
6 43 92 33 24 68 11
4 75 19 23 78
6 93 20 5 49 47 0
5 36 66 52 12 89
5 53 15 34 55 61
5 8 28 29 10 98
5 46 48 70 80 27
5 4 25 40 69 41
5 14 88 45 51 42
6 37 71 65 94 32 60

Total makespan: 77

