15
8 75 17 16 70 88 83 95 19
5 42 62 81 53 50
6 43 45 1 24 10 57
8 40 4 48 73 36 55 64 79
7 92 41 77 39 93 47 68
8 52 72 14 78 85 51 44 23
6 20 60 63 61 98 65
4 18 89 15 8
7 22 69 5 37 97 71 2
7 9 76 82 7 27 21 66
7 84 35 94 90 34 6 67
5 13 86 26 25 0
9 87 12 28 11 96 54 99 3 38
7 59 31 74 49 32 46 56
6 30 33 91 29 80 58

Total makespan: 104

