25
4 94 78 64 81
3 74 80 85
5 46 16 61 38 4
3 91 18 10
4 43 76 62 33
4 39 97 51 68
5 29 40 37 12 26
4 63 42 87 44
4 19 27 89 2
5 73 98 79 28 20
5 90 8 32 70 82
3 72 58 48
3 45 55 25
2 84 14
5 7 59 23 3 15
5 75 50 88 31 30
6 47 0 54 36 99 5
3 49 9 69
5 21 71 6 11 13
7 92 24 65 93 53 77 41
3 34 96 57
2 52 1
3 56 83 67
4 66 35 17 22
3 95 60 86

Total makespan: 30

