10
15 45 34 64 93 15 62 12 87 47 8 96 3 5 92 29
10 0 43 23 46 21 24 79 63 25 78
9 95 26 56 77 6 70 1 20 88
10 4 55 82 48 10 42 81 17 65 39
10 18 94 90 40 31 44 41 60 50 73
8 53 32 97 72 57 37 98 69
9 51 38 36 67 28 16 35 14 80
11 76 30 27 71 83 74 22 13 54 11 61
9 58 49 19 84 59 75 2 91 66
9 86 33 99 9 85 89 68 52 7

Total makespan: 162

