20
6 15 99 78 16 6 30
6 31 76 2 80 13 29
5 1 33 85 4 84
5 81 68 21 8 57
4 71 38 23 88
6 35 11 36 56 75 7
5 51 49 95 69 66
4 26 0 93 60
6 87 83 79 47 53 3
4 5 67 54 52
4 97 90 19 9
3 18 24 34
5 32 48 58 12 20
5 94 77 70 40 25
6 37 17 89 41 73 72
5 28 91 14 64 61
4 92 65 44 46
5 62 96 82 42 45
6 50 22 59 86 39 43
6 55 74 63 98 27 10

Total makespan: 83

