15
7 24 18 84 2 93 1 97
7 34 7 22 32 4 89 10
7 25 50 86 60 23 67 28
6 8 36 62 21 59 56
8 29 47 95 53 9 72 70 66
7 14 88 85 83 49 5 69
7 82 39 63 30 78 58 26
7 75 73 35 61 37 92 43
5 46 68 52 99 94
6 64 51 19 57 79 31
6 54 87 55 44 42 48
5 16 96 13 6 45
7 80 27 65 76 12 40 71
9 33 17 90 3 11 74 38 15 41
6 20 98 77 0 91 81

Total makespan: 69

