10
9 97 8 52 79 34 88 83 31 55
10 30 36 41 13 70 29 10 65 56 53
10 2 43 49 78 22 21 77 5 61 73
12 7 6 80 11 85 66 87 33 17 74 86 19
12 68 58 27 46 82 81 14 98 95 94 20 45
8 48 72 51 91 44 62 3 40
7 38 92 93 12 26 76 47
10 84 99 59 1 54 67 32 60 24 57
11 63 23 15 18 50 28 64 89 35 75 0
11 39 25 42 90 96 71 37 69 4 9 16

Total makespan: 117

