10
9 74 27 86 97 76 48 42 32 99
9 58 78 56 57 2 98 33 9 75
10 25 81 11 3 71 77 12 88 41 64
8 29 68 21 87 40 17 15 1
11 94 61 85 79 90 95 0 31 19 50 24
12 73 46 91 80 65 30 51 66 53 43 67 10
13 82 39 6 23 52 84 14 22 37 16 5 70 92
11 89 18 93 60 47 44 83 4 54 63 38
8 69 72 35 34 36 59 45 62
9 26 28 7 13 20 96 55 49 8

Total makespan: 177

