20
4 1 62 51 98
5 59 41 31 85 69
6 17 93 19 73 66 82
5 71 18 45 35 23
4 12 20 70 14
5 76 99 90 61 56
4 65 60 50 27
7 57 13 15 54 8 9 48
3 96 72 74
5 52 43 63 10 6
6 5 55 89 83 33 87
6 49 39 2 3 38 28
7 84 11 21 4 32 24 67
4 34 88 58 7
5 86 97 80 36 68
6 75 25 92 46 40 79
4 44 16 77 95
6 26 64 94 37 47 29
3 78 53 91
5 30 0 81 22 42

Total makespan: 74

