15
5 22 38 60 72 84
8 1 70 11 13 37 50 87 71
8 48 57 3 90 79 63 53 20
5 34 18 88 33 75
6 9 10 25 47 5 74
6 67 29 8 65 73 35
5 56 68 43 2 21
5 66 76 99 91 0
8 97 61 31 7 96 24 4 17
5 85 98 16 30 42
7 32 54 69 95 52 51 26
8 55 59 93 82 64 80 58 46
7 28 6 41 19 14 81 12
9 62 44 92 94 83 77 78 40 49
8 36 23 45 86 15 89 39 27

Total makespan: 83

