10
12 12 96 74 89 50 91 85 41 8 88 10 70
7 84 27 2 87 67 38 75
7 68 62 40 0 28 3 11
8 42 82 95 92 63 46 36 1
11 23 98 66 64 58 56 93 33 18 76 61
11 72 47 20 29 65 94 17 6 15 39 60
11 31 32 19 69 25 78 37 97 16 54 9
10 90 49 30 59 4 99 55 86 26 5
12 73 57 35 13 77 22 43 83 79 44 71 81
11 24 7 48 53 21 14 34 52 80 51 45

Total makespan: 119

