10
8 40 58 66 81 38 14 48 5
11 82 19 91 77 23 97 36 79 47 35 70
12 73 12 50 76 1 22 93 69 41 3 10 90
13 39 98 87 21 83 85 88 17 16 4 32 64 67
13 11 53 0 51 78 55 95 74 94 20 42 65 72
7 44 59 68 63 57 61 49
11 30 9 75 37 52 8 86 45 56 2 31
7 25 89 33 15 71 80 29
11 27 24 6 84 43 28 13 46 34 18 96
7 54 7 62 26 92 60 99

Total makespan: 156

