25
3 89 26 38
5 92 62 7 59 67
5 1 99 32 79 77
3 66 14 82
4 96 2 43 56
3 85 91 0
4 55 46 73 8
4 49 88 9 11
4 76 71 19 54
3 90 52 68
4 33 39 57 97
4 70 31 12 45
5 21 4 61 35 5
4 86 93 18 44
2 69 53
5 81 3 34 36 48
6 83 6 78 47 64 75
4 58 50 60 98
6 74 30 51 94 41 20
4 42 87 29 27
3 37 24 10
2 15 16
5 65 13 25 23 84
3 40 28 72
5 17 80 63 22 95

Total makespan: 60

