30
3 15 33 59
3 2 65 75
3 41 5 13
4 67 55 96 36
2 42 60
2 9 68
3 10 63 24
5 7 62 1 71 20
3 22 54 78
5 92 23 30 25 89
6 44 51 73 82 49 97
4 35 94 74 57
3 66 14 53
3 98 43 50
3 39 64 72
3 76 47 8
2 84 90
5 46 79 77 99 18
2 56 80
3 31 37 45
2 6 4
4 81 58 61 93
2 86 27
3 21 48 52
3 32 28 69
3 70 11 38
4 16 19 88 3
3 95 26 85
6 0 34 87 83 29 91
3 12 17 40

Total makespan: 37

