15
6 95 30 10 65 96 57
8 22 56 59 70 3 28 92 29
7 7 82 39 88 54 13 78
9 5 50 51 98 93 27 1 12 36
6 76 58 97 32 14 80
7 42 99 62 15 43 18 91
6 77 63 67 68 72 52
4 55 84 44 60
6 9 31 64 11 8 21
6 19 23 25 20 86 46
6 66 16 40 73 83 79
6 24 0 71 87 69 53
8 2 45 74 85 26 6 90 94
7 37 75 81 47 33 61 38
8 35 41 49 48 4 17 89 34

Total makespan: 65

