20
5 1 54 19 51 98
3 59 55 77
6 93 66 74 17 78 69
5 82 35 23 37 11
4 7 49 12 0
5 76 68 99 90 61
4 27 47 60 48
6 57 8 9 3 13 15
4 45 29 31 96
5 73 84 52 43 63
7 10 24 89 5 83 33 87
5 26 38 28 39 2
5 4 41 21 30 67
5 50 58 14 88 16
5 72 86 97 80 36
7 25 20 6 92 46 40 79
5 85 56 34 95 81
5 75 18 94 64 70
4 44 53 62 32
5 22 42 65 71 91

Total makespan: 75

