30
3 12 35 10
4 23 61 80 77
4 65 68 89 57
3 14 60 4
3 5 15 24
2 79 37
5 3 82 19 13 16
3 28 50 72
2 81 32
3 30 7 36
4 64 73 94 0
2 17 78
3 85 1 42
3 66 88 18
3 76 41 90
4 98 52 54 58
4 69 46 47 8
3 20 45 93
2 56 38
2 55 70
4 84 31 33 67
4 39 59 25 2
4 34 91 22 9
5 63 27 71 43 51
4 62 87 75 44
3 11 48 99
3 92 95 97
4 83 74 53 96
2 26 21
5 6 49 86 29 40

Total makespan: 40

