20
8 26 65 13 18 34 5 59 61
4 90 89 73 55
5 92 58 49 0 9
5 42 30 83 53 14
5 86 77 39 45 38
7 15 52 70 82 25 98 28
6 22 85 94 46 95 21
7 74 51 44 41 79 37 11
4 29 17 62 81
7 69 8 47 40 32 19 66
5 36 10 91 71 27
3 56 63 67
3 6 64 4
3 1 3 57
4 93 68 72 84
4 78 2 35 60
5 97 88 54 24 20
4 99 48 31 50
5 12 23 75 96 16
6 87 7 80 76 43 33

Total makespan: 58

