30
3 12 35 28
4 39 46 61 77
3 65 48 89
4 99 97 60 4
3 93 83 15
2 79 37
5 67 82 7 16 70
3 74 23 55
3 14 63 24
4 36 22 84 3
4 17 10 85 81
2 73 49
3 38 1 42
3 57 5 88
4 76 78 41 90
3 13 92 32
2 8 69
3 54 20 45
4 72 6 56 64
3 58 66 68
4 98 29 31 33
4 19 59 25 2
3 52 80 91
4 27 71 43 51
4 62 87 75 44
2 34 18
3 95 11 50
4 30 94 53 96
2 26 9
5 0 47 21 86 40

Total makespan: 44

