25
4 80 2 15 49
5 8 72 21 30 17
3 43 97 76
5 67 63 5 50 57
5 65 73 42 81 13
4 11 24 25 95
4 28 31 45 69
4 44 32 77 22
3 96 68 27
2 70 93
5 36 52 4 79 84
8 86 20 6 41 87 61 94 64
4 78 39 16 98
4 38 7 75 1
3 34 33 66
3 51 71 99
4 85 35 37 9
4 48 88 60 18
3 54 47 89
4 40 10 56 3
4 19 14 82 12
4 92 83 91 0
3 46 59 62
3 74 58 55
5 29 23 26 90 53

Total makespan: 63

