30
3 19 44 21
3 37 9 52
5 67 5 42 75 7
6 58 23 6 50 22 91
5 3 4 45 92 48
3 78 27 46
2 31 83
2 0 86
3 60 62 53
4 47 77 59 38
2 26 54
3 14 35 61
5 80 95 40 81 8
3 49 11 99
3 98 15 84
2 97 36
2 65 13
5 43 39 69 68 94
3 1 70 72
4 96 85 32 74
4 93 66 41 63
1 10
3 25 90 2
4 79 89 55 73
5 12 24 29 57 16
4 64 30 34 71
3 17 56 76
3 88 51 82
3 18 87 33
2 28 20

Total makespan: 21

