15
5 84 3 80 9 98
8 14 30 92 20 4 75 49 96
8 56 6 65 62 60 35 36 29
6 74 55 82 59 94 0
5 47 61 25 91 42
6 24 69 73 19 44 58
8 12 16 81 2 27 41 39 90
6 28 72 38 54 51 45
9 93 70 88 76 83 63 52 67 32
6 64 99 7 66 85 34
8 17 43 79 97 26 22 5 57
7 15 86 11 21 33 48 87
5 37 95 1 68 89
5 31 23 18 71 53
8 46 40 50 13 10 8 78 77

Total makespan: 119

