15
6 24 2 93 18 69 97
7 34 7 22 32 4 89 10
8 95 1 67 86 60 27 25 28
7 36 8 74 62 90 21 59
8 29 47 75 56 70 72 53 9
8 83 73 57 14 88 85 49 5
7 26 78 84 82 39 63 30
6 91 35 61 37 92 43
5 52 99 94 58 66
6 51 19 31 50 79 68
6 54 87 55 44 42 48
5 16 96 13 6 45
7 80 71 12 40 33 65 76
7 23 38 15 41 11 17 3
7 81 64 98 77 0 46 20

Total makespan: 70

