10
10 53 63 22 18 30 1 14 58 28 98
12 20 29 79 40 8 46 47 65 55 61 39 73
9 80 69 32 75 89 23 15 99 94
11 83 78 48 86 35 41 60 50 37 45 93
9 5 67 96 49 9 2 64 7 34
12 72 44 12 33 95 26 88 25 85 68 10 66
7 82 81 59 42 51 16 71
10 13 31 52 27 19 11 84 36 4 17
11 90 70 21 97 57 74 3 38 43 24 0
9 6 87 76 56 91 92 54 77 62

Total makespan: 185

