25
3 75 14 42
4 53 29 83 56
4 93 97 23 89
3 58 92 27
3 41 12 82
3 32 17 52
5 64 80 0 33 26
3 24 44 2
3 4 65 51
4 88 21 47 45
4 68 30 60 3
3 43 54 94
5 1 10 90 36 77
4 62 81 31 40
3 19 73 86
5 28 74 57 35 96
6 9 11 72 55 79 76
4 39 46 37 66
6 5 7 38 78 70 49
3 71 20 85
4 6 13 25 87
6 15 91 59 16 95 61
6 22 18 50 48 98 99
2 84 34
4 69 67 8 63

Total makespan: 60

