15
8 91 8 72 95 52 4 70 99
7 93 16 22 65 1 61 71
6 92 11 94 79 33 26
5 48 54 63 88 55
7 40 15 74 21 57 96 14
7 47 37 35 46 44 30 39
5 80 23 5 86 83
7 38 87 58 49 25 17 34
6 6 18 32 82 66 50
9 62 51 36 98 75 85 81 27 73
7 77 90 0 12 59 42 60
6 19 69 29 2 67 20
7 84 56 64 13 53 97 9
8 31 45 68 76 10 78 43 89
5 3 41 7 28 24

Total makespan: 80

