30
4 39 45 66 47
2 30 65
3 88 7 75
2 95 26
5 56 13 77 12 90
4 82 60 53 0
3 6 24 78
5 3 46 41 72 51
3 36 35 76
2 54 61
3 28 68 86
4 1 20 29 99
5 59 49 50 69 18
3 4 73 32
3 17 15 93
3 8 83 92
3 96 16 34
5 48 33 70 38 23
2 11 21
4 44 25 55 57
3 71 97 9
3 42 84 5
4 40 64 79 94
3 10 80 74
3 52 14 85
3 91 31 98
2 58 62
4 19 89 37 67
4 22 63 2 43
3 27 87 81

Total makespan: 20

