30
4 79 61 77 32
4 83 69 70 48
3 46 43 1
3 80 57 15
3 26 66 37
3 25 76 34
4 4 35 21 44
3 65 96 49
3 10 39 82
4 3 75 73 74
3 81 0 2
4 42 94 16 88
3 30 55 71
3 29 54 41
3 47 68 23
2 38 85
3 51 86 63
3 18 5 17
4 12 6 97 87
3 98 95 40
4 93 52 36 53
4 27 58 78 72
3 14 9 64
1 92
3 50 7 19
5 60 90 56 31 45
4 59 22 84 99
3 13 24 62
5 20 67 33 91 28
3 11 89 8

Total makespan: 32

