25
4 5 79 94 45
4 95 17 1 55
3 10 90 51
3 24 98 30
5 97 33 49 62 11
6 32 52 23 20 19 93
5 46 36 74 82 12
2 72 92
4 40 35 26 68
4 66 75 54 67
4 44 80 0 41
4 9 85 13 42
5 89 29 99 86 6
4 59 34 56 69
4 2 31 71 21
3 14 22 73
4 64 43 27 16
5 48 83 37 50 25
5 53 61 60 8 63
4 88 7 84 76
4 57 81 78 87
5 70 3 4 91 15
4 58 38 18 47
2 28 39
3 65 96 77

Total makespan: 56

