30
3 85 3 12
3 64 34 52
2 26 2
4 51 74 13 44
2 49 22
2 24 39
2 45 84
4 25 73 40 8
3 47 4 28
3 78 92 42
4 33 56 38 58
4 72 68 46 30
2 67 18
3 7 20 83
4 37 79 69 11
5 63 15 82 16 89
3 43 99 57
3 35 54 94
5 59 97 90 96 55
4 5 0 66 61
4 14 27 23 62
3 21 19 98
2 32 29
4 65 41 48 80
3 17 9 88
4 77 53 91 10
3 6 36 86
2 93 60
5 81 70 71 50 75
5 87 95 31 1 76

Total makespan: 45

