25
3 59 15 49
5 54 21 30 18 76
3 43 97 20
6 5 63 64 1 36 67
3 9 38 70
4 11 24 25 95
6 31 73 45 69 86 2
3 22 33 71
3 96 23 53
3 12 47 57
4 84 52 89 13
5 66 94 51 41 87
3 55 39 16
3 50 4 65
3 75 72 93
5 8 62 40 34 99
4 85 35 37 83
5 17 78 48 88 91
4 0 60 26 3
3 10 56 80
5 79 19 14 82 77
4 58 7 6 92
3 27 42 46
5 32 81 61 28 98
5 68 90 44 29 74

Total makespan: 63

