15
6 76 9 51 0 93 23
8 70 26 4 16 43 27 83 12
4 69 18 36 14
7 42 7 31 94 32 82 6
5 21 40 15 34 44
7 49 75 62 92 33 10 71
5 73 47 65 88 55
6 11 28 5 98 39 66
7 87 2 97 17 30 91 53
5 90 19 35 77 59
6 45 74 67 81 64 72
6 1 13 58 96 63 46
8 25 80 79 52 50 48 22 29
10 3 54 57 99 8 61 68 20 56 24
10 86 37 60 78 41 38 84 85 95 89

Total makespan: 88

