25
6 66 75 24 14 26 54
2 69 74
4 1 78 18 70
3 25 39 20
4 71 72 17 19
2 42 28
4 62 13 97 11
6 86 59 55 40 41 87
5 85 98 65 88 84
5 99 60 51 35 61
3 77 32 68
4 73 53 3 67
5 93 5 10 46 45
4 31 7 30 90
1 89
6 52 37 80 34 79 4
7 9 44 21 27 2 95 38
4 81 82 33 12
3 50 76 63
2 92 83
4 96 23 57 91
4 43 47 36 0
4 16 94 56 8
4 6 58 48 22
4 15 29 49 64

Total makespan: 28

