30
3 30 86 29
3 38 61 9
3 12 39 14
3 10 66 42
4 25 16 58 69
4 64 31 82 17
3 65 68 2
3 8 36 15
2 75 74
4 78 37 95 23
4 4 41 43 51
4 92 35 93 96
3 20 71 81
3 46 89 79
3 54 98 1
2 18 13
4 6 52 40 80
3 87 34 45
3 22 7 88
4 55 26 90 3
4 21 73 19 27
4 50 77 62 57
2 84 5
2 24 60
4 67 70 53 83
4 72 33 99 32
3 11 49 63
4 47 94 97 0
4 56 85 48 91
4 59 44 76 28

Total makespan: 45

