30
3 23 90 88
3 43 84 20
5 39 49 15 11 46
5 18 6 56 59 91
4 60 42 19 34
4 97 36 74 50
2 95 86
2 78 99
4 70 44 45 28
2 35 3
3 64 52 16
4 8 17 29 76
4 68 75 92 53
3 26 4 2
2 47 54
3 79 96 31
3 41 27 71
3 1 63 66
3 48 7 13
1 33
4 72 80 83 93
5 10 22 61 55 73
3 9 37 30
3 94 21 12
5 81 77 51 24 0
3 62 67 82
3 65 25 85
5 87 38 98 58 69
2 89 14
4 5 32 40 57

Total makespan: 48

