15
9 26 52 9 53 3 59 88 10 37
7 94 99 90 63 73 11 14
7 42 46 49 13 5 96 18
8 47 76 58 84 36 64 20 71
5 82 17 2 38 12
6 44 23 79 4 61 35
7 78 92 51 77 19 74 81
5 75 95 8 56 1
9 22 7 57 6 34 55 32 60 45
6 69 43 30 29 25 83
5 66 54 67 65 97
6 93 41 87 39 0 68
6 21 50 31 16 62 40
7 33 72 15 70 98 27 91
7 28 85 80 24 48 89 86

Total makespan: 89

