10
10 20 83 31 55 79 34 90 8 52 97
10 30 36 41 13 70 29 10 65 56 53
8 5 45 73 21 49 22 23 2
12 7 11 85 66 87 33 17 74 86 19 16 80
14 46 82 81 77 14 88 98 27 6 68 94 95 67 58
8 24 72 51 91 44 3 40 48
7 38 92 93 12 26 76 47
9 84 43 60 32 54 99 59 1 57
12 63 64 89 35 75 0 15 62 18 50 28 78
10 42 96 4 9 39 25 71 37 69 61

Total makespan: 117

