30
3 92 89 32
3 48 5 94
4 81 57 58 4
2 72 50
3 22 12 2
3 96 68 70
6 84 13 42 55 67 78
3 71 80 29
4 93 56 26 20
3 6 24 77
2 85 82
4 14 8 95 69
2 74 46
3 45 25 33
3 23 88 30
3 86 99 18
3 44 62 73
4 11 43 16 3
3 38 15 87
2 21 37
5 54 39 65 9 40
5 34 98 1 0 35
3 51 61 28
4 10 53 19 91
4 75 79 90 60
3 59 97 36
3 76 27 17
1 31
5 47 66 49 52 64
4 63 41 83 7

Total makespan: 23

