20
4 48 63 55 56
5 70 25 26 33 43
5 11 94 23 96 83
4 73 37 52 41
5 7 8 53 72 32
5 44 3 21 6 47
4 76 14 95 71
6 45 4 75 66 34 98
4 42 89 84 61
4 58 15 93 87
7 81 92 16 90 27 51 30
5 85 82 74 38 49
6 9 35 78 39 17 20
6 28 19 10 77 59 40
5 36 57 13 5 97
4 64 1 99 62
6 50 65 60 54 0 18
5 79 31 29 12 2
6 80 69 86 24 68 46
4 22 67 88 91

Total makespan: 86

