15
4 40 5 49 29
7 77 48 30 95 51 65 99
5 53 88 96 16 83
3 7 75 36
8 34 35 22 67 12 56 55 70
7 15 44 0 79 13 58 64
5 73 60 4 46 47
8 45 93 6 66 21 19 41 20
9 18 68 98 62 81 3 39 80 85
6 11 59 97 24 26 87
9 89 37 31 10 50 1 82 32 69
6 33 57 23 92 84 42
7 38 71 61 90 2 76 8
7 74 86 27 63 72 17 94
9 14 52 54 91 28 78 9 25 43

Total makespan: 64

