25
3 75 94 37
5 34 7 3 54 0
5 17 51 74 46 20
5 12 71 77 25 49
4 24 68 53 99
4 95 50 10 52
5 62 47 90 36 40
5 44 26 58 65 83
3 98 57 85
3 63 76 15
3 48 4 21
4 64 41 73 31
4 80 5 6 92
3 56 66 39
3 30 32 28
5 82 22 89 86 33
4 13 45 69 61
4 19 59 78 84
5 87 79 60 14 93
3 96 70 38
2 97 72
3 55 11 35
4 9 88 67 91
4 43 8 27 81
7 2 18 1 23 29 42 16

Total makespan: 45

