10
11 99 62 20 11 22 1 95 75 91 67 8
11 5 69 80 35 42 18 38 50 70 0 83
5 10 96 25 71 85
9 28 74 7 6 84 16 82 57 65
9 56 3 24 93 58 23 97 60 44
10 49 43 26 52 29 66 88 2 53 86
12 78 27 94 48 12 68 31 55 47 15 76 73
11 92 64 40 21 77 34 4 51 39 89 19
12 32 72 59 30 37 63 79 17 9 36 41 13
10 45 81 87 14 54 33 90 98 61 46

Total makespan: 133

