20
4 81 6 22 82
4 91 95 29 69
4 23 24 33 44
6 98 52 18 54 70 62
4 93 45 36 77
3 86 15 41
5 57 56 2 9 40
6 31 35 21 67 55 47
5 59 51 37 72 11
6 17 16 30 66 26 5
6 32 75 60 99 64 71
5 50 3 74 43 0
5 14 83 39 10 58
4 96 38 8 73
4 61 48 89 25
5 79 80 34 27 42
7 46 49 13 63 20 76 85
5 84 12 88 7 90
6 94 65 87 92 28 1
6 78 53 4 97 68 19

Total makespan: 61

