15
6 45 73 37 35 68 58
6 27 50 9 8 15 30
8 59 10 56 77 84 71 21 91
6 33 43 14 66 89 0
6 80 72 75 54 87 93
9 69 76 94 49 51 24 78 96 40
6 23 92 90 85 70 19
7 46 82 7 47 99 39 6
7 88 18 74 25 1 64 28
5 3 52 5 98 79
8 13 20 62 31 86 55 95 65
4 11 22 48 4
6 29 34 44 61 36 42
8 38 12 83 17 2 60 57 67
8 53 16 26 41 32 81 97 63

Total makespan: 108

