20
5 15 84 83 0 33
5 51 66 40 12 45
5 55 56 57 42 38
5 67 5 22 44 34
5 64 88 39 13 82
7 11 48 91 77 41 65 89
7 97 60 27 76 87 58 75
6 47 1 59 98 2 93
6 49 90 7 73 99 16
5 10 19 71 78 37
4 29 69 70 68
6 53 52 26 61 81 21
5 31 4 62 8 43
4 24 63 80 14
5 54 79 23 46 74
4 94 92 25 20
3 30 18 96
4 86 3 36 35
5 85 72 6 17 95
4 32 28 9 50

Total makespan: 75

