10
12 48 76 83 74 27 86 42 30 82 88 20 99
10 79 56 57 2 98 34 29 33 9 75
10 68 41 81 11 3 71 77 12 43 91
7 7 64 21 87 40 90 4
10 13 62 31 54 95 26 94 61 28 85
12 51 66 17 53 73 46 50 80 6 25 67 10
12 65 16 5 24 92 37 23 52 84 14 22 39
11 1 78 89 18 0 60 47 63 38 32 44
8 45 58 15 19 72 35 69 36
8 97 93 70 59 96 55 49 8

Total makespan: 175

