15
7 34 35 80 27 86 79 33
7 88 40 55 1 25 17 94
5 63 77 32 78 60
6 14 15 9 31 8 51
6 70 90 22 75 4 21
5 3 45 46 97 29
5 41 26 50 83 11
7 6 39 36 82 57 24 62
3 73 85 76
6 54 64 84 98 93 7
10 58 61 18 68 0 16 37 65 91 74
8 53 20 47 67 48 30 59 28
9 5 12 71 95 96 66 2 42 23
8 87 72 44 89 92 13 10 69
8 19 81 52 99 49 43 38 56

Total makespan: 118

