30
2 94 2
3 90 58 10
3 0 66 37
4 15 72 29 60
4 75 89 73 1
4 80 5 35 56
3 43 38 9
3 45 68 93
3 24 7 74
3 99 50 44
3 69 59 47
2 40 41
4 62 79 46 85
3 33 88 12
3 32 49 52
4 84 13 3 57
5 39 97 23 77 71
4 14 92 67 86
4 27 83 54 11
3 26 76 8
3 21 28 20
4 31 81 55 64
3 61 63 19
4 6 95 78 82
4 70 25 91 30
4 36 98 87 17
3 96 16 4
3 18 48 42
3 34 65 51
2 22 53

Total makespan: 45

