30
3 12 96 83
4 23 61 80 77
4 65 68 89 57
3 14 60 4
3 42 5 15
2 2 55
3 79 97 70
4 72 99 28 1
2 32 75
5 7 36 22 84 3
5 85 81 64 73 94
2 40 17
1 50
2 18 0
4 76 78 41 54
5 52 90 13 92 58
3 69 30 24
3 20 45 93
3 6 56 35
3 66 88 16
4 46 31 33 67
4 19 39 59 25
4 34 91 38 82
5 63 27 71 43 51
3 26 62 87
2 44 98
1 8
4 10 74 53 11
4 95 9 48 37
5 21 86 29 49 47

Total makespan: 41

