20
7 59 5 22 45 2 18 7
6 30 20 89 73 4 68
3 25 99 95
4 69 94 76 83
7 74 81 38 46 29 66 47
4 31 15 49 84
4 70 60 96 72
5 37 77 51 24 8
6 86 93 12 53 32 26
4 54 23 48 63
3 61 78 21
5 43 62 92 58 91
5 50 17 42 1 97
5 9 27 13 67 19
5 87 35 88 85 16
8 0 41 40 82 14 55 98 90
5 71 52 3 56 44
5 28 75 65 11 6
5 33 64 10 57 36
4 39 79 80 34

Total makespan: 81

