15
6 84 60 38 51 33 68
7 50 87 71 1 70 11 13
7 3 10 58 63 53 62 48
5 12 34 18 88 27
6 56 25 47 5 59 28
7 29 8 55 54 65 73 35
5 43 2 67 61 21
7 32 91 0 57 66 76 99
9 31 82 17 4 24 79 22 96 37
5 80 98 16 44 42
6 74 26 39 52 69 95
8 64 72 93 30 90 46 7 92
8 97 85 75 6 41 19 14 81
7 94 83 77 78 40 49 20
7 23 45 86 15 89 36 9

Total makespan: 84

