10
12 12 96 74 89 50 91 85 41 8 88 10 70
7 84 27 2 87 67 38 75
7 68 62 40 0 28 3 11
9 42 63 65 25 82 95 46 36 1
11 23 98 66 64 58 56 93 33 18 76 61
10 60 94 17 6 15 29 39 69 72 47
11 31 9 32 19 97 16 54 81 78 37 35
10 90 49 30 59 4 99 55 86 26 5
11 77 92 22 43 20 79 44 71 83 73 57
12 52 80 13 21 14 34 53 24 7 48 51 45

Total makespan: 119

