20
13 123 80 131 21 67 138 75 109 17 149 22 8 11
8 111 147 112 53 9 32 98 41
9 55 88 99 1 120 49 30 117 82
7 65 20 133 47 130 145 36
8 77 34 26 135 108 52 15 136
7 81 115 141 0 85 39 48
8 132 116 92 118 129 33 83 96
6 66 56 122 25 27 142
5 6 143 38 74 60
7 44 37 40 18 144 45 124
6 90 104 69 57 107 91
6 97 137 94 16 139 31
8 13 10 68 12 125 63 50 64
8 79 24 126 43 61 100 140 119
6 2 113 93 103 89 106
9 127 23 3 62 121 7 114 84 14
6 73 19 59 35 87 70
5 128 29 148 54 78
11 76 86 72 4 42 101 5 134 71 46 102
7 105 110 95 58 28 51 146

Total makespan: 55

