25
8 114 143 85 18 25 58 47 99
9 73 80 79 75 60 24 82 19 50
6 65 102 111 95 43 35
4 74 134 67 48
6 91 140 46 136 28 27
7 13 89 101 14 147 16 105
8 93 103 51 68 72 122 142 21
3 12 5 107
6 109 39 4 6 84 64
6 88 22 23 1 9 69
8 26 57 11 61 20 133 70 36
4 128 7 98 132
6 123 117 42 92 76 2
7 87 32 37 44 62 78 83
3 112 81 141
6 121 110 116 52 139 127
5 54 66 113 33 17
8 125 148 104 90 146 145 41 138
6 55 130 29 30 97 77
8 126 3 31 94 149 10 53 15
6 100 144 8 135 63 96
4 38 131 119 108
5 118 124 49 120 71
6 137 115 129 0 40 106
5 86 59 45 34 56

Total makespan: 61

