20
9 69 13 71 49 33 118 60 101 90
7 26 22 4 25 84 134 112
7 34 56 76 96 124 131 3
6 116 42 139 58 98 147
8 70 30 86 32 109 149 15 115
5 2 55 52 128 51
6 39 91 78 0 79 31
10 7 48 130 89 138 144 27 1 5 37
7 75 21 103 121 44 35 68
7 36 72 110 65 80 53 113
8 10 63 133 87 45 20 17 18
5 24 129 123 99 105
8 50 145 104 126 117 125 73 148
8 108 46 122 40 59 111 19 83
15 142 61 88 135 6 100 141 85 16 12 94 106 28 102 66
8 93 41 81 146 77 74 11 107
7 95 29 8 64 62 9 57
5 23 82 114 119 127
6 97 120 137 140 67 14
8 54 43 136 132 47 143 38 92

Total makespan: 111

