15
8 4 41 106 39 75 80 15 127
10 53 6 82 77 119 46 81 26 33 100
10 144 139 47 62 18 84 96 87 3 12
11 14 65 131 86 90 109 40 85 56 105 31
11 83 68 135 99 121 136 74 111 103 11 132
9 146 140 115 0 45 59 92 25 71
11 76 32 125 34 38 1 54 94 89 107 60
10 35 69 128 10 49 30 70 143 141 28
9 110 142 44 95 58 118 88 21 9
8 17 148 50 101 78 120 52 149
11 13 67 133 42 112 8 138 91 64 72 102
10 129 97 27 57 23 113 126 122 20 7
11 61 24 145 36 147 43 108 55 130 63 134
13 123 19 37 137 79 48 98 2 5 114 51 117 93
8 116 66 104 22 124 29 73 16

Total makespan: 111

