10
21 22 123 2 130 96 144 5 57 138 117 142 38 95 13 78 14 28 32 45 86 74
19 108 89 80 20 127 51 116 66 137 148 120 114 102 55 25 6 40 141 82
13 110 56 87 15 91 125 21 79 52 49 99 107 126
15 122 68 146 60 75 19 61 12 106 147 3 119 41 10 98
15 18 81 124 30 134 58 36 54 76 47 11 77 131 71 43
12 149 59 97 132 70 67 44 17 37 65 145 50
15 128 69 103 42 88 139 111 63 105 136 64 34 73 0 129
10 1 109 23 100 115 112 92 72 84 29
16 93 4 7 121 24 135 140 33 53 39 27 26 83 104 94 8
14 90 85 35 133 9 16 113 46 118 48 31 101 62 143

Total makespan: 172

