25
7 87 52 71 82 3 57 75
5 93 38 97 1 138
5 73 92 28 20 72
6 5 19 68 132 99 143
7 29 64 135 124 46 22 42
5 110 136 44 106 90
6 37 89 80 55 62 100
5 96 12 6 16 74
6 126 21 51 15 88 58
7 120 127 111 53 94 142 109
7 113 108 77 123 102 125 91
7 147 129 0 8 50 149 148
8 105 39 140 67 56 40 146 130
8 83 13 121 18 2 76 35 60
5 128 119 118 137 78
6 144 131 7 79 85 48
6 24 43 4 14 49 122
5 11 95 112 116 145
5 63 70 10 114 66
5 86 25 81 41 84
8 27 103 101 30 17 69 47 36
4 133 31 34 65
5 134 54 104 139 61
5 45 33 23 9 59
7 32 107 141 98 115 26 117

Total makespan: 61

