10
16 26 18 103 108 145 102 62 30 33 99 149 73 121 67 86 25
18 127 125 104 65 97 81 100 15 49 96 148 101 88 45 131 29 138 50
10 98 68 128 9 71 13 142 111 55 133
15 64 42 137 53 2 83 59 3 39 105 140 129 132 19 123
17 75 51 32 36 43 117 57 16 120 54 48 31 0 1 14 60 17
15 61 114 11 63 126 47 113 77 92 4 79 6 66 28 144
13 146 35 52 134 106 10 136 69 84 23 70 116 78
16 46 141 122 118 94 143 7 91 119 93 82 22 109 89 72 38
16 24 20 139 76 21 41 124 44 147 112 40 74 8 115 5 80
14 135 12 85 27 58 107 34 90 37 87 130 56 95 110

Total makespan: 255

