20
6 71 107 11 147 137 31
7 83 105 135 59 106 33 51
5 65 125 42 52 73
10 104 87 143 13 84 112 45 81 70 12
9 111 93 102 142 127 21 35 44 99
7 72 27 37 144 77 69 126
8 149 101 120 96 14 5 103 116
7 118 60 68 63 140 79 2
8 6 113 15 0 85 88 89 1
8 128 25 30 136 139 58 55 141
6 64 50 108 123 3 29
10 32 46 92 114 95 148 119 132 94 41
9 57 129 17 16 98 18 22 74 75
7 34 82 7 47 49 78 100
7 130 56 20 134 43 66 91
7 9 53 62 145 28 146 124
8 80 36 4 115 39 67 109 86
7 23 38 48 131 26 122 138
6 8 40 24 117 90 61
8 110 10 54 121 76 97 133 19

Total makespan: 101

