15
9 131 125 64 59 117 28 79 38 73
10 9 109 103 33 121 76 90 134 22 87
8 120 40 15 57 41 146 137 11
13 44 149 99 108 37 42 72 77 85 95 122 13 32
7 144 12 7 98 20 107 123
10 148 61 19 145 141 6 3 67 65 54
10 132 63 116 111 45 16 27 112 89 133
10 66 26 29 52 48 100 46 23 94 36
13 119 60 17 97 147 101 58 127 0 93 83 140 82
9 102 124 80 78 55 105 43 49 30
10 39 18 135 142 21 68 74 130 4 5
10 51 143 114 56 106 91 110 129 25 24
7 50 62 113 14 75 81 128
12 139 34 92 1 31 115 35 88 8 2 126 47
12 86 118 104 136 53 96 71 10 69 84 138 70

Total makespan: 155

