15
8 90 27 9 142 0 58 39 67
10 62 149 37 29 7 26 143 135 74 136
10 43 51 28 23 88 120 140 47 82 6
7 95 124 106 70 94 12 35
10 32 97 125 147 22 46 33 24 141 79
9 127 15 65 119 60 101 100 78 121
14 11 16 25 56 63 99 105 132 129 71 85 59 123 44
14 111 61 83 41 113 81 68 80 72 128 14 148 55 91
12 107 21 109 45 1 17 2 8 138 87 40 53
8 5 4 115 34 137 118 139 116
11 104 54 3 86 64 114 110 131 89 108 96
11 57 18 19 48 102 93 20 122 134 36 66
9 30 31 69 145 38 13 130 117 133
8 52 10 49 144 126 103 146 73
9 98 42 84 75 112 76 50 92 77

Total makespan: 126

