25
9 36 94 93 12 62 20 64 13 140
4 33 5 85 21
6 121 65 104 44 76 138
7 50 16 92 79 0 101 118
7 11 147 87 58 91 73 122
9 80 19 4 74 120 37 128 83 108
5 81 53 56 116 49
6 132 52 129 27 63 29
6 112 34 28 144 82 57
4 70 3 127 149
7 68 67 145 59 142 22 135
7 55 106 45 35 95 90 107
7 111 143 113 26 124 6 115
5 105 17 18 2 119
5 131 61 51 71 30
6 114 32 72 98 99 40
6 8 136 24 69 109 100
4 75 126 42 137
6 96 133 97 146 117 89
6 125 134 9 139 103 43
6 86 23 102 141 54 25
5 110 123 78 66 60
7 148 88 38 39 77 47 130
4 31 41 84 46
6 7 14 15 10 1 48

Total makespan: 76

