20
6 31 116 136 92 38 77
8 1 149 44 22 86 78 18 144
5 55 20 106 131 48
7 117 72 68 126 4 37 146
6 63 33 66 112 43 113
8 56 88 46 128 13 110 143 29
6 30 6 69 61 121 71
9 127 124 105 135 76 2 25 91 82
6 84 138 23 35 3 19
7 49 132 122 41 59 79 108
7 83 36 94 58 52 53 101
7 16 39 134 98 99 130 75
9 60 50 15 100 145 73 47 28 74
12 9 40 62 90 102 118 45 123 80 32 140 103
9 147 17 114 93 24 119 54 95 125
7 8 27 0 87 14 137 129
8 57 97 148 42 5 141 34 115
7 21 65 142 96 70 26 51
9 104 11 120 85 64 12 10 81 133
7 107 139 109 111 89 7 67

Total makespan: 64

