25
5 6 112 57 18 53
6 61 55 123 36 58 1
9 17 145 25 11 31 7 16 137 12
5 50 34 126 83 130
6 10 20 68 14 28 136
6 56 46 103 42 116 93
7 21 85 128 109 84 59 99
5 138 118 149 72 105
5 15 121 107 127 110
6 111 87 133 37 44 22
9 94 66 102 131 78 30 108 2 64
3 69 90 74
8 70 47 86 106 13 43 52 115
6 77 134 88 51 65 63
7 19 38 71 67 89 49 139
6 3 98 95 132 9 27
6 4 142 39 23 117 113
8 41 81 26 29 92 76 144 73
6 91 60 5 97 104 147
7 75 146 35 40 140 96 24
4 79 122 120 54
6 101 8 45 125 32 143
5 129 80 148 100 141
4 119 33 0 124
5 48 135 114 62 82

Total makespan: 83

