10
18 33 141 100 123 124 60 115 10 5 144 120 37 99 25 117 29 51 77
14 3 91 79 81 19 40 149 34 14 18 73 24 86 70
14 4 17 22 42 15 122 135 90 58 55 105 76 109 112
14 83 104 32 101 68 89 59 67 94 66 108 21 57 74
15 106 127 31 119 39 72 145 98 1 75 138 137 8 136 82
17 36 0 20 71 125 41 53 43 85 50 148 64 103 45 88 11 62
17 130 12 48 26 110 111 129 142 143 87 126 93 9 38 92 27 35
15 16 69 97 139 133 44 116 128 65 131 61 146 107 96 6
16 102 13 2 80 52 132 54 30 113 63 78 47 46 23 95 28
10 7 84 134 49 114 121 147 118 56 140

Total makespan: 160

