30
4 122 17 58 95
6 5 91 142 124 6 136
5 147 46 143 40 87
4 49 77 128 29
4 15 22 56 39
6 113 66 33 4 32 0
4 93 116 111 36
6 78 83 98 103 139 16
4 64 115 34 120
4 8 75 141 65
6 74 89 102 68 10 31
4 105 7 42 45
5 59 73 149 19 13
4 72 96 99 123
4 67 135 100 21
4 18 27 79 94
4 97 110 30 50
5 107 114 23 148 118
5 109 137 104 119 101
5 1 11 80 127 112
5 57 38 82 51 84
6 132 90 63 145 129 35
7 53 60 144 130 47 126 138
4 24 131 3 37
7 133 52 44 71 117 121 9
6 106 41 55 14 146 28
6 69 140 20 92 26 85
5 2 86 88 48 76
5 43 81 108 70 134
6 125 62 61 25 12 54

Total makespan: 74

