20
8 55 50 77 80 35 26 121 127
9 20 27 41 117 143 71 30 25 106
7 148 147 18 133 72 124 11
7 97 116 85 107 119 96 43
5 36 91 138 0 90
6 111 34 45 64 61 131
7 40 145 129 137 46 92 48
6 132 68 38 23 33 19
7 47 3 73 75 66 70 95
5 52 59 56 53 146
7 60 29 108 105 89 6 139
7 99 1 63 142 58 140 81
9 123 9 87 125 39 84 120 12 136
10 13 21 110 76 83 112 62 114 7 10
10 103 31 135 88 51 67 102 122 24 101
8 22 134 126 104 15 93 82 118
6 32 98 144 2 141 14
9 69 54 28 42 149 17 49 115 44
10 8 65 78 130 16 37 4 128 109 94
7 113 79 5 100 86 57 74

Total makespan: 54

