30
5 77 149 41 6 21
6 45 90 82 126 109 134
6 37 5 55 65 68 85
7 145 141 29 96 47 58 25
5 63 9 121 84 138
6 60 28 115 108 111 122
4 129 16 106 104
5 135 36 100 66 39
5 99 74 113 8 57
5 125 26 92 38 18
7 107 13 101 140 3 143 118
5 139 119 4 79 136
3 33 52 116
5 98 146 14 95 53
6 71 0 132 80 76 147
6 130 72 81 12 1 49
3 64 123 43
3 48 17 15
5 35 11 86 142 46
6 61 40 91 44 69 31
6 131 97 27 127 19 94
5 50 56 23 20 70
4 67 105 133 120
5 34 62 148 59 30
4 117 73 110 10
5 7 2 83 112 75
5 144 24 128 89 22
3 42 88 51
6 87 93 54 103 137 78
4 124 32 102 114

Total makespan: 67

