30
4 24 143 84 141
6 10 129 82 59 2 47
6 81 17 90 26 77 89
2 16 111
7 109 60 40 134 80 68 42
5 35 22 67 93 72
3 44 23 128
5 95 70 51 119 13
4 48 104 145 71
3 108 78 52
7 50 29 124 34 118 107 144
5 65 135 116 114 33
5 122 74 86 63 58
6 99 3 38 49 30 79
7 28 32 46 1 132 138 75
4 56 146 115 110
3 45 140 76
5 106 43 9 14 36
5 6 88 21 0 87
6 123 20 120 117 61 100
5 66 139 121 97 53
5 57 98 94 8 4
6 102 55 133 131 64 92
5 69 147 112 5 25
7 113 31 149 62 130 91 54
4 41 142 103 39
7 127 148 83 27 126 11 105
5 18 37 15 19 101
5 73 125 96 85 137
3 7 136 12

Total makespan: 30

