20
7 116 62 111 43 26 7 139
8 17 138 84 132 82 99 100 4
6 77 119 29 19 2 61
6 0 6 91 46 81 75
8 110 148 122 79 49 140 56 146
10 149 115 147 54 94 127 105 131 144 135
5 137 14 96 125 13
6 106 112 52 129 123 101
6 76 121 1 145 67 141
5 22 57 87 32 45
9 18 134 68 95 85 97 142 30 12
10 104 103 20 143 15 25 69 51 24 35
8 124 113 108 78 27 3 128 133
10 114 39 60 21 37 74 72 8 118 92
8 63 109 83 120 28 70 130 40
8 31 5 86 41 33 58 47 23
7 36 64 44 102 80 117 34
8 42 71 90 55 38 10 93 59
6 98 88 66 11 50 53
9 9 89 16 126 65 48 73 136 107

Total makespan: 103

