10
15 67 120 96 0 107 94 74 53 9 50 44 85 132 20 89
16 71 72 4 77 2 6 90 147 133 43 59 26 127 84 117 39
18 22 109 19 146 65 105 30 41 37 52 99 131 57 47 111 63 92 64
16 102 81 104 5 82 108 142 121 114 129 98 62 14 58 112 45
14 18 110 34 143 36 78 100 122 12 138 73 124 128 83
13 75 116 141 101 38 118 23 69 49 1 21 119 17
14 145 136 55 68 42 125 79 126 27 140 139 135 10 134
12 80 93 60 148 144 66 3 8 32 33 70 113
19 106 16 97 86 29 11 40 13 48 54 46 115 56 61 25 87 137 24 149
13 76 95 103 91 123 28 35 15 88 130 51 7 31

Total makespan: 253

