10
16 122 28 119 57 68 88 121 8 53 97 87 101 139 44 134 54
16 149 100 32 27 77 75 5 21 92 11 13 96 144 145 83 84
15 0 19 111 62 39 98 79 23 3 86 24 31 15 51 48
17 14 34 61 147 137 136 85 56 116 109 25 123 65 131 72 58 76
13 81 78 93 129 126 67 30 66 125 35 4 106 91
18 52 146 41 127 43 47 117 50 29 73 9 55 113 128 10 138 82 59
18 7 60 26 108 1 99 6 120 46 20 89 38 141 118 110 95 107 69
13 133 102 71 114 80 90 70 16 135 64 22 142 33
12 112 45 103 63 94 36 115 74 130 40 143 12
12 17 37 124 104 105 132 2 148 18 49 42 140

Total makespan: 185

