20
10 72 48 12 30 143 28 113 0 69 91
7 78 133 121 76 41 59 140
7 110 25 142 64 20 90 145
7 95 124 68 33 50 16 85
9 42 62 104 105 32 137 43 66 2
6 61 141 35 19 21 131
9 67 135 45 136 100 73 147 22 47
7 83 74 17 13 103 57 60
7 5 65 46 55 92 87 122
5 130 107 37 129 7
11 24 106 99 94 40 123 93 98 125 127 108
8 75 96 138 38 6 53 117 14
7 1 49 77 39 126 128 15
8 3 86 149 31 118 89 146 115
8 132 114 29 11 71 84 112 44
8 119 54 101 134 51 102 18 10
7 120 52 63 109 80 81 88
6 36 111 116 34 23 148
5 9 58 70 144 8
8 139 79 27 82 97 56 26 4

Total makespan: 76

