15
8 142 0 58 39 27 90 96 9
13 7 26 143 37 62 29 74 6 100 41 114 108 80
8 140 47 28 23 36 64 43 88
7 95 124 106 70 94 12 35
9 141 79 32 97 125 10 22 46 33
12 127 15 78 65 147 121 81 17 60 101 134 52
15 123 44 16 25 149 75 59 85 63 99 105 132 129 71 11
13 68 34 111 113 51 61 133 72 128 14 148 55 91
11 87 138 2 8 40 67 107 21 109 45 1
8 82 137 118 139 116 5 4 115
10 54 86 13 66 104 110 131 89 3 117
10 93 20 122 57 18 19 48 84 119 102
9 136 56 130 120 31 69 145 38 50
8 135 144 126 103 146 73 53 49
9 98 42 24 112 76 92 77 30 83

Total makespan: 127

