10
18 2 24 26 3 128 54 59 110 58 1 140 72 7 69 66 135 64 96
14 71 116 0 53 101 145 29 6 25 74 68 103 60 118
16 114 109 129 19 125 88 132 137 119 34 81 14 91 134 122 8
15 89 36 40 106 70 37 86 79 120 126 41 113 147 45 94
14 57 12 133 52 38 33 121 47 5 75 136 65 85 84
15 42 139 105 87 43 11 99 16 141 115 18 31 148 23 63
17 127 61 73 83 97 131 32 56 107 51 17 104 15 50 146 76 108
17 117 39 143 21 78 142 62 98 35 111 100 149 20 92 67 130 48
10 93 27 144 123 49 112 102 95 9 124
14 44 80 46 82 4 90 10 28 30 55 138 77 22 13

Total makespan: 236

