15
12 67 148 114 76 126 53 109 70 64 113 115 130
11 94 140 75 82 100 107 72 98 3 50 33
7 20 125 56 25 26 28 12
7 88 15 83 77 143 49 90
8 104 24 23 89 111 102 103 48
12 66 141 96 38 106 6 142 16 54 44 95 7
10 110 138 34 8 11 30 135 84 51 147
11 58 145 79 0 37 65 46 87 137 124 60
10 78 21 5 122 43 47 2 131 129 117
8 69 68 19 144 9 112 121 74
9 1 39 92 86 91 40 59 105 57
12 127 134 71 32 101 123 133 22 73 80 17 146
12 29 35 42 41 36 63 13 97 18 27 108 85
9 61 118 31 52 116 4 99 149 14
12 81 139 45 10 119 136 132 120 62 128 55 93

Total makespan: 128

