15
9 57 32 63 17 127 28 5 117 52
8 71 3 65 132 118 80 48 7
10 38 74 18 113 19 31 9 43 24 101
11 142 30 87 49 46 86 128 123 92 148 26
11 4 70 78 100 149 81 115 29 133 82 44
11 146 94 62 83 69 54 89 68 134 130 137
15 106 33 25 99 119 39 20 56 16 50 112 145 41 135 84
8 97 107 103 1 91 96 8 104
13 124 93 129 105 67 122 45 111 75 95 136 60 0
10 37 131 14 144 108 53 120 141 51 88
10 13 61 121 72 58 114 36 35 98 40
8 15 6 55 110 47 11 23 42
10 2 85 125 143 116 76 73 126 138 102
9 12 109 79 10 140 147 34 90 66
7 22 59 139 27 64 21 77

Total makespan: 142

