10
16 145 37 3 13 85 101 135 89 149 100 75 58 81 105 8 90
16 65 62 60 6 71 147 121 114 97 123 20 41 57 94 88 117
13 93 96 66 102 122 54 49 107 124 131 67 64 136
13 125 143 51 78 12 10 142 144 42 111 77 69 25
16 128 1 38 120 130 83 133 4 148 87 26 137 9 63 22 44
12 134 17 46 18 84 80 61 109 19 34 70 86
14 2 31 132 127 52 104 76 95 103 68 146 47 138 113
14 141 139 7 21 108 112 126 106 59 16 14 119 91 43
20 73 36 11 50 48 116 27 99 56 0 45 23 110 140 15 40 30 32 24 29
16 118 55 33 72 74 39 28 53 92 115 5 79 35 98 129 82

Total makespan: 272

