30
4 139 82 68 87
6 10 101 25 79 40 73
3 132 78 60
4 124 27 136 117
4 95 137 111 116
4 26 64 57 72
4 121 38 21 2
5 15 48 105 28 94
7 29 69 39 123 114 145 89
5 88 100 146 86 83
6 125 51 54 22 143 62
5 129 119 43 42 32
7 16 115 127 131 50 6 36
6 17 5 84 70 80 31
5 0 33 93 35 91
4 107 58 34 75
4 99 47 98 128
8 37 12 118 9 130 144 110 76
4 71 61 106 90
5 97 7 18 103 85
5 141 77 3 52 59
6 20 135 140 102 14 63
4 147 1 92 113
4 55 96 74 142
6 11 53 44 56 13 112
4 138 8 23 109
5 65 149 148 104 67
7 45 81 24 4 41 19 66
5 46 30 134 120 49
4 126 108 133 122

Total makespan: 67

