30
6 0 1 106 93 92 76
7 54 21 120 63 58 29 16
7 5 13 132 110 139 60 2
6 17 51 62 105 9 70
5 148 39 78 75 22
6 27 88 95 65 104 77
4 43 127 94 124
5 119 28 71 116 131
4 7 86 85 111
8 81 135 74 82 72 118 130 34
5 137 8 117 107 44
4 128 140 121 125
5 32 37 144 35 101
4 83 67 11 61
5 57 102 91 4 133
5 38 99 114 40 141
5 23 31 64 100 18
6 46 26 73 87 59 20
6 122 41 49 36 134 149
4 138 129 6 19
5 52 90 48 25 14
4 113 108 66 123
5 15 69 146 30 109
5 53 126 45 136 98
4 33 79 96 47
5 143 112 3 12 42
4 97 115 145 55
4 84 89 10 80
3 68 50 142
4 24 147 56 103

Total makespan: 72

