25
4 0 57 50 70
7 11 110 55 123 36 58 65
8 129 7 25 5 17 120 89 42
7 78 34 130 48 149 71 72
6 74 136 10 20 68 14
5 106 53 93 29 85
9 59 18 99 84 134 31 109 143 124
4 60 97 30 23
6 15 87 139 32 121 107
9 111 43 37 44 91 142 76 26 83
6 62 2 3 28 145 64
4 69 1 141 104
7 13 122 86 52 115 19 82
4 128 33 16 77
5 133 90 67 49 108
6 138 92 95 132 9 27
6 112 75 8 39 12 113
6 144 73 79 81 4 51
5 21 116 147 38 98
6 146 35 40 140 96 24
6 114 102 131 54 22 118
6 105 41 45 88 101 119
8 103 80 94 125 148 6 46 63
7 100 127 47 66 137 126 135
3 56 117 61

Total makespan: 82

