30
3 82 68 12
6 94 4 73 101 25 79
3 122 47 33
5 136 117 111 106 21
4 1 64 23 2
5 28 16 57 92 116
4 125 58 121 85
5 98 81 131 146 15
7 41 53 39 123 89 145 96
5 93 102 129 105 76
6 51 5 54 22 143 62
3 113 108 60
7 32 72 75 135 6 36 50
5 86 84 70 80 31
4 104 138 142 0
4 109 66 48 34
4 147 59 133 137
7 44 118 9 130 144 110 139
5 141 7 71 61 77
4 126 67 8 100
6 43 97 52 45 3 11
6 27 88 20 14 63 140
5 115 95 132 90 83
4 40 78 107 87
7 69 38 112 56 13 127 17
5 18 19 128 124 114
7 26 65 37 91 35 149 148
4 24 29 10 74
6 46 30 134 120 49 55
4 119 103 42 99

Total makespan: 70

