15
11 12 27 122 24 47 21 55 28 39 36 63
10 33 67 131 137 43 72 18 70 144 101
11 4 83 87 133 71 91 32 57 97 86 0
8 140 130 14 136 51 123 17 96
10 44 8 121 134 108 6 59 15 65 84
10 41 61 31 107 113 52 138 103 110 102
7 50 128 20 112 98 80 115
11 26 5 2 46 79 92 23 124 76 145 11
10 111 85 7 38 30 40 114 141 120 3
11 143 45 49 69 22 73 75 35 93 147 106
11 100 90 125 78 66 16 60 117 82 58 95
9 48 146 132 148 10 37 118 89 149
12 13 99 129 29 135 74 25 62 139 68 127 53
10 94 81 56 19 42 105 116 34 9 126
9 119 1 77 54 104 142 109 88 64

Total makespan: 149

