10
15 53 138 62 59 27 89 105 135 145 129 70 4 133 42 126
20 111 51 76 9 110 16 96 93 132 140 30 57 55 117 19 36 119 137 77 5
16 29 79 66 67 48 44 58 64 131 60 149 112 98 34 75 8
19 148 85 32 12 90 143 7 125 45 113 127 41 71 122 88 128 3 130 123
16 104 65 146 23 49 116 46 54 73 37 63 11 124 72 109 134
11 100 97 13 50 38 101 86 84 95 33 0
12 102 10 142 61 17 87 83 99 24 115 92 26
12 147 81 22 21 74 68 31 20 121 47 91 139
15 82 14 1 141 56 136 114 108 6 78 2 15 39 144 80
14 94 40 35 107 28 118 18 106 103 43 69 52 25 120

Total makespan: 223

