15
10 83 25 3 53 30 46 145 100 24 54
7 124 77 91 85 136 17 29
9 36 19 121 142 148 122 106 33 116
9 114 110 35 20 10 68 117 81 82
12 47 37 55 69 146 147 84 4 1 44 113 0
12 137 140 40 73 129 70 131 108 45 34 42 41
9 48 103 59 26 58 135 138 127 89
11 32 98 57 88 104 72 128 115 18 141 125
11 86 74 61 92 39 2 62 132 64 112 43
13 118 12 21 130 123 14 22 101 31 28 60 38 75
10 49 107 65 144 16 109 50 23 9 6
12 13 51 95 105 79 80 56 149 99 7 111 139
6 97 126 87 120 76 143
10 63 102 27 94 119 90 52 93 71 78
9 133 5 96 66 134 8 11 15 67

Total makespan: 155

