20
6 138 67 132 4 19 101
8 115 147 57 51 28 52 47 7
6 15 29 93 97 75 143
6 104 38 86 34 99 125
9 96 135 14 111 126 3 95 54 145
7 32 123 141 82 45 85 9
9 110 91 128 49 103 116 78 73 11
7 105 136 69 140 27 80 119
8 118 120 31 108 114 17 41 35
5 16 72 25 81 1
8 24 36 79 62 56 84 133 46
7 102 113 26 77 144 63 33
10 2 18 13 100 65 134 148 21 66 22
7 89 130 106 131 121 59 5
7 88 76 74 107 139 117 23
7 64 124 6 8 127 48 70
9 43 12 98 53 68 39 50 40 112
8 58 10 87 42 55 129 109 90
9 137 71 44 0 37 20 61 60 94
7 83 149 142 92 146 30 122

Total makespan: 114

