20
7 35 121 68 17 55 26 127
9 130 25 143 107 20 27 71 30 106
7 124 11 147 18 133 82 148
7 97 84 42 96 43 116 85
5 91 138 0 90 128
8 81 103 24 72 64 111 34 45
9 94 125 46 92 21 77 29 145 129
6 132 36 23 38 131 48
8 47 22 3 73 75 136 76 95
5 52 33 56 53 146
7 2 41 60 108 89 6 139
8 99 1 63 19 50 142 58 140
7 7 39 59 80 12 123 9
9 83 112 62 114 110 118 126 13 10
9 51 102 101 117 67 105 135 88 31
9 122 87 119 104 15 93 40 134 61
5 141 70 32 98 144
8 28 57 149 69 54 49 115 44
7 109 16 37 137 8 65 78
10 86 113 120 79 5 66 14 100 4 74

Total makespan: 54

