15
10 82 108 76 124 35 59 141 90 94 79
12 39 62 144 87 36 140 15 120 17 18 128 11
6 9 63 106 138 78 91
12 80 57 24 149 67 96 123 135 89 130 133 131
10 117 99 134 41 14 23 109 52 21 13
12 103 5 34 65 73 40 42 51 58 38 2 29
9 27 31 127 56 32 137 136 68 129
11 85 19 66 75 69 111 112 139 70 113 97
11 44 61 126 22 86 125 4 46 0 77 53
10 145 50 98 49 26 95 119 33 20 83
10 92 71 64 74 72 1 16 110 88 28
10 146 3 143 101 60 115 114 25 104 100
9 132 102 37 107 118 30 8 54 121
8 47 55 116 122 142 48 10 7
10 84 81 12 45 43 105 147 6 148 93

Total makespan: 88

