10
13 43 83 28 19 115 24 143 5 18 97 85 67 3
14 76 111 144 88 58 104 98 2 23 34 57 93 51 48
17 0 59 50 100 90 103 80 99 146 140 17 92 1 149 55 139 135
16 101 112 6 13 16 121 138 137 37 142 77 127 95 15 73 53
18 9 8 81 42 74 49 25 38 40 39 45 86 63 134 56 91 22 14
15 66 133 36 79 75 110 120 47 130 84 96 11 128 32 118
11 29 26 116 31 82 117 89 108 113 102 131
15 72 33 87 60 62 68 124 78 126 106 123 71 69 65 10
18 114 107 105 35 44 136 61 141 145 30 54 70 21 12 119 147 94 122
13 64 129 27 46 148 4 41 132 20 125 7 109 52

Total makespan: 201

