20
8 139 129 8 62 70 22 42 138
12 72 74 2 27 56 6 45 131 67 19 99 53
9 14 96 31 126 80 89 69 118 146
8 101 140 5 108 148 46 112 109
9 111 37 92 47 16 94 30 145 85
6 48 117 125 1 39 105
6 73 87 90 36 132 84
6 38 135 65 32 64 115
7 44 7 144 28 83 102 81
8 104 41 43 52 54 35 76 13
8 34 60 61 78 25 66 122 23
9 11 120 15 88 95 33 142 124 133
5 59 121 93 75 18
5 147 77 17 40 79
6 50 110 57 91 103 10
9 9 123 12 134 127 137 97 21 136
7 128 98 130 107 106 100 68
6 116 0 3 4 82 113
8 119 58 71 143 114 24 141 63
8 55 20 26 86 149 29 49 51

Total makespan: 115

