25
6 87 52 63 4 1 3
6 23 93 38 97 139 138
5 20 131 60 73 92
6 132 35 109 83 19 68
6 124 46 143 29 64 135
4 44 106 90 145
8 89 80 107 55 62 98 56 58
5 6 12 126 74 94
5 21 51 24 45 15
7 78 111 53 82 120 8 28
7 91 123 108 99 100 113 77
9 147 148 41 129 0 50 149 75 102
7 146 130 67 40 84 140 133
6 121 18 2 76 13 32
5 128 119 5 118 137
7 7 79 85 48 104 57 144
7 142 43 122 110 71 14 72
6 105 39 95 112 116 11
5 42 70 33 10 114
4 86 31 127 117
7 27 103 101 30 17 69 36
6 34 65 37 81 134 66
4 25 125 54 136
4 47 9 59 16
8 115 26 49 141 88 61 96 22

Total makespan: 58

