10
17 22 145 140 67 25 82 118 132 21 81 86 98 110 44 53 105 121
13 115 58 103 91 43 38 101 40 83 93 11 30 114
13 65 149 23 59 16 148 134 106 32 122 131 2 117
16 50 108 111 68 24 3 52 76 20 48 60 62 54 29 100 89
14 146 75 87 120 14 129 137 70 55 123 84 80 92 47
14 102 35 78 36 72 17 144 74 34 10 39 41 141 5
17 119 49 97 88 126 90 113 124 73 95 12 31 99 104 28 0 79
14 42 8 109 46 142 7 139 64 107 128 4 61 135 147
16 138 63 57 6 18 45 136 116 33 96 26 37 27 127 77 56
16 1 71 9 130 143 125 66 51 69 85 13 19 112 15 133 94

Total makespan: 258

