25
8 142 95 43 20 8 58 99 60
5 15 115 52 47 130
9 44 133 70 149 84 18 75 55 123
6 97 16 86 61 45 129
6 81 28 140 148 66 42
8 54 118 127 139 19 105 108 56
7 147 41 68 106 128 64 7
5 77 104 141 109 33
5 80 134 30 37 21
7 9 53 69 144 65 73 49
5 90 89 32 121 0
7 107 119 88 93 57 136 112
6 14 22 71 113 85 100
6 29 46 38 102 1 91
4 48 13 78 4
4 12 83 67 34
4 87 50 3 59
7 114 146 110 94 120 2 25
8 10 143 74 117 92 131 116 11
5 137 124 40 27 98
6 23 103 72 6 35 51
5 63 145 82 132 111
5 79 62 26 24 138
6 76 125 126 31 17 101
6 36 5 122 96 39 135

Total makespan: 88

