30
4 131 81 91 57
6 43 40 68 111 98 42
6 69 134 4 70 126 41
6 58 148 24 138 17 37
3 122 90 104
5 52 133 75 93 125
5 49 47 39 0 121
5 141 66 63 140 74
8 53 115 139 55 101 46 135 106
5 113 65 32 14 82
5 119 21 110 19 100
5 103 56 78 142 107
5 7 137 130 25 38
4 6 16 44 15
5 89 128 124 51 114
5 13 72 129 27 77
4 59 12 120 132
4 116 80 26 60
5 23 34 28 10 73
4 71 117 86 1
5 118 67 99 54 61
5 127 144 147 64 48
6 11 102 22 136 79 5
7 8 96 33 9 76 62 143
5 149 97 88 83 108
6 94 112 123 87 145 85
4 31 45 50 35
3 92 109 29
5 18 105 84 20 95
5 36 30 3 2 146

Total makespan: 69

