30
6 29 59 111 140 99 125
6 149 112 33 57 49 64
5 101 147 43 122 17
6 82 94 116 89 22 15
6 0 60 129 40 79 6
5 115 139 62 31 23
4 12 51 28 141
6 42 3 37 96 146 38
6 16 71 100 113 77 21
4 24 138 84 85
6 121 135 30 74 25 105
6 35 73 61 92 36 5
6 80 124 11 68 1 41
3 134 7 110
4 97 137 67 4
6 2 46 78 88 136 144
4 34 131 143 32
5 44 114 52 50 108
3 75 126 93
3 107 109 13
6 56 91 9 76 87 128
4 118 119 63 127
6 66 142 132 130 90 72
3 148 86 26
6 81 123 69 27 18 20
4 133 14 95 10
4 83 65 70 58
7 19 54 47 103 102 120 145
4 48 104 45 8
6 117 106 55 53 98 39

Total makespan: 33

