20
6 31 147 81 71 107 11
7 135 59 12 89 33 133 117
8 25 138 90 125 42 37 1 22
6 68 108 105 13 84 45
8 93 123 46 99 70 21 35 60
7 144 77 111 66 113 126 104
8 120 149 56 20 96 14 5 119
8 112 140 79 106 3 51 53 27
9 47 29 0 85 137 63 32 72 15
10 58 6 136 139 131 128 55 141 121 30
7 97 127 52 9 145 7 82
10 92 118 94 114 95 41 148 2 116 132
8 49 129 17 16 98 62 74 75
8 100 142 50 8 64 102 34 57
7 91 143 130 134 43 88 65
6 124 83 39 44 19 69
7 73 80 36 4 115 109 86
7 28 103 23 38 48 101 78
8 40 24 122 26 87 146 18 61
5 54 110 10 76 67

Total makespan: 102

