25
7 23 79 70 106 84 55 37
8 130 108 86 136 4 36 61 19
5 28 128 109 94 103
7 141 125 68 34 6 27 31
6 89 17 66 46 45 110
5 20 67 59 140 112
5 5 76 16 63 1
6 40 64 98 13 9 96
7 116 142 120 10 71 127 49
6 69 0 114 138 144 26
5 124 132 88 95 117
5 14 129 111 22 35
4 57 3 44 134
9 100 43 80 75 30 147 32 24 145
7 126 122 92 52 115 148 74
5 47 118 77 133 104
6 146 38 139 99 121 81
6 29 2 87 137 8 62
10 131 51 149 41 39 82 48 113 93 101
6 143 135 105 50 119 25
4 90 21 60 91
4 58 56 83 78
4 97 107 42 102
7 11 72 53 85 12 73 18
6 123 33 15 7 54 65

Total makespan: 83

