25
7 102 35 45 60 64 114 85
7 144 44 61 69 24 9 110
6 84 118 17 93 14 39
8 0 101 108 116 42 51 20 80
6 121 31 40 41 16 90
5 111 140 74 66 54
7 75 71 133 19 81 7 79
9 119 34 32 122 137 26 25 98 65
5 12 112 55 18 15
6 117 141 46 146 28 83
5 87 58 107 67 131
4 143 77 130 50
4 100 95 49 123
4 132 4 10 23
4 38 91 57 43
7 127 125 1 92 21 96 94
7 53 113 109 120 128 88 36
5 73 68 11 115 145
5 103 134 13 135 147
7 5 148 30 99 138 27 136
6 105 48 6 139 8 3
7 2 86 97 59 89 142 72
6 52 104 126 63 129 78
7 47 29 70 33 76 106 149
6 82 56 22 124 62 37

Total makespan: 40

