20
9 13 101 132 34 125 133 109 118 146
4 15 144 19 67
8 14 43 99 91 51 8 82 104
7 35 84 141 45 78 49 36
5 147 100 134 23 115
9 50 71 136 69 105 77 120 73 131
7 124 2 4 44 38 9 27
8 52 72 33 18 56 0 127 3
8 16 148 113 25 145 138 80 140
6 7 70 12 76 68 149
9 57 55 116 103 65 98 130 10 102
8 26 143 61 75 139 85 135 121
7 108 66 59 1 107 37 63
9 88 93 117 32 29 111 89 47 48
9 6 83 20 39 79 137 129 28 106
9 60 17 5 95 119 87 58 24 62
6 123 96 46 90 11 53
7 22 21 64 122 97 30 94
8 86 110 112 54 142 41 40 114
7 42 81 74 31 92 128 126

Total makespan: 59

