10
14 129 146 52 78 128 119 90 58 24 122 19 11 59 84
16 76 16 53 1 41 34 13 51 14 106 132 77 32 86 54 60
11 15 136 141 133 5 102 98 120 117 61 140
17 103 27 124 36 28 74 110 85 18 40 112 70 121 75 20 8 72
16 25 99 89 135 95 2 45 148 144 130 147 44 39 7 82 49
16 33 67 35 57 111 137 62 43 47 31 29 126 91 101 37 17
14 113 48 92 65 55 109 63 69 118 23 0 143 73 134
15 88 97 26 115 81 6 64 100 9 114 22 71 46 83 87
13 12 116 123 105 50 66 139 68 80 131 125 108 138
18 149 4 79 3 107 30 38 96 56 10 127 21 42 93 145 94 104 142

Total makespan: 267

