20
9 50 127 146 16 100 4 75 31 122
4 21 99 37 72
6 22 103 142 126 2 45
6 20 84 26 97 38 67
10 104 15 149 77 91 62 33 1 6 98
8 89 113 13 12 118 136 28 115
8 18 85 135 40 78 57 139 83
8 41 143 108 23 102 63 121 129
7 51 88 56 101 112 8 71
10 119 90 114 53 27 109 117 107 69 111
8 29 92 82 131 125 39 130 87
9 81 116 35 95 24 44 145 42 10
9 96 11 49 54 43 5 105 65 0
6 106 25 47 52 61 59
8 140 86 123 70 144 48 7 3
7 55 73 137 80 64 148 138
7 19 32 36 134 14 141 94
6 147 124 79 17 58 74
8 76 60 68 34 30 110 128 133
6 46 93 132 66 120 9

Total makespan: 76

