25
4 54 125 141 95
8 51 136 64 69 25 104 117 98
6 4 5 88 33 90 85
8 35 102 6 94 149 87 61 132
7 1 71 110 56 40 73 114
5 140 75 121 135 83
5 55 109 39 19 44
8 63 22 78 47 67 123 8 74
5 138 48 106 79 112
8 59 38 58 13 60 29 142 119
6 116 130 143 70 127 20
5 57 111 131 96 46
6 9 101 86 107 7 42
6 16 65 28 145 113 129
3 124 26 139
5 122 17 148 31 0
5 12 18 147 52 126
7 10 120 80 66 49 97 105
8 34 24 11 36 103 62 3 14
6 21 15 43 128 37 108
6 115 84 27 99 50 45
6 23 2 53 134 93 41
4 133 81 72 92
4 30 68 118 82
9 100 77 76 146 144 32 89 91 137

Total makespan: 62

