20
8 69 130 8 64 133 66 50 138
10 97 5 20 85 82 13 48 139 56 81
6 21 118 16 24 140 72
8 119 63 51 29 49 77 67 26
9 99 84 3 107 2 27 147 122 96
8 35 89 30 73 78 59 120 98
7 47 127 132 22 103 41 33
9 141 52 39 148 28 25 92 19 111
6 145 143 1 102 114 14
4 60 100 61 68
5 37 125 7 15 121
7 131 55 134 86 23 57 90
8 94 128 149 9 142 83 101 4
9 58 75 115 40 126 32 129 43 11
10 46 123 10 62 31 12 0 104 146 117
8 110 105 34 136 54 6 135 76
7 116 71 106 36 88 79 17
7 95 45 53 38 65 91 70
6 144 124 87 93 18 112
8 44 137 42 109 80 113 74 108

Total makespan: 78

