15
8 20 83 69 53 30 126 94 113
12 103 52 98 79 67 100 32 49 62 137 23 3
9 131 14 24 41 92 10 120 110 147
7 9 146 127 122 102 48 6
11 59 101 36 44 47 118 21 116 81 104 34
11 12 0 38 61 138 22 99 141 27 13 55
12 105 109 107 4 56 39 144 71 142 140 82 43
12 35 37 66 63 145 17 133 5 19 8 29 115
9 58 85 89 108 129 91 50 95 46
10 16 114 65 128 87 124 25 130 136 42
7 80 11 60 18 149 123 28
9 33 139 119 73 77 112 148 121 68
13 57 90 88 143 51 135 70 26 31 84 74 96 78
10 111 125 2 54 7 15 72 40 86 1
10 97 76 64 93 75 134 117 132 45 106

Total makespan: 89

