30
4 8 23 112 108
6 29 65 90 1 15 145
3 114 62 32
3 99 138 117
4 39 144 13 53
4 12 55 81 20
6 19 57 24 119 86 38
4 93 120 64 82
5 80 107 59 56 75
6 69 109 60 100 73 70
8 139 141 123 10 94 140 115 72
5 14 85 125 49 2
4 96 101 44 147
7 116 136 146 45 134 110 98
5 137 89 0 16 47
8 54 52 50 4 22 103 48 135
4 3 126 92 67
7 71 42 122 118 128 31 74
4 132 97 142 9
3 63 87 51
5 83 68 11 21 6
6 79 34 133 106 30 95
4 28 25 33 148
3 105 88 76
4 77 17 78 129
6 61 66 18 27 26 7
6 41 113 46 36 91 84
8 58 40 143 5 43 121 104 124
3 149 102 127
5 35 37 111 131 130

Total makespan: 51

