20
9 132 13 101 44 34 125 133 118 146
4 94 15 144 67
7 99 8 82 104 43 1 51
7 126 116 45 20 36 84 141
5 46 23 147 100 19
9 120 73 62 50 71 21 136 69 105
7 27 38 78 17 9 2 4
10 127 18 72 52 128 91 139 33 88 3
8 70 140 25 16 138 80 115 148
6 7 149 109 12 76 112
8 65 98 103 57 55 102 29 10
8 85 135 35 26 114 121 113 61
7 107 37 63 131 108 40 59
8 111 89 47 48 68 77 93 117
11 6 83 39 96 129 28 106 145 14 79 137
11 60 66 95 5 58 24 130 75 0 87 74
6 90 11 119 123 53 30
5 97 64 122 22 56
7 142 41 86 49 110 134 54
7 143 32 42 81 124 92 31

Total makespan: 59

