10
12 78 18 70 97 93 79 65 19 51 102 38 2
18 14 106 68 128 58 124 43 118 55 116 98 80 67 0 64 148 127 49
18 72 122 52 145 22 3 107 40 126 77 8 111 74 21 147 138 30 101
13 53 61 44 32 85 20 117 113 63 10 24 146 114
15 71 75 23 62 142 123 119 92 90 121 131 17 137 96 34
17 86 103 29 48 141 73 25 81 149 89 120 12 99 45 105 57 54
16 35 76 143 11 139 36 26 46 47 41 59 109 91 83 94 50
12 95 4 1 87 39 27 82 115 130 16 5 100
11 132 13 110 104 6 134 129 112 42 133 56
18 69 28 15 136 135 66 37 108 7 9 144 125 88 33 31 84 140 60

Total makespan: 186

