20
12 80 123 17 149 22 8 11 49 21 67 138 75
7 98 41 111 147 12 9 45
8 55 27 30 117 82 99 1 90
6 65 6 20 133 130 145
9 144 77 34 26 135 108 101 15 136
7 85 112 141 48 61 129 81
7 118 73 105 132 116 92 83
7 66 56 131 25 122 109 142
6 38 74 107 0 5 60
8 18 102 44 37 40 69 143 124
7 33 50 57 127 91 88 104
7 39 31 16 113 139 47 94
7 96 63 125 115 13 10 64
9 100 54 140 43 79 52 119 24 126
5 120 93 103 89 106
8 121 110 114 23 3 62 84 14
6 7 87 70 19 59 35
5 128 29 78 68 148
11 76 86 72 4 2 97 42 71 46 134 32
8 137 36 53 28 51 146 58 95

Total makespan: 55

