10
13 28 126 60 92 23 1 115 70 11 85 35 93 84
15 31 108 102 69 74 18 30 77 24 103 132 7 19 72 32
11 131 54 128 143 78 48 122 135 44 88 110
14 116 87 136 104 47 14 37 79 33 111 120 80 4 76
13 55 59 65 125 101 137 40 118 8 100 82 46 130
18 38 17 105 140 27 83 51 66 149 94 67 95 98 145 5 139 89 96
15 56 41 91 6 112 123 61 106 53 119 29 146 20 127 16
18 26 133 113 114 49 42 81 90 71 62 57 45 99 52 25 147 2 13
17 9 22 109 63 107 134 15 21 86 75 39 10 12 97 36 124 58
16 73 50 43 142 141 3 144 148 64 34 138 129 121 117 0 68

Total makespan: 251

