20
5 64 72 122 101 134
7 18 27 131 100 45 38 125
7 68 52 21 63 32 26 46
8 87 129 40 24 102 118 60 0
9 113 98 42 49 25 78 146 34 105
9 120 10 20 80 85 109 83 112 135
6 147 55 104 95 89 92
9 8 75 44 124 81 7 35 140 70
6 58 106 130 77 33 82
6 2 5 139 47 43 145
8 74 136 93 48 59 79 11 67
8 61 123 3 14 31 1 6 54
7 13 91 103 36 41 133 149
8 51 19 15 4 94 127 86 107
9 53 138 65 9 73 110 16 17 50
10 116 84 111 142 62 71 39 30 126 76
6 66 141 88 144 99 108
7 69 96 117 121 137 56 148
7 114 57 29 12 90 128 97
8 143 37 115 28 22 23 132 119

Total makespan: 103

