10
19 2 24 26 3 128 54 59 7 111 72 106 110 58 81 66 135 69 96 64
16 71 116 0 53 101 145 29 119 6 38 68 49 140 103 60 118
16 5 132 105 114 109 129 19 125 88 34 73 14 91 134 122 8
14 79 120 89 36 40 45 94 126 147 70 37 86 74 43
14 98 57 12 47 65 85 84 75 41 17 133 52 33 121
14 63 87 148 23 139 11 99 44 31 16 141 115 18 137
16 83 97 131 104 15 102 32 56 76 108 50 127 51 1 42 107
17 117 136 146 142 90 143 149 20 92 67 130 48 35 21 78 39 62
10 93 27 144 123 95 9 124 25 61 112
14 10 28 30 55 138 77 22 13 100 113 80 46 82 4

Total makespan: 236

