10
14 23 98 19 62 47 33 147 82 29 55 10 121 143 21
15 9 91 148 48 104 136 37 5 110 118 26 60 128 129 31
14 20 11 107 88 27 66 28 4 145 58 146 81 67 105
16 38 102 39 138 44 79 18 68 132 130 116 142 109 49 16 75
16 111 30 131 103 24 70 139 69 93 126 25 86 3 41 57 74
15 144 42 127 92 133 137 8 119 95 87 32 36 122 43 124
17 141 14 65 140 94 83 2 61 115 46 50 89 123 73 17 63 45
14 51 1 125 117 52 59 0 34 77 40 72 22 100 113
14 120 12 56 13 112 96 6 97 101 90 108 114 35 78
15 84 134 15 71 85 149 7 135 54 64 80 53 106 76 99

Total makespan: 230

