30
4 112 76 119 8
7 29 65 90 20 15 145 44
4 77 19 32 102
3 99 138 117
3 97 13 53
3 12 55 45
5 126 61 62 86 46
3 120 64 63
6 81 94 56 75 73 80
6 69 109 60 100 125 70
6 141 67 98 66 123 10
4 101 21 2 59
4 14 3 115 130
6 116 136 146 87 129 110
5 137 78 16 47 37
8 85 139 54 52 31 48 50 4
5 28 142 41 134 92
7 51 71 42 118 128 122 1
7 40 132 147 144 106 91 9
3 0 105 72
5 88 38 124 68 11
5 79 34 133 30 95
5 93 25 33 96 148
3 82 17 135
5 49 103 74 83 113
6 57 26 58 18 27 7
5 89 84 107 6 127
8 23 121 104 5 43 22 143 36
4 149 140 24 108
5 111 131 39 114 35

Total makespan: 52

