30
6 41 149 62 88 77 136
5 82 110 81 37 123
6 5 55 104 135 85 56
7 94 96 71 121 25 141 29
4 70 138 107 73
6 108 111 122 63 60 28
4 16 2 102 35
5 106 100 146 53 39
4 72 98 24 134
7 140 125 26 92 68 45 43
6 3 143 118 18 51 13
4 78 148 89 109
5 9 130 120 145 137
5 126 54 19 14 17
5 21 116 66 67 128
5 49 47 50 12 1
2 74 83
4 48 59 4 42
5 147 44 142 46 7
4 61 8 69 31
5 132 131 97 27 127
7 139 84 133 117 20 23 32
4 105 64 76 34
4 0 65 103 86
5 124 30 38 10 40
4 75 95 112 15
4 144 22 119 33
5 115 11 113 129 101
6 80 87 93 6 57 36
7 90 114 91 58 52 79 99

Total makespan: 65

