15
12 90 31 101 96 86 89 85 135 124 65 54 78
12 8 117 79 83 10 131 27 29 132 1 15 127
10 109 125 2 143 116 122 9 57 123 35
11 34 119 145 133 146 43 134 142 63 77 93
12 82 137 33 26 113 72 30 68 51 126 37 11
9 4 73 69 64 84 36 91 108 14
8 32 40 94 102 3 130 87 148
10 25 16 144 99 17 106 74 18 53 104
12 24 66 141 44 76 138 97 28 55 13 0 103
12 67 140 120 121 115 56 98 81 70 50 147 149
10 48 105 58 111 61 107 6 46 62 38
10 95 41 112 20 118 52 114 60 5 19
6 23 129 22 128 49 92
8 100 42 59 39 110 7 75 71
8 88 21 136 80 45 139 12 47

Total makespan: 123

