30
6 82 10 44 8 101 37
7 139 123 148 29 18 84 45
6 42 79 119 116 13 132
5 2 51 115 25 128
5 90 38 147 58 145
5 108 55 72 89 39
5 125 15 17 92 3
5 113 91 65 142 143
4 32 75 43 93
3 110 122 97
5 76 146 61 83 6
5 133 62 130 59 86
3 131 104 124
4 144 121 149 52
6 22 99 57 64 78 40
6 137 96 106 100 126 105
5 9 112 24 5 71
5 127 118 26 49 94
4 85 31 114 12
4 70 50 41 134
5 1 35 98 66 46
4 111 87 129 27
5 0 63 81 141 138
5 14 107 69 7 54
5 33 48 74 56 60
6 120 109 67 140 135 11
6 23 34 136 28 103 30
6 16 102 20 73 117 95
5 80 19 47 53 4
5 21 68 36 77 88

Total makespan: 65

