30
3 89 141 112
5 39 94 115 136 34
4 131 98 81 118
7 110 75 146 42 73 142 88
5 135 76 85 51 43
6 138 120 69 67 114 21
3 143 126 54
7 90 113 132 45 10 20 107
5 147 99 17 68 100
4 125 26 140 9
6 130 48 41 5 117 29
4 4 82 77 27
4 144 116 14 31
5 86 104 129 36 148
4 2 139 55 6
3 123 80 133
5 47 84 71 37 102
7 74 60 78 79 0 33 53
6 97 109 49 16 108 145
4 3 106 119 7
5 66 46 8 52 63
5 111 57 50 1 127
4 134 24 59 30
5 122 83 22 44 32
5 72 40 18 58 121
6 12 19 64 137 38 124
7 96 92 149 70 11 62 105
5 65 103 91 128 15
6 25 13 93 28 87 56
5 101 61 23 35 95

Total makespan: 67

