20
7 96 114 128 55 133 122 51
9 120 6 31 99 121 106 8 82 119
5 98 97 117 15 67
7 18 43 108 135 17 92 72
8 105 137 148 68 30 49 147 9
5 45 4 52 107 53
6 102 104 71 140 14 47
7 23 61 109 63 101 138 70
9 132 130 87 75 115 80 65 33 60
7 81 10 141 27 74 118 50
9 7 86 79 145 29 19 64 125 1
7 131 11 2 124 78 58 94
7 139 48 38 36 123 54 12
8 59 144 22 41 69 28 34 35
11 116 57 37 126 127 66 110 149 20 83 3
10 143 77 13 93 103 90 26 16 100 136
5 40 32 85 73 46
9 146 129 91 42 142 112 5 44 95
8 89 39 88 0 62 56 111 21
6 25 76 113 84 134 24

Total makespan: 101

