25
5 106 93 39 65 9
8 85 75 119 51 84 53 24 21
5 58 32 19 112 1
4 63 69 50 72
5 107 132 52 110 79
5 23 137 73 89 61
7 34 88 134 29 13 117 4
10 135 70 91 139 46 125 109 59 35 128
6 138 56 144 18 145 26
7 38 102 42 3 66 141 92
6 94 96 116 44 6 76
7 60 37 16 123 40 82 101
5 45 81 36 83 95
6 127 49 146 105 74 148
5 115 68 103 7 140
6 41 28 71 57 133 10
5 90 129 120 143 130
6 2 124 149 126 113 108
6 104 5 31 62 64 33
5 99 147 98 67 8
5 30 11 111 131 54
6 87 97 22 14 20 55
5 12 122 77 142 114
7 25 86 48 0 15 136 100
8 78 17 27 118 47 121 43 80

Total makespan: 60

