25
3 59 115 66
6 49 78 46 125 114 92
5 101 141 126 41 99
6 4 11 37 15 0 20
6 86 31 48 90 68 105
7 44 55 22 129 77 61 79
10 14 83 130 98 132 145 62 97 124 21
6 69 50 42 5 1 135
7 13 88 39 24 89 23 123
8 109 12 32 56 2 140 142 65
5 3 18 113 60 111
6 28 148 29 146 70 117
4 139 47 120 36
4 81 40 112 51
5 33 87 133 134 38
6 27 110 93 108 73 76
6 58 6 9 71 7 95
6 104 107 17 144 10 91
5 137 116 96 118 54
7 122 64 75 45 80 53 72
6 63 52 119 131 128 102
3 138 74 43
10 84 67 26 34 82 103 121 106 85 57
6 143 35 127 94 136 25
7 16 19 147 100 149 30 8

Total makespan: 92

