25
8 100 47 83 45 120 113 128 42
6 116 115 146 69 50 22
4 52 143 134 6
8 28 71 77 121 140 10 122 35
7 75 123 19 145 25 125 142
7 133 117 92 5 14 74 61
4 114 72 126 148
8 13 98 149 137 144 20 84 108
6 91 37 49 90 31 141
6 88 38 34 104 48 67
6 51 3 65 46 73 53
7 85 94 80 63 55 39 16
5 124 82 4 135 24
6 99 2 130 18 59 30
4 64 147 62 33
6 87 96 101 60 136 68
5 129 106 97 93 132
4 127 110 66 41
6 17 103 105 76 58 43
5 107 131 86 79 44
6 40 36 78 32 56 8
6 0 23 1 95 102 7
8 15 12 138 70 21 111 119 112
7 9 89 27 118 81 29 139
5 54 26 57 11 109

Total makespan: 93

