15
8 89 64 17 114 85 103 5 100
9 4 118 80 65 33 121 36 48 7
10 104 38 74 18 113 19 31 9 15 43
12 126 123 49 46 1 26 20 52 142 30 87 63
14 70 78 81 34 71 57 125 138 115 29 133 60 95 82
12 101 146 16 62 83 69 117 24 54 68 134 111
11 140 25 99 119 39 145 41 135 86 58 56
8 91 8 27 143 128 21 108 107
13 149 75 32 137 12 2 124 93 129 35 45 136 122
9 112 14 144 139 131 88 37 53 51
8 13 61 105 94 90 96 6 40
8 47 11 23 42 28 55 110 120
9 10 50 97 3 102 76 73 141 116
10 148 72 127 79 84 0 147 44 98 66
9 106 77 109 59 22 67 130 132 92

Total makespan: 142

