10
21 43 161 152 83 173 188 9 133 75 55 189 127 178 125 145 0 56 47 16 141 176
18 120 132 102 33 146 142 52 185 128 158 111 124 105 109 53 131 59 67
22 157 116 14 24 165 192 39 107 115 123 15 12 195 197 99 40 88 121 96 139 27 51
20 174 135 37 153 147 6 100 42 80 86 44 90 18 71 140 21 78 186 129 97
19 48 5 23 170 94 190 149 104 119 114 7 155 130 183 180 181 82 159 150
20 98 126 69 162 3 175 31 110 101 122 8 50 136 17 182 58 64 11 2 87
21 19 34 65 4 163 91 184 61 79 62 38 179 112 138 92 113 26 196 177 57 106
24 137 84 25 30 148 13 169 32 171 154 60 193 191 134 29 28 41 49 95 73 199 68 164 1
16 74 36 77 103 187 168 151 156 194 85 89 70 108 72 167 45
19 35 22 118 46 160 54 63 172 143 10 198 93 117 144 76 81 66 20 166

Total makespan: 302

