20
9 164 87 18 172 76 125 108 19 129
9 155 77 88 117 41 196 8 184 142
11 97 187 99 40 27 2 13 150 104 175 190
10 186 44 154 0 178 55 188 179 71 169
8 163 113 10 57 3 45 130 89
12 110 159 195 11 35 160 69 120 95 67 56 135
11 24 158 30 111 96 22 145 177 33 84 17
11 74 137 141 173 193 50 170 183 167 31 82
10 43 118 5 21 78 36 122 20 63 52
9 123 103 116 4 100 65 59 105 139
9 39 198 102 191 12 14 28 199 194
10 128 42 143 46 181 153 94 144 114 171
8 98 106 53 83 29 61 38 156
9 81 134 136 166 162 85 112 189 132
12 1 66 126 197 47 23 140 51 73 79 91 138
11 7 92 72 58 32 54 121 86 9 60 165
12 127 147 68 115 70 176 180 152 119 151 107 168
9 133 161 146 49 192 174 34 101 48
11 124 109 148 16 37 131 25 93 149 80 15
9 90 157 26 6 182 185 62 64 75

Total makespan: 102

