30
6 196 12 60 57 33 154
6 180 77 182 65 145 128
7 179 34 110 74 56 181 42
7 134 131 68 87 43 27 58
6 103 118 195 105 169 106
6 122 121 185 47 126 107
6 13 150 100 177 132 120
7 76 148 155 8 73 83 67
7 193 197 111 25 20 93 0
4 161 144 18 191
7 125 170 140 173 112 94 7
8 62 143 17 141 40 129 136 53
5 156 86 117 95 104
7 171 46 159 158 71 192 49
8 153 149 72 130 85 70 3 22
9 11 146 135 139 32 45 19 188 98
7 5 101 99 24 115 175 52
5 82 35 124 137 183
8 37 88 81 4 89 29 142 61
6 123 69 51 162 109 90
8 64 97 14 59 63 168 119 190
7 189 80 38 55 75 127 48
6 163 30 31 79 23 66
10 187 10 78 26 84 194 178 50 164 138
8 172 96 176 157 151 44 102 152
6 199 108 147 91 167 39
7 28 186 54 133 21 198 41
5 6 165 116 9 160
6 2 15 184 166 113 114
5 16 174 36 1 92

Total makespan: 83

