10
22 25 90 117 99 120 199 18 68 174 195 191 15 97 81 179 105 49 134 79 123 104 164
20 149 89 171 42 140 58 192 55 64 9 114 144 161 82 127 40 38 151 6 187
18 156 145 20 24 10 96 157 70 11 103 101 198 152 37 13 95 154 112
20 138 160 50 159 54 106 67 56 75 63 46 122 130 116 14 35 128 52 102 32
19 36 34 108 29 137 131 31 2 12 181 107 135 124 193 143 169 94 19 7
18 194 165 190 197 17 141 184 27 5 98 51 172 178 53 85 1 183 162
21 59 76 142 121 180 3 78 71 133 69 73 129 74 110 155 126 48 125 118 30 92
26 148 196 84 175 115 119 83 132 185 41 47 22 136 177 100 28 182 113 163 21 186 8 77 61 4 91
16 189 93 39 88 45 153 16 33 62 72 150 176 44 109 166 167
20 170 57 87 0 66 60 139 43 111 168 26 65 80 188 86 23 146 158 147 173

Total makespan: 256

