25
8 36 185 53 62 14 118 154 153
6 92 27 131 34 73 180
9 181 106 113 147 188 52 81 46 47
6 20 186 196 63 115 72
7 192 25 28 98 117 0 194
6 187 166 66 88 42 11
7 149 55 161 38 30 193 183
10 80 29 114 43 172 102 155 116 107 127
9 174 82 48 39 10 190 109 130 67
7 7 184 83 132 163 31 168
7 74 19 61 105 4 49 90
8 65 33 41 191 138 69 126 54
9 178 13 101 111 15 125 110 5 44
7 159 167 50 141 133 23 164
10 40 21 124 148 143 165 151 135 152 158
7 77 145 78 173 84 171 128
7 195 134 96 79 199 32 64
9 103 85 51 182 99 176 93 89 6
9 198 157 169 175 60 59 56 2 162
10 16 22 91 8 120 123 26 122 35 108
7 75 68 1 189 177 137 197
9 9 97 37 70 3 170 57 136 58
9 76 119 71 142 12 18 45 156 86
8 129 146 112 144 140 179 100 121
9 95 17 160 150 104 87 94 24 139

Total makespan: 103

