20
9 39 89 122 63 144 62 140 193 194
7 87 61 45 137 153 118 72
10 198 46 35 192 24 195 199 55 0 95
10 54 119 3 187 175 25 166 15 41 165
12 2 151 163 58 149 117 116 146 136 64 185 13
10 155 121 81 56 68 179 177 181 69 52
11 21 59 105 168 104 79 171 128 28 152 156
9 7 22 26 50 147 133 103 114 125
7 96 85 197 8 11 115 142
9 176 88 14 102 139 174 126 93 40
9 159 138 183 86 186 189 162 32 106
11 5 170 37 67 134 123 66 38 33 167 158
11 16 108 157 160 184 51 48 113 30 154 12
11 109 78 77 84 43 130 83 60 31 29 92
11 53 34 164 182 74 10 36 143 161 98 20
11 23 141 90 91 71 99 75 6 76 180 100
11 148 19 145 65 127 42 1 18 191 135 120
11 17 4 73 131 188 82 94 132 169 49 173
9 70 178 44 57 101 129 97 150 47
11 110 80 111 190 107 9 27 124 112 172 196

Total makespan: 100

