15
10 42 153 180 54 179 40 130 78 80 172
12 141 65 82 68 185 150 57 51 49 174 148 191
16 33 121 11 110 24 13 126 44 124 4 6 107 77 100 71 140
14 90 63 102 199 75 95 171 98 25 147 152 117 194 195
13 59 166 196 106 159 143 182 62 67 109 3 16 111
8 45 184 30 35 70 160 5 8
12 83 119 29 86 144 162 94 181 118 108 79 36
12 18 120 176 132 47 173 138 26 21 9 177 122
14 97 7 145 104 50 112 149 91 2 123 161 193 101 168
18 170 38 103 154 158 186 96 178 155 189 188 52 89 115 169 74 10 105
10 14 87 61 53 142 187 37 114 60 146
13 88 64 116 66 32 72 151 128 93 1 20 175 58
14 15 134 27 81 133 136 22 190 197 198 164 84 125 139
16 163 69 183 192 99 131 92 85 137 76 31 46 55 167 157 129
18 39 12 135 0 23 48 113 17 41 56 165 34 73 127 19 156 43 28

Total makespan: 179

