20
12 13 148 96 48 175 161 38 199 83 155 131 50
9 171 70 180 77 2 100 188 93 121
12 141 86 115 21 81 69 135 183 146 157 85 103
12 58 12 54 138 133 164 170 36 106 112 156 57
7 177 17 158 122 32 110 142
9 29 125 46 91 75 184 72 64 152
10 76 79 190 144 162 66 30 117 172 34
7 154 192 127 80 181 102 1
11 45 159 95 94 174 153 114 185 53 52 68
11 63 191 173 160 40 89 8 33 116 27 113
10 147 101 166 60 67 16 20 92 65 10
12 44 187 35 108 11 119 28 62 55 198 140 126
9 51 73 14 150 59 182 149 74 168
8 9 134 41 105 189 167 24 194
9 4 39 130 15 84 109 82 111 56
10 90 196 37 136 42 0 169 107 195 129
10 123 71 78 118 23 99 22 5 31 197
10 132 120 97 176 186 88 6 19 43 61
11 179 165 137 26 3 87 7 143 178 193 139
11 98 151 47 18 49 145 128 25 124 104 163

Total makespan: 141

