10
17 81 88 157 196 187 134 38 49 103 159 117 31 65 133 12 192 165
21 68 127 32 54 76 46 36 149 153 168 141 110 162 124 107 69 185 118 78 24 83
23 18 144 160 135 147 43 130 188 57 194 99 9 21 96 11 90 30 4 72 97 177 39 173
19 35 170 169 10 143 58 62 183 37 61 112 129 89 128 155 6 53 138 8
19 199 101 106 166 126 136 13 145 191 121 25 148 41 156 79 175 100 94 167
25 125 109 102 64 16 74 3 114 150 63 87 174 146 60 59 172 75 29 123 42 197 23 7 86 51
21 71 104 193 189 5 95 152 182 77 20 73 154 66 48 47 45 50 176 80 98 105
17 93 115 55 70 198 184 17 161 34 67 15 22 85 111 2 19 186
20 195 82 26 131 164 28 120 44 1 151 40 181 27 122 14 178 0 108 52 158
18 179 142 113 33 171 116 180 84 140 91 163 190 56 132 92 139 137 119

Total makespan: 325

