25
7 72 89 45 120 97 189 132
6 133 193 18 172 140 154
7 78 6 134 129 85 177 93
7 182 159 181 151 105 152 26
11 68 124 20 155 118 8 39 179 70 99 27
9 52 192 170 41 2 148 71 178 55
9 7 149 174 113 14 77 56 96 171
8 12 138 16 63 51 101 184 54
9 88 115 11 107 62 69 22 91 116
5 176 57 36 15 183
9 185 40 34 136 19 66 75 164 83
7 162 122 194 196 94 50 121
7 139 103 25 42 104 167 33
6 160 3 198 95 81 169
8 173 53 0 43 109 130 59 145
7 142 87 112 49 86 147 168
9 197 180 24 199 191 102 61 135 1
6 128 90 161 67 47 79
10 31 119 137 156 106 163 123 29 82 195
7 144 153 158 84 28 74 108
10 23 146 5 35 46 48 13 187 76 44
8 188 190 131 166 110 175 10 38
10 21 58 98 111 186 141 80 4 32 127
7 157 126 114 150 65 92 60
11 9 17 125 30 100 143 165 117 64 37 73

Total makespan: 53

