20
13 34 71 44 54 58 67 130 39 48 151 27 178 52
13 20 166 182 192 79 163 136 28 119 37 189 66 125
10 29 108 73 134 16 137 1 103 87 57
10 68 8 56 128 181 126 114 65 180 80
12 33 117 147 186 25 199 160 138 60 143 91 191
9 47 161 100 144 55 82 2 148 194
11 107 50 135 185 7 195 177 17 154 196 153
8 127 89 123 86 168 5 110 169
12 35 190 64 4 74 133 59 90 14 98 70 75
10 94 24 131 173 156 170 43 193 183 99
12 106 78 118 101 13 116 76 21 142 9 159 104
10 141 77 36 121 40 81 85 41 197 150
11 18 167 12 140 72 32 175 172 179 184 61
6 165 105 171 69 139 149
11 93 96 198 42 92 46 164 174 49 15 132
9 95 120 63 45 11 188 145 51 112
7 6 124 102 176 122 30 158
9 3 23 83 113 129 157 88 26 0
8 155 187 31 109 19 146 111 53
9 152 62 97 10 84 38 115 22 162

Total makespan: 123

