10
18 130 126 141 198 128 23 102 111 32 140 18 90 162 169 10 3 108 29
21 16 131 95 74 72 51 182 114 177 112 172 135 84 30 47 163 100 7 48 189 143
25 110 134 54 5 55 8 176 69 39 86 68 31 56 178 160 6 113 142 180 148 87 70 82 0 71
18 187 164 115 46 168 116 165 191 139 62 85 166 91 89 136 185 14 33
20 94 97 2 67 179 121 144 36 93 81 153 105 76 17 49 109 101 19 22 170
18 28 156 44 65 196 119 107 24 104 190 138 118 151 45 88 195 188 183
21 103 52 13 154 77 157 60 12 122 20 99 192 43 147 61 127 125 145 64 9 159
18 150 40 21 146 50 11 173 34 137 197 106 42 199 167 193 66 120 63
24 1 152 171 92 80 79 25 96 57 75 149 59 98 174 186 83 37 194 184 132 124 35 175 161
17 133 78 15 73 123 117 181 26 155 41 53 38 129 27 158 58 4

Total makespan: 292

