20
11 53 132 105 55 199 37 156 117 115 159 180
9 18 15 5 195 29 111 27 184 167
9 82 141 44 70 157 142 4 78 107
11 175 54 46 58 52 144 87 83 11 145 47
12 110 99 188 194 23 149 79 63 100 95 147 71
8 35 162 189 25 80 112 86 129
14 104 155 75 134 60 103 187 137 108 20 42 90 136 16
13 143 119 85 173 101 67 7 116 14 68 198 49 179
7 133 61 123 76 81 24 36
9 26 30 127 91 169 118 113 31 160
7 140 3 158 17 9 93 139
11 97 196 88 43 92 183 178 191 64 161 176
10 40 165 6 125 10 109 146 177 66 181
9 193 192 126 94 120 138 96 21 131
10 135 69 170 38 186 2 32 152 130 12
11 150 48 59 62 174 185 0 106 153 114 33
10 50 57 190 34 1 45 151 84 74 19
9 13 166 56 171 182 41 102 163 65
8 197 98 148 39 122 128 22 72
12 168 172 8 73 124 89 154 51 77 121 164 28

Total makespan: 136

