25
8 195 61 102 150 8 93 103 59
9 118 134 25 29 196 144 13 116 148
7 124 53 188 173 0 136 47
9 67 63 34 84 151 26 141 110 104
8 177 76 154 199 114 169 164 38
9 139 160 159 187 21 36 109 127 174
5 15 35 142 145 183
7 131 122 121 28 4 128 96
8 163 69 101 65 153 165 115 106
10 149 143 157 10 49 55 171 80 70 172
7 186 197 86 147 120 87 191
9 56 117 178 40 79 108 129 98 168
6 24 57 130 140 20 43
8 37 83 41 27 112 119 12 39
8 9 6 31 176 133 182 162 1
7 97 52 16 11 45 105 5
8 175 17 181 18 3 125 180 66
10 92 135 62 146 156 193 32 170 111 64
9 23 152 192 88 161 75 190 167 2
5 198 44 158 132 123
6 73 95 100 107 126 48
9 74 60 91 78 77 14 19 137 85
9 113 194 179 185 99 90 54 155 94
8 81 51 46 184 71 7 82 68
11 58 89 50 42 33 22 30 166 138 72 189

Total makespan: 105

