15
12 135 162 174 65 72 138 50 75 43 101 22 190
10 170 11 85 144 158 107 165 23 196 53
14 90 145 139 19 37 68 106 112 166 173 119 149 87 179
15 25 64 9 92 39 193 102 36 62 122 177 125 113 78 128
13 96 199 189 111 33 69 137 41 159 38 197 103 93
17 47 35 172 26 49 70 146 80 3 180 98 120 10 105 97 76 12
16 167 154 118 77 191 71 116 164 114 187 48 60 2 157 58 109
11 79 169 0 82 20 140 160 182 6 148 5
16 1 40 16 156 31 13 136 185 198 129 57 84 67 192 86 89
13 8 168 175 178 32 171 59 117 52 17 28 110 27
12 51 163 133 66 29 181 130 61 7 155 176 46
15 104 99 45 183 54 127 14 4 151 188 121 115 153 15 195
13 132 42 30 88 100 134 63 18 161 124 123 34 108
14 55 147 83 150 143 24 94 194 184 74 81 56 142 186
9 95 73 131 91 141 21 44 152 126

Total makespan: 178

