10
21 57 65 79 22 124 70 148 83 49 31 68 185 162 190 39 180 27 99 55 115 166
25 194 66 108 61 50 40 135 131 168 92 192 11 28 86 165 150 95 43 23 158 126 58 156 174 44
20 64 85 38 36 170 0 25 110 78 114 120 91 24 77 109 5 198 93 128 96
21 181 46 9 16 42 8 113 142 75 193 140 133 10 104 195 117 121 2 33 197 129
20 76 80 154 125 53 183 153 138 19 127 171 177 35 74 97 101 167 107 100 188
15 196 73 186 54 51 146 63 21 103 149 18 137 116 144 72
17 155 3 136 182 164 4 71 14 147 161 112 184 81 30 130 151 98
20 29 90 119 17 69 139 178 111 52 145 163 48 173 199 82 143 13 172 105 123
22 26 7 175 159 41 141 20 87 118 45 106 132 176 12 160 88 84 1 37 47 60 169
19 59 122 179 134 6 62 89 32 34 94 157 56 102 152 15 67 191 189 187

Total makespan: 323

