30
5 49 179 21 54 55
7 119 187 20 3 69 11 148
7 137 23 88 171 138 66 74
9 5 112 155 79 121 152 114 19 161
5 9 100 6 110 164
6 46 68 188 143 127 43
6 163 122 135 89 62 129
6 149 142 169 36 192 105
9 41 70 182 145 170 58 190 90 175
7 45 91 13 4 80 29 176
7 95 173 48 22 136 15 158
5 146 24 186 198 165
7 102 184 61 124 151 53 197
7 14 178 183 96 87 86 63
5 18 134 32 177 35
4 106 97 27 141
5 108 162 195 83 60
9 199 147 59 159 16 193 31 109 180
9 174 77 44 128 103 57 25 0 133
6 85 12 194 82 51 116
7 93 140 101 94 72 118 26
9 64 38 168 117 123 8 172 189 132
8 10 160 47 131 37 130 98 166
4 7 33 42 65
9 2 157 153 28 92 34 167 84 71
6 78 73 17 99 107 126
6 104 150 50 52 76 56
7 113 30 40 125 120 185 75
7 156 154 1 67 111 196 39
6 115 81 191 139 144 181

Total makespan: 40

