15
16 96 177 27 103 198 164 156 140 135 59 191 172 154 84 161 150
14 123 117 4 30 113 165 173 46 197 47 101 152 137 162
12 21 94 180 53 44 67 75 72 106 194 116 128
15 124 23 18 25 45 52 54 69 134 6 184 169 61 50 190
14 138 185 195 163 51 79 5 144 95 170 153 97 8 127
15 41 80 78 167 55 16 176 31 118 22 36 142 146 12 76
14 130 189 143 10 0 107 125 100 126 39 112 89 174 105
8 42 160 110 109 32 188 34 43
14 181 64 155 168 178 9 82 60 19 28 148 85 175 119
12 141 192 186 115 104 70 81 182 187 7 40 139
11 136 17 114 157 132 68 122 91 171 11 145
15 111 86 159 98 183 65 151 92 179 71 149 77 166 93 48
15 57 62 3 49 196 147 129 90 199 26 133 15 24 38 29
12 56 1 193 63 37 74 120 33 35 73 2 99
13 87 14 88 66 83 108 13 102 158 131 121 20 58

Total makespan: 139

