15
16 154 197 172 89 164 94 167 41 46 15 134 130 177 87 10 34
14 123 25 157 32 180 135 4 184 122 58 37 128 12 86
12 95 151 23 9 148 98 190 72 166 194 118 77
13 146 161 141 149 188 160 43 26 21 44 88 142 153
11 47 97 125 192 24 193 51 174 115 189 133
13 33 30 99 170 168 78 103 48 11 176 2 79 93
12 57 131 111 171 63 49 53 173 169 83 145 126
13 17 199 35 165 75 62 150 27 31 59 181 85 163
14 127 100 121 13 158 14 76 70 195 198 132 73 139 81
17 69 56 120 104 18 178 65 66 96 68 0 29 182 82 3 187 129
15 20 16 52 116 155 6 45 92 138 159 102 106 114 162 179
16 28 191 136 55 183 107 124 74 175 84 144 60 156 50 119 42
11 22 91 137 8 186 38 101 140 117 7 1
12 5 64 109 152 105 143 61 40 71 36 108 67
11 19 80 39 147 113 196 185 90 112 110 54

Total makespan: 177

