20
10 161 123 86 144 29 33 87 120 4 78
12 60 168 121 96 130 103 45 104 7 176 141 114
14 186 173 76 55 97 38 91 21 25 133 182 32 43 77
11 110 188 9 196 125 24 16 131 49 37 12
8 0 27 69 50 132 14 100 39
9 149 154 65 156 106 35 128 85 99
9 81 105 83 61 34 93 147 3 31
10 72 117 166 42 175 150 88 145 162 56
10 109 170 111 84 155 112 165 36 137 152
10 195 139 98 177 143 142 135 113 6 26
10 58 66 174 169 22 180 89 122 71 185
10 74 151 127 198 2 19 80 138 15 54
11 134 17 79 64 67 52 11 163 92 119 23
9 197 153 183 20 118 129 146 190 107
9 108 41 171 164 40 68 18 115 13
10 189 179 94 73 116 159 140 53 172 192
12 101 167 47 160 199 46 75 184 59 63 95 90
10 187 193 70 48 157 124 28 30 158 181
7 191 8 1 178 62 82 148
9 57 136 5 44 194 10 126 51 102

Total makespan: 133

