30
4 59 36 122 22
9 162 154 159 168 97 115 92 178 42
6 67 100 28 53 16 124
7 165 63 151 74 25 48 163
4 51 87 182 119
7 11 147 47 172 145 104 69
4 111 137 118 136
6 107 158 174 139 41 91
8 54 4 39 64 190 14 117 121
7 33 89 166 8 44 146 0
6 73 181 88 85 116 3
8 20 112 179 198 142 110 7 15
10 75 156 32 150 193 77 17 52 128 60
7 183 134 155 55 101 135 106
7 29 78 140 129 72 40 90
8 152 157 102 49 79 13 120 113
6 19 187 170 94 50 66
8 167 83 109 56 173 84 80 189
7 31 192 160 37 131 2 143
7 1 185 93 176 38 144 70
7 126 130 180 58 103 123 30
10 177 164 96 138 18 195 199 23 171 186
5 95 62 26 169 149
6 9 148 196 21 153 114
8 12 46 68 86 34 24 57 98
8 5 125 76 82 27 81 65 105
5 108 188 43 127 184
5 71 45 6 194 99
5 161 35 132 61 175
5 133 197 10 141 191

Total makespan: 85

