20
9 178 91 42 147 132 107 73 50 168
11 141 130 135 17 195 49 101 172 78 192 16
9 4 121 199 24 161 126 87 92 44
8 15 133 142 43 97 139 131 98
11 108 27 181 104 198 148 5 31 154 146 80
10 18 81 57 115 157 122 159 166 145 39
11 40 48 127 70 116 105 34 38 190 55 19
7 114 21 23 167 129 137 123
8 193 197 124 82 152 1 175 196
11 99 94 2 13 150 14 88 7 64 125 89
12 37 59 12 11 30 62 51 170 173 111 33 76
12 85 8 182 180 90 165 151 69 119 28 26 179
10 0 106 177 109 158 22 112 95 194 163
10 77 118 169 110 20 120 143 188 191 83
11 61 60 10 128 45 189 32 174 144 176 138
7 184 74 84 171 153 25 3
10 93 183 56 86 47 160 100 113 67 72
13 164 46 63 75 53 54 35 41 186 149 103 162 134
11 117 58 136 79 68 65 102 185 187 71 9
9 155 96 140 6 66 29 52 156 36

Total makespan: 98

