20
8 142 123 99 154 23 104 166 81
11 82 39 13 105 66 68 73 77 63 132 96
11 127 29 9 112 136 194 26 178 177 146 171
10 183 192 121 172 140 148 50 129 133 174
10 164 152 176 59 78 94 126 153 109 107
11 130 124 49 35 71 87 62 90 117 83 51
12 182 36 118 135 147 43 145 175 95 137 88 3
9 185 158 42 8 165 97 52 46 53
10 98 14 111 74 197 69 47 0 188 27
11 85 101 40 32 128 110 149 93 92 156 191
14 157 122 100 37 12 144 134 31 61 162 79 180 115 108
8 41 190 103 159 70 113 170 28
8 138 120 160 34 150 21 102 169
10 91 18 65 181 173 143 168 167 198 67
15 6 58 75 179 54 5 139 141 4 186 161 2 33 116 196
9 163 189 19 38 76 119 106 55 25
6 64 199 125 86 7 60
11 193 44 22 155 80 131 187 17 45 24 48
9 11 56 57 89 16 114 20 10 195
7 15 30 184 1 151 72 84

Total makespan: 131

