30
8 179 104 41 74 10 175 48 152
8 126 3 8 49 186 16 68 69
8 188 140 89 43 111 97 171 172
7 133 137 151 165 190 9 167
8 142 36 178 166 93 187 177 98
5 169 32 116 122 19
5 127 81 184 161 0
7 134 170 119 193 99 145 162
7 11 88 95 37 138 46 85
6 117 45 112 144 100 2
9 14 195 84 132 135 39 150 20 79
7 86 78 160 52 101 94 65
5 30 6 47 158 181
6 22 59 15 164 174 44
8 114 34 123 153 146 136 156 120
7 90 87 56 196 168 54 61
7 33 143 76 147 66 50 103
7 51 75 108 72 71 23 26
6 38 173 139 27 24 58
8 109 57 35 189 129 118 63 107
8 176 82 192 124 148 73 149 96
4 102 12 113 60
5 155 197 4 64 194
8 17 40 92 55 154 77 163 83
7 67 121 185 7 198 115 91
6 106 13 80 70 62 25
6 131 157 31 28 182 199
5 42 159 125 1 5
6 29 128 21 180 130 18
6 183 191 53 105 110 141

Total makespan: 37

