10
19 103 165 199 164 67 176 122 110 43 17 140 24 38 9 27 61 63 65 127
24 64 197 31 26 92 58 53 162 85 148 98 21 154 155 178 40 95 36 76 50 171 42 77 117
14 88 86 177 54 185 71 187 146 20 183 163 114 15 130
21 39 190 3 195 159 1 191 84 158 139 4 123 91 97 111 19 141 107 78 115 87
22 147 157 93 66 142 153 108 35 49 102 136 124 161 112 57 22 193 184 105 80 30 138
24 34 32 180 45 186 37 128 89 166 59 143 2 151 160 16 70 48 172 133 55 44 104 106 82
19 156 18 174 169 72 137 81 12 74 113 188 90 68 119 23 134 196 101 167
21 152 131 109 170 25 75 62 56 94 73 79 118 116 135 149 41 168 33 129 125 6
15 192 96 198 179 99 51 69 194 5 150 182 181 145 120 173
21 100 13 83 175 28 126 11 121 60 189 7 0 47 144 52 132 29 46 14 8 10

Total makespan: 328

