25
8 154 88 42 33 94 103 121 104
6 4 55 197 173 27 59
11 91 114 172 79 68 71 148 193 129 115 128
7 106 64 196 43 28 62 63
6 195 187 138 167 123 109
5 23 161 41 97 82
10 70 151 75 84 96 29 168 38 98 3
9 189 112 162 48 152 131 145 16 1
10 93 159 17 25 44 11 30 120 34 73
9 54 77 80 136 36 50 40 76 169
9 182 46 142 165 184 52 45 83 26
8 56 12 141 81 133 125 72 155
7 135 32 116 78 22 194 139
8 92 90 183 100 119 51 122 134
9 177 137 126 7 31 8 132 147 175
7 164 111 163 124 66 199 19
8 61 13 74 130 89 20 47 156
8 102 57 0 170 127 143 186 69
5 105 176 118 85 181
7 150 157 110 10 178 140 53
9 190 179 2 108 5 158 39 144 198
11 24 113 9 37 185 49 166 192 67 15 160
8 107 86 99 58 153 95 174 18
8 180 117 149 188 191 21 60 35
7 101 65 146 14 87 6 171

Total makespan: 111

