30
8 112 25 15 149 146 57 197 99
5 94 17 1 31 95
5 70 51 89 58 93
6 86 131 97 167 126 119
10 20 179 122 171 72 9 87 187 193 152
6 160 2 198 114 21 11
5 109 151 36 107 28
7 156 38 55 144 79 165 143
6 190 195 168 45 60 162
6 98 132 120 135 59 42
7 46 44 83 76 188 64 176
6 103 48 134 194 0 181
8 53 129 175 30 164 62 121 78
7 186 159 65 85 148 19 27
7 138 154 52 101 33 10 7
8 184 192 141 191 47 6 84 90
7 150 26 111 63 41 174 110
6 147 16 127 80 37 5
7 92 158 183 77 71 178 115
6 177 108 18 104 75 136
5 170 81 153 140 124
4 13 173 22 4
5 123 128 169 199 133
7 3 116 32 50 117 24 182
7 163 54 67 161 196 14 118
10 105 82 189 66 172 180 157 88 12 185
7 106 102 61 29 68 139 130
7 40 35 137 113 39 8 23
8 56 145 74 125 43 166 69 155
7 49 142 100 96 73 91 34

Total makespan: 88

