15
14 8 3 10 86 79 188 49 56 55 94 71 36 9 74
10 46 143 66 95 37 155 137 173 146 51
15 190 13 144 53 119 197 177 4 149 167 84 24 132 153 68
16 83 110 141 26 65 104 38 101 6 129 20 39 7 97 131 32
12 50 16 160 117 185 184 82 172 136 15 25 189
13 159 99 61 108 120 170 27 109 11 59 126 195 102
14 174 105 90 85 140 70 148 138 1 0 103 42 22 12
13 88 150 196 147 58 45 114 156 96 77 179 134 124
12 175 18 33 48 92 169 154 35 186 43 64 72
11 60 127 181 151 73 171 57 161 29 123 100
16 80 2 152 163 165 28 113 44 166 130 115 40 183 158 199 191
12 52 180 157 187 176 87 118 178 198 63 54 81
11 128 17 193 168 34 133 107 5 125 121 145
16 98 76 23 139 112 30 75 41 62 164 162 192 111 122 93 67
15 91 21 69 194 182 89 47 106 135 14 78 116 142 31 19

Total makespan: 119

