10
22 61 83 179 108 45 165 75 162 33 79 24 38 180 158 99 177 67 4 168 100 134 101
18 18 185 6 50 184 32 142 191 57 11 116 70 145 174 13 9 2 54
20 115 169 97 92 175 74 119 53 106 114 149 187 199 159 135 128 96 112 197 195
20 12 172 144 59 143 91 0 19 68 98 139 87 141 10 22 15 111 52 43 110
22 153 147 171 121 37 7 113 48 95 28 76 60 17 104 102 188 124 90 8 41 170 140
20 164 160 107 23 123 154 93 152 66 148 161 198 46 35 130 183 133 105 56 77
18 63 138 40 151 16 69 85 84 29 136 137 65 193 178 58 71 194 64
20 146 82 21 1 132 89 103 80 34 62 5 36 192 163 26 125 176 127 189 122
18 42 126 88 157 156 47 27 72 20 73 14 150 182 173 81 86 190 129
22 49 44 55 120 117 166 181 186 31 39 51 155 118 3 131 25 196 30 78 109 94 167

Total makespan: 263

