30
6 90 109 42 21 58 33
9 113 112 32 165 7 147 39 23 120
7 80 63 99 168 157 16 142
8 192 20 115 70 190 1 130 95
7 4 37 132 131 100 149 3
7 135 69 76 167 128 82 78
6 187 150 85 47 15 17
6 185 98 122 151 177 188
7 139 62 110 64 84 164 83
5 92 40 75 140 183
10 50 94 25 67 117 172 199 88 156 124
5 101 180 145 103 29
7 18 74 81 123 61 49 159
8 193 31 54 171 34 26 9 138
7 154 5 30 143 186 155 0
6 57 72 129 79 55 35
7 198 11 175 46 66 182 119
4 176 53 134 44
6 181 118 105 102 179 178
7 173 91 152 45 77 56 19
6 52 127 13 43 166 111
6 196 10 71 136 184 162
7 14 87 116 41 89 158 51
6 121 104 197 189 68 126
8 108 114 195 96 163 73 106 194
4 8 174 2 153
6 148 161 22 65 107 144
7 86 141 160 59 24 169 28
9 48 60 38 125 137 36 146 12 97
6 133 6 93 27 170 191

Total makespan: 61

