15
12 61 98 169 139 101 103 133 151 41 36 146 104
16 105 28 145 58 43 123 182 55 128 157 78 49 73 144 187 196
15 127 117 89 48 124 47 112 180 75 0 131 16 87 147 107
13 137 152 186 60 158 162 94 192 189 72 76 113 70
11 176 20 77 25 81 165 34 57 153 86 175
13 119 173 140 52 35 115 149 63 10 5 163 79 21
15 183 24 64 54 160 56 167 88 106 83 135 32 194 71 74
13 121 17 1 37 51 116 85 129 6 42 120 141 45
18 15 109 198 31 67 142 3 190 143 188 155 93 185 171 30 46 50 172
14 96 122 164 193 11 125 110 39 38 191 40 100 65 138
15 26 59 33 84 4 174 132 92 126 68 156 27 181 14 184
10 108 80 195 95 66 161 12 99 170 148
13 150 118 82 91 166 134 102 130 8 22 178 19 199
13 18 2 114 53 111 29 179 90 97 168 197 159 136
9 7 13 23 177 9 44 62 69 154

Total makespan: 169

