10
21 154 115 129 74 191 54 162 88 190 182 170 111 80 55 102 133 47 159 50 151 11
18 130 73 72 149 45 141 36 161 100 26 119 138 70 2 61 39 65 18
25 179 14 169 42 27 160 19 85 180 144 23 17 25 142 4 43 76 125 63 181 128 178 131 172 86
21 153 75 140 171 64 116 89 146 186 30 108 121 112 155 105 79 38 97 40 53 113
21 95 197 163 192 78 127 167 69 31 16 110 177 194 51 184 62 188 5 147 199 118
18 174 37 148 193 93 91 67 135 9 71 29 101 168 120 77 114 7 49
17 44 134 107 34 15 68 83 198 136 139 1 82 59 176 195 143 94
20 137 87 20 41 99 13 173 117 156 12 126 157 8 84 46 0 164 185 104 32
19 158 124 35 90 183 48 103 152 189 150 66 24 10 109 3 21 6 132 81
20 33 165 56 106 58 98 92 166 57 122 145 52 28 96 60 196 123 175 22 187

Total makespan: 328

