10
19 161 39 92 165 80 150 61 64 120 176 155 146 103 168 27 71 182 59 49
22 54 171 84 167 8 141 95 75 3 69 119 37 184 96 79 33 26 132 30 145 11 62
18 189 125 99 121 131 68 169 124 166 128 25 133 180 57 48 32 154 16
23 199 159 118 192 162 50 102 6 135 126 196 46 58 45 106 12 160 10 15 156 108 91 151
18 143 38 76 111 60 109 136 163 157 173 105 110 158 31 188 186 40 43
24 197 122 97 23 41 36 72 47 87 67 85 134 142 35 0 140 152 18 147 5 127 77 187 123
18 65 195 181 190 170 24 191 116 115 88 19 112 21 198 34 73 86 113
18 7 14 98 185 74 28 89 149 66 107 172 22 179 51 82 177 4 129
21 1 13 83 175 70 138 9 144 42 52 44 100 56 94 193 183 148 17 101 153 104
19 93 2 114 78 53 55 117 29 130 137 90 178 81 63 164 174 20 194 139

Total makespan: 311

