25
6 147 118 102 43 30 98
9 146 21 82 52 129 62 69 119 23
7 75 29 157 104 133 156 25
8 171 135 53 3 72 6 99 187
9 175 151 113 7 182 169 16 160 41
8 162 124 80 66 166 158 87 155
5 12 9 196 84 26
5 70 39 51 4 47
6 188 142 127 74 28 89
9 161 163 90 186 31 117 67 50 32
8 79 130 33 97 36 18 164 148
10 184 172 19 152 138 96 40 8 92 35
8 139 167 106 199 136 125 165 181
7 176 141 83 105 95 15 91
11 46 64 123 178 115 65 56 149 110 101 191
9 71 88 77 111 194 94 42 183 86
10 17 14 44 37 121 45 68 143 76 73
8 55 63 192 145 103 174 114 126
7 49 22 153 198 0 27 131
10 93 11 48 159 116 58 100 78 20 85
8 13 24 170 54 154 122 10 108
7 193 1 180 190 109 61 107
9 189 112 60 173 140 195 5 2 81
7 134 150 34 137 57 177 59
9 179 168 38 144 185 197 128 132 120

Total makespan: 110

