30
10 175 50 8 172 58 119 101 61 199 93
5 170 142 86 140 111
5 88 51 96 105 187
7 141 19 1 123 5 13 14
7 168 17 6 156 139 126 82
5 18 85 135 65 97
8 55 43 125 47 189 9 159 161
7 70 193 196 169 148 77 80
7 134 16 117 64 66 84 136
8 75 180 89 144 176 62 137 27
6 133 129 53 103 131 72
5 160 69 39 45 42
7 49 118 165 4 191 92 155
8 81 113 63 109 68 173 151 178
8 26 102 114 83 182 146 95 104
6 167 154 120 0 10 87
4 166 150 179 115
5 12 192 116 74 197
6 194 59 48 73 171 107
7 30 127 195 28 56 149 164
8 76 186 132 2 121 33 108 29
11 110 99 198 3 106 152 185 188 90 153 79
6 25 130 34 162 163 128
5 44 100 124 23 94
6 57 122 183 52 35 46
6 78 11 145 7 143 24
8 22 31 184 91 37 41 67 32
7 174 71 15 60 40 112 158
5 147 157 54 36 177
7 20 38 138 190 181 21 98

Total makespan: 87

