15
14 123 88 61 195 18 36 35 23 22 16 186 130 47 146
12 15 164 131 68 86 67 77 191 24 111 154 53
14 33 136 1 155 71 116 81 158 75 150 42 112 199 134
13 69 59 178 55 37 32 54 174 156 45 192 184 172
12 163 161 78 27 85 73 141 57 128 21 109 173
15 193 19 30 133 66 183 4 106 39 175 137 87 79 50 129
15 9 60 165 139 180 56 92 102 14 98 124 188 142 28 153
16 51 140 122 107 114 74 113 197 2 25 76 93 148 182 167 3
12 185 34 121 38 176 117 64 89 120 62 190 72
10 7 40 169 97 12 52 48 17 95 157
12 170 80 166 91 162 132 119 29 94 10 44 6
15 126 49 147 104 187 63 70 118 108 135 82 144 58 103 101
9 125 143 152 198 179 105 189 181 8
15 31 43 5 127 151 115 177 84 110 171 159 160 26 46 83
16 145 99 65 96 90 0 149 100 41 11 20 168 138 13 196 194

Total makespan: 109

