20
9 97 88 18 7 16 181 68 42 47
11 45 167 172 147 131 9 133 90 157 64 79
10 32 136 99 74 174 124 36 31 3 58
12 140 43 143 158 28 0 183 71 195 169 156 92
10 19 132 57 69 184 66 142 151 154 60
10 162 155 73 46 63 165 48 6 76 175
9 80 77 171 83 159 127 20 125 193
12 153 139 137 40 10 186 176 118 84 197 78 14
7 188 95 187 144 141 15 51
9 148 130 166 120 198 192 1 12 102
11 116 4 123 122 35 113 8 94 98 26 96
9 11 61 190 41 128 149 54 17 108
12 25 178 70 117 196 119 177 91 138 65 75 100
9 21 44 87 114 121 39 67 168 103
9 56 34 2 145 5 72 38 55 111
9 85 29 22 129 150 146 134 179 170
12 82 50 199 194 30 107 101 104 52 110 109 33
8 180 27 160 185 59 189 37 163
9 152 106 89 49 164 86 13 182 126
13 161 112 53 105 81 93 173 23 24 135 62 191 115

Total makespan: 123

