25
7 134 163 149 90 13 71 155
8 137 193 25 87 198 57 91 191
10 112 95 55 63 153 46 122 42 158 99
11 171 190 157 133 178 12 65 83 32 182 162
9 60 6 93 123 1 130 180 28 51
5 174 82 185 129 154
10 22 89 106 29 187 15 24 70 195 183
9 48 80 165 20 56 78 125 26 23
7 50 34 175 161 33 7 141
9 199 100 146 84 156 68 21 75 194
7 109 16 3 102 5 173 0
8 105 58 108 181 179 45 74 49
7 172 132 120 35 27 101 37
7 64 69 76 19 127 36 77
8 189 188 110 128 150 85 136 196
8 186 184 160 47 111 18 152 177
6 97 119 148 88 107 124
9 96 135 17 169 41 159 117 113 126
10 43 114 168 44 9 79 38 176 142 139
7 145 31 170 92 2 54 61
7 138 4 40 144 98 14 115
7 86 59 116 121 94 73 192
7 53 52 131 11 166 147 164
9 140 81 8 197 143 118 103 72 66
8 62 67 10 151 167 104 30 39

Total makespan: 102

