30
7 26 10 170 121 123 58 49
7 48 16 194 171 143 173 141
6 22 132 47 136 160 151
6 54 91 18 14 3 55
4 140 180 128 101
6 122 35 154 94 162 93
7 112 95 43 59 81 179 12
6 198 125 20 57 117 52
6 88 85 33 110 84 77
6 51 195 60 31 76 163
6 107 167 120 129 1 174
6 99 175 25 133 104 32
7 34 100 83 37 0 42 79
5 4 56 153 146 89
7 189 108 70 97 168 187 15
11 181 98 116 137 40 199 17 115 90 147 178
6 164 176 65 28 36 44
7 50 5 145 86 106 13 80
9 119 78 74 184 114 6 71 29 126
7 138 105 46 155 64 188 19
7 127 67 182 111 96 152 148
8 124 197 159 135 7 24 166 11
7 144 21 68 172 87 130 2
8 113 118 185 73 30 38 183 161
7 102 8 177 109 72 66 63
6 41 142 27 192 158 75
5 193 150 131 157 23
5 82 69 156 62 169
8 53 191 186 139 61 149 134 92
7 196 103 165 39 9 45 190

Total makespan: 64

