30
6 114 173 0 126 28 63
5 189 76 14 11 73
9 113 157 5 172 107 183 103 94 26
7 102 37 153 185 117 60 36
5 88 140 9 41 95
7 22 138 143 6 53 40 118
7 133 130 80 170 61 181 27
6 101 177 168 122 169 110
8 198 167 30 81 195 100 96 135
6 197 2 161 24 71 142
5 162 121 19 156 109
6 179 98 62 132 141 57
8 1 108 99 134 91 83 164 32
8 151 159 16 64 112 160 145 4
6 105 21 38 69 34 12
6 131 13 106 116 150 31
7 90 17 191 54 55 119 92
6 166 52 58 68 152 70
8 180 127 29 165 147 171 15 51
6 87 72 85 86 104 176
9 56 158 187 163 184 190 111 139 84
7 129 186 65 43 23 47 194
8 48 66 44 174 3 144 149 89
7 20 59 175 74 77 193 93
7 35 45 75 10 42 125 79
6 82 148 49 182 128 18
5 196 33 25 146 67
8 199 178 97 78 7 188 50 120
6 46 137 154 115 192 123
5 136 8 39 124 155

Total makespan: 90

