30
7 39 35 24 57 157 68 176
7 119 76 37 2 26 138 88
7 130 78 142 44 33 62 49
5 96 190 14 109 74
8 126 172 100 67 140 194 197 25
6 94 184 80 81 144 187
7 17 59 137 189 50 114 156
6 161 99 180 40 195 20
6 117 7 103 79 135 168
7 21 71 178 105 19 158 87
5 192 118 170 139 145
7 148 82 159 41 0 8 27
7 110 75 182 121 169 101 56
7 55 163 143 18 146 112 104
6 162 166 116 91 160 52
6 12 123 83 4 198 124
9 51 58 11 132 173 13 77 113 16
6 175 22 151 97 127 10
8 108 9 199 95 15 106 43 38
8 120 6 32 61 185 42 167 72
7 29 107 147 181 133 164 188
7 141 66 150 196 90 115 165
6 111 179 186 89 152 47
6 1 134 92 155 45 153
8 131 63 73 53 191 34 154 177
6 28 60 102 98 84 183
6 85 129 3 174 36 46
5 93 149 30 128 65
8 70 5 69 125 54 86 48 31
6 23 171 122 64 193 136

Total makespan: 66

