30
9 25 148 39 134 38 83 19 4 156
8 100 190 91 108 194 123 130 15
5 199 142 106 104 86
7 65 101 10 80 185 170 72
4 57 97 198 195
6 23 169 171 24 77 42
6 176 11 21 56 88 114
6 183 181 121 81 12 118
7 120 13 78 110 17 149 18
6 132 161 54 90 73 129
4 59 153 174 58
5 32 61 122 22 34
7 82 60 152 30 157 45 117
7 31 137 125 52 116 178 50
8 14 197 167 164 189 66 112 163
8 158 184 5 165 84 71 63 139
5 40 115 1 20 180
6 87 9 37 128 48 188
4 99 0 140 179
7 36 151 192 133 29 109 143
8 93 102 55 193 27 44 76 187
10 74 68 43 33 70 3 138 124 46 89
7 35 135 69 159 113 131 144
7 162 94 175 2 126 75 92
8 166 168 111 95 7 16 47 141
8 8 119 196 145 85 6 136 49
5 28 96 154 173 177
8 79 127 182 147 51 146 64 26
6 155 186 62 172 98 150
8 103 53 67 107 160 105 191 41

Total makespan: 42

