15
15 96 35 23 19 18 36 146 88 61 195 22 16 186 130 47
10 15 164 43 86 67 77 191 68 111 154
15 33 150 42 181 136 1 71 116 81 75 158 85 155 199 134
14 45 193 54 174 156 55 192 69 59 178 37 32 184 172
11 163 161 78 27 21 57 128 73 66 109 173
15 79 50 99 30 133 39 24 183 4 137 87 63 149 129 25
15 106 98 76 9 60 165 139 180 56 188 142 28 153 92 102
13 51 140 122 123 148 74 182 167 3 107 93 113 197
12 185 34 121 38 176 117 64 89 120 62 190 72
10 97 48 17 95 112 7 40 169 52 157
11 162 103 132 170 80 166 10 44 6 119 29
16 101 53 126 49 147 118 108 135 82 144 58 2 70 175 104 187
10 198 8 114 105 189 152 179 131 143 125
17 94 31 127 141 5 159 160 46 177 84 151 115 26 124 110 171 83
16 90 12 14 100 41 11 20 65 91 0 145 168 138 13 196 194

Total makespan: 109

