10
18 50 98 95 129 16 90 74 178 51 23 170 77 35 13 126 112 44 142
19 183 94 150 0 89 198 146 34 101 17 71 24 33 195 135 159 108 19 136
22 145 134 58 152 118 139 163 149 70 113 169 10 125 122 86 120 190 18 80 111 151 43
20 140 79 197 39 2 179 154 83 65 29 55 42 148 172 5 69 184 153 49 40
21 181 182 194 158 66 28 191 12 38 130 8 37 117 68 64 176 100 4 121 56 45
21 106 160 168 60 165 137 138 73 105 22 144 96 188 92 103 14 67 162 15 3 104
20 88 171 196 82 143 9 174 72 7 166 76 114 25 116 57 102 78 59 20 53
18 99 187 109 6 36 52 175 11 119 123 186 84 91 141 107 54 31 128
22 156 131 189 48 81 167 199 110 177 26 124 1 147 155 21 164 161 47 32 185 93 133
19 30 87 127 180 62 173 75 27 132 63 41 46 115 61 85 97 157 192 193

Total makespan: 324

