30
6 107 45 97 1 178 126
7 51 46 172 12 116 84 168
5 144 137 180 197 36
8 122 82 104 43 53 173 69 70
6 79 18 194 59 37 156
7 25 147 55 113 187 5 20
8 39 145 57 110 153 95 99 49
8 140 94 163 199 102 13 118 68
8 2 190 181 115 152 16 72 151
5 160 92 159 81 177
6 149 91 133 29 128 80
6 157 11 189 198 96 93
6 174 170 141 195 121 117
9 40 66 100 71 22 44 167 191 139
7 114 162 171 73 61 63 35
6 4 27 0 34 26 42
9 176 143 58 124 85 60 14 138 169
5 30 8 56 183 185
5 50 120 127 188 130
6 105 15 186 142 182 106
9 134 111 3 67 47 31 83 7 19
7 161 135 17 132 119 98 175
8 65 155 28 75 48 76 184 88
6 33 179 123 146 109 10
4 136 103 6 165
7 125 129 78 86 21 74 101
6 196 192 108 164 77 23
8 64 148 32 41 62 131 24 87
6 150 52 90 38 193 89
6 112 54 9 154 158 166

Total makespan: 79

