10
21 61 42 67 4 158 99 177 118 172 168 100 134 31 83 179 108 45 180 33 79 162
19 174 13 54 188 185 6 24 11 116 191 57 70 145 93 157 18 184 32 50
23 119 53 106 5 92 175 74 52 165 96 112 197 195 114 149 75 159 135 128 101 115 169 97
19 110 12 40 15 10 59 143 91 68 141 0 187 111 139 144 43 9 22 87
22 153 147 171 121 124 90 8 41 140 60 17 104 102 95 28 76 39 113 48 37 7 199
19 164 160 35 130 183 133 88 152 66 148 161 198 46 23 2 155 123 154 77
21 85 84 29 136 63 138 125 80 178 105 170 151 16 69 65 193 137 98 71 194 64
18 176 127 1 132 89 103 36 192 163 146 82 21 26 189 122 142 34 62
17 81 86 190 129 20 126 156 47 27 72 51 73 14 150 182 173 19
21 166 181 186 58 30 78 117 49 44 55 120 25 196 107 56 3 131 38 109 94 167

Total makespan: 261

