10
23 165 15 52 147 135 121 195 33 134 38 34 171 177 196 77 184 159 27 198 56 48 146 25
23 96 60 158 10 39 74 95 6 138 113 49 54 92 17 136 123 3 88 75 53 115 117 83
20 151 73 180 102 132 137 172 5 70 140 194 193 189 154 79 110 85 55 155 179
19 13 128 181 16 9 126 182 18 166 122 26 4 12 118 186 127 191 192 106
20 169 109 150 45 197 149 175 114 112 76 71 82 168 42 141 161 64 69 111 156
19 68 72 11 145 157 7 41 103 19 183 162 99 51 65 119 40 100 174 31
20 24 144 86 63 108 0 133 43 129 120 29 22 131 37 199 90 59 66 130 81
22 101 58 167 176 62 107 32 61 30 57 143 185 36 97 160 116 67 98 46 1 148 187
16 104 89 87 8 20 23 163 91 47 28 170 78 124 84 80 21
18 50 153 178 164 190 152 188 142 93 173 2 125 94 14 139 35 105 44

Total makespan: 267

