10
19 24 162 57 151 8 143 117 16 116 65 9 10 44 60 34 136 118 3 150
17 80 195 128 132 69 92 96 155 123 32 81 121 175 122 51 23 158
20 59 193 72 40 14 152 42 30 129 157 84 130 75 190 153 140 4 62 90 198
17 18 169 48 139 2 50 163 127 89 99 164 104 31 79 55 182 131
25 83 191 39 114 178 134 25 181 101 165 112 61 64 35 37 185 67 66 12 78 41 119 149 20 160
22 11 167 97 102 113 108 148 98 192 71 91 159 19 56 5 176 43 137 154 166 184 142
21 173 161 196 52 74 0 110 22 188 115 53 141 145 27 77 93 63 135 171 105 172
20 76 54 46 156 144 183 45 180 187 186 120 174 26 107 95 85 103 6 38 82
19 111 189 88 170 70 146 73 138 58 87 28 177 68 106 7 21 94 100 194
20 197 124 168 13 49 1 109 36 29 33 179 126 86 47 199 133 147 17 125 15

Total makespan: 336

