25
8 23 70 170 143 117 121 66 114
9 111 83 185 144 79 131 99 125 161
10 57 38 104 105 108 196 45 28 172 26
8 156 154 50 33 142 137 49 30
8 147 106 177 180 149 61 64 91
9 73 62 34 134 152 133 29 171 174
8 59 88 139 126 43 158 63 148
7 151 153 40 54 183 27 179
7 92 181 184 162 31 46 197
9 165 163 150 35 94 166 141 124 130
7 168 96 119 72 10 173 97
8 41 110 69 102 6 71 155 22
11 75 89 159 80 14 169 100 146 123 145 60
7 3 74 191 135 122 12 120
7 95 56 136 18 193 44 160
7 37 8 138 11 132 109 16
10 186 2 52 87 68 175 113 1 65 103
7 17 182 164 118 32 25 20
8 194 199 19 93 187 81 82 116
9 129 24 78 9 0 112 115 55 15
8 53 5 128 190 7 85 67 86
5 90 127 188 48 42
6 39 84 51 178 98 76
9 21 192 58 4 157 47 36 77 140
8 195 13 101 189 198 167 107 176

Total makespan: 49

