15
10 40 32 91 127 185 30 25 72 53 199
15 17 164 79 38 51 121 10 88 165 92 103 175 94 15 60
12 57 113 184 84 23 181 125 29 44 137 149 49
16 28 22 46 173 144 174 59 179 4 176 192 87 145 82 182 120
12 16 9 102 78 83 80 71 0 170 5 50 198
17 96 74 133 180 35 129 171 47 136 12 140 45 73 163 54 111 101
13 56 148 126 77 141 197 160 152 7 168 95 191 100
12 134 36 138 131 132 76 104 70 14 124 161 187
12 172 190 66 166 1 85 112 119 110 37 8 115
15 34 2 11 20 42 93 89 151 31 196 62 117 61 98 86
12 122 64 58 26 67 178 177 135 24 27 41 162
12 43 114 65 157 169 55 128 156 159 154 48 147
14 106 167 186 153 109 116 13 39 6 99 188 118 21 158
14 52 139 33 142 183 19 68 123 3 108 90 155 150 143
14 63 195 189 193 81 130 194 107 97 105 18 75 146 69

Total makespan: 145

