20
14 53 19 185 41 160 94 61 38 71 193 51 194 188 11
8 173 88 143 158 157 89 13 167
12 176 92 174 79 69 178 37 76 4 25 66 139
9 134 44 101 165 184 121 115 70 141
15 67 77 72 151 169 95 189 26 187 179 100 0 9 85 42
11 111 150 142 46 87 164 124 109 154 130 195
11 97 181 47 171 5 64 186 136 39 199 144
8 108 183 152 148 6 78 119 112
8 128 163 50 190 140 145 20 18
7 43 161 54 159 129 110 27
9 175 21 35 170 36 135 22 153 16
11 33 118 197 60 29 182 1 122 65 63 106
10 73 86 90 191 40 107 155 23 113 2
10 68 45 81 98 146 62 138 49 131 147
8 82 116 74 48 133 34 127 32
10 10 137 59 30 31 99 55 198 180 123
10 156 168 132 105 166 28 84 196 91 8
7 177 3 58 162 7 125 14
11 75 103 57 12 96 24 172 102 117 93 15
11 192 17 114 149 52 126 83 56 104 120 80

Total makespan: 72

