15
16 86 148 174 140 93 69 0 91 182 79 117 116 80 28 189 10
12 156 177 34 38 5 162 96 114 115 171 152 59
11 30 54 27 16 44 196 64 3 99 147 158
12 129 183 14 188 43 89 15 50 127 22 103 32
12 111 187 141 178 53 63 6 100 8 104 179 131
15 23 113 31 110 95 170 25 67 119 83 47 46 42 176 136
10 154 191 68 2 36 145 24 164 98 163
11 150 139 73 105 112 20 51 128 173 49 126
15 106 124 4 151 39 194 198 81 58 35 137 120 41 118 84
16 60 144 56 77 180 21 17 165 169 52 12 70 13 62 121 193
13 160 7 161 186 48 175 190 130 167 184 192 94 45
8 134 71 87 82 97 166 78 195
18 66 168 18 108 153 11 9 123 102 199 197 159 57 90 135 133 76 146
15 65 138 157 149 55 107 40 185 19 181 85 1 88 132 142
16 72 125 37 109 75 92 143 33 74 26 172 101 61 122 29 155

Total makespan: 183

