30
9 29 110 170 32 44 33 160 77 139
7 31 102 43 176 86 56 130
6 120 156 109 190 168 69
5 191 148 129 60 181
6 172 157 132 91 145 195
7 186 187 136 152 37 46 169
7 61 81 165 67 63 12 125
6 73 182 13 38 167 124
8 161 58 189 173 83 193 90 192
7 17 95 6 49 108 98 64
7 104 122 137 2 16 147 62
5 87 34 70 188 85
10 199 115 97 171 93 174 144 106 72 66
6 112 126 197 159 143 5
5 65 3 15 117 185
7 24 134 30 79 123 68 0
7 133 198 89 40 4 196 194
10 107 7 154 20 78 11 26 36 96 113
5 45 25 88 121 21
9 162 140 101 51 84 163 127 48 18
8 23 80 59 47 82 105 103 118
5 164 53 22 74 99
6 41 178 184 14 9 151
6 155 116 114 71 76 150
5 175 179 146 1 177
5 50 119 131 92 166
6 19 138 111 153 180 183
5 100 55 28 94 141
9 149 10 42 128 54 27 142 39 52
6 135 8 57 158 75 35

Total makespan: 60

