30
6 155 31 119 112 199 38
8 13 115 184 129 132 21 185 100
7 17 113 106 187 59 36 91
8 82 79 96 72 67 102 156 3
7 166 121 145 125 157 109 133
8 78 52 62 87 14 169 194 16
6 9 114 63 75 56 172
9 154 49 71 150 197 116 193 41 164
7 24 70 92 127 28 44 174
6 68 27 146 1 85 60
6 29 147 179 144 76 89
5 168 65 35 134 110
5 22 162 90 23 137
7 93 40 32 73 84 195 140
6 37 39 80 0 182 160
7 33 167 8 183 2 81 50
6 43 111 178 126 186 83
7 159 51 141 171 15 128 163
8 138 180 48 7 58 148 188 191
5 181 34 143 108 19
8 151 142 45 158 177 131 105 64
6 173 124 88 25 97 4
5 176 103 196 104 18
6 54 74 198 118 42 135
7 170 53 12 136 161 130 10
7 123 98 5 47 153 175 165
8 152 86 20 122 57 66 192 30
8 61 99 107 189 6 190 95 55
7 69 26 11 117 149 94 77
4 120 101 139 46

Total makespan: 36

