30
8 5 16 56 136 118 42 90 33
6 119 137 9 150 156 195
4 58 122 61 183
7 132 162 125 48 191 6 18
6 29 199 161 87 170 179
7 158 67 79 64 176 186 74
8 53 70 11 22 84 46 10 19
7 106 152 108 164 168 126 60
9 103 189 44 21 181 96 177 165 138
8 131 36 149 100 174 50 75 85
9 86 190 147 27 169 0 163 144 104
5 193 182 188 110 198
7 159 20 28 3 14 57 93
7 173 128 102 133 55 180 63
7 30 59 171 109 178 37 15
8 196 146 91 166 2 76 95 134
6 113 153 73 77 32 41
6 88 105 154 26 72 94
6 98 194 24 51 7 127
6 92 185 82 52 69 65
7 54 25 141 47 123 115 148
6 116 129 145 78 155 140
7 4 83 49 35 175 187 31
7 12 120 68 111 143 117 192
6 39 121 23 112 142 34
6 184 89 81 97 13 99
4 40 1 62 130
7 101 124 157 160 197 114 151
6 17 139 172 80 71 38
7 135 167 66 45 43 107 8

Total makespan: 59

