10
21 65 89 29 166 109 123 70 68 35 111 48 66 122 178 44 67 30 31 107 197 61
24 90 1 27 59 157 52 95 51 115 32 96 42 172 148 99 113 129 4 198 145 156 78 165 26
24 140 3 100 169 193 138 118 73 177 63 9 80 144 12 164 72 125 81 183 87 167 173 124 22
19 5 34 117 23 40 36 150 58 76 159 192 171 25 161 97 195 75 84 88
18 47 74 181 18 191 83 199 180 43 188 14 102 137 127 71 141 158 91
18 55 11 69 147 119 45 0 10 77 128 54 132 6 139 135 130 15 163
19 16 153 33 101 185 155 85 142 108 104 60 86 53 176 98 160 110 57 93
20 116 154 179 189 121 133 46 194 41 190 49 92 37 112 56 103 126 7 146 8
20 184 162 170 114 17 64 94 82 186 134 174 136 62 120 187 168 143 196 20 106
17 152 105 24 19 175 21 50 28 149 79 131 2 13 182 38 39 151

Total makespan: 224

