20
13 96 87 158 57 130 133 135 157 69 84 172 181 26
7 99 161 100 167 120 182 28
8 0 97 5 56 141 111 4 59
9 144 145 80 175 108 164 81 1 27
10 77 88 154 85 20 153 148 134 177 17
14 92 122 106 140 2 41 194 173 14 103 191 75 58 35
9 146 166 183 155 128 32 72 156 89
10 185 162 44 76 137 62 16 47 53 117
12 189 109 179 125 142 24 113 129 66 74 136 159
10 67 193 196 152 39 25 163 19 126 147
10 115 118 43 170 131 86 114 23 102 123
9 198 121 65 48 187 8 160 174 40
12 169 3 98 61 139 33 73 29 31 192 55 15
8 30 184 71 138 197 112 110 168
9 18 45 186 116 42 95 37 51 180
11 190 199 7 94 127 143 107 12 34 21 68
10 104 6 83 149 90 91 36 82 176 46
8 9 70 132 150 10 11 60 78
8 101 93 124 49 151 165 64 188
13 178 79 63 13 50 52 195 171 119 54 105 38 22

Total makespan: 134

