20
13 113 59 97 145 17 36 193 197 122 198 163 78 19
12 188 40 148 165 27 55 111 147 62 7 46 143
9 0 186 183 38 88 140 101 158 63
10 6 151 5 93 85 179 75 129 91 144
10 124 73 125 35 86 159 81 80 107 137
11 196 79 67 92 34 191 53 1 176 190 20
7 134 8 160 18 174 117 42
10 37 115 131 128 153 120 121 149 194 54
9 10 167 44 136 184 175 12 76 22
7 171 89 68 50 168 180 164
12 162 3 126 133 177 23 13 26 185 65 16 84
12 24 154 51 102 39 139 187 33 30 170 109 48
8 58 60 105 161 182 25 108 29
9 103 96 21 114 14 43 83 87 70
10 166 130 11 152 69 71 135 192 195 47
10 189 52 116 61 95 74 49 104 66 90
13 72 110 156 169 119 138 77 57 142 99 127 123 32
9 45 4 141 157 106 112 64 199 15
10 146 150 82 178 31 172 94 9 155 100
9 56 173 98 132 118 2 181 28 41

Total makespan: 73

