30
6 67 136 159 154 96 173
8 189 183 14 194 163 82 53 62
10 152 37 97 45 186 108 185 157 93 141
6 51 71 90 188 184 42
6 61 106 167 128 100 34
7 57 153 133 121 91 132 105
6 92 122 4 55 187 150
4 66 8 139 107
5 164 129 28 60 197
7 50 160 130 110 25 140 16
8 199 48 47 19 115 193 24 127
7 74 78 120 58 79 73 56
7 103 64 111 33 3 46 31
8 109 161 18 169 138 178 181 7
8 190 149 30 76 175 198 135 87
6 177 172 10 174 113 165
5 83 114 101 137 41
6 32 98 63 192 124 65
7 77 117 144 84 176 116 155
9 182 52 146 1 85 191 95 151 12
8 180 125 59 0 43 35 13 89
6 131 112 156 68 99 9
7 166 21 162 40 38 44 86
7 119 94 72 88 15 54 20
6 104 26 22 27 81 179
6 6 5 29 11 80 23
8 196 170 36 126 147 2 70 102
5 39 171 49 118 145
6 142 168 134 195 148 123
5 143 158 17 69 75

Total makespan: 81

