30
9 25 32 36 184 199 156 39 134 83
10 123 130 15 194 190 110 108 48 100 9
5 104 106 193 53 57
6 185 101 10 80 65 50
5 2 62 198 195 124
6 19 138 171 24 77 42
5 157 21 86 88 176
6 183 181 180 23 118 73
7 13 137 166 17 149 69 120
4 140 148 161 90
6 58 0 114 174 81 117
5 61 38 122 22 34
7 154 82 131 60 152 97 41
6 55 125 52 159 116 178
8 132 186 14 197 164 95 4 173
7 158 165 84 27 139 54 71
6 28 115 79 98 85 1
7 45 5 188 192 128 37 49
5 44 30 87 59 179
9 129 99 151 29 109 143 142 127 133
8 93 102 163 76 6 121 56 175
9 74 68 43 31 70 3 89 46 33
7 144 94 191 135 72 35 113
6 8 126 162 105 75 92
8 18 168 111 47 187 7 16 141
6 136 20 119 196 169 145
3 153 96 177
9 11 170 182 147 51 146 64 26 167
8 155 40 78 172 150 112 12 63
7 103 91 66 160 189 67 107

Total makespan: 43

