10
21 180 27 99 185 162 190 87 115 55 31 68 57 65 79 155 172 150 22 124 70 166
19 98 195 165 83 158 194 66 108 58 40 135 131 168 92 192 29 43 156 174
24 128 36 170 0 25 14 24 77 109 5 110 78 50 93 64 85 38 198 52 173 91 21 186 89
22 104 56 121 2 33 197 63 129 142 75 193 140 133 126 23 181 46 9 16 42 8 113
21 80 76 74 175 3 169 167 107 96 117 100 188 138 19 127 171 177 125 53 183 153
16 54 51 97 39 61 103 149 18 154 49 10 137 116 144 72 73
16 147 161 164 4 71 86 130 151 118 35 136 182 189 112 184 81
20 69 101 123 196 13 143 178 111 199 146 82 95 145 163 48 105 17 45 62 90
22 119 26 7 44 1 37 47 60 120 6 28 106 132 176 12 160 88 84 30 159 41 141
19 114 32 34 11 122 187 148 139 102 152 15 67 191 94 157 59 20 179 134

Total makespan: 323

