20
9 55 152 120 4 78 7 151 60 29
10 103 45 159 121 96 130 141 1 59 104
14 21 25 133 97 146 124 77 109 61 32 76 0 65 186
12 39 110 196 125 9 100 24 16 131 49 37 112
6 74 114 51 191 189 14
11 128 85 149 132 99 184 26 83 156 47 82
11 188 31 176 116 33 105 30 2 63 5 3
10 187 145 175 142 91 15 161 117 166 42
11 93 36 22 197 54 137 168 170 111 162 155
11 143 101 195 139 50 35 44 98 41 58 113
10 169 123 126 122 23 180 135 185 87 71
7 102 19 172 127 198 88 138
11 81 11 92 119 182 147 163 67 17 79 64
8 190 86 56 173 94 106 129 107
10 8 150 115 13 68 18 40 80 108 89
10 134 73 140 53 118 27 199 192 38 144
11 69 177 46 174 167 160 72 164 171 95 90
10 153 158 181 165 66 193 70 48 157 28
9 179 148 62 52 84 183 20 43 75
9 57 136 154 178 34 6 194 10 12

Total makespan: 133

