15
14 142 70 60 134 178 130 35 13 29 20 36 156 114 192
13 24 181 197 174 38 163 62 61 84 129 166 90 177
14 91 54 32 164 3 50 7 146 123 71 182 34 89 92
12 31 41 167 127 107 51 8 119 137 136 150 157
14 96 133 9 128 69 21 82 152 0 135 56 66 155 116
12 17 22 194 99 83 173 109 26 185 95 125 147
13 190 139 179 153 53 81 168 65 112 79 108 176 124
11 49 148 118 158 25 87 75 161 160 6 93
14 196 19 73 140 23 187 97 169 145 110 159 1 101 68
14 64 78 151 14 189 76 117 106 126 37 199 72 143 5
13 154 141 115 77 165 113 39 121 162 2 12 16 132
15 27 47 104 58 149 103 40 28 111 15 138 183 180 30 18
13 198 175 88 59 100 85 122 74 63 186 171 170 191
14 43 193 11 10 42 86 94 120 55 45 105 195 98 52
14 4 188 102 184 67 144 44 172 33 48 46 131 80 57

Total makespan: 189

