20
10 134 143 112 139 65 160 133 41 128 9
11 123 17 182 148 196 155 189 8 191 60 117
13 53 185 12 144 161 113 181 197 49 11 167 73 27
10 179 91 71 77 100 175 44 162 165 103
10 156 97 30 158 62 104 64 31 34 169
9 163 166 45 75 19 54 40 16 74
8 180 127 136 29 69 51 93 26
11 18 52 187 116 57 101 159 173 149 108 67
10 20 58 137 147 150 7 132 153 119 90
9 89 131 50 25 14 122 68 164 152
7 0 4 193 177 78 107 6
11 102 85 106 24 61 109 87 95 92 84 96
12 32 120 43 1 188 171 199 198 13 125 82 36
10 80 110 121 35 192 114 38 70 176 59
10 83 63 56 15 88 168 94 174 138 28
11 37 118 72 33 157 5 2 141 21 115 79
10 99 154 126 170 98 194 47 3 48 42
9 105 86 178 145 190 151 55 140 146
8 172 66 23 186 81 130 183 111
11 184 195 124 142 39 76 135 46 22 129 10

Total makespan: 68

