15
15 66 13 29 178 39 134 142 70 60 154 4 20 36 156 114
13 174 147 163 62 2 84 129 166 21 61 139 90 177
13 146 103 71 82 50 34 91 54 32 164 56 92 94
12 165 157 127 107 51 8 119 137 40 136 150 79
13 155 116 95 123 172 132 152 0 96 133 9 24 38
15 3 109 26 185 83 128 72 195 125 85 17 22 194 99 7
11 131 68 108 176 124 184 179 15 73 153 63
9 162 161 160 6 93 148 118 158 80
15 196 19 182 183 190 75 97 169 170 23 187 110 159 1 101
17 16 41 64 78 143 151 14 181 37 199 189 76 117 106 126 193 31
13 52 197 141 115 77 113 43 53 130 87 121 12 102
14 138 180 30 104 149 192 167 173 69 27 47 140 28 25
13 65 122 198 175 88 59 100 186 171 33 191 81 67
13 11 10 42 86 18 49 89 5 58 45 120 55 98
14 57 168 144 44 105 35 112 145 48 46 135 74 111 188

Total makespan: 194

