10
20 78 36 8 62 63 135 45 32 144 139 145 30 177 109 170 108 143 162 38 91
22 198 47 97 5 95 187 128 115 110 185 168 172 15 197 88 174 50 160 27 125 136 126
20 189 93 31 196 130 131 10 183 22 199 56 60 142 53 111 69 101 79 190 178
18 90 70 51 179 147 122 186 99 84 43 37 164 103 118 114 188 171 20
23 132 120 76 44 54 48 25 182 64 34 21 94 166 181 29 193 2 112 138 133 106 156 6
17 148 153 98 159 33 105 80 68 13 59 49 83 82 14 102 195 58
21 173 150 127 167 16 87 113 191 9 52 66 175 7 35 75 57 4 116 1 39 140
17 55 92 89 107 61 71 137 163 165 151 85 121 12 3 41 155 17
21 161 149 117 81 141 119 86 72 100 176 0 192 180 18 40 23 157 24 152 74 28
21 26 73 169 154 129 194 67 11 46 19 65 77 158 123 104 96 42 134 184 146 124

Total makespan: 342

