10
24 71 103 90 195 113 15 97 99 199 18 68 174 67 39 134 79 123 104 77 49 81 179 164 75
18 187 144 149 89 192 96 9 114 55 42 140 40 38 151 64 147 6 180
17 156 145 20 24 10 69 34 25 70 11 157 152 37 13 95 154 112
20 184 54 106 63 122 130 116 14 128 52 102 32 58 138 160 159 35 78 50 171
20 36 191 181 107 131 137 117 135 124 127 2 12 108 29 193 143 169 94 19 7
18 88 93 190 197 17 141 85 1 183 5 98 51 172 178 53 198 194 162
19 59 126 48 73 129 74 133 27 175 105 110 155 92 125 118 30 76 142 121
26 185 101 132 61 4 91 163 82 8 100 41 28 161 115 119 83 182 136 148 196 186 47 22 56 177 21
17 189 120 153 3 166 109 45 165 84 16 33 62 72 150 176 44 167
21 0 66 60 139 86 23 173 31 146 158 46 43 111 168 26 65 80 188 87 57 170

Total makespan: 255

