15
11 191 103 124 187 139 9 88 14 27 148 55
9 69 77 186 36 6 28 161 45 26
12 180 147 174 19 79 179 138 176 74 110 4 105
10 157 84 42 35 167 86 1 68 172 51
13 0 61 11 31 92 153 135 164 2 23 113 133 199
15 76 165 91 34 75 193 189 20 181 49 118 106 73 115 25
13 143 80 162 132 154 198 159 145 52 96 134 117 129
14 38 184 85 18 99 41 190 71 50 59 29 81 136 171
15 109 197 53 67 114 163 48 111 126 194 155 140 120 24 62
12 54 15 175 5 70 169 144 121 13 83 170 63
13 64 40 146 122 178 156 195 65 95 160 101 188 12
15 7 43 37 94 151 196 128 102 22 47 93 82 152 44 66
13 8 166 90 177 108 131 89 58 60 192 57 56 17
15 98 16 141 123 3 72 149 46 32 158 10 87 142 104 119
20 125 116 39 127 168 173 182 78 150 33 97 130 100 137 21 183 185 107 112 30

Total makespan: 182

