30
5 114 46 177 38 161
9 132 192 102 73 100 94 71 181 153
7 159 25 28 195 197 34 19
8 26 125 37 67 68 24 169 17
6 44 164 86 2 175 176
6 152 105 14 109 96 196
5 123 99 140 70 156
7 88 119 91 41 142 58 32
8 4 8 69 111 15 13 128 184
6 129 106 199 151 191 90
6 141 62 22 116 146 136
6 51 173 59 165 188 54
5 45 112 49 170 193
9 147 180 11 35 198 172 154 149 95
6 130 93 72 84 174 43
7 42 53 150 107 10 56 189
5 0 80 126 158 145
6 194 1 108 117 113 18
6 166 75 65 85 121 64
5 81 163 171 36 3
4 40 33 61 78
9 187 122 31 98 21 12 104 74 120
8 39 27 133 23 162 77 57 157
7 110 127 87 92 48 7 138
8 144 63 134 66 97 29 182 83
8 186 79 178 148 52 135 190 137
7 16 20 55 168 47 76 9
7 5 50 89 167 118 124 103
8 30 139 185 6 179 101 131 115
6 143 160 183 82 155 60

Total makespan: 82

