20
9 121 132 163 84 60 130 40 35 137
11 68 73 16 8 148 89 71 125 45 122 156
12 188 61 173 196 58 124 96 184 197 153 12 83
10 183 52 195 171 182 129 180 169 134 10
10 103 114 70 166 81 88 190 155 29 143
14 120 136 50 167 116 63 23 138 99 26 162 191 36 97
10 6 109 107 91 66 160 93 25 30 179
9 41 165 14 104 178 46 111 105 187
9 82 78 31 39 168 100 147 20 0
10 118 19 127 108 140 106 158 119 65 27
12 112 64 3 152 170 151 123 199 157 181 42 128
10 69 192 113 101 146 177 154 189 24 164
10 57 94 77 13 186 150 28 193 59 22
9 85 75 18 133 67 95 198 2 110
8 185 131 11 74 176 80 92 145
9 126 141 33 9 117 55 49 51 194
8 172 62 34 86 98 48 7 115
8 76 90 139 87 102 43 159 161
10 37 53 5 17 44 21 47 79 4 15
12 175 174 54 142 144 135 32 56 149 1 72 38

Total makespan: 141

