25
7 10 57 151 90 149 174 94
8 95 63 164 26 186 175 147 11
11 197 165 172 89 120 162 28 30 99 158 153
7 111 184 1 91 104 185 148
9 48 106 37 54 194 157 115 141 108
8 79 5 36 40 9 176 117 154
10 161 12 3 8 14 129 44 53 133 84
6 145 110 19 7 183 74
7 75 107 83 21 188 132 23
9 100 38 25 0 119 173 155 88 51
11 195 50 4 144 182 138 181 97 191 193 39
6 124 45 166 15 171 199
9 16 101 123 127 61 59 134 190 55
8 78 35 103 86 102 85 143 168
6 58 34 80 96 198 116
8 71 180 169 87 6 114 105 73
8 109 32 81 43 33 167 152 140
7 136 139 13 72 46 24 65
7 18 128 92 76 156 137 125
7 60 56 31 2 118 121 146
11 113 17 150 135 177 178 192 189 98 179 112
8 22 159 68 160 142 52 47 64
7 27 163 131 82 62 70 77
8 67 196 66 93 187 20 130 122
7 126 69 49 29 42 170 41

Total makespan: 94

