10
17 103 44 191 107 1 28 163 102 11 63 48 18 32 166 73 106 167
19 105 74 165 2 186 136 193 150 86 144 113 95 101 155 37 58 6 59 98
22 127 112 72 184 89 46 162 149 29 126 7 70 75 5 154 69 12 198 87 183 114 3
20 36 185 118 8 80 189 181 31 195 188 65 132 151 175 9 123 51 42 134 94
21 164 38 156 160 33 4 82 14 137 199 110 130 177 90 16 121 21 22 140 41 17
20 10 169 119 179 129 161 20 142 92 153 67 139 197 158 116 60 190 49 0 196
23 148 146 141 93 159 78 147 96 100 168 115 187 108 145 71 83 122 30 194 43 35 180 171
21 57 55 53 124 176 64 15 62 170 34 109 23 128 97 135 111 173 133 81 24 131
20 192 117 40 13 88 182 99 39 143 178 172 47 77 68 76 45 61 54 25 138
17 27 26 104 120 152 174 66 50 79 85 56 52 91 157 84 125 19

Total makespan: 278

