15
11 137 89 138 114 121 172 28 183 77 119 88
17 126 40 184 64 19 83 21 155 148 142 7 70 185 17 67 193 55
10 16 109 141 122 46 135 15 130 26 90
13 68 143 79 169 97 53 58 92 111 191 85 140 103
14 186 45 159 6 12 189 34 50 99 56 164 154 35 168
16 117 71 134 81 198 27 132 0 32 3 39 20 100 18 147 48
11 131 188 163 190 145 104 152 36 187 170 128
18 113 166 25 179 176 171 167 42 54 177 31 127 118 199 156 33 9 30
13 133 4 5 60 59 107 182 180 10 101 51 11 181
12 29 194 124 8 160 110 161 75 153 13 41 144
15 80 178 76 125 74 57 62 61 195 47 173 14 96 106 2
9 105 38 24 65 44 115 95 136 63
13 162 197 129 196 175 87 78 22 120 72 102 23 49
13 69 37 146 73 112 123 158 98 139 192 94 43 91
15 116 108 66 150 52 84 157 151 174 1 82 86 93 165 149

Total makespan: 143

