10
22 172 177 164 193 45 108 143 109 5 3 12 78 36 61 91 71 155 32 144 139 145 30
21 192 181 95 187 128 115 110 136 126 160 185 168 49 4 38 197 76 198 47 88 199
23 22 10 183 31 196 111 140 23 73 37 15 53 69 101 79 190 178 151 131 113 93 130 159
15 117 51 70 90 114 29 26 103 84 43 142 56 184 147 20
21 132 62 59 2 106 156 6 120 195 97 64 138 182 21 94 166 133 44 54 48 25
19 82 14 174 60 102 33 105 80 68 13 148 83 0 153 98 74 65 171 186
20 34 173 122 66 175 7 35 75 87 137 150 125 16 135 52 9 58 57 127 167
15 63 104 189 85 162 112 89 107 121 118 55 92 17 165 163
22 180 18 40 8 119 86 72 27 188 28 161 152 149 81 141 1 42 170 100 176 24 157
22 39 146 124 41 191 96 169 67 11 46 19 77 158 123 50 179 99 154 129 194 116 134

Total makespan: 344

