25
8 35 93 69 164 6 56 72 50
8 1 162 55 64 129 174 126 128
8 16 97 147 143 140 37 156 196
6 30 76 168 60 194 21
10 100 3 47 193 109 95 14 114 166 118
6 136 23 5 133 176 184
8 25 157 99 27 130 170 26 138
7 198 165 48 91 150 59 74
8 183 148 34 96 28 159 173 80
9 106 24 49 115 43 39 161 160 41
10 195 149 53 90 8 94 4 58 163 155
6 112 171 36 135 182 141
10 2 44 92 152 125 151 33 9 137 175
8 186 104 145 113 71 85 88 123
9 13 188 89 75 82 54 7 45 190
7 119 42 65 67 29 108 120
9 79 146 180 17 31 122 19 185 70
4 105 178 83 0
8 192 73 158 87 132 68 181 22
8 77 187 189 46 57 117 127 11
11 199 40 131 167 139 154 66 116 98 62 172
8 52 191 101 102 144 78 61 177
8 142 169 124 107 110 38 179 18
8 32 81 84 134 51 197 10 20
8 103 15 121 153 86 12 63 111

Total makespan: 104

