10
23 189 196 77 184 159 27 110 34 171 177 121 195 33 56 48 100 165 15 52 147 135 146 25
22 136 123 3 88 75 74 95 16 115 117 158 1 191 83 53 138 113 49 92 17 54 96
19 46 193 154 79 102 132 134 179 85 55 155 73 180 188 137 172 5 70 140
20 118 186 182 108 26 4 18 166 122 60 13 128 192 106 19 9 12 126 65 127
19 197 169 141 181 175 114 112 76 71 82 168 109 150 45 30 64 69 111 156
20 198 183 162 99 68 174 31 40 161 11 145 157 7 41 39 51 90 103 119 14
20 0 133 43 59 194 81 24 144 86 66 130 63 10 129 120 29 22 131 37 199
21 57 143 101 58 167 148 116 67 61 160 72 176 62 107 32 187 149 97 185 98 42
16 47 91 104 89 38 28 170 78 124 84 80 163 8 20 23 87
20 50 153 151 178 164 190 152 142 93 173 2 125 94 21 139 35 105 44 6 36

Total makespan: 267

