30
8 146 150 103 114 112 25 26 156
8 23 31 95 185 169 142 124 155
4 58 151 30 175
6 60 20 149 167 126 119
7 9 33 28 122 187 193 198
7 99 104 17 118 160 92 130
6 36 138 154 141 19 106
5 148 38 55 12 143
4 89 129 178 4
7 98 132 120 135 59 42 179
7 90 76 188 64 171 5 192
7 48 134 194 0 181 83 101
8 13 186 180 53 165 73 164 62
6 67 79 168 70 140 27
7 72 100 196 44 172 176 121
10 22 108 191 161 145 184 131 7 152 49
9 11 85 52 16 177 174 105 91 110
6 37 81 183 80 94 14
7 78 111 2 173 77 71 24
4 87 137 133 162
7 51 125 117 45 170 139 6
6 97 66 15 65 10 197
6 136 18 123 128 21 86
8 144 34 107 50 96 47 182 199
8 157 63 46 163 54 159 115 93
7 1 32 102 41 82 189 88
5 29 3 84 158 195
7 61 109 113 39 127 40 153
9 74 56 116 35 57 68 43 166 69
4 75 8 147 190

Total makespan: 90

