25
6 62 90 91 163 16 123
9 48 149 174 60 39 133 72 110 47
8 95 73 40 105 98 118 11 138
11 199 161 10 59 124 29 82 46 130 113 121
9 45 92 69 108 34 148 53 168 143
6 151 41 85 89 154 30
6 0 139 24 111 70 6
9 157 126 152 180 36 144 99 32 189
9 116 14 158 33 137 141 145 109 71
8 187 129 26 101 63 56 37 65
8 181 153 31 67 55 120 107 177
8 171 93 195 155 100 1 175 87
10 66 122 5 76 190 197 128 94 196 159
9 117 186 185 58 83 140 167 127 20
5 2 156 96 147 194
8 15 61 125 102 35 193 170 136
6 4 13 182 12 52 51
8 184 131 38 49 142 106 86 77
10 19 25 173 18 3 78 135 44 57 165
8 191 81 192 183 97 134 68 27
10 88 172 80 132 50 166 104 198 178 17
6 75 7 164 160 54 21
9 64 23 43 112 42 146 150 9 84
6 8 188 179 162 176 119
8 103 114 28 79 115 22 74 169

Total makespan: 75

