25
7 167 149 198 26 86 19 163
9 82 78 193 87 169 62 54 17 57
9 191 109 63 153 46 42 77 64 172
11 178 12 190 157 162 100 79 48 83 32 65
9 25 185 60 6 93 123 90 138 31
8 119 1 156 2 150 71 34 74
10 89 195 183 61 15 24 70 11 22 164
8 47 91 189 23 125 3 88 127
7 133 177 98 197 13 33 7
8 199 68 21 75 66 176 102 146
6 50 16 0 141 173 84
8 108 181 155 58 105 55 179 45
6 132 14 37 27 194 134
6 36 52 69 76 174 175
7 85 136 196 20 110 124 148
9 128 186 184 160 137 154 18 152 187
6 111 56 188 101 43 145
8 5 38 126 80 41 159 117 113
9 99 9 139 97 142 114 168 44 122
7 166 130 182 170 92 147 96
8 73 171 158 180 115 4 40 112
8 94 59 116 121 192 165 106 129
7 51 140 120 131 49 144 28
9 143 118 103 107 161 10 81 72 53
10 104 30 39 8 95 151 135 29 67 35

Total makespan: 102

