30
6 37 39 142 94 194 182
8 85 97 49 24 22 78 0 129
4 191 174 30 21
8 28 83 169 52 148 66 20 116
7 92 10 36 16 89 181 93
5 124 17 159 26 108
8 137 179 156 186 34 101 119 61
7 123 187 72 176 58 185 121
7 81 163 130 168 152 60 192
6 117 105 193 14 15 25
8 62 64 140 2 183 69 44 51
6 102 4 131 82 99 178
7 40 125 54 196 87 11 71
6 47 138 111 155 160 100
8 6 63 9 190 13 199 198 188
5 29 139 158 132 27
7 166 170 18 122 135 104 77
8 45 144 55 195 197 98 1 113
7 189 32 128 127 147 31 73
6 184 42 76 56 145 107
6 68 3 86 38 80 43
10 162 146 110 114 35 171 88 65 120 157
5 103 5 57 96 161
7 79 70 23 112 84 90 50
4 175 12 7 134
8 180 154 172 143 151 46 167 41
6 67 75 91 141 109 136
5 48 149 150 53 165
6 33 8 74 173 177 126
9 19 118 59 153 115 164 95 106 133

Total makespan: 89

