30
4 119 112 175 155
8 129 132 21 13 115 39 37 100
8 146 91 187 59 36 131 64 17
8 82 79 96 72 3 102 156 8
8 166 121 159 75 133 157 11 105
8 114 52 163 53 62 87 169 194
4 113 63 34 172
7 193 48 154 71 150 197 164
7 44 153 127 60 78 24 92
6 1 67 57 85 68 27
7 76 89 29 195 179 144 74
4 35 134 110 42
6 168 162 23 137 174 38
6 161 93 40 32 84 199
8 80 0 182 160 185 109 116 167
6 33 81 14 50 9 183
6 43 111 178 126 186 83
7 128 56 141 171 15 51 54
8 138 180 22 7 58 148 188 191
7 16 49 143 108 19 31 181
6 106 151 177 158 45 147
7 173 88 184 25 97 4 90
6 196 104 18 152 41 176
6 125 135 103 145 124 198
6 130 12 136 142 170 10
7 123 98 65 5 47 165 118
9 122 30 86 20 70 140 73 66 192
8 61 99 107 189 6 190 95 55
8 69 26 149 94 2 117 28 77
4 120 101 139 46

Total makespan: 36

