10
24 125 33 113 39 136 59 38 66 168 185 15 108 95 197 40 209 144 211 14 243 50 71 6 107
23 91 189 201 31 135 56 10 138 85 150 178 120 129 230 119 208 63 4 181 163 213 101 37
28 139 212 22 62 5 128 239 106 198 92 80 166 226 151 87 28 12 115 84 217 183 7 72 137 140 42 158 58
24 223 214 90 240 233 186 111 100 164 11 83 195 246 175 109 221 79 237 179 202 61 249 2 18
23 177 247 224 227 47 220 114 141 99 216 153 165 192 205 149 41 218 75 19 118 25 174 98
23 27 60 110 145 30 191 134 116 225 0 82 9 65 236 238 16 105 54 93 1 123 76 232
20 104 68 24 103 146 23 219 89 94 207 173 190 215 245 204 52 127 229 44 161
29 155 143 36 8 187 73 21 199 159 117 133 152 182 96 97 53 69 81 180 228 193 32 35 222 172 17 169 147 176
27 34 154 29 13 156 188 242 67 194 160 20 49 57 46 112 231 210 70 78 86 102 203 132 74 3 77 124
29 122 241 200 45 248 196 244 235 171 48 148 130 206 234 51 43 55 167 142 64 126 131 157 162 184 170 88 26 121

Total makespan: 266

