15
15 28 123 208 179 26 209 188 204 113 233 220 99 92 245 13
17 170 120 153 249 74 125 156 19 73 195 107 4 159 50 150 198 218
17 131 197 138 210 158 214 191 238 192 162 181 98 148 246 2 106 144
17 135 71 129 130 166 147 141 222 178 87 205 83 231 189 67 132 211
20 235 155 35 212 203 183 219 89 86 124 52 167 202 122 43 228 58 18 239 25
18 173 161 10 68 114 110 15 40 49 64 134 164 215 109 242 23 207 47
16 82 69 11 223 216 126 230 81 45 190 163 186 84 77 165 9
17 53 224 174 90 193 169 85 79 115 108 112 78 104 137 187 0 34
15 31 96 20 146 176 60 36 70 48 121 139 119 12 54 217
16 240 62 177 88 102 44 7 236 57 247 101 105 244 61 14 1
13 226 91 127 199 38 206 103 175 65 128 41 95 248
17 32 93 200 75 171 5 8 63 194 118 145 133 46 55 237 66 33
17 152 140 27 229 30 22 160 29 17 213 116 182 117 196 37 243 227
18 157 97 16 232 234 51 241 6 24 21 56 142 180 39 80 225 111 59
17 100 184 172 76 143 42 94 151 185 72 221 201 3 168 149 154 136

Total makespan: 169

