20
12 235 134 110 195 221 16 70 242 158 87 11 232
10 203 40 180 41 59 114 27 23 149 50
14 82 175 34 133 67 226 188 28 137 89 107 80 58 238
11 12 142 165 51 136 234 151 112 157 123 79
12 187 173 140 162 113 71 164 54 156 191 119 219
12 217 10 30 128 29 209 33 96 92 147 184 86
11 84 155 228 245 97 210 186 9 105 194 22
11 36 53 17 223 190 83 44 15 207 49 159
13 231 200 45 38 24 46 63 225 161 146 135 160 239
11 74 47 177 77 243 199 178 240 90 20 198
15 78 211 131 81 237 56 55 145 52 246 154 206 169 0 21
13 116 117 93 183 94 127 244 95 62 227 193 241 42
13 31 139 100 130 3 143 118 13 5 108 122 1 65
13 76 150 7 125 176 167 152 26 72 88 14 197 115
11 220 213 43 185 121 73 214 6 189 126 98
13 39 179 229 102 233 60 168 25 249 204 103 248 111
14 69 174 216 212 172 208 18 91 109 182 35 4 153 222
11 37 48 192 132 196 138 61 148 218 236 106
13 171 64 230 2 57 170 181 205 144 75 85 247 129
17 120 215 99 166 101 8 104 202 201 141 68 224 66 163 32 124 19

Total makespan: 112

