25
14 102 231 209 62 17 44 155 208 132 81 191 26 86 67
8 37 195 19 120 128 78 100 168
11 97 23 80 234 129 125 235 241 145 130 210
11 118 15 104 9 202 28 55 236 93 124 99
11 181 211 68 221 24 115 194 30 76 153 212
9 144 108 177 158 58 188 101 38 207
9 205 59 48 52 49 163 198 232 41
9 95 224 42 89 87 142 10 74 27
9 242 169 197 178 40 248 47 161 75
14 131 105 109 69 14 134 8 25 114 152 71 214 39 206
12 33 151 2 200 32 230 29 215 183 245 189 6
8 127 135 175 138 98 172 143 92
9 148 36 12 121 167 7 225 238 244
11 218 20 220 213 156 176 117 18 22 171 3
11 126 243 136 66 65 111 174 239 83 159 137
7 77 247 35 60 13 16 107
9 180 54 51 149 63 192 160 179 140
10 223 228 31 226 201 73 217 72 193 187
9 90 216 233 162 85 57 4 227 165
12 96 170 0 166 50 203 1 53 82 249 79 45
9 64 222 184 246 91 43 116 110 103
8 139 237 157 122 21 94 56 5
10 199 164 185 123 46 106 112 88 141 11
12 190 84 61 34 219 147 119 70 146 196 229 113
8 240 150 173 204 186 154 133 182

Total makespan: 135

