10
28 58 60 25 126 185 208 162 34 95 182 144 38 22 218 160 177 42 103 32 173 140 102 197 72 176 235 146 15
26 108 81 100 147 214 26 21 33 43 120 219 101 157 48 188 199 20 17 202 63 189 180 80 27 52 233
22 226 124 246 93 187 163 7 221 128 51 172 115 151 209 183 112 79 85 104 89 70 244
27 109 152 8 184 135 228 237 0 165 69 174 123 139 71 18 193 6 55 16 234 97 203 110 155 211 59 249
24 190 77 92 238 215 125 222 167 24 143 161 141 131 216 213 170 136 247 5 225 148 11 134 37
22 231 156 127 66 207 78 117 239 68 86 210 28 122 181 236 119 2 116 99 196 67 138
27 90 164 13 142 133 223 113 107 198 168 36 206 39 166 241 191 12 50 31 73 75 243 10 4 118 195 121
24 245 232 158 212 88 40 217 82 35 56 98 83 186 1 106 220 19 178 14 64 205 154 204 159
25 74 145 30 240 169 171 84 179 3 230 248 130 61 242 57 132 44 23 96 54 91 49 62 150 46
25 65 47 175 29 94 87 111 149 41 153 45 9 192 129 229 76 224 194 114 105 137 227 200 53 201

Total makespan: 360

