25
11 229 99 176 166 204 209 96 183 59 159 184
10 216 213 169 63 68 152 86 195 107 3
7 192 91 78 97 133 28 32
9 142 247 153 4 2 7 46 74 179
8 151 144 177 21 227 205 80 130
10 118 203 168 248 92 12 224 137 167 150
12 104 193 48 94 83 139 25 17 182 126 171 81
10 242 245 208 39 196 57 52 246 148 206
10 146 128 66 100 185 67 16 27 73 111
9 13 244 175 117 6 129 119 214 147
10 156 89 35 186 26 71 45 141 181 223
13 189 65 158 79 194 11 149 24 116 120 51 124 201
8 31 88 240 220 219 230 173 75
11 82 249 217 154 37 178 76 197 145 36 84
11 38 69 155 143 221 64 228 225 174 123 226
11 10 199 131 14 238 122 187 101 20 72 9
11 163 160 33 105 218 215 87 157 121 47 165
14 210 202 98 180 42 113 127 90 0 19 135 212 234 125
11 110 115 190 140 164 23 235 30 60 243 55
11 77 198 40 170 18 239 132 56 108 112 191
9 62 233 102 8 200 34 134 15 211
10 188 103 207 241 49 93 70 136 106 231
10 50 53 232 236 41 58 114 54 43 22
6 61 222 172 44 162 161
8 29 95 138 109 85 237 5 1

Total makespan: 61

