20
14 247 182 117 29 188 242 236 135 120 175 143 204 16 138
13 160 61 192 46 84 30 193 197 240 174 54 148 45
11 153 81 115 14 201 69 184 185 221 227 97
14 85 167 171 191 147 41 141 200 22 47 212 125 225 211
11 75 136 222 64 37 137 202 94 87 27 21
11 228 124 91 55 77 205 3 157 110 198 183
14 131 59 38 179 163 214 123 217 56 233 20 220 83 1
10 101 78 249 172 5 187 112 216 154 42
11 186 24 241 100 19 146 129 74 166 35 229
11 195 226 33 127 218 244 10 107 80 51 25
16 134 194 98 181 17 144 90 63 52 96 111 76 89 118 18 104
13 126 238 206 2 48 40 151 113 231 196 189 234 11
14 58 168 207 70 190 34 39 6 230 12 158 57 235 199
16 93 223 103 128 156 106 73 130 108 176 164 246 71 232 213 88
12 95 210 65 4 36 178 152 99 28 62 0 165
11 68 7 60 142 173 50 32 44 67 159 13
9 239 79 121 170 245 150 15 180 49
12 26 53 66 133 219 209 145 31 114 86 72 224
13 8 139 23 215 203 169 248 177 109 116 82 237 208
14 140 102 119 105 122 161 92 243 132 9 162 149 43 155

Total makespan: 141

