15
16 101 74 14 226 29 186 9 43 142 112 241 32 96 137 169 210
18 64 75 164 244 17 231 182 12 190 220 65 147 168 158 126 24 229 216
12 150 80 249 225 154 85 180 38 155 60 204 63
17 174 3 37 159 115 222 175 173 170 36 247 185 27 160 179 93 167
14 77 111 10 139 152 184 48 35 151 196 124 136 171 16
17 105 15 62 208 13 205 100 107 131 133 90 97 81 67 228 53 122
19 52 240 218 123 0 191 238 163 30 71 130 135 91 1 56 219 76 70 110
15 34 138 18 192 25 108 129 99 106 181 116 149 89 26 41
13 86 145 237 195 211 59 66 23 57 128 140 206 197
18 248 31 104 47 88 193 20 73 95 165 87 109 230 50 157 72 198 21
13 94 69 121 177 61 201 33 188 172 8 42 98 178
21 49 2 51 120 44 141 221 227 207 143 215 166 83 82 212 19 40 209 54 68 55
16 92 233 234 214 189 119 246 199 144 161 114 213 156 245 102 239
20 58 232 79 5 235 236 127 117 118 153 11 187 4 194 162 183 45 103 223 202
21 146 78 217 132 134 200 243 6 84 39 176 224 46 125 7 242 148 113 22 28 203

Total makespan: 232

