10
26 105 141 29 226 44 2 94 161 98 239 143 207 197 174 102 70 64 6 200 5 124 119 95 100 38 146
25 172 0 77 46 43 87 126 65 217 58 212 152 69 179 116 1 147 134 123 155 11 48 20 53 136
22 238 61 144 12 219 221 198 244 93 8 193 97 103 135 199 68 15 138 45 51 3 213
27 240 88 169 56 111 19 170 21 192 163 76 115 223 63 203 91 167 188 162 154 50 96 191 182 177 156 245
21 55 139 241 145 237 18 222 233 194 183 249 132 216 7 178 39 14 131 125 232 32
29 228 84 101 13 118 129 204 248 190 79 81 108 235 66 206 173 82 71 157 121 195 34 166 153 31 17 99 185 22
23 142 236 211 104 26 114 33 117 133 210 231 85 24 175 41 242 148 247 224 80 57 202 112
32 10 60 234 4 243 25 52 106 218 107 90 42 186 122 159 171 30 176 180 150 160 74 59 149 49 120 215 246 140 214 47 184
23 75 205 220 151 40 189 89 137 229 209 28 16 9 164 67 92 201 227 23 113 83 36 54
22 128 225 78 181 73 86 72 27 230 165 187 196 158 208 35 127 62 37 130 168 109 110

Total makespan: 380

