15
19 143 101 189 120 167 104 229 94 203 72 205 178 175 153 184 32 0 115 190
16 208 181 36 218 80 141 138 74 92 133 139 47 83 38 28 9
16 162 221 157 234 248 226 26 197 96 25 144 85 70 119 187 111
18 100 69 63 201 51 89 110 156 122 124 95 55 223 151 196 84 243 180
15 57 148 210 52 213 5 232 207 114 50 222 13 215 237 195
18 142 27 33 90 113 194 76 61 99 65 121 227 236 118 159 183 45 41
15 14 21 212 137 19 146 244 49 170 64 152 174 108 169 136
17 219 20 132 247 8 2 106 240 66 204 126 11 129 246 46 30 235
17 176 165 191 163 22 6 53 98 228 59 238 164 16 177 216 202 102
17 220 127 242 241 198 112 150 182 35 39 145 231 199 58 209 160 18
16 103 211 200 105 82 97 67 249 23 192 12 109 42 154 217 91
15 135 75 40 88 193 81 147 245 73 239 1 77 4 34 125
15 155 86 116 172 214 158 48 173 161 224 117 166 134 24 188
18 17 171 87 186 29 60 78 149 123 79 233 62 185 7 230 93 179 44
18 10 68 225 107 168 130 15 31 56 206 43 54 3 71 128 37 140 131

Total makespan: 233

