30
9 239 52 3 162 85 103 212 66 186
8 231 149 14 183 88 132 209 228
8 57 21 117 205 208 243 141 199
9 176 74 101 234 84 18 48 110 191
6 241 248 187 133 0 172
10 185 19 131 235 95 142 53 138 200 105
7 210 214 152 198 37 51 249
7 188 94 115 129 169 68 230
8 224 98 120 156 90 154 1 8
9 42 63 165 122 125 159 192 7 213
9 167 96 100 136 135 128 123 179 64
6 178 244 75 215 79 137
8 118 45 44 189 219 229 25 56
7 202 93 144 38 240 62 40
9 173 55 12 17 22 15 222 114 218
8 211 127 67 30 163 150 204 69
10 190 182 11 166 78 195 227 102 76 2
10 139 10 113 34 147 16 221 175 91 81
8 155 50 107 160 97 174 109 59
9 6 104 197 216 206 180 32 73 153
9 41 223 226 196 145 146 28 246 89
9 33 9 151 237 71 13 164 242 181
9 29 31 86 47 112 43 245 54 92
8 23 171 140 126 157 70 203 108
8 207 5 4 148 233 225 121 46
9 26 77 161 27 58 36 143 20 194
7 158 201 87 232 61 247 83
8 119 116 124 111 99 60 106 39
11 130 72 220 177 170 80 184 24 82 65 238
7 236 168 193 134 35 49 217

Total makespan: 71

