30
7 22 133 163 129 205 242 152
8 128 38 59 52 178 46 223 40
8 224 53 125 121 149 210 138 85
8 109 26 249 235 212 166 116 41
10 225 34 195 108 73 113 71 139 88 114
6 245 231 246 181 51 95
9 110 49 31 118 137 238 32 45 211
11 148 21 202 230 127 102 7 94 72 143 217
12 83 103 37 187 115 170 58 93 144 97 180 126
4 219 132 2 107
9 90 184 174 120 101 39 6 168 99
8 243 79 190 112 165 182 177 164
8 89 33 135 42 13 189 183 221
8 175 1 84 15 194 154 204 203
10 206 229 50 158 136 236 96 28 226 214
7 232 61 179 244 197 119 17
7 141 124 218 159 185 130 162
7 64 209 247 82 248 65 69
8 43 23 29 122 30 86 239 16
10 192 216 171 5 213 151 105 222 131 220
7 234 44 98 123 147 68 3
9 161 19 186 18 56 67 233 191 10
8 36 106 207 228 47 92 111 199
9 150 140 173 153 48 63 8 66 11
7 57 201 215 196 176 24 188
6 156 55 91 155 0 157
11 172 142 80 62 74 237 20 76 9 100 60
8 27 4 14 240 70 198 169 35
9 75 77 81 145 54 193 227 25 146
11 12 241 208 117 167 160 87 200 104 134 78

Total makespan: 117

