15
20 183 246 27 236 132 148 96 150 173 179 91 218 9 118 168 16 75 56 50 196
19 72 37 19 204 102 71 47 109 249 129 32 110 227 92 36 54 175 126 114
15 223 34 78 90 165 67 125 94 239 35 112 161 156 188 52
14 201 6 210 120 230 69 147 228 60 48 43 106 2 127
11 10 235 186 164 33 103 122 28 155 30 81
16 160 99 88 238 66 98 113 61 135 217 211 158 244 225 166 31
18 11 107 44 65 45 226 87 213 224 138 51 136 26 208 46 163 233 195
17 39 176 185 240 178 14 203 247 193 82 57 64 169 152 68 207 144
17 242 171 42 104 234 177 38 3 220 95 192 105 5 23 215 123 241
18 199 100 130 62 141 151 189 212 80 170 182 229 55 205 209 79 13 20
16 15 21 143 53 232 84 216 83 142 159 180 97 0 191 12 131
18 206 202 167 128 248 49 219 237 18 134 190 200 111 121 77 119 22 4
16 137 154 117 174 153 108 145 181 139 124 222 140 184 89 221 162
17 1 214 74 73 86 25 245 194 8 24 7 243 40 172 146 187 101
18 149 93 29 58 85 76 70 17 197 63 59 198 116 41 231 133 115 157

Total makespan: 223

