20
10 165 30 122 99 125 237 93 248 59 109
11 135 242 58 220 7 199 17 207 200 132 98
14 203 20 46 87 228 68 243 235 50 137 188 194 239 164
12 116 178 148 144 149 43 221 5 155 222 83 45
14 106 9 128 233 223 104 33 190 180 15 49 27 38 216
15 73 230 226 74 152 187 197 63 173 212 124 246 96 88 172
11 26 229 77 153 61 195 141 113 51 94 126
12 103 64 16 120 138 136 169 206 118 225 0 218
13 29 196 57 47 179 84 102 95 209 62 76 42 147
12 156 154 75 205 238 234 21 121 189 129 232 107
16 14 163 67 52 69 130 85 81 240 140 13 157 208 78 198 181
13 90 32 177 150 28 1 82 241 176 86 12 97 182
10 101 36 56 166 111 159 244 115 105 91
14 202 34 40 186 66 143 65 8 247 54 227 167 71 89
14 72 25 123 48 31 211 142 23 39 80 100 236 35 213
12 193 117 70 162 175 139 146 60 112 170 231 174
10 10 114 245 6 158 119 249 151 92 110
14 2 37 11 134 4 127 3 214 55 183 53 204 217 184
13 131 79 185 168 24 161 18 219 224 19 160 215 191
10 171 108 44 41 192 145 22 133 201 210

Total makespan: 144

