25
13 103 87 119 249 117 55 47 63 241 35 50 86 232
11 147 108 169 184 209 0 160 57 46 90 199
10 161 125 39 15 144 173 100 217 218 130
12 143 227 127 99 185 5 156 49 157 95 112 44
10 56 240 145 38 9 48 83 223 233 58
10 114 65 234 74 175 60 16 136 205 172
10 243 20 182 121 101 155 189 165 102 128
13 247 219 18 28 24 122 104 212 213 200 75 228 181
11 191 195 11 129 214 34 68 89 188 79 180
13 131 140 17 98 120 220 81 70 203 115 32 59 43
10 163 53 193 179 239 92 142 33 135 105
10 207 61 62 1 85 210 73 237 110 27
7 186 149 40 134 229 71 29
9 82 190 3 238 245 137 93 211 19
8 138 66 146 183 244 2 187 197
9 231 176 64 14 21 150 222 158 216
10 30 41 7 25 37 162 72 196 31 45
12 178 77 26 52 4 91 111 84 116 235 215 248
10 118 12 88 168 80 246 204 167 8 198
11 174 96 221 67 194 126 242 154 164 97 148
8 132 107 124 177 78 201 153 206
9 22 152 208 166 171 23 133 94 151
7 76 51 226 6 202 13 36
9 236 109 224 69 230 170 113 139 141
8 10 106 225 42 159 54 192 123

Total makespan: 122

