15
19 135 103 49 229 202 20 35 206 181 199 234 203 220 242 7 13 185 59 232
16 175 1 225 224 48 43 93 116 235 23 222 79 177 19 87 97
18 166 111 130 52 218 214 91 28 24 3 113 149 226 195 205 90 104 26
13 124 247 241 36 186 83 15 9 41 39 128 182 2
22 89 92 143 160 197 156 231 114 100 72 245 63 95 152 123 40 240 37 213 45 82 198
16 84 8 167 53 212 138 201 101 127 55 118 151 137 77 42 147
19 154 228 243 62 131 193 61 189 67 4 73 30 188 133 163 169 248 164 126
13 216 176 102 136 11 16 129 207 60 172 159 98 33
18 46 119 162 120 6 96 210 174 70 173 246 148 68 85 230 109 80 25
20 179 57 21 14 81 121 237 221 12 44 244 217 204 47 192 71 180 155 178 125
14 150 64 236 187 99 66 146 140 105 194 170 34 158 249
14 56 88 110 183 211 142 144 139 32 239 0 209 191 27
20 22 134 17 115 76 238 58 227 171 54 233 184 50 196 106 29 190 117 5 132
16 107 65 94 168 51 108 38 141 161 200 78 122 153 10 165 74
12 75 69 208 31 219 215 223 157 86 145 112 18

Total makespan: 138

