15
17 200 53 209 133 170 226 207 217 93 46 171 233 202 36 70 116 160
20 84 163 120 177 88 149 205 106 247 7 223 65 234 25 80 183 221 90 27 94
19 60 68 218 129 5 100 50 225 134 26 210 155 241 21 59 112 151 230 220
19 42 245 224 240 215 14 105 212 99 41 146 87 213 238 115 20 239 44 206
13 237 143 164 194 232 61 58 196 199 97 144 219 8
19 32 161 9 78 192 24 121 67 118 153 38 203 181 75 236 158 195 174 57
13 176 16 198 6 208 178 150 140 229 126 244 19 169
14 12 185 89 242 45 63 76 30 35 131 77 145 117 82
18 154 197 40 159 49 81 189 222 167 86 214 122 243 11 95 157 47 188
16 132 152 108 33 96 172 1 54 175 74 139 52 31 141 29 179
15 103 102 10 168 138 0 64 23 39 85 15 156 246 128 3
16 125 91 56 190 182 110 79 114 173 113 13 109 17 18 62 104
16 48 166 127 2 43 216 142 98 227 201 148 186 136 4 180 107
18 22 51 130 28 184 73 235 123 92 34 137 228 72 193 191 71 248 101
17 162 66 231 147 187 249 211 135 119 55 37 165 124 83 69 111 204

Total makespan: 240

