20
11 208 232 104 110 2 243 154 59 84 127 25
11 105 9 124 169 138 201 4 20 91 193 167
14 50 76 177 159 213 179 73 109 184 237 53 171 16 44
14 52 7 62 172 170 200 241 47 202 26 24 222 227 240
14 233 142 221 98 15 178 51 182 191 158 54 187 61 216
11 246 198 174 205 45 103 64 74 247 85 199
10 57 118 175 242 78 126 146 1 95 156
13 120 87 207 83 75 68 235 123 183 203 82 93 225
18 122 42 97 6 17 181 147 33 89 67 14 100 0 13 206 106 11 144
13 226 245 135 196 185 131 117 249 49 160 244 220 149
17 66 12 228 139 145 239 194 128 188 164 189 215 134 40 197 130 55
13 38 48 116 153 163 209 248 94 28 43 165 129 140
13 115 79 224 99 143 69 107 72 192 148 63 133 8
11 23 37 90 18 166 231 80 58 92 125 180
12 10 101 229 219 30 173 70 113 96 88 155 217
14 65 195 161 35 234 152 31 22 204 151 218 210 21 238
13 137 114 121 141 112 190 108 111 223 86 32 176 186
9 71 81 211 214 150 136 41 39 102
9 77 29 157 5 212 132 36 168 56
10 162 119 60 230 34 46 3 27 19 236

Total makespan: 152

