25
13 188 9 200 220 247 114 167 162 127 168 226 30 124
10 152 31 112 98 122 66 211 71 246 212
11 76 91 134 92 38 15 242 118 189 222 17
7 239 61 146 12 104 89 3
10 97 29 109 174 107 192 210 218 159 25
10 70 157 240 83 60 55 113 11 49 131
9 195 42 21 102 93 133 101 217 173
9 180 26 182 48 248 205 172 44 121
10 235 77 221 170 228 7 13 142 151 193
6 227 230 214 59 233 79
9 43 111 225 39 62 145 108 10 67
9 72 219 106 135 88 165 47 208 137
11 156 177 130 45 176 187 8 64 144 150 95
12 123 147 52 178 20 154 155 19 36 153 194 203
10 140 132 110 78 243 245 23 34 53 125
10 74 50 18 56 237 120 234 166 33 229
10 117 57 183 129 73 197 58 87 191 204
12 41 96 54 94 169 201 6 16 207 22 37 126
12 5 161 148 32 63 46 171 0 119 175 163 103
12 196 139 181 224 216 80 75 90 14 24 85 4
7 81 51 116 82 213 68 223
9 136 209 186 236 199 40 100 28 27
11 164 99 190 1 138 105 35 185 231 238 232
9 160 143 115 215 84 65 141 198 241
12 149 179 184 158 2 69 86 244 249 202 206 128

Total makespan: 131

