30
7 219 187 205 80 15 4 163
7 46 47 59 156 223 148 149
8 2 85 96 138 9 53 97 8
6 127 226 114 137 212 166
8 225 34 181 145 153 245 108 118
11 57 182 130 99 215 89 48 43 146 35 116
9 54 113 125 207 32 162 20 192 249
10 184 7 94 152 235 58 22 151 195 122
10 5 93 144 126 180 189 239 224 52 133
6 117 246 60 33 188 38
10 95 63 217 139 90 67 174 230 120 154
8 190 101 115 42 177 164 143 186
8 11 211 221 31 87 208 244 202
9 28 84 61 1 14 191 56 175 105
7 83 206 229 50 159 196 236
8 103 141 30 197 119 17 142 140
8 240 173 183 247 102 107 124 218
6 92 64 234 201 65 69
10 132 121 109 242 170 213 129 232 6 23
9 209 81 216 45 231 222 131 220 128
8 3 88 171 44 194 75 135 123
8 18 12 238 29 27 10 233 26
7 111 158 98 79 76 243 21
8 227 91 176 55 71 161 72 36
9 106 13 68 136 82 228 110 214 147
8 248 41 203 0 165 66 155 19
9 210 172 62 74 237 100 179 86 204
11 70 198 169 112 73 49 150 167 77 199 16
8 51 178 168 37 193 25 39 185
9 157 40 241 200 104 134 78 160 24

Total makespan: 111

