30
8 3 152 225 224 144 71 179 143
8 22 239 50 235 161 169 75 9
10 59 132 234 140 107 110 53 90 86 114
9 156 200 138 23 61 165 60 31 109
9 17 8 125 230 209 51 155 178 94
12 129 63 167 48 157 242 150 135 202 166 193 139
9 148 218 203 126 78 248 207 101 6
6 95 182 54 115 236 45
9 164 38 149 69 204 171 37 72 173
12 145 40 64 119 103 133 124 55 49 47 237 14
7 20 57 11 113 97 212 98
6 192 89 15 247 245 92
8 85 7 160 67 84 162 131 175
7 83 108 231 121 158 34 187
5 176 249 188 68 65
5 116 82 56 77 18
8 5 74 197 21 12 58 213 208
9 216 214 91 146 88 241 240 10 127
10 221 134 128 35 142 130 206 229 120 73
9 41 123 243 44 186 39 196 195 29
9 190 222 96 219 46 2 81 232 136
9 227 25 30 217 194 174 70 223 151
9 137 211 27 228 189 177 24 87 122
8 168 185 36 246 105 4 183 100
8 159 154 153 201 163 111 32 1
11 205 104 141 79 184 112 210 117 28 220 62
6 99 80 102 198 19 226
8 233 147 199 43 191 238 26 93
8 215 106 52 180 181 42 33 118
8 170 0 172 244 66 13 16 76

Total makespan: 91

