25
9 17 153 245 238 74 85 150 90 216
8 136 171 132 228 134 91 79 214
11 50 13 111 34 170 181 139 218 46 175 130
11 128 106 215 40 185 61 93 57 240 211 226
12 174 109 220 224 18 27 23 69 236 129 9 193
8 239 30 120 246 80 0 43 20
12 227 29 133 102 38 242 241 243 56 230 22 166
11 3 234 194 188 184 172 63 59 131 8 2
10 219 103 6 116 199 143 146 1 78 186
11 114 113 161 100 94 32 201 21 31 108 147
9 7 190 197 117 187 203 76 205 24
9 192 96 48 81 196 11 179 137 124
13 231 176 10 232 126 65 36 72 84 35 88 73 60
10 198 173 122 14 5 138 87 45 189 178
12 49 210 112 177 221 200 71 206 58 97 160 41
13 207 202 164 182 222 159 157 33 225 158 118 169 37
9 62 26 151 12 163 15 75 64 149
8 67 140 54 209 66 52 183 68
7 248 44 212 223 191 165 47
13 249 99 77 195 98 180 55 167 127 92 156 148 70
9 110 204 28 115 104 154 119 141 142
9 125 208 233 121 86 16 135 229 25
7 168 213 152 235 83 51 53
8 95 244 107 123 4 39 237 155
11 105 89 19 101 217 82 162 247 145 144 42

Total makespan: 63

