20
13 2 175 143 28 138 188 242 236 135 120 10 41 124
12 61 192 162 54 49 197 226 30 193 46 84 11
9 227 102 184 174 247 185 218 153 81
13 119 93 85 167 171 191 146 180 200 212 182 121 223
9 221 99 27 232 137 202 47 75 13
10 91 55 64 110 198 109 3 159 187 66
14 217 56 233 20 163 214 132 131 38 179 201 59 1 4
12 25 89 199 29 129 216 95 5 78 249 172 45
11 6 35 113 186 24 241 14 19 204 195 229
11 152 80 52 33 161 145 107 148 87 149 97
15 8 96 123 67 17 104 111 90 63 12 194 98 134 235 118
17 210 126 238 206 177 48 77 240 196 189 234 181 215 40 151 222 231
14 58 168 207 220 133 117 139 34 39 183 101 158 57 190
15 237 128 156 225 103 106 73 160 42 209 71 88 176 164 246
11 211 100 115 154 147 108 62 0 65 21 36
13 228 173 50 32 7 243 142 165 69 60 92 9 68
14 43 70 125 51 230 205 150 15 127 94 170 245 16 239
12 136 37 219 86 83 22 31 144 18 114 74 72
12 178 76 157 208 112 140 169 23 116 82 213 26
13 248 244 166 53 155 105 122 203 224 141 130 44 79

Total makespan: 145

