25
10 129 18 89 225 50 185 220 191 1 91
14 180 212 149 12 122 13 128 93 28 192 21 66 186 241
7 223 70 130 133 137 73 233
11 202 81 146 52 47 235 45 214 79 232 246
11 136 209 195 92 168 205 82 164 245 51 135
10 43 11 38 76 54 227 86 221 96 49
9 111 120 69 228 39 217 143 203 239
10 63 83 161 113 127 230 114 108 243 222
9 181 160 53 56 10 77 95 20 109
10 155 237 206 224 101 98 33 125 118 24
11 14 6 226 84 88 175 154 105 219 187 218
13 248 68 184 126 58 132 40 134 35 55 80 44 41
10 61 7 170 48 90 123 157 182 145 85
7 2 42 0 117 30 16 172
8 59 210 124 112 22 5 97 138
16 140 26 102 100 19 207 87 27 110 171 139 169 240 121 107 36
10 176 201 106 211 31 64 167 188 57 242
11 234 67 194 179 29 215 115 163 46 166 249
10 150 75 204 174 71 208 158 156 74 152
11 189 60 173 229 104 178 190 165 247 116 62
10 148 151 78 177 162 213 159 147 183 197
6 198 23 4 25 99 34
7 9 236 216 94 72 238 142
9 153 244 17 15 193 103 131 37 199
10 144 8 119 196 32 65 3 141 200 231

Total makespan: 59

