25
8 154 233 182 184 4 117 235 14
9 13 126 245 195 73 77 198 10 141
10 173 109 66 132 190 136 25 76 207 19
12 128 122 70 65 163 11 164 158 202 200 100 188
10 2 137 116 176 192 88 125 53 12 48
11 56 237 69 62 177 104 29 22 140 37 218
10 165 60 121 17 229 246 102 210 84 249
8 114 108 55 228 35 15 32 95
12 133 1 98 160 43 46 242 153 238 156 130 204
12 155 138 134 45 191 50 79 90 16 26 248 225
6 63 23 71 89 185 107
10 180 135 86 18 99 9 179 144 36 193
10 8 203 201 213 167 118 221 75 103 0
10 78 129 40 170 178 175 227 239 215 194
9 30 5 7 31 146 39 111 115 243
11 196 27 52 151 150 208 92 174 211 181 44
10 24 214 57 168 148 222 139 152 123 241
9 247 94 234 212 96 67 85 240 81
11 162 171 51 149 124 217 34 91 209 166 20
11 6 101 93 145 21 49 3 159 187 105 97
12 172 219 119 106 189 169 224 230 59 68 142 231
12 33 186 28 54 41 205 236 131 147 143 82 183
9 58 87 38 216 157 112 232 206 161
9 74 47 244 64 220 72 127 83 113
9 61 199 226 42 197 80 223 120 110

Total makespan: 120

