25
11 177 117 245 150 90 153 17 25 238 74 85
9 228 134 249 27 91 83 136 79 214
11 175 170 181 139 218 50 29 130 221 111 13
12 106 215 93 57 240 211 192 55 128 40 185 61
10 69 112 23 138 236 68 220 224 129 9
8 239 30 120 246 80 0 43 20
9 22 166 73 230 119 56 133 102 241
10 172 188 184 194 2 131 8 24 195 234
8 116 199 143 146 1 78 186 38
12 109 100 94 162 21 31 161 113 171 201 114 147
12 197 174 227 242 205 46 187 203 76 159 193 7
12 6 45 95 18 137 190 196 11 96 48 179 81
12 10 232 126 65 36 72 84 235 88 208 176 60
10 198 59 87 189 108 14 63 5 173 122
9 49 226 160 41 216 200 206 58 210
12 207 202 164 157 33 225 178 35 222 163 169 37
12 132 62 105 34 149 26 15 75 64 212 151 12
8 67 140 54 209 66 52 183 71
6 248 223 191 44 165 47
13 148 97 103 32 167 127 92 156 98 180 99 77 70
11 141 142 158 243 104 154 110 204 28 115 124
9 16 135 182 229 233 121 86 219 125
6 168 213 152 3 51 53
8 244 107 123 4 118 39 237 155
10 19 89 42 101 217 82 231 247 145 144

Total makespan: 63

