20
12 222 57 32 84 65 53 108 20 80 2 40 125
11 146 193 25 134 54 24 129 138 3 97 10
15 231 224 244 225 238 73 204 41 198 218 197 33 161 121 221
15 64 156 206 51 68 164 154 9 119 200 88 126 199 30 103
14 75 43 87 29 215 8 211 230 203 226 133 6 63 158
13 71 187 168 220 137 155 207 141 183 118 213 45 148
11 61 175 107 184 100 116 201 153 181 110 115
12 77 242 159 60 91 166 70 85 34 235 248 44
11 170 142 26 131 177 95 106 130 21 210 160
17 72 196 228 234 28 17 93 23 59 205 31 169 167 192 128 89 190
11 58 233 219 13 194 90 83 178 101 229 47
9 127 247 104 182 239 105 109 37 150
14 232 202 216 179 52 35 172 245 56 79 102 38 36 240
10 186 163 18 209 49 7 152 189 113 123
16 39 81 16 15 208 111 223 120 195 122 249 86 76 4 82 124
11 217 112 12 214 188 180 14 151 237 227 191
12 74 241 173 132 94 114 1 27 55 66 98 19
13 236 99 139 42 62 92 165 212 143 144 185 11 171
13 157 22 46 243 145 96 69 67 136 48 50 246 147
10 140 117 176 149 162 78 135 0 5 174

Total makespan: 88

