30
9 139 180 216 105 10 137 36 22 71
7 50 61 248 209 49 30 249
11 159 109 203 127 230 34 142 190 156 39 118
10 185 218 222 191 138 67 21 195 239 48
10 210 95 233 101 78 11 220 20 29 84
10 99 42 213 234 102 153 68 147 77 9
6 100 73 3 17 192 245
8 132 83 186 141 32 33 136 143
8 144 108 223 184 189 169 199 240
8 247 75 93 165 85 128 110 129
8 175 119 117 208 64 82 194 204
8 160 242 237 217 225 131 80 173
10 97 205 187 151 226 57 14 133 116 4
9 23 243 202 221 214 94 69 167 38
9 60 198 161 135 134 224 201 19 59
7 18 235 130 56 106 31 54
7 179 162 25 231 45 35 27
9 211 13 172 227 40 111 107 197 157
10 81 181 58 65 103 66 51 241 246 176
5 62 0 183 91 232
6 193 120 228 158 178 74
7 63 7 87 122 149 124 155
12 114 152 88 182 24 154 125 15 177 92 1 174
10 207 219 37 200 188 229 104 6 46 2
8 168 41 90 145 47 115 170 8
9 12 52 215 44 98 70 150 166 123
7 212 163 140 112 148 171 43
9 238 244 121 96 89 28 16 53 113
6 79 72 164 206 5 146
7 126 26 86 55 236 196 76

Total makespan: 107

