15
16 142 127 9 62 14 86 200 179 204 41 56 229 101 119 57 24
18 38 155 52 132 234 146 27 111 83 66 130 117 170 25 205 70 224 35
16 109 76 208 120 33 202 42 160 31 186 40 154 149 1 135 78
13 190 98 88 194 10 106 215 94 159 237 97 227 68
19 161 80 247 198 137 46 225 168 121 17 122 100 206 232 189 185 61 180 124
20 8 47 182 53 217 26 11 222 188 45 150 228 123 236 241 218 223 226 203 177
15 191 153 118 28 133 74 23 213 104 34 245 175 219 84 143
14 58 214 207 187 193 201 209 145 4 199 125 59 231 144
18 87 173 128 5 36 73 174 91 16 140 7 48 248 197 148 212 108 30
19 249 0 29 196 79 114 183 192 172 6 134 72 116 99 55 96 136 167 102
13 242 2 37 113 39 75 115 22 93 178 110 69 65
18 230 49 77 235 12 105 15 171 18 156 32 244 21 233 151 139 13 152
17 164 239 60 112 126 64 82 240 90 162 243 238 165 63 181 92 95
18 43 81 220 131 246 158 85 71 89 107 163 54 176 211 129 20 138 216
16 141 103 44 157 184 169 19 166 51 147 210 221 67 50 195 3

Total makespan: 233

