20
13 233 201 106 35 103 195 226 57 157 86 204 55 220
11 155 179 133 173 126 26 21 170 177 247 9
13 111 161 163 160 2 188 198 168 49 52 27 166 40
14 187 149 165 224 116 31 241 53 148 84 183 62 158 184
9 123 176 65 96 38 100 174 210 211
14 223 22 248 193 71 191 240 18 105 181 125 47 218 194
10 219 43 124 129 11 236 81 203 147 115
13 89 13 192 156 122 167 80 230 77 159 245 141 199
15 112 135 64 232 85 175 118 120 23 46 207 171 4 58 104
10 215 30 0 107 139 239 243 12 131 242
8 45 186 44 76 33 238 97 91
12 51 63 196 68 132 180 182 244 66 67 82 143
14 234 56 3 78 59 87 10 189 130 200 151 41 36 24
12 92 101 61 88 15 172 216 214 8 217 127 150
12 119 28 146 19 231 75 162 74 145 79 169 137
13 95 94 6 202 213 60 90 1 99 110 246 50 222
13 54 142 136 154 83 221 5 228 113 138 197 225 229
18 237 185 7 153 117 29 17 206 25 39 69 109 134 48 108 73 209 190
17 121 178 212 128 32 20 205 42 249 14 144 34 98 164 72 93 208
9 16 102 70 140 152 114 227 37 235

Total makespan: 151

