20
16 121 241 139 99 185 20 25 11 59 89 232 18 226 168 47 114
13 105 82 210 204 98 174 30 117 116 67 119 13 80
12 85 81 164 70 187 12 173 124 223 222 17 113
13 167 200 145 249 151 201 213 101 45 111 190 118 39
13 108 137 207 91 44 19 33 234 78 14 50 64 182
12 56 53 77 88 216 38 54 63 52 236 175 152
11 62 93 58 103 37 66 172 242 247 246 148
11 142 74 178 156 147 194 215 196 35 224 29
15 2 87 220 5 230 9 206 24 238 16 245 158 221 218 157
14 217 150 97 60 209 34 8 86 41 107 136 248 48 94
12 243 183 170 23 138 211 149 122 129 192 55 46
13 36 235 51 154 181 22 71 203 4 73 244 193 188
14 120 205 169 7 0 186 43 83 176 229 141 195 219 179
14 106 177 65 95 1 132 146 26 198 27 134 180 31 79
11 110 69 131 61 227 42 184 123 133 166 155
14 40 162 76 165 189 240 100 57 68 115 160 135 102 96
11 112 237 199 15 144 140 84 130 233 212 225
10 153 159 197 214 49 128 191 75 208 104
9 90 10 161 231 125 163 109 228 143
12 6 3 28 32 127 21 126 171 72 202 239 92

Total makespan: 146

