10
24 37 246 17 103 6 140 123 1 186 238 12 235 230 191 206 101 170 155 53 104 60 10 163 20
28 31 138 9 25 137 175 218 184 93 213 151 182 2 177 171 63 197 178 106 180 202 107 14 57 131 165 19 108
25 130 73 196 34 98 248 167 100 96 219 39 240 199 121 160 217 43 164 47 194 154 13 118 172 237
22 82 76 232 215 242 201 209 65 225 64 174 32 243 58 192 81 5 68 181 127 102 7
25 11 244 84 23 152 44 46 26 227 79 95 149 135 173 168 16 72 80 161 211 193 36 216 144 143
23 226 28 120 145 4 116 231 62 41 88 220 42 0 234 133 200 113 157 71 214 122 67 183
26 59 207 50 142 245 241 139 29 162 33 110 27 70 221 77 134 52 94 119 210 112 115 40 3 38 66
28 92 85 51 111 75 190 99 22 141 97 105 83 125 148 35 176 45 159 74 185 158 136 249 203 15 91 204 223
21 233 195 86 179 128 117 208 89 169 147 224 69 187 212 156 188 146 49 114 30 78
28 54 24 55 153 239 129 229 109 222 150 124 18 61 166 56 8 236 228 126 48 21 87 132 198 189 205 247 90

Total makespan: 384

