10
26 97 54 93 14 4 24 40 122 108 168 150 244 45 20 70 143 165 85 170 135 192 58 33 113 114 105
25 129 222 68 188 3 206 218 17 55 117 249 227 77 46 243 87 104 107 193 124 164 166 146 153 159
26 201 236 128 144 89 204 151 246 248 34 232 189 230 6 84 72 158 136 15 161 29 194 219 37 208 235
22 187 0 178 101 149 41 65 63 98 172 169 66 86 9 51 140 239 59 121 1 207 211
21 215 79 39 13 179 163 229 99 2 210 157 134 225 71 76 241 80 171 173 64 234
24 7 237 52 18 78 112 26 167 126 43 224 156 48 148 132 90 160 8 247 22 184 205 94 190
30 176 154 10 56 96 31 50 5 60 228 145 216 19 202 111 133 141 183 102 61 28 119 73 25 130 38 67 109 69 175
23 92 42 191 231 75 95 30 11 203 49 212 238 217 177 118 103 214 23 82 162 139 213 155
26 245 240 125 100 233 137 220 83 242 115 181 197 62 47 53 32 120 209 223 142 36 195 180 186 127 12
27 27 226 174 138 91 185 147 57 21 152 110 182 81 88 200 199 196 221 106 123 35 74 198 16 44 116 131

Total makespan: 382

