30
9 187 47 26 16 73 114 108 196 172
8 68 20 209 113 236 185 60 181
7 70 67 38 244 213 239 110
5 127 240 232 79 245
7 206 90 146 28 125 128 167
10 124 83 10 39 34 104 42 227 11 112
10 37 205 55 173 202 165 33 58 136 123
9 199 161 214 106 224 102 154 203 30
7 208 2 242 76 223 164 96
10 99 163 64 142 132 59 49 160 210 6
6 179 225 175 117 51 27
10 140 183 18 211 143 188 169 216 1 17
6 43 31 122 15 168 53
11 101 72 91 19 100 200 148 69 159 44 74
8 147 177 86 82 197 152 13 94
6 12 153 46 141 191 4
10 7 80 97 78 243 135 166 157 189 92
11 162 194 144 75 71 66 105 111 84 87 130
10 57 41 93 32 126 138 198 62 9 35
9 129 40 176 247 192 212 221 98 186
7 22 139 116 81 131 89 8
9 226 21 156 24 241 133 218 48 29
9 88 222 107 85 3 25 249 23 120
11 134 151 119 219 174 150 109 65 230 229 54
8 63 178 36 193 215 180 0 237
7 52 118 217 195 149 95 207
6 5 246 158 201 234 228
9 145 77 56 115 50 14 103 61 231
7 204 137 171 233 220 235 121
8 238 155 248 184 45 182 190 170

Total makespan: 97

