15
10 165 146 73 153 232 223 217 228 79 107
18 52 175 99 111 100 15 190 183 50 139 168 84 0 88 47 5 131 42
14 69 224 205 143 208 46 216 180 106 19 25 114 237 43
19 249 142 202 23 212 124 11 76 110 129 74 44 62 191 105 215 128 35 149
18 34 134 96 60 204 203 239 234 174 171 83 93 246 82 243 155 242 66
18 49 45 173 136 120 176 158 138 16 233 40 7 181 85 179 201 245 135
21 198 163 29 219 9 13 141 194 182 26 61 78 151 54 126 133 225 115 101 200 8
18 70 22 91 197 207 211 113 244 127 103 140 167 116 160 87 238 90 68
14 159 57 6 220 4 189 209 39 117 51 229 166 192 231
21 81 247 125 31 235 86 157 152 37 184 108 24 187 102 144 55 59 196 67 150 122
18 80 95 236 2 241 195 172 188 240 17 58 36 145 185 148 177 97 41
15 109 119 27 169 227 14 206 92 218 1 53 226 77 30 3
18 221 12 89 112 65 104 72 193 32 230 121 156 98 20 162 161 213 170
11 137 28 64 164 248 56 214 130 178 33 71
17 132 199 21 10 154 210 18 63 222 75 38 48 147 118 94 123 186

Total makespan: 138

