15
14 10 187 156 37 181 161 27 41 199 47 230 169 147 83
18 129 131 216 3 111 139 49 95 60 12 226 11 39 127 249 123 142 50
14 66 43 194 235 209 65 84 154 203 20 97 189 108 89
19 29 120 107 238 168 145 9 162 100 7 44 48 136 77 13 240 206 150 93
14 138 137 183 6 237 22 140 18 59 176 82 31 172 195
17 215 98 207 25 149 61 40 35 79 30 96 214 32 76 2 184 36
15 133 241 4 173 126 160 217 146 164 104 86 221 153 135 163
17 204 229 151 73 243 57 219 119 220 193 222 182 42 158 99 14 92
18 114 75 121 159 245 143 212 15 232 102 68 248 105 236 170 228 112 46
19 58 205 201 125 180 94 85 113 21 103 165 191 186 23 101 175 155 122 62
16 88 174 231 152 87 246 71 72 109 247 157 110 128 200 53 78
15 188 190 54 198 8 24 224 45 244 80 26 106 38 213 69
17 130 192 81 124 115 234 185 167 178 17 51 218 118 197 227 64 1
22 179 148 132 63 134 211 34 210 52 16 242 225 117 0 55 239 5 141 70 74 171 28
15 144 223 33 67 19 56 233 166 91 208 116 196 202 177 90

Total makespan: 210

