15
21 135 232 234 203 220 35 206 181 242 7 13 49 131 185 207 229 202 20 103 217 59
14 222 79 177 23 224 48 87 97 215 93 116 235 175 1
18 166 52 218 214 24 3 113 73 28 91 226 195 205 111 130 90 104 26
14 129 83 36 41 39 221 223 247 241 15 9 128 182 2
20 213 92 143 160 100 72 245 50 89 82 198 240 199 40 156 231 114 123 63 45
17 151 137 77 138 201 101 57 127 55 84 8 167 53 51 118 42 147
19 154 228 243 30 188 62 4 67 5 133 163 193 61 189 169 248 164 126 37
13 136 11 16 159 98 102 176 225 216 184 33 68 172
20 46 236 14 212 96 80 25 186 119 210 174 70 173 246 109 85 230 162 120 6
21 179 71 180 155 125 149 60 12 44 244 204 47 192 161 21 178 95 121 237 106 81
14 43 187 64 249 183 158 99 66 146 140 105 194 170 34
13 197 211 88 110 142 144 32 239 0 209 191 27 139
17 22 227 171 54 233 190 117 124 76 134 17 29 58 148 115 238 196
16 122 153 10 165 74 132 78 200 19 107 65 94 168 108 38 141
13 157 86 145 112 18 56 69 208 31 152 150 219 75

Total makespan: 138

