20
15 187 51 158 143 9 160 43 246 53 227 100 142 117 72 62
12 239 216 168 16 65 134 35 175 127 146 92 46
13 69 164 163 151 42 162 39 89 224 6 81 167 186
9 113 40 176 18 103 106 178 244 116
12 32 112 11 110 189 155 196 247 59 136 150 212
14 169 37 13 23 203 15 97 223 38 128 102 194 230 123
14 191 249 172 207 179 90 14 214 68 235 56 21 114 24
13 120 10 232 0 209 124 148 129 137 157 200 98 80
8 226 3 149 193 58 19 2 185
10 245 240 76 242 170 75 20 25 174 121
15 234 78 159 205 202 85 64 206 210 115 87 156 138 95 195
15 86 107 52 183 166 154 248 33 190 237 173 41 61 84 49
12 181 22 36 144 236 96 47 111 7 70 26 165
9 153 55 28 220 211 12 99 229 34
10 66 145 215 140 241 77 104 233 27 108
18 171 198 208 213 1 130 197 132 221 184 133 5 82 192 118 225 131 31
11 199 238 54 141 243 44 94 60 222 135 17
15 204 188 219 83 122 101 48 57 231 79 119 67 217 29 45
13 139 180 125 201 147 74 218 63 177 228 88 109 105
12 71 161 182 126 50 8 152 93 91 30 4 73

Total makespan: 165

