25
10 191 223 33 24 76 201 172 186 207 242
13 0 212 145 129 43 1 36 40 120 199 156 228 84
10 26 85 244 44 37 241 160 65 141 22
9 113 187 213 15 101 31 23 74 102
9 198 202 235 188 73 166 11 19 112
13 116 149 135 72 32 121 143 215 91 177 87 130 114
13 138 30 173 185 10 155 220 110 25 211 29 217 162
11 230 203 210 234 190 231 39 7 152 66 55
9 196 224 27 42 165 20 95 246 174
9 12 183 61 229 182 45 208 221 17
11 150 38 46 53 157 82 96 164 47 184 153
10 243 142 127 108 176 2 167 109 123 92
9 14 159 226 192 163 68 154 8 139
10 49 225 119 88 28 3 111 35 50 194
13 75 117 193 122 86 171 209 79 125 238 161 169 175
13 236 52 245 104 70 58 144 63 71 13 41 181 128
6 59 195 118 189 240 89
11 62 94 136 133 249 147 67 103 222 168 178
10 99 90 115 97 247 5 140 146 239 170
6 151 51 16 54 180 83
8 131 107 81 158 204 77 148 132
11 105 69 21 56 216 233 106 9 126 206 134
10 219 93 197 237 232 60 98 205 6 227
9 248 48 18 34 100 4 64 218 80
7 57 214 78 124 179 200 137

Total makespan: 116

