20
10 166 235 54 85 81 236 87 3 198 64
12 186 224 174 8 190 125 9 39 112 21 88 200
11 157 94 188 109 67 160 14 142 243 51 162
19 20 138 225 22 137 13 66 247 213 244 80 158 178 98 40 211 69 95 41
14 222 185 237 171 231 227 238 10 96 62 26 17 100 194
13 176 245 92 82 114 48 12 11 74 56 150 1 55
11 220 193 152 147 246 27 165 70 223 126 75
13 108 229 141 36 50 25 44 120 228 180 216 214 172
12 201 129 130 170 104 143 45 179 204 90 110 210
12 242 37 77 113 19 183 23 72 127 121 205 197
9 68 189 241 32 61 123 202 6 18
10 58 97 156 57 76 49 191 42 16 15
13 31 175 182 29 219 118 196 140 217 35 148 203 111
14 132 115 208 52 161 89 136 192 105 86 221 59 153 164
13 79 135 163 71 144 151 122 107 60 103 131 128 46
13 2 234 212 117 233 24 230 173 102 78 181 65 206
15 168 184 232 169 34 199 7 84 149 30 154 43 73 101 145
14 63 240 133 134 209 53 167 226 187 124 106 116 207 248
12 195 91 177 218 5 139 249 28 99 119 93 4
10 0 146 155 33 159 239 38 47 83 215

Total makespan: 147

