25
9 200 167 248 149 228 60 154 169 195
11 61 246 85 51 131 9 17 105 118 127 234
10 184 10 48 179 197 199 241 63 42 99
10 70 139 132 235 52 56 33 185 73 57
11 59 142 159 89 204 225 223 136 215 116 98
10 14 79 156 30 71 124 82 232 112 172
8 239 205 210 44 115 148 13 140
8 117 180 86 88 137 202 31 165
10 203 23 218 64 54 163 206 211 50 126
10 164 3 76 91 47 151 247 66 27 157
11 138 152 187 69 207 122 22 37 40 94 92
12 93 96 155 21 35 135 80 6 141 130 67 43
15 36 198 201 222 32 226 212 244 219 4 81 87 224 1 12
7 77 191 209 41 128 45 120
8 28 110 193 78 249 0 2 245
9 242 15 29 175 121 231 173 75 162
6 34 196 240 90 133 161
9 177 19 208 171 229 192 8 129 221
12 5 166 113 83 181 119 230 189 107 25 188 58
10 237 106 111 68 65 101 144 146 103 46
11 84 233 11 38 125 147 26 227 182 178 123
8 108 95 150 74 160 97 194 158
14 145 190 104 114 7 39 16 102 100 55 176 153 236 183
11 18 238 24 143 20 62 53 243 174 134 220
10 72 170 168 213 49 214 217 186 109 216

Total makespan: 120

