20
12 231 216 235 115 243 189 81 245 23 236 221 83
9 209 139 191 114 133 27 202 186 109
12 238 106 174 146 149 42 3 97 113 48 207 70
12 46 244 26 181 103 141 57 72 31 96 10 101
11 177 1 204 21 28 36 164 104 9 239 168
10 59 135 248 75 34 16 125 47 78 124
14 118 179 85 233 232 22 30 161 18 184 246 91 49 217
14 39 110 131 152 167 171 153 193 2 116 7 69 211 67
13 142 247 237 92 33 219 108 199 162 229 119 12 63
16 163 227 196 169 126 19 13 65 87 210 188 50 158 86 160 140
11 249 98 218 150 200 112 145 8 35 58 228
9 230 100 68 206 201 80 208 32 215
17 156 241 95 154 121 89 180 127 148 192 17 120 15 107 144 62 173
12 132 60 24 214 234 102 5 77 43 197 159 187
10 54 170 213 105 20 212 74 61 130 226
12 122 52 222 165 151 205 190 56 66 224 11 90
16 82 38 242 64 123 45 99 220 182 94 195 55 155 143 225 14
15 117 71 40 41 76 223 0 93 172 194 134 147 53 88 29
14 175 6 79 183 136 4 137 128 240 84 44 166 176 51
11 129 185 198 73 111 178 138 157 25 203 37

Total makespan: 171

