10
28 124 186 144 241 248 83 53 167 195 40 123 74 213 35 80 176 50 3 166 115 191 95 122 36 7 136 219 73
25 246 153 43 21 116 147 244 55 120 198 171 75 215 42 160 63 2 162 206 4 91 148 197 99 61
31 41 182 243 212 189 16 38 133 174 203 187 47 5 79 86 87 66 156 52 150 0 199 232 201 92 78 181 107 96 237 135
27 157 216 70 238 68 24 102 205 89 85 33 117 19 30 121 200 72 161 179 88 32 45 177 202 101 247 112
26 210 76 209 208 22 132 172 222 127 25 13 178 242 119 77 211 196 97 218 57 236 44 69 194 207 214
20 54 64 82 138 39 229 183 23 108 139 231 234 114 154 140 146 188 11 230 118
26 6 10 17 159 235 103 217 164 105 130 155 98 223 239 193 18 58 48 106 81 49 152 51 110 142 128
22 129 8 137 93 168 190 109 125 165 14 84 184 173 111 65 15 67 245 145 28 204 71
27 27 158 9 12 29 26 37 175 131 228 226 141 90 60 240 46 185 34 227 220 134 59 225 151 224 180 104
18 169 170 31 192 163 94 62 126 249 56 113 233 1 143 221 149 100 20

Total makespan: 306

