15
21 20 181 133 18 60 71 216 142 64 55 99 236 148 214 206 108 28 48 24 41 176
16 218 72 69 121 16 230 7 163 242 70 10 54 51 240 174 219
15 224 117 4 52 59 222 135 249 2 113 178 61 153 144 39
15 95 150 189 1 12 91 210 33 129 11 223 212 56 67 143
18 62 239 116 31 172 27 211 77 136 13 0 154 102 50 89 183 3 68
13 190 235 152 162 140 220 192 138 104 245 244 158 76
15 179 171 35 186 187 25 107 125 44 75 19 248 196 8 201
17 167 73 193 184 14 23 92 139 38 137 169 101 111 42 205 93 215
17 197 149 156 202 65 198 234 96 115 100 228 36 45 119 124 173 15
17 132 204 32 30 208 86 168 231 226 128 203 151 191 83 105 188 114
16 82 177 17 170 145 34 109 195 227 160 199 85 217 106 87 88
17 22 175 79 90 241 37 207 155 180 98 165 182 112 6 159 43 21
15 185 164 120 237 103 161 246 134 122 126 29 110 123 80 247
22 232 157 97 238 46 81 166 63 209 26 194 40 57 53 84 131 243 146 213 74 49 225
16 47 141 66 118 78 94 5 127 147 233 130 229 221 58 9 200

Total makespan: 208

