10
23 129 182 36 106 84 209 16 157 47 110 134 249 151 128 199 180 227 105 167 121 247 32 141
27 52 113 3 12 163 195 190 241 15 120 138 212 213 176 196 43 168 9 5 67 107 211 26 158 198 2 226
26 125 101 37 87 225 243 236 239 18 28 144 53 230 147 81 29 154 115 25 77 127 215 118 11 55 245
31 218 82 185 4 23 69 162 240 74 146 103 205 189 122 50 143 137 38 61 22 191 135 246 116 68 100 0 44 203 31 21
26 170 177 48 102 228 223 24 10 234 178 216 126 142 112 119 164 62 152 159 59 114 123 139 150 49 224
21 222 201 166 46 19 155 229 73 132 193 217 88 99 93 56 175 186 237 169 76 194
23 90 192 42 63 79 140 71 78 172 153 20 156 214 34 173 179 17 104 1 39 165 148 6
25 72 235 41 91 27 124 210 232 133 187 109 160 242 54 45 80 207 30 57 244 202 98 85 149 64
20 145 181 8 231 204 130 7 75 70 65 13 60 58 197 171 174 131 188 86 184
28 219 161 96 248 117 220 33 208 221 200 183 136 108 206 83 14 66 51 95 40 92 111 238 94 97 233 35 89

Total makespan: 289

