10
27 98 105 197 177 138 70 236 143 6 200 5 95 100 209 77 185 52 239 38 146 124 119 64 2 94 161 29
24 43 87 249 11 48 20 53 136 132 51 126 65 217 58 212 152 69 179 116 123 47 134 1 147
22 238 61 190 244 135 164 144 46 93 173 45 68 102 204 221 222 193 97 103 216 141 213
26 162 154 50 96 191 182 219 223 63 218 56 111 19 170 21 240 88 104 156 245 203 91 167 188 163 76
20 183 99 39 14 169 139 7 178 233 194 199 207 55 198 237 226 215 241 155 32
28 129 171 195 232 79 81 235 66 82 206 12 248 166 153 34 71 157 31 17 84 101 13 230 22 108 118 184 228
25 224 142 242 148 172 210 231 85 133 114 33 117 175 41 62 121 192 247 205 44 80 57 202 112 24
32 49 120 229 90 106 214 30 67 246 140 10 60 234 4 243 25 107 42 186 122 159 180 150 160 74 59 149 35 3 23 176 125
24 75 18 220 151 40 15 174 211 28 16 113 83 36 54 189 89 137 8 86 145 9 26 201 227
22 128 225 78 181 73 0 72 27 37 130 168 158 208 115 127 165 131 109 110 92 187 196

Total makespan: 379

