15
21 122 40 5 18 197 193 52 141 105 59 137 112 22 33 117 45 188 151 218 237 4
13 58 72 80 51 87 84 46 106 47 125 19 61 54
15 207 230 152 6 236 109 200 43 119 157 199 164 115 108 192
12 149 210 75 239 232 124 201 48 189 150 195 41
17 97 245 168 229 76 213 194 2 183 142 101 81 12 15 190 208 163
15 91 228 49 227 161 140 129 240 217 159 17 205 153 225 146
19 26 9 10 162 25 98 82 96 216 138 28 24 132 134 234 145 113 222 94
19 181 114 167 143 204 128 3 186 154 123 93 88 57 246 120 73 20 89 247
16 166 16 175 198 62 180 90 156 14 158 172 36 65 92 224 111
20 160 71 60 169 13 179 8 85 155 63 178 242 220 53 11 0 107 215 135 77
12 66 174 121 83 226 170 231 35 130 187 34 196
20 55 184 233 38 147 202 74 32 70 171 214 203 67 42 219 30 131 182 126 79
17 110 133 50 44 212 116 21 68 211 248 69 173 177 99 148 118 244
16 191 221 23 139 144 243 206 31 27 1 7 249 102 64 95 78
18 37 39 238 241 104 136 29 56 100 86 185 223 176 103 127 165 235 209

Total makespan: 225

