25
10 34 68 63 228 67 171 88 134 62 232
8 140 145 106 45 192 115 25 146
15 92 205 16 169 52 40 48 18 149 5 73 142 85 38 55
11 201 71 234 143 29 229 209 84 189 164 7
10 12 176 247 50 137 230 33 20 104 175
13 90 154 23 166 182 109 147 138 130 187 168 220 233
6 9 81 215 236 159 132
7 105 213 14 133 89 152 53
10 11 28 100 54 186 121 31 160 197 210
8 161 195 226 177 112 231 221 246
9 101 24 223 248 126 86 60 15 6
14 196 203 98 184 82 77 217 65 185 37 72 94 21 135
10 108 241 174 4 136 49 96 110 148 151
9 179 39 155 180 216 224 69 172 227
12 125 225 117 141 178 181 44 249 206 211 239 47
8 83 124 74 58 242 2 214 173
10 87 10 70 46 78 165 129 36 26 43
11 99 237 79 35 245 118 150 111 162 243 198
8 222 219 183 22 97 114 42 170
7 64 93 238 61 202 244 122
10 51 212 32 188 163 199 139 193 30 157
8 76 127 167 95 0 207 131 80
12 75 59 208 91 156 204 1 190 56 158 123 120
13 57 107 19 119 8 27 103 41 3 113 191 240 194
11 200 116 153 218 235 102 17 144 128 66 13

Total makespan: 63

