15
16 2 61 21 74 183 29 49 189 219 113 41 234 112 231 104 216
10 60 93 14 170 92 4 94 123 136 202
15 57 20 150 26 69 208 184 124 242 122 218 244 99 161 175
18 180 224 66 247 151 34 79 201 240 115 198 143 139 13 65 121 142 102
16 153 138 211 97 158 176 191 174 157 128 1 230 177 147 236 168
19 30 11 86 25 130 36 214 144 78 169 235 85 73 131 107 106 17 68 46
19 103 56 6 24 88 179 15 164 156 192 108 149 0 53 167 96 44 35 31
20 18 243 229 185 210 155 117 193 227 87 55 63 28 7 129 101 133 5 166 125
12 54 187 9 83 38 200 45 159 165 127 246 162
16 116 232 215 146 64 118 194 42 141 204 70 50 51 160 186 226
22 111 75 145 221 220 37 82 76 206 98 10 114 91 32 225 58 209 40 140 148 19 152
11 119 172 199 238 223 173 109 80 207 195 47
18 190 8 52 249 181 126 228 205 95 239 22 39 213 33 23 197 62 245
22 241 48 77 196 188 43 59 203 171 233 3 16 71 81 154 100 182 217 222 237 163 12
16 132 110 89 67 178 90 135 105 212 134 137 248 120 27 84 72

Total makespan: 153

