30
12 23 249 160 162 117 55 80 223 40 44 27 154
9 3 170 226 109 147 199 33 246 138
9 134 1 169 145 222 19 191 51 78
9 233 155 245 161 136 50 10 101 67
8 205 235 165 84 14 149 156 110
9 12 8 39 153 140 133 47 179 82
9 198 137 195 172 201 225 103 95 75
8 16 35 54 11 144 152 60 5
9 127 53 146 120 139 210 177 218 204
10 130 125 73 232 187 238 99 37 131 115
11 43 58 192 0 183 66 114 243 116 70 111
9 122 159 45 148 72 224 91 129 107
9 22 234 163 106 62 158 231 230 175
8 143 194 242 227 24 236 171 6
7 98 63 18 97 46 178 56
8 81 105 28 214 180 176 93 190
8 215 196 239 15 121 32 85 221
5 113 126 208 17 248
7 76 164 74 182 217 186 220
9 207 79 48 4 188 69 240 112 61
7 88 92 168 197 216 157 102
7 203 206 193 9 71 167 151
11 96 49 77 123 173 237 59 209 141 189 13
8 89 200 181 132 68 34 118 65
7 128 228 119 247 174 90 21
8 219 57 41 20 86 29 211 36
6 202 38 100 184 104 185
8 42 108 30 2 52 64 31 26
6 87 212 25 213 135 124
9 166 7 244 94 150 142 229 83 241

Total makespan: 105

