15
21 126 190 249 198 34 115 114 68 43 139 197 232 75 79 33 163 124 166 133 188 69
18 19 32 137 221 229 70 157 108 192 105 138 159 72 201 244 142 147 88
15 236 200 111 233 178 91 21 18 203 27 10 104 167 60 186
18 148 112 140 31 171 246 30 120 173 63 219 113 25 97 132 227 193 158
19 41 14 15 56 122 135 117 39 101 210 177 214 55 66 8 191 128 89 168
15 129 28 230 50 202 243 234 22 224 40 49 213 61 45 92
20 242 67 4 87 83 181 1 164 176 82 73 16 174 222 248 241 153 12 77 184
15 125 35 46 37 103 223 247 81 160 182 161 169 136 76 102
17 144 196 189 237 58 162 207 240 141 199 62 38 93 118 9 42 121
12 146 109 179 100 217 53 44 57 226 123 71 20
15 172 156 48 154 180 7 84 165 23 231 65 47 64 119 99
16 36 170 235 211 228 209 2 74 17 11 151 0 85 245 127 225
17 212 218 175 149 29 215 94 86 195 131 116 78 110 80 54 96 150
17 59 134 152 208 187 185 183 51 3 205 26 155 143 24 107 106 52
15 6 95 5 98 220 90 204 216 238 206 13 194 239 145 130

Total makespan: 204

