25
11 157 171 136 96 12 72 245 90 4 5 62
9 58 89 65 221 233 43 172 190 145
8 34 179 45 56 197 175 86 68
10 102 228 57 205 158 83 127 115 39 59
9 74 53 101 78 166 167 31 215 199
13 240 98 15 142 118 212 48 94 184 73 176 187 200
8 27 234 35 207 122 178 150 38
12 8 64 165 82 241 204 121 105 9 11 143 129
10 19 227 196 125 108 92 6 14 194 132
9 159 137 13 71 128 218 225 112 120
8 91 2 113 209 153 17 69 161
12 28 44 133 247 223 186 168 193 149 170 26 55
14 189 249 85 49 154 237 77 232 46 18 139 114 119 104
8 231 244 148 185 210 97 37 81
10 50 138 124 213 140 106 36 87 33 10
11 40 141 24 220 75 117 107 25 76 229 181
14 84 32 103 126 202 239 164 214 95 41 238 203 70 135
11 30 66 246 99 169 242 192 219 217 188 51
9 147 67 144 23 152 195 224 16 216
10 230 60 0 183 226 54 134 201 206 198
10 146 182 63 130 20 163 160 180 243 236
8 79 111 1 110 116 7 191 235
9 174 222 80 123 173 61 42 47 109
8 155 177 151 162 100 208 93 52
9 3 21 248 211 29 156 22 88 131

Total makespan: 132

