25
14 129 90 1 185 220 191 208 18 89 225 88 145 86 7
14 12 128 180 93 28 192 21 66 186 13 56 212 149 24
7 73 102 223 70 137 133 233
12 98 232 246 45 23 81 146 47 235 202 239 214
10 195 92 135 205 82 164 209 51 245 116
9 11 96 152 49 188 184 54 221 76
7 198 217 50 143 231 111 120
11 22 114 108 243 222 127 113 83 161 39 230
10 193 181 160 38 142 53 144 95 20 109
10 43 97 224 101 33 118 77 237 206 241
11 219 187 60 6 130 218 175 154 84 14 226
12 68 72 248 177 126 58 132 40 134 35 41 55
8 48 247 61 85 63 157 182 123
9 153 2 42 0 117 122 80 196 30
7 25 138 59 124 112 5 78
17 240 107 26 19 171 139 169 10 110 44 155 140 27 87 100 121 36
10 176 201 29 115 167 106 211 31 64 57
12 234 67 194 215 69 210 228 163 46 166 249 173
10 52 150 75 178 204 174 71 158 156 74
9 190 165 62 136 104 229 179 189 79
11 168 162 213 159 242 148 151 197 105 147 183
5 99 125 34 170 4
8 9 207 216 203 238 94 91 227
8 244 17 15 131 37 199 103 172
9 236 8 3 141 65 32 16 119 200

Total makespan: 59

