30
8 0 119 208 126 233 20 183 197
8 62 198 209 232 124 135 176 5
7 162 152 240 93 160 150 61
9 99 206 234 220 201 49 171 79 217
8 153 76 86 7 239 31 213 36
10 192 2 96 172 78 142 219 224 114 65
9 195 238 159 134 11 228 182 186 235
5 83 147 47 230 112
9 199 35 211 69 28 55 56 173 4
6 1 189 125 75 102 81
6 194 139 174 158 30 95
9 101 19 218 37 21 148 67 72 13
10 229 84 212 94 127 26 132 245 33 136
10 141 128 169 32 166 161 200 15 241 149
11 44 107 17 90 179 113 71 145 63 188 204
6 117 38 108 53 247 41
9 202 243 54 191 236 168 24 154 121
8 77 210 106 216 146 89 163 116
8 111 122 205 177 215 196 118 16
10 23 185 3 181 131 100 18 103 130 223
8 73 105 178 97 129 225 246 164
10 237 87 137 12 91 29 207 85 104 48
8 190 221 98 244 59 8 50 193
10 144 42 68 167 57 157 34 226 123 9
8 110 27 143 151 170 187 92 203
9 227 43 74 231 70 248 14 155 156
7 40 64 25 175 133 138 45
7 184 242 52 10 249 82 140
8 58 66 6 120 60 214 165 88
9 46 51 180 80 109 222 39 115 22

Total makespan: 109

