30
8 58 139 71 137 10 142 39 232
9 248 237 249 116 176 123 115 16 101
10 59 9 156 189 17 247 122 69 170 203
11 192 22 218 222 191 208 205 138 6 78 111
8 194 219 11 227 33 210 95 233
7 28 147 77 36 234 38 97
8 193 245 198 3 180 130 2 41
7 132 83 186 141 136 143 109
7 183 195 214 47 118 223 184
11 151 19 75 128 165 213 221 93 44 129 99
7 63 220 96 34 235 175 119
8 242 80 173 225 217 197 230 82
10 49 226 107 91 92 174 4 190 14 24
8 23 158 13 94 243 202 35 144
8 134 224 84 201 150 105 110 169
7 56 106 31 51 164 244 32
7 162 196 179 146 140 25 231
7 40 61 87 182 133 206 157
10 103 66 48 172 181 60 246 215 168 81
5 228 21 240 62 0
7 8 72 29 178 74 120 153
11 7 145 155 45 18 90 149 124 135 76 241
11 15 177 73 114 152 88 187 126 154 125 43
11 127 207 188 104 79 229 166 239 160 117 50
8 42 209 68 204 54 238 67 100
8 12 161 52 121 70 37 30 5
10 212 113 64 148 89 171 27 163 1 112
10 167 108 20 57 85 46 211 159 98 53
4 200 216 131 199
7 102 55 236 185 86 26 65

Total makespan: 103

