10
27 126 45 130 30 98 243 109 217 65 194 28 171 238 149 60 146 19 4 111 205 177 176 59 75 119 1 198
24 72 79 123 120 188 237 133 94 12 156 178 101 244 169 173 137 229 39 106 38 170 56 7 167
26 165 202 80 114 22 199 190 93 175 102 23 58 159 231 83 54 143 154 224 152 40 157 31 87 208 105
27 77 104 128 230 127 249 21 214 84 68 136 62 219 160 13 196 113 174 92 122 16 185 191 129 89 70 131
24 76 204 24 153 53 210 96 141 227 172 18 239 61 0 182 125 115 158 207 236 9 148 27 48
22 138 150 55 203 5 17 6 3 147 220 2 66 241 226 36 124 15 247 193 195 117 86
27 228 20 201 164 41 121 116 118 216 8 242 162 103 245 181 206 151 248 192 134 213 110 168 112 32 246 186
23 215 74 37 90 50 64 82 166 235 42 218 140 135 14 35 97 145 212 180 221 234 209 179
27 161 81 78 69 25 29 26 51 189 10 142 49 144 52 211 139 33 11 232 95 240 46 100 47 132 73 34
23 233 43 184 63 85 107 155 99 183 57 187 91 222 200 223 108 225 197 71 67 163 88 44

Total makespan: 353

