30
10 239 84 93 45 232 43 54 25 31 218
11 170 99 100 210 63 109 124 21 89 47 132
8 179 144 215 121 203 188 227 147
7 178 134 162 204 216 53 150
9 168 220 173 236 98 76 55 161 143
9 135 241 153 235 133 185 163 42 158
10 247 145 90 74 81 52 62 0 78 191
8 240 8 229 231 157 87 104 91
7 35 193 46 152 184 56 149
5 202 126 107 18 142
10 24 113 192 207 108 28 37 116 58 237
7 169 44 19 16 148 171 95
9 48 180 106 117 197 32 200 1 164
6 175 20 223 246 57 10
8 30 105 66 205 110 65 49 154
6 172 129 83 131 103 118
9 195 39 70 82 33 196 96 160 9
7 234 242 219 11 221 85 137
7 174 68 206 72 190 15 245
9 27 230 86 181 115 94 112 128 189
7 136 199 40 141 194 125 138
6 159 80 249 238 211 182
10 186 187 213 2 208 167 92 183 17 3
8 38 67 41 226 101 7 228 4
8 198 97 26 22 209 233 71 36
11 51 217 139 166 127 176 29 243 5 119 120
10 212 102 59 12 34 13 201 61 73 151
11 130 155 14 177 244 114 165 146 50 140 77
9 23 156 111 248 122 225 64 214 123
8 75 69 224 6 88 222 79 60

Total makespan: 94

