25
10 118 60 39 68 113 244 59 64 195 24
8 189 14 151 119 123 38 97 58
7 92 180 98 227 103 55 247
11 236 226 63 4 243 93 90 54 27 142 106
10 77 51 143 230 241 26 198 11 156 41
15 85 171 75 206 129 45 115 190 214 163 173 246 7 20 232
10 19 114 131 191 187 197 21 141 73 224
12 193 167 122 69 145 182 149 8 147 28 172 140
11 181 157 128 86 72 71 67 57 179 194 177
13 121 23 37 9 125 188 215 65 78 234 158 183 126
9 229 202 35 238 186 136 137 162 48
10 155 239 99 95 15 231 192 154 178 49
8 160 80 32 46 79 228 10 34
10 111 91 175 61 18 170 102 104 82 153
7 29 0 100 169 249 36 209
10 134 13 135 22 211 88 248 220 213 235
11 168 222 62 47 240 94 204 166 127 161 245
9 12 50 3 33 17 2 130 223 165
11 116 53 105 87 109 185 108 217 42 144 205
12 138 40 210 44 101 139 207 219 120 30 200 84
9 150 107 174 52 133 201 89 208 176
8 117 199 152 83 203 124 74 1
8 31 16 112 184 96 25 146 81
8 225 196 76 218 159 110 164 233
13 70 6 242 221 216 66 5 132 56 237 212 148 43

Total makespan: 88

