20
13 233 99 197 33 223 242 40 13 186 146 120 240 235
13 127 236 87 27 220 24 50 95 214 171 136 222 143
12 110 100 83 90 2 43 219 104 141 173 34 98
15 203 115 53 11 217 161 114 18 247 191 60 195 154 206 196
13 92 26 39 210 142 145 82 121 224 249 76 54 155
14 237 79 15 172 81 205 80 159 78 137 123 32 147 71
18 229 181 133 64 47 96 102 227 3 63 239 139 216 245 166 218 94 230
10 113 1 246 241 168 103 164 67 232 72
9 198 152 108 238 31 88 111 169 42
12 201 124 68 49 101 22 188 175 56 149 17 8
13 37 48 107 29 130 51 14 23 190 125 55 226 160
13 158 183 184 117 30 10 97 180 126 91 118 144 179
11 70 148 153 187 5 156 105 4 165 194 58
14 73 167 193 128 21 20 200 84 215 112 52 140 185 129
12 85 182 69 12 6 248 45 65 189 138 243 163
13 66 162 199 134 204 0 59 170 132 244 9 209 174
9 36 93 157 211 116 228 178 19 74
13 192 135 122 212 41 151 61 150 131 208 75 57 207
13 225 86 231 25 44 109 213 234 16 38 46 77 106
10 119 89 62 28 7 221 176 35 202 177

Total makespan: 88

