15
16 58 47 230 169 147 84 123 199 86 37 27 224 127 198 138 156
16 129 131 216 3 111 139 49 215 78 60 12 226 11 95 85 6
16 154 117 248 189 108 209 66 89 223 107 238 43 185 93 65 105
17 48 136 77 13 240 206 150 71 7 44 41 161 183 29 120 247 145
14 153 140 18 204 236 167 22 234 109 176 82 31 137 172
19 207 25 149 61 40 35 9 162 79 96 214 32 59 152 187 188 2 184 36
15 221 133 163 220 160 217 146 164 104 208 241 243 4 178 19
18 94 246 158 99 193 222 67 100 219 119 57 92 50 229 151 73 249 42
15 114 75 121 159 62 116 102 113 170 228 112 232 68 143 212
21 21 103 165 191 186 23 168 205 201 125 181 182 101 175 155 1 235 52 157 122 87
13 225 245 110 128 200 53 88 80 106 15 98 174 231
16 72 69 173 213 26 45 244 126 142 180 74 8 24 20 46 38
16 130 192 237 10 39 64 81 124 30 17 51 218 118 197 227 115
23 179 148 34 210 83 132 63 134 0 195 211 203 194 70 16 242 97 55 239 5 141 171 28
15 196 202 177 91 90 190 76 14 33 56 233 144 135 166 54

Total makespan: 211

