20
12 61 106 238 18 172 58 129 210 143 170 6 7
17 81 176 163 40 179 77 28 216 8 119 126 196 232 97 54 109 207
11 100 195 160 118 222 138 199 153 31 164 76
11 204 203 41 112 101 36 202 55 84 19 53
13 80 68 193 131 71 225 82 162 137 136 132 181 224
14 0 35 37 91 156 105 3 23 13 104 161 186 249 128
9 168 219 46 215 214 59 233 49 167
12 83 72 242 16 85 237 117 115 178 29 221 122
13 94 107 173 148 182 66 229 5 24 211 240 245 248
13 239 57 43 206 50 130 92 166 52 125 217 47 88
17 175 218 111 69 208 27 51 234 209 60 141 180 241 227 11 78 197
10 144 90 12 56 228 89 113 134 247 191
10 123 110 165 64 10 98 26 22 108 102
15 4 231 185 184 48 116 190 14 246 86 213 34 63 235 171
14 151 139 205 192 145 15 133 140 74 159 45 42 33 244
12 157 30 79 75 65 17 230 93 243 150 44 142
13 174 135 158 127 200 220 236 177 198 21 201 103 187
10 70 212 149 155 99 32 62 120 73 95
11 154 38 188 39 147 152 25 96 146 67 169
13 20 114 121 87 223 124 189 183 9 194 226 2 1

Total makespan: 125

