20
10 19 121 211 16 155 51 24 56 216 70
12 126 227 18 2 44 186 112 203 110 137 72 39
8 85 173 107 197 88 127 166 128
12 143 232 117 165 106 11 35 131 17 71 105 184
9 219 84 245 64 191 123 161 101 237
14 233 147 179 205 193 111 135 181 82 1 68 69 196 215
16 176 151 99 30 28 130 120 77 79 90 207 5 97 185 146 94
14 180 194 246 13 4 249 177 32 223 119 27 20 145 206
11 92 29 91 52 8 221 133 204 124 7 236
13 231 37 114 160 192 164 201 220 163 169 15 109 65
16 138 116 167 136 38 36 229 158 58 49 242 42 67 86 87 150
15 244 198 213 199 248 41 144 218 43 175 238 187 74 33 228
12 108 209 12 234 50 102 22 45 83 61 100 153
13 172 139 210 118 225 125 241 190 154 195 31 60 59
11 48 122 142 98 81 159 25 132 140 21 230
14 14 134 217 23 183 96 243 129 95 224 9 40 104 75
13 73 212 182 247 78 200 202 141 157 26 93 113 6
13 47 53 162 208 239 3 62 54 178 149 63 222 76
11 171 103 55 240 168 46 174 115 156 214 89
13 148 235 57 189 80 66 152 10 34 226 188 0 170

Total makespan: 84

