10
26 194 132 130 249 212 82 7 179 81 51 24 198 152 155 18 70 68 80 78 181 138 173 53 118 137 0
24 103 19 248 33 4 184 86 208 45 217 112 114 246 122 234 76 115 157 232 205 161 66 127 116
25 48 12 225 67 110 160 49 158 113 125 97 3 210 239 228 165 11 104 197 247 128 87 142 106 203
21 100 102 43 189 201 28 64 180 131 59 167 206 75 176 190 96 92 168 124 204 77
25 153 216 120 101 240 162 224 61 192 40 91 243 29 178 227 39 95 172 21 136 5 231 26 65 196
21 241 56 108 52 41 58 229 193 220 199 71 107 38 23 156 36 144 85 183 13 218
26 88 30 238 99 140 182 17 169 186 57 226 44 94 47 31 84 175 171 20 63 236 170 214 195 55 207
25 42 54 147 90 237 126 154 14 134 98 32 222 163 89 123 141 119 27 151 73 8 135 109 6 148
26 149 69 200 185 117 129 230 37 211 245 146 159 244 145 105 209 93 133 166 9 233 215 34 177 46 10
31 1 16 15 235 174 213 74 164 60 121 50 22 2 221 79 111 223 143 242 35 150 219 25 62 187 139 83 188 72 191 202

Total makespan: 263

