15
20 172 65 144 231 195 226 247 88 35 93 49 5 59 41 212 27 122 177 84 14
12 229 70 125 191 192 163 170 33 40 78 234 20
14 133 120 87 167 1 148 128 50 95 162 92 37 104 165
20 4 57 156 32 118 168 158 26 85 189 56 160 137 198 111 179 48 74 45 218
17 238 81 135 7 237 220 3 221 71 222 136 241 171 217 30 98 82
17 164 102 52 31 242 205 29 96 223 129 209 183 203 219 213 155 24
15 124 199 214 73 97 204 91 147 181 36 90 67 64 245 228
19 186 166 6 178 83 152 103 184 207 108 9 141 232 61 185 131 244 115 89
18 201 196 121 230 134 227 190 208 157 173 187 240 75 146 68 15 127 76
13 139 210 151 175 60 236 246 113 206 243 18 42 211
16 174 21 126 16 80 38 25 239 194 13 54 142 79 150 0 17
20 114 107 39 51 110 101 105 72 225 161 149 69 11 182 63 248 235 22 215 140
17 100 58 28 180 216 62 23 99 193 8 94 138 86 43 109 106 116
17 77 202 143 53 159 44 123 10 188 66 117 130 200 55 176 12 47
15 46 145 233 153 34 154 119 112 169 2 224 132 197 19 249

Total makespan: 214

