10
27 209 236 2 141 32 164 222 182 205 59 81 198 83 201 91 80 50 63 88 42 248 140 39 230 226 46 14
28 52 199 135 72 168 20 37 4 246 215 180 206 8 207 66 152 102 70 100 103 149 92 27 0 16 150 147 90
19 107 212 178 54 193 139 116 126 35 36 225 25 67 176 62 129 23 18 229
25 110 245 104 44 93 203 142 197 101 98 95 78 58 172 231 118 214 120 187 69 195 224 173 179 243
22 249 60 189 68 130 210 133 137 162 24 158 13 79 223 108 113 227 10 109 21 192 132
28 191 28 169 106 237 175 156 136 112 235 29 170 74 166 161 82 114 87 64 200 11 6 31 61 181 43 75 7
25 213 12 194 184 148 5 240 185 239 77 144 105 17 53 19 202 134 94 241 145 22 208 127 40 41
29 196 160 217 76 9 183 159 86 154 211 151 128 121 99 238 131 45 218 157 163 97 111 38 56 3 190 220 48 55
27 65 221 73 228 33 216 186 242 124 85 34 119 96 247 49 188 47 89 1 171 155 165 125 146 167 244 15
20 123 153 233 177 30 143 115 51 138 26 122 84 219 117 174 71 232 204 57 234

Total makespan: 382

