10
24 234 129 213 66 208 40 228 57 227 0 145 140 52 177 193 175 24 237 35 244 212 141 1 101
22 206 121 90 172 180 158 97 93 132 194 49 249 149 221 74 218 2 116 157 109 247 20
28 215 119 73 5 100 117 96 82 211 63 159 189 105 88 47 223 204 222 192 4 210 207 83 135 179 195 230 12
23 39 26 55 124 30 131 114 125 98 3 14 107 61 156 64 42 205 43 33 38 168 46 7
24 95 76 166 133 77 241 110 54 112 162 183 65 106 103 23 160 127 246 154 198 182 89 165 229
26 184 80 185 67 171 232 17 238 86 9 10 120 137 62 36 51 167 231 16 60 37 113 115 243 155 146
31 196 187 233 248 111 128 32 78 163 173 200 69 214 239 75 15 81 6 28 94 56 176 217 102 164 53 138 58 169 122 170
24 19 108 48 8 226 92 144 151 87 186 91 123 41 29 178 134 220 71 174 59 68 191 70 84
23 197 142 25 34 18 79 216 130 209 126 150 188 152 161 21 236 139 245 50 72 203 225 118
25 22 44 190 242 148 45 224 201 13 11 99 181 143 235 136 199 240 31 153 85 27 147 104 202 219

Total makespan: 320

