25
12 127 63 226 30 247 114 167 245 78 118 233 112
11 152 134 220 212 120 100 66 205 246 202 31
8 13 232 15 36 38 37 146 88
8 89 3 0 46 117 195 200 17
11 235 218 159 123 64 109 174 107 9 197 163
10 119 70 180 12 126 158 240 83 55 41
11 173 87 21 102 133 101 172 103 24 68 74
10 44 71 148 26 182 48 248 97 22 121
13 92 243 8 23 85 61 142 151 33 228 7 192 105
9 136 79 170 164 227 166 106 230 214
10 225 39 62 191 187 145 108 10 25 99
8 93 122 135 72 171 47 208 59
11 168 206 215 45 198 156 177 190 144 150 242
9 131 153 194 19 178 20 154 155 76
9 34 53 239 96 201 175 50 86 238
8 11 18 56 237 229 234 184 82
9 60 57 183 222 129 73 216 58 161
10 6 16 94 169 204 210 104 14 207 43
12 91 203 42 125 32 176 113 95 157 2 5 40
12 90 80 249 75 199 130 213 4 139 181 224 54
9 51 29 223 211 81 221 196 137 49
6 98 189 27 209 186 236
11 193 231 241 67 124 162 35 185 1 138 77
9 219 244 141 110 160 143 84 65 52
14 188 115 140 132 69 116 128 111 147 165 28 149 179 217

Total makespan: 130

