30
9 50 75 169 103 12 242 122 240 137
11 208 99 65 85 178 116 129 125 110 127 151
9 168 80 213 212 170 77 124 224 82
7 219 171 136 66 195 35 158
11 194 47 128 221 46 40 100 64 111 63 89
8 196 190 189 152 38 90 114 162
5 217 139 10 149 108
7 236 230 55 201 59 177 176
9 144 203 107 156 226 30 28 175 91
5 41 148 84 159 60
8 199 19 21 120 165 109 17 206
7 74 14 145 54 228 115 93
8 6 192 223 233 150 73 174 88
10 135 95 58 56 67 211 142 249 112 126
9 214 181 37 157 117 33 34 69 191
9 0 68 187 62 13 154 185 71 193
11 210 131 218 24 2 96 229 52 234 106 164
9 11 246 101 121 98 227 248 92 81
10 76 123 7 4 167 140 155 118 207 130
7 146 79 72 202 105 48 160
6 32 147 163 231 15 245
8 42 132 238 197 239 188 153 232
8 36 44 183 215 237 205 31 16
10 184 179 18 161 235 83 198 26 25 220
9 247 43 51 133 222 225 119 186 3
8 29 113 97 70 27 204 182 104
8 243 138 86 94 22 102 180 209
7 241 8 1 23 173 244 39
9 87 141 166 216 5 20 49 143 134
8 9 200 78 53 57 61 45 172

Total makespan: 48

