10
26 237 155 127 140 207 44 146 74 245 16 22 164 70 156 106 211 7 143 21 78 15 13 29 26 152 243
31 110 222 89 214 170 92 149 249 76 63 55 100 48 224 158 45 9 128 39 194 54 166 172 186 75 144 131 47 219 14 49
22 198 139 247 101 4 129 191 97 91 10 103 206 24 157 42 197 235 51 72 17 200 107
29 216 223 185 108 93 165 190 141 65 6 132 104 114 234 160 69 98 189 34 187 167 116 82 64 240 178 68 112 113
20 133 43 120 176 188 35 71 168 32 66 236 230 30 203 169 117 221 242 193 125
23 130 208 95 175 213 180 177 96 122 105 115 181 148 137 61 88 228 0 79 231 196 38 179
23 159 3 109 80 73 138 226 60 241 154 53 59 238 84 229 85 134 20 27 57 23 86 151
25 33 124 183 209 36 225 118 56 87 142 18 50 163 244 248 111 8 102 150 217 195 11 67 215 218
23 205 135 246 220 233 12 99 19 184 174 81 162 239 136 210 147 123 37 204 145 62 31 77
28 161 2 171 25 201 182 232 83 52 199 28 40 202 212 41 173 94 1 126 192 153 5 90 227 46 58 121 119

Total makespan: 355

