10
26 156 141 60 180 65 66 52 12 116 32 71 236 46 207 4 179 121 192 158 31 30 132 61 239 245 206
29 211 235 11 33 200 148 20 41 165 157 226 231 67 36 247 38 86 243 106 6 127 217 114 169 137 215 219 26 125
25 213 138 197 58 196 23 88 93 101 51 128 108 173 72 84 240 130 39 208 109 212 183 77 172 221
24 176 21 177 203 178 18 0 238 3 204 151 85 5 170 224 167 227 175 129 159 241 76 34 113
21 171 28 150 136 155 22 94 187 110 89 24 147 82 188 118 47 131 70 43 144 225
25 19 59 50 161 56 68 198 230 122 191 69 8 146 120 87 17 174 135 154 81 100 228 162 244 13
24 152 223 42 97 73 9 139 160 62 163 142 222 126 48 54 53 57 124 112 14 216 15 184 143
23 145 133 25 220 199 44 233 7 234 214 49 186 246 35 194 190 218 64 134 104 117 103 107
25 249 153 95 45 10 193 91 201 105 16 90 182 79 189 237 96 185 78 99 202 210 40 80 74 2
28 232 166 140 205 1 115 102 83 55 37 98 181 123 75 229 164 195 168 27 92 63 248 149 29 119 111 209 242

Total makespan: 366

