20
10 211 16 155 51 24 56 216 70 111 19
13 223 127 203 126 227 26 137 110 72 18 2 44 112
8 128 85 173 88 166 197 247 107
14 236 143 232 117 180 106 11 35 105 184 185 58 17 228
10 113 84 245 64 191 123 161 101 237 65
14 233 215 147 193 82 1 68 69 196 151 179 205 181 135
14 176 146 77 79 219 99 30 28 130 120 94 90 207 5
14 119 27 20 249 177 32 246 13 153 206 21 194 145 4
12 92 133 204 8 40 52 29 91 124 7 221 226
14 37 114 222 163 109 229 169 15 97 160 192 201 220 186
16 138 158 164 42 67 116 167 136 38 36 150 240 87 49 242 86
14 209 244 175 198 213 199 248 43 144 218 33 238 187 74
12 168 12 234 71 61 100 22 45 50 108 83 102
13 172 139 154 183 118 225 210 125 241 195 31 60 190
10 231 48 230 140 81 159 132 122 142 98
13 243 96 162 224 9 95 34 129 14 134 217 23 104
13 73 121 75 78 200 202 157 212 182 93 6 41 141
12 208 239 3 76 131 62 54 47 53 178 149 63
10 25 115 156 46 174 214 171 103 55 89
14 188 165 39 80 66 152 10 148 235 57 189 59 0 170

Total makespan: 84

