15
16 243 40 20 17 30 169 84 76 181 97 163 122 127 77 120 236
16 225 224 197 87 159 177 32 219 223 130 238 21 27 115 231 226
13 227 248 189 193 45 131 172 179 125 59 154 128 142
16 124 38 53 104 108 167 235 218 208 221 134 192 229 90 220 168
13 198 191 137 60 247 241 13 92 10 209 111 155 94
18 23 132 50 136 112 109 106 213 80 83 7 71 113 12 242 47 48 187
15 153 66 207 52 176 74 147 107 14 232 64 88 62 145 237
17 123 6 105 173 75 55 34 230 188 133 150 24 214 233 22 5 178
20 15 101 203 140 165 139 61 96 44 190 82 148 171 118 16 57 0 244 29 67
17 79 162 11 42 35 19 98 135 204 46 58 141 211 43 56 39 25
16 4 201 157 3 205 199 86 149 216 1 161 151 175 239 51 249
21 8 194 156 184 166 185 26 18 116 93 89 196 183 49 117 54 126 121 210 158 72
17 110 228 33 103 195 91 85 119 144 234 246 174 73 81 102 143 212
14 240 41 129 63 2 138 202 28 186 245 200 69 164 100
21 99 182 68 37 70 180 217 114 222 36 160 152 146 206 78 215 9 170 95 31 65

Total makespan: 146

