25
10 117 136 161 19 157 141 13 92 191 187
11 87 238 4 95 118 104 98 56 94 17 201
7 135 123 49 142 209 10 147
10 185 8 107 183 69 121 70 138 223 55
9 37 144 233 35 62 72 150 139 91
8 237 86 222 96 71 36 6 178
9 88 45 134 143 129 196 7 119 224
11 146 124 217 158 105 244 83 203 15 65 113
10 219 182 79 57 120 177 47 28 168 80
9 179 21 52 24 127 81 215 54 50
11 216 103 211 227 153 154 195 214 247 89 180
10 152 218 93 110 26 82 192 239 236 114
9 128 31 59 64 232 9 172 229 186
9 148 230 67 245 66 16 42 234 29
10 133 132 12 169 20 90 226 174 84 200
11 43 53 39 170 163 165 74 126 78 198 125
9 207 102 34 44 11 164 221 77 51
10 0 205 68 220 213 115 246 46 243 184
10 130 40 181 23 111 101 60 188 206 149
10 33 228 112 1 140 249 204 173 240 14
14 208 156 85 194 175 241 202 145 22 108 27 61 235 5
10 166 2 73 116 210 197 199 231 176 63
13 159 225 193 30 25 41 155 75 248 160 99 58 162
9 97 109 122 18 76 189 32 131 100
11 3 167 38 242 190 171 151 48 137 106 212

Total makespan: 118

