10
32 12 17 66 220 95 97 157 186 237 103 216 60 84 58 208 113 8 24 191 174 135 141 161 129 240 133 194 14 25 198 79 217
24 205 62 241 212 47 46 20 177 204 71 142 169 175 156 48 139 145 7 96 168 125 214 171 57
28 18 245 52 151 56 244 83 224 128 19 148 28 65 207 21 184 163 42 76 110 39 34 109 211 118 94 239 181
19 144 226 234 200 82 54 91 35 2 123 203 231 36 0 247 230 16 150 75
28 111 98 40 67 69 45 159 107 202 187 201 213 114 178 1 10 215 116 130 182 50 185 183 11 26 117 104 106
24 43 89 140 90 229 146 246 105 86 138 74 197 120 131 152 119 5 80 238 170 209 132 92 59
24 195 225 29 248 223 121 108 31 53 37 190 3 222 124 147 78 112 221 88 44 73 134 154 137
24 115 228 22 193 179 219 155 99 64 160 93 33 249 70 243 72 85 210 23 149 164 77 101 4
22 41 100 189 55 143 158 49 126 15 172 233 232 136 166 242 51 199 206 176 87 30 180
25 196 38 32 153 235 68 102 63 192 122 227 162 167 165 61 127 218 9 236 81 173 13 6 188 27

Total makespan: 270

