25
3 14 7 28
2 37 44
2 20 38
2 17 36
1 12
2 32 34
2 10 8
1 40
4 2 33 31 4
2 19 45
2 27 43
2 48 13
3 9 47 24
2 35 26
2 6 16
1 21
2 22 0
1 15
2 3 1
3 41 39 23
2 42 29
2 46 30
2 5 11
2 49 25
1 18

Total makespan: 20

