30
2 23 34
1 40
1 30
2 15 31
1 1
1 12
2 47 32
3 2 5 26
1 33
2 35 38
1 28
1 4
2 19 39
1 8
3 7 10 24
2 18 14
1 17
2 41 45
2 0 22
2 25 48
2 49 46
3 43 21 42
1 9
2 29 6
2 36 13
1 3
2 20 44
1 16
1 11
2 37 27

Total makespan: 19

