20
2 45 31
1 47
4 35 14 37 7
2 10 18
3 0 29 15
2 38 5
4 39 8 26 28
2 33 42
2 4 9
2 40 36
3 49 1 11
2 43 30
2 46 27
2 32 3
3 24 34 2
3 21 22 13
4 17 19 16 41
2 12 44
3 23 48 6
2 20 25

Total makespan: 40

