20
4 21 20 13 17
2 46 1
3 45 35 11
2 10 18
3 40 24 39
3 34 0 43
3 29 25 4
1 41
3 27 23 33
2 16 12
1 28
3 36 37 7
1 38
2 19 49
3 14 47 8
1 42
4 31 15 3 6
4 26 48 32 30
3 9 22 44
2 2 5

Total makespan: 33

