25
3 14 7 28
2 37 44
2 20 38
1 17
1 12
2 48 34
2 10 8
2 29 40
3 6 31 4
2 19 36
2 27 43
2 13 45
3 9 47 24
2 35 26
1 16
2 32 33
2 22 21
1 15
2 3 1
3 41 39 23
2 42 2
2 46 30
2 5 11
3 49 25 0
1 18

Total makespan: 20

