25
2 1 7
1 32
2 40 39
2 30 36
2 16 37
1 6
2 10 43
1 33
2 27 9
4 15 11 28 8
3 44 5 48
3 0 24 31
1 26
2 41 4
2 25 29
3 2 49 35
2 18 13
2 47 17
1 3
2 19 34
2 42 45
3 46 14 22
2 21 23
1 20
2 12 38

Total makespan: 22

