25
2 5 3
2 9 11
2 0 12
1 15
3 22 7 35
3 36 25 1
3 45 46 28
2 20 33
2 17 32
1 30
2 8 14
3 16 34 19
2 4 26
2 44 40
2 38 2
2 6 21
1 37
1 24
3 29 42 27
2 13 43
1 41
2 10 31
2 18 48
2 39 23
2 47 49

Total makespan: 17

