25
2 39 49
3 48 24 46
1 42
2 8 1
3 41 6 31
3 23 33 27
2 0 44
2 18 12
2 9 15
2 19 20
2 32 34
2 26 30
1 3
2 40 11
2 16 5
1 37
2 21 22
2 25 7
2 14 45
2 17 13
2 28 43
2 38 35
2 2 10
1 36
3 4 29 47

Total makespan: 30

