20
3 35 40 25
2 37 44
3 23 24 22
4 5 30 43 11
2 36 38
3 32 29 48
1 3
3 20 28 19
3 26 4 27
2 33 15
3 13 8 16
4 10 1 46 42
2 12 14
2 7 49
3 34 21 45
1 47
2 0 17
3 39 6 41
2 2 31
2 9 18

Total makespan: 41

