30
1 27
1 5
1 36
1 3
1 46
3 16 38 9
2 6 35
2 48 4
2 1 22
1 15
2 29 40
2 7 45
2 41 19
1 26
2 37 13
2 8 20
1 18
1 21
2 28 23
2 30 12
2 39 33
1 10
2 0 31
2 34 11
1 47
3 44 49 24
2 42 43
2 14 2
1 32
2 25 17

Total makespan: 24

