30
2 46 40
1 16
2 19 22
1 47
1 23
2 36 42
2 43 44
2 1 33
3 2 13 38
1 37
1 12
2 35 0
2 29 28
1 25
1 14
2 48 26
3 5 15 45
2 27 3
1 7
1 10
2 4 8
2 18 24
2 9 21
2 41 6
1 34
2 30 17
1 39
2 20 31
1 32
2 49 11

Total makespan: 16

