20
3 35 40 25
2 37 44
3 23 24 22
4 11 36 5 30
3 2 34 39
3 32 29 48
2 27 41
3 20 28 19
2 21 4
2 33 15
3 13 8 16
4 10 1 46 42
2 12 14
2 7 49
2 38 31
1 45
2 0 17
3 47 43 6
2 26 3
2 9 18

Total makespan: 41

