25
2 11 4
1 40
2 38 26
2 34 22
3 29 33 7
2 44 10
4 18 49 32 13
2 17 2
1 8
2 37 25
2 16 27
3 30 23 46
2 6 0
1 12
1 15
2 20 36
2 48 39
2 43 5
3 1 31 24
1 9
2 19 47
3 45 3 28
1 42
2 21 41
2 35 14

Total makespan: 34

