20
2 48 8
2 41 47
2 39 14
2 17 22
2 49 30
3 36 9 19
2 4 1
4 7 29 24 37
2 10 27
2 28 15
4 38 45 40 3
3 16 31 13
2 20 26
4 18 23 33 46
2 42 12
3 5 44 34
2 35 32
2 0 21
3 43 2 11
2 25 6

Total makespan: 39

