30
2 40 9
1 49
2 34 48
2 12 41
2 33 7
2 30 1
2 31 22
1 28
2 2 39
2 23 26
1 18
1 10
2 27 45
1 8
2 14 42
1 29
2 11 37
3 24 38 44
2 20 6
1 47
2 17 36
3 13 15 0
2 4 19
1 5
2 25 43
1 16
1 35
2 21 3
1 46
1 32

Total makespan: 21

