20
2 39 2
3 0 16 22
2 33 42
3 37 31 12
3 11 23 47
2 49 28
2 36 5
2 35 14
3 45 8 20
2 41 32
3 21 27 13
3 1 26 34
2 4 9
1 19
2 43 7
4 30 25 15 24
2 18 46
2 6 29
3 48 10 17
4 44 38 3 40

Total makespan: 34

