25
2 28 1
1 7
2 14 23
2 33 2
3 26 29 6
2 37 19
2 5 31
2 12 20
2 45 35
2 9 32
3 11 44 22
2 40 27
3 18 38 30
2 42 17
3 4 47 24
1 3
2 41 39
1 16
2 48 49
1 25
2 36 0
3 34 10 15
2 43 46
2 8 13
1 21

Total makespan: 28

