20
3 23 29 26
2 33 45
2 28 35
4 24 34 47 38
2 4 46
3 25 48 36
1 2
2 40 44
2 3 0
4 7 22 49 30
2 42 6
3 14 19 39
2 5 16
3 9 20 15
2 43 27
3 11 31 21
3 12 13 37
2 18 1
3 41 8 10
2 32 17

Total makespan: 41

