25
1 18
2 27 7
1 4
2 49 2
2 17 40
2 3 33
2 6 10
2 14 42
2 28 0
2 44 23
3 41 9 45
2 16 46
2 20 47
2 19 37
2 39 12
2 25 26
2 36 21
3 35 11 31
3 48 30 38
2 22 5
2 24 32
2 1 29
2 34 8
1 43
2 15 13

Total makespan: 17

