25
2 5 3
2 29 11
2 1 12
2 21 0
3 7 22 42
3 20 25 36
3 45 46 28
2 9 13
2 17 43
1 30
2 14 48
2 16 34
2 19 4
2 44 40
2 38 2
2 6 18
1 37
2 24 8
2 35 27
1 32
2 41 31
2 10 15
1 33
2 39 23
3 47 26 49

Total makespan: 17

