30
2 8 18
1 14
1 1
2 41 30
2 22 19
3 11 7 25
2 28 39
1 32
2 44 2
2 49 43
1 40
1 12
1 46
1 0
1 3
2 21 6
2 9 31
1 23
2 37 4
2 33 15
2 36 35
2 45 5
2 26 34
2 20 16
1 17
3 38 47 48
2 29 27
1 10
2 24 42
1 13

Total makespan: 21

