25
3 34 46 48
2 15 35
2 49 41
2 11 13
2 32 37
1 38
3 8 4 23
2 33 1
2 0 3
2 30 26
1 28
1 10
4 44 14 45 40
3 16 27 20
3 9 5 42
2 36 31
1 21
2 17 6
2 24 18
2 43 25
2 22 19
2 39 47
1 29
2 12 2
1 7

Total makespan: 26

