30
1 46
1 18
1 42
1 45
2 15 6
1 41
2 38 34
2 4 33
1 44
2 21 0
1 2
2 32 14
3 10 39 28
1 48
2 25 40
1 36
2 11 35
2 13 31
2 29 49
1 27
1 23
1 17
2 16 47
2 9 24
2 22 7
2 1 43
1 3
2 26 19
3 5 20 37
3 8 30 12

Total makespan: 24

