25
3 0 49 29
2 47 33
1 30
2 9 40
1 28
2 4 8
1 7
2 14 3
1 13
4 18 34 26 24
3 17 36 6
3 1 41 11
2 2 19
4 27 44 12 22
1 43
3 37 39 48
2 35 15
1 45
2 10 31
2 23 46
2 16 25
1 21
2 38 32
1 42
2 20 5

Total makespan: 22

