30
2 20 33
1 25
2 32 12
1 46
1 29
1 5
1 37
2 35 36
2 43 1
1 42
1 11
2 7 45
2 2 17
2 22 34
3 6 38 4
1 30
3 19 15 8
3 31 28 40
3 14 0 16
3 10 47 39
1 23
0 
1 26
1 13
2 27 44
3 3 9 21
2 48 49
1 18
1 24
1 41

Total makespan: 15

