25
2 35 27
3 44 0 9
2 14 45
2 3 24
4 12 42 20 28
1 6
2 2 46
3 11 47 7
1 41
3 10 31 5
2 38 17
2 34 29
2 26 21
2 18 8
2 30 22
1 1
2 25 16
2 33 4
2 40 13
1 19
2 23 39
2 43 49
2 37 48
1 32
2 36 15

Total makespan: 30

