25
3 48 29 10
2 44 40
1 26
3 0 28 46
2 43 7
3 19 42 1
3 32 17 6
2 5 31
2 13 36
2 24 14
2 18 3
3 8 35 38
2 16 4
2 2 21
1 47
2 12 25
2 20 49
1 15
2 9 11
2 37 33
2 30 34
2 27 39
1 45
1 23
2 22 41

Total makespan: 31

