30
1 22
1 24
1 27
2 14 4
1 2
2 25 9
2 42 21
1 17
1 12
2 19 10
1 36
1 29
2 8 1
2 38 48
1 45
2 3 18
3 37 33 47
1 11
1 0
1 49
2 15 41
3 5 28 43
2 23 20
2 31 44
1 34
2 13 32
2 26 16
3 7 46 39
2 35 40
2 6 30

Total makespan: 19

