30
1 20
1 44
1 38
2 27 23
3 10 21 14
2 19 16
2 36 6
2 1 46
2 12 22
1 15
3 32 31 18
2 42 8
1 29
2 49 24
1 26
2 33 45
2 37 13
1 39
2 41 0
1 2
3 3 7 34
1 43
3 30 47 5
1 28
1 35
1 9
1 11
2 4 25
2 48 17
1 40

Total makespan: 26

