25
2 8 23
2 42 17
1 0
1 40
2 35 36
2 6 22
1 37
3 46 33 10
3 5 16 44
3 29 4 24
2 18 32
2 2 31
2 25 7
2 19 28
1 38
2 43 45
1 3
1 47
3 15 13 30
3 20 39 34
2 27 48
3 26 21 1
1 9
3 41 14 11
2 12 49

Total makespan: 32

