30
3 5 1 30
2 36 32
2 37 11
1 38
2 4 24
1 25
1 43
3 28 15 49
1 21
1 12
2 18 35
2 39 20
3 44 8 3
1 2
1 34
3 6 27 48
1 33
3 26 41 10
1 0
2 9 40
2 19 14
2 22 42
1 45
1 46
1 13
1 29
1 31
2 47 7
1 16
2 17 23

Total makespan: 14

