30
1 6
1 23
2 20 49
2 12 41
2 10 9
2 30 1
2 31 22
1 28
2 8 18
2 47 34
2 33 48
1 5
2 27 45
1 2
2 35 14
1 7
2 11 37
3 24 38 44
1 26
1 39
2 17 36
3 13 15 0
2 4 19
2 40 42
2 25 43
1 16
1 29
2 21 3
1 46
1 32

Total makespan: 21

