25
2 8 23
1 42
1 3
1 40
2 35 5
2 22 16
1 37
3 46 33 10
2 9 2
3 29 4 24
2 18 32
2 31 36
2 25 7
1 0
1 48
2 43 45
2 44 38
2 19 28
3 15 13 30
3 20 39 34
2 6 27
3 26 21 1
1 47
3 41 14 11
3 12 49 17

Total makespan: 32

