25
1 18
2 27 5
2 26 32
2 2 42
1 17
2 3 33
2 6 10
3 29 7 14
2 28 0
2 44 23
2 9 45
2 19 46
2 20 47
1 4
2 12 24
2 39 25
3 36 40 21
3 35 11 31
3 48 49 30
2 22 37
1 38
2 1 16
3 8 34 41
1 43
2 15 13

Total makespan: 17

