20
2 28 39
3 0 16 24
1 19
2 37 45
3 11 23 47
2 9 12
2 36 5
2 35 14
3 2 20 4
2 18 32
3 29 33 27
3 1 26 46
2 13 22
2 31 34
2 43 7
4 30 25 15 42
2 8 49
2 6 41
3 48 10 17
5 44 38 3 40 21

Total makespan: 35

