20
5 35 26 40 2 47
4 36 3 25 15
3 42 33 0
3 13 32 28
1 9
2 31 38
3 22 11 18
3 23 4 6
2 7 46
2 34 10
2 30 8
2 29 16
2 41 49
2 39 1
3 20 19 27
2 48 44
2 21 45
3 24 17 14
2 37 43
2 12 5

Total makespan: 44

