20
2 15 48
3 18 42 22
3 20 17 40
3 44 32 7
2 36 12
1 28
3 1 13 0
3 5 47 16
3 34 14 4
3 3 41 6
2 33 9
3 31 10 37
1 24
2 49 45
3 19 2 46
2 26 38
3 43 27 23
3 8 21 35
3 25 11 30
2 29 39

Total makespan: 46

