20
2 16 14
2 24 47
2 34 46
2 45 39
2 49 23
2 37 42
3 17 33 10
3 25 21 19
4 11 6 13 36
2 31 30
2 18 7
3 26 27 12
3 48 41 4
2 20 8
3 32 0 9
1 2
4 44 3 22 43
3 29 38 1
3 40 35 28
2 15 5

Total makespan: 39

