20
4 41 19 43 37
2 29 35
2 20 4
2 28 30
3 31 26 1
4 42 45 15 9
2 23 48
3 8 39 6
3 13 10 17
2 33 14
2 49 40
3 22 2 21
1 36
1 12
3 47 46 24
4 32 0 38 18
2 44 3
2 5 11
2 7 25
3 27 34 16

Total makespan: 24

