30
2 35 29
2 15 28
2 40 33
2 5 25
1 7
2 6 0
2 42 20
1 14
3 11 48 3
1 32
2 9 34
1 46
2 2 41
2 44 27
1 13
2 37 16
2 22 1
1 8
1 49
2 39 19
1 43
1 12
3 31 18 24
2 10 21
1 17
2 45 47
1 36
3 38 26 23
1 4
1 30

Total makespan: 18

