20
4 1 19 37 26
3 49 3 9
2 21 17
3 27 0 45
1 11
2 22 10
2 7 41
3 25 24 16
2 46 23
2 30 12
3 13 42 47
2 14 28
4 39 35 38 43
2 48 32
2 20 31
4 5 40 36 2
1 44
3 34 33 4
2 6 18
3 15 29 8

Total makespan: 30

