25
2 39 33
1 21
2 6 34
2 2 43
2 28 3
2 37 41
2 42 38
3 20 44 29
3 9 25 16
1 24
3 0 14 32
4 11 23 7 15
1 49
1 4
2 45 31
2 47 40
2 18 1
2 13 10
2 35 22
1 19
3 8 27 5
1 30
2 12 36
2 17 26
2 48 46

Total makespan: 29

