30
2 27 15
3 21 39 20
1 45
2 12 11
1 38
2 48 32
2 31 28
2 14 46
2 4 33
1 37
1 7
3 47 22 3
2 26 34
2 6 2
1 9
1 49
2 24 13
3 0 36 29
1 16
2 40 42
1 10
2 35 43
1 5
1 1
1 41
3 30 19 8
1 23
2 18 25
1 17
1 44

Total makespan: 23

