30
2 26 11
2 49 2
1 9
2 44 1
2 47 37
1 3
1 12
1 45
2 24 40
2 14 36
2 16 46
2 48 29
2 41 25
2 13 39
2 21 10
2 31 35
1 15
1 20
1 32
1 6
1 23
3 27 5 8
1 38
2 42 17
1 18
2 33 43
1 28
2 34 4
3 19 7 22
2 0 30

Total makespan: 15

