20
12 102 174 67 21 173 84 47 87 147 158 13 29
8 36 193 161 138 133 149 162 139
9 68 73 168 61 54 124 39 140 120
10 82 188 145 186 122 128 154 41 37 127
10 167 152 108 176 190 131 24 7 42 166
9 97 94 126 136 72 55 169 11 77
10 116 30 32 12 23 111 91 52 69 121
9 51 57 9 163 182 62 117 159 43
11 15 123 101 137 16 148 49 88 156 196 135
11 107 104 181 155 119 74 70 27 8 3 199
11 164 40 189 20 192 58 19 78 142 178 59
11 153 17 112 191 109 85 175 10 90 110 65
8 100 180 76 177 134 194 171 105
10 63 44 60 66 53 183 114 38 95 143
10 48 81 165 132 18 197 150 1 118 179
9 198 157 151 4 26 144 0 14 79
11 99 96 106 141 93 170 184 83 80 195 2
8 185 34 75 5 71 35 125 160
13 98 46 64 33 31 172 45 115 103 50 187 28 92
10 25 130 129 113 22 6 89 146 86 56

Total makespan: 140
