20
2 13 46
2 18 31
2 45 41
2 49 11
3 23 32 10
3 47 43 20
2 24 0
4 8 35 19 17
3 36 26 5
3 9 15 21
1 40
3 27 14 42
2 6 37
3 28 33 16
3 2 22 44
3 39 29 38
2 4 30
2 12 34
3 7 1 48
2 3 25

Total makespan: 29
