20
3 24 16 46
3 2 11 31
2 45 41
2 3 49
2 23 32
3 20 12 43
3 18 0 17
4 35 8 34 4
2 5 26
3 47 21 13
1 40
3 27 14 42
2 6 37
2 28 33
3 44 22 7
3 39 29 38
3 36 19 9
2 15 30
2 1 48
2 25 10

Total makespan: 58

