20
3 27 24 46
3 11 31 10
2 45 41
2 3 49
4 19 39 23 32
2 47 43
2 18 0
3 8 35 17
3 26 5 28
3 9 15 21
1 40
2 14 42
2 6 37
2 33 16
3 2 22 44
3 20 38 29
3 36 4 30
2 12 34
3 13 1 48
2 25 7

Total makespan: 44

