30
3 104 45 28
5 111 166 76 14 11
8 138 108 183 103 94 157 5 172
7 185 153 184 36 154 117 60
5 69 169 49 88 71
8 6 53 130 17 40 2 86 59
6 58 143 124 33 181 27
5 81 55 147 47 182
5 75 197 195 100 198
6 170 46 24 134 121 168
5 192 82 113 156 109
8 179 199 141 63 97 95 57 20
9 32 21 91 30 83 107 1 140 26
8 112 160 145 64 161 159 16 50
7 106 9 189 61 22 12 4
7 127 128 131 13 122 31 0
5 177 92 150 142 93
6 152 70 119 196 51 137
10 35 136 165 148 84 118 178 180 171 15
7 74 62 42 72 144 38 25
10 190 39 158 187 163 139 151 126 99 87
10 129 186 65 167 176 194 43 52 56 41
7 155 149 125 66 44 174 3
6 77 193 34 85 8 73
6 54 68 79 164 101 133
5 110 102 173 23 10
6 67 80 37 191 18 132
6 78 7 188 90 135 89
8 98 116 123 146 115 19 105 48
6 29 96 114 162 175 120

Total makespan: 76
