30
1 40
1 16
2 14 37
1 25
1 23
2 36 42
2 31 44
2 1 33
3 13 38 5
1 28
1 43
2 35 0
2 9 6
1 22
2 20 8
1 2
2 15 19
2 3 29
1 7
1 10
2 4 27
2 17 24
2 21 47
2 41 18
2 34 46
2 11 30
2 48 39
1 45
1 32
3 49 12 26

Total makespan: 16
