10
1 97 65 122 107 111 59 82 3 25 27 136 70 112 73 8 146 145 4 129 55
2 1 54 72 117 61 26 21 75 69 50 141 104 95 33 102
3 135 123 130 20 126 89 133 138 120 35 58 6 15 92 110 9
4 90 38 87 96 148 46 121 2 37 41 71 127
5 48 53 34 80 86 85 76 42 10 13 134 39 119
6 43 140 12 106 17 142 57 128 116 19 32 88 149 24 64
7 115 74 84 98 132 137 30 60 108 52 47 18 105 16 51 147 77 109
8 118 40 63 99 125 5 144 150 36 22 79 143 93 68 131 49
9 94 28 100 62 124 66 67 7 113 103
10 91 11 29 83 114 81 31 56 139 78 23 14 101 45 44

Total makespan : 242

10
1 3 25 27 136 65 122 107 111 59 41 55 60 137 97 129 112 73 8 146 145
2 72 117 1 50 87 141 54 102 30 21 75 69 104 61 119
3 79 110 130 20 126 89 133 138 120 35 6 15 92 135 123 9 115
4 90 37 4 82 70 96 114 148 46 95 127 134 71 121 2
5 39 34 80 86 85 76 42 10 13 48 53 58
6 43 125 142 116 19 32 17 128 140 12 106 88 149 24 64
7 98 132 26 74 84 108 52 33 57 77 109 47 18 105 16 51
8 118 40 63 99 144 147 143 93 68 131 49 101 150 36 22
9 94 28 100 62 124 66 67 7 113 103
10 45 81 31 56 139 11 29 83 5 91 78 23 14 38 44

Total makespan : 241

10
1 3 25 27 4 129 42 112 73 8 146 145 136 65 122 107 111 59 2 81
2 95 75 69 50 46 141 104 60 72 117 1 54 102 61 55 119
3 6 133 138 120 35 82 15 92 135 123 9 110 130 20 126 89
4 90 37 41 114 148 71 38 87 34 124 80 121 127 70
5 134 97 66 86 85 76 58 13 48 53 39
6 43 140 12 100 17 116 19 32 149 24 64 113 125 142 57
7 98 132 105 16 51 115 74 84 108 150 137 77 109 47 18 128 52
8 118 40 63 99 36 21 93 68 131 49 106 79 143 91 144 147 22
9 26 62 103 96 10 33 67 7 94 28
10 83 5 88 30 11 29 31 56 139 78 23 14 101 45 44

Total makespan : 240

10
1 3 25 27 4 129 42 112 73 107 111 59 82 60 8 146 145 136 97 65 122
2 75 69 50 141 104 61 55 33 102 117 1 54 72 91 119
3 6 133 138 120 35 74 15 92 135 123 9 115 110 130 20 126 89
4 87 34 124 80 121 90 37 41 114 148 46 95 127 70
5 48 10 13 134 86 85 76 81 58 22 39
6 43 140 12 100 17 116 19 32 149 24 64 113 125 142 57
7 84 98 132 137 105 16 51 147 77 109 47 18 128 52 2 108
8 118 40 144 150 21 93 68 131 49 106 79 143 63 99 36 38
9 66 67 7 53 94 28 71 26 62 103 96
10 83 5 88 30 11 29 31 56 139 78 23 14 101 45 44

Total makespan : 240

10
1 3 25 27 4 129 55 60 8 146 145 136 65 107 70 42 111 59 82 67 73
2 141 104 54 72 117 61 119 33 102 132 144 1 49 69 21
3 91 79 110 130 20 126 89 133 138 120 35 6 15 92 135 123 9
4 80 121 90 37 41 114 148 46 95 127 131 87 75 44
5 97 66 86 85 76 122 48 53 58 13 134 39 34
6 43 140 12 100 17 116 19 32 149 24 64 113 125 142 57
7 128 137 77 109 47 18 105 16 51 115 74 84 98 22 108 52
8 124 106 118 40 63 99 36 38 112 147 143 93 68 150
9 94 28 71 26 62 103 96 10 2 50 7
10 45 81 31 56 139 11 29 83 5 88 30 78 23 14 101

Total makespan : 239

