73;3599.54;2;3601.50;-20.55
73;3599.89;2;3601.85;-20.55
73;3599.88;2;3601.83;-20.55
73;3599.90;2;3601.85;-20.55
73;3599.83;2;3601.75;-20.55
73;3599.76;2;3601.69;-20.55
73;3599.68;2;3601.69;-20.55
73;3599.71;2;3601.68;-20.55
89;3599.77;2;3601.70;1.12
81;3596.98;1;3600.03;-8.64
101;35.30;66;37.84;12.87
81;3597.37;67;3600.03;-8.64
83;3597.53;67.71;3600.08;-6.02
