10
10 56 42 72 38 91 0 71 10 77 48
10 16 14 69 22 49 53 80 9 4 24
13 5 21 40 68 23 25 36 32 45 98 7 35 11
8 60 67 30 84 37 39 20 94
10 73 92 76 87 61 89 8 52 78 44
11 64 51 85 46 33 15 28 47 81 12 54
7 50 83 41 19 31 29 95
11 88 96 34 86 93 82 63 43 59 62 55
10 13 58 57 1 6 97 26 18 2 75
10 90 27 66 17 65 79 74 70 3 99

Total makespan: 201

