30
4 97 9 81 54
3 27 40 21
3 52 2 12
4 60 66 7 5
2 74 90
3 92 23 83
4 19 8 61 26
4 73 67 85 72
2 91 84
5 34 79 31 33 39
5 28 3 22 58 36
1 14
3 64 94 4
4 87 47 95 17
3 25 10 55
3 48 71 1
3 98 38 13
4 96 75 62 77
4 11 76 15 18
2 88 78
4 93 80 24 49
3 0 44 29
3 56 68 69
2 50 65
4 63 32 59 30
4 82 42 99 35
3 43 37 46
3 6 20 89
4 86 45 53 70
4 57 16 51 41

Total makespan: 51

