15
8 52 4 70 99 34 91 8 72
9 93 21 12 71 28 61 1 65 16
7 92 11 94 79 33 23 47
5 55 54 10 48 22
6 40 15 57 96 14 83
5 37 35 46 30 39
4 5 86 80 95
8 38 88 87 63 58 49 25 17
6 6 18 32 82 66 50
9 27 73 75 85 81 62 51 36 89
6 77 90 0 59 42 74
7 26 19 69 29 2 67 20
9 84 56 44 13 53 97 76 64 98
7 60 24 68 78 43 31 45
4 7 3 41 9

Total makespan: 83

