10
10 12 79 19 6 56 48 29 18 46 87
8 28 59 40 4 82 39 60 73
11 70 55 75 52 34 71 24 17 8 23 22
9 38 78 25 91 74 53 26 65 31
12 69 50 57 90 5 64 77 62 9 81 3 15
11 2 44 13 16 88 33 10 35 36 86 94
6 98 14 72 92 20 11
10 99 0 83 67 80 89 97 43 61 85
9 93 45 42 54 66 68 51 96 76
14 41 95 7 63 1 84 49 21 27 37 30 47 58 32

Total makespan: 183

