15
7 35 68 45 78 48 85 22
5 9 8 15 30 17
9 77 84 71 21 91 20 95 56 54
8 33 43 0 13 16 60 27 7
7 61 37 55 69 87 75 93
7 53 79 24 51 76 94 49
6 70 19 11 23 92 90
7 47 99 14 6 88 40 73
6 25 80 41 28 52 64
7 46 3 1 5 98 89 59
7 2 26 18 65 39 86 31
5 96 72 58 66 38
6 42 36 50 29 34 44
6 67 10 12 83 57 4
7 62 82 32 81 97 63 74

Total makespan: 122

