25
4 31 86 99 49
5 46 80 22 56 8
3 34 39 60
3 38 79 93
6 0 32 11 50 40 12
3 48 70 19
4 2 16 17 91
6 1 26 87 77 25 21
2 33 41
4 67 3 98 95
3 76 5 18
3 75 59 15
7 96 35 10 72 29 20 43
3 63 9 89
3 78 14 94
5 7 27 57 51 45
2 65 68
4 71 64 81 44
6 88 85 83 84 97 4
4 55 92 13 61
4 69 28 66 36
4 52 54 53 74
3 42 24 37
5 23 62 47 82 73
4 58 90 30 6

Total makespan: 75

