10
7 67 85 88 66 50 87 34
14 10 15 49 9 93 44 28 63 97 86 99 20 84 7
10 45 36 0 22 79 69 19 55 90 48
12 42 38 33 26 51 29 58 43 54 76 39 5
12 83 91 61 74 25 8 6 70 11 72 56 80
7 94 75 27 98 12 77 41
12 57 32 30 52 89 47 64 81 31 46 16 13
7 14 71 21 59 37 96 35
8 68 65 78 73 24 40 92 62
11 4 95 17 60 1 82 2 53 18 3 23

Total makespan: 111

