30
2 14 19
3 59 85 64
3 76 88 86
3 21 39 53
2 25 63
4 40 4 31 15
2 71 37
4 60 30 36 91
3 3 55 62
3 81 89 34
3 92 70 79
4 18 56 82 54
4 49 69 65 95
4 27 29 58 12
4 61 24 90 72
3 26 43 98
3 94 6 1
4 50 78 83 35
3 10 41 68
4 48 11 20 99
3 97 32 28
4 45 52 42 84
2 87 5
3 67 57 47
5 77 16 2 80 74
4 44 17 73 23
4 7 51 93 96
3 75 22 66
4 33 46 38 8
3 9 0 13

Total makespan: 35

