30
5 35 24 32 98 25
4 97 67 60 84
2 57 92
4 94 42 64 33
2 10 44
5 45 31 70 7 88
4 0 74 1 9
3 87 55 91
2 66 11
4 93 48 56 13
2 69 58
3 78 49 72
3 96 23 79
3 51 65 26
4 89 15 21 14
5 59 12 73 62 16
2 54 50
4 37 75 40 34
4 19 17 95 22
4 53 38 86 90
3 5 61 28
2 43 20
3 76 63 39
3 18 30 77
4 36 8 47 99
4 4 85 41 46
4 27 6 81 68
3 71 82 52
3 83 2 80
2 29 3

Total makespan: 38

