25
6 72 98 26 1 57 20
3 82 73 69
4 25 52 17 12
4 48 87 3 46
4 22 80 79 16
2 32 81
5 94 41 47 59 14
5 95 60 34 64 4
5 70 24 78 21 38
5 58 6 91 99 89
5 23 63 33 54 61
2 9 36
3 53 62 85
3 51 27 39
3 15 13 71
4 18 2 8 76
5 92 96 42 84 10
3 29 66 0
5 11 88 97 86 7
4 37 83 43 93
5 56 74 45 67 44
4 65 75 55 50
3 77 28 19
4 40 30 31 68
4 49 90 5 35

Total makespan: 27

