15
7 4 25 76 60 6 27 44
9 51 52 22 91 18 49 37 95 33
6 23 46 97 34 59 81
4 62 87 99 40
7 35 2 15 79 57 58 19
4 24 94 48 73
6 56 61 71 11 17 8
6 74 85 75 65 78 67
8 47 86 96 31 66 13 84 77
8 41 89 21 32 90 63 20 7
9 14 42 64 0 30 12 50 39 16
7 1 72 29 53 9 45 93
6 69 68 55 82 98 92
7 5 80 88 43 70 54 83
6 10 38 36 3 28 26

Total makespan: 62

