25
3 69 70 88
5 75 41 99 90 34
4 22 3 77 42
3 38 86 39
4 32 48 68 11
4 14 44 52 21
4 20 0 18 35
1 54
5 4 50 66 83 74
3 58 15 8
6 19 53 17 96 40 59
4 95 94 72 97
2 93 84
4 67 55 98 51
8 82 13 65 47 37 28 16 30
3 9 63 76
5 1 29 85 92 24
4 57 61 2 33
5 81 25 6 45 64
5 23 49 62 12 56
3 10 91 26
4 80 7 89 87
4 36 71 60 73
2 27 46
5 78 43 31 5 79

Total makespan: 85

