10
11 13 96 92 97 29 14 85 87 11 99 94
12 82 75 1 84 67 69 62 12 6 7 74 43
10 3 61 53 32 60 52 70 72 36 51
9 71 65 34 39 50 9 98 5 56
10 22 42 23 77 4 38 28 86 41 37
11 66 59 80 76 10 21 35 90 31 95 63
10 15 25 49 57 44 30 27 19 73 81
7 78 55 20 58 46 26 8
9 18 83 91 54 47 45 64 2 48
11 89 88 16 40 24 17 79 33 0 68 93

Total makespan: 145

