25
4 71 55 6 29
4 93 17 44 81
4 14 16 20 80
5 70 1 45 78 42
4 28 56 58 91
5 89 96 53 0 54
4 87 12 21 76
3 59 41 47
5 66 40 9 34 99
2 23 65
4 36 83 24 50
4 92 25 35 98
5 39 18 11 22 48
3 26 7 67
5 27 60 52 95 82
2 31 72
3 57 37 94
3 2 4 33
4 10 90 97 88
3 84 85 62
3 75 13 8
5 30 77 61 68 73
5 5 63 69 79 15
6 46 3 32 38 86 74
5 49 19 51 43 64

Total makespan: 45

