30
5 62 44 9 78 60
3 32 55 86
3 99 22 67
3 38 12 57
3 75 26 74
2 7 33
3 90 61 27
3 50 28 76
3 16 4 23
4 92 2 54 97
2 80 63
4 46 45 34 24
4 66 68 94 17
2 65 29
3 88 58 31
3 0 36 21
3 95 71 93
2 30 20
4 77 96 13 72
2 42 35
2 81 15
6 84 53 91 5 37 10
5 40 48 82 1 51
4 69 6 52 3
6 41 98 79 85 43 73
2 25 8
5 14 47 89 87 19
4 83 49 11 18
3 56 64 39
2 59 70

Total makespan: 25

