25
3 71 20 19
5 53 29 83 84 21
3 14 44 3
3 58 92 9
4 85 41 77 23
4 47 17 52 70
5 32 31 88 30 96
2 94 2
3 82 0 4
4 93 80 12 81
4 27 34 51 40
5 25 5 43 75 54
5 24 62 10 90 63
2 1 68
3 73 86 64
4 28 56 57 35
5 11 72 55 79 76
5 39 46 37 65 36
5 74 7 38 78 33
3 60 97 66
4 13 6 89 42
6 15 91 59 16 95 61
6 22 18 50 48 98 99
2 49 26
5 45 69 67 8 87

Total makespan: 68

