15
7 83 59 48 63 19 84 10
6 51 5 43 75 86 23
7 68 65 41 1 36 37 29
8 7 6 17 44 73 20 76 87
6 96 25 69 18 30 26
6 33 3 22 91 28 38
8 16 27 94 49 13 31 99 67
7 50 93 79 32 80 46 92
6 58 62 54 42 12 74
8 61 2 24 82 35 55 97 89
8 71 85 52 40 90 21 8 47
7 72 0 56 66 60 70 77
6 11 39 64 15 88 81
5 9 95 53 34 78
5 57 98 45 14 4

Total makespan: 119

