20
9 40 118 107 7 20 131 37 135 141
10 63 100 129 136 93 78 146 69 90 112
6 26 30 106 125 5 87
4 31 145 54 71
10 59 143 16 65 91 83 105 147 32 67
7 117 8 6 25 41 38 27
9 130 52 84 72 97 134 111 128 74
9 48 73 60 138 9 126 13 132 92
7 142 70 56 51 85 88 36
7 22 33 1 15 108 77 137
7 42 55 95 28 148 123 14
8 139 53 94 39 18 35 58 12
5 64 89 62 119 45
8 113 50 81 149 127 96 144 10
9 44 114 122 124 103 101 82 19 68
7 34 4 79 29 120 43 104
9 140 98 46 121 2 47 115 21 49
6 11 109 99 133 3 75
8 66 76 23 24 61 116 102 17
5 57 80 110 86 0

Total makespan: 111

