25
7 109 64 129 2 125 90 0
7 124 30 20 114 6 78 72
8 100 29 103 53 132 40 104 139
7 47 102 145 65 144 94 85
6 82 26 48 63 111 54
5 27 69 5 36 77
5 66 107 67 127 51
7 32 61 116 87 39 3 117
5 28 113 4 16 37
4 59 86 83 43
5 118 80 128 46 123
7 119 126 133 121 74 93 110
4 99 42 98 8
6 7 137 38 58 136 17
9 57 70 45 14 1 122 10 73 56
6 147 131 12 68 84 9
6 105 24 55 76 142 134
5 62 18 49 11 88
5 96 95 148 106 138
8 44 135 92 50 60 81 35 33
4 19 21 79 13
6 108 97 41 112 52 34
8 130 91 22 146 75 25 120 141
6 71 101 143 149 23 140
4 15 115 89 31

Total makespan: 116

