25
8 12 62 13 81 36 101 84 140
4 5 135 26 123
6 67 65 104 44 121 138
6 127 100 20 15 16 50
7 91 10 131 29 11 147 87
8 89 4 74 120 37 128 83 82
5 116 49 78 69 76
8 52 129 27 63 102 68 53 22
4 98 142 70 28
5 93 58 59 86 149
5 38 77 72 130 132
4 107 137 99 106
7 111 143 113 92 141 118 6
6 122 56 3 119 17 18
5 139 21 39 51 71
7 145 23 40 32 144 34 75
7 79 8 136 24 0 108 9
5 126 31 97 110 109
5 80 73 57 95 146
7 114 125 134 103 43 30 112
4 54 25 2 64
6 124 55 35 133 66 60
8 94 46 47 96 42 19 148 88
6 14 117 115 41 85 61
7 1 48 7 90 45 33 105

Total makespan: 97

