15
9 10 36 31 149 2 79 103 64 124
10 108 47 54 139 73 13 77 133 30 146
8 98 144 118 45 81 41 75 141
7 92 58 52 95 123 3 53
9 32 122 43 137 87 88 23 109 22
11 113 25 49 66 145 143 70 94 115 57 68
8 38 56 48 6 136 97 33 132
10 29 35 140 86 24 7 127 20 5 63
11 60 148 110 8 37 120 69 4 62 0 142
12 121 147 42 125 138 16 27 80 83 46 67 112
13 100 116 12 99 91 65 61 126 39 119 104 51 44
10 21 128 96 1 50 130 134 26 19 89
9 78 105 84 135 82 93 74 17 129
11 72 11 106 131 28 18 9 101 55 90 85
12 76 59 14 34 107 71 117 40 15 114 111 102

Total makespan: 150

