25
6 57 43 2 74 77 51
6 128 38 18 118 119 32
7 79 28 81 48 11 138 95
6 15 63 55 133 44 83
7 82 142 131 147 91 54 122
5 65 4 80 117 39
6 13 49 12 101 21 124
5 37 73 104 78 20
6 90 47 46 34 9 68
5 75 29 145 19 108
5 6 100 102 130 71
6 114 3 88 50 97 92
6 98 66 30 86 40 61
7 33 62 60 99 31 84 42
7 67 129 94 127 76 58 134
7 146 89 72 115 35 70 103
4 126 125 93 17
3 109 69 25
9 140 144 23 106 10 87 116 85 41
6 45 110 112 14 121 143
7 105 113 16 26 107 139 132
6 123 52 24 27 120 137
7 141 22 64 8 53 96 36
6 136 0 135 149 56 111
5 7 1 5 148 59

Total makespan: 70

