30
5 39 106 143 85 34
5 129 142 1 54 30
4 137 109 6 26
5 116 29 127 62 32
4 48 35 41 72
5 135 53 94 36 131
5 24 89 139 52 0
6 122 22 97 78 57 18
4 76 105 136 38
7 88 51 86 70 101 83 31
6 146 75 73 20 17 113
4 114 10 74 104
4 108 91 69 128
4 103 148 93 19
6 92 37 107 111 130 126
5 45 87 33 96 99
4 58 65 119 100
5 120 84 56 63 16
6 140 134 55 7 46 82
6 44 59 5 118 27 144
6 64 3 47 67 49 133
3 11 124 138
4 121 141 79 77
5 71 117 50 132 145
5 21 81 125 13 110
5 60 61 95 68 40
6 8 9 25 23 15 2
5 123 102 43 80 66
4 98 149 42 12
7 115 90 28 112 4 14 147

Total makespan: 54

