10
17 141 84 115 90 102 56 47 25 69 143 24 78 22 81 10 116 63
16 26 127 48 66 107 122 41 82 110 50 142 92 68 99 106 88
15 15 145 139 124 113 37 133 97 128 35 42 49 79 83 4
16 36 29 57 17 31 98 93 121 75 20 95 21 58 1 43 8
13 131 109 46 64 67 74 61 28 51 86 103 149 55
16 123 54 59 89 117 40 13 112 129 134 94 100 91 23 65 130
14 135 3 136 44 9 7 39 11 27 12 104 118 76 38
13 32 30 138 52 70 120 16 19 62 71 137 33 148
14 80 73 140 144 96 85 53 101 105 147 111 77 108 34
16 119 5 146 6 87 0 2 60 126 45 132 72 14 114 18 125

Total makespan: 281

