25
7 140 2 43 144 45 3 44
6 9 141 118 56 92 30
7 68 79 14 29 117 48 67
7 93 28 87 122 145 37 5
7 89 125 47 31 59 20 133
4 139 103 41 38
6 58 12 98 0 7 40
5 42 96 16 128 76
5 81 8 80 102 21
8 83 53 121 34 73 52 78 88
4 25 109 33 110
6 95 126 13 132 97 65
6 130 84 22 86 6 129
8 49 36 112 114 35 111 147 123
4 62 119 15 135
6 115 85 138 104 107 134
6 72 113 106 146 105 63
8 91 137 127 57 74 101 60 4
6 143 51 70 90 1 11
6 23 148 55 124 10 32
6 69 71 26 99 100 149
4 82 142 116 17
7 39 77 18 131 24 64 94
5 27 75 120 66 61
6 136 19 108 50 46 54

Total makespan: 37

