20
9 34 125 133 109 132 13 101 33 21
5 100 129 144 94 15
8 82 51 8 91 105 14 43 104
6 20 36 84 141 45 78
7 134 19 147 46 23 115 99
8 73 131 93 77 120 136 69 50
7 124 2 4 44 38 9 27
7 56 0 127 18 52 72 3
8 89 138 80 140 25 113 16 148
6 7 70 12 68 149 112
8 49 57 98 103 65 102 29 10
8 121 76 139 85 135 35 26 61
7 59 1 107 108 66 37 63
8 67 117 116 48 111 47 146 88
10 55 6 28 106 145 96 83 39 79 137
10 75 5 95 60 17 118 74 87 58 24
5 123 11 119 90 53
7 130 30 97 40 64 122 22
7 54 142 41 62 114 110 86
9 31 92 128 143 32 126 71 42 81

Total makespan: 58

