25
5 64 66 69 102 85
7 47 44 61 105 59 9 110
6 5 84 39 49 93 14
6 80 87 11 116 101 108
7 32 41 19 121 40 16 90
5 29 42 18 111 140
6 118 83 81 71 79 134
9 122 137 10 26 25 98 65 133 34
7 112 68 12 100 15 74 55
5 24 28 117 141 46
5 107 67 131 120 58
5 143 50 94 77 20
3 75 139 95
4 60 23 132 4
5 144 91 146 103 43
7 127 45 125 96 17 92 1
8 88 36 21 113 109 0 128 53
6 115 145 57 51 114 73
6 147 148 13 135 119 123
6 124 99 138 27 136 30
6 8 3 35 31 48 6
6 89 86 2 97 142 72
6 52 104 126 63 129 78
8 149 33 7 70 130 38 76 106
6 82 56 62 37 54 22

Total makespan: 40

