30
3 43 62 23
4 64 54 29 69
5 106 61 42 122 80
3 25 85 52
5 139 21 72 14 107
7 83 38 84 136 8 97 95
4 109 96 108 137
5 50 144 55 76 86
5 115 131 15 12 7
4 27 140 111 114
6 48 33 53 126 102 88
5 120 22 6 104 40
4 47 147 112 63
5 34 18 127 51 130
8 1 116 146 28 119 17 143 134
5 89 60 113 129 77
6 57 82 45 56 39 13
5 142 35 36 59 9
8 149 135 78 66 30 20 58 92
5 99 16 91 49 101
5 87 100 132 117 138
3 2 123 32
6 70 67 74 73 128 133
4 3 81 31 37
6 90 44 4 105 118 79
6 125 65 41 24 94 5
4 124 68 10 46
4 0 98 71 93
4 103 145 110 121
6 26 141 19 11 75 148

Total makespan: 31

