15
6 20 23 22 108 89 113
10 134 35 26 38 127 129 16 117 102 34
9 78 57 92 71 54 135 82 31 104
10 64 21 43 27 18 55 88 101 49 114
11 65 98 79 67 30 56 42 130 12 96 139
11 142 32 118 70 0 4 46 73 111 99 149
9 61 1 84 24 95 47 8 141 147
9 11 94 145 25 124 77 123 103 93
12 133 52 116 83 72 10 59 109 144 126 14 45
13 2 63 136 132 13 146 112 76 75 9 91 19 81
11 58 48 125 97 51 29 44 62 17 40 148
10 41 121 15 106 120 105 37 33 128 7
10 87 80 28 100 115 6 5 50 53 131
9 3 85 143 138 119 90 39 68 110
10 140 137 69 66 36 60 74 107 86 122

Total makespan: 127

