20
7 129 120 69 105 28 140 124
9 145 34 24 100 35 93 40 26 147
8 86 126 32 117 14 36 25 27
6 2 68 64 37 29 74
5 138 31 12 146 5
10 13 101 116 33 11 139 57 21 79 50
7 121 83 38 60 122 62 130
5 46 114 75 39 84
8 113 47 128 81 99 85 54 63
7 109 67 142 8 123 56 94
8 17 134 72 144 119 49 141 118
5 136 115 82 1 59
10 80 92 88 107 10 65 108 30 45 4
6 61 71 96 44 91 43
9 135 66 137 15 22 132 70 77 58
9 19 125 110 53 9 133 7 112 95
9 97 89 102 52 23 3 20 111 48
9 42 127 104 41 148 149 103 131 18
6 106 98 78 51 76 55
7 87 143 90 0 16 73 6

Total makespan: 87

