30
4 120 49 127 86
6 61 80 121 70 149 92
4 57 35 118 47
6 33 58 65 130 139 126
5 131 56 63 99 96
3 28 30 50
7 78 105 136 93 68 107 17
4 36 113 116 84
5 115 55 48 145 62
6 82 95 64 129 132 9
4 111 40 6 51
6 103 143 31 5 42 147
5 41 34 140 7 45
6 52 124 21 44 109 10
6 39 104 134 19 20 43
7 133 100 2 23 141 89 77
4 38 1 146 138
4 15 69 135 144
7 137 119 46 83 13 66 24
4 123 8 27 59
10 81 73 101 4 11 79 3 110 112 128
7 102 29 114 25 26 117 122
3 85 16 37
3 53 74 148
4 106 22 87 67
3 72 54 142
4 32 0 71 60
3 18 90 75
4 88 12 94 76
6 108 14 98 91 97 125

Total makespan: 99

