30
3 38 103 59
6 40 56 79 90 60 102
7 149 1 5 29 57 2 26
5 15 73 105 92 47
5 52 44 83 72 130
6 100 129 125 65 4 48
5 34 121 58 148 70
3 17 45 23
4 112 25 75 22
3 89 143 91
2 111 106
5 27 99 113 124 42
4 101 136 35 119
6 122 133 80 144 94 24
5 55 138 43 11 51
5 64 82 76 62 71
5 49 93 19 126 7
8 117 140 78 68 14 135 104 116
4 46 18 28 13
5 9 147 115 69 63
5 32 74 96 50 16
4 87 54 145 120
6 137 141 95 36 8 61
10 6 20 127 109 81 33 98 37 66 110
7 77 97 10 53 114 88 142
6 107 108 12 86 39 118
3 31 21 134
5 3 0 131 128 84
2 123 41
6 67 85 30 132 139 146

Total makespan: 79

