10
14 119 4 97 135 29 107 70 63 39 6 8 59 82 102
16 99 61 78 34 128 101 37 108 62 21 94 3 23 47 126 77
15 20 16 45 18 91 104 2 88 86 1 134 64 132 69 130
16 84 120 7 93 12 131 35 49 142 121 48 75 110 30 117 52
14 67 54 127 32 51 9 42 148 17 65 68 95 50 145
14 141 115 19 22 113 83 25 14 15 90 85 138 112 136
18 89 13 116 129 137 10 74 5 27 0 125 43 143 80 96 66 103 33
14 72 38 41 53 144 114 98 71 118 46 109 60 140 149
13 28 106 44 122 105 11 56 26 57 79 100 147 133
16 31 81 146 36 92 55 76 40 24 111 124 123 139 58 87 73

Total makespan: 242

