15
9 67 16 35 44 25 120 76 77 129
10 56 127 69 105 122 102 148 53 51 68
9 22 57 106 32 42 40 104 21 65
6 31 17 43 4 64 10
11 63 131 140 13 92 144 111 87 33 48 30
10 36 14 1 83 114 0 7 81 117 139
9 58 134 66 142 123 19 132 147 145
13 26 8 126 27 71 37 12 78 90 2 149 107 141
11 135 74 75 24 101 108 11 5 138 34 143
10 82 80 115 47 38 55 60 45 137 146
14 110 113 112 3 50 118 125 85 54 29 28 59 109 136
13 99 103 121 18 84 95 100 52 70 61 96 116 49
8 79 91 20 119 128 124 15 98
8 88 133 23 46 6 93 73 86
9 9 72 97 94 130 41 39 62 89

Total makespan: 168

