20
8 44 119 22 58 97 106 96 83
9 27 112 35 121 32 30 4 117 24
7 14 72 149 75 15 17 87
7 3 142 71 18 7 69 48
11 63 82 59 77 86 107 92 49 103 26 133
6 101 76 37 116 118 128
7 50 52 85 1 115 39 54
9 120 91 145 146 147 62 132 84 65
7 129 110 144 29 28 125 141
9 127 94 108 47 139 143 68 135 89
7 95 13 123 88 23 93 90
5 38 137 124 60 9
6 99 136 126 81 80 10
7 111 43 19 67 70 40 148
8 16 11 64 113 33 0 12 42
7 45 5 109 57 78 114 46
8 140 61 36 25 66 56 130 2
8 21 131 100 73 41 79 104 6
10 31 134 20 34 55 138 51 74 102 105
4 8 122 53 98

Total makespan: 105

