15
10 55 80 104 94 142 50 40 128 99 62
9 66 147 117 10 35 131 72 29 90
10 44 136 54 98 138 9 134 85 28 37
11 49 48 114 109 78 102 82 36 34 89 145
11 140 1 97 5 31 15 32 146 45 92 22
10 8 133 95 144 24 88 19 79 65 46
4 93 132 3 81
11 30 17 67 100 4 141 39 38 91 0 77
12 143 116 43 121 6 41 61 129 83 53 101 21
11 59 105 76 60 111 122 68 11 112 64 58
9 27 127 16 2 14 123 23 87 110
11 96 7 26 33 139 130 13 75 120 148 47
10 106 56 57 71 86 103 107 126 124 52
10 108 69 149 74 18 42 51 12 70 135
11 137 84 20 125 118 113 63 73 25 119 115

Total makespan: 114

