15
11 78 141 94 41 135 46 146 5 139 90 14
7 84 51 66 36 15 74 132
8 44 56 114 113 55 2 125 68
12 38 1 134 143 129 27 107 99 109 96 9 62
11 82 61 12 130 106 149 13 102 63 39 48
11 17 3 89 87 116 97 47 136 25 18 6
11 30 28 8 118 23 147 100 126 64 133 76
10 4 77 60 54 95 19 49 121 137 88
10 92 67 138 144 103 98 123 75 58 120
9 53 31 124 91 131 50 79 21 81
12 148 140 142 7 145 128 86 16 34 101 26 73
10 11 71 52 108 122 115 83 65 42 40
10 24 80 57 111 127 112 70 117 72 85
10 33 32 119 29 37 22 59 43 45 69
8 0 20 93 35 104 10 110 105

Total makespan: 120

