25
6 27 123 41 34 48 13
7 2 93 6 68 63 104 4
6 97 100 43 67 64 17
6 59 77 22 37 126 16
9 24 110 10 133 53 79 58 23 12
6 47 109 32 137 106 103
5 116 52 3 94 98
4 90 45 80 132
5 124 146 119 144 128
8 120 46 83 61 25 149 33 65
7 95 75 76 140 117 66 121
4 74 85 147 18
7 38 69 49 142 129 31 62
6 26 112 130 86 115 91
7 35 54 141 81 14 99 96
6 19 101 114 39 20 1
5 145 125 131 50 11
6 108 87 51 40 7 143
7 122 15 135 118 111 107 30
7 5 56 0 44 138 73 113
5 60 139 29 92 78
7 102 70 72 82 21 55 136
6 42 28 127 134 84 88
4 9 8 36 148
4 105 89 57 71

Total makespan: 112

