10
16 6 10 61 19 26 77 119 9 146 82 101 142 43 64 117 110
15 72 34 35 125 106 63 42 38 99 138 33 57 46 24 94
17 13 11 15 86 140 107 121 7 27 48 111 84 73 129 137 124 132
14 21 141 104 12 39 8 32 49 108 133 20 70 14 105
16 115 44 74 55 148 66 54 79 144 147 47 68 91 126 89 53
14 69 145 87 71 23 135 118 22 78 41 51 139 93 60
14 92 62 128 100 45 85 25 40 17 122 5 130 136 67
15 31 29 143 120 75 65 97 109 4 83 58 88 80 112 52
16 116 81 59 1 134 96 16 113 103 76 50 95 131 36 114 37
13 18 30 28 2 3 56 0 90 123 127 149 102 98

Total makespan: 167

