15
6 58 73 139 35 30 86
9 42 56 148 132 55 90 62 142 19
13 54 83 63 50 78 37 53 71 27 134 129 79 21
9 130 122 147 88 33 69 140 43 60
10 41 109 144 135 26 112 6 31 52 141
14 38 23 106 74 108 0 25 84 123 72 7 20 10 76
8 121 105 125 91 145 81 133 113
12 104 128 89 107 124 28 77 12 29 17 127 146
8 131 14 102 93 46 2 96 66
11 99 92 40 39 149 64 87 116 34 9 45
11 15 44 100 61 103 18 48 94 95 126 85
8 118 98 32 75 11 57 101 80
10 97 16 67 49 70 110 137 136 120 13
10 117 47 111 65 143 24 22 8 115 5
11 59 51 3 4 114 36 138 68 119 1 82

Total makespan: 123

