25
6 62 102 146 99 119 117
6 91 1 58 100 121 40
4 37 111 140 110
4 108 22 77 148
5 81 14 107 149 61
8 143 137 54 73 86 18 136 42
5 128 123 0 145 39
6 135 47 80 90 2 20
6 70 96 65 74 3 126
5 46 8 5 139 138
8 118 21 64 142 124 60 93 79
7 23 53 144 55 131 32 132
5 10 51 15 33 26
8 56 45 43 82 114 105 122 129
5 48 75 4 103 11
7 50 29 134 112 106 71 109
6 7 36 68 120 116 19
5 28 6 84 97 67
8 41 115 101 12 78 25 49 9
9 76 63 44 31 95 69 104 66 85
5 24 113 94 13 130
8 27 127 125 30 72 88 83 16
4 98 17 133 147
6 57 34 89 59 87 92
4 35 141 38 52

Total makespan: 99

