15
7 57 32 63 17 108 10 5
8 4 118 80 48 7 30 127 79
11 18 22 148 107 31 9 43 86 88 101 38
11 126 110 123 92 87 49 46 35 52 142 26
12 81 115 29 1 60 44 132 71 70 78 100 82
11 90 89 68 134 130 117 62 149 69 146 16
12 25 33 56 99 119 39 20 112 145 41 135 84
9 55 54 143 65 91 96 8 3 21
14 94 12 2 124 93 105 67 83 111 75 128 45 136 122
10 37 53 104 51 144 139 131 14 74 141
11 13 61 121 72 58 114 36 19 98 129 40
8 47 15 6 11 23 42 59 120
8 102 85 76 73 138 97 50 125
11 140 34 103 109 137 28 133 0 147 66 106
7 27 95 113 77 64 24 116

Total makespan: 153

