25
4 73 104 17 22
7 29 114 77 76 37 105 57
7 122 1 15 79 133 103 65
5 111 100 78 136 142
7 123 113 107 40 83 88 8
8 7 71 52 106 115 43 97 91
5 30 23 49 138 13
6 82 129 119 141 98 10
5 62 90 148 120 101
7 19 41 126 11 16 20 137
4 60 25 74 14
7 35 92 109 99 147 34 26
6 144 48 93 12 68 134
4 54 39 94 47
5 143 131 55 32 63
5 145 70 42 116 38
7 61 36 132 96 3 44 117
6 81 2 27 21 125 75
6 6 33 72 67 85 9
5 128 5 69 118 102
7 46 59 149 108 80 110 66
8 130 135 140 56 139 121 58 64
7 87 84 127 53 18 124 89
7 45 95 50 31 4 86 0
5 24 28 146 51 112

Total makespan: 106

