20
12 187 40 56 115 53 97 42 47 116 131 181 68
10 172 133 90 157 4 117 49 184 152 79
12 17 31 67 82 64 45 174 124 170 130 3 58
11 148 43 92 158 134 140 0 183 71 195 169
11 19 74 155 57 69 66 142 121 185 65 171
9 162 63 165 8 29 46 44 60 21
11 128 12 199 151 159 127 20 125 175 86 83
12 84 109 191 118 176 94 137 197 153 139 6 14
8 144 141 10 13 48 51 143 188
8 27 28 196 93 166 120 198 192
11 113 88 160 98 26 136 122 32 99 16 193
11 177 114 149 54 138 186 95 59 11 61 190
10 34 145 2 25 178 70 156 119 75 100
9 168 103 147 39 9 73 96 167 189
6 76 5 72 38 55 111
10 154 80 129 22 18 85 91 89 150 146
12 194 30 106 33 101 126 50 180 52 110 35 78
9 77 107 37 15 102 7 87 1 163
7 132 164 41 36 123 179 104
11 105 81 108 161 112 182 173 23 24 135 62

Total makespan: 151

