25
7 102 12 153 71 195 103 59
11 158 56 29 196 144 13 116 76 68 89 70
4 190 124 186 32
7 26 34 84 151 67 142 183
6 163 48 164 97 154 199
10 160 52 177 145 139 78 187 36 109 100
6 129 176 2 113 115 35
9 38 3 128 79 121 28 8 191 86
9 137 93 134 131 81 65 170 161 61
8 149 49 55 171 21 58 143 157
6 150 120 127 197 106 152
7 117 98 108 168 91 40 88
10 43 20 136 24 10 126 39 25 69 57
10 96 27 83 41 122 119 147 112 37 105
9 173 133 182 47 64 6 31 141 1
6 178 101 11 175 15 16
8 17 181 18 169 184 66 125 180
9 62 114 92 135 130 146 111 156 193
6 132 192 75 188 5 167
7 172 53 162 159 44 99 123
7 73 95 104 107 90 140 0
8 77 74 60 85 19 23 148 4
11 198 54 155 94 80 63 174 179 185 118 194
9 51 46 14 42 7 82 45 165 87
10 9 72 189 110 138 33 22 30 166 50

Total makespan: 138

