25
7 167 179 108 68 122 54 105
8 173 178 32 14 56 29 38 142
7 185 76 59 62 107 48 169
7 11 16 9 123 147 140 104
7 186 91 70 144 163 113 172
8 83 112 98 184 15 143 87 139
9 133 118 94 116 121 135 25 31 46
8 128 0 125 141 153 71 103 138
5 60 39 5 20 8
9 27 45 1 75 61 2 154 66 53
10 193 22 23 78 160 57 40 150 182 10
7 171 187 188 136 73 30 130
10 177 69 99 114 102 7 65 19 190 131
5 72 13 81 165 159
6 129 28 176 126 119 86
8 100 67 152 117 162 124 183 77
8 21 82 35 74 34 33 90 80
8 148 151 55 109 96 199 4 92
7 49 17 166 24 175 145 170
12 132 196 85 58 44 43 106 18 158 120 93 95
8 110 189 127 174 194 3 195 101
10 51 89 97 37 181 115 197 41 157 6
7 12 156 164 149 137 64 192
9 134 50 36 63 161 47 155 191 198
10 168 42 88 146 84 52 180 111 26 79

Total makespan: 84

