20
8 12 108 39 89 63 144 172 193
7 118 87 104 7 191 137 45
10 142 128 59 198 0 95 24 46 35 192
10 166 3 187 175 25 68 147 194 41 165
13 38 146 136 64 185 13 65 153 117 116 74 58 149
10 73 105 101 60 155 16 69 52 177 81
10 119 140 21 79 107 188 168 152 156 123
8 121 42 26 125 195 133 103 114
8 55 197 96 85 8 11 122 70
9 176 181 102 126 139 174 50 93 40
9 138 183 127 189 61 30 162 159 106
11 134 15 66 5 56 170 37 67 33 167 158
12 171 51 48 154 20 113 57 36 160 184 157 72
12 109 92 43 62 130 83 31 29 77 84 2 179
12 88 199 28 49 14 10 32 124 53 34 164 182
11 100 145 90 91 71 99 23 141 6 76 180
10 135 78 163 54 148 19 1 18 151 120
10 4 17 86 82 94 132 169 131 115 173
7 186 178 44 22 97 150 47
13 110 98 129 80 143 161 111 190 75 9 27 196 112

Total makespan: 104

