30
7 5 134 33 118 42 90 136
9 119 137 82 58 128 170 120 156 57
5 171 140 169 72 31
7 150 125 48 191 132 162 161
6 17 98 29 199 122 49
6 158 67 176 186 64 197
8 56 144 70 11 53 36 10 19
6 152 108 168 126 65 6
8 83 96 44 121 103 177 165 138
10 131 85 109 69 75 149 100 66 157 50
7 190 147 27 79 183 163 18
6 182 193 16 87 86 97
6 159 84 173 28 13 20
7 196 102 55 139 148 180 63
6 30 59 4 106 37 178
7 166 146 195 62 61 14 133
7 73 77 34 41 189 38 94
5 130 113 105 154 26
7 51 7 127 24 43 194 188
4 184 52 88 92
9 129 181 47 123 174 60 54 25 167
5 78 145 104 116 21
6 35 2 39 175 187 107
6 68 111 143 117 192 114
6 198 23 112 3 95 142
6 99 155 9 135 89 81
8 1 179 115 151 45 40 12 76
8 124 185 101 141 22 110 15 160
6 32 164 71 93 172 80
6 0 153 91 46 74 8

Total makespan: 62

