20
9 50 175 18 73 54 40 168 13 83
12 78 185 90 128 148 24 59 180 115 172 93 121
12 195 12 69 135 183 146 157 85 34 96 81 161
10 58 36 106 112 181 125 133 138 2 105
10 117 142 39 14 110 131 173 177 17 170
10 152 32 164 22 86 136 184 72 64 6
10 76 158 99 144 162 66 79 28 30 48
8 1 169 41 107 166 102 51 80
13 160 53 52 94 174 153 45 159 61 100 68 91 141
11 108 122 89 63 74 109 129 143 116 27 113
10 29 67 156 60 26 147 101 188 20 92
12 62 55 198 140 126 187 35 127 3 95 11 119
8 182 103 114 87 137 191 171 196
8 111 7 44 145 33 189 167 9
10 88 10 37 82 186 84 57 8 194 15
7 77 0 4 154 42 65 19
10 118 23 43 197 98 5 70 16 123 71
10 97 176 149 199 155 179 56 150 132 120
7 193 139 134 178 31 165 130
13 151 38 192 75 46 21 124 104 163 190 49 47 25

Total makespan: 164

