25
6 89 126 190 28 86 50
7 111 63 90 179 125 195 192
11 39 87 96 110 37 148 117 127 199 20 35
8 34 3 25 123 157 194 41 38
7 146 171 76 169 150 165 140
7 162 108 106 172 24 67 0
11 55 163 23 53 99 168 11 187 155 114 184
9 132 167 118 198 9 80 13 83 105
6 70 32 14 30 177 51
8 88 48 27 94 61 124 196 82
7 29 78 159 81 31 139 189
6 131 71 21 10 17 112
12 142 154 122 103 120 101 128 49 173 64 54 176
8 69 36 26 72 130 98 44 40
8 1 22 57 100 92 8 138 151
6 104 188 47 181 152 144
7 153 193 147 6 119 102 60
7 161 77 160 109 137 79 107
7 65 43 175 166 12 186 66
9 16 129 178 156 19 174 84 141 52
8 134 164 115 4 182 74 133 170
9 62 136 121 93 113 7 149 2 191
7 5 73 185 59 56 180 143
10 135 58 68 97 91 145 18 33 46 45
9 95 197 183 158 85 75 42 15 116

Total makespan: 51

