30
8 196 172 150 191 173 10 19 79
8 24 148 37 154 189 81 166 159
5 38 199 115 17 109
7 82 100 34 59 61 50 127
5 157 66 176 60 91
5 36 18 7 186 132
6 11 101 44 13 70 21
6 51 58 77 130 131 4
6 22 198 32 193 108 8
7 92 48 27 52 9 33 76
7 149 180 87 187 30 192 137
6 80 116 3 49 46 16
7 64 93 120 85 197 73 141
7 54 124 96 174 181 28 104
4 117 177 20 65
8 41 126 110 5 83 122 168 63
5 45 43 118 68 136
6 39 153 99 53 169 161
12 56 67 170 98 138 194 62 133 158 25 140 75
8 95 86 89 155 74 0 190 135
8 162 106 113 90 139 175 125 188
4 29 134 151 145
5 152 40 84 121 57
6 123 6 88 15 42 129
7 103 26 69 171 167 156 72
8 147 47 31 128 94 119 144 105
7 184 165 55 163 114 23 102
7 71 142 2 183 97 35 164
7 78 1 12 182 185 178 107
8 112 14 143 146 111 160 195 179

Total makespan: 108

