20
11 130 39 61 54 58 27 126 52 71 44 151
13 192 79 189 66 125 57 45 163 136 28 182 20 166
10 29 108 73 144 37 16 137 1 8 103
8 65 180 114 128 80 131 41 68
11 33 117 147 141 199 160 138 170 48 60 195
11 67 143 38 14 15 190 69 47 161 171 82
9 177 50 62 185 17 154 196 107 22
9 5 110 89 86 168 98 122 123 124
8 70 75 24 2 63 35 4 74
9 77 99 32 43 193 25 94 119 183
12 106 76 135 59 112 104 139 78 118 101 23 9
10 85 87 81 176 40 56 36 121 159 150
12 194 72 64 191 175 172 179 184 116 18 167 12
10 153 149 178 21 165 105 140 198 156 46
8 132 133 42 92 91 164 174 49
12 173 34 11 188 145 152 7 26 51 95 120 197
8 6 181 102 53 148 30 158 96
11 83 113 0 100 157 88 55 115 3 129 13
10 155 187 127 31 109 19 134 93 146 111
8 162 90 169 142 186 97 10 84

Total makespan: 153

