30
5 12 87 164 129 187
6 160 99 184 53 100 112
5 66 105 102 162 140
4 188 57 60 195
7 139 182 64 145 85 71 52
8 158 197 7 119 16 114 55 31
4 14 143 118 192
4 125 108 132 144
7 98 29 41 79 180 134 80
8 151 59 89 58 22 88 32 44
11 147 101 34 13 35 5 153 116 26 152 51
8 27 78 10 163 179 48 92 38
5 40 176 54 70 175
6 9 62 95 25 61 120
7 77 1 93 124 154 141 15
4 142 90 155 19
9 169 149 156 130 67 161 97 183 170
6 68 45 0 109 18 17
10 157 168 94 166 104 190 135 30 20 198
7 126 43 63 3 24 148 56
10 11 69 174 128 199 110 28 185 81 65
7 159 86 103 36 96 127 189
8 91 193 82 172 123 181 121 113
5 194 4 178 107 8
6 76 111 84 117 47 72
7 191 122 136 23 37 167 2
8 83 137 196 138 115 173 74 131
4 171 6 50 150
9 42 177 75 33 39 106 186 165 73
5 133 21 46 146 49

Total makespan: 38

