20
9 84 109 142 152 80 141 144 44 7
9 40 5 64 149 136 190 145 162 116
8 63 66 11 59 0 104 102 70
13 175 180 172 106 31 133 155 196 6 42 192 177 3
9 22 46 83 52 89 137 148 1 77
11 176 14 165 17 33 65 135 170 154 173 15
8 108 41 107 118 134 164 28 191
11 168 195 112 138 67 91 187 147 132 101 130
13 143 69 2 188 96 47 117 75 119 182 20 34 99
10 61 103 114 111 198 95 37 4 48 183
13 78 163 181 8 24 88 90 178 36 76 158 81 29
9 71 55 184 53 122 113 94 160 123
11 79 13 127 161 50 57 9 23 16 27 92
9 73 140 74 39 146 139 169 189 19
10 124 30 100 129 105 186 174 150 38 131
11 26 82 32 72 87 156 197 97 199 25 179
9 157 85 56 193 166 171 93 68 62
8 115 194 159 110 35 153 98 60
11 128 58 151 54 125 167 120 126 18 45 21
8 121 10 185 86 49 12 51 43

Total makespan: 70

