20
12 221 216 41 21 50 135 99 100 178 90 126 227
10 233 197 82 12 210 93 134 61 228 219
11 189 209 89 2 76 81 129 85 5 80 98
12 97 188 42 96 107 224 243 144 158 101 77 3
14 67 119 141 240 142 22 40 8 185 152 193 201 55 47
13 7 69 174 114 17 170 215 204 151 145 157 195 10
14 29 121 150 160 70 13 38 214 226 139 147 132 109 177
10 37 58 232 198 161 86 241 156 146 68
11 35 143 43 196 165 186 25 108 190 54 72
13 95 24 31 231 63 163 136 175 84 127 159 91 222
14 249 112 49 180 162 244 137 62 122 235 83 4 36 66
16 44 104 105 184 206 130 6 0 205 128 39 230 65 155 106 183
15 236 245 27 242 60 56 168 78 153 234 213 247 74 164 248
15 194 45 217 9 182 237 148 118 212 28 116 138 187 166 200
13 199 34 94 111 19 238 202 133 26 14 149 113 59
14 179 11 123 191 23 220 15 64 33 103 75 218 110 52
11 229 181 117 48 53 87 46 203 176 154 30
12 79 172 192 20 167 131 246 223 71 120 211 73
13 169 88 207 51 124 115 1 125 171 239 92 32 225
7 173 208 18 16 140 102 57

Total makespan: 133

