25
7 174 103 124 146 159 12 162
9 214 171 199 69 153 82 169 54 74
9 130 216 4 71 114 176 158 37 15
10 167 203 68 91 92 2 131 115 217 150
10 61 88 135 112 143 94 179 152 75 237
10 224 72 111 212 6 45 121 177 211 19
12 11 53 63 213 232 104 50 100 96 47 73 225
12 154 244 137 64 95 79 110 89 202 62 129 36
10 108 163 156 101 235 230 191 8 195 198
11 185 234 67 13 181 193 31 9 44 59 39
8 157 196 160 180 144 14 42 148
10 219 155 43 248 125 228 77 215 83 87
8 7 55 56 33 142 187 200 93
10 25 133 197 136 246 119 98 123 231 209
9 218 161 145 189 76 21 183 222 84
9 66 138 97 80 27 141 233 184 139
12 229 223 164 227 65 41 22 182 172 239 90 49
10 127 40 116 210 168 17 48 5 205 128
10 207 58 57 46 178 70 208 3 117 26
13 107 151 23 221 134 140 188 249 81 226 147 243 106
10 51 238 99 186 132 86 60 242 241 236
11 38 20 113 240 206 149 28 126 204 30 0
13 78 170 29 122 192 245 201 190 105 173 166 52 1
9 247 220 18 165 120 109 175 16 194
8 102 85 24 32 118 10 35 34

Total makespan: 60

