10
25 47 63 14 249 139 120 12 244 160 220 242 195 123 85 36 159 58 102 208 7 219 122 236 227 174
24 103 171 70 196 22 10 13 44 97 187 115 205 51 202 206 9 2 170 43 72 178 18 222 21
22 167 55 107 189 198 52 37 248 34 162 73 15 152 239 169 173 194 111 138 56 141 238
28 136 116 100 38 148 197 91 42 143 166 132 114 50 226 129 41 82 240 190 17 228 98 80 45 67 95 96 131
26 191 75 163 16 200 140 106 130 28 157 210 199 54 109 29 92 237 59 113 104 46 211 112 60 127 218
26 217 183 172 35 230 118 89 221 188 245 168 133 149 134 25 164 176 135 125 87 128 48 81 4 231 225
19 33 247 184 243 69 8 84 209 76 57 31 27 66 223 110 62 88 233 213
27 32 108 207 186 68 1 146 65 241 53 193 101 154 181 179 126 182 145 90 99 232 121 83 23 30 212 19
30 203 11 77 6 216 20 40 229 79 24 105 147 175 165 26 201 234 161 3 94 71 156 155 192 215 158 177 246 74 235
23 86 124 39 150 117 204 214 137 185 180 64 224 144 49 93 5 78 0 142 119 61 151 153

Total makespan: 272

