10
27 95 56 221 106 100 33 196 208 125 48 151 128 181 13 152 112 141 104 249 238 184 27 161 117 37 156 145
26 234 60 34 36 232 134 62 226 150 43 68 90 91 180 98 173 46 64 38 97 247 123 138 174 16 211
23 7 25 83 115 94 188 179 88 228 212 31 164 223 140 74 96 12 5 175 42 58 241 82
29 168 147 75 198 167 220 107 113 126 239 233 9 73 28 178 159 242 101 3 35 23 85 171 191 130 202 50 135 70
21 207 2 162 142 11 185 248 120 146 103 67 89 105 240 30 190 176 118 127 8 200
29 108 166 155 153 237 195 163 18 222 193 144 214 158 172 80 121 4 137 139 227 78 170 119 229 76 122 210 84 230
14 87 57 24 10 111 15 69 6 99 132 79 20 206 194
31 204 231 169 47 65 133 77 51 22 149 129 219 187 186 52 225 216 165 199 182 213 53 246 14 102 32 44 86 26 45 203
24 81 218 0 41 72 66 236 154 209 157 148 49 92 131 59 215 1 136 71 224 245 116 110 21
26 39 243 143 63 205 54 235 183 192 217 109 114 19 189 93 124 201 29 160 197 61 40 17 55 244 177

Total makespan: 270

