25
8 37 113 72 59 239 39 68 60
10 11 189 180 86 14 232 119 165 56 150
8 82 227 98 137 90 79 78 107
13 54 27 142 154 192 24 106 16 4 243 173 226 63
11 26 198 41 151 156 241 143 249 52 99 77
12 214 163 171 85 129 45 115 18 29 7 75 206
9 19 131 191 187 197 64 141 73 224
12 65 69 182 149 147 177 193 167 161 28 172 140
11 128 157 181 76 95 71 245 247 57 179 80
12 34 188 215 23 130 121 190 9 125 158 183 136
11 162 48 184 229 127 114 124 112 35 238 186
7 178 134 49 15 231 155 148
10 160 203 8 10 126 58 196 32 46 194
11 236 83 97 153 219 91 175 102 104 111 170
7 0 100 246 55 209 109 20
11 223 220 13 213 123 169 135 22 211 87 235
10 204 166 120 240 244 47 21 168 222 62
10 61 228 31 84 12 94 33 17 2 248
10 53 105 116 138 108 145 217 42 144 205
10 210 207 30 92 70 101 139 230 40 185
9 118 133 201 89 208 176 44 50 67
7 117 199 152 122 164 74 1
8 200 202 96 234 25 146 81 103
12 159 3 51 110 36 225 195 174 218 38 93 233
11 6 242 221 216 66 43 88 237 212 5 132

Total makespan: 99

