10
27 72 240 188 238 214 161 176 77 108 189 131 117 4 163 162 206 152 6 224 248 142 172 212 32 36 217 236
25 17 231 102 175 220 167 193 109 222 31 129 146 119 99 29 168 10 208 5 52 154 213 194 226 79
27 98 94 59 19 232 83 101 8 237 103 171 247 57 113 71 22 81 210 116 185 219 20 136 58 181 241 221
24 249 110 91 75 90 78 122 243 85 0 34 246 43 1 37 23 24 192 73 16 158 173 107 35
21 70 184 50 242 177 21 169 124 3 95 159 174 96 121 97 218 225 147 245 153 62
27 199 93 198 54 118 202 209 155 137 25 104 130 88 201 170 179 200 84 190 63 123 205 33 165 39 126 178
23 46 53 87 80 40 140 244 105 134 42 26 166 151 143 48 74 207 150 138 14 55 145 211
23 196 67 15 228 114 204 164 60 44 115 239 182 18 76 120 65 197 11 61 144 30 186 27
27 100 149 38 111 191 28 139 127 132 235 216 7 180 92 12 49 51 203 89 2 66 112 234 45 128 156 125
26 141 148 230 106 160 69 187 68 133 86 41 183 229 135 82 157 227 195 56 9 13 215 64 233 47 223

Total makespan: 355

