20
14 196 35 88 115 83 99 79 142 95 59 89 103 96 125
12 216 14 69 163 237 165 110 244 134 202 155 51
14 25 161 8 102 234 136 39 63 62 203 154 70 176 248
11 9 140 164 46 210 180 239 178 106 76 67
11 126 19 232 228 227 231 170 224 187 91 65
11 16 21 247 101 172 2 139 158 119 117 121
14 175 171 193 86 81 225 153 31 75 57 56 162 108 191
11 54 157 28 145 233 10 123 50 127 109 74
10 105 60 34 18 43 194 245 11 97 174
14 130 215 45 26 55 114 29 17 33 53 116 23 209 186
16 152 204 113 192 129 135 156 41 118 48 100 240 223 249 38 37
15 242 84 137 124 94 236 214 148 181 173 147 0 238 229 217
13 205 146 40 199 166 179 72 85 177 150 226 218 49
13 243 120 77 4 198 64 24 52 208 132 219 149 213
11 133 131 167 212 82 144 13 220 169 185 44
12 188 47 159 141 182 221 61 128 111 78 32 71
11 12 42 80 206 73 160 90 87 98 27 1
11 15 207 235 211 68 197 36 190 104 222 168
13 7 3 151 143 201 183 189 138 66 230 107 6 22
13 184 20 200 112 58 92 241 5 195 122 93 30 246

Total makespan: 86

