15
10 165 146 73 153 232 223 217 228 79 107
16 99 111 100 15 190 183 139 168 34 5 131 42 75 0 88 50
13 114 224 205 143 208 43 63 25 46 180 106 19 216
21 35 215 128 149 87 62 191 105 212 76 110 129 132 74 44 202 11 124 225 249 142
21 234 134 96 93 171 83 155 211 237 125 246 3 239 82 243 60 204 203 242 66 23
15 49 85 233 220 40 158 138 16 201 245 45 173 179 176 135
20 198 163 29 54 126 174 8 182 26 61 78 115 101 200 194 219 9 13 141 151
19 127 103 140 167 116 160 207 77 22 91 197 238 12 47 113 67 70 90 68
15 166 192 231 28 117 51 229 159 4 189 209 39 170 6 147
20 81 184 108 24 187 86 157 152 37 181 102 144 55 59 196 247 122 31 235 150
18 80 95 236 2 241 195 185 148 177 97 41 172 188 240 17 58 36 145
15 30 27 169 109 120 227 14 206 92 218 1 53 226 7 119
17 104 161 213 98 20 162 156 136 221 121 89 112 65 72 193 32 230
13 133 33 71 137 64 164 248 56 214 130 178 244 175
17 222 48 94 69 154 210 18 186 38 52 118 57 199 123 21 10 84

Total makespan: 138

