10
27 78 31 214 187 127 168 48 87 59 202 140 172 44 142 27 39 132 94 210 191 122 120 152 220 211 108 237
26 227 61 84 96 64 171 147 13 109 181 117 159 63 53 41 218 17 91 215 201 192 123 156 86 249 42
24 60 160 3 139 188 177 50 243 25 85 141 198 138 32 240 150 22 74 146 148 52 37 145 28
24 163 174 51 101 170 2 213 5 186 98 242 196 26 29 20 114 205 104 67 149 115 166 36 45
21 107 212 178 219 195 153 95 12 136 124 199 49 30 79 106 129 133 75 9 116 16
28 77 38 229 73 54 21 70 226 10 92 100 93 173 89 121 43 69 33 194 62 7 102 200 244 1 65 15 236
24 155 157 103 221 208 71 183 130 137 57 80 35 119 82 128 247 113 8 239 169 248 245 111 231
21 154 134 233 189 185 180 193 144 190 162 161 88 175 206 99 224 151 90 209 72 241
24 81 0 234 55 97 56 179 6 47 11 207 131 24 164 58 19 228 143 217 182 126 197 216 184
31 230 204 34 235 68 83 18 203 225 125 40 46 176 232 246 105 223 165 14 110 112 167 158 222 4 135 66 23 76 118 238

Total makespan: 381

