10
28 72 114 31 120 32 130 145 70 190 242 0 90 97 192 238 137 189 8 165 56 175 182 30 154 85 205 144 162
25 202 48 224 218 247 167 110 228 58 139 210 66 176 179 52 92 86 230 6 186 147 135 140 246 59
23 78 184 168 100 34 81 118 136 124 76 29 91 213 149 241 102 234 226 106 212 129 122 22
24 206 121 111 198 231 155 79 21 123 191 148 41 163 193 214 105 84 143 69 236 19 4 35 194
22 169 27 127 157 119 73 249 68 244 83 158 39 195 74 18 229 181 16 75 125 188 128
23 170 159 53 141 47 219 223 33 20 26 171 62 222 63 109 36 37 67 196 96 178 82 103
27 245 7 89 12 172 208 61 42 44 24 153 237 104 207 87 40 248 17 88 134 215 43 209 95 232 239 51
23 65 151 117 217 60 14 13 64 199 152 221 187 71 98 156 200 233 113 46 197 220 77 204
29 183 1 28 225 211 55 2 54 173 216 5 99 38 180 112 166 185 94 23 45 150 177 203 10 164 138 107 133 227
26 3 25 161 146 132 49 57 50 108 201 80 131 115 93 116 243 142 126 15 240 11 235 9 101 174 160

Total makespan: 330

