15
17 219 234 201 58 98 213 93 2 242 136 233 169 173 174 157 164 14
17 19 137 187 122 209 73 50 108 241 195 229 8 120 212 205 202 44
20 105 151 67 162 106 149 91 171 156 46 184 81 25 191 186 119 76 239 21 127
17 207 155 3 125 23 110 20 217 79 182 167 132 172 116 196 194 94
19 211 30 71 31 246 210 1 114 200 226 206 135 147 28 66 139 225 141 115
18 214 224 189 12 22 82 130 153 54 38 86 140 243 49 9 133 97 178
14 92 208 84 5 190 59 74 222 36 129 245 18 124 236
17 112 77 65 62 6 197 128 118 51 247 13 121 142 237 154 175 117
13 83 198 95 60 69 231 113 63 240 192 78 228 232
15 104 35 134 159 126 80 0 188 138 111 15 102 216 146 150
16 179 221 34 24 238 109 10 143 55 215 29 48 96 90 57 101
16 70 131 165 37 185 199 72 170 56 193 168 42 64 45 158 33
17 144 39 176 152 47 248 230 41 17 27 223 166 107 183 40 32 160
19 220 26 181 16 89 43 161 235 218 61 7 203 75 148 177 87 249 180 163
15 244 204 123 68 85 99 103 11 100 88 52 53 4 145 227

Total makespan: 179

