15
20 139 164 76 81 104 43 116 115 168 27 133 147 206 210 23 11 19 226 21 142
17 34 60 221 162 249 240 14 103 247 234 61 29 158 201 196 175 80
15 237 190 42 51 145 241 32 214 132 16 137 213 33 25 106
16 207 72 182 114 172 242 243 169 69 124 3 235 212 98 108 140
14 0 30 170 20 52 120 150 5 101 77 220 22 66 9
18 178 83 71 215 248 38 223 230 167 128 64 63 232 216 40 95 244 13
20 93 39 179 18 227 211 130 125 193 245 1 121 160 55 102 198 208 152 218 109
13 82 7 85 37 229 129 184 155 233 79 157 192 183
17 144 165 173 99 8 131 49 122 92 46 87 185 119 199 219 236 146
15 57 187 12 143 110 28 191 17 105 195 65 96 231 171 166
18 159 134 56 97 153 205 91 4 204 73 74 202 180 148 70 54 154 53
13 217 194 163 10 135 189 35 58 200 225 186 6 174
17 94 127 181 50 161 118 197 59 68 47 126 156 113 151 117 138 90
20 123 203 75 86 222 188 88 141 246 89 62 26 48 100 44 224 112 111 136 45
17 228 177 176 238 15 107 41 67 31 2 239 149 78 84 36 24 209

Total makespan: 147

