20
12 6 90 23 113 158 37 202 77 7 165 118 41
11 188 43 54 161 39 234 166 127 210 130 139
12 115 57 32 98 123 109 186 240 1 160 95 70
14 35 206 232 34 74 94 107 0 29 176 144 45 120 163
15 173 231 72 105 12 190 178 102 181 167 155 69 242 17 73
7 42 224 3 128 221 171 156
11 236 229 201 25 10 21 137 218 203 194 55
11 103 179 114 198 63 172 243 211 9 162 24
16 230 226 83 238 79 220 47 248 40 122 108 101 199 96 233 124
11 140 16 244 219 241 146 87 237 49 150 2
13 193 154 153 136 52 61 104 28 189 132 18 68 223
10 249 67 88 82 89 208 177 84 33 191
14 78 183 26 20 31 5 246 97 149 111 138 80 164 142
15 110 44 133 247 81 192 148 168 71 239 92 175 11 36 50
14 141 207 59 159 235 100 112 15 116 22 135 65 46 174
16 13 30 227 51 119 19 215 38 170 197 204 145 4 216 228 125
8 93 212 117 56 27 66 157 91
14 222 151 217 185 195 8 64 76 209 214 14 121 53 48
12 134 225 169 152 147 187 200 106 213 126 85 129
14 131 58 180 60 75 184 245 62 86 99 182 205 196 143

Total makespan: 195

