15
16 54 178 196 177 109 219 160 153 128 190 69 236 5 130 110 102
15 0 39 239 205 203 75 7 59 201 100 47 99 82 202 51
21 131 115 94 242 80 214 12 179 112 240 141 229 187 4 164 28 14 85 166 149 13
14 101 158 79 137 211 52 232 98 204 225 111 24 248 181
17 151 66 222 145 192 119 191 71 23 118 157 116 213 74 123 180 193
17 34 30 189 86 243 134 62 108 76 237 20 210 41 150 78 95 140
16 138 103 228 215 63 147 126 120 1 93 230 21 83 42 87 106
16 57 176 198 19 31 3 188 38 234 217 171 212 48 144 8 197
17 167 37 70 185 46 246 50 53 182 33 40 49 65 124 10 173 165
13 133 64 68 218 183 58 117 91 161 216 44 107 104
12 121 26 195 60 25 27 55 155 241 224 154 152
19 22 122 223 77 32 148 114 175 249 56 15 169 172 186 162 105 235 11 129
19 2 206 184 6 156 73 207 96 125 43 97 18 88 135 159 168 113 143 199
21 45 35 226 90 200 208 221 238 209 170 146 127 81 163 142 36 247 61 92 9 17
17 231 245 194 16 72 244 174 136 67 220 233 89 132 139 29 84 227

Total makespan: 179

