20
2 40 0
4 18 42 17 44
2 5 20
2 32 24
2 36 12
2 8 19
3 21 33 1
2 7 16
3 14 10 4
3 3 41 6
2 15 13
3 37 28 34
1 31
3 27 49 45
4 47 2 26 46
2 9 38
2 48 23
3 22 35 43
3 25 11 30
2 29 39

Total makespan: 49

