20
3 33 39 43
2 48 15
3 29 46 12
3 49 44 10
2 40 32
4 14 27 5 31
2 23 25
4 26 8 42 3
3 20 45 18
1 21
2 34 38
4 24 22 6 37
2 35 19
2 7 4
3 47 11 28
2 13 36
2 9 41
2 17 2
2 0 1
2 30 16

Total makespan: 39

