25
2 34 1
2 22 33
2 35 31
3 29 41 40
2 30 10
2 26 3
2 6 4
2 0 13
1 17
2 37 43
1 24
1 21
2 44 28
1 27
2 39 42
3 14 2 16
4 5 9 15 19
2 23 11
2 36 45
2 7 47
2 32 48
2 12 38
3 18 49 8
2 46 25
1 20

Total makespan: 29

