25
1 25
2 21 36
2 29 9
3 31 46 2
2 18 20
2 42 15
4 17 39 10 48
2 30 40
1 0
1 6
3 13 47 44
2 33 5
1 43
2 41 49
1 27
1 45
3 3 38 23
2 16 28
2 34 24
2 11 19
2 26 1
4 14 12 32 4
1 8
2 37 22
2 7 35

Total makespan: 22

