20
2 45 22
2 12 35
2 23 25
2 40 19
2 0 39
2 49 8
2 1 27
2 21 26
2 37 2
4 4 41 42 38
3 43 13 15
2 48 24
3 31 3 46
4 10 32 9 33
2 14 18
3 29 30 5
3 28 44 11
3 34 7 6
3 20 47 16
2 17 36

Total makespan: 41

