20
2 46 9
2 15 35
2 18 28
3 38 24 34
2 33 20
4 25 48 29 36
1 2
3 40 44 21
3 23 47 0
4 7 22 49 30
2 42 45
3 14 19 39
2 5 16
2 32 27
3 43 3 26
2 11 31
3 12 13 37
2 1 6
3 41 8 10
2 17 4

Total makespan: 40

