30
2 27 44
1 17
2 31 26
2 45 19
2 18 37
2 33 43
1 13
2 38 35
1 1
1 46
1 9
1 30
2 29 22
2 48 47
2 2 4
2 41 3
1 16
1 12
3 32 10 25
1 28
2 39 15
1 5
2 6 42
2 23 11
1 8
2 21 24
2 34 20
2 36 40
2 14 0
2 7 49

Total makespan: 19

