30
2 31 15
1 19
2 21 35
2 18 22
1 17
1 0
2 27 7
2 40 34
2 45 32
1 28
2 5 4
2 14 42
3 48 41 46
2 20 44
1 2
2 8 43
1 6
1 39
2 49 11
1 36
1 3
2 1 12
2 24 30
1 47
2 37 29
2 23 25
2 16 10
2 26 33
2 13 9
1 38

Total makespan: 17

