20
3 7 32 27
2 5 44
2 1 17
2 34 35
3 25 29 46
4 23 15 39 21
3 20 47 37
3 48 11 8
2 19 43
3 10 49 9
2 45 18
3 36 33 41
2 2 30
3 42 28 31
3 24 13 4
2 3 0
3 14 12 22
2 38 16
2 26 40
1 6

Total makespan: 34

