30
1 46
2 0 20
2 42 5
1 16
2 15 6
1 24
2 38 34
2 4 33
1 44
1 41
1 32
3 14 25 7
3 10 39 28
1 48
1 45
1 17
2 11 35
2 13 31
3 26 29 49
1 27
1 23
1 36
2 21 47
2 22 19
1 3
1 43
1 2
2 18 1
3 40 37 9
3 8 30 12

Total makespan: 25

