15
6 48 44 1 86 94 22
7 5 43 20 17 21 85 34
7 88 42 89 12 51 90 50
6 31 93 4 0 25 62
5 35 74 63 52 82
6 10 71 84 47 91 29
7 3 40 37 45 28 80 65
7 49 59 32 57 58 78 8
8 38 9 76 83 61 68 95 53
7 87 19 97 70 23 98 11
8 60 36 18 66 54 33 79 24
5 13 7 77 92 75
8 27 2 67 96 16 72 46 41
6 26 64 55 81 39 99
7 14 73 6 56 15 69 30

Total makespan: 80

