15
9 15 40 128 36 50 68 80 104 94
9 55 66 72 29 90 34 87 131 117
10 9 134 85 28 37 13 136 54 81 52
10 107 49 95 89 44 78 102 82 114 98
11 97 5 31 32 146 45 92 133 140 1 30
10 109 111 24 144 42 79 88 64 8 46
5 99 113 19 100 93
14 143 138 74 67 4 3 141 39 38 0 91 148 17 77
13 47 101 21 6 53 96 121 147 142 41 61 129 83
10 11 112 62 76 60 22 105 59 145 132
9 27 127 16 2 14 123 108 116 110
9 115 75 120 7 26 139 130 33 43
10 124 126 57 71 86 58 106 56 23 103
10 12 70 135 10 137 20 149 18 51 69
11 119 125 84 118 122 25 48 35 63 73 65

Total makespan: 111

