30
3 138 140 86
7 103 90 112 44 71 53 49
5 51 39 93 34 8
5 79 142 109 57 43
5 119 72 127 136 63
5 76 77 36 40 58
4 83 75 137 100
5 68 23 48 61 55
5 60 14 133 96 85
6 9 97 6 134 104 139
7 120 1 70 114 62 80 19
6 32 22 30 118 64 87
5 5 38 141 13 37
9 126 105 91 47 113 20 110 26 21
6 147 88 66 28 4 82
5 148 124 24 101 17
6 84 35 16 107 98 42
5 56 99 89 7 52
5 73 115 123 128 0
3 50 2 65
5 78 143 46 144 3
4 74 67 31 59
5 29 12 15 125 122
6 117 108 33 41 130 27
3 111 149 146
5 11 18 69 54 116
3 25 95 102
4 81 145 94 129
4 10 106 92 45
4 135 121 131 132

Total makespan: 31

