20
7 31 14 116 136 114 38 77
8 86 18 56 68 1 149 44 22
5 55 20 106 131 48
6 32 117 72 148 37 126
5 112 43 113 78 63
8 128 46 90 122 110 143 85 29
5 30 97 69 61 121
9 127 124 105 135 82 91 76 2 25
8 89 84 138 13 130 35 3 19
8 49 132 108 41 59 79 144 26
8 36 129 120 101 53 94 83 58
7 146 111 134 16 39 98 99
9 60 50 15 145 73 115 47 28 74
12 45 123 80 118 71 100 9 40 62 8 140 103
10 93 24 119 54 147 125 6 52 95 88
6 66 0 137 27 17 87
7 57 141 133 42 34 23 5
7 67 21 65 96 51 4 142
8 75 70 81 64 12 10 104 11
7 7 33 92 109 107 139 102

Total makespan: 64

