10
16 22 187 123 75 164 29 63 141 66 56 117 173 64 35 10 181
16 191 148 59 99 45 90 176 106 12 15 11 131 36 46 197 28
18 118 151 157 101 130 55 163 68 76 47 105 85 171 74 23 167 51 161
25 33 24 144 145 132 0 147 71 150 65 88 20 43 3 107 89 96 25 5 38 44 193 172 82 19
20 119 92 58 183 27 120 1 137 122 17 178 30 7 73 198 104 72 67 142 6
20 78 110 53 50 184 77 155 170 48 153 152 156 126 98 125 102 149 79 127 124
24 160 128 83 159 179 113 166 108 40 136 111 81 39 61 52 116 60 62 115 185 41 34 57 94
19 13 158 195 26 146 139 93 189 37 31 86 143 140 174 8 100 165 49 138
22 194 199 91 69 21 134 84 192 9 42 2 135 186 175 54 154 188 169 180 162 182 168
20 190 103 133 4 16 97 14 114 109 80 32 112 87 70 129 95 177 18 121 196

Total makespan: 245

