Instance....: instances/I_100_20_S_1-49_10.txt
Algorithm...: Simulated Annealing (alpha=0.990, saMax=10M, t0=1)
Other params: maxIters=100M, seed=-1, timeLimit=3600.00s

    /--------------------------------------------------------\
    |     Iter |   RDP(%) |       S* |       S' |       Time | 
    |----------|----------|----------|----------|------------|
    |        0 |        - |      808 |      808 |       0.00 | s0
    |        0 |        - |      788 |      788 |       0.00 | *
    |        3 |        - |      670 |      670 |       0.01 | *
    |        7 |        - |      663 |      663 |       0.02 | *
    |       11 |        - |      656 |      656 |       0.02 | *
    |       12 |        - |      646 |      646 |       0.03 | *
    |       15 |        - |      607 |      607 |       0.03 | *
    |       36 |        - |      585 |      585 |       0.03 | *
    |       37 |        - |      563 |      563 |       0.03 | *
    |       43 |        - |      555 |      555 |       0.03 | *
    |       44 |        - |      553 |      553 |       0.03 | *
    |       52 |        - |      531 |      531 |       0.04 | *
    |       70 |        - |      515 |      515 |       0.04 | *
    |       73 |        - |      511 |      511 |       0.04 | *
    |       74 |        - |      502 |      502 |       0.04 | *
    |       76 |        - |      501 |      501 |       0.04 | *
    |       79 |        - |      497 |      497 |       0.04 | *
    |       81 |        - |      492 |      492 |       0.04 | *
    |       83 |        - |      491 |      491 |       0.04 | *
    |       84 |        - |      474 |      474 |       0.04 | *
    |       88 |        - |      465 |      465 |       0.04 | *
    |       96 |        - |      449 |      449 |       0.04 | *
    |       99 |        - |      441 |      441 |       0.04 | *
    |      100 |        - |      432 |      432 |       0.04 | *
    |      101 |        - |      429 |      429 |       0.04 | *
    |      114 |        - |      417 |      417 |       0.04 | *
    |      123 |        - |      413 |      413 |       0.05 | *
    |      152 |        - |      406 |      406 |       0.05 | *
    |      157 |        - |      401 |      401 |       0.05 | *
    |      165 |        - |      396 |      396 |       0.05 | *
    |      173 |        - |      391 |      391 |       0.05 | *
    |      174 |        - |      389 |      389 |       0.05 | *
    |      180 |        - |      386 |      386 |       0.05 | *
    |      201 |        - |      383 |      383 |       0.05 | *
    |      202 |        - |      376 |      376 |       0.05 | *
    |      205 |        - |      374 |      374 |       0.05 | *
    |      233 |        - |      359 |      359 |       0.05 | *
    |      234 |        - |      357 |      357 |       0.05 | *
    |      244 |        - |      353 |      353 |       0.05 | *
    |      249 |        - |      349 |      349 |       0.05 | *
    |      261 |        - |      345 |      345 |       0.06 | *
    |      269 |        - |      339 |      339 |       0.06 | *
    |      273 |        - |      332 |      332 |       0.06 | *
    |      286 |        - |      331 |      331 |       0.06 | *
    |      294 |        - |      327 |      327 |       0.06 | *
    |      296 |        - |      320 |      320 |       0.06 | *
    |      300 |        - |      317 |      317 |       0.06 | *
    |      301 |        - |      313 |      313 |       0.06 | *
    |      308 |        - |      312 |      312 |       0.06 | *
    |      339 |        - |      310 |      310 |       0.06 | *
    |      343 |        - |      305 |      305 |       0.06 | *
    |      344 |        - |      303 |      303 |       0.06 | *
    |      357 |        - |      302 |      302 |       0.06 | *
    |      365 |        - |      301 |      301 |       0.06 | *
    |      385 |        - |      298 |      298 |       0.06 | *
    |      442 |        - |      297 |      297 |       0.07 | *
    |      445 |        - |      294 |      294 |       0.07 | *
    |      459 |        - |      293 |      293 |       0.07 | *
    |      473 |        - |      290 |      290 |       0.07 | *
    |      475 |        - |      289 |      289 |       0.07 | *
    |      488 |        - |      284 |      284 |       0.07 | *
    |      492 |        - |      282 |      282 |       0.07 | *
    |      515 |        - |      280 |      280 |       0.07 | *
    |      524 |        - |      277 |      277 |       0.07 | *
    |      528 |        - |      275 |      275 |       0.07 | *
    |      529 |        - |      272 |      272 |       0.07 | *
    |      532 |        - |      271 |      271 |       0.07 | *
    |      538 |        - |      270 |      270 |       0.07 | *
    |      546 |        - |      268 |      268 |       0.07 | *
    |      549 |        - |      267 |      267 |       0.08 | *
    |      571 |        - |      264 |      264 |       0.08 | *
    |      574 |        - |      261 |      261 |       0.08 | *
    |      587 |        - |      259 |      259 |       0.08 | *
    |      595 |        - |      257 |      257 |       0.08 | *
    |      608 |        - |      256 |      256 |       0.08 | *
    |      621 |        - |      254 |      254 |       0.08 | *
    |      637 |        - |      253 |      253 |       0.08 | *
    |      639 |        - |      251 |      251 |       0.08 | *
    |      727 |        - |      249 |      249 |       0.08 | *
    |      761 |        - |      248 |      248 |       0.08 | *
    |      796 |        - |      247 |      247 |       0.08 | *
    |      798 |        - |      246 |      246 |       0.08 | *
    |      834 |        - |      242 |      242 |       0.08 | *
    |      882 |        - |      241 |      241 |       0.08 | *
    |      913 |        - |      240 |      240 |       0.08 | *
    |      919 |        - |      239 |      239 |       0.09 | *
    |      921 |        - |      238 |      238 |       0.09 | *
    |      957 |        - |      237 |      237 |       0.09 | *
    |      982 |        - |      236 |      236 |       0.09 | *
    |     1000 |        - |      235 |      235 |       0.09 | *
    |     1071 |        - |      234 |      234 |       0.09 | *
    |     1097 |        - |      233 |      233 |       0.09 | *
    |     1103 |        - |      231 |      231 |       0.09 | *
    |     1149 |        - |      230 |      230 |       0.09 | *
    |     1158 |        - |      228 |      228 |       0.09 | *
    |     1173 |        - |      225 |      225 |       0.09 | *
    |     1201 |        - |      222 |      222 |       0.09 | *
    |     1215 |        - |      219 |      219 |       0.09 | *
    |     1272 |        - |      218 |      218 |       0.09 | *
    |     1293 |        - |      217 |      217 |       0.09 | *
    |     1300 |        - |      216 |      216 |       0.09 | *
    |     1314 |        - |      215 |      215 |       0.09 | *
    |     1315 |        - |      214 |      214 |       0.10 | *
    |     1326 |        - |      213 |      213 |       0.10 | *
    |     1431 |        - |      212 |      212 |       0.10 | *
    |     1481 |        - |      211 |      211 |       0.10 | *
    |     1495 |        - |      207 |      207 |       0.10 | *
    |     1521 |        - |      205 |      205 |       0.10 | *
    |     1567 |        - |      203 |      203 |       0.10 | *
    |     1660 |        - |      202 |      202 |       0.10 | *
    |     1661 |        - |      200 |      200 |       0.10 | *
    |     1680 |        - |      199 |      199 |       0.10 | *
    |     1753 |        - |      198 |      198 |       0.10 | *
    |     1888 |        - |      196 |      196 |       0.10 | *
    |     1914 |        - |      195 |      195 |       0.10 | *
    |     1937 |        - |      193 |      193 |       0.10 | *
    |     1968 |        - |      191 |      191 |       0.10 | *
    |     1977 |        - |      190 |      190 |       0.11 | *
    |     2036 |        - |      186 |      186 |       0.11 | *
    |     2042 |        - |      184 |      184 |       0.11 | *
    |     2092 |        - |      183 |      183 |       0.11 | *
    |     2098 |        - |      181 |      181 |       0.11 | *
    |     2435 |        - |      178 |      178 |       0.11 | *
    |     2447 |        - |      176 |      176 |       0.11 | *
    |     2455 |        - |      175 |      175 |       0.11 | *
    |     2549 |        - |      174 |      174 |       0.11 | *
    |     2564 |        - |      173 |      173 |       0.11 | *
    |     2623 |        - |      172 |      172 |       0.11 | *
    |     2626 |        - |      168 |      168 |       0.11 | *
    |     2740 |        - |      166 |      166 |       0.11 | *
    |     2827 |        - |      164 |      164 |       0.12 | *
    |     2840 |        - |      163 |      163 |       0.12 | *
    |     2868 |        - |      162 |      162 |       0.12 | *
    |     2880 |        - |      161 |      161 |       0.12 | *
    |     2894 |        - |      160 |      160 |       0.12 | *
    |     3103 |        - |      159 |      159 |       0.12 | *
    |     3609 |        - |      158 |      158 |       0.12 | *
    |     3612 |        - |      157 |      157 |       0.12 | *
    |     3853 |        - |      156 |      156 |       0.12 | *
    |     4311 |        - |      153 |      153 |       0.13 | *
    |     4337 |        - |      152 |      152 |       0.13 | *
    |     4363 |        - |      151 |      151 |       0.13 | *
    |     4383 |        - |      149 |      149 |       0.13 | *
    |     4409 |        - |      147 |      147 |       0.13 | *
    |     5066 |        - |      145 |      145 |       0.14 | *
    |     5353 |        - |      144 |      144 |       0.14 | *
    |     5451 |        - |      143 |      143 |       0.14 | *
    |     5604 |        - |      142 |      142 |       0.14 | *
    |     5688 |        - |      141 |      141 |       0.14 | *
    |     5691 |        - |      140 |      140 |       0.14 | *
    |     5841 |        - |      139 |      139 |       0.14 | *
    |     5867 |        - |      138 |      138 |       0.14 | *
    |     5885 |        - |      137 |      137 |       0.14 | *
    |     5962 |        - |      136 |      136 |       0.14 | *
    |     6084 |        - |      135 |      135 |       0.14 | *
    |     6098 |        - |      133 |      133 |       0.15 | *
    |     6106 |        - |      132 |      132 |       0.15 | *
    |     6144 |        - |      131 |      131 |       0.15 | *
    |     6222 |        - |      130 |      130 |       0.15 | *
    |     6228 |        - |      129 |      129 |       0.15 | *
    |     6236 |        - |      128 |      128 |       0.15 | *
    |     6750 |        - |      125 |      125 |       0.15 | *
    |     7091 |        - |      124 |      124 |       0.15 | *
    |     7315 |        - |      122 |      122 |       0.15 | *
    |     7751 |        - |      121 |      121 |       0.15 | *
    |     7763 |        - |      120 |      120 |       0.16 | *
    |     7791 |        - |      119 |      119 |       0.16 | *
    |     8085 |        - |      117 |      117 |       0.16 | *
    |     8092 |        - |      115 |      115 |       0.16 | *
    |     8349 |        - |      112 |      112 |       0.16 | *
    |     8664 |        - |      111 |      111 |       0.16 | *
    |     8665 |        - |      110 |      110 |       0.16 | *
    |     9136 |        - |      109 |      109 |       0.16 | *
    |     9314 |        - |      107 |      107 |       0.16 | *
    |     9719 |        - |      106 |      106 |       0.17 | *
    |     9831 |        - |      105 |      105 |       0.17 | *
    |      11K |        - |      104 |      104 |       0.17 | *
    |      11K |        - |      102 |      102 |       0.17 | *
    |      12K |        - |      101 |      101 |       0.17 | *
    |      14K |        - |       99 |       99 |       0.18 | *
    |      14K |        - |       98 |       98 |       0.18 | *
    |      14K |        - |       96 |       96 |       0.18 | *
    |      17K |        - |       95 |       95 |       0.19 | *
    |      19K |        - |       94 |       94 |       0.19 | *
    |      23K |        - |       93 |       93 |       0.19 | *
    |      23K |        - |       92 |       92 |       0.19 | *
    |      23K |        - |       91 |       91 |       0.20 | *
    |      25K |        - |       90 |       90 |       0.20 | *
    |      25K |        - |       89 |       89 |       0.20 | *
    |      28K |        - |       88 |       88 |       0.21 | *
    |      33K |        - |       87 |       87 |       0.21 | *
    |      37K |        - |       86 |       86 |       0.22 | *
    |      38K |        - |       85 |       85 |       0.22 | *
    |      39K |        - |       84 |       84 |       0.23 | *
    |      43K |        - |       83 |       83 |       0.23 | *
    |      44K |        - |       82 |       82 |       0.23 | *
    |      51K |        - |       81 |       81 |       0.24 | *
    |      56K |        - |       80 |       80 |       0.25 | *
    |     116K |        - |       79 |       79 |       0.32 | *
    |     116K |        - |       78 |       78 |       0.32 | *
    |     119K |        - |       76 |       76 |       0.32 | *
    |     127K |        - |       75 |       75 |       0.34 | *
    |     136K |        - |       74 |       74 |       0.36 | *
    |     212K |        - |       73 |       73 |       0.55 | *
    |     214K |        - |       72 |       72 |       0.55 | *
    |     224K |        - |       71 |       71 |       0.58 | *
    |     242K |        - |       70 |       70 |       0.62 | *
    |     352K |        - |       69 |       69 |       0.85 | *
    |     419K |        - |       68 |       68 |       0.94 | *
    |     595K |        - |       67 |       67 |       1.11 | *
    |     595K |        - |       66 |       66 |       1.11 | *
    |     615K |        - |       65 |       65 |       1.13 | *
    |    2339K |        - |       64 |       64 |       2.75 | *
    |    2347K |        - |       63 |       63 |       2.76 | *
    |    2939K |        - |       62 |       62 |       3.17 | *
    |      38M |        - |       61 |       61 |      28.47 | *
    |      80M |        - |       60 |       60 |      55.02 | *
    |     260M |        - |       59 |       59 |     164.56 | *
    |     714M |        - |       58 |       58 |     440.77 | *
    \--------------------------------------------------------/

Neighborhoods statistics (values in %):

    /----------------------------------------------------------------\
    | Move               | Improvs. | Sideways |  Accepts |  Rejects |
    |--------------------|----------|----------|----------|----------|
    | Shift(mk)          |     107K |    2112K |    2258K |     245M |
    | Shift              |     5425 |    5845K |    5934K |     241M |
    | ShiftSmart(mk)     |     341K |    4470K |    4938K |     242M |
    | ShiftSmart         |      17K |      15M |      15M |     232M |
    | SimpSwap(mk)       |      687 |      20K |      21K |     247M |
    | SimpSwap           |       60 |      30K |      31K |     247M |
    | SimpSwapSmart(mk)  |     2747 |      79K |      83K |     247M |
    | SimpSwapSmart      |      293 |     118K |     121K |     247M |
    | Swap(mk)           |      341 |     1978 |     2464 |     247M |
    | Swap               |       48 |     5406 |     5773 |     247M |
    | SwapSmart(mk)      |     3188 |      26K |      31K |     247M |
    | SwapSmart          |      343 |      55K |      58K |     247M |
    | Switch(mk)         |      37K |      40M |      41M |     206M |
    | Switch             |     1874 |      57M |      57M |     190M |
    | SwitchSmart(mk)    |     123K |    1458K |    1616K |     246M |
    | SwitchSmart        |     6172 |    6495K |    6593K |     240M |
    | TaskMove(mk)       |     4527 |      15K |      21K |     247M |
    | TaskMove           |      217 |      45K |      48K |     247M |
    | TaskMoveSmart(mk)  |      18K |      66K |      92K |     247M |
    | TaskMoveSmart      |     1078 |     191K |     204K |     247M |
    | 2-Shift(mk)        |      68K |    9893K |    9983K |     237M |
    | 2-Shift            |     3304 |      22M |      22M |     225M |
    | 2-ShiftSmart(mk)   |     186K |      17M |      17M |     230M |
    | 2-ShiftSmart       |     9338 |      37M |      37M |     210M |
    \----------------------------------------------------------------/

Best makespan.....: 58
N. of Iterations..: 5930320202
Total runtime.....: 3600.02s
Using Python-MIP package version 1.6.8
Começo a execução
    /-------------------------------------------------------------------------------\
    |    Makespan   |   Free Jobs   | Free Machines |    It. Time   |   Total Time  | 
    |-------------------------------------------------------------------------------|
    \-------------------------------------------------------------------------------/
Terminou a execução
