Instance....: instances/I_100_25_S_1-9_10.txt
Algorithm...: Simulated Annealing (alpha=0.990, saMax=10M, t0=1)
Other params: maxIters=100M, seed=-1, timeLimit=3600.00s

    /--------------------------------------------------------\
    |     Iter |   RDP(%) |       S* |       S' |       Time | 
    |----------|----------|----------|----------|------------|
    |        0 |        - |      683 |      683 |       0.00 | s0
    |        3 |        - |      670 |      670 |       0.03 | *
    |        5 |        - |      667 |      667 |       0.03 | *
    |        6 |        - |      618 |      618 |       0.03 | *
    |       18 |        - |      551 |      551 |       0.04 | *
    |       38 |        - |      530 |      530 |       0.04 | *
    |       39 |        - |      508 |      508 |       0.05 | *
    |       41 |        - |      499 |      499 |       0.05 | *
    |       42 |        - |      497 |      497 |       0.05 | *
    |       44 |        - |      492 |      492 |       0.05 | *
    |       45 |        - |      457 |      457 |       0.05 | *
    |       48 |        - |      451 |      451 |       0.06 | *
    |       49 |        - |      449 |      449 |       0.06 | *
    |       50 |        - |      438 |      438 |       0.06 | *
    |       52 |        - |      416 |      416 |       0.06 | *
    |       54 |        - |      406 |      406 |       0.06 | *
    |       65 |        - |      401 |      401 |       0.06 | *
    |       67 |        - |      388 |      388 |       0.06 | *
    |       70 |        - |      381 |      381 |       0.06 | *
    |       74 |        - |      374 |      374 |       0.06 | *
    |       77 |        - |      359 |      359 |       0.06 | *
    |       79 |        - |      344 |      344 |       0.06 | *
    |       80 |        - |      332 |      332 |       0.07 | *
    |       84 |        - |      325 |      325 |       0.07 | *
    |       89 |        - |      322 |      322 |       0.07 | *
    |       90 |        - |      316 |      316 |       0.07 | *
    |       93 |        - |      314 |      314 |       0.07 | *
    |       98 |        - |      304 |      304 |       0.07 | *
    |       99 |        - |      294 |      294 |       0.07 | *
    |      100 |        - |      293 |      293 |       0.07 | *
    |      106 |        - |      290 |      290 |       0.07 | *
    |      107 |        - |      289 |      289 |       0.07 | *
    |      114 |        - |      284 |      284 |       0.07 | *
    |      122 |        - |      283 |      283 |       0.07 | *
    |      128 |        - |      281 |      281 |       0.07 | *
    |      129 |        - |      279 |      279 |       0.08 | *
    |      143 |        - |      277 |      277 |       0.08 | *
    |      156 |        - |      276 |      276 |       0.08 | *
    |      158 |        - |      272 |      272 |       0.08 | *
    |      165 |        - |      265 |      265 |       0.08 | *
    |      167 |        - |      264 |      264 |       0.08 | *
    |      171 |        - |      263 |      263 |       0.08 | *
    |      173 |        - |      254 |      254 |       0.08 | *
    |      174 |        - |      253 |      253 |       0.08 | *
    |      183 |        - |      250 |      250 |       0.09 | *
    |      196 |        - |      245 |      245 |       0.09 | *
    |      200 |        - |      243 |      243 |       0.09 | *
    |      202 |        - |      241 |      241 |       0.09 | *
    |      212 |        - |      240 |      240 |       0.09 | *
    |      214 |        - |      238 |      238 |       0.09 | *
    |      217 |        - |      237 |      237 |       0.09 | *
    |      220 |        - |      236 |      236 |       0.09 | *
    |      221 |        - |      235 |      235 |       0.09 | *
    |      238 |        - |      234 |      234 |       0.09 | *
    |      245 |        - |      233 |      233 |       0.09 | *
    |      249 |        - |      231 |      231 |       0.09 | *
    |      266 |        - |      229 |      229 |       0.10 | *
    |      267 |        - |      226 |      226 |       0.10 | *
    |      268 |        - |      225 |      225 |       0.10 | *
    |      273 |        - |      222 |      222 |       0.10 | *
    |      281 |        - |      219 |      219 |       0.10 | *
    |      285 |        - |      218 |      218 |       0.10 | *
    |      303 |        - |      212 |      212 |       0.10 | *
    |      305 |        - |      211 |      211 |       0.10 | *
    |      320 |        - |      204 |      204 |       0.10 | *
    |      329 |        - |      203 |      203 |       0.10 | *
    |      334 |        - |      196 |      196 |       0.10 | *
    |      339 |        - |      195 |      195 |       0.11 | *
    |      356 |        - |      194 |      194 |       0.11 | *
    |      360 |        - |      193 |      193 |       0.11 | *
    |      370 |        - |      191 |      191 |       0.11 | *
    |      404 |        - |      187 |      187 |       0.11 | *
    |      419 |        - |      185 |      185 |       0.11 | *
    |      443 |        - |      182 |      182 |       0.12 | *
    |      486 |        - |      180 |      180 |       0.12 | *
    |      511 |        - |      177 |      177 |       0.12 | *
    |      516 |        - |      174 |      174 |       0.12 | *
    |      550 |        - |      172 |      172 |       0.12 | *
    |      551 |        - |      171 |      171 |       0.12 | *
    |      562 |        - |      169 |      169 |       0.12 | *
    |      569 |        - |      168 |      168 |       0.13 | *
    |      574 |        - |      167 |      167 |       0.13 | *
    |      582 |        - |      166 |      166 |       0.13 | *
    |      618 |        - |      165 |      165 |       0.13 | *
    |      656 |        - |      163 |      163 |       0.13 | *
    |      724 |        - |      159 |      159 |       0.13 | *
    |      728 |        - |      158 |      158 |       0.14 | *
    |      747 |        - |      156 |      156 |       0.14 | *
    |      757 |        - |      155 |      155 |       0.14 | *
    |      772 |        - |      154 |      154 |       0.14 | *
    |      788 |        - |      153 |      153 |       0.15 | *
    |      822 |        - |      152 |      152 |       0.15 | *
    |      861 |        - |      151 |      151 |       0.15 | *
    |      863 |        - |      150 |      150 |       0.15 | *
    |      882 |        - |      149 |      149 |       0.15 | *
    |      884 |        - |      148 |      148 |       0.15 | *
    |      892 |        - |      147 |      147 |       0.15 | *
    |      893 |        - |      146 |      146 |       0.15 | *
    |      908 |        - |      145 |      145 |       0.16 | *
    |      919 |        - |      144 |      144 |       0.16 | *
    |      923 |        - |      143 |      143 |       0.16 | *
    |      948 |        - |      142 |      142 |       0.16 | *
    |      987 |        - |      140 |      140 |       0.16 | *
    |     1036 |        - |      139 |      139 |       0.16 | *
    |     1054 |        - |      138 |      138 |       0.16 | *
    |     1056 |        - |      135 |      135 |       0.16 | *
    |     1058 |        - |      134 |      134 |       0.16 | *
    |     1077 |        - |      132 |      132 |       0.16 | *
    |     1079 |        - |      131 |      131 |       0.16 | *
    |     1084 |        - |      128 |      128 |       0.17 | *
    |     1096 |        - |      126 |      126 |       0.17 | *
    |     1112 |        - |      125 |      125 |       0.17 | *
    |     1172 |        - |      124 |      124 |       0.17 | *
    |     1179 |        - |      123 |      123 |       0.17 | *
    |     1181 |        - |      122 |      122 |       0.17 | *
    |     1196 |        - |      121 |      121 |       0.17 | *
    |     1212 |        - |      120 |      120 |       0.17 | *
    |     1227 |        - |      119 |      119 |       0.17 | *
    |     1275 |        - |      117 |      117 |       0.18 | *
    |     1389 |        - |      114 |      114 |       0.18 | *
    |     1427 |        - |      112 |      112 |       0.18 | *
    |     1433 |        - |      111 |      111 |       0.18 | *
    |     1442 |        - |      110 |      110 |       0.18 | *
    |     1473 |        - |      109 |      109 |       0.18 | *
    |     1521 |        - |      108 |      108 |       0.18 | *
    |     1534 |        - |      107 |      107 |       0.18 | *
    |     1538 |        - |      106 |      106 |       0.19 | *
    |     1617 |        - |      105 |      105 |       0.19 | *
    |     1630 |        - |      103 |      103 |       0.19 | *
    |     1635 |        - |      102 |      102 |       0.19 | *
    |     1645 |        - |      101 |      101 |       0.19 | *
    |     1675 |        - |      100 |      100 |       0.20 | *
    |     1785 |        - |       99 |       99 |       0.21 | *
    |     1856 |        - |       98 |       98 |       0.21 | *
    |     1858 |        - |       97 |       97 |       0.21 | *
    |     1892 |        - |       96 |       96 |       0.22 | *
    |     1908 |        - |       95 |       95 |       0.22 | *
    |     2071 |        - |       94 |       94 |       0.23 | *
    |     2130 |        - |       93 |       93 |       0.23 | *
    |     2140 |        - |       92 |       92 |       0.24 | *
    |     2237 |        - |       91 |       91 |       0.24 | *
    |     2266 |        - |       90 |       90 |       0.24 | *
    |     2342 |        - |       89 |       89 |       0.24 | *
    |     2348 |        - |       88 |       88 |       0.24 | *
    |     2353 |        - |       87 |       87 |       0.24 | *
    |     2366 |        - |       86 |       86 |       0.24 | *
    |     2399 |        - |       85 |       85 |       0.24 | *
    |     2490 |        - |       84 |       84 |       0.24 | *
    |     2650 |        - |       81 |       81 |       0.25 | *
    |     2656 |        - |       80 |       80 |       0.25 | *
    |     2843 |        - |       79 |       79 |       0.25 | *
    |     2903 |        - |       78 |       78 |       0.25 | *
    |     2939 |        - |       77 |       77 |       0.26 | *
    |     2991 |        - |       76 |       76 |       0.26 | *
    |     3010 |        - |       74 |       74 |       0.26 | *
    |     3073 |        - |       73 |       73 |       0.27 | *
    |     3196 |        - |       72 |       72 |       0.27 | *
    |     3279 |        - |       71 |       71 |       0.28 | *
    |     3614 |        - |       69 |       69 |       0.28 | *
    |     3647 |        - |       68 |       68 |       0.28 | *
    |     3655 |        - |       66 |       66 |       0.28 | *
    |     3671 |        - |       65 |       65 |       0.28 | *
    |     3705 |        - |       64 |       64 |       0.28 | *
    |     3788 |        - |       63 |       63 |       0.28 | *
    |     3818 |        - |       62 |       62 |       0.28 | *
    |     4422 |        - |       61 |       61 |       0.29 | *
    |     4430 |        - |       60 |       60 |       0.30 | *
    |     4578 |        - |       59 |       59 |       0.30 | *
    |     4699 |        - |       58 |       58 |       0.30 | *
    |     4931 |        - |       57 |       57 |       0.31 | *
    |     5029 |        - |       56 |       56 |       0.31 | *
    |     5100 |        - |       55 |       55 |       0.31 | *
    |     5306 |        - |       54 |       54 |       0.31 | *
    |     5431 |        - |       53 |       53 |       0.31 | *
    |     5453 |        - |       52 |       52 |       0.31 | *
    |     5652 |        - |       51 |       51 |       0.31 | *
    |     5839 |        - |       50 |       50 |       0.32 | *
    |     6054 |        - |       49 |       49 |       0.32 | *
    |     6086 |        - |       48 |       48 |       0.32 | *
    |     8948 |        - |       47 |       47 |       0.33 | *
    |      10K |        - |       46 |       46 |       0.33 | *
    |      11K |        - |       45 |       45 |       0.33 | *
    |      11K |        - |       44 |       44 |       0.34 | *
    |      11K |        - |       43 |       43 |       0.36 | *
    |      12K |        - |       42 |       42 |       0.36 | *
    |      13K |        - |       41 |       41 |       0.37 | *
    |      14K |        - |       40 |       40 |       0.38 | *
    |      14K |        - |       39 |       39 |       0.38 | *
    |      21K |        - |       38 |       38 |       0.40 | *
    |      21K |        - |       37 |       37 |       0.40 | *
    |      33K |        - |       36 |       36 |       0.43 | *
    |      33K |        - |       35 |       35 |       0.43 | *
    |      33K |        - |       34 |       34 |       0.44 | *
    |      43K |        - |       33 |       33 |       0.47 | *
    |      44K |        - |       32 |       32 |       0.48 | *
    |      48K |        - |       31 |       31 |       0.48 | *
    |      52K |        - |       30 |       30 |       0.49 | *
    |      69K |        - |       29 |       29 |       0.53 | *
    |      69K |        - |       28 |       28 |       0.53 | *
    |      32M |        - |       27 |       27 |      24.77 | *
    |     119M |        - |       26 |       26 |      76.83 | *
    |     345M |        - |       25 |       25 |     211.00 | *
    |     639M |        - |       24 |       24 |     385.68 | *
    |    1875M |        - |       23 |       23 |    1127.40 | *
    \--------------------------------------------------------/

Neighborhoods statistics (values in %):

    /----------------------------------------------------------------\
    | Move               | Improvs. | Sideways |  Accepts |  Rejects |
    |--------------------|----------|----------|----------|----------|
    | Shift(mk)          |    1282K |    7890K |    9925K |     243M |
    | Shift              |      51K |      43M |      44M |     209M |
    | ShiftSmart(mk)     |    2889K |      18M |      22M |     231M |
    | ShiftSmart         |     116K |      80M |      81M |     172M |
    | SimpSwap(mk)       |     9231 |      30K |      45K |     253M |
    | SimpSwap           |      750 |     106K |     116K |     253M |
    | SimpSwapSmart(mk)  |      28K |      93K |     141K |     253M |
    | SimpSwapSmart      |     2424 |     318K |     349K |     253M |
    | Swap(mk)           |     7657 |      23K |      35K |     253M |
    | Swap               |      573 |      88K |      97K |     253M |
    | SwapSmart(mk)      |      20K |      72K |     103K |     253M |
    | SwapSmart          |     1630 |     257K |     273K |     253M |
    | Switch(mk)         |     772K |      68M |      69M |     183M |
    | Switch             |      31K |      93M |      93M |     160M |
    | SwitchSmart(mk)    |    1643K |    9818K |      12M |     241M |
    | SwitchSmart        |      66K |      47M |      48M |     205M |
    | TaskMove(mk)       |      56K |     150K |     233K |     253M |
    | TaskMove           |     2223 |     226K |     254K |     253M |
    | TaskMoveSmart(mk)  |     122K |     350K |     530K |     252M |
    | TaskMoveSmart      |     5115 |     530K |     591K |     252M |
    | 2-Shift(mk)        |     967K |      30M |      31M |     222M |
    | 2-Shift            |      39K |      64M |      64M |     189M |
    | 2-ShiftSmart(mk)   |    2328K |      45M |      49M |     205M |
    | 2-ShiftSmart       |      94K |     104M |     105M |     148M |
    \----------------------------------------------------------------/

Best makespan.....: 23
N. of Iterations..: 6072897143
Total runtime.....: 3600.02s
Using Python-MIP package version 1.6.8
Começo a execução
    /-------------------------------------------------------------------------------\
    |    Makespan   |   Free Jobs   | Free Machines |    It. Time   |   Total Time  | 
    |-------------------------------------------------------------------------------|
    \-------------------------------------------------------------------------------/
Terminou a execução
