Instance....: instances/I_100_25_S_1-9_7.txt
Algorithm...: Simulated Annealing (alpha=0.990, saMax=10M, t0=1)
Other params: maxIters=100M, seed=-1, timeLimit=3600.00s

    /--------------------------------------------------------\
    |     Iter |   RDP(%) |       S* |       S' |       Time | 
    |----------|----------|----------|----------|------------|
    |        0 |        - |      547 |      547 |       0.00 | s0
    |        0 |        - |      543 |      543 |       0.00 | *
    |        4 |        - |      480 |      480 |       0.02 | *
    |       17 |        - |      469 |      469 |       0.02 | *
    |       26 |        - |      459 |      459 |       0.02 | *
    |       35 |        - |      453 |      453 |       0.02 | *
    |       43 |        - |      445 |      445 |       0.03 | *
    |       44 |        - |      410 |      410 |       0.03 | *
    |       47 |        - |      372 |      372 |       0.03 | *
    |       51 |        - |      370 |      370 |       0.03 | *
    |       52 |        - |      369 |      369 |       0.03 | *
    |       55 |        - |      368 |      368 |       0.03 | *
    |       57 |        - |      365 |      365 |       0.03 | *
    |       67 |        - |      362 |      362 |       0.03 | *
    |       79 |        - |      353 |      353 |       0.03 | *
    |       88 |        - |      348 |      348 |       0.03 | *
    |       94 |        - |      330 |      330 |       0.04 | *
    |       95 |        - |      323 |      323 |       0.04 | *
    |       99 |        - |      320 |      320 |       0.04 | *
    |      104 |        - |      315 |      315 |       0.04 | *
    |      113 |        - |      310 |      310 |       0.04 | *
    |      128 |        - |      307 |      307 |       0.04 | *
    |      129 |        - |      305 |      305 |       0.04 | *
    |      138 |        - |      302 |      302 |       0.04 | *
    |      146 |        - |      296 |      296 |       0.04 | *
    |      155 |        - |      293 |      293 |       0.04 | *
    |      158 |        - |      292 |      292 |       0.04 | *
    |      168 |        - |      290 |      290 |       0.04 | *
    |      169 |        - |      286 |      286 |       0.04 | *
    |      170 |        - |      284 |      284 |       0.04 | *
    |      182 |        - |      283 |      283 |       0.04 | *
    |      188 |        - |      282 |      282 |       0.04 | *
    |      201 |        - |      280 |      280 |       0.05 | *
    |      204 |        - |      272 |      272 |       0.05 | *
    |      209 |        - |      270 |      270 |       0.05 | *
    |      213 |        - |      269 |      269 |       0.05 | *
    |      217 |        - |      268 |      268 |       0.05 | *
    |      232 |        - |      267 |      267 |       0.05 | *
    |      247 |        - |      266 |      266 |       0.05 | *
    |      253 |        - |      264 |      264 |       0.05 | *
    |      260 |        - |      252 |      252 |       0.05 | *
    |      263 |        - |      237 |      237 |       0.05 | *
    |      264 |        - |      236 |      236 |       0.05 | *
    |      274 |        - |      234 |      234 |       0.05 | *
    |      288 |        - |      233 |      233 |       0.05 | *
    |      295 |        - |      232 |      232 |       0.05 | *
    |      301 |        - |      231 |      231 |       0.06 | *
    |      308 |        - |      230 |      230 |       0.06 | *
    |      311 |        - |      227 |      227 |       0.06 | *
    |      318 |        - |      225 |      225 |       0.06 | *
    |      321 |        - |      224 |      224 |       0.06 | *
    |      327 |        - |      220 |      220 |       0.06 | *
    |      331 |        - |      217 |      217 |       0.06 | *
    |      333 |        - |      216 |      216 |       0.06 | *
    |      370 |        - |      212 |      212 |       0.06 | *
    |      372 |        - |      209 |      209 |       0.06 | *
    |      380 |        - |      208 |      208 |       0.06 | *
    |      387 |        - |      207 |      207 |       0.06 | *
    |      430 |        - |      206 |      206 |       0.06 | *
    |      443 |        - |      205 |      205 |       0.06 | *
    |      460 |        - |      199 |      199 |       0.06 | *
    |      467 |        - |      196 |      196 |       0.06 | *
    |      469 |        - |      195 |      195 |       0.06 | *
    |      472 |        - |      194 |      194 |       0.06 | *
    |      505 |        - |      193 |      193 |       0.07 | *
    |      519 |        - |      191 |      191 |       0.07 | *
    |      532 |        - |      190 |      190 |       0.07 | *
    |      540 |        - |      189 |      189 |       0.07 | *
    |      556 |        - |      188 |      188 |       0.07 | *
    |      561 |        - |      187 |      187 |       0.07 | *
    |      576 |        - |      186 |      186 |       0.07 | *
    |      581 |        - |      185 |      185 |       0.07 | *
    |      582 |        - |      184 |      184 |       0.07 | *
    |      585 |        - |      182 |      182 |       0.07 | *
    |      589 |        - |      181 |      181 |       0.07 | *
    |      594 |        - |      180 |      180 |       0.07 | *
    |      616 |        - |      179 |      179 |       0.07 | *
    |      623 |        - |      178 |      178 |       0.07 | *
    |      627 |        - |      176 |      176 |       0.07 | *
    |      636 |        - |      175 |      175 |       0.07 | *
    |      638 |        - |      173 |      173 |       0.07 | *
    |      639 |        - |      172 |      172 |       0.07 | *
    |      642 |        - |      168 |      168 |       0.07 | *
    |      654 |        - |      167 |      167 |       0.08 | *
    |      678 |        - |      166 |      166 |       0.08 | *
    |      698 |        - |      164 |      164 |       0.08 | *
    |      705 |        - |      163 |      163 |       0.08 | *
    |      749 |        - |      161 |      161 |       0.08 | *
    |      758 |        - |      156 |      156 |       0.08 | *
    |      761 |        - |      154 |      154 |       0.08 | *
    |      762 |        - |      152 |      152 |       0.08 | *
    |      765 |        - |      151 |      151 |       0.08 | *
    |      790 |        - |      150 |      150 |       0.08 | *
    |      816 |        - |      149 |      149 |       0.08 | *
    |      835 |        - |      148 |      148 |       0.08 | *
    |      838 |        - |      145 |      145 |       0.08 | *
    |      842 |        - |      144 |      144 |       0.08 | *
    |      851 |        - |      142 |      142 |       0.08 | *
    |      873 |        - |      141 |      141 |       0.08 | *
    |      881 |        - |      140 |      140 |       0.08 | *
    |      971 |        - |      138 |      138 |       0.08 | *
    |      974 |        - |      136 |      136 |       0.08 | *
    |      985 |        - |      135 |      135 |       0.08 | *
    |     1062 |        - |      134 |      134 |       0.09 | *
    |     1087 |        - |      133 |      133 |       0.09 | *
    |     1092 |        - |      132 |      132 |       0.09 | *
    |     1094 |        - |      131 |      131 |       0.09 | *
    |     1096 |        - |      130 |      130 |       0.09 | *
    |     1134 |        - |      128 |      128 |       0.09 | *
    |     1141 |        - |      127 |      127 |       0.09 | *
    |     1146 |        - |      124 |      124 |       0.09 | *
    |     1147 |        - |      123 |      123 |       0.09 | *
    |     1151 |        - |      122 |      122 |       0.09 | *
    |     1163 |        - |      121 |      121 |       0.09 | *
    |     1253 |        - |      120 |      120 |       0.09 | *
    |     1273 |        - |      119 |      119 |       0.09 | *
    |     1275 |        - |      118 |      118 |       0.09 | *
    |     1279 |        - |      116 |      116 |       0.09 | *
    |     1384 |        - |      115 |      115 |       0.09 | *
    |     1386 |        - |      114 |      114 |       0.09 | *
    |     1446 |        - |      113 |      113 |       0.09 | *
    |     1449 |        - |      112 |      112 |       0.09 | *
    |     1462 |        - |      111 |      111 |       0.10 | *
    |     1481 |        - |      110 |      110 |       0.10 | *
    |     1511 |        - |      109 |      109 |       0.10 | *
    |     1526 |        - |      108 |      108 |       0.10 | *
    |     1538 |        - |      106 |      106 |       0.10 | *
    |     1626 |        - |      105 |      105 |       0.10 | *
    |     1643 |        - |      104 |      104 |       0.10 | *
    |     1658 |        - |      103 |      103 |       0.10 | *
    |     1717 |        - |      102 |      102 |       0.10 | *
    |     1719 |        - |      101 |      101 |       0.10 | *
    |     1728 |        - |      100 |      100 |       0.10 | *
    |     1748 |        - |       99 |       99 |       0.10 | *
    |     1782 |        - |       98 |       98 |       0.10 | *
    |     1867 |        - |       97 |       97 |       0.10 | *
    |     1989 |        - |       96 |       96 |       0.10 | *
    |     1996 |        - |       95 |       95 |       0.10 | *
    |     2003 |        - |       94 |       94 |       0.10 | *
    |     2014 |        - |       93 |       93 |       0.11 | *
    |     2073 |        - |       92 |       92 |       0.11 | *
    |     2080 |        - |       91 |       91 |       0.11 | *
    |     2122 |        - |       89 |       89 |       0.11 | *
    |     2257 |        - |       88 |       88 |       0.11 | *
    |     2261 |        - |       87 |       87 |       0.11 | *
    |     2308 |        - |       86 |       86 |       0.11 | *
    |     2377 |        - |       85 |       85 |       0.11 | *
    |     2427 |        - |       84 |       84 |       0.11 | *
    |     2452 |        - |       83 |       83 |       0.11 | *
    |     2461 |        - |       82 |       82 |       0.11 | *
    |     2510 |        - |       81 |       81 |       0.11 | *
    |     2979 |        - |       80 |       80 |       0.11 | *
    |     3036 |        - |       79 |       79 |       0.11 | *
    |     3110 |        - |       78 |       78 |       0.11 | *
    |     3365 |        - |       77 |       77 |       0.12 | *
    |     3662 |        - |       76 |       76 |       0.12 | *
    |     3807 |        - |       75 |       75 |       0.12 | *
    |     3992 |        - |       74 |       74 |       0.12 | *
    |     4014 |        - |       73 |       73 |       0.12 | *
    |     4202 |        - |       72 |       72 |       0.12 | *
    |     4241 |        - |       71 |       71 |       0.12 | *
    |     4291 |        - |       70 |       70 |       0.12 | *
    |     4316 |        - |       69 |       69 |       0.12 | *
    |     4504 |        - |       68 |       68 |       0.12 | *
    |     4614 |        - |       67 |       67 |       0.12 | *
    |     5005 |        - |       66 |       66 |       0.12 | *
    |     5374 |        - |       65 |       65 |       0.13 | *
    |     5377 |        - |       64 |       64 |       0.13 | *
    |     5379 |        - |       63 |       63 |       0.13 | *
    |     5709 |        - |       62 |       62 |       0.13 | *
    |     5815 |        - |       61 |       61 |       0.13 | *
    |     5871 |        - |       60 |       60 |       0.13 | *
    |     6260 |        - |       59 |       59 |       0.13 | *
    |     6333 |        - |       58 |       58 |       0.13 | *
    |     6703 |        - |       57 |       57 |       0.13 | *
    |     7726 |        - |       56 |       56 |       0.13 | *
    |     8464 |        - |       55 |       55 |       0.14 | *
    |     8578 |        - |       54 |       54 |       0.14 | *
    |     9468 |        - |       53 |       53 |       0.14 | *
    |      11K |        - |       52 |       52 |       0.14 | *
    |      11K |        - |       51 |       51 |       0.14 | *
    |      12K |        - |       50 |       50 |       0.14 | *
    |      15K |        - |       49 |       49 |       0.15 | *
    |      16K |        - |       48 |       48 |       0.15 | *
    |      16K |        - |       47 |       47 |       0.15 | *
    |      21K |        - |       46 |       46 |       0.15 | *
    |      22K |        - |       45 |       45 |       0.16 | *
    |      23K |        - |       44 |       44 |       0.16 | *
    |      34K |        - |       43 |       43 |       0.17 | *
    |      42K |        - |       42 |       42 |       0.18 | *
    |      51K |        - |       41 |       41 |       0.19 | *
    |      51K |        - |       40 |       40 |       0.19 | *
    |     265K |        - |       39 |       39 |       0.68 | *
    |     278K |        - |       38 |       38 |       0.72 | *
    |     348K |        - |       37 |       37 |       0.87 | *
    |     477K |        - |       36 |       36 |       1.09 | *
    |     486K |        - |       35 |       35 |       1.10 | *
    |      19M |        - |       34 |       34 |      13.45 | *
    |      97M |        - |       33 |       33 |      59.32 | *
    |     306M |        - |       32 |       32 |     182.98 | *
    |     470M |        - |       31 |       31 |     280.12 | *
    |     591M |        - |       30 |       30 |     351.84 | *
    \--------------------------------------------------------/

Neighborhoods statistics (values in %):

    /----------------------------------------------------------------\
    | Move               | Improvs. | Sideways |  Accepts |  Rejects |
    |--------------------|----------|----------|----------|----------|
    | Shift(mk)          |    1338K |    6524K |    8696K |     264M |
    | Shift              |      54K |      63M |      64M |     210M |
    | ShiftSmart(mk)     |    2962K |      16M |      20M |     253M |
    | ShiftSmart         |     119K |     109M |     110M |     163M |
    | SimpSwap(mk)       |     8196 |      22K |      35K |     273M |
    | SimpSwap           |      700 |      76K |      85K |     273M |
    | SimpSwapSmart(mk)  |      27K |      72K |     114K |     273M |
    | SimpSwapSmart      |     2209 |     242K |     269K |     273M |
    | Swap(mk)           |     7243 |      18K |      30K |     273M |
    | Swap               |      561 |      64K |      72K |     273M |
    | SwapSmart(mk)      |      18K |      52K |      79K |     273M |
    | SwapSmart          |     1527 |     164K |     179K |     273M |
    | Switch(mk)         |     804K |     121M |     122M |     151M |
    | Switch             |      32K |     108M |     109M |     164M |
    | SwitchSmart(mk)    |    1647K |    7175K |    9716K |     264M |
    | SwitchSmart        |      66K |      66M |      67M |     206M |
    | TaskMove(mk)       |      48K |     126K |     195K |     273M |
    | TaskMove           |     1995 |     233K |     258K |     273M |
    | TaskMoveSmart(mk)  |     104K |     295K |     444K |     273M |
    | TaskMoveSmart      |     4351 |     562K |     614K |     272M |
    | 2-Shift(mk)        |    1022K |     110M |     112M |     161M |
    | 2-Shift            |      41K |      79M |      80M |     193M |
    | 2-ShiftSmart(mk)   |    2373K |     219M |     222M |      51M |
    | 2-ShiftSmart       |      95K |     116M |     117M |     156M |
    \----------------------------------------------------------------/

Best makespan.....: 30
N. of Iterations..: 6555104473
Total runtime.....: 3600.05s
Using Python-MIP package version 1.6.8
Começo a execução
    /-------------------------------------------------------------------------------\
    |    Makespan   |   Free Jobs   | Free Machines |    It. Time   |   Total Time  | 
    |-------------------------------------------------------------------------------|
    \-------------------------------------------------------------------------------/
Terminou a execução
