Instance....: instances/I_100_15_S_1-124_8.txt
Algorithm...: Simulated Annealing (alpha=0.990, saMax=10M, t0=1)
Other params: maxIters=100M, seed=-1, timeLimit=3600.00s

    /--------------------------------------------------------\
    |     Iter |   RDP(%) |       S* |       S' |       Time | 
    |----------|----------|----------|----------|------------|
    |        0 |        - |     1347 |     1347 |       0.00 | s0
    |        0 |        - |     1283 |     1283 |       0.00 | *
    |        3 |        - |     1268 |     1268 |       0.01 | *
    |        7 |        - |     1169 |     1169 |       0.02 | *
    |        8 |        - |     1167 |     1167 |       0.03 | *
    |       11 |        - |     1153 |     1153 |       0.03 | *
    |       12 |        - |     1108 |     1108 |       0.03 | *
    |       17 |        - |     1093 |     1093 |       0.03 | *
    |       20 |        - |     1044 |     1044 |       0.03 | *
    |       21 |        - |     1020 |     1020 |       0.03 | *
    |       27 |        - |     1010 |     1010 |       0.04 | *
    |       34 |        - |     1006 |     1006 |       0.04 | *
    |       38 |        - |      995 |      995 |       0.04 | *
    |       40 |        - |      974 |      974 |       0.04 | *
    |       44 |        - |      962 |      962 |       0.04 | *
    |       51 |        - |      950 |      950 |       0.04 | *
    |       52 |        - |      920 |      920 |       0.04 | *
    |       53 |        - |      878 |      878 |       0.04 | *
    |       54 |        - |      875 |      875 |       0.04 | *
    |       56 |        - |      872 |      872 |       0.04 | *
    |       57 |        - |      843 |      843 |       0.04 | *
    |       61 |        - |      813 |      813 |       0.05 | *
    |       73 |        - |      809 |      809 |       0.05 | *
    |       85 |        - |      773 |      773 |       0.05 | *
    |       86 |        - |      755 |      755 |       0.05 | *
    |       87 |        - |      752 |      752 |       0.05 | *
    |      103 |        - |      736 |      736 |       0.05 | *
    |      104 |        - |      715 |      715 |       0.05 | *
    |      105 |        - |      704 |      704 |       0.05 | *
    |      112 |        - |      703 |      703 |       0.05 | *
    |      115 |        - |      695 |      695 |       0.05 | *
    |      120 |        - |      686 |      686 |       0.05 | *
    |      121 |        - |      678 |      678 |       0.05 | *
    |      135 |        - |      673 |      673 |       0.05 | *
    |      136 |        - |      664 |      664 |       0.05 | *
    |      137 |        - |      653 |      653 |       0.06 | *
    |      141 |        - |      651 |      651 |       0.06 | *
    |      145 |        - |      643 |      643 |       0.06 | *
    |      152 |        - |      641 |      641 |       0.06 | *
    |      155 |        - |      638 |      638 |       0.06 | *
    |      205 |        - |      633 |      633 |       0.06 | *
    |      217 |        - |      632 |      632 |       0.06 | *
    |      218 |        - |      625 |      625 |       0.06 | *
    |      220 |        - |      623 |      623 |       0.06 | *
    |      238 |        - |      619 |      619 |       0.06 | *
    |      239 |        - |      609 |      609 |       0.06 | *
    |      240 |        - |      599 |      599 |       0.07 | *
    |      248 |        - |      594 |      594 |       0.07 | *
    |      260 |        - |      590 |      590 |       0.07 | *
    |      262 |        - |      586 |      586 |       0.07 | *
    |      270 |        - |      583 |      583 |       0.07 | *
    |      273 |        - |      571 |      571 |       0.07 | *
    |      276 |        - |      569 |      569 |       0.07 | *
    |      283 |        - |      568 |      568 |       0.07 | *
    |      309 |        - |      558 |      558 |       0.07 | *
    |      313 |        - |      554 |      554 |       0.07 | *
    |      320 |        - |      553 |      553 |       0.07 | *
    |      324 |        - |      551 |      551 |       0.07 | *
    |      329 |        - |      544 |      544 |       0.07 | *
    |      336 |        - |      543 |      543 |       0.07 | *
    |      344 |        - |      524 |      524 |       0.07 | *
    |      373 |        - |      521 |      521 |       0.07 | *
    |      407 |        - |      516 |      516 |       0.08 | *
    |      410 |        - |      506 |      506 |       0.08 | *
    |      458 |        - |      503 |      503 |       0.08 | *
    |      479 |        - |      501 |      501 |       0.08 | *
    |      570 |        - |      500 |      500 |       0.08 | *
    |      571 |        - |      494 |      494 |       0.08 | *
    |      577 |        - |      491 |      491 |       0.08 | *
    |      588 |        - |      490 |      490 |       0.08 | *
    |      613 |        - |      489 |      489 |       0.08 | *
    |      641 |        - |      485 |      485 |       0.08 | *
    |      642 |        - |      472 |      472 |       0.08 | *
    |      674 |        - |      471 |      471 |       0.08 | *
    |      683 |        - |      468 |      468 |       0.08 | *
    |      697 |        - |      463 |      463 |       0.09 | *
    |      759 |        - |      460 |      460 |       0.09 | *
    |      781 |        - |      457 |      457 |       0.09 | *
    |      821 |        - |      456 |      456 |       0.09 | *
    |      845 |        - |      448 |      448 |       0.09 | *
    |      847 |        - |      440 |      440 |       0.09 | *
    |      867 |        - |      433 |      433 |       0.09 | *
    |      887 |        - |      432 |      432 |       0.09 | *
    |      888 |        - |      424 |      424 |       0.09 | *
    |      901 |        - |      421 |      421 |       0.09 | *
    |      936 |        - |      418 |      418 |       0.09 | *
    |      959 |        - |      417 |      417 |       0.09 | *
    |      965 |        - |      412 |      412 |       0.09 | *
    |      980 |        - |      388 |      388 |       0.09 | *
    |     1014 |        - |      387 |      387 |       0.10 | *
    |     1106 |        - |      385 |      385 |       0.10 | *
    |     1132 |        - |      384 |      384 |       0.10 | *
    |     1175 |        - |      379 |      379 |       0.10 | *
    |     1180 |        - |      378 |      378 |       0.10 | *
    |     1187 |        - |      377 |      377 |       0.10 | *
    |     1192 |        - |      375 |      375 |       0.10 | *
    |     1407 |        - |      374 |      374 |       0.10 | *
    |     1408 |        - |      371 |      371 |       0.10 | *
    |     1418 |        - |      370 |      370 |       0.10 | *
    |     1436 |        - |      367 |      367 |       0.11 | *
    |     1447 |        - |      364 |      364 |       0.11 | *
    |     1501 |        - |      362 |      362 |       0.11 | *
    |     1511 |        - |      358 |      358 |       0.11 | *
    |     1519 |        - |      353 |      353 |       0.11 | *
    |     1532 |        - |      351 |      351 |       0.11 | *
    |     1619 |        - |      349 |      349 |       0.11 | *
    |     1629 |        - |      348 |      348 |       0.11 | *
    |     1631 |        - |      340 |      340 |       0.11 | *
    |     1641 |        - |      338 |      338 |       0.11 | *
    |     1646 |        - |      334 |      334 |       0.11 | *
    |     1652 |        - |      331 |      331 |       0.11 | *
    |     1684 |        - |      323 |      323 |       0.11 | *
    |     1719 |        - |      322 |      322 |       0.11 | *
    |     1730 |        - |      318 |      318 |       0.11 | *
    |     1984 |        - |      317 |      317 |       0.12 | *
    |     1986 |        - |      315 |      315 |       0.12 | *
    |     1992 |        - |      309 |      309 |       0.12 | *
    |     2011 |        - |      308 |      308 |       0.12 | *
    |     2017 |        - |      306 |      306 |       0.12 | *
    |     2024 |        - |      305 |      305 |       0.12 | *
    |     2081 |        - |      302 |      302 |       0.12 | *
    |     2227 |        - |      300 |      300 |       0.12 | *
    |     2457 |        - |      299 |      299 |       0.12 | *
    |     2716 |        - |      298 |      298 |       0.13 | *
    |     2909 |        - |      295 |      295 |       0.13 | *
    |     2912 |        - |      292 |      292 |       0.13 | *
    |     3829 |        - |      289 |      289 |       0.13 | *
    |     4141 |        - |      288 |      288 |       0.13 | *
    |     4437 |        - |      287 |      287 |       0.14 | *
    |     4626 |        - |      286 |      286 |       0.14 | *
    |     4627 |        - |      285 |      285 |       0.14 | *
    |     4654 |        - |      284 |      284 |       0.14 | *
    |     4684 |        - |      282 |      282 |       0.14 | *
    |     4790 |        - |      280 |      280 |       0.14 | *
    |     4822 |        - |      279 |      279 |       0.14 | *
    |     4951 |        - |      278 |      278 |       0.14 | *
    |     5426 |        - |      277 |      277 |       0.15 | *
    |     5428 |        - |      272 |      272 |       0.15 | *
    |     5527 |        - |      271 |      271 |       0.15 | *
    |     5532 |        - |      269 |      269 |       0.15 | *
    |     5862 |        - |      268 |      268 |       0.15 | *
    |     6222 |        - |      265 |      265 |       0.15 | *
    |     6302 |        - |      261 |      261 |       0.15 | *
    |     6335 |        - |      260 |      260 |       0.15 | *
    |     7047 |        - |      258 |      258 |       0.15 | *
    |     7054 |        - |      255 |      255 |       0.16 | *
    |     7060 |        - |      253 |      253 |       0.16 | *
    |     7827 |        - |      252 |      252 |       0.16 | *
    |     8092 |        - |      251 |      251 |       0.16 | *
    |     8132 |        - |      249 |      249 |       0.16 | *
    |     8530 |        - |      247 |      247 |       0.16 | *
    |     8543 |        - |      246 |      246 |       0.16 | *
    |     9063 |        - |      245 |      245 |       0.16 | *
    |     9117 |        - |      244 |      244 |       0.17 | *
    |     9258 |        - |      243 |      243 |       0.17 | *
    |     9342 |        - |      242 |      242 |       0.17 | *
    |     9345 |        - |      241 |      241 |       0.17 | *
    |      10K |        - |      237 |      237 |       0.17 | *
    |      10K |        - |      235 |      235 |       0.17 | *
    |      12K |        - |      233 |      233 |       0.18 | *
    |      12K |        - |      231 |      231 |       0.18 | *
    |      13K |        - |      230 |      230 |       0.18 | *
    |      13K |        - |      228 |      228 |       0.18 | *
    |      13K |        - |      227 |      227 |       0.18 | *
    |      15K |        - |      226 |      226 |       0.19 | *
    |      15K |        - |      225 |      225 |       0.19 | *
    |      16K |        - |      222 |      222 |       0.19 | *
    |      16K |        - |      221 |      221 |       0.19 | *
    |      16K |        - |      219 |      219 |       0.19 | *
    |      19K |        - |      215 |      215 |       0.20 | *
    |      19K |        - |      213 |      213 |       0.20 | *
    |      19K |        - |      212 |      212 |       0.20 | *
    |      21K |        - |      211 |      211 |       0.20 | *
    |      21K |        - |      209 |      209 |       0.20 | *
    |      23K |        - |      208 |      208 |       0.21 | *
    |      23K |        - |      206 |      206 |       0.21 | *
    |      23K |        - |      205 |      205 |       0.21 | *
    |      24K |        - |      204 |      204 |       0.21 | *
    |      24K |        - |      202 |      202 |       0.21 | *
    |      24K |        - |      200 |      200 |       0.21 | *
    |      25K |        - |      199 |      199 |       0.22 | *
    |      25K |        - |      198 |      198 |       0.22 | *
    |      25K |        - |      197 |      197 |       0.22 | *
    |      26K |        - |      194 |      194 |       0.22 | *
    |      30K |        - |      193 |      193 |       0.23 | *
    |      30K |        - |      192 |      192 |       0.23 | *
    |      31K |        - |      190 |      190 |       0.23 | *
    |      31K |        - |      189 |      189 |       0.23 | *
    |      31K |        - |      188 |      188 |       0.23 | *
    |      31K |        - |      187 |      187 |       0.23 | *
    |      33K |        - |      186 |      186 |       0.23 | *
    |      34K |        - |      185 |      185 |       0.23 | *
    |      34K |        - |      184 |      184 |       0.24 | *
    |      37K |        - |      183 |      183 |       0.24 | *
    |      37K |        - |      182 |      182 |       0.24 | *
    |      37K |        - |      180 |      180 |       0.24 | *
    |      41K |        - |      179 |      179 |       0.24 | *
    |      42K |        - |      178 |      178 |       0.25 | *
    |      44K |        - |      177 |      177 |       0.25 | *
    |      45K |        - |      176 |      176 |       0.25 | *
    |      49K |        - |      175 |      175 |       0.25 | *
    |      49K |        - |      174 |      174 |       0.25 | *
    |      50K |        - |      170 |      170 |       0.26 | *
    |      50K |        - |      169 |      169 |       0.26 | *
    |      51K |        - |      167 |      167 |       0.26 | *
    |      61K |        - |      166 |      166 |       0.27 | *
    |      67K |        - |      164 |      164 |       0.28 | *
    |      73K |        - |      163 |      163 |       0.28 | *
    |     119K |        - |      161 |      161 |       0.33 | *
    |     119K |        - |      160 |      160 |       0.33 | *
    |     157K |        - |      158 |      158 |       0.42 | *
    |     170K |        - |      156 |      156 |       0.45 | *
    |     172K |        - |      155 |      155 |       0.46 | *
    |     174K |        - |      154 |      154 |       0.47 | *
    |     175K |        - |      152 |      152 |       0.48 | *
    |     175K |        - |      151 |      151 |       0.48 | *
    |     182K |        - |      150 |      150 |       0.50 | *
    |     182K |        - |      148 |      148 |       0.50 | *
    |     197K |        - |      147 |      147 |       0.55 | *
    |     395K |        - |      146 |      146 |       1.02 | *
    |     515K |        - |      145 |      145 |       1.14 | *
    |     680K |        - |      144 |      144 |       1.26 | *
    |     680K |        - |      143 |      143 |       1.26 | *
    |     707K |        - |      140 |      140 |       1.28 | *
    |     854K |        - |      139 |      139 |       1.39 | *
    |     859K |        - |      138 |      138 |       1.40 | *
    |     903K |        - |      137 |      137 |       1.42 | *
    |    3667K |        - |      135 |      135 |       3.92 | *
    |    3679K |        - |      134 |      134 |       3.93 | *
    |    4085K |        - |      133 |      133 |       4.21 | *
    |    4090K |        - |      131 |      131 |       4.22 | *
    |    4100K |        - |      130 |      130 |       4.22 | *
    |    4499K |        - |      129 |      129 |       4.52 | *
    |    4556K |        - |      128 |      128 |       4.56 | *
    |    5087K |        - |      127 |      127 |       4.93 | *
    |    5585K |        - |      125 |      125 |       5.27 | *
    |    5954K |        - |      124 |      124 |       5.51 | *
    |    5955K |        - |      121 |      121 |       5.51 | *
    |      68M |        - |      120 |      120 |      45.31 | *
    |      69M |        - |      119 |      119 |      45.92 | *
    |     167M |        - |      118 |      118 |     106.51 | *
    |     171M |        - |      117 |      117 |     109.02 | *
    |     171M |        - |      115 |      115 |     109.25 | *
    \--------------------------------------------------------/

Neighborhoods statistics (values in %):

    /----------------------------------------------------------------\
    | Move               | Improvs. | Sideways |  Accepts |  Rejects |
    |--------------------|----------|----------|----------|----------|
    | Shift(mk)          |      17K |      64K |      84K |     249M |
    | Shift              |     1132 |    1316K |    1335K |     248M |
    | ShiftSmart(mk)     |      84K |     283K |     379K |     249M |
    | ShiftSmart         |     5528 |    4764K |    4853K |     244M |
    | SimpSwap(mk)       |       63 |     5643 |     5719 |     249M |
    | SimpSwap           |        9 |      17K |      17K |     249M |
    | SimpSwapSmart(mk)  |      346 |      30K |      31K |     249M |
    | SimpSwapSmart      |       57 |      99K |      99K |     249M |
    | Swap(mk)           |       24 |      888 |      919 |     249M |
    | Swap               |        2 |     2679 |     2696 |     250M |
    | SwapSmart(mk)      |      442 |      25K |      25K |     249M |
    | SwapSmart          |       49 |      68K |      68K |     249M |
    | Switch(mk)         |     1666 |      41M |      41M |     208M |
    | Switch             |      118 |      40M |      40M |     210M |
    | SwitchSmart(mk)    |     9113 |     112K |     122K |     249M |
    | SwitchSmart        |      573 |    2818K |    2827K |     246M |
    | TaskMove(mk)       |      780 |      11K |      12K |     249M |
    | TaskMove           |       53 |      52K |      53K |     249M |
    | TaskMoveSmart(mk)  |     4754 |      72K |      78K |     249M |
    | TaskMoveSmart      |      363 |     347K |     351K |     249M |
    | 2-Shift(mk)        |     6872 |    8207K |    8215K |     241M |
    | 2-Shift            |      424 |    8320K |    8328K |     241M |
    | 2-ShiftSmart(mk)   |      24K |      15M |      15M |     234M |
    | 2-ShiftSmart       |     1593 |      14M |      14M |     235M |
    \----------------------------------------------------------------/

Best makespan.....: 115
N. of Iterations..: 5983796958
Total runtime.....: 3600.04s
Using Python-MIP package version 1.6.8
Começo a execução
    /-------------------------------------------------------------------------------\
    |    Makespan   |   Free Jobs   | Free Machines |    It. Time   |   Total Time  | 
    |-------------------------------------------------------------------------------|
    \-------------------------------------------------------------------------------/
Terminou a execução
