Instance....: instances/I_100_15_S_1-49_10.txt
Algorithm...: Simulated Annealing (alpha=0.990, saMax=10M, t0=1)
Other params: maxIters=100M, seed=-1, timeLimit=3600.00s

    /--------------------------------------------------------\
    |     Iter |   RDP(%) |       S* |       S' |       Time | 
    |----------|----------|----------|----------|------------|
    |        0 |        - |      933 |      933 |       0.00 | s0
    |        1 |        - |      913 |      913 |       0.03 | *
    |        3 |        - |      842 |      842 |       0.03 | *
    |        7 |        - |      744 |      744 |       0.03 | *
    |       14 |        - |      730 |      730 |       0.04 | *
    |       19 |        - |      713 |      713 |       0.04 | *
    |       20 |        - |      684 |      684 |       0.04 | *
    |       26 |        - |      677 |      677 |       0.04 | *
    |       29 |        - |      671 |      671 |       0.05 | *
    |       35 |        - |      647 |      647 |       0.05 | *
    |       36 |        - |      635 |      635 |       0.05 | *
    |       43 |        - |      633 |      633 |       0.05 | *
    |       45 |        - |      631 |      631 |       0.06 | *
    |       57 |        - |      625 |      625 |       0.06 | *
    |       79 |        - |      596 |      596 |       0.06 | *
    |       80 |        - |      587 |      587 |       0.06 | *
    |       84 |        - |      582 |      582 |       0.06 | *
    |       85 |        - |      563 |      563 |       0.06 | *
    |       90 |        - |      558 |      558 |       0.06 | *
    |       91 |        - |      549 |      549 |       0.06 | *
    |       93 |        - |      543 |      543 |       0.06 | *
    |       96 |        - |      538 |      538 |       0.07 | *
    |      100 |        - |      529 |      529 |       0.07 | *
    |      114 |        - |      528 |      528 |       0.07 | *
    |      117 |        - |      524 |      524 |       0.07 | *
    |      120 |        - |      521 |      521 |       0.07 | *
    |      123 |        - |      507 |      507 |       0.07 | *
    |      125 |        - |      495 |      495 |       0.07 | *
    |      127 |        - |      486 |      486 |       0.07 | *
    |      132 |        - |      481 |      481 |       0.07 | *
    |      133 |        - |      480 |      480 |       0.07 | *
    |      134 |        - |      464 |      464 |       0.07 | *
    |      139 |        - |      463 |      463 |       0.08 | *
    |      163 |        - |      460 |      460 |       0.08 | *
    |      179 |        - |      459 |      459 |       0.08 | *
    |      182 |        - |      456 |      456 |       0.08 | *
    |      197 |        - |      454 |      454 |       0.08 | *
    |      199 |        - |      449 |      449 |       0.08 | *
    |      201 |        - |      445 |      445 |       0.08 | *
    |      202 |        - |      430 |      430 |       0.08 | *
    |      207 |        - |      428 |      428 |       0.09 | *
    |      228 |        - |      425 |      425 |       0.09 | *
    |      232 |        - |      418 |      418 |       0.09 | *
    |      233 |        - |      414 |      414 |       0.09 | *
    |      250 |        - |      404 |      404 |       0.09 | *
    |      263 |        - |      401 |      401 |       0.09 | *
    |      307 |        - |      397 |      397 |       0.09 | *
    |      308 |        - |      392 |      392 |       0.09 | *
    |      316 |        - |      390 |      390 |       0.09 | *
    |      321 |        - |      388 |      388 |       0.09 | *
    |      323 |        - |      387 |      387 |       0.10 | *
    |      324 |        - |      382 |      382 |       0.10 | *
    |      333 |        - |      381 |      381 |       0.10 | *
    |      334 |        - |      375 |      375 |       0.10 | *
    |      339 |        - |      374 |      374 |       0.10 | *
    |      345 |        - |      372 |      372 |       0.10 | *
    |      364 |        - |      369 |      369 |       0.10 | *
    |      365 |        - |      366 |      366 |       0.10 | *
    |      388 |        - |      364 |      364 |       0.10 | *
    |      389 |        - |      351 |      351 |       0.10 | *
    |      390 |        - |      350 |      350 |       0.10 | *
    |      394 |        - |      349 |      349 |       0.10 | *
    |      404 |        - |      344 |      344 |       0.11 | *
    |      406 |        - |      342 |      342 |       0.11 | *
    |      420 |        - |      334 |      334 |       0.11 | *
    |      456 |        - |      332 |      332 |       0.11 | *
    |      459 |        - |      328 |      328 |       0.11 | *
    |      468 |        - |      327 |      327 |       0.11 | *
    |      472 |        - |      324 |      324 |       0.11 | *
    |      479 |        - |      322 |      322 |       0.11 | *
    |      503 |        - |      318 |      318 |       0.11 | *
    |      504 |        - |      317 |      317 |       0.11 | *
    |      538 |        - |      315 |      315 |       0.12 | *
    |      550 |        - |      310 |      310 |       0.12 | *
    |      564 |        - |      308 |      308 |       0.12 | *
    |      572 |        - |      304 |      304 |       0.12 | *
    |      582 |        - |      301 |      301 |       0.12 | *
    |      605 |        - |      300 |      300 |       0.12 | *
    |      612 |        - |      297 |      297 |       0.12 | *
    |      640 |        - |      296 |      296 |       0.12 | *
    |      650 |        - |      293 |      293 |       0.12 | *
    |      653 |        - |      283 |      283 |       0.12 | *
    |      689 |        - |      280 |      280 |       0.12 | *
    |      717 |        - |      279 |      279 |       0.12 | *
    |      746 |        - |      278 |      278 |       0.13 | *
    |      748 |        - |      276 |      276 |       0.13 | *
    |      757 |        - |      274 |      274 |       0.13 | *
    |      760 |        - |      272 |      272 |       0.13 | *
    |      769 |        - |      268 |      268 |       0.13 | *
    |      788 |        - |      266 |      266 |       0.13 | *
    |      864 |        - |      264 |      264 |       0.13 | *
    |      881 |        - |      263 |      263 |       0.13 | *
    |      928 |        - |      260 |      260 |       0.13 | *
    |      937 |        - |      259 |      259 |       0.13 | *
    |      975 |        - |      258 |      258 |       0.14 | *
    |      997 |        - |      257 |      257 |       0.14 | *
    |     1004 |        - |      256 |      256 |       0.14 | *
    |     1007 |        - |      250 |      250 |       0.14 | *
    |     1042 |        - |      249 |      249 |       0.14 | *
    |     1054 |        - |      248 |      248 |       0.14 | *
    |     1065 |        - |      247 |      247 |       0.14 | *
    |     1109 |        - |      244 |      244 |       0.14 | *
    |     1128 |        - |      242 |      242 |       0.14 | *
    |     1256 |        - |      241 |      241 |       0.14 | *
    |     1270 |        - |      240 |      240 |       0.14 | *
    |     1289 |        - |      239 |      239 |       0.14 | *
    |     1292 |        - |      236 |      236 |       0.15 | *
    |     1301 |        - |      235 |      235 |       0.15 | *
    |     1306 |        - |      231 |      231 |       0.15 | *
    |     1358 |        - |      230 |      230 |       0.15 | *
    |     1392 |        - |      229 |      229 |       0.15 | *
    |     1393 |        - |      222 |      222 |       0.15 | *
    |     1401 |        - |      221 |      221 |       0.15 | *
    |     1413 |        - |      219 |      219 |       0.15 | *
    |     1415 |        - |      218 |      218 |       0.15 | *
    |     1506 |        - |      217 |      217 |       0.15 | *
    |     1566 |        - |      216 |      216 |       0.15 | *
    |     1780 |        - |      213 |      213 |       0.16 | *
    |     1885 |        - |      212 |      212 |       0.16 | *
    |     2034 |        - |      211 |      211 |       0.16 | *
    |     2038 |        - |      210 |      210 |       0.16 | *
    |     2301 |        - |      208 |      208 |       0.16 | *
    |     2424 |        - |      207 |      207 |       0.16 | *
    |     2434 |        - |      206 |      206 |       0.16 | *
    |     2444 |        - |      204 |      204 |       0.17 | *
    |     2614 |        - |      203 |      203 |       0.17 | *
    |     2916 |        - |      202 |      202 |       0.17 | *
    |     2917 |        - |      201 |      201 |       0.17 | *
    |     2919 |        - |      200 |      200 |       0.17 | *
    |     3702 |        - |      199 |      199 |       0.18 | *
    |     3703 |        - |      198 |      198 |       0.18 | *
    |     3726 |        - |      195 |      195 |       0.18 | *
    |     3780 |        - |      192 |      192 |       0.18 | *
    |     3955 |        - |      191 |      191 |       0.18 | *
    |     3969 |        - |      190 |      190 |       0.18 | *
    |     4020 |        - |      187 |      187 |       0.18 | *
    |     4135 |        - |      184 |      184 |       0.18 | *
    |     4329 |        - |      183 |      183 |       0.19 | *
    |     4443 |        - |      182 |      182 |       0.19 | *
    |     4502 |        - |      181 |      181 |       0.19 | *
    |     4659 |        - |      180 |      180 |       0.19 | *
    |     4664 |        - |      179 |      179 |       0.19 | *
    |     4812 |        - |      177 |      177 |       0.19 | *
    |     4953 |        - |      176 |      176 |       0.19 | *
    |     6136 |        - |      173 |      173 |       0.19 | *
    |     6340 |        - |      172 |      172 |       0.19 | *
    |     6363 |        - |      171 |      171 |       0.20 | *
    |     6512 |        - |      170 |      170 |       0.20 | *
    |     6516 |        - |      169 |      169 |       0.20 | *
    |     6557 |        - |      167 |      167 |       0.20 | *
    |     6571 |        - |      166 |      166 |       0.20 | *
    |     6572 |        - |      165 |      165 |       0.20 | *
    |     6695 |        - |      164 |      164 |       0.20 | *
    |     7261 |        - |      161 |      161 |       0.20 | *
    |     7548 |        - |      160 |      160 |       0.21 | *
    |     7939 |        - |      159 |      159 |       0.21 | *
    |     7991 |        - |      158 |      158 |       0.21 | *
    |     8426 |        - |      157 |      157 |       0.21 | *
    |     8636 |        - |      156 |      156 |       0.22 | *
    |     8681 |        - |      155 |      155 |       0.22 | *
    |     9206 |        - |      154 |      154 |       0.22 | *
    |     9447 |        - |      152 |      152 |       0.22 | *
    |     9679 |        - |      151 |      151 |       0.22 | *
    |     9687 |        - |      150 |      150 |       0.22 | *
    |     9889 |        - |      149 |      149 |       0.22 | *
    |     9895 |        - |      148 |      148 |       0.23 | *
    |      10K |        - |      147 |      147 |       0.23 | *
    |      11K |        - |      146 |      146 |       0.23 | *
    |      11K |        - |      145 |      145 |       0.23 | *
    |      11K |        - |      144 |      144 |       0.23 | *
    |      11K |        - |      143 |      143 |       0.24 | *
    |      11K |        - |      142 |      142 |       0.24 | *
    |      12K |        - |      141 |      141 |       0.24 | *
    |      12K |        - |      140 |      140 |       0.24 | *
    |      12K |        - |      139 |      139 |       0.24 | *
    |      13K |        - |      138 |      138 |       0.25 | *
    |      13K |        - |      136 |      136 |       0.25 | *
    |      13K |        - |      135 |      135 |       0.25 | *
    |      15K |        - |      133 |      133 |       0.25 | *
    |      15K |        - |      130 |      130 |       0.26 | *
    |      15K |        - |      129 |      129 |       0.26 | *
    |      17K |        - |      128 |      128 |       0.26 | *
    |      18K |        - |      126 |      126 |       0.27 | *
    |      20K |        - |      125 |      125 |       0.27 | *
    |      24K |        - |      123 |      123 |       0.28 | *
    |      32K |        - |      122 |      122 |       0.31 | *
    |      33K |        - |      120 |      120 |       0.31 | *
    |      33K |        - |      119 |      119 |       0.31 | *
    |      33K |        - |      118 |      118 |       0.31 | *
    |      33K |        - |      117 |      117 |       0.32 | *
    |      34K |        - |      116 |      116 |       0.32 | *
    |      35K |        - |      115 |      115 |       0.32 | *
    |      50K |        - |      114 |      114 |       0.37 | *
    |      61K |        - |      112 |      112 |       0.40 | *
    |      61K |        - |      111 |      111 |       0.40 | *
    |      63K |        - |      110 |      110 |       0.41 | *
    |      65K |        - |      109 |      109 |       0.41 | *
    |      69K |        - |      108 |      108 |       0.42 | *
    |      77K |        - |      106 |      106 |       0.43 | *
    |     112K |        - |      105 |      105 |       0.50 | *
    |     113K |        - |      104 |      104 |       0.50 | *
    |     113K |        - |      102 |      102 |       0.50 | *
    |     114K |        - |      101 |      101 |       0.51 | *
    |     115K |        - |      100 |      100 |       0.51 | *
    |     121K |        - |       98 |       98 |       0.53 | *
    |     123K |        - |       97 |       97 |       0.53 | *
    |     140K |        - |       96 |       96 |       0.59 | *
    |     231K |        - |       95 |       95 |       0.97 | *
    |     350K |        - |       94 |       94 |       1.25 | *
    |     479K |        - |       93 |       93 |       1.42 | *
    |     512K |        - |       92 |       92 |       1.46 | *
    |     523K |        - |       91 |       91 |       1.48 | *
    |    4543K |        - |       90 |       90 |       6.90 | *
    |    5703K |        - |       89 |       89 |       7.96 | *
    |    7060K |        - |       88 |       88 |       8.87 | *
    |    9638K |        - |       87 |       87 |      10.74 | *
    |      12M |        - |       86 |       86 |      12.24 | *
    |      67M |        - |       85 |       85 |      46.37 | *
    |      94M |        - |       84 |       84 |      63.24 | *
    |     129M |        - |       83 |       83 |      84.73 | *
    |     601M |        - |       82 |       82 |     374.47 | *
    \--------------------------------------------------------/

Neighborhoods statistics (values in %):

    /----------------------------------------------------------------\
    | Move               | Improvs. | Sideways |  Accepts |  Rejects |
    |--------------------|----------|----------|----------|----------|
    | Shift(mk)          |      60K |     146K |     227K |     246M |
    | Shift              |     3960 |    1174K |    1227K |     245M |
    | ShiftSmart(mk)     |     287K |     662K |    1055K |     245M |
    | ShiftSmart         |      19K |    5116K |    5325K |     240M |
    | SimpSwap(mk)       |      340 |      591 |     1074 |     246M |
    | SimpSwap           |       55 |     2649 |     3030 |     246M |
    | SimpSwapSmart(mk)  |     1733 |     2972 |     5460 |     246M |
    | SimpSwapSmart      |      245 |      14K |      16K |     246M |
    | Swap(mk)           |      124 |      210 |      389 |     246M |
    | Swap               |       11 |     1045 |     1177 |     246M |
    | SwapSmart(mk)      |     2110 |     4030 |     7066 |     246M |
    | SwapSmart          |      281 |      16K |      18K |     246M |
    | Switch(mk)         |      19K |      36M |      36M |     210M |
    | Switch             |     1327 |      40M |      40M |     206M |
    | SwitchSmart(mk)    |      90K |     182K |     306K |     246M |
    | SwitchSmart        |     5947 |    1272K |    1342K |     244M |
    | TaskMove(mk)       |     2784 |     4807 |     8640 |     246M |
    | TaskMove           |      224 |      13K |      15K |     246M |
    | TaskMoveSmart(mk)  |      16K |      28K |      50K |     246M |
    | TaskMoveSmart      |     1233 |      75K |      87K |     246M |
    | 2-Shift(mk)        |      29K |    6294K |    6332K |     239M |
    | 2-Shift            |     1910 |    9184K |    9210K |     237M |
    | 2-ShiftSmart(mk)   |     121K |    2868K |    3015K |     243M |
    | 2-ShiftSmart       |     8051 |      16M |      16M |     230M |
    \----------------------------------------------------------------/

Best makespan.....: 82
N. of Iterations..: 5900899812
Total runtime.....: 3600.03s
Using Python-MIP package version 1.6.8
Começo a execução
    /-------------------------------------------------------------------------------\
    |    Makespan   |   Free Jobs   | Free Machines |    It. Time   |   Total Time  | 
    |-------------------------------------------------------------------------------|
    \-------------------------------------------------------------------------------/
Terminou a execução
