Instance....: instances/I_100_30_S_1-124_1.txt
Algorithm...: Simulated Annealing (alpha=0.990, saMax=10M, t0=1)
Other params: maxIters=100M, seed=-1, timeLimit=3600.00s

    /--------------------------------------------------------\
    |     Iter |   RDP(%) |       S* |       S' |       Time | 
    |----------|----------|----------|----------|------------|
    |        0 |        - |      836 |      836 |       0.00 | s0
    |        3 |        - |      774 |      774 |       0.02 | *
    |        5 |        - |      717 |      717 |       0.02 | *
    |        9 |        - |      712 |      712 |       0.02 | *
    |       10 |        - |      688 |      688 |       0.02 | *
    |       12 |        - |      679 |      679 |       0.03 | *
    |       13 |        - |      637 |      637 |       0.03 | *
    |       29 |        - |      625 |      625 |       0.03 | *
    |       30 |        - |      598 |      598 |       0.03 | *
    |       32 |        - |      597 |      597 |       0.03 | *
    |       39 |        - |      589 |      589 |       0.03 | *
    |       41 |        - |      580 |      580 |       0.04 | *
    |       42 |        - |      579 |      579 |       0.04 | *
    |       45 |        - |      578 |      578 |       0.04 | *
    |       46 |        - |      571 |      571 |       0.04 | *
    |       49 |        - |      570 |      570 |       0.04 | *
    |       51 |        - |      569 |      569 |       0.04 | *
    |       57 |        - |      537 |      537 |       0.04 | *
    |       63 |        - |      534 |      534 |       0.04 | *
    |       64 |        - |      531 |      531 |       0.04 | *
    |       71 |        - |      520 |      520 |       0.04 | *
    |       78 |        - |      513 |      513 |       0.04 | *
    |       80 |        - |      509 |      509 |       0.04 | *
    |       85 |        - |      499 |      499 |       0.05 | *
    |       87 |        - |      487 |      487 |       0.05 | *
    |       91 |        - |      482 |      482 |       0.05 | *
    |       98 |        - |      450 |      450 |       0.05 | *
    |      102 |        - |      437 |      437 |       0.05 | *
    |      103 |        - |      429 |      429 |       0.05 | *
    |      104 |        - |      422 |      422 |       0.05 | *
    |      107 |        - |      415 |      415 |       0.05 | *
    |      112 |        - |      413 |      413 |       0.05 | *
    |      127 |        - |      412 |      412 |       0.05 | *
    |      137 |        - |      405 |      405 |       0.05 | *
    |      141 |        - |      404 |      404 |       0.05 | *
    |      142 |        - |      399 |      399 |       0.05 | *
    |      156 |        - |      398 |      398 |       0.05 | *
    |      168 |        - |      391 |      391 |       0.06 | *
    |      169 |        - |      388 |      388 |       0.06 | *
    |      170 |        - |      376 |      376 |       0.06 | *
    |      177 |        - |      369 |      369 |       0.06 | *
    |      180 |        - |      368 |      368 |       0.06 | *
    |      197 |        - |      366 |      366 |       0.06 | *
    |      216 |        - |      361 |      361 |       0.06 | *
    |      218 |        - |      351 |      351 |       0.06 | *
    |      232 |        - |      346 |      346 |       0.06 | *
    |      235 |        - |      345 |      345 |       0.06 | *
    |      242 |        - |      343 |      343 |       0.06 | *
    |      263 |        - |      340 |      340 |       0.06 | *
    |      264 |        - |      339 |      339 |       0.06 | *
    |      268 |        - |      336 |      336 |       0.06 | *
    |      270 |        - |      335 |      335 |       0.06 | *
    |      274 |        - |      333 |      333 |       0.07 | *
    |      284 |        - |      331 |      331 |       0.07 | *
    |      294 |        - |      322 |      322 |       0.07 | *
    |      300 |        - |      319 |      319 |       0.07 | *
    |      301 |        - |      318 |      318 |       0.07 | *
    |      308 |        - |      314 |      314 |       0.07 | *
    |      311 |        - |      308 |      308 |       0.07 | *
    |      314 |        - |      305 |      305 |       0.07 | *
    |      317 |        - |      304 |      304 |       0.07 | *
    |      319 |        - |      303 |      303 |       0.07 | *
    |      348 |        - |      301 |      301 |       0.07 | *
    |      351 |        - |      300 |      300 |       0.07 | *
    |      353 |        - |      298 |      298 |       0.07 | *
    |      359 |        - |      295 |      295 |       0.07 | *
    |      365 |        - |      293 |      293 |       0.07 | *
    |      372 |        - |      291 |      291 |       0.07 | *
    |      379 |        - |      290 |      290 |       0.08 | *
    |      386 |        - |      289 |      289 |       0.08 | *
    |      389 |        - |      277 |      277 |       0.08 | *
    |      460 |        - |      274 |      274 |       0.08 | *
    |      462 |        - |      269 |      269 |       0.08 | *
    |      476 |        - |      268 |      268 |       0.08 | *
    |      506 |        - |      265 |      265 |       0.08 | *
    |      544 |        - |      262 |      262 |       0.08 | *
    |      546 |        - |      259 |      259 |       0.08 | *
    |      598 |        - |      257 |      257 |       0.08 | *
    |      645 |        - |      256 |      256 |       0.08 | *
    |      678 |        - |      255 |      255 |       0.08 | *
    |      684 |        - |      254 |      254 |       0.08 | *
    |      745 |        - |      253 |      253 |       0.08 | *
    |      773 |        - |      251 |      251 |       0.09 | *
    |      781 |        - |      250 |      250 |       0.09 | *
    |      782 |        - |      249 |      249 |       0.09 | *
    |      821 |        - |      247 |      247 |       0.09 | *
    |      842 |        - |      246 |      246 |       0.09 | *
    |      843 |        - |      239 |      239 |       0.09 | *
    |      862 |        - |      236 |      236 |       0.09 | *
    |      865 |        - |      232 |      232 |       0.09 | *
    |      912 |        - |      229 |      229 |       0.09 | *
    |     1037 |        - |      221 |      221 |       0.09 | *
    |     1070 |        - |      217 |      217 |       0.09 | *
    |     1072 |        - |      216 |      216 |       0.09 | *
    |     1107 |        - |      214 |      214 |       0.10 | *
    |     1109 |        - |      212 |      212 |       0.10 | *
    |     1157 |        - |      210 |      210 |       0.10 | *
    |     1158 |        - |      209 |      209 |       0.10 | *
    |     1162 |        - |      205 |      205 |       0.10 | *
    |     1171 |        - |      204 |      204 |       0.10 | *
    |     1178 |        - |      202 |      202 |       0.10 | *
    |     1235 |        - |      201 |      201 |       0.10 | *
    |     1302 |        - |      199 |      199 |       0.10 | *
    |     1310 |        - |      193 |      193 |       0.10 | *
    |     1325 |        - |      190 |      190 |       0.10 | *
    |     1327 |        - |      189 |      189 |       0.10 | *
    |     1347 |        - |      188 |      188 |       0.10 | *
    |     1352 |        - |      184 |      184 |       0.10 | *
    |     1397 |        - |      182 |      182 |       0.10 | *
    |     1400 |        - |      179 |      179 |       0.10 | *
    |     1521 |        - |      176 |      176 |       0.10 | *
    |     1533 |        - |      173 |      173 |       0.10 | *
    |     1785 |        - |      172 |      172 |       0.11 | *
    |     1883 |        - |      170 |      170 |       0.11 | *
    |     1972 |        - |      169 |      169 |       0.11 | *
    |     1992 |        - |      168 |      168 |       0.11 | *
    |     1996 |        - |      167 |      167 |       0.11 | *
    |     2062 |        - |      166 |      166 |       0.11 | *
    |     2065 |        - |      165 |      165 |       0.11 | *
    |     2092 |        - |      164 |      164 |       0.11 | *
    |     2465 |        - |      163 |      163 |       0.11 | *
    |     2598 |        - |      162 |      162 |       0.11 | *
    |     2659 |        - |      161 |      161 |       0.11 | *
    |     2762 |        - |      160 |      160 |       0.11 | *
    |     2782 |        - |      159 |      159 |       0.12 | *
    |     2833 |        - |      158 |      158 |       0.12 | *
    |     2835 |        - |      157 |      157 |       0.12 | *
    |     2991 |        - |      156 |      156 |       0.12 | *
    |     3565 |        - |      155 |      155 |       0.12 | *
    |     3583 |        - |      154 |      154 |       0.12 | *
    |     3588 |        - |      153 |      153 |       0.12 | *
    |     3595 |        - |      152 |      152 |       0.12 | *
    |     3718 |        - |      151 |      151 |       0.13 | *
    |     3874 |        - |      149 |      149 |       0.13 | *
    |     4165 |        - |      148 |      148 |       0.13 | *
    |     4495 |        - |      146 |      146 |       0.13 | *
    |     4650 |        - |      144 |      144 |       0.13 | *
    |     4666 |        - |      143 |      143 |       0.13 | *
    |     4938 |        - |      141 |      141 |       0.13 | *
    |     5629 |        - |      140 |      140 |       0.14 | *
    |     6468 |        - |      139 |      139 |       0.14 | *
    |     6857 |        - |      138 |      138 |       0.14 | *
    |     6914 |        - |      134 |      134 |       0.14 | *
    |     7637 |        - |      133 |      133 |       0.14 | *
    |     7648 |        - |      132 |      132 |       0.14 | *
    |     8086 |        - |      131 |      131 |       0.15 | *
    |     8699 |        - |      130 |      130 |       0.15 | *
    |     8946 |        - |      129 |      129 |       0.15 | *
    |      10K |        - |      128 |      128 |       0.15 | *
    |      10K |        - |      126 |      126 |       0.15 | *
    |      10K |        - |      125 |      125 |       0.15 | *
    |      10K |        - |      123 |      123 |       0.15 | *
    |      11K |        - |      122 |      122 |       0.15 | *
    |      11K |        - |      121 |      121 |       0.15 | *
    |      11K |        - |      120 |      120 |       0.15 | *
    |      11K |        - |      119 |      119 |       0.15 | *
    |      12K |        - |      118 |      118 |       0.16 | *
    |      12K |        - |      117 |      117 |       0.16 | *
    |      12K |        - |      116 |      116 |       0.16 | *
    |      12K |        - |      114 |      114 |       0.16 | *
    |      13K |        - |      110 |      110 |       0.16 | *
    |      15K |        - |      109 |      109 |       0.16 | *
    |      15K |        - |      108 |      108 |       0.16 | *
    |      16K |        - |      107 |      107 |       0.17 | *
    |      16K |        - |      106 |      106 |       0.17 | *
    |      19K |        - |      105 |      105 |       0.17 | *
    |      20K |        - |      104 |      104 |       0.17 | *
    |      22K |        - |      103 |      103 |       0.17 | *
    |      23K |        - |      102 |      102 |       0.18 | *
    |      24K |        - |      101 |      101 |       0.18 | *
    |      25K |        - |      100 |      100 |       0.18 | *
    |      26K |        - |       98 |       98 |       0.18 | *
    |      27K |        - |       96 |       96 |       0.18 | *
    |      28K |        - |       95 |       95 |       0.18 | *
    |      33K |        - |       94 |       94 |       0.19 | *
    |      37K |        - |       93 |       93 |       0.20 | *
    |      38K |        - |       92 |       92 |       0.20 | *
    |      38K |        - |       91 |       91 |       0.20 | *
    |      43K |        - |       90 |       90 |       0.21 | *
    |      43K |        - |       89 |       89 |       0.22 | *
    |      44K |        - |       88 |       88 |       0.22 | *
    |      44K |        - |       85 |       85 |       0.22 | *
    |      47K |        - |       84 |       84 |       0.22 | *
    |      51K |        - |       83 |       83 |       0.23 | *
    |      53K |        - |       82 |       82 |       0.23 | *
    |      55K |        - |       81 |       81 |       0.23 | *
    |      65K |        - |       80 |       80 |       0.24 | *
    |      73K |        - |       79 |       79 |       0.25 | *
    |      74K |        - |       78 |       78 |       0.25 | *
    |      76K |        - |       77 |       77 |       0.26 | *
    |      76K |        - |       76 |       76 |       0.26 | *
    |      76K |        - |       75 |       75 |       0.26 | *
    |      79K |        - |       74 |       74 |       0.26 | *
    |      89K |        - |       73 |       73 |       0.27 | *
    |     107K |        - |       72 |       72 |       0.30 | *
    |     125K |        - |       71 |       71 |       0.32 | *
    |     125K |        - |       70 |       70 |       0.33 | *
    |     129K |        - |       69 |       69 |       0.33 | *
    |     130K |        - |       68 |       68 |       0.33 | *
    |     145K |        - |       67 |       67 |       0.35 | *
    |     152K |        - |       66 |       66 |       0.37 | *
    |     157K |        - |       65 |       65 |       0.38 | *
    |     158K |        - |       64 |       64 |       0.38 | *
    |     216K |        - |       63 |       63 |       0.51 | *
    |     242K |        - |       62 |       62 |       0.56 | *
    |     243K |        - |       61 |       61 |       0.57 | *
    |     320K |        - |       60 |       60 |       0.74 | *
    |     340K |        - |       59 |       59 |       0.78 | *
    |     355K |        - |       58 |       58 |       0.82 | *
    |     426K |        - |       57 |       57 |       0.99 | *
    |     532K |        - |       56 |       56 |       1.15 | *
    |     542K |        - |       55 |       55 |       1.16 | *
    |    1353K |        - |       54 |       54 |       1.90 | *
    |    1353K |        - |       53 |       53 |       1.90 | *
    |    4076K |        - |       52 |       52 |       4.12 | *
    |    4752K |        - |       51 |       51 |       4.59 | *
    |    5045K |        - |       50 |       50 |       4.76 | *
    |    5045K |        - |       49 |       49 |       4.76 | *
    |    6726K |        - |       48 |       48 |       5.87 | *
    |    9145K |        - |       47 |       47 |       7.37 | *
    |    9769K |        - |       46 |       46 |       7.77 | *
    |      42M |        - |       45 |       45 |      28.06 | *
    |      43M |        - |       44 |       44 |      29.13 | *
    |     419M |        - |       43 |       43 |     263.46 | *
    \--------------------------------------------------------/

Neighborhoods statistics (values in %):

    /----------------------------------------------------------------\
    | Move               | Improvs. | Sideways |  Accepts |  Rejects |
    |--------------------|----------|----------|----------|----------|
    | Shift(mk)          |      66K |      63K |     163K |     239M |
    | Shift              |     2198 |    3342K |    3375K |     237M |
    | ShiftSmart(mk)     |     113K |     108K |     284K |     239M |
    | ShiftSmart         |     3764 |    7095K |    7149K |     233M |
    | SimpSwap(mk)       |     1172 |     1532 |     2997 |     240M |
    | SimpSwap           |       86 |      61K |      62K |     240M |
    | SimpSwapSmart(mk)  |     2019 |     2620 |     5242 |     241M |
    | SimpSwapSmart      |      164 |     105K |     107K |     240M |
    | Swap(mk)           |      764 |     1234 |     2193 |     240M |
    | Swap               |       43 |      38K |      39K |     241M |
    | SwapSmart(mk)      |     2612 |     4174 |     7569 |     240M |
    | SwapSmart          |      158 |     101K |     103K |     240M |
    | Switch(mk)         |      15K |      52M |      52M |     188M |
    | Switch             |      532 |      81M |      81M |     160M |
    | SwitchSmart(mk)    |      31K |      29K |      68K |     240M |
    | SwitchSmart        |     1073 |    1450K |    1474K |     239M |
    | TaskMove(mk)       |     3433 |     6033 |      10K |     240M |
    | TaskMove           |      112 |      75K |      77K |     240M |
    | TaskMoveSmart(mk)  |     9546 |      17K |      30K |     240M |
    | TaskMoveSmart      |      371 |     218K |     225K |     240M |
    | 2-Shift(mk)        |      51K |      16M |      16M |     223M |
    | 2-Shift            |     1723 |      53M |      53M |     187M |
    | 2-ShiftSmart(mk)   |      60K |      20M |      20M |     220M |
    | 2-ShiftSmart       |     2030 |      88M |      88M |     152M |
    \----------------------------------------------------------------/

Best makespan.....: 43
N. of Iterations..: 5763528409
Total runtime.....: 3600.04s
Using Python-MIP package version 1.6.8
Começo a execução
    /-------------------------------------------------------------------------------\
    |    Makespan   |   Free Jobs   | Free Machines |    It. Time   |   Total Time  | 
    |-------------------------------------------------------------------------------|
    \-------------------------------------------------------------------------------/
Terminou a execução
