Instance....: instances/I_100_30_S_1-49_2.txt
Algorithm...: Simulated Annealing (alpha=0.990, saMax=10M, t0=1)
Other params: maxIters=100M, seed=-1, timeLimit=3600.00s

    /--------------------------------------------------------\
    |     Iter |   RDP(%) |       S* |       S' |       Time | 
    |----------|----------|----------|----------|------------|
    |        0 |        - |      635 |      635 |       0.00 | s0
    |        0 |        - |      619 |      619 |       0.00 | *
    |        4 |        - |      566 |      566 |       0.02 | *
    |        8 |        - |      553 |      553 |       0.02 | *
    |       16 |        - |      541 |      541 |       0.02 | *
    |       18 |        - |      532 |      532 |       0.02 | *
    |       39 |        - |      520 |      520 |       0.02 | *
    |       41 |        - |      511 |      511 |       0.02 | *
    |       44 |        - |      490 |      490 |       0.03 | *
    |       45 |        - |      460 |      460 |       0.03 | *
    |       54 |        - |      451 |      451 |       0.03 | *
    |       57 |        - |      447 |      447 |       0.03 | *
    |       60 |        - |      444 |      444 |       0.03 | *
    |       61 |        - |      439 |      439 |       0.03 | *
    |       63 |        - |      435 |      435 |       0.03 | *
    |       68 |        - |      427 |      427 |       0.03 | *
    |       82 |        - |      419 |      419 |       0.03 | *
    |       91 |        - |      398 |      398 |       0.03 | *
    |       95 |        - |      392 |      392 |       0.04 | *
    |       96 |        - |      391 |      391 |       0.04 | *
    |      102 |        - |      370 |      370 |       0.04 | *
    |      109 |        - |      361 |      361 |       0.04 | *
    |      110 |        - |      356 |      356 |       0.04 | *
    |      111 |        - |      355 |      355 |       0.04 | *
    |      112 |        - |      354 |      354 |       0.04 | *
    |      114 |        - |      350 |      350 |       0.04 | *
    |      120 |        - |      342 |      342 |       0.04 | *
    |      126 |        - |      335 |      335 |       0.04 | *
    |      131 |        - |      333 |      333 |       0.04 | *
    |      145 |        - |      323 |      323 |       0.04 | *
    |      157 |        - |      315 |      315 |       0.04 | *
    |      163 |        - |      304 |      304 |       0.04 | *
    |      170 |        - |      303 |      303 |       0.04 | *
    |      173 |        - |      300 |      300 |       0.05 | *
    |      179 |        - |      295 |      295 |       0.05 | *
    |      182 |        - |      294 |      294 |       0.05 | *
    |      189 |        - |      292 |      292 |       0.05 | *
    |      192 |        - |      284 |      284 |       0.05 | *
    |      198 |        - |      275 |      275 |       0.05 | *
    |      220 |        - |      273 |      273 |       0.05 | *
    |      223 |        - |      272 |      272 |       0.05 | *
    |      229 |        - |      270 |      270 |       0.05 | *
    |      231 |        - |      269 |      269 |       0.05 | *
    |      232 |        - |      267 |      267 |       0.05 | *
    |      247 |        - |      266 |      266 |       0.05 | *
    |      252 |        - |      265 |      265 |       0.06 | *
    |      264 |        - |      262 |      262 |       0.06 | *
    |      268 |        - |      261 |      261 |       0.06 | *
    |      302 |        - |      253 |      253 |       0.06 | *
    |      303 |        - |      252 |      252 |       0.06 | *
    |      371 |        - |      249 |      249 |       0.06 | *
    |      372 |        - |      248 |      248 |       0.06 | *
    |      376 |        - |      247 |      247 |       0.06 | *
    |      378 |        - |      245 |      245 |       0.06 | *
    |      388 |        - |      244 |      244 |       0.06 | *
    |      398 |        - |      242 |      242 |       0.06 | *
    |      405 |        - |      240 |      240 |       0.06 | *
    |      407 |        - |      236 |      236 |       0.06 | *
    |      420 |        - |      229 |      229 |       0.06 | *
    |      427 |        - |      226 |      226 |       0.06 | *
    |      439 |        - |      222 |      222 |       0.06 | *
    |      448 |        - |      221 |      221 |       0.07 | *
    |      451 |        - |      220 |      220 |       0.07 | *
    |      465 |        - |      216 |      216 |       0.07 | *
    |      471 |        - |      214 |      214 |       0.07 | *
    |      481 |        - |      212 |      212 |       0.07 | *
    |      487 |        - |      207 |      207 |       0.07 | *
    |      561 |        - |      206 |      206 |       0.07 | *
    |      604 |        - |      205 |      205 |       0.07 | *
    |      609 |        - |      204 |      204 |       0.07 | *
    |      627 |        - |      203 |      203 |       0.07 | *
    |      633 |        - |      199 |      199 |       0.07 | *
    |      635 |        - |      197 |      197 |       0.07 | *
    |      641 |        - |      193 |      193 |       0.07 | *
    |      649 |        - |      191 |      191 |       0.07 | *
    |      656 |        - |      187 |      187 |       0.07 | *
    |      658 |        - |      181 |      181 |       0.07 | *
    |      659 |        - |      179 |      179 |       0.08 | *
    |      693 |        - |      177 |      177 |       0.08 | *
    |      694 |        - |      175 |      175 |       0.08 | *
    |      699 |        - |      174 |      174 |       0.08 | *
    |      763 |        - |      171 |      171 |       0.08 | *
    |      797 |        - |      169 |      169 |       0.08 | *
    |      805 |        - |      168 |      168 |       0.08 | *
    |      809 |        - |      166 |      166 |       0.08 | *
    |      859 |        - |      164 |      164 |       0.08 | *
    |      862 |        - |      161 |      161 |       0.08 | *
    |      870 |        - |      159 |      159 |       0.08 | *
    |      911 |        - |      158 |      158 |       0.08 | *
    |      924 |        - |      157 |      157 |       0.08 | *
    |     1000 |        - |      156 |      156 |       0.08 | *
    |     1005 |        - |      155 |      155 |       0.08 | *
    |     1052 |        - |      153 |      153 |       0.09 | *
    |     1111 |        - |      151 |      151 |       0.09 | *
    |     1180 |        - |      150 |      150 |       0.09 | *
    |     1184 |        - |      148 |      148 |       0.09 | *
    |     1190 |        - |      146 |      146 |       0.09 | *
    |     1192 |        - |      145 |      145 |       0.09 | *
    |     1233 |        - |      144 |      144 |       0.09 | *
    |     1240 |        - |      143 |      143 |       0.09 | *
    |     1286 |        - |      142 |      142 |       0.09 | *
    |     1342 |        - |      141 |      141 |       0.09 | *
    |     1387 |        - |      140 |      140 |       0.09 | *
    |     1388 |        - |      138 |      138 |       0.09 | *
    |     1392 |        - |      137 |      137 |       0.09 | *
    |     1396 |        - |      136 |      136 |       0.09 | *
    |     1445 |        - |      134 |      134 |       0.09 | *
    |     1502 |        - |      133 |      133 |       0.10 | *
    |     1621 |        - |      132 |      132 |       0.10 | *
    |     1625 |        - |      131 |      131 |       0.10 | *
    |     1631 |        - |      130 |      130 |       0.10 | *
    |     1638 |        - |      129 |      129 |       0.10 | *
    |     1696 |        - |      128 |      128 |       0.10 | *
    |     1860 |        - |      127 |      127 |       0.10 | *
    |     1969 |        - |      126 |      126 |       0.10 | *
    |     2053 |        - |      125 |      125 |       0.10 | *
    |     2215 |        - |      124 |      124 |       0.10 | *
    |     2220 |        - |      123 |      123 |       0.10 | *
    |     2333 |        - |      121 |      121 |       0.10 | *
    |     2484 |        - |      120 |      120 |       0.10 | *
    |     2889 |        - |      119 |      119 |       0.11 | *
    |     2959 |        - |      118 |      118 |       0.11 | *
    |     3023 |        - |      117 |      117 |       0.11 | *
    |     3192 |        - |      116 |      116 |       0.11 | *
    |     3224 |        - |      115 |      115 |       0.11 | *
    |     3230 |        - |      114 |      114 |       0.11 | *
    |     3262 |        - |      111 |      111 |       0.11 | *
    |     3285 |        - |      109 |      109 |       0.11 | *
    |     3356 |        - |      108 |      108 |       0.11 | *
    |     3623 |        - |      107 |      107 |       0.12 | *
    |     4458 |        - |      106 |      106 |       0.12 | *
    |     4611 |        - |      104 |      104 |       0.12 | *
    |     4628 |        - |      103 |      103 |       0.12 | *
    |     4660 |        - |      102 |      102 |       0.12 | *
    |     5176 |        - |      101 |      101 |       0.13 | *
    |     5224 |        - |       99 |       99 |       0.13 | *
    |     5232 |        - |       98 |       98 |       0.13 | *
    |     5238 |        - |       97 |       97 |       0.13 | *
    |     5423 |        - |       96 |       96 |       0.13 | *
    |     5435 |        - |       95 |       95 |       0.13 | *
    |     5448 |        - |       94 |       94 |       0.13 | *
    |     5740 |        - |       93 |       93 |       0.13 | *
    |     5820 |        - |       90 |       90 |       0.13 | *
    |     5873 |        - |       89 |       89 |       0.13 | *
    |     5953 |        - |       88 |       88 |       0.14 | *
    |     6035 |        - |       87 |       87 |       0.14 | *
    |     6928 |        - |       86 |       86 |       0.14 | *
    |     7205 |        - |       85 |       85 |       0.14 | *
    |     7215 |        - |       83 |       83 |       0.14 | *
    |     7238 |        - |       81 |       81 |       0.14 | *
    |     7720 |        - |       80 |       80 |       0.14 | *
    |     8571 |        - |       78 |       78 |       0.15 | *
    |     8994 |        - |       77 |       77 |       0.15 | *
    |     9412 |        - |       76 |       76 |       0.15 | *
    |      12K |        - |       75 |       75 |       0.16 | *
    |      16K |        - |       74 |       74 |       0.16 | *
    |      18K |        - |       73 |       73 |       0.17 | *
    |      18K |        - |       72 |       72 |       0.17 | *
    |      19K |        - |       71 |       71 |       0.17 | *
    |      19K |        - |       70 |       70 |       0.17 | *
    |      19K |        - |       69 |       69 |       0.17 | *
    |      19K |        - |       68 |       68 |       0.17 | *
    |      20K |        - |       66 |       66 |       0.17 | *
    |      20K |        - |       65 |       65 |       0.18 | *
    |      21K |        - |       64 |       64 |       0.18 | *
    |      22K |        - |       63 |       63 |       0.18 | *
    |      24K |        - |       62 |       62 |       0.18 | *
    |      25K |        - |       61 |       61 |       0.19 | *
    |      32K |        - |       60 |       60 |       0.20 | *
    |      42K |        - |       59 |       59 |       0.21 | *
    |      49K |        - |       58 |       58 |       0.22 | *
    |      50K |        - |       57 |       57 |       0.22 | *
    |      55K |        - |       56 |       56 |       0.23 | *
    |      69K |        - |       55 |       55 |       0.24 | *
    |      70K |        - |       54 |       54 |       0.24 | *
    |     114K |        - |       53 |       53 |       0.30 | *
    |     128K |        - |       52 |       52 |       0.33 | *
    |     132K |        - |       51 |       51 |       0.34 | *
    |     151K |        - |       50 |       50 |       0.38 | *
    |     181K |        - |       49 |       49 |       0.47 | *
    |     211K |        - |       48 |       48 |       0.56 | *
    |     219K |        - |       47 |       47 |       0.58 | *
    |     235K |        - |       46 |       46 |       0.62 | *
    |     261K |        - |       45 |       45 |       0.69 | *
    |     262K |        - |       44 |       44 |       0.69 | *
    |     344K |        - |       43 |       43 |       0.89 | *
    |     359K |        - |       42 |       42 |       0.91 | *
    |     680K |        - |       41 |       41 |       1.29 | *
    |     992K |        - |       40 |       40 |       1.59 | *
    |    1152K |        - |       39 |       39 |       1.74 | *
    |      12M |        - |       38 |       38 |      10.48 | *
    |      38M |        - |       37 |       37 |      26.68 | *
    |      47M |        - |       36 |       36 |      32.34 | *
    |     340M |        - |       35 |       35 |     212.78 | *
    |     565M |        - |       34 |       34 |     350.46 | *
    |    1691M |        - |       33 |       33 |    1032.60 | *
    \--------------------------------------------------------/

Neighborhoods statistics (values in %):

    /----------------------------------------------------------------\
    | Move               | Improvs. | Sideways |  Accepts |  Rejects |
    |--------------------|----------|----------|----------|----------|
    | Shift(mk)          |     217K |    1369K |    1663K |     249M |
    | Shift              |     7465 |    7223K |    7382K |     244M |
    | ShiftSmart(mk)     |     372K |    2884K |    3383K |     247M |
    | ShiftSmart         |      13K |      13M |      13M |     237M |
    | SimpSwap(mk)       |     1752 |     3752 |     6069 |     251M |
    | SimpSwap           |      128 |      75K |      77K |     251M |
    | SimpSwapSmart(mk)  |     3930 |     8580 |      14K |     251M |
    | SimpSwapSmart      |      276 |     157K |     161K |     251M |
    | Swap(mk)           |     1320 |     5243 |     6956 |     251M |
    | Swap               |       65 |      34K |      36K |     251M |
    | SwapSmart(mk)      |     5431 |      38K |      46K |     251M |
    | SwapSmart          |      353 |     144K |     149K |     251M |
    | Switch(mk)         |      83K |      78M |      79M |     172M |
    | Switch             |     2886 |      85M |      85M |     166M |
    | SwitchSmart(mk)    |     178K |     442K |     682K |     250M |
    | SwitchSmart        |     6118 |    4690K |    4819K |     246M |
    | TaskMove(mk)       |     8113 |      28K |      39K |     251M |
    | TaskMove           |      257 |      95K |     100K |     251M |
    | TaskMoveSmart(mk)  |      23K |      77K |     110K |     251M |
    | TaskMoveSmart      |      845 |     291K |     306K |     250M |
    | 2-Shift(mk)        |     144K |      40M |      40M |     211M |
    | 2-Shift            |     5013 |      56M |      56M |     195M |
    | 2-ShiftSmart(mk)   |     183K |      53M |      53M |     198M |
    | 2-ShiftSmart       |     6109 |      94M |      94M |     157M |
    \----------------------------------------------------------------/

Best makespan.....: 33
N. of Iterations..: 6020560610
Total runtime.....: 3600.03s
Using Python-MIP package version 1.6.8
Começo a execução
    /-------------------------------------------------------------------------------\
    |    Makespan   |   Free Jobs   | Free Machines |    It. Time   |   Total Time  | 
    |-------------------------------------------------------------------------------|
    \-------------------------------------------------------------------------------/
Terminou a execução
