Instance....: instances/I_150_10_S_1-9_7.txt
Algorithm...: Simulated Annealing (alpha=0.990, saMax=10M, t0=1)
Other params: maxIters=100M, seed=-1, timeLimit=3600.00s

    /--------------------------------------------------------\
    |     Iter |   RDP(%) |       S* |       S' |       Time | 
    |----------|----------|----------|----------|------------|
    |        0 |        - |     1901 |     1901 |       0.00 | s0
    |        0 |        - |     1876 |     1876 |       0.00 | *
    |        3 |        - |     1868 |     1868 |       0.02 | *
    |        4 |        - |     1814 |     1814 |       0.02 | *
    |       13 |        - |     1793 |     1793 |       0.02 | *
    |       19 |        - |     1785 |     1785 |       0.02 | *
    |       20 |        - |     1717 |     1717 |       0.03 | *
    |       22 |        - |     1704 |     1704 |       0.03 | *
    |       26 |        - |     1627 |     1627 |       0.03 | *
    |       27 |        - |     1561 |     1561 |       0.03 | *
    |       30 |        - |     1558 |     1558 |       0.03 | *
    |       32 |        - |     1528 |     1528 |       0.03 | *
    |       34 |        - |     1505 |     1505 |       0.03 | *
    |       36 |        - |     1482 |     1482 |       0.03 | *
    |       37 |        - |     1468 |     1468 |       0.03 | *
    |       38 |        - |     1394 |     1394 |       0.04 | *
    |       39 |        - |     1391 |     1391 |       0.04 | *
    |       40 |        - |     1351 |     1351 |       0.04 | *
    |       45 |        - |     1288 |     1288 |       0.04 | *
    |       47 |        - |     1284 |     1284 |       0.04 | *
    |       48 |        - |     1279 |     1279 |       0.04 | *
    |       51 |        - |     1265 |     1265 |       0.04 | *
    |       60 |        - |     1231 |     1231 |       0.04 | *
    |       61 |        - |     1194 |     1194 |       0.04 | *
    |       65 |        - |     1126 |     1126 |       0.04 | *
    |       66 |        - |     1085 |     1085 |       0.04 | *
    |       69 |        - |     1084 |     1084 |       0.04 | *
    |       72 |        - |     1071 |     1071 |       0.04 | *
    |       73 |        - |     1065 |     1065 |       0.04 | *
    |       74 |        - |     1063 |     1063 |       0.05 | *
    |       76 |        - |     1055 |     1055 |       0.05 | *
    |       82 |        - |     1009 |     1009 |       0.05 | *
    |       83 |        - |     1008 |     1008 |       0.05 | *
    |       88 |        - |     1006 |     1006 |       0.05 | *
    |       94 |        - |      970 |      970 |       0.05 | *
    |       99 |        - |      961 |      961 |       0.05 | *
    |      104 |        - |      957 |      957 |       0.05 | *
    |      108 |        - |      949 |      949 |       0.05 | *
    |      113 |        - |      948 |      948 |       0.05 | *
    |      124 |        - |      937 |      937 |       0.05 | *
    |      125 |        - |      927 |      927 |       0.05 | *
    |      134 |        - |      895 |      895 |       0.05 | *
    |      142 |        - |      891 |      891 |       0.06 | *
    |      144 |        - |      880 |      880 |       0.06 | *
    |      149 |        - |      869 |      869 |       0.06 | *
    |      152 |        - |      828 |      828 |       0.06 | *
    |      156 |        - |      826 |      826 |       0.06 | *
    |      157 |        - |      820 |      820 |       0.06 | *
    |      158 |        - |      818 |      818 |       0.06 | *
    |      161 |        - |      812 |      812 |       0.06 | *
    |      166 |        - |      807 |      807 |       0.06 | *
    |      172 |        - |      802 |      802 |       0.06 | *
    |      173 |        - |      800 |      800 |       0.06 | *
    |      181 |        - |      798 |      798 |       0.06 | *
    |      193 |        - |      796 |      796 |       0.06 | *
    |      195 |        - |      771 |      771 |       0.06 | *
    |      201 |        - |      764 |      764 |       0.06 | *
    |      202 |        - |      760 |      760 |       0.06 | *
    |      209 |        - |      759 |      759 |       0.07 | *
    |      212 |        - |      757 |      757 |       0.07 | *
    |      213 |        - |      747 |      747 |       0.07 | *
    |      220 |        - |      745 |      745 |       0.07 | *
    |      229 |        - |      739 |      739 |       0.07 | *
    |      230 |        - |      736 |      736 |       0.07 | *
    |      234 |        - |      732 |      732 |       0.07 | *
    |      239 |        - |      716 |      716 |       0.07 | *
    |      240 |        - |      701 |      701 |       0.07 | *
    |      243 |        - |      697 |      697 |       0.07 | *
    |      244 |        - |      690 |      690 |       0.07 | *
    |      247 |        - |      685 |      685 |       0.07 | *
    |      283 |        - |      684 |      684 |       0.07 | *
    |      287 |        - |      682 |      682 |       0.07 | *
    |      288 |        - |      674 |      674 |       0.07 | *
    |      292 |        - |      672 |      672 |       0.07 | *
    |      298 |        - |      671 |      671 |       0.07 | *
    |      304 |        - |      667 |      667 |       0.08 | *
    |      305 |        - |      656 |      656 |       0.08 | *
    |      308 |        - |      650 |      650 |       0.08 | *
    |      325 |        - |      644 |      644 |       0.08 | *
    |      327 |        - |      634 |      634 |       0.08 | *
    |      328 |        - |      625 |      625 |       0.08 | *
    |      331 |        - |      620 |      620 |       0.08 | *
    |      343 |        - |      619 |      619 |       0.08 | *
    |      348 |        - |      617 |      617 |       0.08 | *
    |      349 |        - |      616 |      616 |       0.08 | *
    |      358 |        - |      614 |      614 |       0.08 | *
    |      359 |        - |      613 |      613 |       0.08 | *
    |      388 |        - |      611 |      611 |       0.08 | *
    |      389 |        - |      610 |      610 |       0.08 | *
    |      393 |        - |      609 |      609 |       0.08 | *
    |      401 |        - |      607 |      607 |       0.08 | *
    |      403 |        - |      606 |      606 |       0.09 | *
    |      406 |        - |      601 |      601 |       0.09 | *
    |      415 |        - |      599 |      599 |       0.09 | *
    |      422 |        - |      595 |      595 |       0.09 | *
    |      437 |        - |      594 |      594 |       0.09 | *
    |      453 |        - |      591 |      591 |       0.09 | *
    |      458 |        - |      590 |      590 |       0.09 | *
    |      486 |        - |      588 |      588 |       0.09 | *
    |      503 |        - |      585 |      585 |       0.09 | *
    |      506 |        - |      582 |      582 |       0.09 | *
    |      518 |        - |      578 |      578 |       0.09 | *
    |      538 |        - |      577 |      577 |       0.09 | *
    |      540 |        - |      575 |      575 |       0.09 | *
    |      544 |        - |      572 |      572 |       0.09 | *
    |      545 |        - |      571 |      571 |       0.09 | *
    |      549 |        - |      569 |      569 |       0.09 | *
    |      566 |        - |      568 |      568 |       0.09 | *
    |      567 |        - |      566 |      566 |       0.09 | *
    |      574 |        - |      564 |      564 |       0.10 | *
    |      576 |        - |      557 |      557 |       0.10 | *
    |      583 |        - |      551 |      551 |       0.10 | *
    |      591 |        - |      547 |      547 |       0.10 | *
    |      604 |        - |      546 |      546 |       0.10 | *
    |      625 |        - |      544 |      544 |       0.10 | *
    |      642 |        - |      538 |      538 |       0.10 | *
    |      645 |        - |      537 |      537 |       0.10 | *
    |      646 |        - |      536 |      536 |       0.10 | *
    |      656 |        - |      534 |      534 |       0.10 | *
    |      659 |        - |      526 |      526 |       0.10 | *
    |      669 |        - |      525 |      525 |       0.10 | *
    |      673 |        - |      520 |      520 |       0.10 | *
    |      681 |        - |      519 |      519 |       0.10 | *
    |      684 |        - |      517 |      517 |       0.10 | *
    |      724 |        - |      515 |      515 |       0.11 | *
    |      727 |        - |      511 |      511 |       0.11 | *
    |      730 |        - |      510 |      510 |       0.11 | *
    |      731 |        - |      508 |      508 |       0.11 | *
    |      743 |        - |      506 |      506 |       0.11 | *
    |      746 |        - |      502 |      502 |       0.11 | *
    |      770 |        - |      501 |      501 |       0.11 | *
    |      773 |        - |      499 |      499 |       0.11 | *
    |      780 |        - |      497 |      497 |       0.11 | *
    |      782 |        - |      496 |      496 |       0.11 | *
    |      784 |        - |      494 |      494 |       0.11 | *
    |      786 |        - |      491 |      491 |       0.11 | *
    |      790 |        - |      488 |      488 |       0.11 | *
    |      792 |        - |      486 |      486 |       0.11 | *
    |      805 |        - |      485 |      485 |       0.11 | *
    |      826 |        - |      484 |      484 |       0.11 | *
    |      848 |        - |      483 |      483 |       0.11 | *
    |      853 |        - |      476 |      476 |       0.11 | *
    |      859 |        - |      471 |      471 |       0.11 | *
    |      861 |        - |      469 |      469 |       0.12 | *
    |      870 |        - |      468 |      468 |       0.12 | *
    |      876 |        - |      467 |      467 |       0.12 | *
    |      879 |        - |      466 |      466 |       0.12 | *
    |      884 |        - |      464 |      464 |       0.12 | *
    |      908 |        - |      463 |      463 |       0.12 | *
    |      913 |        - |      460 |      460 |       0.12 | *
    |      922 |        - |      457 |      457 |       0.12 | *
    |      932 |        - |      454 |      454 |       0.12 | *
    |      933 |        - |      453 |      453 |       0.12 | *
    |      935 |        - |      450 |      450 |       0.12 | *
    |      964 |        - |      445 |      445 |       0.12 | *
    |      979 |        - |      443 |      443 |       0.12 | *
    |      995 |        - |      441 |      441 |       0.12 | *
    |     1002 |        - |      437 |      437 |       0.12 | *
    |     1015 |        - |      434 |      434 |       0.12 | *
    |     1038 |        - |      433 |      433 |       0.12 | *
    |     1040 |        - |      430 |      430 |       0.12 | *
    |     1045 |        - |      429 |      429 |       0.12 | *
    |     1052 |        - |      428 |      428 |       0.12 | *
    |     1054 |        - |      427 |      427 |       0.12 | *
    |     1057 |        - |      426 |      426 |       0.13 | *
    |     1075 |        - |      425 |      425 |       0.13 | *
    |     1127 |        - |      424 |      424 |       0.13 | *
    |     1138 |        - |      423 |      423 |       0.13 | *
    |     1149 |        - |      422 |      422 |       0.13 | *
    |     1151 |        - |      416 |      416 |       0.13 | *
    |     1152 |        - |      413 |      413 |       0.13 | *
    |     1160 |        - |      412 |      412 |       0.13 | *
    |     1169 |        - |      411 |      411 |       0.13 | *
    |     1201 |        - |      410 |      410 |       0.13 | *
    |     1223 |        - |      409 |      409 |       0.13 | *
    |     1231 |        - |      403 |      403 |       0.13 | *
    |     1235 |        - |      402 |      402 |       0.13 | *
    |     1236 |        - |      401 |      401 |       0.13 | *
    |     1246 |        - |      400 |      400 |       0.13 | *
    |     1251 |        - |      397 |      397 |       0.13 | *
    |     1293 |        - |      396 |      396 |       0.13 | *
    |     1302 |        - |      395 |      395 |       0.13 | *
    |     1311 |        - |      394 |      394 |       0.13 | *
    |     1317 |        - |      392 |      392 |       0.13 | *
    |     1323 |        - |      391 |      391 |       0.13 | *
    |     1324 |        - |      388 |      388 |       0.14 | *
    |     1355 |        - |      386 |      386 |       0.14 | *
    |     1361 |        - |      384 |      384 |       0.14 | *
    |     1364 |        - |      383 |      383 |       0.14 | *
    |     1369 |        - |      382 |      382 |       0.14 | *
    |     1376 |        - |      380 |      380 |       0.14 | *
    |     1377 |        - |      379 |      379 |       0.14 | *
    |     1381 |        - |      378 |      378 |       0.14 | *
    |     1389 |        - |      376 |      376 |       0.14 | *
    |     1431 |        - |      374 |      374 |       0.14 | *
    |     1446 |        - |      373 |      373 |       0.14 | *
    |     1459 |        - |      369 |      369 |       0.14 | *
    |     1468 |        - |      367 |      367 |       0.14 | *
    |     1479 |        - |      364 |      364 |       0.14 | *
    |     1608 |        - |      363 |      363 |       0.14 | *
    |     1609 |        - |      362 |      362 |       0.14 | *
    |     1666 |        - |      361 |      361 |       0.14 | *
    |     1687 |        - |      359 |      359 |       0.14 | *
    |     1688 |        - |      358 |      358 |       0.14 | *
    |     1701 |        - |      356 |      356 |       0.14 | *
    |     1717 |        - |      355 |      355 |       0.15 | *
    |     1718 |        - |      354 |      354 |       0.15 | *
    |     1725 |        - |      353 |      353 |       0.15 | *
    |     1735 |        - |      352 |      352 |       0.15 | *
    |     1744 |        - |      351 |      351 |       0.15 | *
    |     1751 |        - |      350 |      350 |       0.15 | *
    |     1755 |        - |      348 |      348 |       0.15 | *
    |     1757 |        - |      347 |      347 |       0.15 | *
    |     1775 |        - |      346 |      346 |       0.15 | *
    |     1784 |        - |      345 |      345 |       0.15 | *
    |     1785 |        - |      342 |      342 |       0.15 | *
    |     1786 |        - |      341 |      341 |       0.15 | *
    |     1793 |        - |      340 |      340 |       0.15 | *
    |     1794 |        - |      338 |      338 |       0.15 | *
    |     1798 |        - |      335 |      335 |       0.15 | *
    |     1852 |        - |      334 |      334 |       0.15 | *
    |     1858 |        - |      333 |      333 |       0.15 | *
    |     1988 |        - |      332 |      332 |       0.15 | *
    |     1997 |        - |      331 |      331 |       0.15 | *
    |     2032 |        - |      330 |      330 |       0.15 | *
    |     2057 |        - |      329 |      329 |       0.15 | *
    |     2064 |        - |      328 |      328 |       0.15 | *
    |     2251 |        - |      327 |      327 |       0.16 | *
    |     2273 |        - |      325 |      325 |       0.16 | *
    |     2285 |        - |      324 |      324 |       0.16 | *
    |     2295 |        - |      323 |      323 |       0.16 | *
    |     2404 |        - |      322 |      322 |       0.16 | *
    |     2406 |        - |      321 |      321 |       0.16 | *
    |     2414 |        - |      320 |      320 |       0.16 | *
    |     2554 |        - |      318 |      318 |       0.16 | *
    |     2559 |        - |      317 |      317 |       0.16 | *
    |     2561 |        - |      313 |      313 |       0.16 | *
    |     2592 |        - |      312 |      312 |       0.16 | *
    |     2645 |        - |      311 |      311 |       0.16 | *
    |     2669 |        - |      309 |      309 |       0.16 | *
    |     2676 |        - |      308 |      308 |       0.16 | *
    |     2682 |        - |      307 |      307 |       0.16 | *
    |     2701 |        - |      305 |      305 |       0.16 | *
    |     2712 |        - |      302 |      302 |       0.16 | *
    |     2722 |        - |      301 |      301 |       0.16 | *
    |     2757 |        - |      300 |      300 |       0.16 | *
    |     2783 |        - |      299 |      299 |       0.16 | *
    |     2785 |        - |      297 |      297 |       0.16 | *
    |     2809 |        - |      296 |      296 |       0.16 | *
    |     2834 |        - |      292 |      292 |       0.16 | *
    |     2888 |        - |      290 |      290 |       0.17 | *
    |     2953 |        - |      289 |      289 |       0.17 | *
    |     2966 |        - |      288 |      288 |       0.17 | *
    |     2981 |        - |      287 |      287 |       0.17 | *
    |     2985 |        - |      286 |      286 |       0.17 | *
    |     3007 |        - |      285 |      285 |       0.17 | *
    |     3012 |        - |      284 |      284 |       0.17 | *
    |     3027 |        - |      283 |      283 |       0.17 | *
    |     3051 |        - |      281 |      281 |       0.17 | *
    |     3052 |        - |      280 |      280 |       0.17 | *
    |     3057 |        - |      279 |      279 |       0.17 | *
    |     3092 |        - |      278 |      278 |       0.17 | *
    |     3143 |        - |      277 |      277 |       0.17 | *
    |     3446 |        - |      276 |      276 |       0.17 | *
    |     3611 |        - |      275 |      275 |       0.17 | *
    |     3709 |        - |      274 |      274 |       0.17 | *
    |     3927 |        - |      273 |      273 |       0.18 | *
    |     3932 |        - |      271 |      271 |       0.18 | *
    |     3933 |        - |      270 |      270 |       0.18 | *
    |     4616 |        - |      269 |      269 |       0.18 | *
    |     4632 |        - |      268 |      268 |       0.18 | *
    |     4648 |        - |      267 |      267 |       0.18 | *
    |     4703 |        - |      266 |      266 |       0.18 | *
    |     4798 |        - |      265 |      265 |       0.18 | *
    |     4975 |        - |      264 |      264 |       0.18 | *
    |     4977 |        - |      263 |      263 |       0.18 | *
    |     5178 |        - |      262 |      262 |       0.19 | *
    |     5261 |        - |      261 |      261 |       0.19 | *
    |     5266 |        - |      259 |      259 |       0.19 | *
    |     5341 |        - |      258 |      258 |       0.19 | *
    |     5436 |        - |      257 |      257 |       0.19 | *
    |     5541 |        - |      253 |      253 |       0.19 | *
    |     5557 |        - |      252 |      252 |       0.19 | *
    |     5583 |        - |      251 |      251 |       0.19 | *
    |     5603 |        - |      250 |      250 |       0.19 | *
    |     5742 |        - |      249 |      249 |       0.19 | *
    |     5779 |        - |      248 |      248 |       0.19 | *
    |     5920 |        - |      247 |      247 |       0.19 | *
    |     6012 |        - |      246 |      246 |       0.19 | *
    |     6039 |        - |      245 |      245 |       0.19 | *
    |     6116 |        - |      244 |      244 |       0.20 | *
    |     6146 |        - |      241 |      241 |       0.20 | *
    |     6174 |        - |      240 |      240 |       0.20 | *
    |     6225 |        - |      239 |      239 |       0.20 | *
    |     6619 |        - |      238 |      238 |       0.20 | *
    |     6696 |        - |      237 |      237 |       0.20 | *
    |     6833 |        - |      236 |      236 |       0.20 | *
    |     6838 |        - |      235 |      235 |       0.20 | *
    |     6870 |        - |      234 |      234 |       0.20 | *
    |     7164 |        - |      233 |      233 |       0.20 | *
    |     7377 |        - |      232 |      232 |       0.21 | *
    |     7615 |        - |      231 |      231 |       0.21 | *
    |     7616 |        - |      230 |      230 |       0.21 | *
    |     9316 |        - |      229 |      229 |       0.21 | *
    |     9403 |        - |      228 |      228 |       0.21 | *
    |     9523 |        - |      227 |      227 |       0.21 | *
    |      10K |        - |      226 |      226 |       0.22 | *
    |      11K |        - |      225 |      225 |       0.22 | *
    |      11K |        - |      224 |      224 |       0.22 | *
    |      11K |        - |      223 |      223 |       0.22 | *
    |      11K |        - |      222 |      222 |       0.22 | *
    |      11K |        - |      221 |      221 |       0.22 | *
    |      11K |        - |      220 |      220 |       0.22 | *
    |      11K |        - |      219 |      219 |       0.23 | *
    |      12K |        - |      218 |      218 |       0.23 | *
    |      12K |        - |      217 |      217 |       0.23 | *
    |      12K |        - |      216 |      216 |       0.23 | *
    |      12K |        - |      215 |      215 |       0.23 | *
    |      12K |        - |      214 |      214 |       0.23 | *
    |      12K |        - |      213 |      213 |       0.23 | *
    |      14K |        - |      212 |      212 |       0.24 | *
    |      14K |        - |      211 |      211 |       0.24 | *
    |      14K |        - |      210 |      210 |       0.24 | *
    |      17K |        - |      209 |      209 |       0.25 | *
    |      17K |        - |      208 |      208 |       0.25 | *
    |      18K |        - |      207 |      207 |       0.25 | *
    |      19K |        - |      206 |      206 |       0.25 | *
    |      26K |        - |      205 |      205 |       0.27 | *
    |      27K |        - |      204 |      204 |       0.27 | *
    |      28K |        - |      203 |      203 |       0.28 | *
    |      28K |        - |      202 |      202 |       0.28 | *
    |      29K |        - |      201 |      201 |       0.28 | *
    |      29K |        - |      200 |      200 |       0.28 | *
    |      32K |        - |      199 |      199 |       0.29 | *
    |      32K |        - |      198 |      198 |       0.29 | *
    |      34K |        - |      197 |      197 |       0.29 | *
    |      34K |        - |      196 |      196 |       0.29 | *
    |      38K |        - |      195 |      195 |       0.30 | *
    |      43K |        - |      194 |      194 |       0.31 | *
    |     115K |        - |      193 |      193 |       0.51 | *
    |     158K |        - |      192 |      192 |       0.72 | *
    |     159K |        - |      191 |      191 |       0.72 | *
    |     198K |        - |      190 |      190 |       0.94 | *
    |     198K |        - |      189 |      189 |       0.94 | *
    |     268K |        - |      188 |      188 |       1.15 | *
    |     268K |        - |      187 |      187 |       1.16 | *
    |     450K |        - |      186 |      186 |       1.47 | *
    |    1356K |        - |      185 |      185 |       2.28 | *
    |    5257K |        - |      184 |      184 |       5.71 | *
    |    5257K |        - |      183 |      183 |       5.71 | *
    |      15M |        - |      182 |      182 |      12.97 | *
    |      15M |        - |      181 |      181 |      12.97 | *
    |      15M |        - |      180 |      180 |      12.97 | *
    |     168M |        - |      179 |      179 |     122.98 | *
    |     185M |        - |      178 |      178 |     134.99 | *
    |     265M |        - |      177 |      177 |     192.84 | *
    |     409M |        - |      176 |      176 |     296.48 | *
    |     492M |        - |      175 |      175 |     356.55 | *
    |     606M |        - |      174 |      174 |     439.07 | *
    |     734M |        - |      173 |      173 |     531.67 | *
    |    1001M |        - |      172 |      172 |     726.24 | *
    \--------------------------------------------------------/

Neighborhoods statistics (values in %):

    /----------------------------------------------------------------\
    | Move               | Improvs. | Sideways |  Accepts |  Rejects |
    |--------------------|----------|----------|----------|----------|
    | Shift(mk)          |     412K |    2135K |    2885K |     206M |
    | Shift              |      41K |    9763K |      10M |     199M |
    | ShiftSmart(mk)     |    2958K |      19M |      24M |     185M |
    | ShiftSmart         |     295K |      52M |      54M |     155M |
    | SimpSwap(mk)       |     1213 |     2321 |     4532 |     209M |
    | SimpSwap           |      258 |     8335 |      11K |     209M |
    | SimpSwapSmart(mk)  |      15K |      30K |      56K |     209M |
    | SimpSwapSmart      |     2973 |      96K |     119K |     209M |
    | Swap(mk)           |      581 |      923 |     1936 |     209M |
    | Swap               |      104 |     3963 |     5076 |     209M |
    | SwapSmart(mk)      |     6841 |      13K |      24K |     209M |
    | SwapSmart          |     1330 |      38K |      46K |     209M |
    | Switch(mk)         |     224K |      15M |      15M |     193M |
    | Switch             |      23K |      19M |      19M |     190M |
    | SwitchSmart(mk)    |    1467K |    7785K |      10M |     199M |
    | SwitchSmart        |     146K |      23M |      24M |     185M |
    | TaskMove(mk)       |     9444 |      17K |      32K |     209M |
    | TaskMove           |      904 |      27K |      33K |     209M |
    | TaskMoveSmart(mk)  |      49K |      93K |     168K |     209M |
    | TaskMoveSmart      |     5072 |     154K |     185K |     209M |
    | 2-Shift(mk)        |     148K |    1565K |    1813K |     207M |
    | 2-Shift            |      15K |    4001K |    4244K |     205M |
    | 2-ShiftSmart(mk)   |    2358K |      10M |      14M |     195M |
    | 2-ShiftSmart       |     235K |      29M |      30M |     178M |
    \----------------------------------------------------------------/

Best makespan.....: 172
N. of Iterations..: 5010938881
Total runtime.....: 3600.02s
Using Python-MIP package version 1.6.8
Começo a execução
    /-------------------------------------------------------------------------------\
    |    Makespan   |   Free Jobs   | Free Machines |    It. Time   |   Total Time  | 
    |-------------------------------------------------------------------------------|
    \-------------------------------------------------------------------------------/
Terminou a execução
