Instance....: instances/I_150_10_S_1-9_3.txt
Algorithm...: Simulated Annealing (alpha=0.990, saMax=10M, t0=1)
Other params: maxIters=100M, seed=-1, timeLimit=3600.00s

    /--------------------------------------------------------\
    |     Iter |   RDP(%) |       S* |       S' |       Time | 
    |----------|----------|----------|----------|------------|
    |        0 |        - |     1455 |     1455 |       0.00 | s0
    |        0 |        - |     1437 |     1437 |       0.00 | *
    |        3 |        - |     1400 |     1400 |       0.02 | *
    |        4 |        - |     1356 |     1356 |       0.02 | *
    |        6 |        - |     1353 |     1353 |       0.02 | *
    |       11 |        - |     1341 |     1341 |       0.02 | *
    |       13 |        - |     1332 |     1332 |       0.02 | *
    |       17 |        - |     1322 |     1322 |       0.03 | *
    |       19 |        - |     1321 |     1321 |       0.03 | *
    |       21 |        - |     1230 |     1230 |       0.03 | *
    |       22 |        - |     1220 |     1220 |       0.03 | *
    |       24 |        - |     1212 |     1212 |       0.03 | *
    |       31 |        - |     1207 |     1207 |       0.03 | *
    |       35 |        - |     1140 |     1140 |       0.03 | *
    |       40 |        - |     1125 |     1125 |       0.03 | *
    |       45 |        - |     1119 |     1119 |       0.03 | *
    |       48 |        - |     1108 |     1108 |       0.03 | *
    |       52 |        - |     1082 |     1082 |       0.03 | *
    |       53 |        - |     1073 |     1073 |       0.04 | *
    |       56 |        - |     1061 |     1061 |       0.04 | *
    |       61 |        - |     1055 |     1055 |       0.04 | *
    |       68 |        - |     1053 |     1053 |       0.04 | *
    |       71 |        - |     1037 |     1037 |       0.04 | *
    |       80 |        - |     1007 |     1007 |       0.04 | *
    |       82 |        - |     1006 |     1006 |       0.04 | *
    |       83 |        - |      994 |      994 |       0.04 | *
    |       84 |        - |      980 |      980 |       0.04 | *
    |       94 |        - |      978 |      978 |       0.04 | *
    |       97 |        - |      975 |      975 |       0.04 | *
    |       98 |        - |      969 |      969 |       0.04 | *
    |      103 |        - |      967 |      967 |       0.04 | *
    |      108 |        - |      959 |      959 |       0.04 | *
    |      109 |        - |      953 |      953 |       0.04 | *
    |      111 |        - |      949 |      949 |       0.04 | *
    |      112 |        - |      933 |      933 |       0.04 | *
    |      116 |        - |      930 |      930 |       0.05 | *
    |      117 |        - |      925 |      925 |       0.05 | *
    |      120 |        - |      922 |      922 |       0.05 | *
    |      123 |        - |      903 |      903 |       0.05 | *
    |      131 |        - |      891 |      891 |       0.05 | *
    |      135 |        - |      871 |      871 |       0.05 | *
    |      140 |        - |      870 |      870 |       0.05 | *
    |      141 |        - |      868 |      868 |       0.05 | *
    |      148 |        - |      866 |      866 |       0.05 | *
    |      152 |        - |      835 |      835 |       0.05 | *
    |      187 |        - |      831 |      831 |       0.05 | *
    |      188 |        - |      806 |      806 |       0.05 | *
    |      201 |        - |      801 |      801 |       0.05 | *
    |      207 |        - |      800 |      800 |       0.05 | *
    |      209 |        - |      798 |      798 |       0.05 | *
    |      228 |        - |      796 |      796 |       0.05 | *
    |      245 |        - |      790 |      790 |       0.06 | *
    |      249 |        - |      785 |      785 |       0.06 | *
    |      251 |        - |      784 |      784 |       0.06 | *
    |      252 |        - |      779 |      779 |       0.06 | *
    |      255 |        - |      773 |      773 |       0.06 | *
    |      259 |        - |      766 |      766 |       0.06 | *
    |      263 |        - |      760 |      760 |       0.06 | *
    |      269 |        - |      755 |      755 |       0.06 | *
    |      270 |        - |      751 |      751 |       0.06 | *
    |      274 |        - |      750 |      750 |       0.06 | *
    |      275 |        - |      745 |      745 |       0.06 | *
    |      276 |        - |      741 |      741 |       0.06 | *
    |      286 |        - |      734 |      734 |       0.06 | *
    |      287 |        - |      732 |      732 |       0.06 | *
    |      289 |        - |      731 |      731 |       0.06 | *
    |      294 |        - |      730 |      730 |       0.06 | *
    |      296 |        - |      728 |      728 |       0.06 | *
    |      299 |        - |      721 |      721 |       0.06 | *
    |      305 |        - |      703 |      703 |       0.06 | *
    |      307 |        - |      700 |      700 |       0.07 | *
    |      319 |        - |      692 |      692 |       0.07 | *
    |      321 |        - |      687 |      687 |       0.07 | *
    |      322 |        - |      685 |      685 |       0.07 | *
    |      325 |        - |      683 |      683 |       0.07 | *
    |      334 |        - |      679 |      679 |       0.07 | *
    |      340 |        - |      678 |      678 |       0.07 | *
    |      343 |        - |      663 |      663 |       0.07 | *
    |      344 |        - |      661 |      661 |       0.07 | *
    |      345 |        - |      654 |      654 |       0.07 | *
    |      349 |        - |      650 |      650 |       0.07 | *
    |      351 |        - |      645 |      645 |       0.07 | *
    |      352 |        - |      639 |      639 |       0.07 | *
    |      368 |        - |      634 |      634 |       0.07 | *
    |      382 |        - |      631 |      631 |       0.07 | *
    |      383 |        - |      630 |      630 |       0.07 | *
    |      394 |        - |      624 |      624 |       0.07 | *
    |      400 |        - |      621 |      621 |       0.07 | *
    |      401 |        - |      620 |      620 |       0.07 | *
    |      409 |        - |      618 |      618 |       0.08 | *
    |      414 |        - |      616 |      616 |       0.08 | *
    |      419 |        - |      612 |      612 |       0.08 | *
    |      426 |        - |      609 |      609 |       0.08 | *
    |      445 |        - |      607 |      607 |       0.08 | *
    |      450 |        - |      606 |      606 |       0.08 | *
    |      473 |        - |      603 |      603 |       0.08 | *
    |      482 |        - |      598 |      598 |       0.08 | *
    |      488 |        - |      596 |      596 |       0.08 | *
    |      494 |        - |      591 |      591 |       0.08 | *
    |      495 |        - |      590 |      590 |       0.08 | *
    |      511 |        - |      589 |      589 |       0.08 | *
    |      518 |        - |      587 |      587 |       0.08 | *
    |      520 |        - |      585 |      585 |       0.08 | *
    |      566 |        - |      583 |      583 |       0.08 | *
    |      569 |        - |      576 |      576 |       0.08 | *
    |      580 |        - |      573 |      573 |       0.08 | *
    |      582 |        - |      572 |      572 |       0.08 | *
    |      583 |        - |      571 |      571 |       0.08 | *
    |      585 |        - |      568 |      568 |       0.08 | *
    |      588 |        - |      567 |      567 |       0.09 | *
    |      591 |        - |      565 |      565 |       0.09 | *
    |      592 |        - |      562 |      562 |       0.09 | *
    |      598 |        - |      559 |      559 |       0.09 | *
    |      612 |        - |      556 |      556 |       0.09 | *
    |      619 |        - |      554 |      554 |       0.09 | *
    |      620 |        - |      551 |      551 |       0.09 | *
    |      624 |        - |      550 |      550 |       0.09 | *
    |      639 |        - |      549 |      549 |       0.09 | *
    |      645 |        - |      548 |      548 |       0.09 | *
    |      646 |        - |      547 |      547 |       0.09 | *
    |      651 |        - |      545 |      545 |       0.09 | *
    |      654 |        - |      541 |      541 |       0.09 | *
    |      669 |        - |      535 |      535 |       0.09 | *
    |      677 |        - |      534 |      534 |       0.09 | *
    |      678 |        - |      529 |      529 |       0.09 | *
    |      679 |        - |      527 |      527 |       0.09 | *
    |      680 |        - |      520 |      520 |       0.09 | *
    |      686 |        - |      518 |      518 |       0.09 | *
    |      731 |        - |      517 |      517 |       0.09 | *
    |      739 |        - |      516 |      516 |       0.10 | *
    |      741 |        - |      508 |      508 |       0.10 | *
    |      753 |        - |      507 |      507 |       0.10 | *
    |      758 |        - |      506 |      506 |       0.10 | *
    |      762 |        - |      504 |      504 |       0.10 | *
    |      771 |        - |      503 |      503 |       0.10 | *
    |      773 |        - |      502 |      502 |       0.10 | *
    |      775 |        - |      499 |      499 |       0.10 | *
    |      802 |        - |      498 |      498 |       0.10 | *
    |      803 |        - |      497 |      497 |       0.10 | *
    |      805 |        - |      496 |      496 |       0.10 | *
    |      811 |        - |      495 |      495 |       0.10 | *
    |      840 |        - |      492 |      492 |       0.10 | *
    |      866 |        - |      491 |      491 |       0.10 | *
    |      874 |        - |      486 |      486 |       0.10 | *
    |      877 |        - |      484 |      484 |       0.10 | *
    |      885 |        - |      481 |      481 |       0.10 | *
    |      902 |        - |      478 |      478 |       0.10 | *
    |      908 |        - |      477 |      477 |       0.10 | *
    |      929 |        - |      472 |      472 |       0.10 | *
    |      950 |        - |      470 |      470 |       0.10 | *
    |      959 |        - |      467 |      467 |       0.11 | *
    |      987 |        - |      462 |      462 |       0.11 | *
    |      997 |        - |      461 |      461 |       0.11 | *
    |     1003 |        - |      459 |      459 |       0.11 | *
    |     1026 |        - |      458 |      458 |       0.11 | *
    |     1034 |        - |      456 |      456 |       0.11 | *
    |     1036 |        - |      455 |      455 |       0.11 | *
    |     1055 |        - |      454 |      454 |       0.11 | *
    |     1065 |        - |      453 |      453 |       0.11 | *
    |     1102 |        - |      452 |      452 |       0.11 | *
    |     1128 |        - |      449 |      449 |       0.11 | *
    |     1130 |        - |      448 |      448 |       0.11 | *
    |     1134 |        - |      445 |      445 |       0.11 | *
    |     1146 |        - |      443 |      443 |       0.11 | *
    |     1152 |        - |      435 |      435 |       0.11 | *
    |     1212 |        - |      434 |      434 |       0.11 | *
    |     1221 |        - |      430 |      430 |       0.11 | *
    |     1226 |        - |      428 |      428 |       0.11 | *
    |     1228 |        - |      426 |      426 |       0.11 | *
    |     1241 |        - |      425 |      425 |       0.11 | *
    |     1242 |        - |      424 |      424 |       0.12 | *
    |     1276 |        - |      422 |      422 |       0.12 | *
    |     1288 |        - |      421 |      421 |       0.12 | *
    |     1292 |        - |      415 |      415 |       0.12 | *
    |     1307 |        - |      414 |      414 |       0.12 | *
    |     1337 |        - |      413 |      413 |       0.12 | *
    |     1346 |        - |      410 |      410 |       0.12 | *
    |     1373 |        - |      408 |      408 |       0.12 | *
    |     1383 |        - |      406 |      406 |       0.12 | *
    |     1439 |        - |      405 |      405 |       0.12 | *
    |     1451 |        - |      404 |      404 |       0.12 | *
    |     1482 |        - |      401 |      401 |       0.12 | *
    |     1487 |        - |      400 |      400 |       0.12 | *
    |     1522 |        - |      399 |      399 |       0.12 | *
    |     1540 |        - |      398 |      398 |       0.12 | *
    |     1552 |        - |      397 |      397 |       0.12 | *
    |     1579 |        - |      394 |      394 |       0.12 | *
    |     1596 |        - |      393 |      393 |       0.12 | *
    |     1601 |        - |      392 |      392 |       0.12 | *
    |     1603 |        - |      391 |      391 |       0.12 | *
    |     1655 |        - |      390 |      390 |       0.13 | *
    |     1660 |        - |      388 |      388 |       0.13 | *
    |     1670 |        - |      382 |      382 |       0.13 | *
    |     1687 |        - |      378 |      378 |       0.13 | *
    |     1691 |        - |      375 |      375 |       0.13 | *
    |     1694 |        - |      374 |      374 |       0.13 | *
    |     1719 |        - |      373 |      373 |       0.13 | *
    |     1737 |        - |      372 |      372 |       0.13 | *
    |     1751 |        - |      369 |      369 |       0.13 | *
    |     1773 |        - |      365 |      365 |       0.13 | *
    |     1774 |        - |      364 |      364 |       0.13 | *
    |     1779 |        - |      361 |      361 |       0.13 | *
    |     1795 |        - |      360 |      360 |       0.13 | *
    |     1853 |        - |      359 |      359 |       0.13 | *
    |     1862 |        - |      358 |      358 |       0.13 | *
    |     1865 |        - |      357 |      357 |       0.13 | *
    |     1884 |        - |      356 |      356 |       0.13 | *
    |     1885 |        - |      355 |      355 |       0.14 | *
    |     1905 |        - |      354 |      354 |       0.14 | *
    |     1920 |        - |      353 |      353 |       0.14 | *
    |     1938 |        - |      352 |      352 |       0.14 | *
    |     1956 |        - |      351 |      351 |       0.14 | *
    |     2044 |        - |      350 |      350 |       0.14 | *
    |     2045 |        - |      348 |      348 |       0.14 | *
    |     2105 |        - |      347 |      347 |       0.14 | *
    |     2106 |        - |      344 |      344 |       0.14 | *
    |     2111 |        - |      343 |      343 |       0.14 | *
    |     2120 |        - |      338 |      338 |       0.14 | *
    |     2131 |        - |      336 |      336 |       0.14 | *
    |     2136 |        - |      334 |      334 |       0.14 | *
    |     2184 |        - |      332 |      332 |       0.14 | *
    |     2220 |        - |      331 |      331 |       0.15 | *
    |     2260 |        - |      330 |      330 |       0.15 | *
    |     2264 |        - |      329 |      329 |       0.15 | *
    |     2295 |        - |      328 |      328 |       0.15 | *
    |     2301 |        - |      327 |      327 |       0.15 | *
    |     2392 |        - |      326 |      326 |       0.15 | *
    |     2397 |        - |      324 |      324 |       0.15 | *
    |     2402 |        - |      323 |      323 |       0.15 | *
    |     2511 |        - |      320 |      320 |       0.15 | *
    |     2638 |        - |      319 |      319 |       0.15 | *
    |     2673 |        - |      317 |      317 |       0.15 | *
    |     2677 |        - |      316 |      316 |       0.15 | *
    |     2692 |        - |      315 |      315 |       0.15 | *
    |     2749 |        - |      314 |      314 |       0.15 | *
    |     2760 |        - |      313 |      313 |       0.15 | *
    |     2803 |        - |      311 |      311 |       0.16 | *
    |     2815 |        - |      310 |      310 |       0.16 | *
    |     2917 |        - |      309 |      309 |       0.16 | *
    |     3043 |        - |      308 |      308 |       0.16 | *
    |     3067 |        - |      307 |      307 |       0.16 | *
    |     3143 |        - |      306 |      306 |       0.16 | *
    |     3144 |        - |      305 |      305 |       0.16 | *
    |     3157 |        - |      304 |      304 |       0.16 | *
    |     3165 |        - |      303 |      303 |       0.16 | *
    |     3273 |        - |      302 |      302 |       0.16 | *
    |     3289 |        - |      300 |      300 |       0.16 | *
    |     3346 |        - |      298 |      298 |       0.16 | *
    |     3408 |        - |      294 |      294 |       0.16 | *
    |     3411 |        - |      293 |      293 |       0.16 | *
    |     3445 |        - |      292 |      292 |       0.17 | *
    |     3448 |        - |      291 |      291 |       0.17 | *
    |     3465 |        - |      290 |      290 |       0.17 | *
    |     3655 |        - |      289 |      289 |       0.17 | *
    |     3695 |        - |      288 |      288 |       0.17 | *
    |     3835 |        - |      287 |      287 |       0.17 | *
    |     3864 |        - |      284 |      284 |       0.17 | *
    |     3885 |        - |      282 |      282 |       0.17 | *
    |     3928 |        - |      279 |      279 |       0.17 | *
    |     3944 |        - |      276 |      276 |       0.17 | *
    |     3947 |        - |      273 |      273 |       0.17 | *
    |     3967 |        - |      272 |      272 |       0.17 | *
    |     3974 |        - |      271 |      271 |       0.17 | *
    |     3982 |        - |      270 |      270 |       0.17 | *
    |     4002 |        - |      269 |      269 |       0.17 | *
    |     4025 |        - |      268 |      268 |       0.18 | *
    |     4036 |        - |      266 |      266 |       0.18 | *
    |     4140 |        - |      264 |      264 |       0.18 | *
    |     4178 |        - |      262 |      262 |       0.18 | *
    |     4221 |        - |      261 |      261 |       0.18 | *
    |     4288 |        - |      260 |      260 |       0.18 | *
    |     4357 |        - |      259 |      259 |       0.18 | *
    |     4370 |        - |      258 |      258 |       0.18 | *
    |     4404 |        - |      257 |      257 |       0.18 | *
    |     4546 |        - |      256 |      256 |       0.18 | *
    |     4604 |        - |      255 |      255 |       0.18 | *
    |     4624 |        - |      254 |      254 |       0.18 | *
    |     4647 |        - |      253 |      253 |       0.18 | *
    |     5132 |        - |      252 |      252 |       0.19 | *
    |     5172 |        - |      251 |      251 |       0.19 | *
    |     5194 |        - |      250 |      250 |       0.19 | *
    |     5415 |        - |      249 |      249 |       0.19 | *
    |     5441 |        - |      248 |      248 |       0.19 | *
    |     5556 |        - |      246 |      246 |       0.19 | *
    |     5598 |        - |      245 |      245 |       0.19 | *
    |     5674 |        - |      244 |      244 |       0.19 | *
    |     5701 |        - |      242 |      242 |       0.19 | *
    |     5790 |        - |      241 |      241 |       0.19 | *
    |     6242 |        - |      240 |      240 |       0.19 | *
    |     6247 |        - |      239 |      239 |       0.19 | *
    |     6264 |        - |      238 |      238 |       0.19 | *
    |     6375 |        - |      237 |      237 |       0.19 | *
    |     6413 |        - |      235 |      235 |       0.20 | *
    |     6593 |        - |      234 |      234 |       0.20 | *
    |     6628 |        - |      233 |      233 |       0.20 | *
    |     6638 |        - |      232 |      232 |       0.20 | *
    |     6639 |        - |      231 |      231 |       0.20 | *
    |     6659 |        - |      230 |      230 |       0.20 | *
    |     6970 |        - |      228 |      228 |       0.20 | *
    |     7016 |        - |      227 |      227 |       0.20 | *
    |     7296 |        - |      226 |      226 |       0.20 | *
    |     7370 |        - |      224 |      224 |       0.20 | *
    |     7396 |        - |      223 |      223 |       0.20 | *
    |     7452 |        - |      221 |      221 |       0.20 | *
    |     7469 |        - |      220 |      220 |       0.20 | *
    |     7514 |        - |      219 |      219 |       0.20 | *
    |     7873 |        - |      217 |      217 |       0.21 | *
    |     8064 |        - |      216 |      216 |       0.21 | *
    |     9004 |        - |      215 |      215 |       0.21 | *
    |     9032 |        - |      214 |      214 |       0.21 | *
    |     9209 |        - |      213 |      213 |       0.21 | *
    |     9340 |        - |      212 |      212 |       0.21 | *
    |     9350 |        - |      211 |      211 |       0.21 | *
    |     9484 |        - |      210 |      210 |       0.21 | *
    |     9651 |        - |      209 |      209 |       0.21 | *
    |     9743 |        - |      208 |      208 |       0.21 | *
    |      10K |        - |      207 |      207 |       0.21 | *
    |      12K |        - |      206 |      206 |       0.22 | *
    |      12K |        - |      205 |      205 |       0.22 | *
    |      12K |        - |      204 |      204 |       0.22 | *
    |      14K |        - |      203 |      203 |       0.22 | *
    |      20K |        - |      202 |      202 |       0.24 | *
    |      20K |        - |      201 |      201 |       0.24 | *
    |      20K |        - |      200 |      200 |       0.24 | *
    |      22K |        - |      199 |      199 |       0.24 | *
    |      22K |        - |      198 |      198 |       0.24 | *
    |      23K |        - |      197 |      197 |       0.25 | *
    |      23K |        - |      196 |      196 |       0.25 | *
    |      23K |        - |      195 |      195 |       0.25 | *
    |      23K |        - |      194 |      194 |       0.25 | *
    |      24K |        - |      193 |      193 |       0.26 | *
    |      25K |        - |      192 |      192 |       0.26 | *
    |      29K |        - |      191 |      191 |       0.27 | *
    |      31K |        - |      190 |      190 |       0.27 | *
    |      34K |        - |      189 |      189 |       0.28 | *
    |      34K |        - |      188 |      188 |       0.28 | *
    |      35K |        - |      187 |      187 |       0.28 | *
    |      35K |        - |      186 |      186 |       0.28 | *
    |      39K |        - |      185 |      185 |       0.29 | *
    |      39K |        - |      184 |      184 |       0.29 | *
    |      39K |        - |      183 |      183 |       0.30 | *
    |      41K |        - |      182 |      182 |       0.30 | *
    |      46K |        - |      181 |      181 |       0.31 | *
    |      49K |        - |      180 |      180 |       0.32 | *
    |     163K |        - |      179 |      179 |       0.75 | *
    |     171K |        - |      178 |      178 |       0.79 | *
    |     171K |        - |      177 |      177 |       0.79 | *
    |     171K |        - |      176 |      176 |       0.79 | *
    |     204K |        - |      175 |      175 |       0.92 | *
    |     215K |        - |      174 |      174 |       0.95 | *
    |     219K |        - |      173 |      173 |       0.96 | *
    |     219K |        - |      172 |      172 |       0.96 | *
    |    5092K |        - |      171 |      171 |       5.62 | *
    |      16M |        - |      170 |      170 |      15.61 | *
    |      16M |        - |      169 |      169 |      15.63 | *
    |      32M |        - |      168 |      168 |      26.61 | *
    |     215M |        - |      167 |      167 |     155.28 | *
    |     236M |        - |      166 |      166 |     170.13 | *
    |     316M |        - |      165 |      165 |     226.82 | *
    |     442M |        - |      164 |      164 |     316.05 | *
    |     572M |        - |      163 |      163 |     407.89 | *
    |     691M |        - |      162 |      162 |     491.66 | *
    |     884M |        - |      161 |      161 |     629.03 | *
    \--------------------------------------------------------/

Neighborhoods statistics (values in %):

    /----------------------------------------------------------------\
    | Move               | Improvs. | Sideways |  Accepts |  Rejects |
    |--------------------|----------|----------|----------|----------|
    | Shift(mk)          |     421K |    2396K |    3176K |     208M |
    | Shift              |      42K |    9422K |      10M |     202M |
    | ShiftSmart(mk)     |    3024K |      23M |      28M |     184M |
    | ShiftSmart         |     302K |      49M |      51M |     161M |
    | SimpSwap(mk)       |      789 |     1555 |     3031 |     211M |
    | SimpSwap           |      177 |     5536 |     6992 |     212M |
    | SimpSwapSmart(mk)  |     9662 |      18K |      35K |     212M |
    | SimpSwapSmart      |     1985 |      63K |      79K |     211M |
    | Swap(mk)           |      380 |      729 |     1415 |     211M |
    | Swap               |      100 |     2802 |     3565 |     212M |
    | SwapSmart(mk)      |     4310 |     8038 |      15K |     211M |
    | SwapSmart          |      823 |      25K |      30K |     211M |
    | Switch(mk)         |     231K |      15M |      15M |     196M |
    | Switch             |      23K |      19M |      19M |     192M |
    | SwitchSmart(mk)    |    1536K |    5321K |    7648K |     204M |
    | SwitchSmart        |     153K |      21M |      22M |     189M |
    | TaskMove(mk)       |      12K |      23K |      42K |     211M |
    | TaskMove           |     1221 |      38K |      47K |     212M |
    | TaskMoveSmart(mk)  |      60K |     131K |     223K |     211M |
    | TaskMoveSmart      |     6442 |     224K |     262K |     211M |
    | 2-Shift(mk)        |     151K |    1563K |    1820K |     210M |
    | 2-Shift            |      15K |    4000K |    4249K |     207M |
    | 2-ShiftSmart(mk)   |    2418K |    9800K |      13M |     199M |
    | 2-ShiftSmart       |     242K |      28M |      29M |     182M |
    \----------------------------------------------------------------/

Best makespan.....: 161
N. of Iterations..: 5076682202
Total runtime.....: 3600.02s
Using Python-MIP package version 1.6.8
Começo a execução
    /-------------------------------------------------------------------------------\
    |    Makespan   |   Free Jobs   | Free Machines |    It. Time   |   Total Time  | 
    |-------------------------------------------------------------------------------|
    \-------------------------------------------------------------------------------/
Terminou a execução
