Instance....: instances/I_150_10_S_1-124_5.txt
Algorithm...: Simulated Annealing (alpha=0.990, saMax=10M, t0=1)
Other params: maxIters=100M, seed=-1, timeLimit=3600.00s

    /--------------------------------------------------------\
    |     Iter |   RDP(%) |       S* |       S' |       Time | 
    |----------|----------|----------|----------|------------|
    |        0 |        - |     3089 |     3089 |       0.00 | s0
    |        3 |        - |     2961 |     2961 |       0.02 | *
    |        4 |        - |     2816 |     2816 |       0.02 | *
    |        7 |        - |     2747 |     2747 |       0.02 | *
    |       13 |        - |     2745 |     2745 |       0.03 | *
    |       19 |        - |     2715 |     2715 |       0.03 | *
    |       23 |        - |     2585 |     2585 |       0.03 | *
    |       28 |        - |     2426 |     2426 |       0.03 | *
    |       33 |        - |     2231 |     2231 |       0.03 | *
    |       39 |        - |     2224 |     2224 |       0.03 | *
    |       41 |        - |     2050 |     2050 |       0.04 | *
    |       44 |        - |     2049 |     2049 |       0.04 | *
    |       48 |        - |     2048 |     2048 |       0.04 | *
    |       50 |        - |     1953 |     1953 |       0.04 | *
    |       56 |        - |     1933 |     1933 |       0.04 | *
    |       61 |        - |     1786 |     1786 |       0.04 | *
    |       64 |        - |     1775 |     1775 |       0.04 | *
    |       65 |        - |     1744 |     1744 |       0.04 | *
    |       77 |        - |     1710 |     1710 |       0.04 | *
    |       78 |        - |     1688 |     1688 |       0.04 | *
    |       79 |        - |     1682 |     1682 |       0.04 | *
    |       81 |        - |     1680 |     1680 |       0.04 | *
    |       82 |        - |     1649 |     1649 |       0.04 | *
    |       93 |        - |     1612 |     1612 |       0.05 | *
    |       98 |        - |     1603 |     1603 |       0.05 | *
    |      104 |        - |     1599 |     1599 |       0.05 | *
    |      113 |        - |     1585 |     1585 |       0.05 | *
    |      115 |        - |     1582 |     1582 |       0.05 | *
    |      116 |        - |     1501 |     1501 |       0.05 | *
    |      117 |        - |     1479 |     1479 |       0.05 | *
    |      128 |        - |     1471 |     1471 |       0.05 | *
    |      129 |        - |     1470 |     1470 |       0.05 | *
    |      131 |        - |     1458 |     1458 |       0.05 | *
    |      132 |        - |     1451 |     1451 |       0.05 | *
    |      148 |        - |     1445 |     1445 |       0.05 | *
    |      159 |        - |     1441 |     1441 |       0.05 | *
    |      164 |        - |     1427 |     1427 |       0.05 | *
    |      165 |        - |     1417 |     1417 |       0.05 | *
    |      172 |        - |     1380 |     1380 |       0.05 | *
    |      186 |        - |     1352 |     1352 |       0.06 | *
    |      189 |        - |     1342 |     1342 |       0.06 | *
    |      193 |        - |     1322 |     1322 |       0.06 | *
    |      209 |        - |     1292 |     1292 |       0.06 | *
    |      214 |        - |     1283 |     1283 |       0.06 | *
    |      215 |        - |     1273 |     1273 |       0.06 | *
    |      216 |        - |     1272 |     1272 |       0.06 | *
    |      297 |        - |     1245 |     1245 |       0.06 | *
    |      307 |        - |     1241 |     1241 |       0.06 | *
    |      308 |        - |     1234 |     1234 |       0.06 | *
    |      315 |        - |     1226 |     1226 |       0.06 | *
    |      320 |        - |     1218 |     1218 |       0.06 | *
    |      334 |        - |     1203 |     1203 |       0.06 | *
    |      335 |        - |     1192 |     1192 |       0.06 | *
    |      338 |        - |     1174 |     1174 |       0.06 | *
    |      385 |        - |     1164 |     1164 |       0.07 | *
    |      388 |        - |     1135 |     1135 |       0.07 | *
    |      397 |        - |     1126 |     1126 |       0.07 | *
    |      419 |        - |     1125 |     1125 |       0.07 | *
    |      433 |        - |     1119 |     1119 |       0.07 | *
    |      437 |        - |     1106 |     1106 |       0.07 | *
    |      443 |        - |     1098 |     1098 |       0.07 | *
    |      445 |        - |     1076 |     1076 |       0.07 | *
    |      449 |        - |     1073 |     1073 |       0.07 | *
    |      505 |        - |     1070 |     1070 |       0.07 | *
    |      510 |        - |     1067 |     1067 |       0.07 | *
    |      518 |        - |     1062 |     1062 |       0.07 | *
    |      522 |        - |     1058 |     1058 |       0.07 | *
    |      529 |        - |     1054 |     1054 |       0.08 | *
    |      532 |        - |     1049 |     1049 |       0.08 | *
    |      540 |        - |     1047 |     1047 |       0.08 | *
    |      554 |        - |     1043 |     1043 |       0.08 | *
    |      622 |        - |     1037 |     1037 |       0.08 | *
    |      623 |        - |     1032 |     1032 |       0.08 | *
    |      651 |        - |     1017 |     1017 |       0.08 | *
    |      652 |        - |     1014 |     1014 |       0.08 | *
    |      653 |        - |      998 |      998 |       0.08 | *
    |      656 |        - |      992 |      992 |       0.08 | *
    |      683 |        - |      986 |      986 |       0.08 | *
    |      699 |        - |      982 |      982 |       0.08 | *
    |      719 |        - |      979 |      979 |       0.08 | *
    |      723 |        - |      978 |      978 |       0.08 | *
    |      731 |        - |      976 |      976 |       0.09 | *
    |      734 |        - |      974 |      974 |       0.09 | *
    |      763 |        - |      962 |      962 |       0.09 | *
    |      776 |        - |      956 |      956 |       0.09 | *
    |      812 |        - |      946 |      946 |       0.09 | *
    |      827 |        - |      942 |      942 |       0.09 | *
    |      837 |        - |      935 |      935 |       0.09 | *
    |      857 |        - |      930 |      930 |       0.09 | *
    |      864 |        - |      925 |      925 |       0.09 | *
    |      867 |        - |      920 |      920 |       0.09 | *
    |      871 |        - |      918 |      918 |       0.09 | *
    |      880 |        - |      917 |      917 |       0.09 | *
    |      883 |        - |      914 |      914 |       0.09 | *
    |      911 |        - |      909 |      909 |       0.09 | *
    |      922 |        - |      908 |      908 |       0.10 | *
    |      940 |        - |      905 |      905 |       0.10 | *
    |      960 |        - |      901 |      901 |       0.10 | *
    |      961 |        - |      899 |      899 |       0.10 | *
    |      969 |        - |      897 |      897 |       0.10 | *
    |      987 |        - |      893 |      893 |       0.10 | *
    |      995 |        - |      886 |      886 |       0.10 | *
    |     1076 |        - |      868 |      868 |       0.10 | *
    |     1108 |        - |      866 |      866 |       0.10 | *
    |     1114 |        - |      864 |      864 |       0.10 | *
    |     1115 |        - |      856 |      856 |       0.10 | *
    |     1120 |        - |      855 |      855 |       0.10 | *
    |     1160 |        - |      854 |      854 |       0.10 | *
    |     1173 |        - |      851 |      851 |       0.11 | *
    |     1183 |        - |      850 |      850 |       0.11 | *
    |     1246 |        - |      849 |      849 |       0.11 | *
    |     1249 |        - |      842 |      842 |       0.11 | *
    |     1268 |        - |      838 |      838 |       0.11 | *
    |     1278 |        - |      832 |      832 |       0.11 | *
    |     1291 |        - |      830 |      830 |       0.11 | *
    |     1348 |        - |      821 |      821 |       0.11 | *
    |     1445 |        - |      816 |      816 |       0.11 | *
    |     1448 |        - |      814 |      814 |       0.11 | *
    |     1453 |        - |      813 |      813 |       0.11 | *
    |     1459 |        - |      811 |      811 |       0.11 | *
    |     1475 |        - |      806 |      806 |       0.11 | *
    |     1525 |        - |      800 |      800 |       0.11 | *
    |     1562 |        - |      799 |      799 |       0.12 | *
    |     1585 |        - |      793 |      793 |       0.12 | *
    |     1613 |        - |      786 |      786 |       0.12 | *
    |     1619 |        - |      783 |      783 |       0.12 | *
    |     1679 |        - |      782 |      782 |       0.12 | *
    |     1703 |        - |      779 |      779 |       0.12 | *
    |     1740 |        - |      775 |      775 |       0.12 | *
    |     1752 |        - |      772 |      772 |       0.12 | *
    |     1758 |        - |      765 |      765 |       0.12 | *
    |     1777 |        - |      760 |      760 |       0.12 | *
    |     1863 |        - |      758 |      758 |       0.12 | *
    |     1871 |        - |      755 |      755 |       0.12 | *
    |     1917 |        - |      754 |      754 |       0.12 | *
    |     1957 |        - |      753 |      753 |       0.12 | *
    |     1989 |        - |      746 |      746 |       0.13 | *
    |     2019 |        - |      745 |      745 |       0.13 | *
    |     2079 |        - |      740 |      740 |       0.13 | *
    |     2086 |        - |      739 |      739 |       0.13 | *
    |     2089 |        - |      734 |      734 |       0.13 | *
    |     2131 |        - |      729 |      729 |       0.13 | *
    |     2143 |        - |      728 |      728 |       0.13 | *
    |     2146 |        - |      727 |      727 |       0.13 | *
    |     2151 |        - |      722 |      722 |       0.13 | *
    |     2202 |        - |      720 |      720 |       0.13 | *
    |     2231 |        - |      718 |      718 |       0.13 | *
    |     2234 |        - |      714 |      714 |       0.13 | *
    |     2247 |        - |      712 |      712 |       0.13 | *
    |     2262 |        - |      707 |      707 |       0.13 | *
    |     2264 |        - |      704 |      704 |       0.13 | *
    |     2276 |        - |      702 |      702 |       0.13 | *
    |     2304 |        - |      696 |      696 |       0.13 | *
    |     2355 |        - |      680 |      680 |       0.13 | *
    |     2437 |        - |      678 |      678 |       0.13 | *
    |     2445 |        - |      677 |      677 |       0.13 | *
    |     2447 |        - |      672 |      672 |       0.14 | *
    |     2551 |        - |      666 |      666 |       0.14 | *
    |     2814 |        - |      665 |      665 |       0.14 | *
    |     2926 |        - |      664 |      664 |       0.14 | *
    |     2979 |        - |      660 |      660 |       0.14 | *
    |     2993 |        - |      659 |      659 |       0.14 | *
    |     2997 |        - |      654 |      654 |       0.14 | *
    |     3170 |        - |      653 |      653 |       0.14 | *
    |     3324 |        - |      651 |      651 |       0.14 | *
    |     3651 |        - |      650 |      650 |       0.14 | *
    |     3676 |        - |      645 |      645 |       0.15 | *
    |     3681 |        - |      644 |      644 |       0.15 | *
    |     3762 |        - |      642 |      642 |       0.15 | *
    |     3763 |        - |      641 |      641 |       0.15 | *
    |     3785 |        - |      640 |      640 |       0.15 | *
    |     3861 |        - |      636 |      636 |       0.15 | *
    |     4154 |        - |      633 |      633 |       0.15 | *
    |     4157 |        - |      631 |      631 |       0.15 | *
    |     4897 |        - |      630 |      630 |       0.15 | *
    |     4944 |        - |      628 |      628 |       0.15 | *
    |     5013 |        - |      624 |      624 |       0.15 | *
    |     5141 |        - |      623 |      623 |       0.15 | *
    |     5153 |        - |      622 |      622 |       0.15 | *
    |     5162 |        - |      621 |      621 |       0.16 | *
    |     5172 |        - |      620 |      620 |       0.16 | *
    |     5190 |        - |      619 |      619 |       0.16 | *
    |     5509 |        - |      618 |      618 |       0.16 | *
    |     5530 |        - |      617 |      617 |       0.16 | *
    |     5533 |        - |      614 |      614 |       0.16 | *
    |     5572 |        - |      613 |      613 |       0.16 | *
    |     5674 |        - |      611 |      611 |       0.16 | *
    |     5975 |        - |      608 |      608 |       0.16 | *
    |     5988 |        - |      606 |      606 |       0.16 | *
    |     6083 |        - |      599 |      599 |       0.16 | *
    |     6225 |        - |      597 |      597 |       0.16 | *
    |     6531 |        - |      595 |      595 |       0.16 | *
    |     6549 |        - |      592 |      592 |       0.16 | *
    |     6663 |        - |      591 |      591 |       0.16 | *
    |     6757 |        - |      589 |      589 |       0.16 | *
    |     6849 |        - |      585 |      585 |       0.16 | *
    |     6937 |        - |      582 |      582 |       0.16 | *
    |     6960 |        - |      581 |      581 |       0.16 | *
    |     7207 |        - |      579 |      579 |       0.17 | *
    |     7249 |        - |      577 |      577 |       0.17 | *
    |     7262 |        - |      576 |      576 |       0.17 | *
    |     7304 |        - |      571 |      571 |       0.17 | *
    |     7317 |        - |      570 |      570 |       0.17 | *
    |     7747 |        - |      569 |      569 |       0.17 | *
    |     7759 |        - |      567 |      567 |       0.17 | *
    |     8050 |        - |      566 |      566 |       0.17 | *
    |     8056 |        - |      564 |      564 |       0.17 | *
    |     8076 |        - |      563 |      563 |       0.17 | *
    |     8283 |        - |      561 |      561 |       0.17 | *
    |     8416 |        - |      560 |      560 |       0.17 | *
    |     8417 |        - |      558 |      558 |       0.17 | *
    |     8635 |        - |      557 |      557 |       0.17 | *
    |     8874 |        - |      556 |      556 |       0.17 | *
    |     8893 |        - |      554 |      554 |       0.17 | *
    |     8943 |        - |      553 |      553 |       0.17 | *
    |     8969 |        - |      549 |      549 |       0.17 | *
    |     9039 |        - |      545 |      545 |       0.17 | *
    |     9148 |        - |      544 |      544 |       0.18 | *
    |     9269 |        - |      542 |      542 |       0.18 | *
    |     9364 |        - |      541 |      541 |       0.18 | *
    |     9473 |        - |      540 |      540 |       0.18 | *
    |     9481 |        - |      539 |      539 |       0.18 | *
    |     9873 |        - |      538 |      538 |       0.18 | *
    |     9912 |        - |      534 |      534 |       0.18 | *
    |     9957 |        - |      533 |      533 |       0.18 | *
    |      10K |        - |      531 |      531 |       0.18 | *
    |      10K |        - |      530 |      530 |       0.18 | *
    |      10K |        - |      525 |      525 |       0.18 | *
    |      11K |        - |      523 |      523 |       0.18 | *
    |      11K |        - |      522 |      522 |       0.18 | *
    |      12K |        - |      521 |      521 |       0.18 | *
    |      12K |        - |      520 |      520 |       0.19 | *
    |      12K |        - |      519 |      519 |       0.19 | *
    |      12K |        - |      517 |      517 |       0.19 | *
    |      12K |        - |      515 |      515 |       0.19 | *
    |      12K |        - |      510 |      510 |       0.19 | *
    |      12K |        - |      507 |      507 |       0.19 | *
    |      12K |        - |      506 |      506 |       0.19 | *
    |      12K |        - |      505 |      505 |       0.19 | *
    |      12K |        - |      500 |      500 |       0.19 | *
    |      13K |        - |      499 |      499 |       0.19 | *
    |      13K |        - |      498 |      498 |       0.19 | *
    |      13K |        - |      492 |      492 |       0.19 | *
    |      13K |        - |      490 |      490 |       0.20 | *
    |      13K |        - |      488 |      488 |       0.20 | *
    |      13K |        - |      486 |      486 |       0.20 | *
    |      14K |        - |      483 |      483 |       0.20 | *
    |      14K |        - |      481 |      481 |       0.20 | *
    |      14K |        - |      480 |      480 |       0.20 | *
    |      14K |        - |      478 |      478 |       0.20 | *
    |      14K |        - |      477 |      477 |       0.20 | *
    |      15K |        - |      476 |      476 |       0.20 | *
    |      16K |        - |      475 |      475 |       0.20 | *
    |      16K |        - |      473 |      473 |       0.21 | *
    |      16K |        - |      472 |      472 |       0.21 | *
    |      17K |        - |      471 |      471 |       0.21 | *
    |      17K |        - |      470 |      470 |       0.21 | *
    |      17K |        - |      468 |      468 |       0.21 | *
    |      17K |        - |      467 |      467 |       0.21 | *
    |      17K |        - |      463 |      463 |       0.21 | *
    |      18K |        - |      462 |      462 |       0.21 | *
    |      18K |        - |      457 |      457 |       0.21 | *
    |      18K |        - |      456 |      456 |       0.22 | *
    |      18K |        - |      453 |      453 |       0.22 | *
    |      18K |        - |      452 |      452 |       0.22 | *
    |      19K |        - |      450 |      450 |       0.22 | *
    |      19K |        - |      449 |      449 |       0.22 | *
    |      19K |        - |      448 |      448 |       0.22 | *
    |      19K |        - |      446 |      446 |       0.22 | *
    |      20K |        - |      445 |      445 |       0.22 | *
    |      20K |        - |      444 |      444 |       0.22 | *
    |      20K |        - |      443 |      443 |       0.22 | *
    |      21K |        - |      440 |      440 |       0.22 | *
    |      21K |        - |      438 |      438 |       0.22 | *
    |      22K |        - |      435 |      435 |       0.23 | *
    |      24K |        - |      434 |      434 |       0.23 | *
    |      25K |        - |      431 |      431 |       0.23 | *
    |      25K |        - |      430 |      430 |       0.23 | *
    |      25K |        - |      427 |      427 |       0.23 | *
    |      26K |        - |      424 |      424 |       0.23 | *
    |      26K |        - |      422 |      422 |       0.23 | *
    |      26K |        - |      418 |      418 |       0.24 | *
    |      26K |        - |      416 |      416 |       0.24 | *
    |      30K |        - |      411 |      411 |       0.24 | *
    |      30K |        - |      409 |      409 |       0.25 | *
    |      30K |        - |      408 |      408 |       0.25 | *
    |      31K |        - |      407 |      407 |       0.25 | *
    |      31K |        - |      406 |      406 |       0.25 | *
    |      31K |        - |      404 |      404 |       0.25 | *
    |      31K |        - |      403 |      403 |       0.25 | *
    |      32K |        - |      402 |      402 |       0.25 | *
    |      32K |        - |      398 |      398 |       0.25 | *
    |      33K |        - |      393 |      393 |       0.26 | *
    |      33K |        - |      392 |      392 |       0.26 | *
    |      33K |        - |      391 |      391 |       0.26 | *
    |      35K |        - |      390 |      390 |       0.26 | *
    |      36K |        - |      389 |      389 |       0.27 | *
    |      37K |        - |      388 |      388 |       0.27 | *
    |      37K |        - |      386 |      386 |       0.27 | *
    |      40K |        - |      385 |      385 |       0.28 | *
    |      41K |        - |      383 |      383 |       0.28 | *
    |      51K |        - |      381 |      381 |       0.29 | *
    |      51K |        - |      379 |      379 |       0.29 | *
    |      65K |        - |      378 |      378 |       0.32 | *
    |      67K |        - |      377 |      377 |       0.33 | *
    |      69K |        - |      376 |      376 |       0.33 | *
    |      70K |        - |      374 |      374 |       0.34 | *
    |      71K |        - |      369 |      369 |       0.34 | *
    |      79K |        - |      368 |      368 |       0.35 | *
    |      86K |        - |      367 |      367 |       0.37 | *
    |      86K |        - |      365 |      365 |       0.37 | *
    |      88K |        - |      364 |      364 |       0.37 | *
    |      93K |        - |      363 |      363 |       0.39 | *
    |     122K |        - |      362 |      362 |       0.48 | *
    |     156K |        - |      361 |      361 |       0.61 | *
    |     157K |        - |      359 |      359 |       0.61 | *
    |     158K |        - |      358 |      358 |       0.61 | *
    |     158K |        - |      357 |      357 |       0.62 | *
    |     181K |        - |      356 |      356 |       0.70 | *
    |     193K |        - |      355 |      355 |       0.74 | *
    |     200K |        - |      353 |      353 |       0.77 | *
    |     203K |        - |      352 |      352 |       0.77 | *
    |     206K |        - |      351 |      351 |       0.78 | *
    |     215K |        - |      348 |      348 |       0.81 | *
    |     216K |        - |      347 |      347 |       0.81 | *
    |     240K |        - |      344 |      344 |       0.88 | *
    |     274K |        - |      343 |      343 |       0.98 | *
    |     278K |        - |      340 |      340 |       0.99 | *
    |     338K |        - |      339 |      339 |       1.11 | *
    |     351K |        - |      337 |      337 |       1.13 | *
    |     357K |        - |      336 |      336 |       1.14 | *
    |     357K |        - |      335 |      335 |       1.14 | *
    |     367K |        - |      334 |      334 |       1.15 | *
    |     371K |        - |      333 |      333 |       1.16 | *
    |     465K |        - |      332 |      332 |       1.27 | *
    |     593K |        - |      331 |      331 |       1.43 | *
    |     594K |        - |      330 |      330 |       1.43 | *
    |     929K |        - |      329 |      329 |       1.77 | *
    |     930K |        - |      328 |      328 |       1.77 | *
    |     935K |        - |      327 |      327 |       1.77 | *
    |     988K |        - |      326 |      326 |       1.81 | *
    |     995K |        - |      325 |      325 |       1.82 | *
    |     996K |        - |      323 |      323 |       1.82 | *
    |     997K |        - |      322 |      322 |       1.82 | *
    |    1001K |        - |      321 |      321 |       1.82 | *
    |    1011K |        - |      320 |      320 |       1.83 | *
    |    1020K |        - |      318 |      318 |       1.84 | *
    |    1022K |        - |      315 |      315 |       1.84 | *
    |    1029K |        - |      314 |      314 |       1.85 | *
    |    1140K |        - |      313 |      313 |       1.92 | *
    |    1159K |        - |      311 |      311 |       1.94 | *
    |    1169K |        - |      310 |      310 |       1.95 | *
    |    1169K |        - |      308 |      308 |       1.95 | *
    |    1173K |        - |      304 |      304 |       1.95 | *
    |    1328K |        - |      303 |      303 |       2.06 | *
    |    1328K |        - |      302 |      302 |       2.06 | *
    |    1336K |        - |      301 |      301 |       2.07 | *
    |    1367K |        - |      300 |      300 |       2.09 | *
    |    1408K |        - |      299 |      299 |       2.12 | *
    |    1462K |        - |      298 |      298 |       2.17 | *
    |    1464K |        - |      296 |      296 |       2.17 | *
    |    1464K |        - |      295 |      295 |       2.17 | *
    |    1464K |        - |      293 |      293 |       2.17 | *
    |    1563K |        - |      292 |      292 |       2.25 | *
    |    1565K |        - |      291 |      291 |       2.25 | *
    |    1603K |        - |      289 |      289 |       2.28 | *
    |    1608K |        - |      287 |      287 |       2.28 | *
    |    1637K |        - |      286 |      286 |       2.30 | *
    |    1658K |        - |      285 |      285 |       2.32 | *
    |    2503K |        - |      284 |      284 |       3.24 | *
    |    2733K |        - |      283 |      283 |       3.45 | *
    |    2734K |        - |      281 |      281 |       3.45 | *
    |    3409K |        - |      280 |      280 |       4.14 | *
    |    3432K |        - |      279 |      279 |       4.17 | *
    |    3494K |        - |      278 |      278 |       4.24 | *
    |    7372K |        - |      276 |      276 |       8.03 | *
    |    7378K |        - |      275 |      275 |       8.03 | *
    |    7461K |        - |      274 |      274 |       8.10 | *
    |    8041K |        - |      273 |      273 |       8.59 | *
    |    8055K |        - |      272 |      272 |       8.61 | *
    |    8336K |        - |      271 |      271 |       8.94 | *
    |    8461K |        - |      270 |      270 |       9.11 | *
    |    8488K |        - |      269 |      269 |       9.16 | *
    |      32M |        - |      268 |      268 |      27.27 | *
    |      32M |        - |      267 |      267 |      27.28 | *
    |      51M |        - |      265 |      265 |      41.67 | *
    |     121M |        - |      264 |      264 |      91.81 | *
    |     121M |        - |      263 |      263 |      91.81 | *
    |     123M |        - |      262 |      262 |      93.44 | *
    |     150M |        - |      261 |      261 |     112.67 | *
    |     163M |        - |      260 |      260 |     122.54 | *
    |     164M |        - |      259 |      259 |     123.35 | *
    |     164M |        - |      258 |      258 |     123.35 | *
    |     168M |        - |      257 |      257 |     126.37 | *
    |     282M |        - |      256 |      256 |     208.07 | *
    |     496M |        - |      255 |      255 |     361.38 | *
    \--------------------------------------------------------/

Neighborhoods statistics (values in %):

    /----------------------------------------------------------------\
    | Move               | Improvs. | Sideways |  Accepts |  Rejects |
    |--------------------|----------|----------|----------|----------|
    | Shift(mk)          |     4717 |     3212 |     9655 |     216M |
    | Shift              |      483 |     164K |     169K |     216M |
    | ShiftSmart(mk)     |      61K |      42K |     124K |     216M |
    | ShiftSmart         |     6165 |    2315K |    2367K |     214M |
    | SimpSwap(mk)       |       20 |        7 |       29 |     216M |
    | SimpSwap           |        6 |      113 |      133 |     216M |
    | SimpSwapSmart(mk)  |      161 |      122 |      338 |     216M |
    | SimpSwapSmart      |       37 |     1529 |     1720 |     216M |
    | Swap(mk)           |        5 |        1 |        7 |     216M |
    | Swap               |        3 |       25 |       29 |     216M |
    | SwapSmart(mk)      |      189 |      384 |      612 |     216M |
    | SwapSmart          |       42 |     2363 |     2547 |     216M |
    | Switch(mk)         |      490 |      12M |      12M |     204M |
    | Switch             |       44 |      15M |      15M |     201M |
    | SwitchSmart(mk)    |     5939 |     5637 |      13K |     216M |
    | SwitchSmart        |      628 |     102K |     108K |     216M |
    | TaskMove(mk)       |      264 |      270 |      641 |     216M |
    | TaskMove           |       32 |     2603 |     2798 |     216M |
    | TaskMoveSmart(mk)  |     3613 |     4023 |     9064 |     216M |
    | TaskMoveSmart      |      549 |      46K |      49K |     216M |
    | 2-Shift(mk)        |      835 |     750K |     751K |     215M |
    | 2-Shift            |       95 |    1133K |    1134K |     215M |
    | 2-ShiftSmart(mk)   |     7712 |    2039K |    2049K |     214M |
    | 2-ShiftSmart       |      755 |    2082K |    2088K |     214M |
    \----------------------------------------------------------------/

Best makespan.....: 255
N. of Iterations..: 5184295280
Total runtime.....: 3600.02s
Using Python-MIP package version 1.6.8
Começo a execução
    /-------------------------------------------------------------------------------\
    |    Makespan   |   Free Jobs   | Free Machines |    It. Time   |   Total Time  | 
    |-------------------------------------------------------------------------------|
    \-------------------------------------------------------------------------------/
Terminou a execução
