Instance....: instances/I_250_10_S_1-124_5.txt
Algorithm...: Simulated Annealing (alpha=0.990, saMax=10M, t0=1)
Other params: maxIters=100M, seed=-1, timeLimit=3600.00s

    /--------------------------------------------------------\
    |     Iter |   RDP(%) |       S* |       S' |       Time | 
    |----------|----------|----------|----------|------------|
    |        0 |        - |     3221 |     3221 |       0.00 | s0
    |        3 |        - |     3191 |     3191 |       0.01 | *
    |        6 |        - |     3117 |     3117 |       0.03 | *
    |       10 |        - |     3110 |     3110 |       0.03 | *
    |       17 |        - |     3088 |     3088 |       0.03 | *
    |       18 |        - |     3064 |     3064 |       0.04 | *
    |       22 |        - |     3060 |     3060 |       0.04 | *
    |       25 |        - |     3022 |     3022 |       0.04 | *
    |       26 |        - |     3017 |     3017 |       0.04 | *
    |       28 |        - |     3010 |     3010 |       0.04 | *
    |       30 |        - |     2954 |     2954 |       0.04 | *
    |       36 |        - |     2895 |     2895 |       0.04 | *
    |       39 |        - |     2851 |     2851 |       0.05 | *
    |       41 |        - |     2846 |     2846 |       0.05 | *
    |       42 |        - |     2786 |     2786 |       0.05 | *
    |       43 |        - |     2770 |     2770 |       0.05 | *
    |       44 |        - |     2758 |     2758 |       0.05 | *
    |       45 |        - |     2740 |     2740 |       0.05 | *
    |       49 |        - |     2698 |     2698 |       0.05 | *
    |       52 |        - |     2666 |     2666 |       0.05 | *
    |       53 |        - |     2658 |     2658 |       0.05 | *
    |       54 |        - |     2642 |     2642 |       0.05 | *
    |       56 |        - |     2617 |     2617 |       0.05 | *
    |       57 |        - |     2589 |     2589 |       0.05 | *
    |       60 |        - |     2584 |     2584 |       0.05 | *
    |       62 |        - |     2577 |     2577 |       0.05 | *
    |       70 |        - |     2572 |     2572 |       0.05 | *
    |       71 |        - |     2515 |     2515 |       0.06 | *
    |       72 |        - |     2511 |     2511 |       0.06 | *
    |       75 |        - |     2498 |     2498 |       0.06 | *
    |       94 |        - |     2487 |     2487 |       0.06 | *
    |       98 |        - |     2438 |     2438 |       0.06 | *
    |      108 |        - |     2414 |     2414 |       0.06 | *
    |      109 |        - |     2409 |     2409 |       0.06 | *
    |      110 |        - |     2391 |     2391 |       0.06 | *
    |      118 |        - |     2384 |     2384 |       0.06 | *
    |      126 |        - |     2383 |     2383 |       0.06 | *
    |      127 |        - |     2366 |     2366 |       0.06 | *
    |      140 |        - |     2362 |     2362 |       0.06 | *
    |      149 |        - |     2330 |     2330 |       0.06 | *
    |      150 |        - |     2311 |     2311 |       0.06 | *
    |      151 |        - |     2309 |     2309 |       0.07 | *
    |      172 |        - |     2300 |     2300 |       0.07 | *
    |      173 |        - |     2296 |     2296 |       0.07 | *
    |      179 |        - |     2274 |     2274 |       0.07 | *
    |      180 |        - |     2266 |     2266 |       0.07 | *
    |      181 |        - |     2258 |     2258 |       0.07 | *
    |      187 |        - |     2248 |     2248 |       0.07 | *
    |      200 |        - |     2236 |     2236 |       0.07 | *
    |      204 |        - |     2192 |     2192 |       0.07 | *
    |      211 |        - |     2179 |     2179 |       0.07 | *
    |      219 |        - |     2171 |     2171 |       0.07 | *
    |      223 |        - |     2167 |     2167 |       0.07 | *
    |      225 |        - |     2164 |     2164 |       0.07 | *
    |      232 |        - |     2163 |     2163 |       0.07 | *
    |      235 |        - |     2152 |     2152 |       0.07 | *
    |      237 |        - |     2148 |     2148 |       0.07 | *
    |      245 |        - |     2133 |     2133 |       0.08 | *
    |      250 |        - |     2131 |     2131 |       0.08 | *
    |      253 |        - |     2098 |     2098 |       0.08 | *
    |      256 |        - |     2091 |     2091 |       0.08 | *
    |      257 |        - |     2082 |     2082 |       0.08 | *
    |      260 |        - |     2074 |     2074 |       0.08 | *
    |      263 |        - |     2070 |     2070 |       0.08 | *
    |      265 |        - |     2058 |     2058 |       0.08 | *
    |      272 |        - |     2053 |     2053 |       0.08 | *
    |      275 |        - |     2050 |     2050 |       0.08 | *
    |      278 |        - |     2039 |     2039 |       0.08 | *
    |      289 |        - |     2035 |     2035 |       0.08 | *
    |      295 |        - |     2025 |     2025 |       0.08 | *
    |      304 |        - |     1980 |     1980 |       0.08 | *
    |      308 |        - |     1978 |     1978 |       0.08 | *
    |      312 |        - |     1971 |     1971 |       0.08 | *
    |      315 |        - |     1938 |     1938 |       0.08 | *
    |      317 |        - |     1927 |     1927 |       0.09 | *
    |      332 |        - |     1920 |     1920 |       0.09 | *
    |      338 |        - |     1918 |     1918 |       0.09 | *
    |      360 |        - |     1917 |     1917 |       0.09 | *
    |      364 |        - |     1913 |     1913 |       0.09 | *
    |      371 |        - |     1907 |     1907 |       0.09 | *
    |      381 |        - |     1896 |     1896 |       0.09 | *
    |      394 |        - |     1888 |     1888 |       0.09 | *
    |      402 |        - |     1886 |     1886 |       0.09 | *
    |      406 |        - |     1885 |     1885 |       0.09 | *
    |      431 |        - |     1884 |     1884 |       0.09 | *
    |      438 |        - |     1880 |     1880 |       0.09 | *
    |      450 |        - |     1877 |     1877 |       0.09 | *
    |      454 |        - |     1868 |     1868 |       0.09 | *
    |      457 |        - |     1865 |     1865 |       0.09 | *
    |      467 |        - |     1863 |     1863 |       0.10 | *
    |      470 |        - |     1845 |     1845 |       0.10 | *
    |      488 |        - |     1841 |     1841 |       0.10 | *
    |      491 |        - |     1829 |     1829 |       0.10 | *
    |      493 |        - |     1828 |     1828 |       0.10 | *
    |      507 |        - |     1812 |     1812 |       0.10 | *
    |      509 |        - |     1807 |     1807 |       0.10 | *
    |      515 |        - |     1783 |     1783 |       0.10 | *
    |      535 |        - |     1776 |     1776 |       0.10 | *
    |      536 |        - |     1771 |     1771 |       0.10 | *
    |      550 |        - |     1767 |     1767 |       0.10 | *
    |      554 |        - |     1763 |     1763 |       0.10 | *
    |      566 |        - |     1749 |     1749 |       0.10 | *
    |      567 |        - |     1744 |     1744 |       0.10 | *
    |      595 |        - |     1738 |     1738 |       0.10 | *
    |      597 |        - |     1725 |     1725 |       0.10 | *
    |      599 |        - |     1723 |     1723 |       0.10 | *
    |      608 |        - |     1722 |     1722 |       0.10 | *
    |      613 |        - |     1702 |     1702 |       0.11 | *
    |      644 |        - |     1682 |     1682 |       0.11 | *
    |      705 |        - |     1667 |     1667 |       0.11 | *
    |      713 |        - |     1665 |     1665 |       0.11 | *
    |      716 |        - |     1663 |     1663 |       0.11 | *
    |      725 |        - |     1659 |     1659 |       0.11 | *
    |      736 |        - |     1657 |     1657 |       0.11 | *
    |      769 |        - |     1653 |     1653 |       0.11 | *
    |      773 |        - |     1651 |     1651 |       0.11 | *
    |      776 |        - |     1646 |     1646 |       0.11 | *
    |      782 |        - |     1638 |     1638 |       0.11 | *
    |      786 |        - |     1635 |     1635 |       0.11 | *
    |      800 |        - |     1633 |     1633 |       0.11 | *
    |      814 |        - |     1628 |     1628 |       0.11 | *
    |      820 |        - |     1627 |     1627 |       0.11 | *
    |      848 |        - |     1626 |     1626 |       0.11 | *
    |      852 |        - |     1622 |     1622 |       0.11 | *
    |      859 |        - |     1620 |     1620 |       0.11 | *
    |      868 |        - |     1618 |     1618 |       0.12 | *
    |      871 |        - |     1612 |     1612 |       0.12 | *
    |      899 |        - |     1606 |     1606 |       0.12 | *
    |      911 |        - |     1602 |     1602 |       0.12 | *
    |      912 |        - |     1594 |     1594 |       0.12 | *
    |      942 |        - |     1589 |     1589 |       0.12 | *
    |      948 |        - |     1587 |     1587 |       0.12 | *
    |      952 |        - |     1585 |     1585 |       0.12 | *
    |      967 |        - |     1580 |     1580 |       0.12 | *
    |      971 |        - |     1571 |     1571 |       0.12 | *
    |      987 |        - |     1566 |     1566 |       0.12 | *
    |      998 |        - |     1563 |     1563 |       0.12 | *
    |     1005 |        - |     1559 |     1559 |       0.12 | *
    |     1014 |        - |     1551 |     1551 |       0.12 | *
    |     1035 |        - |     1548 |     1548 |       0.12 | *
    |     1046 |        - |     1545 |     1545 |       0.12 | *
    |     1063 |        - |     1542 |     1542 |       0.12 | *
    |     1088 |        - |     1539 |     1539 |       0.13 | *
    |     1102 |        - |     1537 |     1537 |       0.13 | *
    |     1124 |        - |     1528 |     1528 |       0.13 | *
    |     1126 |        - |     1519 |     1519 |       0.13 | *
    |     1168 |        - |     1518 |     1518 |       0.13 | *
    |     1230 |        - |     1517 |     1517 |       0.13 | *
    |     1248 |        - |     1516 |     1516 |       0.13 | *
    |     1255 |        - |     1515 |     1515 |       0.13 | *
    |     1258 |        - |     1511 |     1511 |       0.13 | *
    |     1261 |        - |     1510 |     1510 |       0.13 | *
    |     1268 |        - |     1506 |     1506 |       0.13 | *
    |     1278 |        - |     1499 |     1499 |       0.13 | *
    |     1283 |        - |     1497 |     1497 |       0.13 | *
    |     1284 |        - |     1494 |     1494 |       0.13 | *
    |     1285 |        - |     1486 |     1486 |       0.14 | *
    |     1305 |        - |     1484 |     1484 |       0.14 | *
    |     1321 |        - |     1474 |     1474 |       0.14 | *
    |     1327 |        - |     1473 |     1473 |       0.14 | *
    |     1361 |        - |     1464 |     1464 |       0.14 | *
    |     1368 |        - |     1461 |     1461 |       0.14 | *
    |     1391 |        - |     1458 |     1458 |       0.14 | *
    |     1399 |        - |     1456 |     1456 |       0.14 | *
    |     1401 |        - |     1455 |     1455 |       0.14 | *
    |     1412 |        - |     1443 |     1443 |       0.14 | *
    |     1424 |        - |     1439 |     1439 |       0.14 | *
    |     1425 |        - |     1435 |     1435 |       0.14 | *
    |     1440 |        - |     1432 |     1432 |       0.15 | *
    |     1446 |        - |     1430 |     1430 |       0.15 | *
    |     1478 |        - |     1428 |     1428 |       0.15 | *
    |     1482 |        - |     1421 |     1421 |       0.15 | *
    |     1490 |        - |     1420 |     1420 |       0.15 | *
    |     1493 |        - |     1415 |     1415 |       0.15 | *
    |     1499 |        - |     1409 |     1409 |       0.15 | *
    |     1515 |        - |     1404 |     1404 |       0.15 | *
    |     1526 |        - |     1400 |     1400 |       0.15 | *
    |     1531 |        - |     1399 |     1399 |       0.15 | *
    |     1578 |        - |     1394 |     1394 |       0.15 | *
    |     1595 |        - |     1393 |     1393 |       0.15 | *
    |     1618 |        - |     1391 |     1391 |       0.15 | *
    |     1637 |        - |     1390 |     1390 |       0.15 | *
    |     1642 |        - |     1381 |     1381 |       0.15 | *
    |     1650 |        - |     1380 |     1380 |       0.16 | *
    |     1678 |        - |     1379 |     1379 |       0.16 | *
    |     1703 |        - |     1369 |     1369 |       0.16 | *
    |     1712 |        - |     1367 |     1367 |       0.16 | *
    |     1720 |        - |     1354 |     1354 |       0.16 | *
    |     1732 |        - |     1349 |     1349 |       0.16 | *
    |     1746 |        - |     1334 |     1334 |       0.16 | *
    |     1785 |        - |     1333 |     1333 |       0.16 | *
    |     1798 |        - |     1330 |     1330 |       0.16 | *
    |     1799 |        - |     1321 |     1321 |       0.16 | *
    |     1809 |        - |     1317 |     1317 |       0.16 | *
    |     1812 |        - |     1315 |     1315 |       0.16 | *
    |     1828 |        - |     1309 |     1309 |       0.16 | *
    |     1864 |        - |     1299 |     1299 |       0.16 | *
    |     1922 |        - |     1289 |     1289 |       0.16 | *
    |     1940 |        - |     1287 |     1287 |       0.17 | *
    |     1942 |        - |     1285 |     1285 |       0.17 | *
    |     1961 |        - |     1280 |     1280 |       0.17 | *
    |     1966 |        - |     1279 |     1279 |       0.17 | *
    |     1975 |        - |     1277 |     1277 |       0.17 | *
    |     2049 |        - |     1272 |     1272 |       0.17 | *
    |     2053 |        - |     1270 |     1270 |       0.17 | *
    |     2080 |        - |     1267 |     1267 |       0.17 | *
    |     2224 |        - |     1266 |     1266 |       0.17 | *
    |     2389 |        - |     1264 |     1264 |       0.17 | *
    |     2415 |        - |     1262 |     1262 |       0.17 | *
    |     2427 |        - |     1255 |     1255 |       0.17 | *
    |     2439 |        - |     1254 |     1254 |       0.17 | *
    |     2491 |        - |     1253 |     1253 |       0.17 | *
    |     2522 |        - |     1252 |     1252 |       0.18 | *
    |     2539 |        - |     1249 |     1249 |       0.18 | *
    |     2547 |        - |     1246 |     1246 |       0.18 | *
    |     2564 |        - |     1241 |     1241 |       0.18 | *
    |     2589 |        - |     1235 |     1235 |       0.18 | *
    |     2590 |        - |     1230 |     1230 |       0.18 | *
    |     2621 |        - |     1227 |     1227 |       0.18 | *
    |     2660 |        - |     1226 |     1226 |       0.18 | *
    |     2672 |        - |     1221 |     1221 |       0.18 | *
    |     2678 |        - |     1220 |     1220 |       0.18 | *
    |     2687 |        - |     1217 |     1217 |       0.18 | *
    |     2689 |        - |     1216 |     1216 |       0.18 | *
    |     2721 |        - |     1210 |     1210 |       0.18 | *
    |     2741 |        - |     1207 |     1207 |       0.18 | *
    |     2761 |        - |     1206 |     1206 |       0.18 | *
    |     2767 |        - |     1204 |     1204 |       0.18 | *
    |     2773 |        - |     1202 |     1202 |       0.19 | *
    |     2783 |        - |     1200 |     1200 |       0.19 | *
    |     2929 |        - |     1199 |     1199 |       0.19 | *
    |     2959 |        - |     1197 |     1197 |       0.19 | *
    |     3038 |        - |     1196 |     1196 |       0.19 | *
    |     3041 |        - |     1194 |     1194 |       0.19 | *
    |     3055 |        - |     1193 |     1193 |       0.19 | *
    |     3061 |        - |     1188 |     1188 |       0.19 | *
    |     3156 |        - |     1187 |     1187 |       0.19 | *
    |     3158 |        - |     1185 |     1185 |       0.19 | *
    |     3233 |        - |     1176 |     1176 |       0.19 | *
    |     3251 |        - |     1173 |     1173 |       0.19 | *
    |     3261 |        - |     1169 |     1169 |       0.19 | *
    |     3288 |        - |     1162 |     1162 |       0.19 | *
    |     3295 |        - |     1158 |     1158 |       0.20 | *
    |     3370 |        - |     1157 |     1157 |       0.20 | *
    |     3395 |        - |     1154 |     1154 |       0.20 | *
    |     3436 |        - |     1153 |     1153 |       0.20 | *
    |     3476 |        - |     1146 |     1146 |       0.20 | *
    |     3489 |        - |     1140 |     1140 |       0.20 | *
    |     3510 |        - |     1138 |     1138 |       0.20 | *
    |     3525 |        - |     1137 |     1137 |       0.20 | *
    |     3540 |        - |     1136 |     1136 |       0.20 | *
    |     3614 |        - |     1135 |     1135 |       0.20 | *
    |     3674 |        - |     1134 |     1134 |       0.20 | *
    |     3729 |        - |     1131 |     1131 |       0.20 | *
    |     3762 |        - |     1129 |     1129 |       0.20 | *
    |     3857 |        - |     1128 |     1128 |       0.20 | *
    |     3875 |        - |     1125 |     1125 |       0.21 | *
    |     3884 |        - |     1124 |     1124 |       0.21 | *
    |     3931 |        - |     1122 |     1122 |       0.21 | *
    |     3958 |        - |     1121 |     1121 |       0.21 | *
    |     3972 |        - |     1116 |     1116 |       0.21 | *
    |     3981 |        - |     1115 |     1115 |       0.21 | *
    |     3989 |        - |     1111 |     1111 |       0.21 | *
    |     4052 |        - |     1109 |     1109 |       0.21 | *
    |     4067 |        - |     1107 |     1107 |       0.21 | *
    |     4127 |        - |     1106 |     1106 |       0.21 | *
    |     4177 |        - |     1103 |     1103 |       0.21 | *
    |     4189 |        - |     1102 |     1102 |       0.21 | *
    |     4200 |        - |     1096 |     1096 |       0.21 | *
    |     4220 |        - |     1095 |     1095 |       0.21 | *
    |     4287 |        - |     1094 |     1094 |       0.21 | *
    |     4297 |        - |     1092 |     1092 |       0.21 | *
    |     4300 |        - |     1091 |     1091 |       0.22 | *
    |     4321 |        - |     1090 |     1090 |       0.22 | *
    |     4324 |        - |     1089 |     1089 |       0.22 | *
    |     4335 |        - |     1085 |     1085 |       0.22 | *
    |     4369 |        - |     1082 |     1082 |       0.22 | *
    |     4394 |        - |     1073 |     1073 |       0.22 | *
    |     4445 |        - |     1066 |     1066 |       0.22 | *
    |     4458 |        - |     1064 |     1064 |       0.22 | *
    |     4561 |        - |     1060 |     1060 |       0.22 | *
    |     4657 |        - |     1058 |     1058 |       0.22 | *
    |     4721 |        - |     1057 |     1057 |       0.22 | *
    |     4722 |        - |     1055 |     1055 |       0.22 | *
    |     4793 |        - |     1051 |     1051 |       0.22 | *
    |     4857 |        - |     1044 |     1044 |       0.22 | *
    |     4869 |        - |     1043 |     1043 |       0.22 | *
    |     4921 |        - |     1041 |     1041 |       0.23 | *
    |     4931 |        - |     1040 |     1040 |       0.23 | *
    |     5024 |        - |     1038 |     1038 |       0.23 | *
    |     5088 |        - |     1037 |     1037 |       0.23 | *
    |     5109 |        - |     1027 |     1027 |       0.23 | *
    |     5120 |        - |     1026 |     1026 |       0.23 | *
    |     5603 |        - |     1023 |     1023 |       0.23 | *
    |     5641 |        - |     1020 |     1020 |       0.23 | *
    |     5695 |        - |     1018 |     1018 |       0.23 | *
    |     5711 |        - |     1016 |     1016 |       0.23 | *
    |     5764 |        - |     1014 |     1014 |       0.23 | *
    |     5785 |        - |     1007 |     1007 |       0.23 | *
    |     5788 |        - |     1003 |     1003 |       0.23 | *
    |     5815 |        - |     1000 |     1000 |       0.24 | *
    |     5872 |        - |      999 |      999 |       0.24 | *
    |     5907 |        - |      993 |      993 |       0.24 | *
    |     5940 |        - |      992 |      992 |       0.24 | *
    |     5976 |        - |      991 |      991 |       0.24 | *
    |     6074 |        - |      990 |      990 |       0.24 | *
    |     6090 |        - |      986 |      986 |       0.24 | *
    |     6093 |        - |      985 |      985 |       0.24 | *
    |     6109 |        - |      983 |      983 |       0.24 | *
    |     6147 |        - |      981 |      981 |       0.24 | *
    |     6168 |        - |      980 |      980 |       0.24 | *
    |     6236 |        - |      979 |      979 |       0.24 | *
    |     6406 |        - |      976 |      976 |       0.24 | *
    |     6426 |        - |      973 |      973 |       0.24 | *
    |     6462 |        - |      971 |      971 |       0.24 | *
    |     6484 |        - |      968 |      968 |       0.24 | *
    |     6501 |        - |      967 |      967 |       0.24 | *
    |     6695 |        - |      965 |      965 |       0.25 | *
    |     7070 |        - |      964 |      964 |       0.25 | *
    |     7077 |        - |      963 |      963 |       0.25 | *
    |     7323 |        - |      961 |      961 |       0.25 | *
    |     7333 |        - |      960 |      960 |       0.25 | *
    |     7385 |        - |      959 |      959 |       0.25 | *
    |     7454 |        - |      957 |      957 |       0.25 | *
    |     7512 |        - |      951 |      951 |       0.25 | *
    |     7559 |        - |      950 |      950 |       0.25 | *
    |     7605 |        - |      948 |      948 |       0.25 | *
    |     7783 |        - |      945 |      945 |       0.25 | *
    |     7868 |        - |      944 |      944 |       0.26 | *
    |     8074 |        - |      943 |      943 |       0.26 | *
    |     8124 |        - |      938 |      938 |       0.26 | *
    |     8135 |        - |      936 |      936 |       0.26 | *
    |     8148 |        - |      935 |      935 |       0.26 | *
    |     8155 |        - |      934 |      934 |       0.26 | *
    |     8197 |        - |      932 |      932 |       0.26 | *
    |     8205 |        - |      931 |      931 |       0.26 | *
    |     8423 |        - |      928 |      928 |       0.26 | *
    |     8445 |        - |      927 |      927 |       0.26 | *
    |     8535 |        - |      926 |      926 |       0.26 | *
    |     8626 |        - |      923 |      923 |       0.26 | *
    |     8629 |        - |      921 |      921 |       0.26 | *
    |     8826 |        - |      920 |      920 |       0.26 | *
    |     8832 |        - |      919 |      919 |       0.26 | *
    |     8884 |        - |      917 |      917 |       0.27 | *
    |     8898 |        - |      916 |      916 |       0.27 | *
    |     9289 |        - |      913 |      913 |       0.27 | *
    |     9390 |        - |      912 |      912 |       0.27 | *
    |     9477 |        - |      910 |      910 |       0.27 | *
    |     9496 |        - |      909 |      909 |       0.27 | *
    |     9588 |        - |      908 |      908 |       0.27 | *
    |     9645 |        - |      907 |      907 |       0.27 | *
    |     9679 |        - |      906 |      906 |       0.27 | *
    |     9694 |        - |      905 |      905 |       0.27 | *
    |     9733 |        - |      903 |      903 |       0.27 | *
    |     9756 |        - |      902 |      902 |       0.27 | *
    |     9776 |        - |      900 |      900 |       0.27 | *
    |     9832 |        - |      898 |      898 |       0.27 | *
    |     9867 |        - |      897 |      897 |       0.28 | *
    |      10K |        - |      893 |      893 |       0.28 | *
    |      10K |        - |      889 |      889 |       0.28 | *
    |      10K |        - |      885 |      885 |       0.28 | *
    |      10K |        - |      884 |      884 |       0.28 | *
    |      10K |        - |      882 |      882 |       0.28 | *
    |      10K |        - |      881 |      881 |       0.28 | *
    |      10K |        - |      880 |      880 |       0.28 | *
    |      10K |        - |      879 |      879 |       0.28 | *
    |      11K |        - |      873 |      873 |       0.28 | *
    |      11K |        - |      872 |      872 |       0.28 | *
    |      11K |        - |      869 |      869 |       0.28 | *
    |      11K |        - |      867 |      867 |       0.29 | *
    |      11K |        - |      866 |      866 |       0.29 | *
    |      11K |        - |      862 |      862 |       0.29 | *
    |      11K |        - |      860 |      860 |       0.29 | *
    |      11K |        - |      857 |      857 |       0.29 | *
    |      11K |        - |      855 |      855 |       0.29 | *
    |      11K |        - |      854 |      854 |       0.29 | *
    |      11K |        - |      852 |      852 |       0.29 | *
    |      12K |        - |      851 |      851 |       0.29 | *
    |      12K |        - |      850 |      850 |       0.30 | *
    |      13K |        - |      849 |      849 |       0.30 | *
    |      13K |        - |      847 |      847 |       0.30 | *
    |      13K |        - |      844 |      844 |       0.30 | *
    |      13K |        - |      829 |      829 |       0.30 | *
    |      13K |        - |      828 |      828 |       0.30 | *
    |      13K |        - |      826 |      826 |       0.30 | *
    |      13K |        - |      824 |      824 |       0.30 | *
    |      13K |        - |      818 |      818 |       0.30 | *
    |      13K |        - |      816 |      816 |       0.31 | *
    |      13K |        - |      815 |      815 |       0.31 | *
    |      13K |        - |      814 |      814 |       0.31 | *
    |      13K |        - |      812 |      812 |       0.31 | *
    |      13K |        - |      811 |      811 |       0.31 | *
    |      14K |        - |      810 |      810 |       0.31 | *
    |      14K |        - |      808 |      808 |       0.31 | *
    |      14K |        - |      804 |      804 |       0.31 | *
    |      14K |        - |      802 |      802 |       0.31 | *
    |      16K |        - |      801 |      801 |       0.32 | *
    |      16K |        - |      799 |      799 |       0.32 | *
    |      16K |        - |      796 |      796 |       0.32 | *
    |      16K |        - |      795 |      795 |       0.32 | *
    |      17K |        - |      794 |      794 |       0.32 | *
    |      17K |        - |      788 |      788 |       0.32 | *
    |      17K |        - |      786 |      786 |       0.33 | *
    |      17K |        - |      784 |      784 |       0.33 | *
    |      17K |        - |      782 |      782 |       0.33 | *
    |      17K |        - |      778 |      778 |       0.33 | *
    |      18K |        - |      777 |      777 |       0.33 | *
    |      18K |        - |      775 |      775 |       0.33 | *
    |      18K |        - |      772 |      772 |       0.33 | *
    |      18K |        - |      771 |      771 |       0.33 | *
    |      18K |        - |      769 |      769 |       0.33 | *
    |      19K |        - |      768 |      768 |       0.34 | *
    |      20K |        - |      767 |      767 |       0.34 | *
    |      20K |        - |      766 |      766 |       0.34 | *
    |      20K |        - |      765 |      765 |       0.34 | *
    |      21K |        - |      764 |      764 |       0.34 | *
    |      21K |        - |      762 |      762 |       0.35 | *
    |      21K |        - |      759 |      759 |       0.35 | *
    |      22K |        - |      758 |      758 |       0.35 | *
    |      22K |        - |      754 |      754 |       0.35 | *
    |      22K |        - |      753 |      753 |       0.35 | *
    |      22K |        - |      752 |      752 |       0.35 | *
    |      22K |        - |      747 |      747 |       0.35 | *
    |      22K |        - |      745 |      745 |       0.35 | *
    |      23K |        - |      741 |      741 |       0.35 | *
    |      25K |        - |      740 |      740 |       0.36 | *
    |      25K |        - |      739 |      739 |       0.36 | *
    |      25K |        - |      738 |      738 |       0.36 | *
    |      25K |        - |      737 |      737 |       0.36 | *
    |      25K |        - |      736 |      736 |       0.37 | *
    |      26K |        - |      735 |      735 |       0.37 | *
    |      26K |        - |      734 |      734 |       0.37 | *
    |      28K |        - |      733 |      733 |       0.38 | *
    |      28K |        - |      731 |      731 |       0.38 | *
    |      29K |        - |      730 |      730 |       0.38 | *
    |      29K |        - |      728 |      728 |       0.38 | *
    |      29K |        - |      727 |      727 |       0.38 | *
    |      29K |        - |      726 |      726 |       0.38 | *
    |      30K |        - |      725 |      725 |       0.38 | *
    |      30K |        - |      723 |      723 |       0.39 | *
    |      30K |        - |      720 |      720 |       0.39 | *
    |      31K |        - |      719 |      719 |       0.39 | *
    |      31K |        - |      715 |      715 |       0.39 | *
    |      31K |        - |      713 |      713 |       0.39 | *
    |      31K |        - |      712 |      712 |       0.39 | *
    |      31K |        - |      708 |      708 |       0.39 | *
    |      32K |        - |      705 |      705 |       0.40 | *
    |      32K |        - |      704 |      704 |       0.40 | *
    |      33K |        - |      701 |      701 |       0.40 | *
    |      35K |        - |      697 |      697 |       0.41 | *
    |      35K |        - |      696 |      696 |       0.41 | *
    |      36K |        - |      695 |      695 |       0.41 | *
    |      36K |        - |      694 |      694 |       0.41 | *
    |      36K |        - |      693 |      693 |       0.41 | *
    |      36K |        - |      690 |      690 |       0.41 | *
    |      36K |        - |      687 |      687 |       0.41 | *
    |      36K |        - |      686 |      686 |       0.41 | *
    |      38K |        - |      685 |      685 |       0.42 | *
    |      38K |        - |      684 |      684 |       0.42 | *
    |      38K |        - |      682 |      682 |       0.42 | *
    |      38K |        - |      680 |      680 |       0.42 | *
    |      39K |        - |      677 |      677 |       0.42 | *
    |      39K |        - |      675 |      675 |       0.42 | *
    |      40K |        - |      673 |      673 |       0.43 | *
    |      41K |        - |      671 |      671 |       0.43 | *
    |      41K |        - |      670 |      670 |       0.43 | *
    |      41K |        - |      669 |      669 |       0.43 | *
    |      42K |        - |      668 |      668 |       0.43 | *
    |      43K |        - |      667 |      667 |       0.44 | *
    |      53K |        - |      666 |      666 |       0.47 | *
    |      53K |        - |      665 |      665 |       0.47 | *
    |      53K |        - |      664 |      664 |       0.47 | *
    |      54K |        - |      663 |      663 |       0.47 | *
    |      55K |        - |      660 |      660 |       0.47 | *
    |      55K |        - |      659 |      659 |       0.47 | *
    |      56K |        - |      658 |      658 |       0.47 | *
    |      57K |        - |      656 |      656 |       0.47 | *
    |      61K |        - |      654 |      654 |       0.48 | *
    |      61K |        - |      653 |      653 |       0.48 | *
    |      62K |        - |      650 |      650 |       0.48 | *
    |      64K |        - |      649 |      649 |       0.49 | *
    |      64K |        - |      648 |      648 |       0.49 | *
    |      64K |        - |      646 |      646 |       0.49 | *
    |      65K |        - |      645 |      645 |       0.49 | *
    |      70K |        - |      641 |      641 |       0.50 | *
    |      70K |        - |      637 |      637 |       0.50 | *
    |      70K |        - |      636 |      636 |       0.50 | *
    |      70K |        - |      632 |      632 |       0.50 | *
    |      71K |        - |      631 |      631 |       0.50 | *
    |      73K |        - |      629 |      629 |       0.50 | *
    |      80K |        - |      628 |      628 |       0.51 | *
    |      80K |        - |      626 |      626 |       0.51 | *
    |      81K |        - |      624 |      624 |       0.51 | *
    |      85K |        - |      623 |      623 |       0.52 | *
    |      88K |        - |      622 |      622 |       0.52 | *
    |      88K |        - |      621 |      621 |       0.52 | *
    |      94K |        - |      619 |      619 |       0.53 | *
    |      95K |        - |      618 |      618 |       0.53 | *
    |      98K |        - |      617 |      617 |       0.54 | *
    |      99K |        - |      615 |      615 |       0.54 | *
    |     100K |        - |      614 |      614 |       0.54 | *
    |     100K |        - |      613 |      613 |       0.54 | *
    |     103K |        - |      612 |      612 |       0.55 | *
    |     110K |        - |      611 |      611 |       0.56 | *
    |     112K |        - |      610 |      610 |       0.57 | *
    |     114K |        - |      609 |      609 |       0.57 | *
    |     119K |        - |      608 |      608 |       0.59 | *
    |     123K |        - |      606 |      606 |       0.60 | *
    |     128K |        - |      605 |      605 |       0.61 | *
    |     130K |        - |      604 |      604 |       0.62 | *
    |     141K |        - |      602 |      602 |       0.66 | *
    |     147K |        - |      601 |      601 |       0.69 | *
    |     147K |        - |      600 |      600 |       0.69 | *
    |     148K |        - |      599 |      599 |       0.70 | *
    |     148K |        - |      598 |      598 |       0.70 | *
    |     149K |        - |      596 |      596 |       0.70 | *
    |     151K |        - |      595 |      595 |       0.71 | *
    |     151K |        - |      594 |      594 |       0.71 | *
    |     155K |        - |      592 |      592 |       0.73 | *
    |     162K |        - |      591 |      591 |       0.77 | *
    |     165K |        - |      589 |      589 |       0.79 | *
    |     165K |        - |      588 |      588 |       0.79 | *
    |     165K |        - |      587 |      587 |       0.80 | *
    |     169K |        - |      586 |      586 |       0.82 | *
    |     170K |        - |      585 |      585 |       0.83 | *
    |     172K |        - |      584 |      584 |       0.84 | *
    |     176K |        - |      583 |      583 |       0.87 | *
    |     176K |        - |      582 |      582 |       0.87 | *
    |     176K |        - |      581 |      581 |       0.87 | *
    |     180K |        - |      580 |      580 |       0.90 | *
    |     185K |        - |      577 |      577 |       0.92 | *
    |     185K |        - |      574 |      574 |       0.93 | *
    |     185K |        - |      573 |      573 |       0.93 | *
    |     185K |        - |      572 |      572 |       0.93 | *
    |     198K |        - |      570 |      570 |       1.00 | *
    |     200K |        - |      569 |      569 |       1.01 | *
    |     203K |        - |      567 |      567 |       1.02 | *
    |     244K |        - |      566 |      566 |       1.19 | *
    |     245K |        - |      565 |      565 |       1.19 | *
    |     245K |        - |      563 |      563 |       1.19 | *
    |     250K |        - |      561 |      561 |       1.20 | *
    |     250K |        - |      560 |      560 |       1.20 | *
    |     250K |        - |      559 |      559 |       1.20 | *
    |     258K |        - |      558 |      558 |       1.21 | *
    |     266K |        - |      557 |      557 |       1.23 | *
    |     266K |        - |      556 |      556 |       1.23 | *
    |     266K |        - |      555 |      555 |       1.23 | *
    |     276K |        - |      554 |      554 |       1.26 | *
    |     278K |        - |      552 |      552 |       1.27 | *
    |     285K |        - |      551 |      551 |       1.28 | *
    |     286K |        - |      549 |      549 |       1.28 | *
    |     286K |        - |      548 |      548 |       1.28 | *
    |     286K |        - |      547 |      547 |       1.29 | *
    |     302K |        - |      542 |      542 |       1.32 | *
    |     309K |        - |      541 |      541 |       1.34 | *
    |     309K |        - |      539 |      539 |       1.34 | *
    |     310K |        - |      538 |      538 |       1.35 | *
    |     322K |        - |      537 |      537 |       1.38 | *
    |     322K |        - |      535 |      535 |       1.38 | *
    |     339K |        - |      534 |      534 |       1.40 | *
    |     340K |        - |      532 |      532 |       1.40 | *
    |     342K |        - |      531 |      531 |       1.41 | *
    |     344K |        - |      530 |      530 |       1.41 | *
    |     345K |        - |      529 |      529 |       1.42 | *
    |     345K |        - |      528 |      528 |       1.42 | *
    |     346K |        - |      527 |      527 |       1.42 | *
    |     349K |        - |      526 |      526 |       1.43 | *
    |     358K |        - |      525 |      525 |       1.44 | *
    |     358K |        - |      523 |      523 |       1.44 | *
    |     403K |        - |      522 |      522 |       1.53 | *
    |     411K |        - |      521 |      521 |       1.54 | *
    |     411K |        - |      520 |      520 |       1.54 | *
    |     412K |        - |      518 |      518 |       1.54 | *
    |     414K |        - |      517 |      517 |       1.54 | *
    |     437K |        - |      515 |      515 |       1.60 | *
    |     461K |        - |      514 |      514 |       1.65 | *
    |     482K |        - |      511 |      511 |       1.69 | *
    |     482K |        - |      510 |      510 |       1.69 | *
    |     484K |        - |      508 |      508 |       1.70 | *
    |     485K |        - |      505 |      505 |       1.70 | *
    |     485K |        - |      504 |      504 |       1.70 | *
    |     486K |        - |      503 |      503 |       1.71 | *
    |     547K |        - |      502 |      502 |       1.83 | *
    |     554K |        - |      501 |      501 |       1.83 | *
    |     562K |        - |      500 |      500 |       1.84 | *
    |     599K |        - |      499 |      499 |       1.89 | *
    |     602K |        - |      497 |      497 |       1.89 | *
    |     604K |        - |      496 |      496 |       1.90 | *
    |     607K |        - |      495 |      495 |       1.90 | *
    |     607K |        - |      494 |      494 |       1.90 | *
    |     618K |        - |      493 |      493 |       1.91 | *
    |     619K |        - |      492 |      492 |       1.91 | *
    |     625K |        - |      491 |      491 |       1.92 | *
    |     639K |        - |      489 |      489 |       1.94 | *
    |     640K |        - |      488 |      488 |       1.94 | *
    |     647K |        - |      487 |      487 |       1.95 | *
    |     671K |        - |      486 |      486 |       1.97 | *
    |     671K |        - |      485 |      485 |       1.97 | *
    |     687K |        - |      484 |      484 |       1.99 | *
    |     690K |        - |      483 |      483 |       1.99 | *
    |     730K |        - |      481 |      481 |       2.04 | *
    |     731K |        - |      480 |      480 |       2.04 | *
    |     731K |        - |      479 |      479 |       2.04 | *
    |     759K |        - |      478 |      478 |       2.07 | *
    |     760K |        - |      476 |      476 |       2.08 | *
    |     768K |        - |      475 |      475 |       2.08 | *
    |     768K |        - |      474 |      474 |       2.08 | *
    |     770K |        - |      473 |      473 |       2.09 | *
    |     770K |        - |      472 |      472 |       2.09 | *
    |     797K |        - |      471 |      471 |       2.12 | *
    |     799K |        - |      470 |      470 |       2.12 | *
    |     800K |        - |      469 |      469 |       2.12 | *
    |     974K |        - |      468 |      468 |       2.34 | *
    |    1098K |        - |      467 |      467 |       2.46 | *
    |    1124K |        - |      466 |      466 |       2.49 | *
    |    1205K |        - |      465 |      465 |       2.58 | *
    |    1227K |        - |      464 |      464 |       2.60 | *
    |    1276K |        - |      463 |      463 |       2.64 | *
    |    1278K |        - |      462 |      462 |       2.65 | *
    |    1303K |        - |      461 |      461 |       2.67 | *
    |    1317K |        - |      460 |      460 |       2.68 | *
    |    1317K |        - |      459 |      459 |       2.68 | *
    |    1354K |        - |      458 |      458 |       2.71 | *
    |    1582K |        - |      457 |      457 |       2.92 | *
    |    1658K |        - |      456 |      456 |       3.00 | *
    |    1802K |        - |      454 |      454 |       3.14 | *
    |    2232K |        - |      453 |      453 |       3.57 | *
    |    2232K |        - |      452 |      452 |       3.57 | *
    |    2264K |        - |      451 |      451 |       3.60 | *
    |    3280K |        - |      450 |      450 |       5.04 | *
    |    3283K |        - |      449 |      449 |       5.04 | *
    |    3386K |        - |      448 |      448 |       5.19 | *
    |    3484K |        - |      447 |      447 |       5.31 | *
    |    4017K |        - |      446 |      446 |       5.87 | *
    |    4038K |        - |      445 |      445 |       5.89 | *
    |    5292K |        - |      444 |      444 |       7.53 | *
    |    5301K |        - |      443 |      443 |       7.55 | *
    |    5452K |        - |      442 |      442 |       7.89 | *
    |    5781K |        - |      441 |      441 |       8.42 | *
    |    5886K |        - |      440 |      440 |       8.55 | *
    |    5934K |        - |      438 |      438 |       8.61 | *
    |    5934K |        - |      437 |      437 |       8.61 | *
    |    7295K |        - |      436 |      436 |      10.31 | *
    |    7836K |        - |      435 |      435 |      11.19 | *
    |    8105K |        - |      434 |      434 |      11.48 | *
    |    8107K |        - |      433 |      433 |      11.49 | *
    |    8108K |        - |      432 |      432 |      11.49 | *
    |    8109K |        - |      431 |      431 |      11.49 | *
    |    8458K |        - |      429 |      429 |      12.00 | *
    |    8795K |        - |      428 |      428 |      12.35 | *
    |    9286K |        - |      427 |      427 |      13.13 | *
    |      12M |        - |      426 |      426 |      16.41 | *
    |      12M |        - |      425 |      425 |      16.43 | *
    |      12M |        - |      424 |      424 |      16.45 | *
    |      12M |        - |      423 |      423 |      16.72 | *
    |      12M |        - |      422 |      422 |      16.72 | *
    |      12M |        - |      421 |      421 |      16.92 | *
    |      23M |        - |      420 |      420 |      27.10 | *
    |      25M |        - |      419 |      419 |      28.83 | *
    |      25M |        - |      418 |      418 |      28.83 | *
    |      36M |        - |      417 |      417 |      38.70 | *
    |      37M |        - |      416 |      416 |      38.81 | *
    |      37M |        - |      415 |      415 |      38.89 | *
    |      37M |        - |      414 |      414 |      39.27 | *
    |      39M |        - |      413 |      413 |      41.12 | *
    |      39M |        - |      412 |      412 |      41.13 | *
    |      41M |        - |      411 |      411 |      42.54 | *
    |      44M |        - |      410 |      410 |      45.08 | *
    |      44M |        - |      409 |      409 |      45.12 | *
    |      63M |        - |      408 |      408 |      62.03 | *
    |      68M |        - |      406 |      406 |      66.26 | *
    |      71M |        - |      405 |      405 |      69.67 | *
    |      72M |        - |      404 |      404 |      69.84 | *
    |      72M |        - |      403 |      403 |      69.84 | *
    |      75M |        - |      402 |      402 |      73.12 | *
    \--------------------------------------------------------/

Neighborhoods statistics (values in %):

    /----------------------------------------------------------------\
    | Move               | Improvs. | Sideways |  Accepts |  Rejects |
    |--------------------|----------|----------|----------|----------|
    | Shift(mk)          |     2258 |      16K |      19K |     178M |
    | Shift              |      229 |     127K |     129K |     178M |
    | ShiftSmart(mk)     |      51K |     390K |     458K |     177M |
    | ShiftSmart         |     5095 |    2830K |    2874K |     175M |
    | SimpSwap(mk)       |       10 |        9 |       22 |     178M |
    | SimpSwap           |        2 |       43 |       50 |     178M |
    | SimpSwapSmart(mk)  |      173 |      187 |      410 |     178M |
    | SimpSwapSmart      |       36 |      765 |      920 |     178M |
    | Swap(mk)           |        4 |        2 |        6 |     178M |
    | Swap               |        1 |        4 |        5 |     178M |
    | SwapSmart(mk)      |      154 |      173 |      375 |     178M |
    | SwapSmart          |       34 |      663 |      773 |     178M |
    | Switch(mk)         |      337 |    7789K |    7789K |     170M |
    | Switch             |       36 |    7306K |    7306K |     170M |
    | SwitchSmart(mk)    |     7372 |     9546 |      19K |     178M |
    | SwitchSmart        |      750 |    1171K |    1178K |     176M |
    | TaskMove(mk)       |      120 |      150 |      339 |     178M |
    | TaskMove           |       15 |      467 |      555 |     178M |
    | TaskMoveSmart(mk)  |     2794 |     3759 |     7897 |     178M |
    | TaskMoveSmart      |      380 |      11K |      13K |     178M |
    | 2-Shift(mk)        |      242 |     360K |     361K |     177M |
    | 2-Shift            |       19 |     327K |     327K |     177M |
    | 2-ShiftSmart(mk)   |     5584 |     469K |     476K |     177M |
    | 2-ShiftSmart       |      580 |     531K |     536K |     177M |
    \----------------------------------------------------------------/

Best makespan.....: 402
N. of Iterations..: 4264780153
Total runtime.....: 3600.01s
Using Python-MIP package version 1.6.8
Começo a execução
    /-------------------------------------------------------------------------------\
    |    Makespan   |   Free Jobs   | Free Machines |    It. Time   |   Total Time  | 
    |-------------------------------------------------------------------------------|
    \-------------------------------------------------------------------------------/
Terminou a execução
