Instance....: instances/I_250_20_S_1-99_7.txt
Algorithm...: Simulated Annealing (alpha=0.990, saMax=10M, t0=1)
Other params: maxIters=100M, seed=-1, timeLimit=3600.00s

    /--------------------------------------------------------\
    |     Iter |   RDP(%) |       S* |       S' |       Time | 
    |----------|----------|----------|----------|------------|
    |        0 |        - |     2100 |     2100 |       0.00 | s0
    |        3 |        - |     2013 |     2013 |       0.01 | *
    |        5 |        - |     1966 |     1966 |       0.01 | *
    |       13 |        - |     1938 |     1938 |       0.03 | *
    |       17 |        - |     1900 |     1900 |       0.03 | *
    |       18 |        - |     1885 |     1885 |       0.03 | *
    |       21 |        - |     1880 |     1880 |       0.03 | *
    |       25 |        - |     1824 |     1824 |       0.03 | *
    |       26 |        - |     1792 |     1792 |       0.03 | *
    |       29 |        - |     1774 |     1774 |       0.03 | *
    |       30 |        - |     1690 |     1690 |       0.04 | *
    |       31 |        - |     1671 |     1671 |       0.04 | *
    |       33 |        - |     1667 |     1667 |       0.04 | *
    |       40 |        - |     1627 |     1627 |       0.04 | *
    |       41 |        - |     1622 |     1622 |       0.04 | *
    |       47 |        - |     1609 |     1609 |       0.04 | *
    |       48 |        - |     1590 |     1590 |       0.04 | *
    |       49 |        - |     1569 |     1569 |       0.04 | *
    |       51 |        - |     1535 |     1535 |       0.04 | *
    |       54 |        - |     1525 |     1525 |       0.04 | *
    |       59 |        - |     1519 |     1519 |       0.04 | *
    |       60 |        - |     1512 |     1512 |       0.04 | *
    |       62 |        - |     1493 |     1493 |       0.05 | *
    |       63 |        - |     1459 |     1459 |       0.05 | *
    |       66 |        - |     1444 |     1444 |       0.05 | *
    |       67 |        - |     1425 |     1425 |       0.05 | *
    |       72 |        - |     1401 |     1401 |       0.05 | *
    |       76 |        - |     1399 |     1399 |       0.05 | *
    |       80 |        - |     1390 |     1390 |       0.05 | *
    |       85 |        - |     1376 |     1376 |       0.05 | *
    |       97 |        - |     1363 |     1363 |       0.05 | *
    |      103 |        - |     1362 |     1362 |       0.05 | *
    |      104 |        - |     1360 |     1360 |       0.06 | *
    |      106 |        - |     1341 |     1341 |       0.06 | *
    |      110 |        - |     1325 |     1325 |       0.06 | *
    |      112 |        - |     1318 |     1318 |       0.06 | *
    |      115 |        - |     1314 |     1314 |       0.06 | *
    |      117 |        - |     1289 |     1289 |       0.06 | *
    |      125 |        - |     1279 |     1279 |       0.06 | *
    |      126 |        - |     1276 |     1276 |       0.06 | *
    |      132 |        - |     1244 |     1244 |       0.06 | *
    |      133 |        - |     1242 |     1242 |       0.06 | *
    |      134 |        - |     1239 |     1239 |       0.06 | *
    |      136 |        - |     1237 |     1237 |       0.06 | *
    |      146 |        - |     1229 |     1229 |       0.06 | *
    |      149 |        - |     1217 |     1217 |       0.06 | *
    |      155 |        - |     1215 |     1215 |       0.06 | *
    |      167 |        - |     1214 |     1214 |       0.07 | *
    |      168 |        - |     1211 |     1211 |       0.07 | *
    |      183 |        - |     1209 |     1209 |       0.07 | *
    |      190 |        - |     1208 |     1208 |       0.07 | *
    |      201 |        - |     1186 |     1186 |       0.07 | *
    |      213 |        - |     1183 |     1183 |       0.07 | *
    |      216 |        - |     1179 |     1179 |       0.07 | *
    |      221 |        - |     1170 |     1170 |       0.07 | *
    |      223 |        - |     1169 |     1169 |       0.07 | *
    |      224 |        - |     1162 |     1162 |       0.07 | *
    |      230 |        - |     1155 |     1155 |       0.07 | *
    |      237 |        - |     1154 |     1154 |       0.07 | *
    |      238 |        - |     1152 |     1152 |       0.07 | *
    |      241 |        - |     1143 |     1143 |       0.08 | *
    |      247 |        - |     1131 |     1131 |       0.08 | *
    |      251 |        - |     1130 |     1130 |       0.08 | *
    |      252 |        - |     1128 |     1128 |       0.08 | *
    |      265 |        - |     1110 |     1110 |       0.08 | *
    |      266 |        - |     1108 |     1108 |       0.08 | *
    |      312 |        - |     1094 |     1094 |       0.08 | *
    |      335 |        - |     1083 |     1083 |       0.08 | *
    |      355 |        - |     1062 |     1062 |       0.08 | *
    |      357 |        - |     1053 |     1053 |       0.08 | *
    |      368 |        - |     1042 |     1042 |       0.08 | *
    |      372 |        - |     1033 |     1033 |       0.08 | *
    |      379 |        - |     1019 |     1019 |       0.08 | *
    |      385 |        - |     1009 |     1009 |       0.09 | *
    |      409 |        - |     1000 |     1000 |       0.09 | *
    |      419 |        - |      996 |      996 |       0.09 | *
    |      427 |        - |      994 |      994 |       0.09 | *
    |      445 |        - |      987 |      987 |       0.09 | *
    |      453 |        - |      986 |      986 |       0.09 | *
    |      461 |        - |      985 |      985 |       0.09 | *
    |      468 |        - |      983 |      983 |       0.09 | *
    |      470 |        - |      980 |      980 |       0.09 | *
    |      471 |        - |      970 |      970 |       0.09 | *
    |      475 |        - |      960 |      960 |       0.09 | *
    |      485 |        - |      947 |      947 |       0.09 | *
    |      490 |        - |      941 |      941 |       0.09 | *
    |      508 |        - |      939 |      939 |       0.09 | *
    |      522 |        - |      937 |      937 |       0.09 | *
    |      539 |        - |      935 |      935 |       0.10 | *
    |      557 |        - |      934 |      934 |       0.10 | *
    |      562 |        - |      927 |      927 |       0.10 | *
    |      566 |        - |      924 |      924 |       0.10 | *
    |      569 |        - |      922 |      922 |       0.10 | *
    |      593 |        - |      907 |      907 |       0.10 | *
    |      598 |        - |      904 |      904 |       0.10 | *
    |      600 |        - |      901 |      901 |       0.10 | *
    |      659 |        - |      900 |      900 |       0.10 | *
    |      663 |        - |      899 |      899 |       0.10 | *
    |      668 |        - |      894 |      894 |       0.10 | *
    |      681 |        - |      891 |      891 |       0.10 | *
    |      686 |        - |      883 |      883 |       0.10 | *
    |      702 |        - |      881 |      881 |       0.10 | *
    |      706 |        - |      880 |      880 |       0.10 | *
    |      720 |        - |      879 |      879 |       0.11 | *
    |      723 |        - |      874 |      874 |       0.11 | *
    |      735 |        - |      873 |      873 |       0.11 | *
    |      739 |        - |      871 |      871 |       0.11 | *
    |      745 |        - |      870 |      870 |       0.11 | *
    |      747 |        - |      868 |      868 |       0.11 | *
    |      774 |        - |      865 |      865 |       0.11 | *
    |      793 |        - |      862 |      862 |       0.11 | *
    |      804 |        - |      857 |      857 |       0.11 | *
    |      810 |        - |      856 |      856 |       0.11 | *
    |      816 |        - |      855 |      855 |       0.11 | *
    |      817 |        - |      853 |      853 |       0.11 | *
    |      818 |        - |      847 |      847 |       0.11 | *
    |      819 |        - |      840 |      840 |       0.11 | *
    |      822 |        - |      839 |      839 |       0.11 | *
    |      832 |        - |      837 |      837 |       0.11 | *
    |      833 |        - |      833 |      833 |       0.12 | *
    |      834 |        - |      828 |      828 |       0.12 | *
    |      850 |        - |      823 |      823 |       0.12 | *
    |      899 |        - |      819 |      819 |       0.12 | *
    |      906 |        - |      816 |      816 |       0.12 | *
    |      907 |        - |      813 |      813 |       0.12 | *
    |      917 |        - |      811 |      811 |       0.12 | *
    |      929 |        - |      806 |      806 |       0.12 | *
    |      930 |        - |      797 |      797 |       0.12 | *
    |      949 |        - |      793 |      793 |       0.12 | *
    |      966 |        - |      791 |      791 |       0.12 | *
    |      976 |        - |      789 |      789 |       0.13 | *
    |      977 |        - |      785 |      785 |       0.13 | *
    |      987 |        - |      781 |      781 |       0.13 | *
    |      994 |        - |      773 |      773 |       0.13 | *
    |     1062 |        - |      769 |      769 |       0.13 | *
    |     1063 |        - |      768 |      768 |       0.13 | *
    |     1066 |        - |      766 |      766 |       0.13 | *
    |     1121 |        - |      764 |      764 |       0.13 | *
    |     1146 |        - |      759 |      759 |       0.13 | *
    |     1152 |        - |      754 |      754 |       0.13 | *
    |     1155 |        - |      753 |      753 |       0.13 | *
    |     1206 |        - |      752 |      752 |       0.13 | *
    |     1212 |        - |      749 |      749 |       0.13 | *
    |     1248 |        - |      748 |      748 |       0.13 | *
    |     1256 |        - |      747 |      747 |       0.13 | *
    |     1268 |        - |      746 |      746 |       0.13 | *
    |     1284 |        - |      745 |      745 |       0.13 | *
    |     1287 |        - |      740 |      740 |       0.13 | *
    |     1303 |        - |      736 |      736 |       0.13 | *
    |     1306 |        - |      735 |      735 |       0.13 | *
    |     1322 |        - |      734 |      734 |       0.13 | *
    |     1344 |        - |      733 |      733 |       0.14 | *
    |     1370 |        - |      729 |      729 |       0.14 | *
    |     1374 |        - |      727 |      727 |       0.14 | *
    |     1386 |        - |      725 |      725 |       0.14 | *
    |     1388 |        - |      724 |      724 |       0.14 | *
    |     1395 |        - |      722 |      722 |       0.14 | *
    |     1397 |        - |      721 |      721 |       0.14 | *
    |     1399 |        - |      714 |      714 |       0.14 | *
    |     1406 |        - |      712 |      712 |       0.14 | *
    |     1414 |        - |      711 |      711 |       0.14 | *
    |     1415 |        - |      709 |      709 |       0.14 | *
    |     1437 |        - |      708 |      708 |       0.14 | *
    |     1472 |        - |      706 |      706 |       0.14 | *
    |     1526 |        - |      705 |      705 |       0.14 | *
    |     1531 |        - |      703 |      703 |       0.14 | *
    |     1532 |        - |      699 |      699 |       0.14 | *
    |     1536 |        - |      698 |      698 |       0.14 | *
    |     1541 |        - |      696 |      696 |       0.14 | *
    |     1543 |        - |      693 |      693 |       0.15 | *
    |     1557 |        - |      691 |      691 |       0.15 | *
    |     1558 |        - |      688 |      688 |       0.15 | *
    |     1566 |        - |      686 |      686 |       0.15 | *
    |     1573 |        - |      685 |      685 |       0.15 | *
    |     1650 |        - |      684 |      684 |       0.15 | *
    |     1654 |        - |      682 |      682 |       0.15 | *
    |     1662 |        - |      681 |      681 |       0.15 | *
    |     1663 |        - |      680 |      680 |       0.15 | *
    |     1665 |        - |      679 |      679 |       0.15 | *
    |     1666 |        - |      678 |      678 |       0.15 | *
    |     1673 |        - |      676 |      676 |       0.15 | *
    |     1694 |        - |      672 |      672 |       0.15 | *
    |     1740 |        - |      671 |      671 |       0.15 | *
    |     1794 |        - |      668 |      668 |       0.15 | *
    |     1813 |        - |      667 |      667 |       0.15 | *
    |     1820 |        - |      661 |      661 |       0.15 | *
    |     1825 |        - |      658 |      658 |       0.15 | *
    |     1865 |        - |      657 |      657 |       0.16 | *
    |     1885 |        - |      656 |      656 |       0.16 | *
    |     1907 |        - |      655 |      655 |       0.16 | *
    |     1950 |        - |      652 |      652 |       0.16 | *
    |     1952 |        - |      650 |      650 |       0.16 | *
    |     1953 |        - |      649 |      649 |       0.16 | *
    |     1993 |        - |      648 |      648 |       0.16 | *
    |     1999 |        - |      647 |      647 |       0.16 | *
    |     2013 |        - |      646 |      646 |       0.16 | *
    |     2109 |        - |      640 |      640 |       0.16 | *
    |     2176 |        - |      638 |      638 |       0.16 | *
    |     2184 |        - |      637 |      637 |       0.16 | *
    |     2221 |        - |      635 |      635 |       0.16 | *
    |     2226 |        - |      634 |      634 |       0.16 | *
    |     2237 |        - |      631 |      631 |       0.16 | *
    |     2352 |        - |      628 |      628 |       0.17 | *
    |     2392 |        - |      627 |      627 |       0.17 | *
    |     2429 |        - |      624 |      624 |       0.17 | *
    |     2443 |        - |      622 |      622 |       0.17 | *
    |     2498 |        - |      621 |      621 |       0.17 | *
    |     2515 |        - |      619 |      619 |       0.17 | *
    |     2538 |        - |      615 |      615 |       0.17 | *
    |     2541 |        - |      614 |      614 |       0.17 | *
    |     2592 |        - |      608 |      608 |       0.17 | *
    |     2628 |        - |      606 |      606 |       0.17 | *
    |     2664 |        - |      605 |      605 |       0.17 | *
    |     2666 |        - |      604 |      604 |       0.17 | *
    |     2667 |        - |      603 |      603 |       0.17 | *
    |     2697 |        - |      600 |      600 |       0.17 | *
    |     2720 |        - |      599 |      599 |       0.17 | *
    |     2772 |        - |      597 |      597 |       0.17 | *
    |     2914 |        - |      596 |      596 |       0.17 | *
    |     3046 |        - |      592 |      592 |       0.17 | *
    |     3112 |        - |      591 |      591 |       0.18 | *
    |     3119 |        - |      590 |      590 |       0.18 | *
    |     3233 |        - |      589 |      589 |       0.18 | *
    |     3277 |        - |      587 |      587 |       0.18 | *
    |     3403 |        - |      584 |      584 |       0.18 | *
    |     3495 |        - |      583 |      583 |       0.18 | *
    |     3585 |        - |      582 |      582 |       0.18 | *
    |     3623 |        - |      581 |      581 |       0.18 | *
    |     3626 |        - |      577 |      577 |       0.18 | *
    |     3707 |        - |      576 |      576 |       0.18 | *
    |     3824 |        - |      575 |      575 |       0.18 | *
    |     3884 |        - |      574 |      574 |       0.18 | *
    |     3962 |        - |      573 |      573 |       0.18 | *
    |     3971 |        - |      569 |      569 |       0.18 | *
    |     4018 |        - |      568 |      568 |       0.18 | *
    |     4031 |        - |      567 |      567 |       0.18 | *
    |     4047 |        - |      566 |      566 |       0.18 | *
    |     4059 |        - |      565 |      565 |       0.19 | *
    |     4151 |        - |      564 |      564 |       0.19 | *
    |     4160 |        - |      563 |      563 |       0.19 | *
    |     4173 |        - |      562 |      562 |       0.19 | *
    |     4260 |        - |      561 |      561 |       0.19 | *
    |     4261 |        - |      560 |      560 |       0.19 | *
    |     4314 |        - |      558 |      558 |       0.19 | *
    |     4316 |        - |      557 |      557 |       0.19 | *
    |     4324 |        - |      556 |      556 |       0.19 | *
    |     4356 |        - |      555 |      555 |       0.19 | *
    |     4826 |        - |      554 |      554 |       0.19 | *
    |     4838 |        - |      553 |      553 |       0.19 | *
    |     4859 |        - |      551 |      551 |       0.19 | *
    |     4882 |        - |      550 |      550 |       0.19 | *
    |     4892 |        - |      549 |      549 |       0.20 | *
    |     4926 |        - |      547 |      547 |       0.20 | *
    |     4981 |        - |      546 |      546 |       0.20 | *
    |     5000 |        - |      544 |      544 |       0.20 | *
    |     5024 |        - |      541 |      541 |       0.20 | *
    |     5068 |        - |      540 |      540 |       0.20 | *
    |     5076 |        - |      537 |      537 |       0.20 | *
    |     5119 |        - |      535 |      535 |       0.20 | *
    |     5173 |        - |      534 |      534 |       0.20 | *
    |     5194 |        - |      532 |      532 |       0.20 | *
    |     5256 |        - |      531 |      531 |       0.20 | *
    |     5302 |        - |      529 |      529 |       0.20 | *
    |     5306 |        - |      527 |      527 |       0.20 | *
    |     5313 |        - |      525 |      525 |       0.20 | *
    |     5455 |        - |      523 |      523 |       0.20 | *
    |     5572 |        - |      522 |      522 |       0.20 | *
    |     5597 |        - |      517 |      517 |       0.20 | *
    |     5651 |        - |      516 |      516 |       0.20 | *
    |     5659 |        - |      515 |      515 |       0.20 | *
    |     5762 |        - |      512 |      512 |       0.21 | *
    |     6141 |        - |      509 |      509 |       0.21 | *
    |     6157 |        - |      508 |      508 |       0.21 | *
    |     6167 |        - |      507 |      507 |       0.21 | *
    |     6228 |        - |      506 |      506 |       0.21 | *
    |     6251 |        - |      505 |      505 |       0.21 | *
    |     6262 |        - |      504 |      504 |       0.21 | *
    |     6304 |        - |      502 |      502 |       0.21 | *
    |     6324 |        - |      500 |      500 |       0.21 | *
    |     6381 |        - |      497 |      497 |       0.21 | *
    |     6413 |        - |      496 |      496 |       0.21 | *
    |     6599 |        - |      492 |      492 |       0.21 | *
    |     6745 |        - |      491 |      491 |       0.21 | *
    |     6748 |        - |      489 |      489 |       0.21 | *
    |     6806 |        - |      487 |      487 |       0.21 | *
    |     6839 |        - |      486 |      486 |       0.21 | *
    |     6914 |        - |      485 |      485 |       0.21 | *
    |     6930 |        - |      484 |      484 |       0.21 | *
    |     7037 |        - |      483 |      483 |       0.21 | *
    |     7160 |        - |      480 |      480 |       0.21 | *
    |     7179 |        - |      476 |      476 |       0.21 | *
    |     7244 |        - |      473 |      473 |       0.21 | *
    |     7275 |        - |      472 |      472 |       0.21 | *
    |     7346 |        - |      470 |      470 |       0.22 | *
    |     7429 |        - |      469 |      469 |       0.22 | *
    |     8068 |        - |      468 |      468 |       0.22 | *
    |     8072 |        - |      465 |      465 |       0.22 | *
    |     8131 |        - |      464 |      464 |       0.22 | *
    |     8371 |        - |      463 |      463 |       0.22 | *
    |     8693 |        - |      462 |      462 |       0.22 | *
    |     8708 |        - |      461 |      461 |       0.22 | *
    |     8801 |        - |      460 |      460 |       0.22 | *
    |     8816 |        - |      459 |      459 |       0.22 | *
    |     9122 |        - |      455 |      455 |       0.22 | *
    |     9130 |        - |      454 |      454 |       0.22 | *
    |     9145 |        - |      451 |      451 |       0.22 | *
    |     9185 |        - |      450 |      450 |       0.22 | *
    |     9222 |        - |      449 |      449 |       0.22 | *
    |     9229 |        - |      448 |      448 |       0.22 | *
    |     9307 |        - |      446 |      446 |       0.22 | *
    |     9314 |        - |      444 |      444 |       0.22 | *
    |     9316 |        - |      443 |      443 |       0.22 | *
    |     9356 |        - |      442 |      442 |       0.22 | *
    |     9358 |        - |      439 |      439 |       0.22 | *
    |     9362 |        - |      437 |      437 |       0.22 | *
    |     9377 |        - |      434 |      434 |       0.23 | *
    |     9382 |        - |      432 |      432 |       0.23 | *
    |     9407 |        - |      431 |      431 |       0.23 | *
    |     9425 |        - |      430 |      430 |       0.23 | *
    |     9968 |        - |      429 |      429 |       0.23 | *
    |      11K |        - |      428 |      428 |       0.23 | *
    |      11K |        - |      426 |      426 |       0.23 | *
    |      11K |        - |      425 |      425 |       0.23 | *
    |      11K |        - |      424 |      424 |       0.23 | *
    |      11K |        - |      423 |      423 |       0.23 | *
    |      11K |        - |      422 |      422 |       0.23 | *
    |      11K |        - |      420 |      420 |       0.23 | *
    |      12K |        - |      418 |      418 |       0.23 | *
    |      12K |        - |      417 |      417 |       0.23 | *
    |      12K |        - |      413 |      413 |       0.23 | *
    |      12K |        - |      411 |      411 |       0.23 | *
    |      12K |        - |      408 |      408 |       0.24 | *
    |      12K |        - |      407 |      407 |       0.24 | *
    |      12K |        - |      406 |      406 |       0.24 | *
    |      14K |        - |      405 |      405 |       0.24 | *
    |      16K |        - |      404 |      404 |       0.24 | *
    |      16K |        - |      403 |      403 |       0.24 | *
    |      16K |        - |      400 |      400 |       0.25 | *
    |      16K |        - |      399 |      399 |       0.25 | *
    |      16K |        - |      396 |      396 |       0.25 | *
    |      16K |        - |      394 |      394 |       0.25 | *
    |      16K |        - |      393 |      393 |       0.25 | *
    |      16K |        - |      392 |      392 |       0.25 | *
    |      16K |        - |      391 |      391 |       0.25 | *
    |      16K |        - |      390 |      390 |       0.25 | *
    |      17K |        - |      389 |      389 |       0.25 | *
    |      17K |        - |      387 |      387 |       0.25 | *
    |      17K |        - |      384 |      384 |       0.25 | *
    |      17K |        - |      383 |      383 |       0.25 | *
    |      18K |        - |      381 |      381 |       0.25 | *
    |      18K |        - |      380 |      380 |       0.25 | *
    |      18K |        - |      379 |      379 |       0.25 | *
    |      18K |        - |      378 |      378 |       0.26 | *
    |      18K |        - |      376 |      376 |       0.26 | *
    |      18K |        - |      375 |      375 |       0.26 | *
    |      19K |        - |      374 |      374 |       0.26 | *
    |      19K |        - |      372 |      372 |       0.26 | *
    |      19K |        - |      371 |      371 |       0.26 | *
    |      20K |        - |      370 |      370 |       0.26 | *
    |      20K |        - |      369 |      369 |       0.26 | *
    |      20K |        - |      367 |      367 |       0.26 | *
    |      21K |        - |      364 |      364 |       0.27 | *
    |      21K |        - |      363 |      363 |       0.27 | *
    |      23K |        - |      362 |      362 |       0.27 | *
    |      23K |        - |      361 |      361 |       0.27 | *
    |      24K |        - |      360 |      360 |       0.27 | *
    |      24K |        - |      359 |      359 |       0.27 | *
    |      26K |        - |      358 |      358 |       0.28 | *
    |      26K |        - |      357 |      357 |       0.28 | *
    |      27K |        - |      356 |      356 |       0.28 | *
    |      29K |        - |      355 |      355 |       0.29 | *
    |      30K |        - |      353 |      353 |       0.29 | *
    |      30K |        - |      352 |      352 |       0.29 | *
    |      30K |        - |      351 |      351 |       0.29 | *
    |      34K |        - |      349 |      349 |       0.30 | *
    |      35K |        - |      348 |      348 |       0.31 | *
    |      35K |        - |      347 |      347 |       0.31 | *
    |      35K |        - |      346 |      346 |       0.31 | *
    |      36K |        - |      344 |      344 |       0.31 | *
    |      37K |        - |      343 |      343 |       0.31 | *
    |      37K |        - |      342 |      342 |       0.31 | *
    |      39K |        - |      341 |      341 |       0.32 | *
    |      39K |        - |      339 |      339 |       0.32 | *
    |      40K |        - |      337 |      337 |       0.32 | *
    |      40K |        - |      336 |      336 |       0.32 | *
    |      40K |        - |      335 |      335 |       0.32 | *
    |      40K |        - |      334 |      334 |       0.32 | *
    |      40K |        - |      333 |      333 |       0.32 | *
    |      41K |        - |      332 |      332 |       0.33 | *
    |      41K |        - |      331 |      331 |       0.33 | *
    |      43K |        - |      330 |      330 |       0.33 | *
    |      43K |        - |      329 |      329 |       0.33 | *
    |      43K |        - |      328 |      328 |       0.33 | *
    |      44K |        - |      327 |      327 |       0.34 | *
    |      45K |        - |      324 |      324 |       0.34 | *
    |      46K |        - |      323 |      323 |       0.34 | *
    |      46K |        - |      322 |      322 |       0.34 | *
    |      46K |        - |      321 |      321 |       0.34 | *
    |      46K |        - |      319 |      319 |       0.34 | *
    |      47K |        - |      318 |      318 |       0.34 | *
    |      47K |        - |      317 |      317 |       0.35 | *
    |      47K |        - |      316 |      316 |       0.35 | *
    |      48K |        - |      315 |      315 |       0.35 | *
    |      48K |        - |      314 |      314 |       0.35 | *
    |      48K |        - |      313 |      313 |       0.35 | *
    |      49K |        - |      312 |      312 |       0.35 | *
    |      49K |        - |      310 |      310 |       0.35 | *
    |      49K |        - |      309 |      309 |       0.35 | *
    |      50K |        - |      308 |      308 |       0.36 | *
    |      50K |        - |      307 |      307 |       0.36 | *
    |      50K |        - |      306 |      306 |       0.36 | *
    |      51K |        - |      305 |      305 |       0.36 | *
    |      51K |        - |      304 |      304 |       0.36 | *
    |      52K |        - |      303 |      303 |       0.36 | *
    |      55K |        - |      302 |      302 |       0.37 | *
    |      55K |        - |      301 |      301 |       0.38 | *
    |      56K |        - |      300 |      300 |       0.38 | *
    |      56K |        - |      298 |      298 |       0.38 | *
    |      57K |        - |      297 |      297 |       0.38 | *
    |      58K |        - |      296 |      296 |       0.39 | *
    |      63K |        - |      295 |      295 |       0.40 | *
    |      63K |        - |      294 |      294 |       0.40 | *
    |      64K |        - |      293 |      293 |       0.40 | *
    |      67K |        - |      292 |      292 |       0.40 | *
    |      67K |        - |      291 |      291 |       0.40 | *
    |      70K |        - |      290 |      290 |       0.41 | *
    |      72K |        - |      289 |      289 |       0.42 | *
    |      72K |        - |      288 |      288 |       0.42 | *
    |      72K |        - |      287 |      287 |       0.42 | *
    |      73K |        - |      286 |      286 |       0.42 | *
    |      75K |        - |      285 |      285 |       0.43 | *
    |      76K |        - |      283 |      283 |       0.43 | *
    |      78K |        - |      282 |      282 |       0.44 | *
    |      79K |        - |      281 |      281 |       0.44 | *
    |      79K |        - |      280 |      280 |       0.44 | *
    |      79K |        - |      279 |      279 |       0.44 | *
    |      79K |        - |      278 |      278 |       0.44 | *
    |      81K |        - |      277 |      277 |       0.45 | *
    |      81K |        - |      276 |      276 |       0.45 | *
    |      82K |        - |      273 |      273 |       0.45 | *
    |      82K |        - |      272 |      272 |       0.45 | *
    |      82K |        - |      271 |      271 |       0.45 | *
    |      83K |        - |      270 |      270 |       0.45 | *
    |      85K |        - |      268 |      268 |       0.46 | *
    |     116K |        - |      267 |      267 |       0.56 | *
    |     117K |        - |      266 |      266 |       0.56 | *
    |     117K |        - |      265 |      265 |       0.56 | *
    |     120K |        - |      263 |      263 |       0.58 | *
    |     122K |        - |      262 |      262 |       0.58 | *
    |     124K |        - |      261 |      261 |       0.59 | *
    |     130K |        - |      260 |      260 |       0.61 | *
    |     131K |        - |      259 |      259 |       0.61 | *
    |     139K |        - |      258 |      258 |       0.64 | *
    |     139K |        - |      257 |      257 |       0.64 | *
    |     141K |        - |      256 |      256 |       0.65 | *
    |     188K |        - |      255 |      255 |       0.83 | *
    |     193K |        - |      254 |      254 |       0.84 | *
    |     193K |        - |      253 |      253 |       0.84 | *
    |     195K |        - |      252 |      252 |       0.85 | *
    |     195K |        - |      251 |      251 |       0.85 | *
    |     197K |        - |      250 |      250 |       0.85 | *
    |     197K |        - |      249 |      249 |       0.86 | *
    |     205K |        - |      248 |      248 |       0.88 | *
    |     209K |        - |      247 |      247 |       0.89 | *
    |     219K |        - |      246 |      246 |       0.92 | *
    |     222K |        - |      245 |      245 |       0.93 | *
    |     227K |        - |      244 |      244 |       0.94 | *
    |     234K |        - |      243 |      243 |       0.96 | *
    |     235K |        - |      242 |      242 |       0.96 | *
    |     236K |        - |      241 |      241 |       0.97 | *
    |     248K |        - |      240 |      240 |       1.00 | *
    |     250K |        - |      239 |      239 |       1.00 | *
    |     256K |        - |      238 |      238 |       1.02 | *
    |     262K |        - |      237 |      237 |       1.03 | *
    |     270K |        - |      236 |      236 |       1.05 | *
    |     276K |        - |      235 |      235 |       1.07 | *
    |     287K |        - |      234 |      234 |       1.09 | *
    |     289K |        - |      233 |      233 |       1.09 | *
    |     316K |        - |      232 |      232 |       1.14 | *
    |     447K |        - |      231 |      231 |       1.36 | *
    |     453K |        - |      230 |      230 |       1.37 | *
    |     455K |        - |      229 |      229 |       1.37 | *
    |     465K |        - |      228 |      228 |       1.39 | *
    |     472K |        - |      227 |      227 |       1.40 | *
    |     472K |        - |      226 |      226 |       1.40 | *
    |     492K |        - |      225 |      225 |       1.44 | *
    |     501K |        - |      224 |      224 |       1.47 | *
    |     519K |        - |      223 |      223 |       1.50 | *
    |     540K |        - |      222 |      222 |       1.55 | *
    |     540K |        - |      221 |      221 |       1.55 | *
    |     541K |        - |      220 |      220 |       1.55 | *
    |     546K |        - |      219 |      219 |       1.56 | *
    |     604K |        - |      218 |      218 |       1.67 | *
    |     631K |        - |      217 |      217 |       1.73 | *
    |     632K |        - |      216 |      216 |       1.73 | *
    |     639K |        - |      215 |      215 |       1.75 | *
    |     641K |        - |      214 |      214 |       1.75 | *
    |     646K |        - |      212 |      212 |       1.76 | *
    |     801K |        - |      211 |      211 |       1.97 | *
    |     818K |        - |      210 |      210 |       1.98 | *
    |     867K |        - |      209 |      209 |       2.02 | *
    |     935K |        - |      208 |      208 |       2.08 | *
    |     935K |        - |      207 |      207 |       2.08 | *
    |     961K |        - |      206 |      206 |       2.10 | *
    |    1082K |        - |      205 |      205 |       2.19 | *
    |    1103K |        - |      204 |      204 |       2.21 | *
    |    1579K |        - |      203 |      203 |       2.59 | *
    |    1580K |        - |      202 |      202 |       2.59 | *
    |    1581K |        - |      201 |      201 |       2.59 | *
    |    1591K |        - |      200 |      200 |       2.60 | *
    |    1594K |        - |      199 |      199 |       2.60 | *
    |    1643K |        - |      198 |      198 |       2.64 | *
    |    1669K |        - |      197 |      197 |       2.66 | *
    |    1772K |        - |      195 |      195 |       2.74 | *
    |    1822K |        - |      194 |      194 |       2.78 | *
    |    1903K |        - |      193 |      193 |       2.84 | *
    |    1916K |        - |      192 |      192 |       2.85 | *
    |    2029K |        - |      191 |      191 |       2.95 | *
    |    2141K |        - |      190 |      190 |       3.03 | *
    |    2153K |        - |      189 |      189 |       3.04 | *
    |    2869K |        - |      188 |      188 |       3.63 | *
    |    2883K |        - |      187 |      187 |       3.64 | *
    |    3021K |        - |      186 |      186 |       3.75 | *
    |    3022K |        - |      185 |      185 |       3.75 | *
    |    3189K |        - |      184 |      184 |       3.88 | *
    |    4075K |        - |      183 |      183 |       4.88 | *
    |    5328K |        - |      182 |      182 |       5.93 | *
    |    5471K |        - |      181 |      181 |       6.04 | *
    |    5473K |        - |      180 |      180 |       6.04 | *
    |    5512K |        - |      179 |      179 |       6.07 | *
    |    5761K |        - |      178 |      178 |       6.30 | *
    |    5970K |        - |      177 |      177 |       6.50 | *
    |    7340K |        - |      176 |      176 |       7.74 | *
    |      13M |        - |      175 |      175 |      13.13 | *
    |      16M |        - |      174 |      174 |      16.34 | *
    |      16M |        - |      173 |      173 |      16.35 | *
    |      16M |        - |      172 |      172 |      16.50 | *
    |      17M |        - |      171 |      171 |      17.75 | *
    |      21M |        - |      170 |      170 |      20.51 | *
    |      21M |        - |      168 |      168 |      21.17 | *
    |      41M |        - |      167 |      167 |      36.55 | *
    |      42M |        - |      166 |      166 |      37.23 | *
    |      43M |        - |      165 |      165 |      37.80 | *
    |      49M |        - |      164 |      164 |      42.82 | *
    |      49M |        - |      163 |      163 |      42.92 | *
    |     162M |        - |      161 |      161 |     130.60 | *
    |     165M |        - |      160 |      160 |     132.47 | *
    |     165M |        - |      159 |      159 |     132.88 | *
    |     169M |        - |      158 |      158 |     135.48 | *
    |     331M |        - |      157 |      157 |     260.57 | *
    |     334M |        - |      156 |      156 |     262.45 | *
    |     337M |        - |      155 |      155 |     264.75 | *
    |     365M |        - |      154 |      154 |     286.74 | *
    |     955M |        - |      153 |      153 |     734.74 | *
    |    1048M |        - |      152 |      152 |     805.17 | *
    |    1063M |        - |      151 |      151 |     815.98 | *
    |    1064M |        - |      150 |      150 |     817.12 | *
    \--------------------------------------------------------/

Neighborhoods statistics (values in %):

    /----------------------------------------------------------------\
    | Move               | Improvs. | Sideways |  Accepts |  Rejects |
    |--------------------|----------|----------|----------|----------|
    | Shift(mk)          |     8403 |      17K |      27K |     199M |
    | Shift              |      426 |     390K |     397K |     199M |
    | ShiftSmart(mk)     |      87K |     172K |     284K |     199M |
    | ShiftSmart         |     4405 |    4040K |    4109K |     195M |
    | SimpSwap(mk)       |       62 |      104 |      180 |     199M |
    | SimpSwap           |        7 |      492 |      546 |     199M |
    | SimpSwapSmart(mk)  |      490 |     1175 |     1810 |     199M |
    | SimpSwapSmart      |       60 |     4837 |     5382 |     199M |
    | Swap(mk)           |       11 |       16 |       33 |     199M |
    | Swap               |        3 |       58 |       66 |     199M |
    | SwapSmart(mk)      |      420 |      969 |     1551 |     199M |
    | SwapSmart          |       41 |     4358 |     4737 |     199M |
    | Switch(mk)         |     1928 |      15M |      15M |     183M |
    | Switch             |       95 |      16M |      16M |     183M |
    | SwitchSmart(mk)    |      20K |      37K |      61K |     199M |
    | SwitchSmart        |      960 |     713K |     730K |     198M |
    | TaskMove(mk)       |      566 |     2314 |     3079 |     199M |
    | TaskMove           |       32 |     5135 |     5537 |     199M |
    | TaskMoveSmart(mk)  |     6132 |      28K |      37K |     199M |
    | TaskMoveSmart      |      482 |      59K |      64K |     199M |
    | 2-Shift(mk)        |     1741 |    1300K |    1302K |     197M |
    | 2-Shift            |       83 |    1568K |    1569K |     197M |
    | 2-ShiftSmart(mk)   |      17K |    3768K |    3788K |     195M |
    | 2-ShiftSmart       |      852 |    3147K |    3159K |     196M |
    \----------------------------------------------------------------/

Best makespan.....: 150
N. of Iterations..: 4773184032
Total runtime.....: 3600.01s
Using Python-MIP package version 1.6.8
Começo a execução
    /-------------------------------------------------------------------------------\
    |    Makespan   |   Free Jobs   | Free Machines |    It. Time   |   Total Time  | 
    |-------------------------------------------------------------------------------|
    \-------------------------------------------------------------------------------/
Terminou a execução
