Instance....: instances/I_250_30_S_1-49_9.txt
Algorithm...: Simulated Annealing (alpha=0.990, saMax=10M, t0=1)
Other params: maxIters=100M, seed=-1, timeLimit=3600.00s

    /--------------------------------------------------------\
    |     Iter |   RDP(%) |       S* |       S' |       Time | 
    |----------|----------|----------|----------|------------|
    |        0 |        - |     1340 |     1340 |       0.00 | s0
    |        3 |        - |     1290 |     1290 |       0.01 | *
    |        5 |        - |     1228 |     1228 |       0.01 | *
    |       11 |        - |     1175 |     1175 |       0.01 | *
    |       17 |        - |     1114 |     1114 |       0.03 | *
    |       18 |        - |     1067 |     1067 |       0.03 | *
    |       21 |        - |      962 |      962 |       0.03 | *
    |       23 |        - |      936 |      936 |       0.03 | *
    |       30 |        - |      926 |      926 |       0.04 | *
    |       31 |        - |      865 |      865 |       0.04 | *
    |       36 |        - |      858 |      858 |       0.04 | *
    |       38 |        - |      856 |      856 |       0.04 | *
    |       40 |        - |      847 |      847 |       0.04 | *
    |       44 |        - |      839 |      839 |       0.04 | *
    |       47 |        - |      823 |      823 |       0.04 | *
    |       55 |        - |      820 |      820 |       0.04 | *
    |       56 |        - |      819 |      819 |       0.04 | *
    |       57 |        - |      798 |      798 |       0.05 | *
    |       59 |        - |      792 |      792 |       0.05 | *
    |       60 |        - |      781 |      781 |       0.05 | *
    |       61 |        - |      774 |      774 |       0.05 | *
    |       72 |        - |      760 |      760 |       0.05 | *
    |       80 |        - |      752 |      752 |       0.05 | *
    |       81 |        - |      751 |      751 |       0.05 | *
    |       87 |        - |      746 |      746 |       0.05 | *
    |       88 |        - |      738 |      738 |       0.05 | *
    |       93 |        - |      733 |      733 |       0.05 | *
    |      104 |        - |      726 |      726 |       0.05 | *
    |      110 |        - |      715 |      715 |       0.05 | *
    |      111 |        - |      692 |      692 |       0.05 | *
    |      115 |        - |      687 |      687 |       0.06 | *
    |      123 |        - |      685 |      685 |       0.06 | *
    |      141 |        - |      683 |      683 |       0.06 | *
    |      142 |        - |      681 |      681 |       0.06 | *
    |      156 |        - |      679 |      679 |       0.06 | *
    |      157 |        - |      676 |      676 |       0.06 | *
    |      158 |        - |      675 |      675 |       0.06 | *
    |      161 |        - |      673 |      673 |       0.06 | *
    |      163 |        - |      669 |      669 |       0.06 | *
    |      173 |        - |      665 |      665 |       0.06 | *
    |      175 |        - |      660 |      660 |       0.06 | *
    |      176 |        - |      651 |      651 |       0.07 | *
    |      177 |        - |      649 |      649 |       0.07 | *
    |      186 |        - |      648 |      648 |       0.07 | *
    |      192 |        - |      638 |      638 |       0.07 | *
    |      194 |        - |      637 |      637 |       0.07 | *
    |      199 |        - |      636 |      636 |       0.07 | *
    |      209 |        - |      630 |      630 |       0.07 | *
    |      212 |        - |      627 |      627 |       0.07 | *
    |      213 |        - |      625 |      625 |       0.07 | *
    |      222 |        - |      619 |      619 |       0.07 | *
    |      230 |        - |      617 |      617 |       0.07 | *
    |      235 |        - |      615 |      615 |       0.07 | *
    |      239 |        - |      614 |      614 |       0.07 | *
    |      242 |        - |      612 |      612 |       0.07 | *
    |      245 |        - |      611 |      611 |       0.08 | *
    |      251 |        - |      608 |      608 |       0.08 | *
    |      258 |        - |      606 |      606 |       0.08 | *
    |      279 |        - |      595 |      595 |       0.08 | *
    |      288 |        - |      585 |      585 |       0.08 | *
    |      298 |        - |      580 |      580 |       0.08 | *
    |      304 |        - |      577 |      577 |       0.08 | *
    |      312 |        - |      570 |      570 |       0.08 | *
    |      313 |        - |      569 |      569 |       0.08 | *
    |      317 |        - |      568 |      568 |       0.08 | *
    |      318 |        - |      567 |      567 |       0.08 | *
    |      320 |        - |      566 |      566 |       0.08 | *
    |      323 |        - |      564 |      564 |       0.08 | *
    |      338 |        - |      562 |      562 |       0.09 | *
    |      339 |        - |      559 |      559 |       0.09 | *
    |      345 |        - |      554 |      554 |       0.09 | *
    |      360 |        - |      551 |      551 |       0.09 | *
    |      362 |        - |      543 |      543 |       0.09 | *
    |      373 |        - |      540 |      540 |       0.09 | *
    |      383 |        - |      534 |      534 |       0.09 | *
    |      385 |        - |      533 |      533 |       0.09 | *
    |      386 |        - |      532 |      532 |       0.09 | *
    |      398 |        - |      527 |      527 |       0.09 | *
    |      402 |        - |      519 |      519 |       0.09 | *
    |      403 |        - |      518 |      518 |       0.09 | *
    |      419 |        - |      517 |      517 |       0.09 | *
    |      429 |        - |      516 |      516 |       0.09 | *
    |      433 |        - |      513 |      513 |       0.09 | *
    |      436 |        - |      505 |      505 |       0.10 | *
    |      439 |        - |      504 |      504 |       0.10 | *
    |      447 |        - |      501 |      501 |       0.10 | *
    |      451 |        - |      492 |      492 |       0.10 | *
    |      453 |        - |      489 |      489 |       0.10 | *
    |      456 |        - |      487 |      487 |       0.10 | *
    |      468 |        - |      486 |      486 |       0.10 | *
    |      505 |        - |      485 |      485 |       0.10 | *
    |      518 |        - |      484 |      484 |       0.10 | *
    |      542 |        - |      483 |      483 |       0.10 | *
    |      568 |        - |      482 |      482 |       0.10 | *
    |      570 |        - |      481 |      481 |       0.10 | *
    |      574 |        - |      479 |      479 |       0.10 | *
    |      576 |        - |      477 |      477 |       0.11 | *
    |      578 |        - |      473 |      473 |       0.11 | *
    |      585 |        - |      472 |      472 |       0.11 | *
    |      586 |        - |      470 |      470 |       0.11 | *
    |      592 |        - |      468 |      468 |       0.11 | *
    |      608 |        - |      467 |      467 |       0.11 | *
    |      618 |        - |      464 |      464 |       0.11 | *
    |      627 |        - |      459 |      459 |       0.11 | *
    |      628 |        - |      456 |      456 |       0.11 | *
    |      648 |        - |      452 |      452 |       0.11 | *
    |      650 |        - |      447 |      447 |       0.11 | *
    |      662 |        - |      446 |      446 |       0.11 | *
    |      668 |        - |      440 |      440 |       0.11 | *
    |      676 |        - |      439 |      439 |       0.11 | *
    |      694 |        - |      437 |      437 |       0.11 | *
    |      704 |        - |      435 |      435 |       0.11 | *
    |      726 |        - |      430 |      430 |       0.12 | *
    |      729 |        - |      426 |      426 |       0.12 | *
    |      753 |        - |      425 |      425 |       0.12 | *
    |      756 |        - |      424 |      424 |       0.12 | *
    |      765 |        - |      422 |      422 |       0.12 | *
    |      808 |        - |      419 |      419 |       0.12 | *
    |      858 |        - |      418 |      418 |       0.12 | *
    |      859 |        - |      416 |      416 |       0.12 | *
    |      860 |        - |      414 |      414 |       0.12 | *
    |      864 |        - |      413 |      413 |       0.12 | *
    |      909 |        - |      411 |      411 |       0.12 | *
    |      918 |        - |      410 |      410 |       0.12 | *
    |      935 |        - |      409 |      409 |       0.12 | *
    |      977 |        - |      408 |      408 |       0.13 | *
    |      985 |        - |      407 |      407 |       0.13 | *
    |      994 |        - |      405 |      405 |       0.13 | *
    |      998 |        - |      404 |      404 |       0.13 | *
    |     1010 |        - |      403 |      403 |       0.13 | *
    |     1012 |        - |      402 |      402 |       0.13 | *
    |     1034 |        - |      401 |      401 |       0.13 | *
    |     1035 |        - |      400 |      400 |       0.13 | *
    |     1067 |        - |      399 |      399 |       0.13 | *
    |     1070 |        - |      398 |      398 |       0.13 | *
    |     1080 |        - |      397 |      397 |       0.13 | *
    |     1081 |        - |      396 |      396 |       0.13 | *
    |     1178 |        - |      395 |      395 |       0.13 | *
    |     1185 |        - |      393 |      393 |       0.13 | *
    |     1189 |        - |      392 |      392 |       0.13 | *
    |     1190 |        - |      390 |      390 |       0.14 | *
    |     1195 |        - |      388 |      388 |       0.14 | *
    |     1217 |        - |      387 |      387 |       0.14 | *
    |     1296 |        - |      386 |      386 |       0.14 | *
    |     1304 |        - |      385 |      385 |       0.14 | *
    |     1320 |        - |      384 |      384 |       0.14 | *
    |     1334 |        - |      382 |      382 |       0.14 | *
    |     1335 |        - |      380 |      380 |       0.14 | *
    |     1341 |        - |      379 |      379 |       0.14 | *
    |     1376 |        - |      378 |      378 |       0.14 | *
    |     1523 |        - |      375 |      375 |       0.14 | *
    |     1533 |        - |      374 |      374 |       0.15 | *
    |     1571 |        - |      373 |      373 |       0.15 | *
    |     1584 |        - |      372 |      372 |       0.15 | *
    |     1606 |        - |      371 |      371 |       0.15 | *
    |     1645 |        - |      370 |      370 |       0.15 | *
    |     1648 |        - |      367 |      367 |       0.15 | *
    |     1752 |        - |      365 |      365 |       0.15 | *
    |     1754 |        - |      364 |      364 |       0.15 | *
    |     1785 |        - |      363 |      363 |       0.15 | *
    |     1818 |        - |      362 |      362 |       0.15 | *
    |     1820 |        - |      361 |      361 |       0.15 | *
    |     1854 |        - |      359 |      359 |       0.15 | *
    |     1888 |        - |      357 |      357 |       0.16 | *
    |     1893 |        - |      356 |      356 |       0.16 | *
    |     1935 |        - |      355 |      355 |       0.16 | *
    |     1937 |        - |      353 |      353 |       0.16 | *
    |     1943 |        - |      351 |      351 |       0.16 | *
    |     1956 |        - |      349 |      349 |       0.16 | *
    |     2031 |        - |      348 |      348 |       0.16 | *
    |     2035 |        - |      346 |      346 |       0.16 | *
    |     2064 |        - |      343 |      343 |       0.16 | *
    |     2077 |        - |      342 |      342 |       0.16 | *
    |     2084 |        - |      339 |      339 |       0.16 | *
    |     2086 |        - |      336 |      336 |       0.17 | *
    |     2087 |        - |      333 |      333 |       0.17 | *
    |     2139 |        - |      332 |      332 |       0.17 | *
    |     2140 |        - |      331 |      331 |       0.17 | *
    |     2212 |        - |      330 |      330 |       0.17 | *
    |     2213 |        - |      329 |      329 |       0.17 | *
    |     2247 |        - |      328 |      328 |       0.17 | *
    |     2257 |        - |      327 |      327 |       0.17 | *
    |     2308 |        - |      326 |      326 |       0.17 | *
    |     2320 |        - |      325 |      325 |       0.17 | *
    |     2327 |        - |      323 |      323 |       0.17 | *
    |     2346 |        - |      322 |      322 |       0.17 | *
    |     2400 |        - |      320 |      320 |       0.17 | *
    |     2423 |        - |      319 |      319 |       0.17 | *
    |     2436 |        - |      318 |      318 |       0.18 | *
    |     2445 |        - |      317 |      317 |       0.18 | *
    |     2479 |        - |      316 |      316 |       0.18 | *
    |     2509 |        - |      314 |      314 |       0.18 | *
    |     2610 |        - |      313 |      313 |       0.18 | *
    |     2621 |        - |      312 |      312 |       0.18 | *
    |     2627 |        - |      310 |      310 |       0.18 | *
    |     2673 |        - |      309 |      309 |       0.18 | *
    |     2700 |        - |      307 |      307 |       0.18 | *
    |     2723 |        - |      306 |      306 |       0.18 | *
    |     2800 |        - |      305 |      305 |       0.18 | *
    |     2961 |        - |      303 |      303 |       0.19 | *
    |     2980 |        - |      301 |      301 |       0.19 | *
    |     3052 |        - |      299 |      299 |       0.19 | *
    |     3094 |        - |      298 |      298 |       0.19 | *
    |     3115 |        - |      296 |      296 |       0.19 | *
    |     3144 |        - |      295 |      295 |       0.19 | *
    |     3261 |        - |      294 |      294 |       0.19 | *
    |     3475 |        - |      293 |      293 |       0.19 | *
    |     3550 |        - |      292 |      292 |       0.19 | *
    |     3634 |        - |      291 |      291 |       0.20 | *
    |     3672 |        - |      290 |      290 |       0.20 | *
    |     3752 |        - |      289 |      289 |       0.20 | *
    |     3766 |        - |      288 |      288 |       0.20 | *
    |     3770 |        - |      287 |      287 |       0.20 | *
    |     3823 |        - |      285 |      285 |       0.20 | *
    |     3852 |        - |      284 |      284 |       0.20 | *
    |     3911 |        - |      283 |      283 |       0.20 | *
    |     3921 |        - |      282 |      282 |       0.20 | *
    |     4085 |        - |      281 |      281 |       0.20 | *
    |     4135 |        - |      280 |      280 |       0.20 | *
    |     4183 |        - |      277 |      277 |       0.20 | *
    |     4255 |        - |      276 |      276 |       0.20 | *
    |     4328 |        - |      275 |      275 |       0.21 | *
    |     4359 |        - |      274 |      274 |       0.21 | *
    |     4370 |        - |      273 |      273 |       0.21 | *
    |     4398 |        - |      272 |      272 |       0.21 | *
    |     4440 |        - |      271 |      271 |       0.21 | *
    |     4468 |        - |      270 |      270 |       0.21 | *
    |     4624 |        - |      268 |      268 |       0.21 | *
    |     4683 |        - |      267 |      267 |       0.21 | *
    |     4696 |        - |      265 |      265 |       0.21 | *
    |     4747 |        - |      263 |      263 |       0.21 | *
    |     4842 |        - |      262 |      262 |       0.21 | *
    |     4880 |        - |      261 |      261 |       0.21 | *
    |     5007 |        - |      259 |      259 |       0.22 | *
    |     5011 |        - |      258 |      258 |       0.22 | *
    |     5053 |        - |      257 |      257 |       0.22 | *
    |     5089 |        - |      256 |      256 |       0.22 | *
    |     5095 |        - |      255 |      255 |       0.22 | *
    |     5111 |        - |      254 |      254 |       0.22 | *
    |     5202 |        - |      253 |      253 |       0.22 | *
    |     5229 |        - |      252 |      252 |       0.22 | *
    |     5283 |        - |      251 |      251 |       0.22 | *
    |     5286 |        - |      250 |      250 |       0.22 | *
    |     5345 |        - |      249 |      249 |       0.22 | *
    |     5496 |        - |      248 |      248 |       0.23 | *
    |     5508 |        - |      247 |      247 |       0.23 | *
    |     5567 |        - |      246 |      246 |       0.23 | *
    |     5671 |        - |      245 |      245 |       0.23 | *
    |     5846 |        - |      244 |      244 |       0.23 | *
    |     5897 |        - |      243 |      243 |       0.23 | *
    |     5918 |        - |      242 |      242 |       0.23 | *
    |     6085 |        - |      241 |      241 |       0.23 | *
    |     6164 |        - |      240 |      240 |       0.23 | *
    |     6177 |        - |      239 |      239 |       0.23 | *
    |     6349 |        - |      238 |      238 |       0.23 | *
    |     6481 |        - |      237 |      237 |       0.23 | *
    |     6702 |        - |      235 |      235 |       0.23 | *
    |     6883 |        - |      234 |      234 |       0.23 | *
    |     7217 |        - |      233 |      233 |       0.25 | *
    |     7241 |        - |      232 |      232 |       0.25 | *
    |     7384 |        - |      231 |      231 |       0.25 | *
    |     7641 |        - |      230 |      230 |       0.25 | *
    |     7741 |        - |      229 |      229 |       0.25 | *
    |     7929 |        - |      228 |      228 |       0.25 | *
    |     8210 |        - |      227 |      227 |       0.25 | *
    |     8568 |        - |      226 |      226 |       0.25 | *
    |     8669 |        - |      225 |      225 |       0.25 | *
    |     8699 |        - |      224 |      224 |       0.26 | *
    |     8739 |        - |      223 |      223 |       0.26 | *
    |     8783 |        - |      222 |      222 |       0.26 | *
    |     8833 |        - |      220 |      220 |       0.26 | *
    |     9002 |        - |      219 |      219 |       0.26 | *
    |     9054 |        - |      218 |      218 |       0.26 | *
    |     9234 |        - |      217 |      217 |       0.26 | *
    |     9290 |        - |      216 |      216 |       0.26 | *
    |     9375 |        - |      215 |      215 |       0.26 | *
    |     9425 |        - |      214 |      214 |       0.26 | *
    |     9532 |        - |      213 |      213 |       0.26 | *
    |     9541 |        - |      212 |      212 |       0.26 | *
    |     9725 |        - |      211 |      211 |       0.27 | *
    |      10K |        - |      210 |      210 |       0.27 | *
    |      10K |        - |      209 |      209 |       0.27 | *
    |      11K |        - |      208 |      208 |       0.27 | *
    |      11K |        - |      207 |      207 |       0.27 | *
    |      12K |        - |      206 |      206 |       0.28 | *
    |      12K |        - |      205 |      205 |       0.28 | *
    |      12K |        - |      204 |      204 |       0.28 | *
    |      12K |        - |      203 |      203 |       0.28 | *
    |      12K |        - |      202 |      202 |       0.28 | *
    |      13K |        - |      201 |      201 |       0.28 | *
    |      13K |        - |      200 |      200 |       0.28 | *
    |      13K |        - |      198 |      198 |       0.28 | *
    |      14K |        - |      197 |      197 |       0.29 | *
    |      14K |        - |      196 |      196 |       0.29 | *
    |      14K |        - |      195 |      195 |       0.29 | *
    |      14K |        - |      194 |      194 |       0.29 | *
    |      14K |        - |      192 |      192 |       0.29 | *
    |      14K |        - |      191 |      191 |       0.29 | *
    |      14K |        - |      190 |      190 |       0.29 | *
    |      14K |        - |      189 |      189 |       0.29 | *
    |      14K |        - |      188 |      188 |       0.29 | *
    |      15K |        - |      186 |      186 |       0.29 | *
    |      15K |        - |      185 |      185 |       0.29 | *
    |      16K |        - |      184 |      184 |       0.30 | *
    |      16K |        - |      183 |      183 |       0.30 | *
    |      16K |        - |      182 |      182 |       0.30 | *
    |      17K |        - |      181 |      181 |       0.30 | *
    |      17K |        - |      180 |      180 |       0.30 | *
    |      17K |        - |      179 |      179 |       0.31 | *
    |      19K |        - |      178 |      178 |       0.31 | *
    |      19K |        - |      177 |      177 |       0.31 | *
    |      19K |        - |      176 |      176 |       0.31 | *
    |      19K |        - |      175 |      175 |       0.32 | *
    |      20K |        - |      174 |      174 |       0.32 | *
    |      21K |        - |      173 |      173 |       0.32 | *
    |      22K |        - |      172 |      172 |       0.32 | *
    |      22K |        - |      171 |      171 |       0.33 | *
    |      22K |        - |      170 |      170 |       0.33 | *
    |      23K |        - |      169 |      169 |       0.33 | *
    |      24K |        - |      168 |      168 |       0.34 | *
    |      25K |        - |      167 |      167 |       0.34 | *
    |      25K |        - |      166 |      166 |       0.34 | *
    |      26K |        - |      165 |      165 |       0.34 | *
    |      26K |        - |      164 |      164 |       0.34 | *
    |      26K |        - |      163 |      163 |       0.34 | *
    |      27K |        - |      162 |      162 |       0.35 | *
    |      28K |        - |      161 |      161 |       0.35 | *
    |      28K |        - |      160 |      160 |       0.35 | *
    |      29K |        - |      159 |      159 |       0.35 | *
    |      29K |        - |      158 |      158 |       0.35 | *
    |      30K |        - |      157 |      157 |       0.36 | *
    |      30K |        - |      156 |      156 |       0.36 | *
    |      36K |        - |      155 |      155 |       0.37 | *
    |      36K |        - |      154 |      154 |       0.37 | *
    |      37K |        - |      153 |      153 |       0.37 | *
    |      38K |        - |      152 |      152 |       0.38 | *
    |      38K |        - |      151 |      151 |       0.38 | *
    |      38K |        - |      150 |      150 |       0.38 | *
    |      39K |        - |      149 |      149 |       0.38 | *
    |      40K |        - |      147 |      147 |       0.38 | *
    |      40K |        - |      146 |      146 |       0.38 | *
    |      43K |        - |      145 |      145 |       0.39 | *
    |      44K |        - |      144 |      144 |       0.39 | *
    |      45K |        - |      143 |      143 |       0.39 | *
    |      49K |        - |      142 |      142 |       0.40 | *
    |      51K |        - |      141 |      141 |       0.40 | *
    |      53K |        - |      140 |      140 |       0.41 | *
    |      53K |        - |      139 |      139 |       0.41 | *
    |      54K |        - |      138 |      138 |       0.41 | *
    |      55K |        - |      137 |      137 |       0.41 | *
    |      60K |        - |      136 |      136 |       0.43 | *
    |      68K |        - |      135 |      135 |       0.45 | *
    |      70K |        - |      134 |      134 |       0.46 | *
    |      80K |        - |      133 |      133 |       0.50 | *
    |      85K |        - |      132 |      132 |       0.52 | *
    |     104K |        - |      131 |      131 |       0.59 | *
    |     106K |        - |      130 |      130 |       0.59 | *
    |     106K |        - |      129 |      129 |       0.60 | *
    |     113K |        - |      128 |      128 |       0.63 | *
    |     115K |        - |      127 |      127 |       0.64 | *
    |     123K |        - |      126 |      126 |       0.67 | *
    |     138K |        - |      125 |      125 |       0.72 | *
    |     161K |        - |      124 |      124 |       0.80 | *
    |     170K |        - |      123 |      123 |       0.84 | *
    |     170K |        - |      122 |      122 |       0.84 | *
    |     172K |        - |      121 |      121 |       0.84 | *
    |     189K |        - |      120 |      120 |       0.90 | *
    |     189K |        - |      119 |      119 |       0.90 | *
    |     205K |        - |      118 |      118 |       0.96 | *
    |     236K |        - |      117 |      117 |       1.05 | *
    |     243K |        - |      116 |      116 |       1.07 | *
    |     244K |        - |      115 |      115 |       1.08 | *
    |     291K |        - |      113 |      113 |       1.18 | *
    |     300K |        - |      112 |      112 |       1.20 | *
    |     300K |        - |      111 |      111 |       1.20 | *
    |     328K |        - |      110 |      110 |       1.24 | *
    |     346K |        - |      109 |      109 |       1.27 | *
    |     390K |        - |      108 |      108 |       1.33 | *
    |     530K |        - |      107 |      107 |       1.57 | *
    |     551K |        - |      106 |      106 |       1.63 | *
    |     637K |        - |      105 |      105 |       1.78 | *
    |     669K |        - |      104 |      104 |       1.84 | *
    |     677K |        - |      103 |      103 |       1.85 | *
    |     677K |        - |      102 |      102 |       1.85 | *
    |     725K |        - |      101 |      101 |       1.90 | *
    |     729K |        - |      100 |      100 |       1.91 | *
    |     733K |        - |       99 |       99 |       1.92 | *
    |     754K |        - |       98 |       98 |       1.95 | *
    |     772K |        - |       97 |       97 |       1.97 | *
    |    1258K |        - |       96 |       96 |       2.47 | *
    |    1698K |        - |       95 |       95 |       2.80 | *
    |    2321K |        - |       94 |       94 |       3.31 | *
    |    2346K |        - |       93 |       93 |       3.33 | *
    |    2669K |        - |       92 |       92 |       3.57 | *
    |    2728K |        - |       91 |       91 |       3.62 | *
    |    2765K |        - |       90 |       90 |       3.65 | *
    |      33M |        - |       89 |       89 |      31.46 | *
    |      50M |        - |       88 |       88 |      45.12 | *
    |      50M |        - |       87 |       87 |      45.13 | *
    |     126M |        - |       86 |       86 |     104.30 | *
    |     142M |        - |       85 |       85 |     116.80 | *
    |     189M |        - |       84 |       84 |     153.08 | *
    |     189M |        - |       83 |       83 |     153.10 | *
    |     299M |        - |       82 |       82 |     236.49 | *
    |     300M |        - |       81 |       81 |     237.00 | *
    |     367M |        - |       80 |       80 |     287.97 | *
    |     488M |        - |       79 |       79 |     379.17 | *
    |     524M |        - |       78 |       78 |     405.78 | *
    |     538M |        - |       77 |       77 |     416.71 | *
    |     732M |        - |       76 |       76 |     562.64 | *
    |     736M |        - |       75 |       75 |     566.25 | *
    |     948M |        - |       74 |       74 |     725.50 | *
    |     954M |        - |       73 |       73 |     730.23 | *
    |     958M |        - |       72 |       72 |     733.33 | *
    \--------------------------------------------------------/

Neighborhoods statistics (values in %):

    /----------------------------------------------------------------\
    | Move               | Improvs. | Sideways |  Accepts |  Rejects |
    |--------------------|----------|----------|----------|----------|
    | Shift(mk)          |      55K |     195K |     271K |     201M |
    | Shift              |     1904 |    2097K |    2144K |     200M |
    | ShiftSmart(mk)     |     346K |    1250K |    1723K |     200M |
    | ShiftSmart         |      12K |      11M |      11M |     190M |
    | SimpSwap(mk)       |      257 |      747 |     1145 |     202M |
    | SimpSwap           |       16 |     3590 |     3918 |     202M |
    | SimpSwapSmart(mk)  |     1977 |     5362 |     8335 |     202M |
    | SimpSwapSmart      |      132 |      25K |      28K |     202M |
    | Swap(mk)           |       98 |      232 |      367 |     202M |
    | Swap               |        9 |     1131 |     1225 |     202M |
    | SwapSmart(mk)      |     2070 |     6719 |     9799 |     202M |
    | SwapSmart          |      133 |      26K |      28K |     202M |
    | Switch(mk)         |      20K |      23M |      23M |     179M |
    | Switch             |      645 |      26M |      26M |     176M |
    | SwitchSmart(mk)    |     122K |     311K |     478K |     201M |
    | SwitchSmart        |     4124 |    3728K |    3812K |     198M |
    | TaskMove(mk)       |     3074 |     9640 |      14K |     202M |
    | TaskMove           |      103 |      24K |      26K |     202M |
    | TaskMoveSmart(mk)  |      20K |      66K |      95K |     202M |
    | TaskMoveSmart      |      753 |     167K |     180K |     201M |
    | 2-Shift(mk)        |      20K |    3189K |    3216K |     198M |
    | 2-Shift            |      670 |    4724K |    4742K |     197M |
    | 2-ShiftSmart(mk)   |     132K |    3740K |    3902K |     198M |
    | 2-ShiftSmart       |     4256 |    9396K |    9472K |     192M |
    \----------------------------------------------------------------/

Best makespan.....: 72
N. of Iterations..: 4841993973
Total runtime.....: 3600.02s
Using Python-MIP package version 1.6.8
Começo a execução
    /-------------------------------------------------------------------------------\
    |    Makespan   |   Free Jobs   | Free Machines |    It. Time   |   Total Time  | 
    |-------------------------------------------------------------------------------|
    \-------------------------------------------------------------------------------/
Terminou a execução
