Instance....: instances/I_250_10_S_1-99_2.txt
Algorithm...: Simulated Annealing (alpha=0.990, saMax=10M, t0=1)
Other params: maxIters=100M, seed=-1, timeLimit=3600.00s

    /--------------------------------------------------------\
    |     Iter |   RDP(%) |       S* |       S' |       Time | 
    |----------|----------|----------|----------|------------|
    |        0 |        - |     2949 |     2949 |       0.00 | s0
    |        6 |        - |     2911 |     2911 |       0.02 | *
    |        7 |        - |     2883 |     2883 |       0.02 | *
    |       14 |        - |     2759 |     2759 |       0.02 | *
    |       15 |        - |     2679 |     2679 |       0.03 | *
    |       16 |        - |     2675 |     2675 |       0.03 | *
    |       18 |        - |     2617 |     2617 |       0.03 | *
    |       19 |        - |     2604 |     2604 |       0.03 | *
    |       21 |        - |     2577 |     2577 |       0.03 | *
    |       25 |        - |     2544 |     2544 |       0.03 | *
    |       27 |        - |     2526 |     2526 |       0.04 | *
    |       28 |        - |     2523 |     2523 |       0.04 | *
    |       29 |        - |     2516 |     2516 |       0.04 | *
    |       31 |        - |     2507 |     2507 |       0.04 | *
    |       32 |        - |     2497 |     2497 |       0.04 | *
    |       43 |        - |     2477 |     2477 |       0.04 | *
    |       48 |        - |     2470 |     2470 |       0.04 | *
    |       53 |        - |     2419 |     2419 |       0.04 | *
    |       54 |        - |     2417 |     2417 |       0.04 | *
    |       59 |        - |     2409 |     2409 |       0.04 | *
    |       62 |        - |     2345 |     2345 |       0.04 | *
    |       70 |        - |     2344 |     2344 |       0.04 | *
    |       71 |        - |     2328 |     2328 |       0.05 | *
    |       73 |        - |     2317 |     2317 |       0.05 | *
    |       74 |        - |     2305 |     2305 |       0.05 | *
    |       79 |        - |     2281 |     2281 |       0.05 | *
    |       80 |        - |     2280 |     2280 |       0.05 | *
    |       81 |        - |     2270 |     2270 |       0.05 | *
    |       84 |        - |     2263 |     2263 |       0.05 | *
    |       85 |        - |     2260 |     2260 |       0.05 | *
    |       86 |        - |     2246 |     2246 |       0.05 | *
    |       89 |        - |     2221 |     2221 |       0.05 | *
    |       90 |        - |     2209 |     2209 |       0.05 | *
    |      111 |        - |     2198 |     2198 |       0.05 | *
    |      112 |        - |     2188 |     2188 |       0.05 | *
    |      118 |        - |     2178 |     2178 |       0.05 | *
    |      121 |        - |     2171 |     2171 |       0.05 | *
    |      122 |        - |     2168 |     2168 |       0.06 | *
    |      127 |        - |     2151 |     2151 |       0.06 | *
    |      128 |        - |     2141 |     2141 |       0.06 | *
    |      130 |        - |     2134 |     2134 |       0.06 | *
    |      132 |        - |     2123 |     2123 |       0.06 | *
    |      143 |        - |     2106 |     2106 |       0.06 | *
    |      150 |        - |     2105 |     2105 |       0.06 | *
    |      151 |        - |     2099 |     2099 |       0.06 | *
    |      152 |        - |     2084 |     2084 |       0.06 | *
    |      153 |        - |     2065 |     2065 |       0.06 | *
    |      162 |        - |     2060 |     2060 |       0.06 | *
    |      167 |        - |     2046 |     2046 |       0.06 | *
    |      168 |        - |     2034 |     2034 |       0.06 | *
    |      174 |        - |     2031 |     2031 |       0.06 | *
    |      175 |        - |     2025 |     2025 |       0.07 | *
    |      177 |        - |     2017 |     2017 |       0.07 | *
    |      179 |        - |     2015 |     2015 |       0.07 | *
    |      182 |        - |     2009 |     2009 |       0.07 | *
    |      186 |        - |     1982 |     1982 |       0.07 | *
    |      189 |        - |     1979 |     1979 |       0.07 | *
    |      191 |        - |     1961 |     1961 |       0.07 | *
    |      192 |        - |     1943 |     1943 |       0.07 | *
    |      207 |        - |     1942 |     1942 |       0.07 | *
    |      208 |        - |     1941 |     1941 |       0.07 | *
    |      209 |        - |     1930 |     1930 |       0.07 | *
    |      212 |        - |     1927 |     1927 |       0.07 | *
    |      216 |        - |     1918 |     1918 |       0.07 | *
    |      220 |        - |     1913 |     1913 |       0.07 | *
    |      228 |        - |     1907 |     1907 |       0.07 | *
    |      229 |        - |     1899 |     1899 |       0.07 | *
    |      233 |        - |     1886 |     1886 |       0.07 | *
    |      237 |        - |     1881 |     1881 |       0.08 | *
    |      242 |        - |     1878 |     1878 |       0.08 | *
    |      249 |        - |     1873 |     1873 |       0.08 | *
    |      251 |        - |     1865 |     1865 |       0.08 | *
    |      259 |        - |     1859 |     1859 |       0.08 | *
    |      269 |        - |     1852 |     1852 |       0.08 | *
    |      277 |        - |     1845 |     1845 |       0.08 | *
    |      278 |        - |     1823 |     1823 |       0.08 | *
    |      297 |        - |     1822 |     1822 |       0.08 | *
    |      305 |        - |     1819 |     1819 |       0.08 | *
    |      308 |        - |     1814 |     1814 |       0.08 | *
    |      311 |        - |     1793 |     1793 |       0.08 | *
    |      321 |        - |     1780 |     1780 |       0.08 | *
    |      335 |        - |     1777 |     1777 |       0.08 | *
    |      344 |        - |     1776 |     1776 |       0.08 | *
    |      345 |        - |     1770 |     1770 |       0.08 | *
    |      347 |        - |     1757 |     1757 |       0.08 | *
    |      362 |        - |     1740 |     1740 |       0.09 | *
    |      372 |        - |     1733 |     1733 |       0.09 | *
    |      387 |        - |     1728 |     1728 |       0.09 | *
    |      392 |        - |     1721 |     1721 |       0.09 | *
    |      405 |        - |     1717 |     1717 |       0.09 | *
    |      413 |        - |     1703 |     1703 |       0.09 | *
    |      415 |        - |     1695 |     1695 |       0.09 | *
    |      418 |        - |     1691 |     1691 |       0.09 | *
    |      423 |        - |     1686 |     1686 |       0.09 | *
    |      425 |        - |     1680 |     1680 |       0.09 | *
    |      444 |        - |     1667 |     1667 |       0.09 | *
    |      450 |        - |     1665 |     1665 |       0.09 | *
    |      455 |        - |     1653 |     1653 |       0.09 | *
    |      492 |        - |     1649 |     1649 |       0.09 | *
    |      501 |        - |     1627 |     1627 |       0.09 | *
    |      548 |        - |     1623 |     1623 |       0.09 | *
    |      565 |        - |     1618 |     1618 |       0.10 | *
    |      566 |        - |     1617 |     1617 |       0.10 | *
    |      567 |        - |     1613 |     1613 |       0.10 | *
    |      576 |        - |     1609 |     1609 |       0.10 | *
    |      579 |        - |     1608 |     1608 |       0.10 | *
    |      580 |        - |     1604 |     1604 |       0.10 | *
    |      595 |        - |     1603 |     1603 |       0.10 | *
    |      609 |        - |     1601 |     1601 |       0.10 | *
    |      626 |        - |     1596 |     1596 |       0.10 | *
    |      630 |        - |     1594 |     1594 |       0.10 | *
    |      631 |        - |     1580 |     1580 |       0.10 | *
    |      647 |        - |     1575 |     1575 |       0.10 | *
    |      666 |        - |     1569 |     1569 |       0.10 | *
    |      681 |        - |     1568 |     1568 |       0.10 | *
    |      699 |        - |     1567 |     1567 |       0.10 | *
    |      701 |        - |     1561 |     1561 |       0.10 | *
    |      705 |        - |     1550 |     1550 |       0.10 | *
    |      708 |        - |     1543 |     1543 |       0.10 | *
    |      720 |        - |     1541 |     1541 |       0.10 | *
    |      748 |        - |     1536 |     1536 |       0.11 | *
    |      758 |        - |     1535 |     1535 |       0.11 | *
    |      759 |        - |     1520 |     1520 |       0.11 | *
    |      785 |        - |     1518 |     1518 |       0.11 | *
    |      803 |        - |     1514 |     1514 |       0.11 | *
    |      808 |        - |     1512 |     1512 |       0.11 | *
    |      809 |        - |     1509 |     1509 |       0.11 | *
    |      811 |        - |     1506 |     1506 |       0.11 | *
    |      824 |        - |     1497 |     1497 |       0.11 | *
    |      843 |        - |     1490 |     1490 |       0.11 | *
    |      849 |        - |     1485 |     1485 |       0.11 | *
    |      865 |        - |     1484 |     1484 |       0.11 | *
    |      866 |        - |     1481 |     1481 |       0.11 | *
    |      876 |        - |     1473 |     1473 |       0.11 | *
    |      877 |        - |     1471 |     1471 |       0.11 | *
    |      892 |        - |     1469 |     1469 |       0.11 | *
    |      913 |        - |     1466 |     1466 |       0.12 | *
    |      914 |        - |     1462 |     1462 |       0.12 | *
    |      927 |        - |     1457 |     1457 |       0.12 | *
    |      932 |        - |     1451 |     1451 |       0.12 | *
    |      936 |        - |     1449 |     1449 |       0.12 | *
    |      945 |        - |     1444 |     1444 |       0.12 | *
    |      949 |        - |     1441 |     1441 |       0.12 | *
    |      955 |        - |     1437 |     1437 |       0.12 | *
    |      969 |        - |     1431 |     1431 |       0.12 | *
    |      971 |        - |     1427 |     1427 |       0.12 | *
    |      974 |        - |     1417 |     1417 |       0.12 | *
    |      975 |        - |     1411 |     1411 |       0.12 | *
    |      977 |        - |     1403 |     1403 |       0.12 | *
    |     1002 |        - |     1398 |     1398 |       0.12 | *
    |     1018 |        - |     1396 |     1396 |       0.12 | *
    |     1021 |        - |     1394 |     1394 |       0.12 | *
    |     1036 |        - |     1391 |     1391 |       0.12 | *
    |     1065 |        - |     1385 |     1385 |       0.12 | *
    |     1076 |        - |     1379 |     1379 |       0.12 | *
    |     1077 |        - |     1378 |     1378 |       0.13 | *
    |     1089 |        - |     1376 |     1376 |       0.13 | *
    |     1091 |        - |     1364 |     1364 |       0.13 | *
    |     1123 |        - |     1360 |     1360 |       0.13 | *
    |     1135 |        - |     1352 |     1352 |       0.13 | *
    |     1146 |        - |     1347 |     1347 |       0.13 | *
    |     1152 |        - |     1343 |     1343 |       0.13 | *
    |     1186 |        - |     1341 |     1341 |       0.13 | *
    |     1203 |        - |     1340 |     1340 |       0.13 | *
    |     1219 |        - |     1337 |     1337 |       0.13 | *
    |     1235 |        - |     1336 |     1336 |       0.13 | *
    |     1242 |        - |     1332 |     1332 |       0.13 | *
    |     1259 |        - |     1326 |     1326 |       0.13 | *
    |     1285 |        - |     1322 |     1322 |       0.13 | *
    |     1299 |        - |     1320 |     1320 |       0.13 | *
    |     1303 |        - |     1308 |     1308 |       0.13 | *
    |     1341 |        - |     1305 |     1305 |       0.14 | *
    |     1357 |        - |     1301 |     1301 |       0.14 | *
    |     1365 |        - |     1299 |     1299 |       0.14 | *
    |     1366 |        - |     1298 |     1298 |       0.14 | *
    |     1386 |        - |     1294 |     1294 |       0.14 | *
    |     1404 |        - |     1289 |     1289 |       0.14 | *
    |     1413 |        - |     1287 |     1287 |       0.14 | *
    |     1432 |        - |     1282 |     1282 |       0.14 | *
    |     1445 |        - |     1279 |     1279 |       0.14 | *
    |     1452 |        - |     1278 |     1278 |       0.14 | *
    |     1455 |        - |     1275 |     1275 |       0.14 | *
    |     1480 |        - |     1272 |     1272 |       0.14 | *
    |     1482 |        - |     1270 |     1270 |       0.14 | *
    |     1487 |        - |     1267 |     1267 |       0.14 | *
    |     1496 |        - |     1265 |     1265 |       0.14 | *
    |     1518 |        - |     1260 |     1260 |       0.14 | *
    |     1565 |        - |     1238 |     1238 |       0.14 | *
    |     1570 |        - |     1237 |     1237 |       0.14 | *
    |     1582 |        - |     1229 |     1229 |       0.14 | *
    |     1625 |        - |     1216 |     1216 |       0.14 | *
    |     1685 |        - |     1204 |     1204 |       0.15 | *
    |     1729 |        - |     1201 |     1201 |       0.15 | *
    |     1732 |        - |     1200 |     1200 |       0.15 | *
    |     1745 |        - |     1196 |     1196 |       0.15 | *
    |     1766 |        - |     1185 |     1185 |       0.15 | *
    |     1793 |        - |     1183 |     1183 |       0.15 | *
    |     1799 |        - |     1180 |     1180 |       0.15 | *
    |     1852 |        - |     1178 |     1178 |       0.15 | *
    |     1854 |        - |     1176 |     1176 |       0.15 | *
    |     1923 |        - |     1174 |     1174 |       0.15 | *
    |     1949 |        - |     1162 |     1162 |       0.15 | *
    |     1958 |        - |     1156 |     1156 |       0.15 | *
    |     1962 |        - |     1152 |     1152 |       0.15 | *
    |     1975 |        - |     1149 |     1149 |       0.15 | *
    |     2032 |        - |     1146 |     1146 |       0.15 | *
    |     2037 |        - |     1142 |     1142 |       0.15 | *
    |     2212 |        - |     1139 |     1139 |       0.15 | *
    |     2217 |        - |     1138 |     1138 |       0.15 | *
    |     2300 |        - |     1136 |     1136 |       0.15 | *
    |     2302 |        - |     1131 |     1131 |       0.15 | *
    |     2311 |        - |     1130 |     1130 |       0.15 | *
    |     2358 |        - |     1122 |     1122 |       0.15 | *
    |     2363 |        - |     1120 |     1120 |       0.16 | *
    |     2384 |        - |     1118 |     1118 |       0.16 | *
    |     2386 |        - |     1117 |     1117 |       0.16 | *
    |     2403 |        - |     1109 |     1109 |       0.16 | *
    |     2460 |        - |     1108 |     1108 |       0.16 | *
    |     2470 |        - |     1106 |     1106 |       0.16 | *
    |     2472 |        - |     1105 |     1105 |       0.16 | *
    |     2516 |        - |     1104 |     1104 |       0.16 | *
    |     2518 |        - |     1097 |     1097 |       0.16 | *
    |     2548 |        - |     1094 |     1094 |       0.16 | *
    |     2555 |        - |     1093 |     1093 |       0.16 | *
    |     2561 |        - |     1087 |     1087 |       0.16 | *
    |     2663 |        - |     1078 |     1078 |       0.16 | *
    |     2665 |        - |     1076 |     1076 |       0.16 | *
    |     2717 |        - |     1075 |     1075 |       0.16 | *
    |     2723 |        - |     1072 |     1072 |       0.16 | *
    |     2775 |        - |     1067 |     1067 |       0.16 | *
    |     2847 |        - |     1065 |     1065 |       0.16 | *
    |     2854 |        - |     1063 |     1063 |       0.16 | *
    |     2855 |        - |     1059 |     1059 |       0.16 | *
    |     2952 |        - |     1058 |     1058 |       0.16 | *
    |     3029 |        - |     1056 |     1056 |       0.17 | *
    |     3042 |        - |     1048 |     1048 |       0.17 | *
    |     3046 |        - |     1046 |     1046 |       0.17 | *
    |     3071 |        - |     1044 |     1044 |       0.17 | *
    |     3082 |        - |     1043 |     1043 |       0.17 | *
    |     3128 |        - |     1038 |     1038 |       0.17 | *
    |     3133 |        - |     1027 |     1027 |       0.17 | *
    |     3141 |        - |     1025 |     1025 |       0.17 | *
    |     3157 |        - |     1024 |     1024 |       0.17 | *
    |     3193 |        - |     1021 |     1021 |       0.17 | *
    |     3267 |        - |     1018 |     1018 |       0.17 | *
    |     3285 |        - |     1017 |     1017 |       0.17 | *
    |     3301 |        - |     1016 |     1016 |       0.17 | *
    |     3370 |        - |     1014 |     1014 |       0.17 | *
    |     3502 |        - |     1013 |     1013 |       0.17 | *
    |     3530 |        - |     1012 |     1012 |       0.17 | *
    |     3577 |        - |     1011 |     1011 |       0.17 | *
    |     3612 |        - |     1007 |     1007 |       0.17 | *
    |     3633 |        - |     1006 |     1006 |       0.17 | *
    |     3647 |        - |      996 |      996 |       0.18 | *
    |     3695 |        - |      995 |      995 |       0.18 | *
    |     3697 |        - |      994 |      994 |       0.18 | *
    |     3739 |        - |      992 |      992 |       0.18 | *
    |     3798 |        - |      990 |      990 |       0.18 | *
    |     3880 |        - |      989 |      989 |       0.18 | *
    |     3912 |        - |      987 |      987 |       0.18 | *
    |     3934 |        - |      986 |      986 |       0.18 | *
    |     3940 |        - |      985 |      985 |       0.18 | *
    |     4096 |        - |      983 |      983 |       0.18 | *
    |     4194 |        - |      982 |      982 |       0.18 | *
    |     4227 |        - |      978 |      978 |       0.18 | *
    |     4296 |        - |      977 |      977 |       0.19 | *
    |     4306 |        - |      972 |      972 |       0.19 | *
    |     4343 |        - |      970 |      970 |       0.19 | *
    |     4449 |        - |      966 |      966 |       0.19 | *
    |     4462 |        - |      962 |      962 |       0.19 | *
    |     4540 |        - |      958 |      958 |       0.19 | *
    |     4598 |        - |      955 |      955 |       0.19 | *
    |     4647 |        - |      949 |      949 |       0.19 | *
    |     4682 |        - |      948 |      948 |       0.19 | *
    |     4692 |        - |      947 |      947 |       0.19 | *
    |     4730 |        - |      946 |      946 |       0.19 | *
    |     4742 |        - |      943 |      943 |       0.19 | *
    |     4787 |        - |      942 |      942 |       0.19 | *
    |     4801 |        - |      939 |      939 |       0.19 | *
    |     4824 |        - |      936 |      936 |       0.19 | *
    |     4860 |        - |      934 |      934 |       0.19 | *
    |     4897 |        - |      933 |      933 |       0.19 | *
    |     4912 |        - |      931 |      931 |       0.19 | *
    |     4930 |        - |      929 |      929 |       0.19 | *
    |     4941 |        - |      924 |      924 |       0.19 | *
    |     4955 |        - |      922 |      922 |       0.19 | *
    |     5004 |        - |      921 |      921 |       0.19 | *
    |     5072 |        - |      920 |      920 |       0.19 | *
    |     5156 |        - |      918 |      918 |       0.20 | *
    |     5223 |        - |      917 |      917 |       0.20 | *
    |     5302 |        - |      916 |      916 |       0.20 | *
    |     5318 |        - |      915 |      915 |       0.20 | *
    |     5346 |        - |      910 |      910 |       0.20 | *
    |     5428 |        - |      909 |      909 |       0.20 | *
    |     5557 |        - |      905 |      905 |       0.20 | *
    |     5606 |        - |      903 |      903 |       0.20 | *
    |     5628 |        - |      902 |      902 |       0.20 | *
    |     5792 |        - |      900 |      900 |       0.20 | *
    |     5892 |        - |      899 |      899 |       0.20 | *
    |     5924 |        - |      897 |      897 |       0.20 | *
    |     5937 |        - |      896 |      896 |       0.20 | *
    |     5974 |        - |      889 |      889 |       0.21 | *
    |     6042 |        - |      887 |      887 |       0.21 | *
    |     6458 |        - |      883 |      883 |       0.21 | *
    |     6536 |        - |      881 |      881 |       0.21 | *
    |     6550 |        - |      877 |      877 |       0.21 | *
    |     6563 |        - |      875 |      875 |       0.21 | *
    |     6769 |        - |      874 |      874 |       0.21 | *
    |     6831 |        - |      873 |      873 |       0.21 | *
    |     6921 |        - |      869 |      869 |       0.21 | *
    |     7199 |        - |      868 |      868 |       0.21 | *
    |     7529 |        - |      867 |      867 |       0.22 | *
    |     7593 |        - |      865 |      865 |       0.22 | *
    |     7659 |        - |      862 |      862 |       0.22 | *
    |     7680 |        - |      860 |      860 |       0.22 | *
    |     7728 |        - |      858 |      858 |       0.22 | *
    |     7785 |        - |      856 |      856 |       0.22 | *
    |     7814 |        - |      852 |      852 |       0.22 | *
    |     7962 |        - |      851 |      851 |       0.22 | *
    |     7973 |        - |      847 |      847 |       0.22 | *
    |     7986 |        - |      846 |      846 |       0.22 | *
    |     8135 |        - |      843 |      843 |       0.22 | *
    |     8137 |        - |      842 |      842 |       0.22 | *
    |     8222 |        - |      841 |      841 |       0.22 | *
    |     8446 |        - |      836 |      836 |       0.22 | *
    |     8648 |        - |      835 |      835 |       0.23 | *
    |     8779 |        - |      832 |      832 |       0.23 | *
    |     8879 |        - |      829 |      829 |       0.23 | *
    |     8951 |        - |      828 |      828 |       0.23 | *
    |     8968 |        - |      826 |      826 |       0.23 | *
    |     8994 |        - |      825 |      825 |       0.23 | *
    |     9090 |        - |      823 |      823 |       0.23 | *
    |     9284 |        - |      821 |      821 |       0.23 | *
    |     9343 |        - |      820 |      820 |       0.23 | *
    |     9507 |        - |      819 |      819 |       0.23 | *
    |     9806 |        - |      817 |      817 |       0.23 | *
    |     9919 |        - |      814 |      814 |       0.23 | *
    |     9941 |        - |      813 |      813 |       0.23 | *
    |     9951 |        - |      811 |      811 |       0.24 | *
    |      10K |        - |      810 |      810 |       0.24 | *
    |      10K |        - |      809 |      809 |       0.24 | *
    |      10K |        - |      807 |      807 |       0.24 | *
    |      11K |        - |      806 |      806 |       0.24 | *
    |      11K |        - |      805 |      805 |       0.24 | *
    |      11K |        - |      804 |      804 |       0.24 | *
    |      11K |        - |      803 |      803 |       0.24 | *
    |      11K |        - |      797 |      797 |       0.24 | *
    |      11K |        - |      793 |      793 |       0.24 | *
    |      12K |        - |      792 |      792 |       0.25 | *
    |      12K |        - |      789 |      789 |       0.25 | *
    |      12K |        - |      788 |      788 |       0.25 | *
    |      12K |        - |      787 |      787 |       0.25 | *
    |      12K |        - |      786 |      786 |       0.25 | *
    |      13K |        - |      784 |      784 |       0.25 | *
    |      13K |        - |      783 |      783 |       0.25 | *
    |      13K |        - |      780 |      780 |       0.25 | *
    |      13K |        - |      779 |      779 |       0.25 | *
    |      13K |        - |      777 |      777 |       0.26 | *
    |      13K |        - |      774 |      774 |       0.26 | *
    |      13K |        - |      773 |      773 |       0.26 | *
    |      13K |        - |      771 |      771 |       0.26 | *
    |      13K |        - |      770 |      770 |       0.26 | *
    |      14K |        - |      767 |      767 |       0.26 | *
    |      14K |        - |      766 |      766 |       0.26 | *
    |      14K |        - |      762 |      762 |       0.26 | *
    |      14K |        - |      760 |      760 |       0.26 | *
    |      15K |        - |      758 |      758 |       0.26 | *
    |      15K |        - |      756 |      756 |       0.26 | *
    |      16K |        - |      755 |      755 |       0.27 | *
    |      16K |        - |      754 |      754 |       0.27 | *
    |      17K |        - |      753 |      753 |       0.27 | *
    |      17K |        - |      751 |      751 |       0.27 | *
    |      17K |        - |      749 |      749 |       0.27 | *
    |      18K |        - |      746 |      746 |       0.27 | *
    |      18K |        - |      745 |      745 |       0.27 | *
    |      18K |        - |      744 |      744 |       0.27 | *
    |      18K |        - |      741 |      741 |       0.27 | *
    |      18K |        - |      740 |      740 |       0.27 | *
    |      19K |        - |      739 |      739 |       0.27 | *
    |      19K |        - |      738 |      738 |       0.28 | *
    |      20K |        - |      736 |      736 |       0.28 | *
    |      20K |        - |      735 |      735 |       0.28 | *
    |      20K |        - |      733 |      733 |       0.28 | *
    |      20K |        - |      731 |      731 |       0.28 | *
    |      20K |        - |      730 |      730 |       0.28 | *
    |      21K |        - |      725 |      725 |       0.28 | *
    |      21K |        - |      723 |      723 |       0.28 | *
    |      21K |        - |      722 |      722 |       0.28 | *
    |      21K |        - |      721 |      721 |       0.28 | *
    |      22K |        - |      718 |      718 |       0.29 | *
    |      22K |        - |      717 |      717 |       0.29 | *
    |      22K |        - |      715 |      715 |       0.29 | *
    |      22K |        - |      711 |      711 |       0.29 | *
    |      23K |        - |      710 |      710 |       0.29 | *
    |      23K |        - |      709 |      709 |       0.29 | *
    |      23K |        - |      708 |      708 |       0.29 | *
    |      24K |        - |      706 |      706 |       0.29 | *
    |      24K |        - |      705 |      705 |       0.29 | *
    |      24K |        - |      704 |      704 |       0.29 | *
    |      24K |        - |      703 |      703 |       0.29 | *
    |      24K |        - |      702 |      702 |       0.29 | *
    |      25K |        - |      701 |      701 |       0.30 | *
    |      25K |        - |      699 |      699 |       0.30 | *
    |      25K |        - |      698 |      698 |       0.30 | *
    |      26K |        - |      697 |      697 |       0.30 | *
    |      26K |        - |      695 |      695 |       0.30 | *
    |      26K |        - |      693 |      693 |       0.30 | *
    |      26K |        - |      692 |      692 |       0.30 | *
    |      26K |        - |      691 |      691 |       0.30 | *
    |      26K |        - |      689 |      689 |       0.30 | *
    |      27K |        - |      688 |      688 |       0.30 | *
    |      27K |        - |      685 |      685 |       0.30 | *
    |      31K |        - |      682 |      682 |       0.31 | *
    |      31K |        - |      681 |      681 |       0.31 | *
    |      31K |        - |      679 |      679 |       0.31 | *
    |      36K |        - |      678 |      678 |       0.32 | *
    |      37K |        - |      677 |      677 |       0.32 | *
    |      37K |        - |      676 |      676 |       0.32 | *
    |      38K |        - |      675 |      675 |       0.32 | *
    |      39K |        - |      673 |      673 |       0.33 | *
    |      41K |        - |      671 |      671 |       0.33 | *
    |      41K |        - |      666 |      666 |       0.33 | *
    |      41K |        - |      665 |      665 |       0.33 | *
    |      43K |        - |      664 |      664 |       0.34 | *
    |      43K |        - |      663 |      663 |       0.34 | *
    |      43K |        - |      660 |      660 |       0.34 | *
    |      45K |        - |      658 |      658 |       0.34 | *
    |      45K |        - |      657 |      657 |       0.34 | *
    |      46K |        - |      656 |      656 |       0.34 | *
    |      46K |        - |      655 |      655 |       0.34 | *
    |      46K |        - |      654 |      654 |       0.34 | *
    |      46K |        - |      653 |      653 |       0.35 | *
    |      47K |        - |      652 |      652 |       0.35 | *
    |      49K |        - |      651 |      651 |       0.35 | *
    |      49K |        - |      649 |      649 |       0.36 | *
    |      50K |        - |      648 |      648 |       0.36 | *
    |      50K |        - |      647 |      647 |       0.36 | *
    |      50K |        - |      646 |      646 |       0.36 | *
    |      50K |        - |      645 |      645 |       0.36 | *
    |      51K |        - |      644 |      644 |       0.36 | *
    |      55K |        - |      643 |      643 |       0.39 | *
    |      55K |        - |      642 |      642 |       0.39 | *
    |      56K |        - |      641 |      641 |       0.39 | *
    |      56K |        - |      640 |      640 |       0.39 | *
    |      56K |        - |      639 |      639 |       0.39 | *
    |      56K |        - |      637 |      637 |       0.39 | *
    |      57K |        - |      636 |      636 |       0.40 | *
    |      60K |        - |      634 |      634 |       0.41 | *
    |      61K |        - |      631 |      631 |       0.42 | *
    |      63K |        - |      630 |      630 |       0.43 | *
    |      63K |        - |      629 |      629 |       0.43 | *
    |      63K |        - |      628 |      628 |       0.43 | *
    |      63K |        - |      627 |      627 |       0.43 | *
    |      64K |        - |      625 |      625 |       0.43 | *
    |      64K |        - |      623 |      623 |       0.43 | *
    |      70K |        - |      622 |      622 |       0.46 | *
    |      70K |        - |      621 |      621 |       0.46 | *
    |      71K |        - |      619 |      619 |       0.46 | *
    |      71K |        - |      618 |      618 |       0.46 | *
    |      72K |        - |      617 |      617 |       0.47 | *
    |      72K |        - |      615 |      615 |       0.47 | *
    |      73K |        - |      613 |      613 |       0.47 | *
    |      75K |        - |      612 |      612 |       0.48 | *
    |      78K |        - |      611 |      611 |       0.49 | *
    |      83K |        - |      610 |      610 |       0.51 | *
    |      83K |        - |      608 |      608 |       0.51 | *
    |      83K |        - |      607 |      607 |       0.51 | *
    |      83K |        - |      606 |      606 |       0.51 | *
    |      83K |        - |      605 |      605 |       0.51 | *
    |      87K |        - |      604 |      604 |       0.53 | *
    |      87K |        - |      603 |      603 |       0.53 | *
    |      88K |        - |      602 |      602 |       0.53 | *
    |      88K |        - |      600 |      600 |       0.53 | *
    |      88K |        - |      599 |      599 |       0.53 | *
    |      88K |        - |      598 |      598 |       0.54 | *
    |      89K |        - |      597 |      597 |       0.54 | *
    |      89K |        - |      596 |      596 |       0.54 | *
    |     103K |        - |      595 |      595 |       0.60 | *
    |     103K |        - |      594 |      594 |       0.61 | *
    |     103K |        - |      590 |      590 |       0.61 | *
    |     104K |        - |      589 |      589 |       0.61 | *
    |     104K |        - |      588 |      588 |       0.61 | *
    |     104K |        - |      587 |      587 |       0.61 | *
    |     105K |        - |      586 |      586 |       0.62 | *
    |     105K |        - |      585 |      585 |       0.62 | *
    |     113K |        - |      584 |      584 |       0.66 | *
    |     116K |        - |      583 |      583 |       0.68 | *
    |     117K |        - |      582 |      582 |       0.68 | *
    |     118K |        - |      580 |      580 |       0.68 | *
    |     118K |        - |      579 |      579 |       0.69 | *
    |     118K |        - |      578 |      578 |       0.69 | *
    |     118K |        - |      576 |      576 |       0.69 | *
    |     127K |        - |      575 |      575 |       0.73 | *
    |     129K |        - |      573 |      573 |       0.75 | *
    |     131K |        - |      572 |      572 |       0.75 | *
    |     132K |        - |      571 |      571 |       0.76 | *
    |     132K |        - |      570 |      570 |       0.76 | *
    |     132K |        - |      569 |      569 |       0.76 | *
    |     132K |        - |      568 |      568 |       0.76 | *
    |     133K |        - |      567 |      567 |       0.76 | *
    |     134K |        - |      566 |      566 |       0.77 | *
    |     134K |        - |      565 |      565 |       0.78 | *
    |     158K |        - |      564 |      564 |       0.89 | *
    |     173K |        - |      563 |      563 |       0.95 | *
    |     185K |        - |      562 |      562 |       1.01 | *
    |     189K |        - |      560 |      560 |       1.02 | *
    |     207K |        - |      559 |      559 |       1.10 | *
    |     209K |        - |      558 |      558 |       1.10 | *
    |     210K |        - |      557 |      557 |       1.10 | *
    |     215K |        - |      556 |      556 |       1.12 | *
    |     280K |        - |      555 |      555 |       1.25 | *
    |     280K |        - |      554 |      554 |       1.25 | *
    |     280K |        - |      553 |      553 |       1.25 | *
    |     281K |        - |      552 |      552 |       1.25 | *
    |     281K |        - |      551 |      551 |       1.25 | *
    |     282K |        - |      550 |      550 |       1.26 | *
    |     282K |        - |      548 |      548 |       1.26 | *
    |     284K |        - |      547 |      547 |       1.26 | *
    |     285K |        - |      546 |      546 |       1.26 | *
    |     287K |        - |      545 |      545 |       1.27 | *
    |     294K |        - |      544 |      544 |       1.28 | *
    |     295K |        - |      543 |      543 |       1.28 | *
    |     295K |        - |      542 |      542 |       1.28 | *
    |     307K |        - |      541 |      541 |       1.31 | *
    |     309K |        - |      540 |      540 |       1.31 | *
    |     309K |        - |      539 |      539 |       1.31 | *
    |     312K |        - |      538 |      538 |       1.32 | *
    |     315K |        - |      537 |      537 |       1.33 | *
    |     315K |        - |      536 |      536 |       1.33 | *
    |     315K |        - |      535 |      535 |       1.33 | *
    |     317K |        - |      534 |      534 |       1.34 | *
    |     317K |        - |      533 |      533 |       1.34 | *
    |     318K |        - |      532 |      532 |       1.34 | *
    |     327K |        - |      531 |      531 |       1.36 | *
    |     334K |        - |      529 |      529 |       1.38 | *
    |     335K |        - |      526 |      526 |       1.39 | *
    |     356K |        - |      524 |      524 |       1.43 | *
    |     360K |        - |      520 |      520 |       1.44 | *
    |     369K |        - |      519 |      519 |       1.46 | *
    |     371K |        - |      518 |      518 |       1.46 | *
    |     372K |        - |      516 |      516 |       1.46 | *
    |     372K |        - |      514 |      514 |       1.46 | *
    |     376K |        - |      513 |      513 |       1.47 | *
    |     376K |        - |      512 |      512 |       1.47 | *
    |     376K |        - |      511 |      511 |       1.47 | *
    |     382K |        - |      509 |      509 |       1.48 | *
    |     383K |        - |      508 |      508 |       1.49 | *
    |     386K |        - |      507 |      507 |       1.49 | *
    |     386K |        - |      506 |      506 |       1.49 | *
    |     387K |        - |      505 |      505 |       1.50 | *
    |     391K |        - |      504 |      504 |       1.51 | *
    |     442K |        - |      503 |      503 |       1.65 | *
    |     466K |        - |      502 |      502 |       1.69 | *
    |     467K |        - |      500 |      500 |       1.69 | *
    |     467K |        - |      499 |      499 |       1.69 | *
    |     470K |        - |      498 |      498 |       1.69 | *
    |     471K |        - |      497 |      497 |       1.69 | *
    |     473K |        - |      496 |      496 |       1.70 | *
    |     474K |        - |      495 |      495 |       1.70 | *
    |     485K |        - |      494 |      494 |       1.71 | *
    |     491K |        - |      493 |      493 |       1.72 | *
    |     495K |        - |      492 |      492 |       1.72 | *
    |     496K |        - |      491 |      491 |       1.72 | *
    |     496K |        - |      490 |      490 |       1.72 | *
    |     506K |        - |      489 |      489 |       1.73 | *
    |     507K |        - |      488 |      488 |       1.73 | *
    |     516K |        - |      487 |      487 |       1.74 | *
    |     525K |        - |      486 |      486 |       1.75 | *
    |     704K |        - |      484 |      484 |       1.91 | *
    |     790K |        - |      483 |      483 |       1.99 | *
    |     853K |        - |      480 |      480 |       2.04 | *
    |     879K |        - |      479 |      479 |       2.07 | *
    |    1079K |        - |      478 |      478 |       2.25 | *
    |    1081K |        - |      477 |      477 |       2.25 | *
    |    1081K |        - |      476 |      476 |       2.25 | *
    |    1084K |        - |      475 |      475 |       2.25 | *
    |    1084K |        - |      474 |      474 |       2.25 | *
    |    1100K |        - |      473 |      473 |       2.27 | *
    |    1107K |        - |      472 |      472 |       2.28 | *
    |    1153K |        - |      471 |      471 |       2.32 | *
    |    1442K |        - |      468 |      468 |       2.57 | *
    |    1444K |        - |      466 |      466 |       2.57 | *
    |    1448K |        - |      465 |      465 |       2.57 | *
    |    1682K |        - |      464 |      464 |       2.80 | *
    |    1910K |        - |      463 |      463 |       3.04 | *
    |    1929K |        - |      462 |      462 |       3.06 | *
    |    1930K |        - |      461 |      461 |       3.06 | *
    |    2145K |        - |      460 |      460 |       3.37 | *
    |    2146K |        - |      459 |      459 |       3.37 | *
    |    2146K |        - |      458 |      458 |       3.37 | *
    |    2161K |        - |      457 |      457 |       3.40 | *
    |    2233K |        - |      456 |      456 |       3.50 | *
    |    2234K |        - |      455 |      455 |       3.50 | *
    |    2391K |        - |      454 |      454 |       3.77 | *
    |    2417K |        - |      453 |      453 |       3.83 | *
    |    2470K |        - |      452 |      452 |       3.92 | *
    |    2591K |        - |      451 |      451 |       4.11 | *
    |    2854K |        - |      450 |      450 |       4.46 | *
    |    2904K |        - |      449 |      449 |       4.52 | *
    |    2905K |        - |      448 |      448 |       4.53 | *
    |    2923K |        - |      447 |      447 |       4.55 | *
    |    3463K |        - |      446 |      446 |       5.15 | *
    |    4167K |        - |      445 |      445 |       5.81 | *
    |    4189K |        - |      444 |      444 |       5.83 | *
    |    4197K |        - |      443 |      443 |       5.83 | *
    |    4209K |        - |      442 |      442 |       5.85 | *
    |    4398K |        - |      441 |      441 |       6.04 | *
    |    6787K |        - |      440 |      440 |       8.85 | *
    |    6787K |        - |      439 |      439 |       8.85 | *
    |    6788K |        - |      437 |      437 |       8.85 | *
    |    9944K |        - |      436 |      436 |      11.70 | *
    |    9944K |        - |      435 |      435 |      11.70 | *
    |    9944K |        - |      434 |      434 |      11.70 | *
    |    9944K |        - |      433 |      433 |      11.70 | *
    |    9975K |        - |      432 |      432 |      11.73 | *
    |      11M |        - |      431 |      431 |      12.32 | *
    |      11M |        - |      430 |      430 |      12.49 | *
    |      11M |        - |      429 |      429 |      12.61 | *
    |      11M |        - |      428 |      428 |      12.64 | *
    |      12M |        - |      427 |      427 |      13.29 | *
    |      13M |        - |      426 |      426 |      14.23 | *
    |      13M |        - |      425 |      425 |      14.23 | *
    |      13M |        - |      424 |      424 |      14.27 | *
    |      21M |        - |      423 |      423 |      21.40 | *
    |      33M |        - |      422 |      422 |      32.68 | *
    |      33M |        - |      421 |      421 |      32.80 | *
    |      34M |        - |      419 |      419 |      33.56 | *
    |      38M |        - |      418 |      418 |      36.42 | *
    |      38M |        - |      417 |      417 |      36.77 | *
    |      48M |        - |      416 |      416 |      45.88 | *
    |      50M |        - |      414 |      414 |      47.73 | *
    |      52M |        - |      413 |      413 |      49.24 | *
    |     450M |        - |      412 |      412 |     401.14 | *
    |     450M |        - |      411 |      411 |     401.15 | *
    |     457M |        - |      410 |      410 |     407.46 | *
    |     476M |        - |      409 |      409 |     424.16 | *
    |     477M |        - |      408 |      408 |     425.33 | *
    \--------------------------------------------------------/

Neighborhoods statistics (values in %):

    /----------------------------------------------------------------\
    | Move               | Improvs. | Sideways |  Accepts |  Rejects |
    |--------------------|----------|----------|----------|----------|
    | Shift(mk)          |     4270 |      27K |      33K |     172M |
    | Shift              |      452 |     176K |     180K |     172M |
    | ShiftSmart(mk)     |      99K |     637K |     771K |     171M |
    | ShiftSmart         |      10K |    3891K |    3969K |     168M |
    | SimpSwap(mk)       |        8 |       15 |       27 |     172M |
    | SimpSwap           |        1 |       60 |       64 |     172M |
    | SimpSwapSmart(mk)  |      241 |      394 |      762 |     172M |
    | SimpSwapSmart      |       53 |     1377 |     1628 |     172M |
    | Swap(mk)           |        3 |        5 |        8 |     172M |
    | Swap               |        0 |       11 |       11 |     172M |
    | SwapSmart(mk)      |      238 |     1336 |     1653 |     172M |
    | SwapSmart          |       33 |     2604 |     2774 |     172M |
    | Switch(mk)         |      779 |    7114K |    7115K |     165M |
    | Switch             |       70 |    7029K |    7029K |     165M |
    | SwitchSmart(mk)    |      16K |     266K |     286K |     172M |
    | SwitchSmart        |     1531 |     794K |     809K |     171M |
    | TaskMove(mk)       |      108 |      195 |      367 |     172M |
    | TaskMove           |       30 |      627 |      747 |     172M |
    | TaskMoveSmart(mk)  |     2912 |     4618 |     8859 |     172M |
    | TaskMoveSmart      |      451 |      14K |      16K |     172M |
    | 2-Shift(mk)        |      429 |     311K |     311K |     172M |
    | 2-Shift            |       42 |     318K |     318K |     172M |
    | 2-ShiftSmart(mk)   |      10K |     627K |     639K |     171M |
    | 2-ShiftSmart       |     1056 |     970K |     978K |     171M |
    \----------------------------------------------------------------/

Best makespan.....: 408
N. of Iterations..: 4128522899
Total runtime.....: 3600.01s
Using Python-MIP package version 1.6.8
Começo a execução
    /-------------------------------------------------------------------------------\
    |    Makespan   |   Free Jobs   | Free Machines |    It. Time   |   Total Time  | 
    |-------------------------------------------------------------------------------|
    \-------------------------------------------------------------------------------/
Terminou a execução
