Instance....: instances/I_250_25_S_1-124_10.txt
Algorithm...: Simulated Annealing (alpha=0.990, saMax=10M, t0=1)
Other params: maxIters=100M, seed=-1, timeLimit=3600.00s

    /--------------------------------------------------------\
    |     Iter |   RDP(%) |       S* |       S' |       Time | 
    |----------|----------|----------|----------|------------|
    |        0 |        - |     2436 |     2436 |       0.00 | s0
    |        3 |        - |     2275 |     2275 |       0.01 | *
    |        4 |        - |     2048 |     2048 |       0.01 | *
    |        5 |        - |     1880 |     1880 |       0.01 | *
    |        7 |        - |     1833 |     1833 |       0.01 | *
    |       11 |        - |     1761 |     1761 |       0.03 | *
    |       14 |        - |     1718 |     1718 |       0.03 | *
    |       15 |        - |     1664 |     1664 |       0.03 | *
    |       16 |        - |     1608 |     1608 |       0.03 | *
    |       28 |        - |     1538 |     1538 |       0.03 | *
    |       36 |        - |     1527 |     1527 |       0.03 | *
    |       43 |        - |     1515 |     1515 |       0.03 | *
    |       44 |        - |     1487 |     1487 |       0.04 | *
    |       49 |        - |     1465 |     1465 |       0.04 | *
    |       55 |        - |     1419 |     1419 |       0.04 | *
    |       59 |        - |     1410 |     1410 |       0.04 | *
    |       67 |        - |     1361 |     1361 |       0.04 | *
    |       73 |        - |     1355 |     1355 |       0.04 | *
    |       75 |        - |     1336 |     1336 |       0.04 | *
    |       76 |        - |     1335 |     1335 |       0.04 | *
    |       77 |        - |     1318 |     1318 |       0.04 | *
    |       85 |        - |     1317 |     1317 |       0.04 | *
    |       86 |        - |     1310 |     1310 |       0.04 | *
    |       87 |        - |     1308 |     1308 |       0.04 | *
    |       89 |        - |     1289 |     1289 |       0.04 | *
    |       99 |        - |     1282 |     1282 |       0.04 | *
    |      105 |        - |     1273 |     1273 |       0.04 | *
    |      109 |        - |     1264 |     1264 |       0.04 | *
    |      112 |        - |     1249 |     1249 |       0.05 | *
    |      113 |        - |     1244 |     1244 |       0.05 | *
    |      114 |        - |     1234 |     1234 |       0.05 | *
    |      122 |        - |     1229 |     1229 |       0.05 | *
    |      124 |        - |     1219 |     1219 |       0.05 | *
    |      130 |        - |     1209 |     1209 |       0.05 | *
    |      142 |        - |     1190 |     1190 |       0.05 | *
    |      145 |        - |     1185 |     1185 |       0.05 | *
    |      146 |        - |     1180 |     1180 |       0.05 | *
    |      150 |        - |     1161 |     1161 |       0.05 | *
    |      156 |        - |     1156 |     1156 |       0.05 | *
    |      158 |        - |     1149 |     1149 |       0.05 | *
    |      173 |        - |     1147 |     1147 |       0.05 | *
    |      176 |        - |     1141 |     1141 |       0.05 | *
    |      177 |        - |     1130 |     1130 |       0.06 | *
    |      190 |        - |     1114 |     1114 |       0.06 | *
    |      196 |        - |     1113 |     1113 |       0.06 | *
    |      197 |        - |     1089 |     1089 |       0.06 | *
    |      199 |        - |     1086 |     1086 |       0.06 | *
    |      204 |        - |     1083 |     1083 |       0.06 | *
    |      207 |        - |     1076 |     1076 |       0.06 | *
    |      214 |        - |     1056 |     1056 |       0.06 | *
    |      215 |        - |     1047 |     1047 |       0.06 | *
    |      225 |        - |     1024 |     1024 |       0.06 | *
    |      230 |        - |     1019 |     1019 |       0.06 | *
    |      238 |        - |     1017 |     1017 |       0.06 | *
    |      239 |        - |     1015 |     1015 |       0.06 | *
    |      240 |        - |     1010 |     1010 |       0.06 | *
    |      243 |        - |      992 |      992 |       0.06 | *
    |      253 |        - |      986 |      986 |       0.06 | *
    |      273 |        - |      982 |      982 |       0.07 | *
    |      274 |        - |      981 |      981 |       0.07 | *
    |      275 |        - |      979 |      979 |       0.07 | *
    |      277 |        - |      975 |      975 |       0.07 | *
    |      284 |        - |      941 |      941 |       0.07 | *
    |      304 |        - |      938 |      938 |       0.07 | *
    |      313 |        - |      935 |      935 |       0.07 | *
    |      316 |        - |      932 |      932 |       0.07 | *
    |      335 |        - |      928 |      928 |       0.07 | *
    |      339 |        - |      925 |      925 |       0.07 | *
    |      345 |        - |      918 |      918 |       0.07 | *
    |      373 |        - |      913 |      913 |       0.07 | *
    |      381 |        - |      912 |      912 |       0.07 | *
    |      396 |        - |      897 |      897 |       0.07 | *
    |      398 |        - |      895 |      895 |       0.07 | *
    |      434 |        - |      893 |      893 |       0.07 | *
    |      439 |        - |      890 |      890 |       0.08 | *
    |      442 |        - |      885 |      885 |       0.08 | *
    |      449 |        - |      884 |      884 |       0.08 | *
    |      460 |        - |      881 |      881 |       0.08 | *
    |      476 |        - |      880 |      880 |       0.08 | *
    |      477 |        - |      879 |      879 |       0.08 | *
    |      484 |        - |      876 |      876 |       0.08 | *
    |      491 |        - |      875 |      875 |       0.08 | *
    |      492 |        - |      868 |      868 |       0.08 | *
    |      509 |        - |      865 |      865 |       0.08 | *
    |      511 |        - |      863 |      863 |       0.08 | *
    |      544 |        - |      861 |      861 |       0.09 | *
    |      549 |        - |      860 |      860 |       0.09 | *
    |      560 |        - |      853 |      853 |       0.09 | *
    |      572 |        - |      849 |      849 |       0.09 | *
    |      592 |        - |      831 |      831 |       0.09 | *
    |      608 |        - |      821 |      821 |       0.09 | *
    |      614 |        - |      819 |      819 |       0.09 | *
    |      617 |        - |      818 |      818 |       0.09 | *
    |      623 |        - |      811 |      811 |       0.09 | *
    |      624 |        - |      809 |      809 |       0.09 | *
    |      632 |        - |      805 |      805 |       0.09 | *
    |      646 |        - |      799 |      799 |       0.09 | *
    |      648 |        - |      798 |      798 |       0.10 | *
    |      650 |        - |      794 |      794 |       0.10 | *
    |      652 |        - |      792 |      792 |       0.10 | *
    |      731 |        - |      790 |      790 |       0.10 | *
    |      745 |        - |      784 |      784 |       0.10 | *
    |      754 |        - |      780 |      780 |       0.10 | *
    |      768 |        - |      776 |      776 |       0.10 | *
    |      781 |        - |      775 |      775 |       0.10 | *
    |      784 |        - |      769 |      769 |       0.10 | *
    |      785 |        - |      763 |      763 |       0.10 | *
    |      788 |        - |      758 |      758 |       0.10 | *
    |      802 |        - |      750 |      750 |       0.10 | *
    |      806 |        - |      743 |      743 |       0.11 | *
    |      814 |        - |      740 |      740 |       0.11 | *
    |      821 |        - |      739 |      739 |       0.11 | *
    |      824 |        - |      737 |      737 |       0.11 | *
    |      834 |        - |      736 |      736 |       0.11 | *
    |      855 |        - |      732 |      732 |       0.11 | *
    |      858 |        - |      726 |      726 |       0.11 | *
    |      864 |        - |      720 |      720 |       0.11 | *
    |      883 |        - |      719 |      719 |       0.11 | *
    |      887 |        - |      718 |      718 |       0.11 | *
    |      888 |        - |      717 |      717 |       0.11 | *
    |      913 |        - |      716 |      716 |       0.11 | *
    |      917 |        - |      707 |      707 |       0.11 | *
    |      918 |        - |      706 |      706 |       0.12 | *
    |      919 |        - |      705 |      705 |       0.12 | *
    |      926 |        - |      703 |      703 |       0.12 | *
    |      932 |        - |      702 |      702 |       0.12 | *
    |      954 |        - |      701 |      701 |       0.12 | *
    |      962 |        - |      699 |      699 |       0.12 | *
    |     1026 |        - |      696 |      696 |       0.12 | *
    |     1049 |        - |      695 |      695 |       0.12 | *
    |     1057 |        - |      690 |      690 |       0.12 | *
    |     1068 |        - |      689 |      689 |       0.12 | *
    |     1074 |        - |      688 |      688 |       0.12 | *
    |     1109 |        - |      686 |      686 |       0.12 | *
    |     1134 |        - |      682 |      682 |       0.13 | *
    |     1150 |        - |      680 |      680 |       0.13 | *
    |     1205 |        - |      671 |      671 |       0.13 | *
    |     1235 |        - |      669 |      669 |       0.13 | *
    |     1303 |        - |      666 |      666 |       0.13 | *
    |     1365 |        - |      664 |      664 |       0.13 | *
    |     1374 |        - |      662 |      662 |       0.13 | *
    |     1389 |        - |      661 |      661 |       0.13 | *
    |     1391 |        - |      660 |      660 |       0.13 | *
    |     1421 |        - |      659 |      659 |       0.13 | *
    |     1427 |        - |      658 |      658 |       0.13 | *
    |     1538 |        - |      655 |      655 |       0.13 | *
    |     1548 |        - |      648 |      648 |       0.13 | *
    |     1551 |        - |      646 |      646 |       0.13 | *
    |     1588 |        - |      644 |      644 |       0.13 | *
    |     1612 |        - |      636 |      636 |       0.13 | *
    |     1709 |        - |      635 |      635 |       0.14 | *
    |     1720 |        - |      634 |      634 |       0.14 | *
    |     1725 |        - |      632 |      632 |       0.14 | *
    |     1730 |        - |      628 |      628 |       0.14 | *
    |     1752 |        - |      626 |      626 |       0.14 | *
    |     1754 |        - |      625 |      625 |       0.14 | *
    |     1761 |        - |      624 |      624 |       0.14 | *
    |     1783 |        - |      620 |      620 |       0.14 | *
    |     1806 |        - |      619 |      619 |       0.14 | *
    |     1823 |        - |      618 |      618 |       0.14 | *
    |     1830 |        - |      617 |      617 |       0.14 | *
    |     1833 |        - |      616 |      616 |       0.14 | *
    |     1919 |        - |      615 |      615 |       0.14 | *
    |     1937 |        - |      613 |      613 |       0.14 | *
    |     1974 |        - |      611 |      611 |       0.14 | *
    |     1994 |        - |      610 |      610 |       0.14 | *
    |     2019 |        - |      609 |      609 |       0.14 | *
    |     2026 |        - |      607 |      607 |       0.14 | *
    |     2035 |        - |      606 |      606 |       0.14 | *
    |     2100 |        - |      605 |      605 |       0.14 | *
    |     2105 |        - |      604 |      604 |       0.14 | *
    |     2128 |        - |      600 |      600 |       0.14 | *
    |     2176 |        - |      598 |      598 |       0.14 | *
    |     2242 |        - |      593 |      593 |       0.15 | *
    |     2262 |        - |      591 |      591 |       0.15 | *
    |     2267 |        - |      590 |      590 |       0.15 | *
    |     2356 |        - |      577 |      577 |       0.15 | *
    |     2366 |        - |      573 |      573 |       0.15 | *
    |     2518 |        - |      571 |      571 |       0.15 | *
    |     2576 |        - |      570 |      570 |       0.15 | *
    |     2586 |        - |      566 |      566 |       0.15 | *
    |     2604 |        - |      562 |      562 |       0.15 | *
    |     2653 |        - |      561 |      561 |       0.15 | *
    |     2696 |        - |      558 |      558 |       0.15 | *
    |     2745 |        - |      555 |      555 |       0.15 | *
    |     2775 |        - |      554 |      554 |       0.15 | *
    |     2902 |        - |      552 |      552 |       0.15 | *
    |     2949 |        - |      551 |      551 |       0.15 | *
    |     2952 |        - |      550 |      550 |       0.15 | *
    |     2956 |        - |      549 |      549 |       0.15 | *
    |     3018 |        - |      546 |      546 |       0.16 | *
    |     3028 |        - |      544 |      544 |       0.16 | *
    |     3062 |        - |      543 |      543 |       0.16 | *
    |     3065 |        - |      542 |      542 |       0.16 | *
    |     3097 |        - |      540 |      540 |       0.16 | *
    |     3169 |        - |      537 |      537 |       0.16 | *
    |     3179 |        - |      535 |      535 |       0.16 | *
    |     3215 |        - |      534 |      534 |       0.16 | *
    |     3216 |        - |      531 |      531 |       0.16 | *
    |     3242 |        - |      530 |      530 |       0.16 | *
    |     3299 |        - |      529 |      529 |       0.16 | *
    |     3364 |        - |      528 |      528 |       0.16 | *
    |     3369 |        - |      527 |      527 |       0.16 | *
    |     3371 |        - |      525 |      525 |       0.16 | *
    |     3395 |        - |      522 |      522 |       0.17 | *
    |     3402 |        - |      515 |      515 |       0.17 | *
    |     3417 |        - |      514 |      514 |       0.17 | *
    |     3551 |        - |      513 |      513 |       0.17 | *
    |     3633 |        - |      512 |      512 |       0.17 | *
    |     3730 |        - |      509 |      509 |       0.17 | *
    |     3953 |        - |      508 |      508 |       0.17 | *
    |     4014 |        - |      507 |      507 |       0.17 | *
    |     4121 |        - |      506 |      506 |       0.17 | *
    |     4141 |        - |      505 |      505 |       0.17 | *
    |     4350 |        - |      502 |      502 |       0.17 | *
    |     4400 |        - |      501 |      501 |       0.18 | *
    |     4613 |        - |      500 |      500 |       0.18 | *
    |     4876 |        - |      498 |      498 |       0.18 | *
    |     4879 |        - |      494 |      494 |       0.18 | *
    |     4894 |        - |      493 |      493 |       0.18 | *
    |     4953 |        - |      492 |      492 |       0.18 | *
    |     4973 |        - |      491 |      491 |       0.18 | *
    |     5048 |        - |      490 |      490 |       0.18 | *
    |     5051 |        - |      488 |      488 |       0.18 | *
    |     5086 |        - |      486 |      486 |       0.18 | *
    |     5115 |        - |      485 |      485 |       0.18 | *
    |     5197 |        - |      483 |      483 |       0.18 | *
    |     5201 |        - |      479 |      479 |       0.19 | *
    |     5378 |        - |      478 |      478 |       0.19 | *
    |     5391 |        - |      477 |      477 |       0.19 | *
    |     5466 |        - |      476 |      476 |       0.19 | *
    |     5482 |        - |      475 |      475 |       0.19 | *
    |     5490 |        - |      473 |      473 |       0.19 | *
    |     5509 |        - |      472 |      472 |       0.19 | *
    |     5516 |        - |      470 |      470 |       0.19 | *
    |     5544 |        - |      469 |      469 |       0.19 | *
    |     5558 |        - |      467 |      467 |       0.19 | *
    |     5572 |        - |      466 |      466 |       0.19 | *
    |     5588 |        - |      464 |      464 |       0.19 | *
    |     5593 |        - |      463 |      463 |       0.19 | *
    |     5704 |        - |      462 |      462 |       0.19 | *
    |     5952 |        - |      461 |      461 |       0.20 | *
    |     5977 |        - |      460 |      460 |       0.20 | *
    |     6118 |        - |      459 |      459 |       0.20 | *
    |     6171 |        - |      458 |      458 |       0.20 | *
    |     6333 |        - |      457 |      457 |       0.20 | *
    |     6576 |        - |      456 |      456 |       0.20 | *
    |     6656 |        - |      453 |      453 |       0.20 | *
    |     6767 |        - |      452 |      452 |       0.20 | *
    |     6781 |        - |      451 |      451 |       0.20 | *
    |     6811 |        - |      450 |      450 |       0.20 | *
    |     6909 |        - |      448 |      448 |       0.20 | *
    |     6922 |        - |      447 |      447 |       0.20 | *
    |     6988 |        - |      446 |      446 |       0.20 | *
    |     7014 |        - |      445 |      445 |       0.21 | *
    |     7018 |        - |      444 |      444 |       0.21 | *
    |     7096 |        - |      443 |      443 |       0.21 | *
    |     7114 |        - |      442 |      442 |       0.21 | *
    |     7143 |        - |      440 |      440 |       0.21 | *
    |     7183 |        - |      439 |      439 |       0.21 | *
    |     7205 |        - |      438 |      438 |       0.21 | *
    |     7409 |        - |      437 |      437 |       0.21 | *
    |     7528 |        - |      436 |      436 |       0.21 | *
    |     7719 |        - |      434 |      434 |       0.21 | *
    |     8045 |        - |      433 |      433 |       0.21 | *
    |     8103 |        - |      432 |      432 |       0.21 | *
    |     8250 |        - |      430 |      430 |       0.22 | *
    |     8375 |        - |      427 |      427 |       0.22 | *
    |     8429 |        - |      426 |      426 |       0.22 | *
    |     8494 |        - |      425 |      425 |       0.22 | *
    |     8530 |        - |      424 |      424 |       0.22 | *
    |     8751 |        - |      423 |      423 |       0.22 | *
    |     9061 |        - |      422 |      422 |       0.22 | *
    |     9074 |        - |      421 |      421 |       0.22 | *
    |     9243 |        - |      419 |      419 |       0.22 | *
    |     9745 |        - |      415 |      415 |       0.22 | *
    |     9749 |        - |      414 |      414 |       0.23 | *
    |     9806 |        - |      412 |      412 |       0.23 | *
    |     9907 |        - |      411 |      411 |       0.23 | *
    |     9930 |        - |      410 |      410 |       0.23 | *
    |      10K |        - |      409 |      409 |       0.23 | *
    |      10K |        - |      408 |      408 |       0.23 | *
    |      10K |        - |      406 |      406 |       0.23 | *
    |      11K |        - |      403 |      403 |       0.23 | *
    |      11K |        - |      402 |      402 |       0.23 | *
    |      11K |        - |      400 |      400 |       0.23 | *
    |      11K |        - |      399 |      399 |       0.23 | *
    |      11K |        - |      398 |      398 |       0.23 | *
    |      11K |        - |      397 |      397 |       0.24 | *
    |      12K |        - |      396 |      396 |       0.24 | *
    |      12K |        - |      395 |      395 |       0.24 | *
    |      12K |        - |      392 |      392 |       0.24 | *
    |      12K |        - |      389 |      389 |       0.24 | *
    |      12K |        - |      388 |      388 |       0.24 | *
    |      12K |        - |      387 |      387 |       0.24 | *
    |      13K |        - |      386 |      386 |       0.24 | *
    |      13K |        - |      385 |      385 |       0.25 | *
    |      13K |        - |      384 |      384 |       0.25 | *
    |      14K |        - |      382 |      382 |       0.25 | *
    |      14K |        - |      381 |      381 |       0.25 | *
    |      14K |        - |      378 |      378 |       0.25 | *
    |      14K |        - |      377 |      377 |       0.25 | *
    |      15K |        - |      375 |      375 |       0.25 | *
    |      15K |        - |      374 |      374 |       0.25 | *
    |      15K |        - |      373 |      373 |       0.26 | *
    |      15K |        - |      372 |      372 |       0.26 | *
    |      15K |        - |      371 |      371 |       0.26 | *
    |      15K |        - |      370 |      370 |       0.26 | *
    |      15K |        - |      369 |      369 |       0.26 | *
    |      16K |        - |      368 |      368 |       0.26 | *
    |      16K |        - |      364 |      364 |       0.26 | *
    |      16K |        - |      363 |      363 |       0.26 | *
    |      16K |        - |      362 |      362 |       0.26 | *
    |      16K |        - |      360 |      360 |       0.26 | *
    |      17K |        - |      358 |      358 |       0.27 | *
    |      17K |        - |      357 |      357 |       0.27 | *
    |      17K |        - |      353 |      353 |       0.27 | *
    |      17K |        - |      352 |      352 |       0.27 | *
    |      17K |        - |      351 |      351 |       0.27 | *
    |      17K |        - |      348 |      348 |       0.27 | *
    |      18K |        - |      347 |      347 |       0.27 | *
    |      18K |        - |      346 |      346 |       0.27 | *
    |      18K |        - |      345 |      345 |       0.28 | *
    |      18K |        - |      344 |      344 |       0.28 | *
    |      18K |        - |      343 |      343 |       0.28 | *
    |      18K |        - |      342 |      342 |       0.28 | *
    |      18K |        - |      338 |      338 |       0.28 | *
    |      20K |        - |      337 |      337 |       0.29 | *
    |      21K |        - |      334 |      334 |       0.29 | *
    |      21K |        - |      332 |      332 |       0.29 | *
    |      21K |        - |      330 |      330 |       0.29 | *
    |      23K |        - |      329 |      329 |       0.30 | *
    |      23K |        - |      328 |      328 |       0.30 | *
    |      23K |        - |      327 |      327 |       0.30 | *
    |      24K |        - |      326 |      326 |       0.30 | *
    |      24K |        - |      325 |      325 |       0.30 | *
    |      24K |        - |      324 |      324 |       0.30 | *
    |      24K |        - |      323 |      323 |       0.30 | *
    |      24K |        - |      322 |      322 |       0.31 | *
    |      24K |        - |      320 |      320 |       0.31 | *
    |      24K |        - |      318 |      318 |       0.31 | *
    |      26K |        - |      317 |      317 |       0.31 | *
    |      27K |        - |      316 |      316 |       0.31 | *
    |      27K |        - |      315 |      315 |       0.31 | *
    |      27K |        - |      314 |      314 |       0.32 | *
    |      29K |        - |      313 |      313 |       0.32 | *
    |      30K |        - |      312 |      312 |       0.32 | *
    |      30K |        - |      311 |      311 |       0.32 | *
    |      30K |        - |      310 |      310 |       0.33 | *
    |      31K |        - |      309 |      309 |       0.33 | *
    |      31K |        - |      308 |      308 |       0.33 | *
    |      34K |        - |      307 |      307 |       0.34 | *
    |      36K |        - |      306 |      306 |       0.34 | *
    |      36K |        - |      305 |      305 |       0.34 | *
    |      39K |        - |      304 |      304 |       0.35 | *
    |      39K |        - |      303 |      303 |       0.35 | *
    |      40K |        - |      302 |      302 |       0.35 | *
    |      40K |        - |      301 |      301 |       0.35 | *
    |      40K |        - |      299 |      299 |       0.36 | *
    |      46K |        - |      297 |      297 |       0.37 | *
    |      47K |        - |      296 |      296 |       0.37 | *
    |      47K |        - |      295 |      295 |       0.38 | *
    |      48K |        - |      293 |      293 |       0.38 | *
    |      49K |        - |      292 |      292 |       0.38 | *
    |      49K |        - |      291 |      291 |       0.38 | *
    |      49K |        - |      290 |      290 |       0.38 | *
    |      50K |        - |      289 |      289 |       0.39 | *
    |      51K |        - |      288 |      288 |       0.39 | *
    |      51K |        - |      287 |      287 |       0.39 | *
    |      51K |        - |      285 |      285 |       0.39 | *
    |      51K |        - |      284 |      284 |       0.39 | *
    |      52K |        - |      282 |      282 |       0.40 | *
    |      54K |        - |      281 |      281 |       0.41 | *
    |      55K |        - |      280 |      280 |       0.41 | *
    |      55K |        - |      278 |      278 |       0.41 | *
    |      56K |        - |      277 |      277 |       0.41 | *
    |      56K |        - |      276 |      276 |       0.41 | *
    |      65K |        - |      275 |      275 |       0.44 | *
    |      65K |        - |      274 |      274 |       0.44 | *
    |      74K |        - |      273 |      273 |       0.47 | *
    |      76K |        - |      270 |      270 |       0.48 | *
    |      79K |        - |      269 |      269 |       0.49 | *
    |      79K |        - |      267 |      267 |       0.49 | *
    |      80K |        - |      265 |      265 |       0.49 | *
    |      80K |        - |      264 |      264 |       0.49 | *
    |      81K |        - |      263 |      263 |       0.49 | *
    |      83K |        - |      262 |      262 |       0.50 | *
    |      84K |        - |      261 |      261 |       0.50 | *
    |      85K |        - |      260 |      260 |       0.50 | *
    |      88K |        - |      259 |      259 |       0.51 | *
    |      88K |        - |      258 |      258 |       0.51 | *
    |      99K |        - |      257 |      257 |       0.55 | *
    |     100K |        - |      256 |      256 |       0.55 | *
    |     105K |        - |      255 |      255 |       0.56 | *
    |     105K |        - |      254 |      254 |       0.57 | *
    |     110K |        - |      252 |      252 |       0.58 | *
    |     110K |        - |      251 |      251 |       0.58 | *
    |     111K |        - |      250 |      250 |       0.59 | *
    |     114K |        - |      249 |      249 |       0.59 | *
    |     116K |        - |      248 |      248 |       0.60 | *
    |     118K |        - |      247 |      247 |       0.61 | *
    |     118K |        - |      246 |      246 |       0.61 | *
    |     118K |        - |      245 |      245 |       0.61 | *
    |     121K |        - |      244 |      244 |       0.62 | *
    |     121K |        - |      243 |      243 |       0.62 | *
    |     122K |        - |      242 |      242 |       0.62 | *
    |     122K |        - |      241 |      241 |       0.63 | *
    |     122K |        - |      240 |      240 |       0.63 | *
    |     123K |        - |      238 |      238 |       0.63 | *
    |     124K |        - |      237 |      237 |       0.63 | *
    |     127K |        - |      236 |      236 |       0.64 | *
    |     128K |        - |      235 |      235 |       0.65 | *
    |     135K |        - |      234 |      234 |       0.67 | *
    |     139K |        - |      233 |      233 |       0.70 | *
    |     163K |        - |      232 |      232 |       0.79 | *
    |     169K |        - |      231 |      231 |       0.81 | *
    |     172K |        - |      230 |      230 |       0.83 | *
    |     173K |        - |      229 |      229 |       0.83 | *
    |     175K |        - |      227 |      227 |       0.84 | *
    |     183K |        - |      226 |      226 |       0.87 | *
    |     188K |        - |      225 |      225 |       0.89 | *
    |     190K |        - |      224 |      224 |       0.90 | *
    |     193K |        - |      223 |      223 |       0.91 | *
    |     197K |        - |      222 |      222 |       0.93 | *
    |     204K |        - |      221 |      221 |       0.95 | *
    |     205K |        - |      220 |      220 |       0.96 | *
    |     227K |        - |      219 |      219 |       1.03 | *
    |     227K |        - |      218 |      218 |       1.03 | *
    |     228K |        - |      217 |      217 |       1.03 | *
    |     235K |        - |      216 |      216 |       1.05 | *
    |     238K |        - |      215 |      215 |       1.06 | *
    |     249K |        - |      214 |      214 |       1.09 | *
    |     253K |        - |      213 |      213 |       1.10 | *
    |     256K |        - |      212 |      212 |       1.11 | *
    |     264K |        - |      211 |      211 |       1.12 | *
    |     265K |        - |      210 |      210 |       1.13 | *
    |     275K |        - |      209 |      209 |       1.14 | *
    |     276K |        - |      208 |      208 |       1.15 | *
    |     282K |        - |      207 |      207 |       1.16 | *
    |     295K |        - |      206 |      206 |       1.18 | *
    |     310K |        - |      205 |      205 |       1.21 | *
    |     314K |        - |      204 |      204 |       1.22 | *
    |     315K |        - |      203 |      203 |       1.22 | *
    |     315K |        - |      202 |      202 |       1.23 | *
    |     333K |        - |      201 |      201 |       1.27 | *
    |     335K |        - |      200 |      200 |       1.28 | *
    |     347K |        - |      199 |      199 |       1.31 | *
    |     415K |        - |      198 |      198 |       1.44 | *
    |     415K |        - |      197 |      197 |       1.44 | *
    |     433K |        - |      196 |      196 |       1.46 | *
    |     437K |        - |      195 |      195 |       1.47 | *
    |     437K |        - |      194 |      194 |       1.47 | *
    |     438K |        - |      193 |      193 |       1.47 | *
    |     488K |        - |      192 |      192 |       1.53 | *
    |     552K |        - |      191 |      191 |       1.62 | *
    |     556K |        - |      190 |      190 |       1.62 | *
    |     562K |        - |      189 |      189 |       1.63 | *
    |     562K |        - |      188 |      188 |       1.63 | *
    |     562K |        - |      187 |      187 |       1.63 | *
    |     579K |        - |      186 |      186 |       1.66 | *
    |     650K |        - |      185 |      185 |       1.75 | *
    |     673K |        - |      184 |      184 |       1.78 | *
    |     704K |        - |      183 |      183 |       1.81 | *
    |     711K |        - |      182 |      182 |       1.82 | *
    |     743K |        - |      181 |      181 |       1.85 | *
    |     753K |        - |      180 |      180 |       1.86 | *
    |     758K |        - |      178 |      178 |       1.87 | *
    |     758K |        - |      177 |      177 |       1.87 | *
    |     865K |        - |      176 |      176 |       1.98 | *
    |     888K |        - |      175 |      175 |       1.99 | *
    |     956K |        - |      174 |      174 |       2.05 | *
    |     990K |        - |      173 |      173 |       2.07 | *
    |    1048K |        - |      172 |      172 |       2.12 | *
    |    1858K |        - |      171 |      171 |       2.74 | *
    |    1859K |        - |      170 |      170 |       2.74 | *
    |    1921K |        - |      169 |      169 |       2.78 | *
    |    2052K |        - |      168 |      168 |       2.88 | *
    |    2081K |        - |      167 |      167 |       2.91 | *
    |    2081K |        - |      166 |      166 |       2.91 | *
    |    2187K |        - |      165 |      165 |       2.99 | *
    |    2296K |        - |      164 |      164 |       3.07 | *
    |    2384K |        - |      163 |      163 |       3.14 | *
    |    2498K |        - |      162 |      162 |       3.23 | *
    |    2653K |        - |      161 |      161 |       3.35 | *
    |    2689K |        - |      160 |      160 |       3.37 | *
    |    2761K |        - |      159 |      159 |       3.43 | *
    |    6072K |        - |      158 |      158 |       5.98 | *
    |    6114K |        - |      157 |      157 |       6.02 | *
    |    6120K |        - |      156 |      156 |       6.02 | *
    |    6686K |        - |      155 |      155 |       6.46 | *
    |    7124K |        - |      154 |      154 |       6.79 | *
    |    7240K |        - |      153 |      153 |       6.88 | *
    |    7519K |        - |      152 |      152 |       7.11 | *
    |    8562K |        - |      151 |      151 |       7.91 | *
    |    9089K |        - |      150 |      150 |       8.30 | *
    |      12M |        - |      149 |      149 |      10.27 | *
    |      12M |        - |      148 |      148 |      10.28 | *
    |      14M |        - |      147 |      147 |      12.33 | *
    |      27M |        - |      146 |      146 |      22.07 | *
    |      31M |        - |      145 |      145 |      25.01 | *
    |      31M |        - |      144 |      144 |      25.31 | *
    |      31M |        - |      143 |      143 |      25.50 | *
    |      34M |        - |      142 |      142 |      27.55 | *
    |      35M |        - |      141 |      141 |      27.82 | *
    |      35M |        - |      140 |      140 |      27.99 | *
    |      35M |        - |      139 |      139 |      28.20 | *
    |      35M |        - |      138 |      138 |      28.23 | *
    |      40M |        - |      137 |      137 |      32.20 | *
    |      41M |        - |      136 |      136 |      32.85 | *
    |     102M |        - |      135 |      135 |      79.18 | *
    |     123M |        - |      134 |      134 |      94.90 | *
    |     128M |        - |      133 |      133 |      98.71 | *
    |     128M |        - |      132 |      132 |      99.33 | *
    |     326M |        - |      131 |      131 |     250.24 | *
    |     336M |        - |      130 |      130 |     257.23 | *
    |     336M |        - |      129 |      129 |     257.58 | *
    |     336M |        - |      128 |      128 |     257.75 | *
    |     400M |        - |      127 |      127 |     306.23 | *
    |     409M |        - |      126 |      126 |     313.05 | *
    |     796M |        - |      125 |      125 |     608.51 | *
    |    1016M |        - |      124 |      124 |     775.17 | *
    |    1053M |        - |      123 |      123 |     803.88 | *
    |    1096M |        - |      122 |      122 |     836.42 | *
    |    2501M |        - |      121 |      121 |    1897.04 | *
    |    3788M |        - |      120 |      120 |    2849.51 | *
    \--------------------------------------------------------/

Neighborhoods statistics (values in %):

    /----------------------------------------------------------------\
    | Move               | Improvs. | Sideways |  Accepts |  Rejects |
    |--------------------|----------|----------|----------|----------|
    | Shift(mk)          |     8358 |      33K |      43K |     200M |
    | Shift              |      357 |     416K |     424K |     199M |
    | ShiftSmart(mk)     |      71K |     263K |     351K |     199M |
    | ShiftSmart         |     2869 |    3197K |    3253K |     196M |
    | SimpSwap(mk)       |       50 |      162 |      237 |     200M |
    | SimpSwap           |        9 |      820 |      865 |     200M |
    | SimpSwapSmart(mk)  |      433 |     1260 |     1850 |     200M |
    | SimpSwapSmart      |       42 |     7573 |     7949 |     200M |
    | Swap(mk)           |        8 |       20 |       30 |     200M |
    | Swap               |        0 |      121 |      122 |     200M |
    | SwapSmart(mk)      |      406 |     1248 |     1801 |     200M |
    | SwapSmart          |       35 |     5766 |     6096 |     200M |
    | Switch(mk)         |     2189 |      19M |      19M |     180M |
    | Switch             |       87 |      21M |      21M |     179M |
    | SwitchSmart(mk)    |      16K |      42K |      64K |     200M |
    | SwitchSmart        |      673 |     439K |     450K |     199M |
    | TaskMove(mk)       |      624 |     4205 |     5093 |     200M |
    | TaskMove           |       37 |     9050 |     9476 |     200M |
    | TaskMoveSmart(mk)  |     5794 |      38K |      47K |     200M |
    | TaskMoveSmart      |      286 |      83K |      87K |     200M |
    | 2-Shift(mk)        |     2316 |    2181K |    2184K |     197M |
    | 2-Shift            |      120 |    2593K |    2595K |     197M |
    | 2-ShiftSmart(mk)   |      17K |    3648K |    3669K |     196M |
    | 2-ShiftSmart       |      653 |    4678K |    4689K |     195M |
    \----------------------------------------------------------------/

Best makespan.....: 120
N. of Iterations..: 4792887299
Total runtime.....: 3600.01s
Using Python-MIP package version 1.6.8
Começo a execução
    /-------------------------------------------------------------------------------\
    |    Makespan   |   Free Jobs   | Free Machines |    It. Time   |   Total Time  | 
    |-------------------------------------------------------------------------------|
    \-------------------------------------------------------------------------------/
Terminou a execução
