Instance....: instances/I_50_15_S_1-124_5.txt
Algorithm...: Simulated Annealing (alpha=0.990, saMax=10M, t0=1)
Other params: maxIters=100M, seed=-1, timeLimit=3600.00s

    /--------------------------------------------------------\
    |     Iter |   RDP(%) |       S* |       S' |       Time | 
    |----------|----------|----------|----------|------------|
    |        0 |        - |      588 |      588 |       0.00 | s0
    |        0 |        - |      579 |      579 |       0.01 | *
    |       11 |        - |      547 |      547 |       0.03 | *
    |       15 |        - |      542 |      542 |       0.03 | *
    |       16 |        - |      541 |      541 |       0.04 | *
    |       18 |        - |      485 |      485 |       0.04 | *
    |       19 |        - |      479 |      479 |       0.04 | *
    |       20 |        - |      468 |      468 |       0.04 | *
    |       22 |        - |      439 |      439 |       0.04 | *
    |       27 |        - |      436 |      436 |       0.04 | *
    |       36 |        - |      435 |      435 |       0.04 | *
    |       37 |        - |      417 |      417 |       0.04 | *
    |       45 |        - |      391 |      391 |       0.05 | *
    |       56 |        - |      382 |      382 |       0.05 | *
    |       57 |        - |      372 |      372 |       0.05 | *
    |       82 |        - |      366 |      366 |       0.05 | *
    |       87 |        - |      355 |      355 |       0.05 | *
    |       91 |        - |      353 |      353 |       0.05 | *
    |       92 |        - |      343 |      343 |       0.05 | *
    |       95 |        - |      321 |      321 |       0.05 | *
    |       96 |        - |      313 |      313 |       0.05 | *
    |      102 |        - |      307 |      307 |       0.05 | *
    |      107 |        - |      305 |      305 |       0.05 | *
    |      110 |        - |      296 |      296 |       0.05 | *
    |      111 |        - |      286 |      286 |       0.05 | *
    |      126 |        - |      284 |      284 |       0.06 | *
    |      132 |        - |      273 |      273 |       0.06 | *
    |      139 |        - |      268 |      268 |       0.06 | *
    |      140 |        - |      258 |      258 |       0.06 | *
    |      152 |        - |      248 |      248 |       0.06 | *
    |      153 |        - |      246 |      246 |       0.06 | *
    |      163 |        - |      245 |      245 |       0.06 | *
    |      203 |        - |      241 |      241 |       0.06 | *
    |      228 |        - |      240 |      240 |       0.06 | *
    |      246 |        - |      236 |      236 |       0.07 | *
    |      249 |        - |      231 |      231 |       0.07 | *
    |      253 |        - |      226 |      226 |       0.07 | *
    |      285 |        - |      224 |      224 |       0.07 | *
    |      306 |        - |      223 |      223 |       0.07 | *
    |      327 |        - |      220 |      220 |       0.07 | *
    |      372 |        - |      219 |      219 |       0.07 | *
    |      402 |        - |      217 |      217 |       0.07 | *
    |      436 |        - |      215 |      215 |       0.07 | *
    |      459 |        - |      213 |      213 |       0.08 | *
    |      492 |        - |      209 |      209 |       0.08 | *
    |      496 |        - |      206 |      206 |       0.08 | *
    |      585 |        - |      203 |      203 |       0.08 | *
    |      600 |        - |      200 |      200 |       0.08 | *
    |      664 |        - |      199 |      199 |       0.08 | *
    |      667 |        - |      198 |      198 |       0.08 | *
    |      686 |        - |      191 |      191 |       0.08 | *
    |      705 |        - |      190 |      190 |       0.09 | *
    |      749 |        - |      189 |      189 |       0.09 | *
    |      851 |        - |      185 |      185 |       0.09 | *
    |      855 |        - |      181 |      181 |       0.09 | *
    |      862 |        - |      178 |      178 |       0.09 | *
    |     1051 |        - |      174 |      174 |       0.09 | *
    |     1059 |        - |      164 |      164 |       0.09 | *
    |     1079 |        - |      161 |      161 |       0.09 | *
    |     1081 |        - |      160 |      160 |       0.09 | *
    |     1111 |        - |      154 |      154 |       0.10 | *
    |     1185 |        - |      151 |      151 |       0.10 | *
    |     1238 |        - |      148 |      148 |       0.10 | *
    |     1262 |        - |      147 |      147 |       0.10 | *
    |     1276 |        - |      145 |      145 |       0.10 | *
    |     1365 |        - |      142 |      142 |       0.10 | *
    |     1663 |        - |      137 |      137 |       0.10 | *
    |     1688 |        - |      135 |      135 |       0.10 | *
    |     1762 |        - |      133 |      133 |       0.11 | *
    |     2224 |        - |      131 |      131 |       0.11 | *
    |     2230 |        - |      130 |      130 |       0.11 | *
    |     2286 |        - |      126 |      126 |       0.11 | *
    |     2464 |        - |      124 |      124 |       0.11 | *
    |     2471 |        - |      122 |      122 |       0.11 | *
    |     2497 |        - |      121 |      121 |       0.11 | *
    |     2506 |        - |      120 |      120 |       0.12 | *
    |     2882 |        - |      119 |      119 |       0.12 | *
    |     3202 |        - |      117 |      117 |       0.12 | *
    |     3522 |        - |      116 |      116 |       0.12 | *
    |     3620 |        - |      114 |      114 |       0.13 | *
    |     3623 |        - |      113 |      113 |       0.13 | *
    |     3635 |        - |      112 |      112 |       0.13 | *
    |     3865 |        - |      105 |      105 |       0.13 | *
    |     3965 |        - |      104 |      104 |       0.13 | *
    |     4164 |        - |      103 |      103 |       0.13 | *
    |     4788 |        - |      101 |      101 |       0.14 | *
    |     4818 |        - |      100 |      100 |       0.14 | *
    |     5067 |        - |       98 |       98 |       0.14 | *
    |     7467 |        - |       96 |       96 |       0.15 | *
    |      11K |        - |       95 |       95 |       0.16 | *
    |      12K |        - |       94 |       94 |       0.16 | *
    |      12K |        - |       93 |       93 |       0.16 | *
    |      12K |        - |       91 |       91 |       0.16 | *
    |      13K |        - |       90 |       90 |       0.16 | *
    |      13K |        - |       89 |       89 |       0.17 | *
    |      13K |        - |       88 |       88 |       0.17 | *
    |      14K |        - |       87 |       87 |       0.17 | *
    |      15K |        - |       86 |       86 |       0.17 | *
    |      34K |        - |       85 |       85 |       0.21 | *
    |      34K |        - |       84 |       84 |       0.21 | *
    |      34K |        - |       82 |       82 |       0.21 | *
    |      35K |        - |       80 |       80 |       0.21 | *
    |      35K |        - |       78 |       78 |       0.21 | *
    |      36K |        - |       77 |       77 |       0.22 | *
    |      58K |        - |       76 |       76 |       0.26 | *
    |      61K |        - |       74 |       74 |       0.27 | *
    |      84K |        - |       71 |       71 |       0.30 | *
    |     120K |        - |       70 |       70 |       0.35 | *
    |     169K |        - |       69 |       69 |       0.42 | *
    |     170K |        - |       68 |       68 |       0.44 | *
    |     170K |        - |       67 |       67 |       0.44 | *
    |     232K |        - |       66 |       66 |       0.57 | *
    |     281K |        - |       65 |       65 |       0.67 | *
    |     283K |        - |       62 |       62 |       0.68 | *
    |     381K |        - |       61 |       61 |       0.91 | *
    |     404K |        - |       60 |       60 |       1.03 | *
    |     932K |        - |       58 |       58 |       2.16 | *
    |    1450K |        - |       57 |       57 |       2.71 | *
    \--------------------------------------------------------/

Neighborhoods statistics (values in %):

    /----------------------------------------------------------------\
    | Move               | Improvs. | Sideways |  Accepts |  Rejects |
    |--------------------|----------|----------|----------|----------|
    | Shift(mk)          |      46K |      32K |      90K |     271M |
    | Shift              |     3074 |    1416K |    1458K |     270M |
    | ShiftSmart(mk)     |      88K |      71K |     177K |     271M |
    | ShiftSmart         |     5913 |    2549K |    2635K |     269M |
    | SimpSwap(mk)       |      781 |     1086 |     1983 |     271M |
    | SimpSwap           |      100 |      21K |      22K |     272M |
    | SimpSwapSmart(mk)  |     1633 |     1909 |     3849 |     272M |
    | SimpSwapSmart      |      267 |      49K |      51K |     271M |
    | Swap(mk)           |      452 |      777 |     1285 |     271M |
    | Swap               |       63 |      45K |      45K |     272M |
    | SwapSmart(mk)      |     2506 |     2920 |     5753 |     271M |
    | SwapSmart          |      352 |     246K |     248K |     271M |
    | Switch(mk)         |      15K |      68M |      68M |     203M |
    | Switch             |     1010 |      89M |      89M |     183M |
    | SwitchSmart(mk)    |      39K |      16K |      66K |     272M |
    | SwitchSmart        |     2563 |     413K |     444K |     271M |
    | TaskMove(mk)       |     5936 |     5743 |      14K |     271M |
    | TaskMove           |      407 |     134K |     138K |     272M |
    | TaskMoveSmart(mk)  |      18K |      18K |      44K |     271M |
    | TaskMoveSmart      |     1296 |     515K |     529K |     271M |
    | 2-Shift(mk)        |      31K |      24M |      24M |     248M |
    | 2-Shift            |     2110 |      55M |      55M |     217M |
    | 2-ShiftSmart(mk)   |      40K |      25M |      25M |     247M |
    | 2-ShiftSmart       |     2661 |     100M |     100M |     171M |
    \----------------------------------------------------------------/

Best makespan.....: 57
N. of Iterations..: 6517116687
Total runtime.....: 3600.03s
Using Python-MIP package version 1.6.8
Começo a execução
    /-------------------------------------------------------------------------------\
    |    Makespan   |   Free Jobs   | Free Machines |    It. Time   |   Total Time  | 
    |-------------------------------------------------------------------------------|
    \-------------------------------------------------------------------------------/
Terminou a execução
