Instance....: instances/I_50_30_S_1-99_5.txt
Algorithm...: Simulated Annealing (alpha=0.990, saMax=10M, t0=1)
Other params: maxIters=100M, seed=-1, timeLimit=3600.00s

    /--------------------------------------------------------\
    |     Iter |   RDP(%) |       S* |       S' |       Time | 
    |----------|----------|----------|----------|------------|
    |        0 |        - |      470 |      470 |       0.00 | s0
    |        0 |        - |      408 |      408 |       0.00 | *
    |        1 |        - |      354 |      354 |       0.01 | *
    |        2 |        - |      352 |      352 |       0.01 | *
    |        4 |        - |      324 |      324 |       0.01 | *
    |        9 |        - |      314 |      314 |       0.03 | *
    |       14 |        - |      293 |      293 |       0.03 | *
    |       15 |        - |      291 |      291 |       0.03 | *
    |       17 |        - |      266 |      266 |       0.03 | *
    |       18 |        - |      246 |      246 |       0.03 | *
    |       20 |        - |      242 |      242 |       0.03 | *
    |       21 |        - |      237 |      237 |       0.04 | *
    |       27 |        - |      223 |      223 |       0.04 | *
    |       48 |        - |      222 |      222 |       0.04 | *
    |       49 |        - |      218 |      218 |       0.04 | *
    |       52 |        - |      213 |      213 |       0.04 | *
    |       55 |        - |      208 |      208 |       0.04 | *
    |       58 |        - |      204 |      204 |       0.04 | *
    |       59 |        - |      200 |      200 |       0.04 | *
    |       62 |        - |      198 |      198 |       0.04 | *
    |       87 |        - |      195 |      195 |       0.04 | *
    |       89 |        - |      192 |      192 |       0.04 | *
    |       90 |        - |      186 |      186 |       0.04 | *
    |       97 |        - |      184 |      184 |       0.05 | *
    |      117 |        - |      182 |      182 |       0.05 | *
    |      119 |        - |      176 |      176 |       0.05 | *
    |      123 |        - |      172 |      172 |       0.05 | *
    |      128 |        - |      171 |      171 |       0.05 | *
    |      130 |        - |      167 |      167 |       0.05 | *
    |      133 |        - |      146 |      146 |       0.05 | *
    |      201 |        - |      145 |      145 |       0.05 | *
    |      204 |        - |      144 |      144 |       0.05 | *
    |      210 |        - |      143 |      143 |       0.05 | *
    |      211 |        - |      142 |      142 |       0.05 | *
    |      222 |        - |      140 |      140 |       0.05 | *
    |      230 |        - |      139 |      139 |       0.06 | *
    |      231 |        - |      138 |      138 |       0.06 | *
    |      247 |        - |      136 |      136 |       0.06 | *
    |      249 |        - |      131 |      131 |       0.06 | *
    |      252 |        - |      129 |      129 |       0.06 | *
    |      265 |        - |      127 |      127 |       0.06 | *
    |      274 |        - |      123 |      123 |       0.06 | *
    |      294 |        - |      120 |      120 |       0.06 | *
    |      296 |        - |      118 |      118 |       0.06 | *
    |      331 |        - |      111 |      111 |       0.07 | *
    |      366 |        - |      110 |      110 |       0.07 | *
    |      378 |        - |      107 |      107 |       0.07 | *
    |      379 |        - |      105 |      105 |       0.07 | *
    |      381 |        - |       99 |       99 |       0.07 | *
    |      465 |        - |       96 |       96 |       0.07 | *
    |      488 |        - |       95 |       95 |       0.07 | *
    |      506 |        - |       94 |       94 |       0.07 | *
    |      518 |        - |       93 |       93 |       0.07 | *
    |      575 |        - |       91 |       91 |       0.07 | *
    |      586 |        - |       90 |       90 |       0.07 | *
    |      615 |        - |       88 |       88 |       0.07 | *
    |      634 |        - |       87 |       87 |       0.07 | *
    |      661 |        - |       86 |       86 |       0.07 | *
    |      727 |        - |       85 |       85 |       0.07 | *
    |      773 |        - |       83 |       83 |       0.08 | *
    |      855 |        - |       81 |       81 |       0.08 | *
    |     1156 |        - |       79 |       79 |       0.08 | *
    |     1162 |        - |       78 |       78 |       0.08 | *
    |     1198 |        - |       76 |       76 |       0.08 | *
    |     1346 |        - |       74 |       74 |       0.08 | *
    |     1435 |        - |       73 |       73 |       0.08 | *
    |     1467 |        - |       72 |       72 |       0.08 | *
    |     1748 |        - |       69 |       69 |       0.08 | *
    |     2456 |        - |       68 |       68 |       0.09 | *
    |     2483 |        - |       66 |       66 |       0.09 | *
    |     2555 |        - |       64 |       64 |       0.09 | *
    |     2573 |        - |       62 |       62 |       0.09 | *
    |     2689 |        - |       61 |       61 |       0.09 | *
    |     2756 |        - |       60 |       60 |       0.09 | *
    |     2801 |        - |       57 |       57 |       0.09 | *
    |     3169 |        - |       56 |       56 |       0.09 | *
    |     3221 |        - |       54 |       54 |       0.09 | *
    |     3539 |        - |       53 |       53 |       0.09 | *
    |     3965 |        - |       52 |       52 |       0.10 | *
    |     4148 |        - |       51 |       51 |       0.10 | *
    |     4214 |        - |       50 |       50 |       0.10 | *
    |     4360 |        - |       49 |       49 |       0.10 | *
    |     4403 |        - |       48 |       48 |       0.10 | *
    |     4791 |        - |       47 |       47 |       0.11 | *
    |     5018 |        - |       46 |       46 |       0.11 | *
    |     5057 |        - |       44 |       44 |       0.11 | *
    |     5803 |        - |       43 |       43 |       0.11 | *
    |     6426 |        - |       42 |       42 |       0.11 | *
    |     7520 |        - |       41 |       41 |       0.12 | *
    |     7578 |        - |       40 |       40 |       0.12 | *
    |     8161 |        - |       37 |       37 |       0.12 | *
    |     9274 |        - |       36 |       36 |       0.12 | *
    |     9500 |        - |       35 |       35 |       0.12 | *
    |      15K |        - |       34 |       34 |       0.13 | *
    |      27K |        - |       33 |       33 |       0.14 | *
    |      29K |        - |       32 |       32 |       0.14 | *
    |      37K |        - |       31 |       31 |       0.16 | *
    |      41K |        - |       30 |       30 |       0.17 | *
    |      45K |        - |       29 |       29 |       0.17 | *
    |      48K |        - |       28 |       28 |       0.18 | *
    |      71K |        - |       27 |       27 |       0.20 | *
    |      73K |        - |       25 |       25 |       0.20 | *
    |      74K |        - |       24 |       24 |       0.20 | *
    |     171K |        - |       23 |       23 |       0.29 | *
    |     204K |        - |       22 |       22 |       0.33 | *
    |     206K |        - |       21 |       21 |       0.33 | *
    |     295K |        - |       20 |       20 |       0.45 | *
    |    1647K |        - |       19 |       19 |       1.66 | *
    \--------------------------------------------------------/

Neighborhoods statistics (values in %):

    /----------------------------------------------------------------\
    | Move               | Improvs. | Sideways |  Accepts |  Rejects |
    |--------------------|----------|----------|----------|----------|
    | Shift(mk)          |      58K |     166K |     226K |     260M |
    | Shift              |     3412 |      25M |      25M |     287M |
    | ShiftSmart(mk)     |      61K |     305K |     368K |     260M |
    | ShiftSmart         |     3526 |      25M |      25M |     287M |
    | SimpSwap(mk)       |      16K |    1488K |    1507K |     310M |
    | SimpSwap           |     1032 |    1269K |    1283K |     311M |
    | SimpSwapSmart(mk)  |      16K |    1513K |    1532K |     311M |
    | SimpSwapSmart      |     1136 |    1324K |    1340K |     311M |
    | Swap(mk)           |      15K |    1476K |    1495K |     310M |
    | Swap               |      974 |    1282K |    1295K |     311M |
    | SwapSmart(mk)      |      17K |    1497K |    1518K |     310M |
    | SwapSmart          |     1204 |    1407K |    1424K |     310M |
    | Switch(mk)         |      28K |     115M |     115M |     145M |
    | Switch             |     1674 |     161M |     161M |     151M |
    | SwitchSmart(mk)    |      56K |      27K |      83K |     260M |
    | SwitchSmart        |     3107 |      25M |      25M |     287M |
    | TaskMove(mk)       |     9931 |     297K |     309K |     311M |
    | TaskMove           |      318 |     382K |     388K |     312M |
    | TaskMoveSmart(mk)  |      15K |     495K |     515K |     311M |
    | TaskMoveSmart      |      478 |     711K |     722K |     311M |
    | 2-Shift(mk)        |      30K |     104M |     105M |     155M |
    | 2-Shift            |     1784 |     155M |     155M |     157M |
    | 2-ShiftSmart(mk)   |     5013 |     203M |     203M |      57M |
    | 2-ShiftSmart       |      293 |     281M |     281M |      31M |
    \----------------------------------------------------------------/

Best makespan.....: 19
N. of Iterations..: 7174061239
Total runtime.....: 3600.02s
Using Python-MIP package version 1.6.8
Começo a execução
    /-------------------------------------------------------------------------------\
    |    Makespan   |   Free Jobs   | Free Machines |    It. Time   |   Total Time  | 
    |-------------------------------------------------------------------------------|
    \-------------------------------------------------------------------------------/
Terminou a execução
