Instance....: instances/I_50_15_S_1-99_3.txt
Algorithm...: Simulated Annealing (alpha=0.990, saMax=10M, t0=1)
Other params: maxIters=100M, seed=-1, timeLimit=3600.00s

    /--------------------------------------------------------\
    |     Iter |   RDP(%) |       S* |       S' |       Time | 
    |----------|----------|----------|----------|------------|
    |        0 |        - |      663 |      663 |       0.00 | s0
    |        0 |        - |      584 |      584 |       0.01 | *
    |        3 |        - |      564 |      564 |       0.03 | *
    |        4 |        - |      511 |      511 |       0.03 | *
    |       18 |        - |      455 |      455 |       0.04 | *
    |       19 |        - |      429 |      429 |       0.04 | *
    |       20 |        - |      422 |      422 |       0.04 | *
    |       23 |        - |      420 |      420 |       0.04 | *
    |       24 |        - |      416 |      416 |       0.05 | *
    |       26 |        - |      408 |      408 |       0.05 | *
    |       34 |        - |      369 |      369 |       0.05 | *
    |       35 |        - |      364 |      364 |       0.06 | *
    |       42 |        - |      358 |      358 |       0.06 | *
    |       45 |        - |      355 |      355 |       0.06 | *
    |       47 |        - |      350 |      350 |       0.06 | *
    |       62 |        - |      330 |      330 |       0.06 | *
    |       63 |        - |      317 |      317 |       0.06 | *
    |       70 |        - |      311 |      311 |       0.06 | *
    |       83 |        - |      307 |      307 |       0.07 | *
    |       90 |        - |      300 |      300 |       0.07 | *
    |       99 |        - |      293 |      293 |       0.07 | *
    |      130 |        - |      291 |      291 |       0.07 | *
    |      137 |        - |      290 |      290 |       0.07 | *
    |      141 |        - |      272 |      272 |       0.07 | *
    |      148 |        - |      264 |      264 |       0.08 | *
    |      152 |        - |      260 |      260 |       0.08 | *
    |      162 |        - |      258 |      258 |       0.08 | *
    |      191 |        - |      257 |      257 |       0.08 | *
    |      200 |        - |      256 |      256 |       0.08 | *
    |      218 |        - |      253 |      253 |       0.08 | *
    |      220 |        - |      251 |      251 |       0.08 | *
    |      247 |        - |      247 |      247 |       0.08 | *
    |      248 |        - |      238 |      238 |       0.09 | *
    |      261 |        - |      231 |      231 |       0.09 | *
    |      283 |        - |      230 |      230 |       0.09 | *
    |      285 |        - |      215 |      215 |       0.09 | *
    |      310 |        - |      214 |      214 |       0.09 | *
    |      333 |        - |      210 |      210 |       0.09 | *
    |      461 |        - |      208 |      208 |       0.09 | *
    |      466 |        - |      204 |      204 |       0.09 | *
    |      522 |        - |      203 |      203 |       0.09 | *
    |      524 |        - |      199 |      199 |       0.10 | *
    |      550 |        - |      194 |      194 |       0.10 | *
    |      639 |        - |      192 |      192 |       0.10 | *
    |      675 |        - |      188 |      188 |       0.10 | *
    |      680 |        - |      185 |      185 |       0.10 | *
    |      722 |        - |      184 |      184 |       0.10 | *
    |      762 |        - |      180 |      180 |       0.11 | *
    |      764 |        - |      178 |      178 |       0.11 | *
    |      774 |        - |      177 |      177 |       0.11 | *
    |      775 |        - |      172 |      172 |       0.11 | *
    |      789 |        - |      169 |      169 |       0.11 | *
    |      806 |        - |      165 |      165 |       0.11 | *
    |      824 |        - |      163 |      163 |       0.11 | *
    |     1013 |        - |      162 |      162 |       0.12 | *
    |     1016 |        - |      159 |      159 |       0.12 | *
    |     1020 |        - |      155 |      155 |       0.12 | *
    |     1036 |        - |      154 |      154 |       0.12 | *
    |     1040 |        - |      153 |      153 |       0.12 | *
    |     1047 |        - |      151 |      151 |       0.12 | *
    |     1718 |        - |      150 |      150 |       0.12 | *
    |     1725 |        - |      148 |      148 |       0.13 | *
    |     1729 |        - |      145 |      145 |       0.13 | *
    |     2032 |        - |      143 |      143 |       0.13 | *
    |     2033 |        - |      142 |      142 |       0.13 | *
    |     2073 |        - |      141 |      141 |       0.13 | *
    |     3241 |        - |      139 |      139 |       0.14 | *
    |     3307 |        - |      138 |      138 |       0.14 | *
    |     3312 |        - |      136 |      136 |       0.14 | *
    |     3436 |        - |      133 |      133 |       0.15 | *
    |     3584 |        - |      131 |      131 |       0.15 | *
    |     3868 |        - |      129 |      129 |       0.15 | *
    |     4346 |        - |      125 |      125 |       0.15 | *
    |     4358 |        - |      124 |      124 |       0.15 | *
    |     4437 |        - |      123 |      123 |       0.15 | *
    |     4760 |        - |      121 |      121 |       0.16 | *
    |     4784 |        - |      117 |      117 |       0.16 | *
    |     4789 |        - |      116 |      116 |       0.16 | *
    |     5696 |        - |      114 |      114 |       0.16 | *
    |     5701 |        - |      113 |      113 |       0.16 | *
    |     5711 |        - |      112 |      112 |       0.17 | *
    |     5834 |        - |      111 |      111 |       0.17 | *
    |     5907 |        - |      107 |      107 |       0.17 | *
    |     6724 |        - |      106 |      106 |       0.17 | *
    |     7916 |        - |      105 |      105 |       0.18 | *
    |     8102 |        - |      104 |      104 |       0.18 | *
    |     8105 |        - |      103 |      103 |       0.18 | *
    |     8160 |        - |      102 |      102 |       0.18 | *
    |     8850 |        - |      101 |      101 |       0.18 | *
    |      10K |        - |       99 |       99 |       0.19 | *
    |      12K |        - |       98 |       98 |       0.19 | *
    |      13K |        - |       97 |       97 |       0.19 | *
    |      14K |        - |       96 |       96 |       0.20 | *
    |      14K |        - |       95 |       95 |       0.20 | *
    |      14K |        - |       93 |       93 |       0.20 | *
    |      14K |        - |       92 |       92 |       0.20 | *
    |      14K |        - |       90 |       90 |       0.20 | *
    |      16K |        - |       89 |       89 |       0.20 | *
    |      19K |        - |       86 |       86 |       0.21 | *
    |      23K |        - |       85 |       85 |       0.22 | *
    |      25K |        - |       83 |       83 |       0.22 | *
    |      26K |        - |       82 |       82 |       0.22 | *
    |      27K |        - |       81 |       81 |       0.23 | *
    |      29K |        - |       79 |       79 |       0.23 | *
    |      43K |        - |       78 |       78 |       0.26 | *
    |      56K |        - |       77 |       77 |       0.28 | *
    |      75K |        - |       76 |       76 |       0.31 | *
    |      77K |        - |       75 |       75 |       0.32 | *
    |      77K |        - |       74 |       74 |       0.32 | *
    |      80K |        - |       73 |       73 |       0.32 | *
    |      80K |        - |       72 |       72 |       0.32 | *
    |      82K |        - |       71 |       71 |       0.33 | *
    |      89K |        - |       70 |       70 |       0.34 | *
    |      89K |        - |       68 |       68 |       0.34 | *
    |      92K |        - |       67 |       67 |       0.34 | *
    |      95K |        - |       65 |       65 |       0.35 | *
    |      95K |        - |       64 |       64 |       0.35 | *
    |     186K |        - |       63 |       63 |       0.53 | *
    |     338K |        - |       62 |       62 |       0.89 | *
    |    1188K |        - |       61 |       61 |       2.75 | *
    |    1942K |        - |       60 |       60 |       3.29 | *
    |    5383K |        - |       59 |       59 |       6.19 | *
    \--------------------------------------------------------/

Neighborhoods statistics (values in %):

    /----------------------------------------------------------------\
    | Move               | Improvs. | Sideways |  Accepts |  Rejects |
    |--------------------|----------|----------|----------|----------|
    | Shift(mk)          |      49K |     121K |     173K |     269M |
    | Shift              |     3362 |      14M |      14M |     256M |
    | ShiftSmart(mk)     |      87K |     264K |     356K |     269M |
    | ShiftSmart         |     5830 |      25M |      25M |     244M |
    | SimpSwap(mk)       |      467 |      14K |      14K |     270M |
    | SimpSwap           |       56 |      95K |      96K |     270M |
    | SimpSwapSmart(mk)  |     1185 |      41K |      42K |     270M |
    | SimpSwapSmart      |      155 |     253K |     255K |     269M |
    | Swap(mk)           |      447 |     3428 |     4072 |     270M |
    | Swap               |       57 |      47K |      47K |     270M |
    | SwapSmart(mk)      |     2320 |      30K |      33K |     270M |
    | SwapSmart          |      308 |     264K |     265K |     269M |
    | Switch(mk)         |      14K |      71M |      71M |     198M |
    | Switch             |      955 |      91M |      91M |     179M |
    | SwitchSmart(mk)    |      36K |     198K |     240K |     270M |
    | SwitchSmart        |     2519 |      12M |      12M |     257M |
    | TaskMove(mk)       |     4258 |      92K |      98K |     269M |
    | TaskMove           |      301 |     158K |     161K |     270M |
    | TaskMoveSmart(mk)  |      13K |     231K |     250K |     269M |
    | TaskMoveSmart      |      864 |     533K |     542K |     269M |
    | 2-Shift(mk)        |      38K |      28M |      28M |     242M |
    | 2-Shift            |     2578 |      60M |      60M |     209M |
    | 2-ShiftSmart(mk)   |      43K |      62M |      62M |     208M |
    | 2-ShiftSmart       |     2788 |      99M |      99M |     171M |
    \----------------------------------------------------------------/

Best makespan.....: 59
N. of Iterations..: 6472759147
Total runtime.....: 3600.09s
Using Python-MIP package version 1.6.8
Começo a execução
    /-------------------------------------------------------------------------------\
    |    Makespan   |   Free Jobs   | Free Machines |    It. Time   |   Total Time  | 
    |-------------------------------------------------------------------------------|
    \-------------------------------------------------------------------------------/
Terminou a execução
