Instance....: instances/I_50_15_S_1-99_9.txt
Algorithm...: Simulated Annealing (alpha=0.990, saMax=10M, t0=1)
Other params: maxIters=100M, seed=-1, timeLimit=3600.00s

    /--------------------------------------------------------\
    |     Iter |   RDP(%) |       S* |       S' |       Time | 
    |----------|----------|----------|----------|------------|
    |        0 |        - |      600 |      600 |       0.00 | s0
    |        0 |        - |      559 |      559 |       0.01 | *
    |        1 |        - |      496 |      496 |       0.01 | *
    |        4 |        - |      448 |      448 |       0.03 | *
    |       12 |        - |      423 |      423 |       0.03 | *
    |       21 |        - |      399 |      399 |       0.04 | *
    |       22 |        - |      395 |      395 |       0.04 | *
    |       46 |        - |      375 |      375 |       0.04 | *
    |       49 |        - |      373 |      373 |       0.04 | *
    |       50 |        - |      361 |      361 |       0.04 | *
    |       52 |        - |      358 |      358 |       0.05 | *
    |       56 |        - |      352 |      352 |       0.05 | *
    |       57 |        - |      337 |      337 |       0.05 | *
    |       64 |        - |      318 |      318 |       0.05 | *
    |       65 |        - |      304 |      304 |       0.06 | *
    |       67 |        - |      291 |      291 |       0.06 | *
    |       69 |        - |      281 |      281 |       0.06 | *
    |       71 |        - |      279 |      279 |       0.06 | *
    |       83 |        - |      269 |      269 |       0.06 | *
    |       90 |        - |      265 |      265 |       0.06 | *
    |      111 |        - |      260 |      260 |       0.06 | *
    |      166 |        - |      257 |      257 |       0.07 | *
    |      217 |        - |      253 |      253 |       0.07 | *
    |      233 |        - |      252 |      252 |       0.07 | *
    |      234 |        - |      250 |      250 |       0.07 | *
    |      244 |        - |      248 |      248 |       0.07 | *
    |      245 |        - |      246 |      246 |       0.07 | *
    |      255 |        - |      239 |      239 |       0.07 | *
    |      261 |        - |      237 |      237 |       0.07 | *
    |      289 |        - |      233 |      233 |       0.08 | *
    |      365 |        - |      229 |      229 |       0.08 | *
    |      436 |        - |      227 |      227 |       0.09 | *
    |      438 |        - |      223 |      223 |       0.09 | *
    |      444 |        - |      219 |      219 |       0.09 | *
    |      473 |        - |      213 |      213 |       0.09 | *
    |      488 |        - |      212 |      212 |       0.09 | *
    |      511 |        - |      211 |      211 |       0.09 | *
    |      575 |        - |      207 |      207 |       0.09 | *
    |      674 |        - |      206 |      206 |       0.09 | *
    |      737 |        - |      205 |      205 |       0.10 | *
    |      817 |        - |      202 |      202 |       0.10 | *
    |      855 |        - |      199 |      199 |       0.10 | *
    |      862 |        - |      198 |      198 |       0.10 | *
    |      913 |        - |      197 |      197 |       0.10 | *
    |      915 |        - |      192 |      192 |       0.11 | *
    |      955 |        - |      191 |      191 |       0.11 | *
    |      976 |        - |      190 |      190 |       0.11 | *
    |     1012 |        - |      188 |      188 |       0.11 | *
    |     1126 |        - |      183 |      183 |       0.11 | *
    |     1174 |        - |      181 |      181 |       0.11 | *
    |     1179 |        - |      180 |      180 |       0.11 | *
    |     1236 |        - |      179 |      179 |       0.11 | *
    |     1250 |        - |      178 |      178 |       0.12 | *
    |     1263 |        - |      177 |      177 |       0.12 | *
    |     1264 |        - |      175 |      175 |       0.12 | *
    |     1304 |        - |      174 |      174 |       0.12 | *
    |     1381 |        - |      173 |      173 |       0.12 | *
    |     1408 |        - |      169 |      169 |       0.12 | *
    |     1409 |        - |      166 |      166 |       0.12 | *
    |     1459 |        - |      165 |      165 |       0.12 | *
    |     1579 |        - |      164 |      164 |       0.12 | *
    |     1715 |        - |      161 |      161 |       0.12 | *
    |     1765 |        - |      160 |      160 |       0.13 | *
    |     1766 |        - |      157 |      157 |       0.13 | *
    |     1797 |        - |      154 |      154 |       0.13 | *
    |     1800 |        - |      153 |      153 |       0.13 | *
    |     2095 |        - |      152 |      152 |       0.13 | *
    |     2100 |        - |      149 |      149 |       0.13 | *
    |     2136 |        - |      146 |      146 |       0.13 | *
    |     2184 |        - |      145 |      145 |       0.13 | *
    |     2185 |        - |      144 |      144 |       0.14 | *
    |     2199 |        - |      143 |      143 |       0.14 | *
    |     2265 |        - |      140 |      140 |       0.14 | *
    |     2281 |        - |      138 |      138 |       0.14 | *
    |     2389 |        - |      136 |      136 |       0.14 | *
    |     2390 |        - |      133 |      133 |       0.14 | *
    |     2488 |        - |      132 |      132 |       0.14 | *
    |     2491 |        - |      126 |      126 |       0.14 | *
    |     3072 |        - |      123 |      123 |       0.14 | *
    |     3249 |        - |      122 |      122 |       0.14 | *
    |     3253 |        - |      121 |      121 |       0.15 | *
    |     3660 |        - |      119 |      119 |       0.15 | *
    |     3685 |        - |      118 |      118 |       0.15 | *
    |     4096 |        - |      117 |      117 |       0.15 | *
    |     4101 |        - |      116 |      116 |       0.15 | *
    |     4111 |        - |      114 |      114 |       0.15 | *
    |     4284 |        - |      113 |      113 |       0.16 | *
    |     4614 |        - |      112 |      112 |       0.16 | *
    |     4695 |        - |      111 |      111 |       0.16 | *
    |     5070 |        - |      109 |      109 |       0.17 | *
    |     5591 |        - |      108 |      108 |       0.17 | *
    |     5685 |        - |      107 |      107 |       0.17 | *
    |     5782 |        - |      105 |      105 |       0.18 | *
    |     5813 |        - |      104 |      104 |       0.18 | *
    |     5835 |        - |      100 |      100 |       0.18 | *
    |     7822 |        - |       99 |       99 |       0.18 | *
    |      13K |        - |       98 |       98 |       0.20 | *
    |      13K |        - |       97 |       97 |       0.20 | *
    |      13K |        - |       96 |       96 |       0.20 | *
    |      14K |        - |       95 |       95 |       0.20 | *
    |      19K |        - |       94 |       94 |       0.21 | *
    |      24K |        - |       93 |       93 |       0.22 | *
    |      24K |        - |       92 |       92 |       0.22 | *
    |      25K |        - |       90 |       90 |       0.22 | *
    |      27K |        - |       87 |       87 |       0.23 | *
    |      34K |        - |       86 |       86 |       0.24 | *
    |      34K |        - |       85 |       85 |       0.24 | *
    |      37K |        - |       83 |       83 |       0.25 | *
    |      41K |        - |       81 |       81 |       0.25 | *
    |     184K |        - |       80 |       80 |       0.49 | *
    |     184K |        - |       79 |       79 |       0.49 | *
    |     489K |        - |       78 |       78 |       1.46 | *
    |     535K |        - |       76 |       76 |       1.62 | *
    |     714K |        - |       75 |       75 |       2.04 | *
    |     793K |        - |       74 |       74 |       2.18 | *
    |     885K |        - |       73 |       73 |       2.36 | *
    |     913K |        - |       71 |       71 |       2.40 | *
    |    1347K |        - |       70 |       70 |       2.82 | *
    |    2258K |        - |       69 |       69 |       3.39 | *
    |    4364K |        - |       68 |       68 |       4.59 | *
    |    4389K |        - |       67 |       67 |       4.61 | *
    |    4589K |        - |       65 |       65 |       4.73 | *
    |      10M |        - |       64 |       64 |       8.94 | *
    |      58M |        - |       63 |       63 |      36.08 | *
    |      58M |        - |       62 |       62 |      36.08 | *
    \--------------------------------------------------------/

Neighborhoods statistics (values in %):

    /----------------------------------------------------------------\
    | Move               | Improvs. | Sideways |  Accepts |  Rejects |
    |--------------------|----------|----------|----------|----------|
    | Shift(mk)          |     540K |     233K |     776K |     280M |
    | Shift              |      36K |    2338K |    2928K |     278M |
    | ShiftSmart(mk)     |     667K |     451K |    1125K |     280M |
    | ShiftSmart         |      44K |    5628K |    6369K |     275M |
    | SimpSwap(mk)       |      250 |      288 |      579 |     281M |
    | SimpSwap           |       24 |     2979 |     3211 |     281M |
    | SimpSwapSmart(mk)  |      567 |      735 |     1414 |     281M |
    | SimpSwapSmart      |       87 |     7647 |     8316 |     281M |
    | Swap(mk)           |      348 |      265 |      667 |     281M |
    | Swap               |       40 |     2143 |     2498 |     281M |
    | SwapSmart(mk)      |     1579 |     1403 |     3340 |     281M |
    | SwapSmart          |      226 |     8988 |      11K |     281M |
    | Switch(mk)         |     209K |      93M |      93M |     188M |
    | Switch             |      14K |      91M |      91M |     190M |
    | SwitchSmart(mk)    |     418K |      22K |     441K |     281M |
    | SwitchSmart        |      28K |     642K |    1082K |     280M |
    | TaskMove(mk)       |     2184 |     1126 |     3817 |     281M |
    | TaskMove           |      148 |     115K |     117K |     281M |
    | TaskMoveSmart(mk)  |     5974 |     3489 |      11K |     281M |
    | TaskMoveSmart      |      427 |     392K |     397K |     281M |
    | 2-Shift(mk)        |     332K |      47M |      47M |     234M |
    | 2-Shift            |      22K |      54M |      54M |     227M |
    | 2-ShiftSmart(mk)   |     134K |      48M |      48M |     233M |
    | 2-ShiftSmart       |     9098 |      84M |      84M |     197M |
    \----------------------------------------------------------------/

Best makespan.....: 62
N. of Iterations..: 6747164374
Total runtime.....: 3600.05s
Using Python-MIP package version 1.6.8
Começo a execução
    /-------------------------------------------------------------------------------\
    |    Makespan   |   Free Jobs   | Free Machines |    It. Time   |   Total Time  | 
    |-------------------------------------------------------------------------------|
    \-------------------------------------------------------------------------------/
Terminou a execução
