Instance....: instances/I_50_20_S_1-49_1.txt
Algorithm...: Simulated Annealing (alpha=0.990, saMax=10M, t0=1)
Other params: maxIters=100M, seed=-1, timeLimit=3600.00s

    /--------------------------------------------------------\
    |     Iter |   RDP(%) |       S* |       S' |       Time | 
    |----------|----------|----------|----------|------------|
    |        0 |        - |      452 |      452 |       0.00 | s0
    |        6 |        - |      401 |      401 |       0.02 | *
    |       10 |        - |      399 |      399 |       0.03 | *
    |       12 |        - |      392 |      392 |       0.03 | *
    |       15 |        - |      379 |      379 |       0.03 | *
    |       17 |        - |      353 |      353 |       0.03 | *
    |       19 |        - |      341 |      341 |       0.04 | *
    |       22 |        - |      334 |      334 |       0.04 | *
    |       24 |        - |      319 |      319 |       0.04 | *
    |       35 |        - |      317 |      317 |       0.04 | *
    |       41 |        - |      311 |      311 |       0.04 | *
    |       42 |        - |      299 |      299 |       0.05 | *
    |       53 |        - |      272 |      272 |       0.05 | *
    |       54 |        - |      268 |      268 |       0.05 | *
    |       56 |        - |      252 |      252 |       0.05 | *
    |       69 |        - |      246 |      246 |       0.05 | *
    |       70 |        - |      241 |      241 |       0.05 | *
    |       95 |        - |      232 |      232 |       0.05 | *
    |       96 |        - |      225 |      225 |       0.05 | *
    |       98 |        - |      221 |      221 |       0.05 | *
    |       99 |        - |      220 |      220 |       0.06 | *
    |      102 |        - |      219 |      219 |       0.06 | *
    |      104 |        - |      209 |      209 |       0.06 | *
    |      124 |        - |      201 |      201 |       0.06 | *
    |      129 |        - |      200 |      200 |       0.06 | *
    |      139 |        - |      194 |      194 |       0.06 | *
    |      145 |        - |      188 |      188 |       0.06 | *
    |      154 |        - |      186 |      186 |       0.06 | *
    |      164 |        - |      179 |      179 |       0.06 | *
    |      168 |        - |      172 |      172 |       0.06 | *
    |      169 |        - |      170 |      170 |       0.06 | *
    |      179 |        - |      168 |      168 |       0.06 | *
    |      233 |        - |      167 |      167 |       0.06 | *
    |      236 |        - |      165 |      165 |       0.06 | *
    |      243 |        - |      164 |      164 |       0.07 | *
    |      266 |        - |      158 |      158 |       0.07 | *
    |      269 |        - |      155 |      155 |       0.07 | *
    |      272 |        - |      154 |      154 |       0.07 | *
    |      353 |        - |      152 |      152 |       0.07 | *
    |      357 |        - |      150 |      150 |       0.07 | *
    |      383 |        - |      149 |      149 |       0.07 | *
    |      389 |        - |      148 |      148 |       0.07 | *
    |      421 |        - |      140 |      140 |       0.07 | *
    |      494 |        - |      139 |      139 |       0.07 | *
    |      501 |        - |      136 |      136 |       0.07 | *
    |      502 |        - |      135 |      135 |       0.07 | *
    |      527 |        - |      134 |      134 |       0.07 | *
    |      534 |        - |      133 |      133 |       0.08 | *
    |      568 |        - |      132 |      132 |       0.08 | *
    |      604 |        - |      128 |      128 |       0.08 | *
    |      664 |        - |      122 |      122 |       0.08 | *
    |      690 |        - |      121 |      121 |       0.08 | *
    |      694 |        - |      120 |      120 |       0.08 | *
    |      707 |        - |      115 |      115 |       0.08 | *
    |      748 |        - |      113 |      113 |       0.08 | *
    |      765 |        - |      110 |      110 |       0.08 | *
    |      768 |        - |      108 |      108 |       0.08 | *
    |      897 |        - |      104 |      104 |       0.08 | *
    |      908 |        - |      102 |      102 |       0.08 | *
    |      945 |        - |      101 |      101 |       0.08 | *
    |      963 |        - |       99 |       99 |       0.08 | *
    |      985 |        - |       97 |       97 |       0.08 | *
    |     1011 |        - |       96 |       96 |       0.09 | *
    |     1014 |        - |       94 |       94 |       0.09 | *
    |     1067 |        - |       91 |       91 |       0.09 | *
    |     1078 |        - |       88 |       88 |       0.09 | *
    |     1096 |        - |       86 |       86 |       0.09 | *
    |     1145 |        - |       82 |       82 |       0.09 | *
    |     1316 |        - |       81 |       81 |       0.09 | *
    |     1318 |        - |       79 |       79 |       0.09 | *
    |     1610 |        - |       77 |       77 |       0.09 | *
    |     1611 |        - |       76 |       76 |       0.09 | *
    |     1844 |        - |       75 |       75 |       0.09 | *
    |     1921 |        - |       72 |       72 |       0.09 | *
    |     2384 |        - |       71 |       71 |       0.10 | *
    |     2925 |        - |       70 |       70 |       0.10 | *
    |     2936 |        - |       69 |       69 |       0.10 | *
    |     2944 |        - |       68 |       68 |       0.10 | *
    |     2945 |        - |       67 |       67 |       0.10 | *
    |     3221 |        - |       66 |       66 |       0.11 | *
    |     4171 |        - |       63 |       63 |       0.11 | *
    |     5103 |        - |       62 |       62 |       0.11 | *
    |     5474 |        - |       61 |       61 |       0.12 | *
    |     6295 |        - |       59 |       59 |       0.12 | *
    |     6301 |        - |       58 |       58 |       0.12 | *
    |     6506 |        - |       57 |       57 |       0.12 | *
    |     6775 |        - |       55 |       55 |       0.12 | *
    |     9149 |        - |       54 |       54 |       0.13 | *
    |      13K |        - |       53 |       53 |       0.14 | *
    |      14K |        - |       52 |       52 |       0.14 | *
    |      16K |        - |       51 |       51 |       0.14 | *
    |      16K |        - |       50 |       50 |       0.15 | *
    |      17K |        - |       49 |       49 |       0.15 | *
    |      17K |        - |       48 |       48 |       0.15 | *
    |      20K |        - |       47 |       47 |       0.16 | *
    |      23K |        - |       46 |       46 |       0.16 | *
    |      23K |        - |       45 |       45 |       0.16 | *
    |      24K |        - |       44 |       44 |       0.16 | *
    |      25K |        - |       43 |       43 |       0.17 | *
    |      55K |        - |       42 |       42 |       0.23 | *
    |      57K |        - |       41 |       41 |       0.24 | *
    |     158K |        - |       40 |       40 |       0.39 | *
    |     249K |        - |       39 |       39 |       0.55 | *
    |     313K |        - |       38 |       38 |       0.67 | *
    |     390K |        - |       37 |       37 |       0.86 | *
    |     390K |        - |       36 |       36 |       0.87 | *
    |    2469K |        - |       35 |       35 |       2.55 | *
    |    2979K |        - |       34 |       34 |       2.94 | *
    \--------------------------------------------------------/

Neighborhoods statistics (values in %):

    /----------------------------------------------------------------\
    | Move               | Improvs. | Sideways |  Accepts |  Rejects |
    |--------------------|----------|----------|----------|----------|
    | Shift(mk)          |     182K |    2327K |    2549K |     305M |
    | Shift              |     9889 |      22M |      22M |     286M |
    | ShiftSmart(mk)     |     229K |    4490K |    4770K |     303M |
    | ShiftSmart         |      12K |      31M |      31M |     276M |
    | SimpSwap(mk)       |     6835 |     5481 |      14K |     308M |
    | SimpSwap           |      695 |      38K |      46K |     308M |
    | SimpSwapSmart(mk)  |      13K |      10K |      26K |     308M |
    | SimpSwapSmart      |     1387 |      67K |      82K |     308M |
    | Swap(mk)           |     4725 |     4230 |      10K |     308M |
    | Swap               |      489 |      35K |      40K |     308M |
    | SwapSmart(mk)      |      16K |      13K |      32K |     308M |
    | SwapSmart          |     1607 |      86K |     100K |     308M |
    | Switch(mk)         |      80K |     147M |     148M |     160M |
    | Switch             |     4170 |     141M |     141M |     167M |
    | SwitchSmart(mk)    |     154K |     187K |     379K |     308M |
    | SwitchSmart        |     7964 |      25M |      25M |     283M |
    | TaskMove(mk)       |      11K |      20K |      33K |     308M |
    | TaskMove           |      632 |      66K |      73K |     308M |
    | TaskMoveSmart(mk)  |      24K |      51K |      80K |     308M |
    | TaskMoveSmart      |     1297 |     177K |     196K |     308M |
    | 2-Shift(mk)        |     110K |     144M |     144M |     164M |
    | 2-Shift            |     5716 |     123M |     123M |     185M |
    | 2-ShiftSmart(mk)   |      76K |     282M |     282M |      26M |
    | 2-ShiftSmart       |     3977 |     216M |     216M |      92M |
    \----------------------------------------------------------------/

Best makespan.....: 34
N. of Iterations..: 7392048871
Total runtime.....: 3600.02s
Using Python-MIP package version 1.6.8
Começo a execução
    /-------------------------------------------------------------------------------\
    |    Makespan   |   Free Jobs   | Free Machines |    It. Time   |   Total Time  | 
    |-------------------------------------------------------------------------------|
    \-------------------------------------------------------------------------------/
Terminou a execução
