Instance....: instances/I_50_15_S_1-9_8.txt
Algorithm...: Simulated Annealing (alpha=0.990, saMax=10M, t0=1)
Other params: maxIters=100M, seed=-1, timeLimit=3600.00s

    /--------------------------------------------------------\
    |     Iter |   RDP(%) |       S* |       S' |       Time | 
    |----------|----------|----------|----------|------------|
    |        0 |        - |      345 |      345 |       0.00 | s0
    |        0 |        - |      344 |      344 |       0.01 | *
    |        1 |        - |      342 |      342 |       0.01 | *
    |        2 |        - |      292 |      292 |       0.01 | *
    |        4 |        - |      290 |      290 |       0.03 | *
    |        7 |        - |      289 |      289 |       0.04 | *
    |       10 |        - |      281 |      281 |       0.04 | *
    |       13 |        - |      280 |      280 |       0.04 | *
    |       16 |        - |      277 |      277 |       0.04 | *
    |       20 |        - |      269 |      269 |       0.04 | *
    |       25 |        - |      257 |      257 |       0.05 | *
    |       27 |        - |      251 |      251 |       0.05 | *
    |       36 |        - |      235 |      235 |       0.05 | *
    |       37 |        - |      234 |      234 |       0.06 | *
    |       39 |        - |      233 |      233 |       0.06 | *
    |       43 |        - |      231 |      231 |       0.06 | *
    |       47 |        - |      230 |      230 |       0.06 | *
    |       55 |        - |      229 |      229 |       0.06 | *
    |       57 |        - |      228 |      228 |       0.06 | *
    |       60 |        - |      226 |      226 |       0.06 | *
    |       62 |        - |      221 |      221 |       0.06 | *
    |       66 |        - |      216 |      216 |       0.07 | *
    |       68 |        - |      215 |      215 |       0.07 | *
    |       69 |        - |      211 |      211 |       0.07 | *
    |       72 |        - |      206 |      206 |       0.07 | *
    |       87 |        - |      189 |      189 |       0.07 | *
    |       91 |        - |      180 |      180 |       0.07 | *
    |       94 |        - |      173 |      173 |       0.07 | *
    |      103 |        - |      172 |      172 |       0.07 | *
    |      122 |        - |      167 |      167 |       0.08 | *
    |      128 |        - |      165 |      165 |       0.08 | *
    |      149 |        - |      164 |      164 |       0.08 | *
    |      161 |        - |      162 |      162 |       0.08 | *
    |      162 |        - |      161 |      161 |       0.08 | *
    |      172 |        - |      147 |      147 |       0.08 | *
    |      175 |        - |      140 |      140 |       0.08 | *
    |      182 |        - |      128 |      128 |       0.09 | *
    |      183 |        - |      127 |      127 |       0.09 | *
    |      190 |        - |      124 |      124 |       0.09 | *
    |      193 |        - |      123 |      123 |       0.09 | *
    |      281 |        - |      121 |      121 |       0.09 | *
    |      291 |        - |      120 |      120 |       0.09 | *
    |      305 |        - |      118 |      118 |       0.09 | *
    |      333 |        - |      114 |      114 |       0.09 | *
    |      351 |        - |      112 |      112 |       0.09 | *
    |      384 |        - |      111 |      111 |       0.10 | *
    |      393 |        - |      110 |      110 |       0.10 | *
    |      397 |        - |      108 |      108 |       0.10 | *
    |      524 |        - |      106 |      106 |       0.10 | *
    |      525 |        - |      105 |      105 |       0.10 | *
    |      533 |        - |      104 |      104 |       0.10 | *
    |      564 |        - |      103 |      103 |       0.10 | *
    |      616 |        - |      102 |      102 |       0.10 | *
    |      617 |        - |      101 |      101 |       0.10 | *
    |      618 |        - |       99 |       99 |       0.11 | *
    |      624 |        - |       98 |       98 |       0.11 | *
    |      637 |        - |       95 |       95 |       0.11 | *
    |      638 |        - |       94 |       94 |       0.11 | *
    |      652 |        - |       92 |       92 |       0.11 | *
    |      655 |        - |       89 |       89 |       0.11 | *
    |      656 |        - |       87 |       87 |       0.11 | *
    |      674 |        - |       83 |       83 |       0.11 | *
    |      707 |        - |       82 |       82 |       0.11 | *
    |      720 |        - |       81 |       81 |       0.11 | *
    |      793 |        - |       80 |       80 |       0.12 | *
    |      820 |        - |       79 |       79 |       0.12 | *
    |      858 |        - |       78 |       78 |       0.12 | *
    |      862 |        - |       77 |       77 |       0.13 | *
    |      987 |        - |       75 |       75 |       0.13 | *
    |     1109 |        - |       74 |       74 |       0.13 | *
    |     1139 |        - |       72 |       72 |       0.13 | *
    |     1160 |        - |       71 |       71 |       0.13 | *
    |     1188 |        - |       69 |       69 |       0.13 | *
    |     1199 |        - |       68 |       68 |       0.13 | *
    |     1249 |        - |       65 |       65 |       0.13 | *
    |     1254 |        - |       64 |       64 |       0.14 | *
    |     1363 |        - |       63 |       63 |       0.14 | *
    |     1410 |        - |       62 |       62 |       0.14 | *
    |     1633 |        - |       61 |       61 |       0.14 | *
    |     1763 |        - |       60 |       60 |       0.14 | *
    |     1790 |        - |       59 |       59 |       0.14 | *
    |     1835 |        - |       58 |       58 |       0.14 | *
    |     2120 |        - |       56 |       56 |       0.15 | *
    |     2164 |        - |       55 |       55 |       0.15 | *
    |     2644 |        - |       54 |       54 |       0.16 | *
    |     2669 |        - |       53 |       53 |       0.16 | *
    |     2903 |        - |       52 |       52 |       0.16 | *
    |     4994 |        - |       51 |       51 |       0.19 | *
    |     5182 |        - |       50 |       50 |       0.20 | *
    |     6028 |        - |       49 |       49 |       0.20 | *
    |     6738 |        - |       48 |       48 |       0.21 | *
    |     7494 |        - |       47 |       47 |       0.22 | *
    |     7518 |        - |       46 |       46 |       0.22 | *
    |     8439 |        - |       45 |       45 |       0.23 | *
    |      11K |        - |       44 |       44 |       0.24 | *
    |      11K |        - |       43 |       43 |       0.24 | *
    |      14K |        - |       42 |       42 |       0.25 | *
    |      14K |        - |       41 |       41 |       0.26 | *
    |      16K |        - |       40 |       40 |       0.26 | *
    |      16K |        - |       39 |       39 |       0.26 | *
    |      28K |        - |       38 |       38 |       0.28 | *
    |      31K |        - |       37 |       37 |       0.29 | *
    |    2208K |        - |       36 |       36 |       3.13 | *
    |     232M |        - |       35 |       35 |     129.65 | *
    \--------------------------------------------------------/

Neighborhoods statistics (values in %):

    /----------------------------------------------------------------\
    | Move               | Improvs. | Sideways |  Accepts |  Rejects |
    |--------------------|----------|----------|----------|----------|
    | Shift(mk)          |    1616K |      14M |      17M |     244M |
    | Shift              |     112K |      79M |      80M |     181M |
    | ShiftSmart(mk)     |    2539K |      18M |      22M |     238M |
    | ShiftSmart         |     176K |     104M |     106M |     155M |
    | SimpSwap(mk)       |      11K |      37K |      53K |     261M |
    | SimpSwap           |     1413 |     124K |     135K |     261M |
    | SimpSwapSmart(mk)  |      26K |      94K |     136K |     261M |
    | SimpSwapSmart      |     3759 |     325K |     354K |     260M |
    | Swap(mk)           |     9106 |      30K |      44K |     260M |
    | Swap               |     1269 |     108K |     118K |     261M |
    | SwapSmart(mk)      |      19K |      72K |     100K |     261M |
    | SwapSmart          |     2546 |     231K |     247K |     260M |
    | Switch(mk)         |     833K |      76M |      77M |     183M |
    | Switch             |      58K |     127M |     128M |     133M |
    | SwitchSmart(mk)    |    1591K |      13M |      15M |     245M |
    | SwitchSmart        |     110K |      86M |      87M |     174M |
    | TaskMove(mk)       |      33K |      62K |     104K |     260M |
    | TaskMove           |     2201 |     201K |     219K |     261M |
    | TaskMoveSmart(mk)  |      60K |     129K |     208K |     260M |
    | TaskMoveSmart      |     4146 |     418K |     454K |     260M |
    | 2-Shift(mk)        |    1131K |      44M |      45M |     215M |
    | 2-Shift            |      78K |      98M |      99M |     161M |
    | 2-ShiftSmart(mk)   |    1687K |      73M |      75M |     185M |
    | 2-ShiftSmart       |     117K |     126M |     127M |     134M |
    \----------------------------------------------------------------/

Best makespan.....: 35
N. of Iterations..: 6254726097
Total runtime.....: 3600.06s
Using Python-MIP package version 1.6.8
Começo a execução
    /-------------------------------------------------------------------------------\
    |    Makespan   |   Free Jobs   | Free Machines |    It. Time   |   Total Time  | 
    |-------------------------------------------------------------------------------|
    \-------------------------------------------------------------------------------/
Terminou a execução
