Instance....: instances/I_50_15_S_1-124_7.txt
Algorithm...: Simulated Annealing (alpha=0.990, saMax=10M, t0=1)
Other params: maxIters=100M, seed=-1, timeLimit=3600.00s

    /--------------------------------------------------------\
    |     Iter |   RDP(%) |       S* |       S' |       Time | 
    |----------|----------|----------|----------|------------|
    |        0 |        - |      671 |      671 |       0.00 | s0
    |        3 |        - |      492 |      492 |       0.02 | *
    |        4 |        - |      490 |      490 |       0.02 | *
    |        6 |        - |      478 |      478 |       0.03 | *
    |       10 |        - |      435 |      435 |       0.03 | *
    |       12 |        - |      402 |      402 |       0.03 | *
    |       16 |        - |      388 |      388 |       0.03 | *
    |       33 |        - |      376 |      376 |       0.03 | *
    |       37 |        - |      364 |      364 |       0.04 | *
    |       49 |        - |      359 |      359 |       0.04 | *
    |       66 |        - |      356 |      356 |       0.04 | *
    |       87 |        - |      353 |      353 |       0.04 | *
    |      106 |        - |      347 |      347 |       0.04 | *
    |      117 |        - |      331 |      331 |       0.05 | *
    |      118 |        - |      327 |      327 |       0.05 | *
    |      120 |        - |      325 |      325 |       0.05 | *
    |      126 |        - |      320 |      320 |       0.05 | *
    |      132 |        - |      319 |      319 |       0.05 | *
    |      195 |        - |      314 |      314 |       0.05 | *
    |      202 |        - |      312 |      312 |       0.05 | *
    |      206 |        - |      300 |      300 |       0.05 | *
    |      240 |        - |      299 |      299 |       0.06 | *
    |      248 |        - |      289 |      289 |       0.06 | *
    |      275 |        - |      283 |      283 |       0.06 | *
    |      285 |        - |      277 |      277 |       0.06 | *
    |      295 |        - |      273 |      273 |       0.06 | *
    |      306 |        - |      238 |      238 |       0.06 | *
    |      312 |        - |      228 |      228 |       0.06 | *
    |      345 |        - |      226 |      226 |       0.06 | *
    |      364 |        - |      224 |      224 |       0.06 | *
    |      368 |        - |      222 |      222 |       0.06 | *
    |      406 |        - |      221 |      221 |       0.06 | *
    |      413 |        - |      213 |      213 |       0.06 | *
    |      415 |        - |      208 |      208 |       0.07 | *
    |      473 |        - |      206 |      206 |       0.07 | *
    |      483 |        - |      204 |      204 |       0.07 | *
    |      518 |        - |      194 |      194 |       0.07 | *
    |      592 |        - |      192 |      192 |       0.07 | *
    |      598 |        - |      191 |      191 |       0.07 | *
    |      599 |        - |      190 |      190 |       0.07 | *
    |      633 |        - |      189 |      189 |       0.07 | *
    |      648 |        - |      187 |      187 |       0.07 | *
    |      660 |        - |      183 |      183 |       0.07 | *
    |      919 |        - |      180 |      180 |       0.08 | *
    |      920 |        - |      177 |      177 |       0.08 | *
    |      921 |        - |      175 |      175 |       0.08 | *
    |      947 |        - |      172 |      172 |       0.08 | *
    |     1072 |        - |      169 |      169 |       0.08 | *
    |     1096 |        - |      168 |      168 |       0.08 | *
    |     1124 |        - |      166 |      166 |       0.08 | *
    |     1139 |        - |      165 |      165 |       0.08 | *
    |     1145 |        - |      163 |      163 |       0.08 | *
    |     1150 |        - |      162 |      162 |       0.08 | *
    |     1176 |        - |      160 |      160 |       0.09 | *
    |     1498 |        - |      156 |      156 |       0.09 | *
    |     1624 |        - |      153 |      153 |       0.09 | *
    |     1723 |        - |      152 |      152 |       0.09 | *
    |     2025 |        - |      151 |      151 |       0.09 | *
    |     2078 |        - |      150 |      150 |       0.09 | *
    |     2084 |        - |      145 |      145 |       0.09 | *
    |     3237 |        - |      144 |      144 |       0.10 | *
    |     3375 |        - |      143 |      143 |       0.11 | *
    |     3665 |        - |      140 |      140 |       0.11 | *
    |     3667 |        - |      138 |      138 |       0.11 | *
    |     3673 |        - |      136 |      136 |       0.11 | *
    |     3723 |        - |      131 |      131 |       0.11 | *
    |     3751 |        - |      130 |      130 |       0.11 | *
    |     3758 |        - |      127 |      127 |       0.12 | *
    |     3797 |        - |      126 |      126 |       0.12 | *
    |     4701 |        - |      124 |      124 |       0.12 | *
    |     4743 |        - |      123 |      123 |       0.12 | *
    |     5571 |        - |      122 |      122 |       0.12 | *
    |     5672 |        - |      119 |      119 |       0.13 | *
    |     6085 |        - |      118 |      118 |       0.13 | *
    |     8129 |        - |      116 |      116 |       0.13 | *
    |     8169 |        - |      114 |      114 |       0.13 | *
    |     8204 |        - |      112 |      112 |       0.13 | *
    |     9325 |        - |      111 |      111 |       0.14 | *
    |     9331 |        - |      110 |      110 |       0.14 | *
    |      14K |        - |      109 |      109 |       0.15 | *
    |      27K |        - |      107 |      107 |       0.18 | *
    |      27K |        - |      105 |      105 |       0.18 | *
    |      29K |        - |      103 |      103 |       0.19 | *
    |      32K |        - |      101 |      101 |       0.20 | *
    |      34K |        - |      100 |      100 |       0.21 | *
    |      50K |        - |       99 |       99 |       0.25 | *
    |      50K |        - |       98 |       98 |       0.25 | *
    |      51K |        - |       97 |       97 |       0.26 | *
    |      51K |        - |       95 |       95 |       0.26 | *
    |      64K |        - |       92 |       92 |       0.29 | *
    |      74K |        - |       91 |       91 |       0.32 | *
    |      80K |        - |       90 |       90 |       0.33 | *
    |     103K |        - |       89 |       89 |       0.38 | *
    |     110K |        - |       88 |       88 |       0.40 | *
    |     118K |        - |       87 |       87 |       0.43 | *
    |     118K |        - |       84 |       84 |       0.43 | *
    |     118K |        - |       83 |       83 |       0.43 | *
    |     124K |        - |       82 |       82 |       0.44 | *
    |     126K |        - |       81 |       81 |       0.45 | *
    |     127K |        - |       79 |       79 |       0.45 | *
    |     134K |        - |       78 |       78 |       0.47 | *
    |     185K |        - |       77 |       77 |       0.57 | *
    |     320K |        - |       74 |       74 |       0.91 | *
    |     581K |        - |       73 |       73 |       1.74 | *
    |     583K |        - |       72 |       72 |       1.75 | *
    |     768K |        - |       71 |       71 |       2.10 | *
    |     768K |        - |       69 |       69 |       2.10 | *
    |      18M |        - |       67 |       67 |      14.10 | *
    |     202M |        - |       66 |       66 |     118.23 | *
    \--------------------------------------------------------/

Neighborhoods statistics (values in %):

    /----------------------------------------------------------------\
    | Move               | Improvs. | Sideways |  Accepts |  Rejects |
    |--------------------|----------|----------|----------|----------|
    | Shift(mk)          |     292K |    1221K |    1516K |     267M |
    | Shift              |      19K |    3989K |    4317K |     265M |
    | ShiftSmart(mk)     |     302K |    2622K |    2931K |     266M |
    | ShiftSmart         |      20K |    8298K |    8632K |     260M |
    | SimpSwap(mk)       |      686 |      452 |     1204 |     269M |
    | SimpSwap           |       95 |     3935 |     4649 |     269M |
    | SimpSwapSmart(mk)  |     1829 |      875 |     2882 |     269M |
    | SimpSwapSmart      |      326 |     9407 |      12K |     269M |
    | Swap(mk)           |      583 |      967 |     1617 |     269M |
    | Swap               |       71 |      72K |      72K |     269M |
    | SwapSmart(mk)      |     3028 |     4507 |     7857 |     269M |
    | SwapSmart          |      393 |     425K |     429K |     268M |
    | Switch(mk)         |     144K |      55M |      55M |     214M |
    | Switch             |     9779 |      88M |      89M |     181M |
    | SwitchSmart(mk)    |     290K |     524K |     817K |     268M |
    | SwitchSmart        |      19K |    1819K |    2145K |     267M |
    | TaskMove(mk)       |      16K |      964 |      31K |     269M |
    | TaskMove           |     1080 |     7223 |      10K |     269M |
    | TaskMoveSmart(mk)  |      73K |     3329 |     147K |     269M |
    | TaskMoveSmart      |     4813 |      25K |      38K |     269M |
    | 2-Shift(mk)        |     147K |      16M |      16M |     253M |
    | 2-Shift            |     9891 |      55M |      55M |     214M |
    | 2-ShiftSmart(mk)   |     5312 |      18M |      18M |     251M |
    | 2-ShiftSmart       |      369 |      86M |      86M |     183M |
    \----------------------------------------------------------------/

Best makespan.....: 66
N. of Iterations..: 6456250291
Total runtime.....: 3600.03s
Using Python-MIP package version 1.6.8
Começo a execução
    /-------------------------------------------------------------------------------\
    |    Makespan   |   Free Jobs   | Free Machines |    It. Time   |   Total Time  | 
    |-------------------------------------------------------------------------------|
    \-------------------------------------------------------------------------------/
Terminou a execução
