Instance....: instances/I_50_10_S_1-49_4.txt
Algorithm...: Simulated Annealing (alpha=0.990, saMax=10M, t0=1)
Other params: maxIters=100M, seed=-1, timeLimit=3600.00s

    /--------------------------------------------------------\
    |     Iter |   RDP(%) |       S* |       S' |       Time | 
    |----------|----------|----------|----------|------------|
    |        0 |        - |      584 |      584 |       0.01 | s0
    |        7 |        - |      556 |      556 |       0.04 | *
    |        8 |        - |      541 |      541 |       0.04 | *
    |        9 |        - |      520 |      520 |       0.05 | *
    |       10 |        - |      512 |      512 |       0.05 | *
    |       24 |        - |      501 |      501 |       0.05 | *
    |       25 |        - |      470 |      470 |       0.06 | *
    |       35 |        - |      459 |      459 |       0.06 | *
    |       37 |        - |      458 |      458 |       0.06 | *
    |       42 |        - |      447 |      447 |       0.06 | *
    |       56 |        - |      440 |      440 |       0.06 | *
    |       57 |        - |      439 |      439 |       0.07 | *
    |       59 |        - |      425 |      425 |       0.07 | *
    |       64 |        - |      391 |      391 |       0.08 | *
    |       65 |        - |      381 |      381 |       0.08 | *
    |       66 |        - |      351 |      351 |       0.08 | *
    |       68 |        - |      349 |      349 |       0.08 | *
    |       70 |        - |      343 |      343 |       0.08 | *
    |       75 |        - |      332 |      332 |       0.08 | *
    |       83 |        - |      326 |      326 |       0.09 | *
    |       95 |        - |      325 |      325 |       0.09 | *
    |       96 |        - |      324 |      324 |       0.09 | *
    |      100 |        - |      316 |      316 |       0.09 | *
    |      108 |        - |      309 |      309 |       0.09 | *
    |      110 |        - |      307 |      307 |       0.09 | *
    |      125 |        - |      304 |      304 |       0.09 | *
    |      145 |        - |      295 |      295 |       0.09 | *
    |      146 |        - |      293 |      293 |       0.10 | *
    |      159 |        - |      291 |      291 |       0.10 | *
    |      189 |        - |      285 |      285 |       0.10 | *
    |      249 |        - |      281 |      281 |       0.10 | *
    |      254 |        - |      278 |      278 |       0.10 | *
    |      258 |        - |      275 |      275 |       0.10 | *
    |      284 |        - |      273 |      273 |       0.10 | *
    |      296 |        - |      268 |      268 |       0.10 | *
    |      314 |        - |      267 |      267 |       0.11 | *
    |      344 |        - |      265 |      265 |       0.11 | *
    |      345 |        - |      262 |      262 |       0.11 | *
    |      347 |        - |      260 |      260 |       0.11 | *
    |      376 |        - |      255 |      255 |       0.11 | *
    |      378 |        - |      251 |      251 |       0.11 | *
    |      387 |        - |      250 |      250 |       0.12 | *
    |      392 |        - |      246 |      246 |       0.12 | *
    |      514 |        - |      244 |      244 |       0.12 | *
    |      555 |        - |      243 |      243 |       0.12 | *
    |      572 |        - |      232 |      232 |       0.12 | *
    |      579 |        - |      231 |      231 |       0.12 | *
    |      586 |        - |      226 |      226 |       0.13 | *
    |      666 |        - |      225 |      225 |       0.13 | *
    |      674 |        - |      224 |      224 |       0.13 | *
    |      685 |        - |      221 |      221 |       0.13 | *
    |      687 |        - |      220 |      220 |       0.13 | *
    |      692 |        - |      214 |      214 |       0.13 | *
    |      760 |        - |      213 |      213 |       0.13 | *
    |      846 |        - |      211 |      211 |       0.14 | *
    |      856 |        - |      210 |      210 |       0.14 | *
    |      860 |        - |      203 |      203 |       0.14 | *
    |      861 |        - |      200 |      200 |       0.14 | *
    |      884 |        - |      197 |      197 |       0.14 | *
    |      889 |        - |      193 |      193 |       0.14 | *
    |      923 |        - |      191 |      191 |       0.14 | *
    |      973 |        - |      189 |      189 |       0.14 | *
    |      976 |        - |      186 |      186 |       0.14 | *
    |     1798 |        - |      184 |      184 |       0.15 | *
    |     2055 |        - |      183 |      183 |       0.15 | *
    |     2082 |        - |      182 |      182 |       0.15 | *
    |     2084 |        - |      181 |      181 |       0.15 | *
    |     2088 |        - |      180 |      180 |       0.15 | *
    |     2749 |        - |      179 |      179 |       0.16 | *
    |     2831 |        - |      178 |      178 |       0.16 | *
    |     2848 |        - |      177 |      177 |       0.16 | *
    |     3024 |        - |      176 |      176 |       0.16 | *
    |     3285 |        - |      175 |      175 |       0.17 | *
    |     3415 |        - |      174 |      174 |       0.17 | *
    |     4535 |        - |      173 |      173 |       0.18 | *
    |     4537 |        - |      171 |      171 |       0.18 | *
    |     4690 |        - |      169 |      169 |       0.18 | *
    |     4911 |        - |      168 |      168 |       0.19 | *
    |     4933 |        - |      165 |      165 |       0.19 | *
    |     4939 |        - |      161 |      161 |       0.19 | *
    |     4974 |        - |      159 |      159 |       0.19 | *
    |     4979 |        - |      156 |      156 |       0.19 | *
    |     5076 |        - |      152 |      152 |       0.19 | *
    |     5088 |        - |      151 |      151 |       0.19 | *
    |     5287 |        - |      150 |      150 |       0.20 | *
    |     5484 |        - |      149 |      149 |       0.20 | *
    |     5509 |        - |      148 |      148 |       0.20 | *
    |     5614 |        - |      146 |      146 |       0.20 | *
    |     5634 |        - |      143 |      143 |       0.20 | *
    |     5654 |        - |      142 |      142 |       0.20 | *
    |     5661 |        - |      141 |      141 |       0.20 | *
    |     5834 |        - |      140 |      140 |       0.21 | *
    |     5945 |        - |      135 |      135 |       0.21 | *
    |     6157 |        - |      131 |      131 |       0.21 | *
    |      11K |        - |      129 |      129 |       0.22 | *
    |      14K |        - |      127 |      127 |       0.23 | *
    |      27K |        - |      125 |      125 |       0.27 | *
    |      27K |        - |      123 |      123 |       0.27 | *
    |      33K |        - |      122 |      122 |       0.29 | *
    |      37K |        - |      121 |      121 |       0.31 | *
    |     306K |        - |      120 |      120 |       1.08 | *
    |     306K |        - |      119 |      119 |       1.08 | *
    |     306K |        - |      117 |      117 |       1.08 | *
    |     311K |        - |      116 |      116 |       1.09 | *
    |     826K |        - |      115 |      115 |       3.64 | *
    |     962K |        - |      114 |      114 |       3.83 | *
    |     963K |        - |      113 |      113 |       3.84 | *
    |    1103K |        - |      112 |      112 |       3.98 | *
    |    1103K |        - |      111 |      111 |       3.98 | *
    |    3874K |        - |      109 |      109 |       5.72 | *
    |     101M |        - |      108 |      108 |      62.70 | *
    |     271M |        - |      107 |      107 |     162.21 | *
    \--------------------------------------------------------/

Neighborhoods statistics (values in %):

    /----------------------------------------------------------------\
    | Move               | Improvs. | Sideways |  Accepts |  Rejects |
    |--------------------|----------|----------|----------|----------|
    | Shift(mk)          |      90K |     278K |     384K |     261M |
    | Shift              |     9023 |    4938K |    5036K |     257M |
    | ShiftSmart(mk)     |     316K |    1626K |    2002K |     260M |
    | ShiftSmart         |      31K |      17M |      17M |     244M |
    | SimpSwap(mk)       |      340 |      333 |      824 |     262M |
    | SimpSwap           |       73 |     1226 |     1597 |     262M |
    | SimpSwapSmart(mk)  |     1751 |     1590 |     4146 |     262M |
    | SimpSwapSmart      |      345 |     5512 |     7312 |     262M |
    | Swap(mk)           |      135 |      370 |      559 |     262M |
    | Swap               |       25 |     2720 |     2892 |     262M |
    | SwapSmart(mk)      |     1856 |      11K |      13K |     262M |
    | SwapSmart          |      366 |      59K |      61K |     261M |
    | Switch(mk)         |      65K |      62M |      62M |     199M |
    | Switch             |     6377 |      57M |      57M |     205M |
    | SwitchSmart(mk)    |     236K |     142K |     500K |     261M |
    | SwitchSmart        |      24K |    1475K |    1628K |     260M |
    | TaskMove(mk)       |     2221 |     1491 |     4534 |     262M |
    | TaskMove           |      232 |      13K |      14K |     262M |
    | TaskMoveSmart(mk)  |     9727 |     6450 |      21K |     262M |
    | TaskMoveSmart      |     1052 |      45K |      54K |     262M |
    | 2-Shift(mk)        |      58K |      20M |      20M |     241M |
    | 2-Shift            |     5798 |      23M |      23M |     239M |
    | 2-ShiftSmart(mk)   |     201K |      40M |      40M |     222M |
    | 2-ShiftSmart       |      20K |      65M |      65M |     196M |
    \----------------------------------------------------------------/

Best makespan.....: 107
N. of Iterations..: 6280033383
Total runtime.....: 3600.03s
Using Python-MIP package version 1.6.8
Começo a execução
    /-------------------------------------------------------------------------------\
    |    Makespan   |   Free Jobs   | Free Machines |    It. Time   |   Total Time  | 
    |-------------------------------------------------------------------------------|
    \-------------------------------------------------------------------------------/
Terminou a execução
