Instance....: instances/I_50_10_S_1-49_8.txt
Algorithm...: Simulated Annealing (alpha=0.990, saMax=10M, t0=1)
Other params: maxIters=100M, seed=-1, timeLimit=3600.00s

    /--------------------------------------------------------\
    |     Iter |   RDP(%) |       S* |       S' |       Time | 
    |----------|----------|----------|----------|------------|
    |        0 |        - |      563 |      563 |       0.01 | s0
    |        4 |        - |      549 |      549 |       0.04 | *
    |        5 |        - |      526 |      526 |       0.04 | *
    |        7 |        - |      517 |      517 |       0.05 | *
    |        8 |        - |      495 |      495 |       0.05 | *
    |       19 |        - |      451 |      451 |       0.06 | *
    |       20 |        - |      435 |      435 |       0.06 | *
    |       21 |        - |      431 |      431 |       0.06 | *
    |       23 |        - |      422 |      422 |       0.07 | *
    |       27 |        - |      409 |      409 |       0.07 | *
    |       36 |        - |      400 |      400 |       0.08 | *
    |       38 |        - |      395 |      395 |       0.08 | *
    |       42 |        - |      394 |      394 |       0.08 | *
    |       62 |        - |      390 |      390 |       0.08 | *
    |       63 |        - |      382 |      382 |       0.08 | *
    |       72 |        - |      367 |      367 |       0.08 | *
    |       82 |        - |      357 |      357 |       0.09 | *
    |       94 |        - |      352 |      352 |       0.09 | *
    |      101 |        - |      339 |      339 |       0.09 | *
    |      102 |        - |      335 |      335 |       0.09 | *
    |      108 |        - |      330 |      330 |       0.09 | *
    |      113 |        - |      326 |      326 |       0.09 | *
    |      114 |        - |      320 |      320 |       0.09 | *
    |      117 |        - |      315 |      315 |       0.09 | *
    |      136 |        - |      313 |      313 |       0.09 | *
    |      169 |        - |      308 |      308 |       0.10 | *
    |      176 |        - |      300 |      300 |       0.10 | *
    |      186 |        - |      296 |      296 |       0.10 | *
    |      191 |        - |      288 |      288 |       0.10 | *
    |      192 |        - |      286 |      286 |       0.10 | *
    |      210 |        - |      282 |      282 |       0.10 | *
    |      234 |        - |      281 |      281 |       0.10 | *
    |      241 |        - |      278 |      278 |       0.11 | *
    |      242 |        - |      271 |      271 |       0.11 | *
    |      263 |        - |      265 |      265 |       0.11 | *
    |      344 |        - |      258 |      258 |       0.11 | *
    |      359 |        - |      257 |      257 |       0.11 | *
    |      363 |        - |      251 |      251 |       0.11 | *
    |      366 |        - |      240 |      240 |       0.12 | *
    |      369 |        - |      239 |      239 |       0.12 | *
    |      371 |        - |      237 |      237 |       0.12 | *
    |      405 |        - |      233 |      233 |       0.12 | *
    |      407 |        - |      232 |      232 |       0.13 | *
    |      416 |        - |      228 |      228 |       0.13 | *
    |      436 |        - |      225 |      225 |       0.13 | *
    |      439 |        - |      222 |      222 |       0.13 | *
    |      488 |        - |      216 |      216 |       0.14 | *
    |      492 |        - |      215 |      215 |       0.14 | *
    |      521 |        - |      208 |      208 |       0.14 | *
    |      524 |        - |      205 |      205 |       0.14 | *
    |      529 |        - |      201 |      201 |       0.14 | *
    |      558 |        - |      199 |      199 |       0.14 | *
    |      578 |        - |      198 |      198 |       0.14 | *
    |      586 |        - |      196 |      196 |       0.15 | *
    |      602 |        - |      195 |      195 |       0.15 | *
    |      666 |        - |      194 |      194 |       0.15 | *
    |      683 |        - |      192 |      192 |       0.15 | *
    |      688 |        - |      191 |      191 |       0.15 | *
    |      694 |        - |      189 |      189 |       0.15 | *
    |      724 |        - |      186 |      186 |       0.16 | *
    |      739 |        - |      185 |      185 |       0.16 | *
    |      795 |        - |      184 |      184 |       0.16 | *
    |      802 |        - |      182 |      182 |       0.16 | *
    |      922 |        - |      181 |      181 |       0.16 | *
    |      923 |        - |      178 |      178 |       0.16 | *
    |     1040 |        - |      175 |      175 |       0.17 | *
    |     2121 |        - |      174 |      174 |       0.17 | *
    |     2150 |        - |      173 |      173 |       0.18 | *
    |     2194 |        - |      171 |      171 |       0.18 | *
    |     2227 |        - |      170 |      170 |       0.18 | *
    |     2465 |        - |      165 |      165 |       0.18 | *
    |     2519 |        - |      164 |      164 |       0.19 | *
    |     2524 |        - |      163 |      163 |       0.19 | *
    |     2543 |        - |      162 |      162 |       0.19 | *
    |     2690 |        - |      159 |      159 |       0.19 | *
    |     2820 |        - |      155 |      155 |       0.19 | *
    |     2873 |        - |      152 |      152 |       0.19 | *
    |     2876 |        - |      151 |      151 |       0.20 | *
    |     3303 |        - |      150 |      150 |       0.20 | *
    |     3388 |        - |      149 |      149 |       0.21 | *
    |     3400 |        - |      147 |      147 |       0.21 | *
    |     3649 |        - |      145 |      145 |       0.21 | *
    |     3650 |        - |      142 |      142 |       0.21 | *
    |     3656 |        - |      138 |      138 |       0.22 | *
    |     3693 |        - |      137 |      137 |       0.22 | *
    |     3740 |        - |      135 |      135 |       0.23 | *
    |     5811 |        - |      134 |      134 |       0.24 | *
    |      11K |        - |      133 |      133 |       0.26 | *
    |      11K |        - |      132 |      132 |       0.27 | *
    |      11K |        - |      121 |      121 |       0.27 | *
    |      11K |        - |      120 |      120 |       0.27 | *
    |      11K |        - |      119 |      119 |       0.27 | *
    |      11K |        - |      118 |      118 |       0.27 | *
    |      12K |        - |      117 |      117 |       0.28 | *
    |      13K |        - |      116 |      116 |       0.28 | *
    |      14K |        - |      115 |      115 |       0.29 | *
    |      14K |        - |      114 |      114 |       0.29 | *
    |      14K |        - |      112 |      112 |       0.29 | *
    |      14K |        - |      111 |      111 |       0.29 | *
    |      24K |        - |      110 |      110 |       0.34 | *
    |      24K |        - |      109 |      109 |       0.35 | *
    |      44K |        - |      108 |      108 |       0.41 | *
    |      71K |        - |      107 |      107 |       0.48 | *
    |      72K |        - |      106 |      106 |       0.48 | *
    |      73K |        - |      105 |      105 |       0.49 | *
    |     118K |        - |      104 |      104 |       0.59 | *
    |     118K |        - |      103 |      103 |       0.59 | *
    |     123K |        - |      102 |      102 |       0.61 | *
    |     165K |        - |      101 |      101 |       0.75 | *
    |     362K |        - |      100 |      100 |       2.11 | *
    |     382K |        - |       98 |       98 |       2.25 | *
    |     402K |        - |       96 |       96 |       2.38 | *
    |    3747K |        - |       94 |       94 |       5.76 | *
    |      10M |        - |       93 |       93 |       9.36 | *
    \--------------------------------------------------------/

Neighborhoods statistics (values in %):

    /----------------------------------------------------------------\
    | Move               | Improvs. | Sideways |  Accepts |  Rejects |
    |--------------------|----------|----------|----------|----------|
    | Shift(mk)          |      40K |      67K |     122K |     272M |
    | Shift              |     3954 |      39M |      39M |     233M |
    | ShiftSmart(mk)     |     144K |     211K |     402K |     272M |
    | ShiftSmart         |      14K |      57M |      57M |     215M |
    | SimpSwap(mk)       |      400 |      447 |      998 |     272M |
    | SimpSwap           |       80 |     2625 |     3114 |     272M |
    | SimpSwapSmart(mk)  |     1737 |     2241 |     4531 |     272M |
    | SimpSwapSmart      |      357 |      11K |      13K |     272M |
    | Swap(mk)           |      161 |      261 |      500 |     272M |
    | Swap               |       33 |     1178 |     1374 |     272M |
    | SwapSmart(mk)      |     2234 |     2307 |     5398 |     272M |
    | SwapSmart          |      426 |      12K |      14K |     272M |
    | Switch(mk)         |      10K |      46M |      46M |     226M |
    | Switch             |     1076 |      82M |      82M |     190M |
    | SwitchSmart(mk)    |      33K |      85K |     123K |     272M |
    | SwitchSmart        |     3225 |      39M |      39M |     232M |
    | TaskMove(mk)       |     3731 |     2101 |     6654 |     272M |
    | TaskMove           |      456 |      41K |      43K |     272M |
    | TaskMoveSmart(mk)  |      11K |     9754 |      25K |     272M |
    | TaskMoveSmart      |     1612 |     232K |     243K |     272M |
    | 2-Shift(mk)        |      25K |    9476K |    9512K |     262M |
    | 2-Shift            |     2708 |      49M |      49M |     223M |
    | 2-ShiftSmart(mk)   |      83K |      27M |      27M |     245M |
    | 2-ShiftSmart       |     8348 |      63M |      63M |     208M |
    \----------------------------------------------------------------/

Best makespan.....: 93
N. of Iterations..: 6527340575
Total runtime.....: 3600.03s
Using Python-MIP package version 1.6.8
Começo a execução
    /-------------------------------------------------------------------------------\
    |    Makespan   |   Free Jobs   | Free Machines |    It. Time   |   Total Time  | 
    |-------------------------------------------------------------------------------|
    \-------------------------------------------------------------------------------/
Terminou a execução
