Instance....: instances/I_50_25_S_1-9_7.txt
Algorithm...: Simulated Annealing (alpha=0.990, saMax=10M, t0=1)
Other params: maxIters=100M, seed=-1, timeLimit=3600.00s

    /--------------------------------------------------------\
    |     Iter |   RDP(%) |       S* |       S' |       Time | 
    |----------|----------|----------|----------|------------|
    |        0 |        - |      242 |      242 |       0.00 | s0
    |       20 |        - |      225 |      225 |       0.03 | *
    |       21 |        - |      210 |      210 |       0.03 | *
    |       23 |        - |      201 |      201 |       0.03 | *
    |       24 |        - |      195 |      195 |       0.03 | *
    |       26 |        - |      192 |      192 |       0.03 | *
    |       28 |        - |      187 |      187 |       0.03 | *
    |       31 |        - |      183 |      183 |       0.04 | *
    |       36 |        - |      173 |      173 |       0.04 | *
    |       39 |        - |      170 |      170 |       0.04 | *
    |       46 |        - |      168 |      168 |       0.04 | *
    |       54 |        - |      167 |      167 |       0.04 | *
    |       55 |        - |      162 |      162 |       0.05 | *
    |       58 |        - |      161 |      161 |       0.05 | *
    |       62 |        - |      160 |      160 |       0.05 | *
    |       63 |        - |      153 |      153 |       0.05 | *
    |       72 |        - |      151 |      151 |       0.05 | *
    |       75 |        - |      148 |      148 |       0.05 | *
    |       77 |        - |      147 |      147 |       0.05 | *
    |       80 |        - |      145 |      145 |       0.05 | *
    |       98 |        - |      139 |      139 |       0.06 | *
    |       99 |        - |      137 |      137 |       0.06 | *
    |      101 |        - |      135 |      135 |       0.06 | *
    |      104 |        - |      133 |      133 |       0.06 | *
    |      105 |        - |      131 |      131 |       0.06 | *
    |      115 |        - |      130 |      130 |       0.06 | *
    |      116 |        - |      126 |      126 |       0.06 | *
    |      120 |        - |      125 |      125 |       0.06 | *
    |      125 |        - |      119 |      119 |       0.06 | *
    |      126 |        - |      118 |      118 |       0.06 | *
    |      127 |        - |      115 |      115 |       0.06 | *
    |      130 |        - |      113 |      113 |       0.06 | *
    |      131 |        - |      107 |      107 |       0.06 | *
    |      138 |        - |      105 |      105 |       0.07 | *
    |      153 |        - |      100 |      100 |       0.07 | *
    |      154 |        - |       98 |       98 |       0.07 | *
    |      160 |        - |       96 |       96 |       0.07 | *
    |      163 |        - |       92 |       92 |       0.07 | *
    |      179 |        - |       91 |       91 |       0.07 | *
    |      196 |        - |       90 |       90 |       0.07 | *
    |      213 |        - |       89 |       89 |       0.07 | *
    |      273 |        - |       85 |       85 |       0.07 | *
    |      281 |        - |       84 |       84 |       0.07 | *
    |      298 |        - |       83 |       83 |       0.07 | *
    |      304 |        - |       82 |       82 |       0.07 | *
    |      333 |        - |       81 |       81 |       0.07 | *
    |      365 |        - |       79 |       79 |       0.08 | *
    |      366 |        - |       78 |       78 |       0.08 | *
    |      412 |        - |       77 |       77 |       0.08 | *
    |      420 |        - |       76 |       76 |       0.08 | *
    |      469 |        - |       74 |       74 |       0.08 | *
    |      480 |        - |       73 |       73 |       0.08 | *
    |      503 |        - |       72 |       72 |       0.08 | *
    |      507 |        - |       70 |       70 |       0.08 | *
    |      686 |        - |       69 |       69 |       0.08 | *
    |      689 |        - |       68 |       68 |       0.08 | *
    |      698 |        - |       66 |       66 |       0.08 | *
    |      699 |        - |       65 |       65 |       0.08 | *
    |      708 |        - |       64 |       64 |       0.09 | *
    |      761 |        - |       62 |       62 |       0.09 | *
    |      800 |        - |       61 |       61 |       0.09 | *
    |      805 |        - |       59 |       59 |       0.09 | *
    |      815 |        - |       56 |       56 |       0.09 | *
    |     1009 |        - |       55 |       55 |       0.09 | *
    |     1032 |        - |       54 |       54 |       0.09 | *
    |     1108 |        - |       53 |       53 |       0.09 | *
    |     1204 |        - |       52 |       52 |       0.09 | *
    |     1212 |        - |       51 |       51 |       0.09 | *
    |     1228 |        - |       50 |       50 |       0.09 | *
    |     1229 |        - |       46 |       46 |       0.09 | *
    |     1288 |        - |       45 |       45 |       0.10 | *
    |     1634 |        - |       44 |       44 |       0.10 | *
    |     1879 |        - |       42 |       42 |       0.10 | *
    |     1880 |        - |       41 |       41 |       0.10 | *
    |     1886 |        - |       40 |       40 |       0.10 | *
    |     2105 |        - |       39 |       39 |       0.10 | *
    |     2721 |        - |       38 |       38 |       0.10 | *
    |     2832 |        - |       37 |       37 |       0.11 | *
    |     3402 |        - |       36 |       36 |       0.11 | *
    |     3610 |        - |       35 |       35 |       0.11 | *
    |     3619 |        - |       34 |       34 |       0.12 | *
    |     4631 |        - |       33 |       33 |       0.12 | *
    |     4723 |        - |       32 |       32 |       0.12 | *
    |     4784 |        - |       31 |       31 |       0.12 | *
    |     4817 |        - |       30 |       30 |       0.12 | *
    |     4821 |        - |       29 |       29 |       0.13 | *
    |     4830 |        - |       28 |       28 |       0.13 | *
    |     5929 |        - |       27 |       27 |       0.14 | *
    |     6358 |        - |       26 |       26 |       0.14 | *
    |      18K |        - |       25 |       25 |       0.16 | *
    |      18K |        - |       24 |       24 |       0.16 | *
    |      24K |        - |       23 |       23 |       0.18 | *
    |      25K |        - |       22 |       22 |       0.18 | *
    |      26K |        - |       21 |       21 |       0.18 | *
    |      28K |        - |       20 |       20 |       0.18 | *
    |     100K |        - |       19 |       19 |       0.28 | *
    |     176K |        - |       18 |       18 |       0.35 | *
    |     177K |        - |       17 |       17 |       0.35 | *
    |     607K |        - |       16 |       16 |       1.10 | *
    |    9013K |        - |       15 |       15 |       6.50 | *
    \--------------------------------------------------------/

Neighborhoods statistics (values in %):

    /----------------------------------------------------------------\
    | Move               | Improvs. | Sideways |  Accepts |  Rejects |
    |--------------------|----------|----------|----------|----------|
    | Shift(mk)          |    1825K |      75M |      78M |     196M |
    | Shift              |     102K |     120M |     121M |     174M |
    | ShiftSmart(mk)     |    2391K |     135M |     138M |     136M |
    | ShiftSmart         |     133K |     143M |     145M |     150M |
    | SimpSwap(mk)       |      17K |      63K |      88K |     294M |
    | SimpSwap           |     1374 |     201K |     215K |     294M |
    | SimpSwapSmart(mk)  |      25K |      84K |     120K |     295M |
    | SimpSwapSmart      |     2244 |     302K |     325K |     294M |
    | Swap(mk)           |      16K |      54K |      78K |     294M |
    | Swap               |     1340 |     199K |     213K |     294M |
    | SwapSmart(mk)      |      25K |      87K |     123K |     294M |
    | SwapSmart          |     1989 |     262K |     281K |     294M |
    | Switch(mk)         |     929K |     111M |     112M |     162M |
    | Switch             |      52K |     182M |     182M |     112M |
    | SwitchSmart(mk)    |    1752K |      23M |      26M |     249M |
    | SwitchSmart        |      98K |     111M |     112M |     183M |
    | TaskMove(mk)       |      89K |     325K |     445K |     294M |
    | TaskMove           |     3640 |     828K |     870K |     294M |
    | TaskMoveSmart(mk)  |     128K |     517K |     693K |     294M |
    | TaskMoveSmart      |     5241 |    1280K |    1346K |     293M |
    | 2-Shift(mk)        |    1126K |     126M |     127M |     147M |
    | 2-Shift            |      63K |     176M |     176M |     118M |
    | 2-ShiftSmart(mk)   |     978K |     183M |     184M |      91M |
    | 2-ShiftSmart       |      55K |     229M |     229M |      65M |
    \----------------------------------------------------------------/

Best makespan.....: 15
N. of Iterations..: 6947486030
Total runtime.....: 3600.03s
Using Python-MIP package version 1.6.8
Começo a execução
    /-------------------------------------------------------------------------------\
    |    Makespan   |   Free Jobs   | Free Machines |    It. Time   |   Total Time  | 
    |-------------------------------------------------------------------------------|
    \-------------------------------------------------------------------------------/
Terminou a execução
