Instance....: instances/I_50_15_S_1-9_2.txt
Algorithm...: Simulated Annealing (alpha=0.990, saMax=10M, t0=1)
Other params: maxIters=100M, seed=-1, timeLimit=3600.00s

    /--------------------------------------------------------\
    |     Iter |   RDP(%) |       S* |       S' |       Time | 
    |----------|----------|----------|----------|------------|
    |        0 |        - |      422 |      422 |       0.00 | s0
    |        0 |        - |      420 |      420 |       0.01 | *
    |        7 |        - |      399 |      399 |       0.03 | *
    |       22 |        - |      332 |      332 |       0.03 | *
    |       27 |        - |      316 |      316 |       0.03 | *
    |       28 |        - |      285 |      285 |       0.03 | *
    |       34 |        - |      282 |      282 |       0.03 | *
    |       35 |        - |      275 |      275 |       0.04 | *
    |       43 |        - |      247 |      247 |       0.04 | *
    |       44 |        - |      246 |      246 |       0.04 | *
    |       50 |        - |      245 |      245 |       0.04 | *
    |       55 |        - |      243 |      243 |       0.04 | *
    |       56 |        - |      242 |      242 |       0.04 | *
    |       58 |        - |      241 |      241 |       0.04 | *
    |       60 |        - |      235 |      235 |       0.05 | *
    |       62 |        - |      228 |      228 |       0.05 | *
    |       64 |        - |      223 |      223 |       0.05 | *
    |       70 |        - |      218 |      218 |       0.05 | *
    |       79 |        - |      216 |      216 |       0.05 | *
    |       85 |        - |      215 |      215 |       0.05 | *
    |       86 |        - |      214 |      214 |       0.05 | *
    |      103 |        - |      207 |      207 |       0.05 | *
    |      118 |        - |      206 |      206 |       0.05 | *
    |      129 |        - |      203 |      203 |       0.05 | *
    |      132 |        - |      201 |      201 |       0.05 | *
    |      133 |        - |      198 |      198 |       0.06 | *
    |      169 |        - |      174 |      174 |       0.06 | *
    |      174 |        - |      170 |      170 |       0.06 | *
    |      179 |        - |      163 |      163 |       0.06 | *
    |      194 |        - |      153 |      153 |       0.06 | *
    |      218 |        - |      150 |      150 |       0.06 | *
    |      242 |        - |      149 |      149 |       0.06 | *
    |      246 |        - |      148 |      148 |       0.06 | *
    |      251 |        - |      146 |      146 |       0.06 | *
    |      260 |        - |      145 |      145 |       0.06 | *
    |      263 |        - |      143 |      143 |       0.06 | *
    |      265 |        - |      142 |      142 |       0.06 | *
    |      303 |        - |      138 |      138 |       0.07 | *
    |      305 |        - |      137 |      137 |       0.07 | *
    |      309 |        - |      134 |      134 |       0.07 | *
    |      340 |        - |      133 |      133 |       0.07 | *
    |      354 |        - |      131 |      131 |       0.07 | *
    |      364 |        - |      129 |      129 |       0.07 | *
    |      371 |        - |      128 |      128 |       0.07 | *
    |      372 |        - |      126 |      126 |       0.07 | *
    |      413 |        - |      125 |      125 |       0.07 | *
    |      415 |        - |      124 |      124 |       0.07 | *
    |      420 |        - |      123 |      123 |       0.07 | *
    |      437 |        - |      122 |      122 |       0.08 | *
    |      440 |        - |      121 |      121 |       0.08 | *
    |      447 |        - |      120 |      120 |       0.08 | *
    |      466 |        - |      118 |      118 |       0.08 | *
    |      511 |        - |      117 |      117 |       0.08 | *
    |      547 |        - |      116 |      116 |       0.08 | *
    |      602 |        - |      115 |      115 |       0.08 | *
    |      603 |        - |      114 |      114 |       0.08 | *
    |      663 |        - |      113 |      113 |       0.08 | *
    |      670 |        - |      112 |      112 |       0.08 | *
    |      675 |        - |      111 |      111 |       0.08 | *
    |      682 |        - |      110 |      110 |       0.08 | *
    |      707 |        - |      109 |      109 |       0.08 | *
    |      785 |        - |      106 |      106 |       0.09 | *
    |      793 |        - |      105 |      105 |       0.09 | *
    |      797 |        - |      102 |      102 |       0.09 | *
    |      849 |        - |      100 |      100 |       0.09 | *
    |      865 |        - |       99 |       99 |       0.09 | *
    |      871 |        - |       96 |       96 |       0.09 | *
    |      910 |        - |       94 |       94 |       0.09 | *
    |      958 |        - |       92 |       92 |       0.09 | *
    |      976 |        - |       90 |       90 |       0.10 | *
    |      994 |        - |       89 |       89 |       0.10 | *
    |      996 |        - |       87 |       87 |       0.10 | *
    |     1003 |        - |       86 |       86 |       0.10 | *
    |     1005 |        - |       85 |       85 |       0.10 | *
    |     1038 |        - |       83 |       83 |       0.10 | *
    |     1190 |        - |       82 |       82 |       0.10 | *
    |     1196 |        - |       81 |       81 |       0.10 | *
    |     1317 |        - |       80 |       80 |       0.10 | *
    |     1321 |        - |       79 |       79 |       0.11 | *
    |     1370 |        - |       78 |       78 |       0.11 | *
    |     1410 |        - |       76 |       76 |       0.11 | *
    |     1435 |        - |       75 |       75 |       0.11 | *
    |     1557 |        - |       74 |       74 |       0.11 | *
    |     1559 |        - |       73 |       73 |       0.11 | *
    |     1595 |        - |       72 |       72 |       0.11 | *
    |     1672 |        - |       71 |       71 |       0.11 | *
    |     1737 |        - |       70 |       70 |       0.12 | *
    |     1822 |        - |       67 |       67 |       0.12 | *
    |     1826 |        - |       66 |       66 |       0.12 | *
    |     1839 |        - |       65 |       65 |       0.12 | *
    |     1842 |        - |       63 |       63 |       0.12 | *
    |     2023 |        - |       62 |       62 |       0.12 | *
    |     2054 |        - |       60 |       60 |       0.12 | *
    |     4783 |        - |       59 |       59 |       0.13 | *
    |     4784 |        - |       58 |       58 |       0.13 | *
    |     4855 |        - |       57 |       57 |       0.13 | *
    |     5077 |        - |       56 |       56 |       0.14 | *
    |     5083 |        - |       55 |       55 |       0.14 | *
    |     7091 |        - |       54 |       54 |       0.14 | *
    |     7169 |        - |       53 |       53 |       0.14 | *
    |     7195 |        - |       52 |       52 |       0.15 | *
    |     7217 |        - |       51 |       51 |       0.15 | *
    |     7503 |        - |       50 |       50 |       0.15 | *
    |     8094 |        - |       49 |       49 |       0.15 | *
    |      23K |        - |       48 |       48 |       0.17 | *
    |      23K |        - |       47 |       47 |       0.17 | *
    |      23K |        - |       46 |       46 |       0.17 | *
    |      23K |        - |       45 |       45 |       0.17 | *
    |      23K |        - |       44 |       44 |       0.17 | *
    |      76K |        - |       43 |       43 |       0.24 | *
    |     158K |        - |       42 |       42 |       0.33 | *
    |     158K |        - |       41 |       41 |       0.33 | *
    |     165K |        - |       40 |       40 |       0.33 | *
    |     166K |        - |       39 |       39 |       0.34 | *
    |    1777K |        - |       38 |       38 |       3.08 | *
    |    4926K |        - |       37 |       37 |       6.28 | *
    \--------------------------------------------------------/

Neighborhoods statistics (values in %):

    /----------------------------------------------------------------\
    | Move               | Improvs. | Sideways |  Accepts |  Rejects |
    |--------------------|----------|----------|----------|----------|
    | Shift(mk)          |    1020K |    5644K |    7184K |     262M |
    | Shift              |      71K |      86M |      87M |     186M |
    | ShiftSmart(mk)     |    1767K |      12M |      15M |     254M |
    | ShiftSmart         |     122K |     133M |     134M |     139M |
    | SimpSwap(mk)       |     7485 |      16K |      27K |     273M |
    | SimpSwap           |     1048 |     146K |     156K |     273M |
    | SimpSwapSmart(mk)  |      21K |      46K |      76K |     273M |
    | SimpSwapSmart      |     2825 |     443K |     470K |     272M |
    | Swap(mk)           |     6629 |      14K |      24K |     273M |
    | Swap               |      887 |     132K |     141K |     273M |
    | SwapSmart(mk)      |      14K |      32K |      51K |     273M |
    | SwapSmart          |     1851 |     302K |     317K |     272M |
    | Switch(mk)         |     576K |      94M |      95M |     174M |
    | Switch             |      40K |     132M |     132M |     141M |
    | SwitchSmart(mk)    |    1055K |    2911K |    4462K |     265M |
    | SwitchSmart        |      73K |      79M |      80M |     193M |
    | TaskMove(mk)       |      43K |     126K |     182K |     273M |
    | TaskMove           |     2910 |     744K |     771K |     272M |
    | TaskMoveSmart(mk)  |      80K |     230K |     336K |     273M |
    | TaskMoveSmart      |     5440 |    1460K |    1512K |     271M |
    | 2-Shift(mk)        |     761K |      58M |      60M |     209M |
    | 2-Shift            |      53K |     109M |     109M |     163M |
    | 2-ShiftSmart(mk)   |    1338K |      81M |      83M |     186M |
    | 2-ShiftSmart       |      92K |     145M |     145M |     128M |
    \----------------------------------------------------------------/

Best makespan.....: 37
N. of Iterations..: 6525431143
Total runtime.....: 3600.03s
Using Python-MIP package version 1.6.8
Começo a execução
    /-------------------------------------------------------------------------------\
    |    Makespan   |   Free Jobs   | Free Machines |    It. Time   |   Total Time  | 
    |-------------------------------------------------------------------------------|
    \-------------------------------------------------------------------------------/
Terminou a execução
