20
6 87 44 40 33 81 76
5 85 67 5 9 31
5 18 98 93 7 78
4 71 36 72 2
6 46 41 47 58 13 70
7 84 34 1 35 96 99 10
3 64 54 91
5 86 60 16 61 37
6 19 75 89 42 17 27
5 73 56 68 69 77
5 80 50 22 11 38
5 8 65 88 55 3
4 30 45 48 82
5 51 97 62 25 57
7 20 12 49 94 26 53 29
4 23 59 14 21
3 66 83 52
5 39 79 95 4 0
4 63 15 92 6
6 32 43 28 90 24 74

Total makespan: 77

