30
7 144 131 37 105 63 92 175
9 11 181 121 109 25 39 56 45 210
9 27 26 20 24 173 228 214 57 53
8 177 135 160 40 99 201 236 162
7 7 54 199 43 150 126 93
7 101 127 157 104 106 0 119
9 233 113 143 193 110 225 51 188 178
10 33 202 161 10 36 84 15 48 154 13
7 219 23 62 64 229 215 230
9 68 29 125 72 89 111 167 21 169
9 165 245 217 4 234 147 142 185 156
12 108 187 47 222 132 191 35 76 65 95 198 73
8 32 174 58 163 22 241 114 30
7 208 186 238 244 190 141 1
7 31 179 195 98 46 172 90
11 34 86 137 17 138 200 249 50 94 203 197
9 182 164 196 60 149 117 61 240 248
8 211 18 71 96 81 136 227 107
10 212 75 14 206 235 3 140 246 148 69
7 52 128 16 166 224 232 74
8 171 146 19 189 8 123 59 44
11 194 170 70 42 118 55 116 103 216 184 207
9 226 124 82 176 221 231 158 159 67
6 112 152 237 83 213 139
12 120 6 38 88 242 151 129 97 239 168 247 155
6 28 204 91 77 2 192
8 218 5 80 78 130 9 87 12
9 243 102 153 49 115 183 134 145 122
6 100 223 133 220 180 209
5 205 66 79 41 85

Total makespan: 73

