Instance....: instances/I_100_25_S_1-124_8.txt
Algorithm...: Simulated Annealing (alpha=0.990, saMax=10M, t0=1)
Other params: maxIters=100M, seed=0, timeLimit=360.00s

    /--------------------------------------------------------\
    |     Iter |   RDP(%) |       S* |       S' |       Time | 
    |----------|----------|----------|----------|------------|
    |        0 |        - |     1004 |     1004 |       0.00 | s0
    |        0 |        - |      972 |      972 |       0.00 | *
    |        4 |        - |      866 |      866 |       0.02 | *
    |        6 |        - |      819 |      819 |       0.02 | *
    |       10 |        - |      785 |      785 |       0.02 | *
    |       17 |        - |      674 |      674 |       0.02 | *
    |       27 |        - |      662 |      662 |       0.02 | *
    |       31 |        - |      649 |      649 |       0.02 | *
    |       40 |        - |      620 |      620 |       0.02 | *
    |       43 |        - |      616 |      616 |       0.03 | *
    |       47 |        - |      571 |      571 |       0.03 | *
    |       48 |        - |      569 |      569 |       0.03 | *
    |       50 |        - |      566 |      566 |       0.03 | *
    |       51 |        - |      556 |      556 |       0.03 | *
    |       56 |        - |      550 |      550 |       0.03 | *
    |       61 |        - |      538 |      538 |       0.03 | *
    |       64 |        - |      534 |      534 |       0.03 | *
    |       81 |        - |      530 |      530 |       0.03 | *
    |       83 |        - |      528 |      528 |       0.03 | *
    |       84 |        - |      526 |      526 |       0.03 | *
    |       91 |        - |      514 |      514 |       0.03 | *
    |       97 |        - |      502 |      502 |       0.03 | *
    |      105 |        - |      501 |      501 |       0.03 | *
    |      110 |        - |      492 |      492 |       0.03 | *
    |      118 |        - |      490 |      490 |       0.03 | *
    |      119 |        - |      485 |      485 |       0.03 | *
    |      130 |        - |      483 |      483 |       0.03 | *
    |      137 |        - |      468 |      468 |       0.03 | *
    |      156 |        - |      461 |      461 |       0.03 | *
    |      166 |        - |      447 |      447 |       0.03 | *
    |      168 |        - |      446 |      446 |       0.03 | *
    |      174 |        - |      439 |      439 |       0.04 | *
    |      182 |        - |      435 |      435 |       0.04 | *
    |      185 |        - |      432 |      432 |       0.04 | *
    |      188 |        - |      430 |      430 |       0.04 | *
    |      193 |        - |      427 |      427 |       0.04 | *
    |      198 |        - |      417 |      417 |       0.04 | *
    |      215 |        - |      416 |      416 |       0.04 | *
    |      218 |        - |      415 |      415 |       0.04 | *
    |      223 |        - |      401 |      401 |       0.04 | *
    |      230 |        - |      397 |      397 |       0.04 | *
    |      246 |        - |      396 |      396 |       0.04 | *
    |      247 |        - |      395 |      395 |       0.04 | *
    |      251 |        - |      393 |      393 |       0.04 | *
    |      254 |        - |      390 |      390 |       0.04 | *
    |      255 |        - |      383 |      383 |       0.04 | *
    |      280 |        - |      382 |      382 |       0.04 | *
    |      283 |        - |      380 |      380 |       0.04 | *
    |      285 |        - |      378 |      378 |       0.04 | *
    |      291 |        - |      372 |      372 |       0.04 | *
    |      292 |        - |      368 |      368 |       0.04 | *
    |      298 |        - |      366 |      366 |       0.04 | *
    |      299 |        - |      357 |      357 |       0.04 | *
    |      308 |        - |      352 |      352 |       0.04 | *
    |      323 |        - |      345 |      345 |       0.04 | *
    |      333 |        - |      342 |      342 |       0.04 | *
    |      351 |        - |      340 |      340 |       0.04 | *
    |      355 |        - |      339 |      339 |       0.04 | *
    |      359 |        - |      337 |      337 |       0.04 | *
    |      363 |        - |      335 |      335 |       0.05 | *
    |      375 |        - |      333 |      333 |       0.05 | *
    |      376 |        - |      332 |      332 |       0.05 | *
    |      388 |        - |      329 |      329 |       0.05 | *
    |      397 |        - |      324 |      324 |       0.05 | *
    |      412 |        - |      321 |      321 |       0.05 | *
    |      418 |        - |      314 |      314 |       0.05 | *
    |      423 |        - |      309 |      309 |       0.05 | *
    |      503 |        - |      304 |      304 |       0.05 | *
    |      513 |        - |      298 |      298 |       0.05 | *
    |      519 |        - |      297 |      297 |       0.05 | *
    |      521 |        - |      295 |      295 |       0.05 | *
    |      542 |        - |      293 |      293 |       0.05 | *
    |      545 |        - |      288 |      288 |       0.05 | *
    |      573 |        - |      286 |      286 |       0.05 | *
    |      578 |        - |      283 |      283 |       0.05 | *
    |      581 |        - |      281 |      281 |       0.05 | *
    |      589 |        - |      280 |      280 |       0.05 | *
    |      632 |        - |      279 |      279 |       0.05 | *
    |      639 |        - |      277 |      277 |       0.05 | *
    |      704 |        - |      273 |      273 |       0.05 | *
    |      758 |        - |      270 |      270 |       0.05 | *
    |      765 |        - |      269 |      269 |       0.05 | *
    |      771 |        - |      264 |      264 |       0.05 | *
    |      793 |        - |      252 |      252 |       0.06 | *
    |      808 |        - |      248 |      248 |       0.06 | *
    |      823 |        - |      246 |      246 |       0.06 | *
    |      826 |        - |      243 |      243 |       0.06 | *
    |      867 |        - |      241 |      241 |       0.06 | *
    |      868 |        - |      239 |      239 |       0.06 | *
    |      870 |        - |      237 |      237 |       0.06 | *
    |      896 |        - |      235 |      235 |       0.06 | *
    |     1079 |        - |      234 |      234 |       0.06 | *
    |     1082 |        - |      232 |      232 |       0.06 | *
    |     1097 |        - |      231 |      231 |       0.06 | *
    |     1101 |        - |      228 |      228 |       0.06 | *
    |     1305 |        - |      225 |      225 |       0.06 | *
    |     1341 |        - |      223 |      223 |       0.06 | *
    |     1345 |        - |      219 |      219 |       0.06 | *
    |     1476 |        - |      218 |      218 |       0.06 | *
    |     1491 |        - |      210 |      210 |       0.06 | *
    |     1591 |        - |      209 |      209 |       0.06 | *
    |     1605 |        - |      208 |      208 |       0.06 | *
    |     1802 |        - |      207 |      207 |       0.06 | *
    |     1812 |        - |      206 |      206 |       0.06 | *
    |     2004 |        - |      204 |      204 |       0.06 | *
    |     2218 |        - |      203 |      203 |       0.06 | *
    |     2302 |        - |      201 |      201 |       0.07 | *
    |     2304 |        - |      200 |      200 |       0.07 | *
    |     2332 |        - |      199 |      199 |       0.07 | *
    |     2383 |        - |      197 |      197 |       0.07 | *
    |     2434 |        - |      196 |      196 |       0.07 | *
    |     2486 |        - |      192 |      192 |       0.07 | *
    |     2501 |        - |      189 |      189 |       0.07 | *
    |     2502 |        - |      188 |      188 |       0.07 | *
    |     2526 |        - |      187 |      187 |       0.07 | *
    |     2560 |        - |      184 |      184 |       0.07 | *
    |     2577 |        - |      183 |      183 |       0.07 | *
    |     2579 |        - |      182 |      182 |       0.07 | *
    |     2766 |        - |      181 |      181 |       0.07 | *
    |     2771 |        - |      179 |      179 |       0.07 | *
    |     2775 |        - |      178 |      178 |       0.07 | *
    |     2813 |        - |      176 |      176 |       0.07 | *
    |     2824 |        - |      174 |      174 |       0.07 | *
    |     2852 |        - |      171 |      171 |       0.07 | *
    |     2853 |        - |      170 |      170 |       0.07 | *
    |     3061 |        - |      169 |      169 |       0.07 | *
    |     3190 |        - |      167 |      167 |       0.07 | *
    |     3193 |        - |      165 |      165 |       0.07 | *
    |     3199 |        - |      164 |      164 |       0.07 | *
    |     3381 |        - |      162 |      162 |       0.08 | *
    |     3853 |        - |      160 |      160 |       0.08 | *
    |     3896 |        - |      159 |      159 |       0.08 | *
    |     3907 |        - |      158 |      158 |       0.08 | *
    |     4078 |        - |      157 |      157 |       0.08 | *
    |     4382 |        - |      156 |      156 |       0.08 | *
    |     4392 |        - |      155 |      155 |       0.08 | *
    |     4427 |        - |      154 |      154 |       0.08 | *
    |     4443 |        - |      153 |      153 |       0.08 | *
    |     4534 |        - |      152 |      152 |       0.08 | *
    |     4658 |        - |      151 |      151 |       0.08 | *
    |     4738 |        - |      149 |      149 |       0.08 | *
    |     4812 |        - |      148 |      148 |       0.08 | *
    |     4843 |        - |      145 |      145 |       0.08 | *
    |     5021 |        - |      144 |      144 |       0.09 | *
    |     5033 |        - |      143 |      143 |       0.09 | *
    |     5045 |        - |      141 |      141 |       0.09 | *
    |     5421 |        - |      137 |      137 |       0.09 | *
    |     5436 |        - |      136 |      136 |       0.09 | *
    |     5477 |        - |      133 |      133 |       0.09 | *
    |     5507 |        - |      132 |      132 |       0.09 | *
    |     6952 |        - |      131 |      131 |       0.10 | *
    |     7182 |        - |      130 |      130 |       0.10 | *
    |     8996 |        - |      128 |      128 |       0.10 | *
    |     9794 |        - |      127 |      127 |       0.10 | *
    |      11K |        - |      126 |      126 |       0.11 | *
    |      16K |        - |      124 |      124 |       0.12 | *
    |      16K |        - |      123 |      123 |       0.12 | *
    |      18K |        - |      122 |      122 |       0.12 | *
    |      18K |        - |      121 |      121 |       0.12 | *
    |      19K |        - |      120 |      120 |       0.12 | *
    |      21K |        - |      118 |      118 |       0.13 | *
    |      21K |        - |      116 |      116 |       0.13 | *
    |      22K |        - |      115 |      115 |       0.13 | *
    |      23K |        - |      113 |      113 |       0.13 | *
    |      23K |        - |      111 |      111 |       0.13 | *
    |      23K |        - |      110 |      110 |       0.13 | *
    |      25K |        - |      109 |      109 |       0.14 | *
    |      25K |        - |      108 |      108 |       0.14 | *
    |      25K |        - |      106 |      106 |       0.14 | *
    |      26K |        - |      105 |      105 |       0.14 | *
    |      26K |        - |      103 |      103 |       0.14 | *
    |      27K |        - |      102 |      102 |       0.15 | *
    |      28K |        - |      101 |      101 |       0.15 | *
    |      29K |        - |      100 |      100 |       0.15 | *
    |      32K |        - |       99 |       99 |       0.16 | *
    |      32K |        - |       98 |       98 |       0.16 | *
    |      32K |        - |       96 |       96 |       0.16 | *
    |      32K |        - |       95 |       95 |       0.16 | *
    |      32K |        - |       94 |       94 |       0.16 | *
    |      32K |        - |       93 |       93 |       0.16 | *
    |      33K |        - |       92 |       92 |       0.16 | *
    |      36K |        - |       91 |       91 |       0.17 | *
    |      48K |        - |       90 |       90 |       0.19 | *
    |      48K |        - |       89 |       89 |       0.19 | *
    |      65K |        - |       88 |       88 |       0.23 | *
    |      66K |        - |       87 |       87 |       0.24 | *
    |      70K |        - |       86 |       86 |       0.25 | *
    |      70K |        - |       85 |       85 |       0.25 | *
    |      76K |        - |       84 |       84 |       0.26 | *
    |      76K |        - |       83 |       83 |       0.26 | *
    |      84K |        - |       82 |       82 |       0.27 | *
    |      95K |        - |       81 |       81 |       0.29 | *
    |      97K |        - |       80 |       80 |       0.30 | *
    |     118K |        - |       79 |       79 |       0.34 | *
    |     121K |        - |       78 |       78 |       0.35 | *
    |     121K |        - |       76 |       76 |       0.35 | *
    |     122K |        - |       75 |       75 |       0.35 | *
    |     172K |        - |       74 |       74 |       0.44 | *
    |     201K |        - |       73 |       73 |       0.49 | *
    |     248K |        - |       72 |       72 |       0.55 | *
    |     259K |        - |       71 |       71 |       0.57 | *
    |     271K |        - |       70 |       70 |       0.59 | *
    |     298K |        - |       69 |       69 |       0.64 | *
    |     312K |        - |       68 |       68 |       0.66 | *
    |     319K |        - |       67 |       67 |       0.66 | *
    |     319K |        - |       66 |       66 |       0.67 | *
    |     480K |        - |       65 |       65 |       0.87 | *
    |     810K |        - |       64 |       64 |       1.31 | *
    |     872K |        - |       63 |       63 |       1.39 | *
    |    1186K |        - |       62 |       62 |       1.86 | *
    |    1746K |        - |       61 |       61 |       2.70 | *
    |    1805K |        - |       60 |       60 |       2.79 | *
    |    1862K |        - |       59 |       59 |       2.88 | *
    |    2832K |        - |       58 |       58 |       4.25 | *
    |    3577K |        - |       57 |       57 |       5.26 | *
    |    3949K |        - |       56 |       56 |       5.73 | *
    |     216M |        - |       55 |       55 |     288.04 | *
    \--------------------------------------------------------/

Neighborhoods statistics (values in %):

    /----------------------------------------------------------------\
    | Move               | Improvs. | Sideways |  Accepts |  Rejects |
    |--------------------|----------|----------|----------|----------|
    | Shift(mk)          |      16K |      18K |      38K |      11M |
    | Shift              |      666 |     439K |     455K |      11M |
    | ShiftSmart(mk)     |      41K |      40K |      89K |      11M |
    | ShiftSmart         |     1584 |     857K |     893K |      10M |
    | SimpSwap(mk)       |      280 |      272 |      611 |      11M |
    | SimpSwap           |       24 |     2560 |     2808 |      11M |
    | SimpSwapSmart(mk)  |      746 |      782 |     1721 |      11M |
    | SimpSwapSmart      |       59 |     6803 |     7524 |      11M |
    | Swap(mk)           |      164 |      168 |      367 |      11M |
    | Swap               |        6 |     1503 |     1650 |      11M |
    | SwapSmart(mk)      |      921 |     1090 |     2333 |      11M |
    | SwapSmart          |       83 |     8209 |     9034 |      11M |
    | Switch(mk)         |     4296 |    2546K |    2551K |    8669K |
    | Switch             |      165 |    3201K |    3205K |    8024K |
    | SwitchSmart(mk)    |      13K |      12K |      27K |      11M |
    | SwitchSmart        |      495 |     316K |     327K |      11M |
    | TaskMove(mk)       |     1476 |     1858 |     3752 |      11M |
    | TaskMove           |       69 |     7600 |     8506 |      11M |
    | TaskMoveSmart(mk)  |     5074 |     6199 |      13K |      11M |
    | TaskMoveSmart      |      257 |      26K |      30K |      11M |
    | 2-Shift(mk)        |      13K |     911K |     926K |      10M |
    | 2-Shift            |      465 |    1722K |    1734K |    9493K |
    | 2-ShiftSmart(mk)   |      25K |    1376K |    1405K |    9821K |
    | 2-ShiftSmart       |     1064 |    2717K |    2735K |    8488K |
    \----------------------------------------------------------------/

Best makespan.....: 55
N. of Iterations..: 269445798
Total runtime.....: 360.01s
Academic license - for non-commercial use only
Academic license - for non-commercial use only
Academic license - for non-commercial use only
Academic license - for non-commercial use only
Academic license - for non-commercial use only
Academic license - for non-commercial use only
Academic license - for non-commercial use only
Academic license - for non-commercial use only
Academic license - for non-commercial use only
Academic license - for non-commercial use only
Academic license - for non-commercial use only
Academic license - for non-commercial use only
Academic license - for non-commercial use only
Academic license - for non-commercial use only
Academic license - for non-commercial use only
Academic license - for non-commercial use only
Academic license - for non-commercial use only
Academic license - for non-commercial use only
Academic license - for non-commercial use only
Academic license - for non-commercial use only
Academic license - for non-commercial use only
Academic license - for non-commercial use only
Academic license - for non-commercial use only
Academic license - for non-commercial use only
Academic license - for non-commercial use only
Academic license - for non-commercial use only
Academic license - for non-commercial use only
Academic license - for non-commercial use only
Academic license - for non-commercial use only
Academic license - for non-commercial use only
Academic license - for non-commercial use only
Academic license - for non-commercial use only
Academic license - for non-commercial use only
Academic license - for non-commercial use only
Academic license - for non-commercial use only
Academic license - for non-commercial use only
Academic license - for non-commercial use only
Academic license - for non-commercial use only
Academic license - for non-commercial use only
Academic license - for non-commercial use only
Academic license - for non-commercial use only
Academic license - for non-commercial use only
Academic license - for non-commercial use only
Academic license - for non-commercial use only
Academic license - for non-commercial use only
Academic license - for non-commercial use only
Academic license - for non-commercial use only
Academic license - for non-commercial use only
Academic license - for non-commercial use only
Academic license - for non-commercial use only
Academic license - for non-commercial use only
Academic license - for non-commercial use only
Academic license - for non-commercial use only
Academic license - for non-commercial use only
Academic license - for non-commercial use only
Academic license - for non-commercial use only
Academic license - for non-commercial use only
Academic license - for non-commercial use only
Academic license - for non-commercial use only
Academic license - for non-commercial use only
Academic license - for non-commercial use only
Academic license - for non-commercial use only
Academic license - for non-commercial use only
Academic license - for non-commercial use only
Academic license - for non-commercial use only
Academic license - for non-commercial use only
Academic license - for non-commercial use only
Academic license - for non-commercial use only
Academic license - for non-commercial use only
Academic license - for non-commercial use only
Academic license - for non-commercial use only
Academic license - for non-commercial use only
Academic license - for non-commercial use only
Academic license - for non-commercial use only
Academic license - for non-commercial use only
Academic license - for non-commercial use only
Academic license - for non-commercial use only
Academic license - for non-commercial use only
Academic license - for non-commercial use only
Academic license - for non-commercial use only
Academic license - for non-commercial use only
Academic license - for non-commercial use only
Academic license - for non-commercial use only
Academic license - for non-commercial use only
Academic license - for non-commercial use only
Academic license - for non-commercial use only
Academic license - for non-commercial use only
Academic license - for non-commercial use only
Academic license - for non-commercial use only
Academic license - for non-commercial use only
Academic license - for non-commercial use only
Academic license - for non-commercial use only
    /-------------------------------------------------------------------------------\
    |    Makespam   |   Free Jobs   | Free Machines |    It. Time   |   Total Time  | 
    |-------------------------------------------------------------------------------|
    |            55 |            33 |             8 |          0.30 |          0.95 | 
    |            55 |            39 |            10 |          1.56 |          2.62 | 
    |            55 |            46 |            13 |         22.01 |         24.87 | 
    |            55 |            36 |             9 |          1.32 |         26.32 | 
    |            55 |            43 |            11 |         22.01 |         48.58 | 
    |            55 |            34 |             8 |          0.95 |         49.65 | 
    |            55 |            40 |            10 |          1.02 |         50.87 | 
    |            55 |            48 |            14 |         22.01 |         73.19 | 
    |            55 |            38 |            10 |         22.00 |         95.34 | 
    |            55 |            30 |             7 |          0.30 |         95.72 | 
    |            55 |            36 |             9 |          0.42 |         96.23 | 
    |            55 |            43 |            11 |         22.01 |        118.48 | 
    |            55 |            34 |             8 |          0.29 |        118.89 | 
    |            55 |            40 |             9 |          0.99 |        119.98 | 
    |            55 |            48 |            13 |          0.44 |        120.70 | 
    |            55 |            57 |            15 |         22.01 |        142.97 | 
    |            55 |            45 |            11 |          2.31 |        145.42 | 
    |            55 |            54 |            14 |         22.01 |        167.64 | 
    |            55 |            43 |            12 |         13.92 |        181.72 | 
    |            55 |            51 |            13 |         22.01 |        203.93 | 
    |            55 |            40 |            10 |          5.69 |        209.83 | 
    |            55 |            48 |            13 |         22.00 |        231.96 | 
    |            55 |            38 |            10 |          2.15 |        234.20 | 
    |            55 |            45 |            12 |         22.01 |        256.33 | 
    |            55 |            36 |             9 |          0.69 |        257.11 | 
    |            55 |            43 |            11 |          6.71 |        264.01 | 
    |            55 |            51 |            12 |         22.00 |        286.15 | 
    |            55 |            40 |             9 |          1.41 |        287.66 | 
    |            55 |            48 |            12 |          0.27 |        288.13 | 
    |            55 |            57 |            13 |         22.01 |        310.39 | 
    |            55 |            45 |            12 |         22.00 |        332.56 | 
    |            55 |            36 |             9 |          1.02 |        333.66 | 
    |            55 |            43 |            11 |          3.32 |        337.22 | 
    |            55 |            51 |            13 |         22.01 |        359.41 | 
    |            55 |            40 |            11 |         12.46 |        372.00 | 
    |            55 |            48 |            12 |         22.00 |        394.20 | 
    |            55 |            38 |            10 |          2.53 |        396.88 | 
    |            55 |            45 |            11 |          7.66 |        404.66 | 
    |            55 |            54 |            13 |         22.01 |        426.81 | 
    |            55 |            43 |            11 |          4.83 |        431.74 | 
    |            55 |            51 |            14 |         22.01 |        454.03 | 
    |            55 |            40 |             9 |          1.64 |        455.75 | 
    |            55 |            48 |            13 |         22.01 |        477.94 | 
    |            55 |            38 |             9 |          0.88 |        478.96 | 
    |            55 |            45 |            12 |          3.31 |        482.44 | 
    |            55 |            54 |            13 |         22.03 |        504.69 | 
    |            55 |            43 |            11 |         22.00 |        526.79 | 
    |            55 |            34 |             8 |          0.70 |        527.55 | 
    |            55 |            40 |            10 |          2.61 |        530.25 | 
    |            55 |            48 |            12 |         22.00 |        552.42 | 
    |            55 |            38 |             9 |          5.26 |        557.74 | 
    |            55 |            45 |            11 |         22.01 |        579.88 | 
    |            55 |            36 |            10 |          1.46 |        581.47 | 
    |            55 |            43 |            11 |         22.00 |        603.58 | 
    |            55 |            34 |             9 |          1.32 |        604.98 | 
    |            55 |            40 |            11 |          4.43 |        609.59 | 
    |            55 |            48 |            11 |         22.01 |        631.74 | 
    |            55 |            38 |            11 |          2.59 |        634.45 | 
    |            55 |            45 |            11 |          4.22 |        638.86 | 
    |            55 |            54 |            14 |         22.00 |        661.07 | 
    |            55 |            43 |            11 |         22.00 |        683.16 | 
    |            55 |            34 |            10 |          0.99 |        684.23 | 
    |            55 |            40 |            11 |          4.36 |        688.72 | 
    |            55 |            48 |            13 |         22.01 |        710.89 | 
    |            55 |            38 |             8 |          0.21 |        711.25 | 
    |            55 |            45 |            12 |          0.26 |        711.62 | 
    |            55 |            54 |            14 |         22.01 |        733.89 | 
    |            55 |            43 |            11 |         12.39 |        746.37 | 
    |            55 |            51 |            14 |         22.01 |        768.61 | 
    |            55 |            40 |            10 |          2.16 |        770.93 | 
    |            55 |            48 |            13 |         22.01 |        793.11 | 
    |            55 |            38 |            10 |          7.06 |        800.30 | 
    |            55 |            45 |            12 |         15.76 |        816.21 | 
    |            55 |            54 |            15 |         22.04 |        838.41 | 
    |            55 |            43 |            12 |         22.00 |        860.59 | 
    |            55 |            34 |             9 |          2.19 |        862.83 | 
    |            55 |            40 |            10 |          5.37 |        868.35 | 
    |            55 |            48 |            13 |         22.00 |        890.54 | 
    |            55 |            38 |             9 |          1.70 |        892.28 | 
    |            55 |            45 |            12 |         22.00 |        914.41 | 
    |            55 |            36 |             9 |          0.27 |        914.74 | 
    |            55 |            43 |            11 |          0.22 |        915.09 | 
    |            55 |            51 |            13 |         22.00 |        937.34 | 
    |            55 |            40 |            10 |         18.71 |        956.16 | 
    |            55 |            48 |            12 |         22.00 |        978.34 | 
    |            55 |            38 |             9 |          1.65 |        980.04 | 
    |            55 |            45 |            11 |          2.36 |        982.51 | 
    |            55 |            54 |            15 |         22.00 |       1004.76 | 
    |            55 |            43 |            11 |          2.94 |       1007.80 | 
    |            55 |            51 |            13 |         22.00 |       1029.92 | 
    |            55 |            40 |             9 |          3.21 |       1033.21 | 
    |            55 |            48 |            12 |         22.01 |       1055.34 | Academic license - for non-commercial use only
Academic license - for non-commercial use only
Academic license - for non-commercial use only
Academic license - for non-commercial use only
Academic license - for non-commercial use only
Academic license - for non-commercial use only
Academic license - for non-commercial use only
Academic license - for non-commercial use only
Academic license - for non-commercial use only
Academic license - for non-commercial use only
Academic license - for non-commercial use only
Academic license - for non-commercial use only
Academic license - for non-commercial use only
Academic license - for non-commercial use only
Academic license - for non-commercial use only
Academic license - for non-commercial use only
Academic license - for non-commercial use only
Academic license - for non-commercial use only
Academic license - for non-commercial use only
Academic license - for non-commercial use only
Academic license - for non-commercial use only
Academic license - for non-commercial use only
Academic license - for non-commercial use only
Academic license - for non-commercial use only
Academic license - for non-commercial use only
Academic license - for non-commercial use only
Academic license - for non-commercial use only
Academic license - for non-commercial use only
Academic license - for non-commercial use only
Academic license - for non-commercial use only
Academic license - for non-commercial use only
Academic license - for non-commercial use only
Academic license - for non-commercial use only
Academic license - for non-commercial use only
Academic license - for non-commercial use only
Academic license - for non-commercial use only
Academic license - for non-commercial use only
Academic license - for non-commercial use only
Academic license - for non-commercial use only
Academic license - for non-commercial use only
Academic license - for non-commercial use only
Academic license - for non-commercial use only
Academic license - for non-commercial use only
Academic license - for non-commercial use only
Academic license - for non-commercial use only
Academic license - for non-commercial use only
Academic license - for non-commercial use only
Academic license - for non-commercial use only
Academic license - for non-commercial use only
Academic license - for non-commercial use only
Academic license - for non-commercial use only
Academic license - for non-commercial use only
Academic license - for non-commercial use only
Academic license - for non-commercial use only
Academic license - for non-commercial use only
Academic license - for non-commercial use only
Academic license - for non-commercial use only
Academic license - for non-commercial use only
Academic license - for non-commercial use only
Academic license - for non-commercial use only
Academic license - for non-commercial use only
Academic license - for non-commercial use only
Academic license - for non-commercial use only
Academic license - for non-commercial use only
Academic license - for non-commercial use only
Academic license - for non-commercial use only
Academic license - for non-commercial use only
Academic license - for non-commercial use only
Academic license - for non-commercial use only
Academic license - for non-commercial use only
Academic license - for non-commercial use only
Academic license - for non-commercial use only
Academic license - for non-commercial use only
Academic license - for non-commercial use only
Academic license - for non-commercial use only
Academic license - for non-commercial use only
Academic license - for non-commercial use only
Academic license - for non-commercial use only
Academic license - for non-commercial use only
Academic license - for non-commercial use only
Academic license - for non-commercial use only
Academic license - for non-commercial use only
Academic license - for non-commercial use only
Academic license - for non-commercial use only
Academic license - for non-commercial use only
Academic license - for non-commercial use only
Academic license - for non-commercial use only
Academic license - for non-commercial use only
Academic license - for non-commercial use only
Academic license - for non-commercial use only
Academic license - for non-commercial use only
Academic license - for non-commercial use only
Academic license - for non-commercial use only
Academic license - for non-commercial use only
Academic license - for non-commercial use only

    |            55 |            38 |            10 |          8.75 |       1064.18 | 
    |            55 |            45 |            12 |         12.90 |       1077.23 | 
    |            55 |            54 |            13 |         22.01 |       1099.46 | 
    |            55 |            43 |            12 |          0.23 |       1099.81 | 
    |            55 |            51 |            13 |         22.00 |       1121.95 | 
    |            55 |            40 |            11 |         11.81 |       1133.84 | 
    |            55 |            48 |            12 |         22.01 |       1156.03 | 
    |            55 |            38 |             9 |          1.61 |       1157.72 | 
    |            55 |            45 |            12 |          0.30 |       1158.14 | 
    |            55 |            54 |            13 |         22.01 |       1180.30 | 
    |            55 |            43 |            10 |          3.21 |       1183.60 | 
    |            55 |            51 |            13 |         22.00 |       1205.84 | 
    |            55 |            40 |            10 |          6.98 |       1212.96 | 
    |            55 |            48 |            13 |         22.01 |       1235.08 | 
    |            55 |            38 |            11 |         22.01 |       1257.14 | 
    |            55 |            30 |             6 |          0.22 |       1257.44 | 
    |            55 |            36 |             9 |         22.00 |       1279.63 | 
    |            55 |            28 |             8 |          0.26 |       1280.01 | 
    |            55 |            33 |             9 |          1.93 |       1282.03 | 
    |            55 |            39 |            10 |          9.65 |       1291.81 | 
    |            55 |            46 |            13 |         22.00 |       1313.94 | 
    |            55 |            36 |             9 |          0.13 |       1314.14 | 
    |            55 |            43 |            10 |          1.48 |       1315.68 | 
    |            55 |            51 |            14 |         22.00 |       1337.87 | 
    |            55 |            40 |            10 |          2.16 |       1340.13 | 
    |            55 |            48 |            12 |         22.00 |       1362.32 | 
    |            55 |            38 |             9 |          1.75 |       1364.12 | 
    |            55 |            45 |            12 |         22.00 |       1386.25 | 
    |            55 |            36 |             9 |          2.56 |       1388.87 | 
    |            55 |            43 |            12 |         22.00 |       1411.01 | 
    |            55 |            34 |             9 |          0.21 |       1411.26 | 
    |            55 |            40 |            11 |          0.19 |       1411.62 | 
    |            55 |            48 |            12 |         22.00 |       1433.78 | 
    |            55 |            38 |            10 |         19.71 |       1453.55 | 
    |            55 |            45 |            12 |         22.01 |       1475.68 | 
    |            55 |            36 |             9 |          0.48 |       1476.22 | 
    |            55 |            43 |            11 |         22.00 |       1498.33 | 
    |            55 |            34 |             8 |          0.44 |       1498.81 | 
    |            55 |            40 |            10 |          2.64 |       1501.57 | 
    |            55 |            48 |            12 |         22.00 |       1523.69 | 
    |            55 |            38 |            10 |          2.45 |       1526.20 | 
    |            55 |            45 |            12 |         22.00 |       1548.31 | 
    |            55 |            36 |            10 |          1.00 |       1549.36 | 
    |            55 |            43 |            11 |          5.29 |       1554.79 | 
    |            55 |            51 |            14 |         22.00 |       1577.12 | 
    |            55 |            40 |            10 |          4.26 |       1581.44 | 
    |            55 |            48 |            13 |         22.00 |       1603.57 | 
    |            55 |            38 |            10 |         22.00 |       1625.63 | 
    |            55 |            30 |             8 |          0.87 |       1626.53 | 
    |            55 |            36 |             9 |          1.32 |       1627.93 | 
    |            55 |            43 |            11 |         22.00 |       1650.08 | 
    |            55 |            34 |             9 |          0.28 |       1650.41 | 
    |            55 |            40 |            10 |          3.58 |       1654.08 | 
    |            55 |            48 |            12 |         22.00 |       1676.26 | 
    |            55 |            38 |            10 |          2.08 |       1678.39 | 
    |            55 |            45 |            11 |          2.13 |       1680.64 | 
    |            55 |            54 |            13 |         22.00 |       1702.77 | 
    |            55 |            43 |            11 |          1.97 |       1704.81 | 
    |            55 |            51 |            13 |         22.00 |       1726.96 | 
    |            55 |            40 |            10 |          1.51 |       1728.58 | 
    |            55 |            48 |            12 |         22.01 |       1750.67 | 
    |            55 |            38 |            10 |          3.36 |       1754.12 | 
    |            55 |            45 |            12 |         22.00 |       1776.29 | 
    |            55 |            36 |             9 |          1.39 |       1777.73 | 
    |            55 |            43 |            10 |          1.07 |       1778.88 | 
    |            55 |            51 |            13 |         22.00 |       1801.06 | 
    |            55 |            40 |            10 |          1.73 |       1802.91 | 
    |            55 |            48 |            13 |         22.01 |       1825.08 | 
    |            55 |            38 |            10 |          2.64 |       1827.81 | 
    |            55 |            45 |            12 |         13.68 |       1841.69 | 
    |            55 |            54 |            14 |         22.01 |       1863.90 | 
    |            55 |            43 |            10 |          7.25 |       1871.30 | 
    |            55 |            51 |            13 |         22.00 |       1893.50 | 
    |            55 |            40 |            11 |         13.89 |       1907.56 | 
    |            55 |            48 |            12 |          1.99 |       1909.64 | 
    |            55 |            57 |            14 |         22.00 |       1931.81 | 
    |            55 |            45 |            10 |          4.66 |       1936.59 | 
    |            55 |            54 |            14 |         22.00 |       1958.82 | 
    |            55 |            43 |            12 |         22.00 |       1980.98 | 
    |            55 |            34 |             8 |          0.29 |       1981.34 | 
    |            55 |            40 |            11 |          3.73 |       1985.16 | 
    |            55 |            48 |            12 |         11.75 |       1997.07 | 
    |            55 |            57 |            15 |         22.01 |       2019.42 | 
    |            55 |            45 |            12 |          6.82 |       2026.41 | 
    |            55 |            54 |            15 |         22.01 |       2048.71 | 
    |            55 |            43 |            11 |         22.01 |       2070.85 | 
    |            55 |            34 |            10 |          0.63 |       2071.56 | 
    |            55 |            40 |            11 |         22.00 |       2093.73 | 
    |            55 |            32 |             9 |          0.32 |       2094.10 | 
    |            55 |            38 |            10 |          1.88 |       2096.04 | 
    |            55 |            45 |            12 |         22.00 |       2118.14 | 
    |            55 |            36 |             9 |          1.34 |       2119.52 | 
    |            55 |            43 |            12 |         22.00 |       2141.65 | 
    |            55 |            34 |            10 |          1.18 |       2142.89 | 
    |            55 |            40 |            11 |          6.79 |       2149.80 | Academic license - for non-commercial use only
Academic license - for non-commercial use only
Academic license - for non-commercial use only
Academic license - for non-commercial use only
Academic license - for non-commercial use only
Academic license - for non-commercial use only
Academic license - for non-commercial use only
Academic license - for non-commercial use only
Academic license - for non-commercial use only
Academic license - for non-commercial use only
Academic license - for non-commercial use only
Academic license - for non-commercial use only
Academic license - for non-commercial use only
Academic license - for non-commercial use only
Academic license - for non-commercial use only
Academic license - for non-commercial use only
Academic license - for non-commercial use only
Academic license - for non-commercial use only
Academic license - for non-commercial use only
Academic license - for non-commercial use only
Academic license - for non-commercial use only
Academic license - for non-commercial use only
Academic license - for non-commercial use only
Academic license - for non-commercial use only
Academic license - for non-commercial use only
Academic license - for non-commercial use only
Academic license - for non-commercial use only
Academic license - for non-commercial use only
Academic license - for non-commercial use only
Academic license - for non-commercial use only
Academic license - for non-commercial use only
Academic license - for non-commercial use only
Academic license - for non-commercial use only
Academic license - for non-commercial use only
Academic license - for non-commercial use only
Academic license - for non-commercial use only
Academic license - for non-commercial use only
Academic license - for non-commercial use only
Academic license - for non-commercial use only
Academic license - for non-commercial use only
Academic license - for non-commercial use only
Academic license - for non-commercial use only
Academic license - for non-commercial use only
Academic license - for non-commercial use only
Academic license - for non-commercial use only
Academic license - for non-commercial use only
Academic license - for non-commercial use only
Academic license - for non-commercial use only
Academic license - for non-commercial use only
Academic license - for non-commercial use only
Academic license - for non-commercial use only
Academic license - for non-commercial use only
Academic license - for non-commercial use only
Academic license - for non-commercial use only
Academic license - for non-commercial use only
Academic license - for non-commercial use only
Academic license - for non-commercial use only
Academic license - for non-commercial use only
Academic license - for non-commercial use only
Academic license - for non-commercial use only
Academic license - for non-commercial use only
Academic license - for non-commercial use only
Academic license - for non-commercial use only
Academic license - for non-commercial use only
Academic license - for non-commercial use only
Academic license - for non-commercial use only
Academic license - for non-commercial use only
Academic license - for non-commercial use only
Academic license - for non-commercial use only
Academic license - for non-commercial use only
Academic license - for non-commercial use only
Academic license - for non-commercial use only
Academic license - for non-commercial use only
Academic license - for non-commercial use only
Academic license - for non-commercial use only
Academic license - for non-commercial use only
Academic license - for non-commercial use only
Academic license - for non-commercial use only
Academic license - for non-commercial use only
Academic license - for non-commercial use only
Academic license - for non-commercial use only
Academic license - for non-commercial use only
Academic license - for non-commercial use only
Academic license - for non-commercial use only
Academic license - for non-commercial use only
Academic license - for non-commercial use only
Academic license - for non-commercial use only
Academic license - for non-commercial use only

    |            55 |            48 |            13 |         22.00 |       2171.95 | 
    |            55 |            38 |            11 |         13.71 |       2185.72 | 
    |            55 |            45 |            13 |         22.00 |       2207.94 | 
    |            55 |            36 |             9 |          1.63 |       2209.63 | 
    |            55 |            43 |            11 |          6.04 |       2215.83 | 
    |            55 |            51 |            13 |         22.00 |       2238.00 | 
    |            55 |            40 |            11 |          7.03 |       2245.08 | 
    |            55 |            48 |            13 |         20.45 |       2265.66 | 
    |            55 |            57 |            15 |         22.02 |       2287.93 | 
    |            55 |            45 |            12 |          0.26 |       2288.36 | 
    |            55 |            54 |            15 |         22.01 |       2310.68 | 
    |            55 |            43 |            11 |         11.09 |       2321.88 | 
    |            55 |            51 |            14 |         22.00 |       2344.23 | 
    |            55 |            40 |            11 |         22.00 |       2366.35 | 
    |            55 |            32 |             8 |          0.63 |       2367.02 | 
    |            55 |            38 |            10 |          4.83 |       2371.97 | 
    |            55 |            45 |            12 |         22.00 |       2394.09 | 
    |            55 |            36 |            10 |          1.82 |       2396.02 | 
    |            55 |            43 |            11 |          3.01 |       2399.19 | 
    |            55 |            51 |            14 |          0.61 |       2399.97 | 
    |            55 |            61 |            16 |         22.01 |       2422.23 | 
    |            55 |            48 |            13 |         22.00 |       2444.47 | 
    |            55 |            38 |            10 |          1.56 |       2446.09 | 
    |            55 |            45 |            11 |          1.54 |       2447.81 | 
    |            55 |            54 |            14 |         22.01 |       2470.03 | 
    |            55 |            43 |            11 |          3.89 |       2474.02 | 
    |            55 |            51 |            14 |         22.00 |       2496.18 | 
    |            55 |            40 |            11 |          6.15 |       2502.39 | 
    |            55 |            48 |            13 |          0.36 |       2502.85 | 
    |            55 |            57 |            15 |         22.00 |       2525.07 | 
    |            55 |            45 |            12 |         22.00 |       2547.17 | 
    |            55 |            36 |            10 |          1.66 |       2548.88 | 
    |            55 |            43 |            12 |         22.05 |       2571.05 | 
    |            55 |            34 |            10 |          4.04 |       2575.12 | 
    |            55 |            40 |            10 |         10.25 |       2585.43 | 
    |            55 |            48 |            12 |          6.38 |       2591.98 | 
    |            55 |            57 |            15 |         22.01 |       2614.17 | 
    |            55 |            45 |            12 |         22.00 |       2636.25 | 
    |            55 |            36 |            10 |          1.34 |       2637.64 | 
    |            55 |            43 |            12 |          7.91 |       2645.65 | 
    |            55 |            51 |            14 |         22.01 |       2667.83 | 
    |            55 |            40 |            12 |          0.18 |       2668.11 | 
    |            55 |            48 |            13 |         22.00 |       2690.30 | 
    |            55 |            38 |            10 |          0.85 |       2691.22 | 
    |            55 |            45 |            11 |          1.39 |       2692.78 | 
    |            55 |            54 |            14 |          0.53 |       2693.49 | 
    |            55 |            64 |            17 |         22.01 |       2715.76 | 
    |            55 |            51 |            13 |         22.00 |       2737.92 | 
    |            55 |            40 |            11 |          2.13 |       2740.16 | 
    |            55 |            48 |            12 |         22.00 |       2762.37 | 
    |            55 |            38 |            11 |          7.09 |       2769.58 | 
    |            55 |            45 |            13 |         22.01 |       2791.71 | 
    |            55 |            36 |            10 |          2.14 |       2793.92 | 
    |            55 |            43 |            11 |         16.02 |       2810.06 | 
    |            55 |            51 |            12 |         22.01 |       2832.30 | 
    |            55 |            40 |            11 |         15.14 |       2847.54 | 
    |            55 |            48 |            13 |         22.00 |       2869.72 | 
    |            55 |            38 |            11 |          1.39 |       2871.27 | 
    |            55 |            45 |            12 |         22.01 |       2893.37 | 
    |            55 |            36 |             9 |          1.30 |       2894.77 | 
    |            55 |            43 |            11 |          0.18 |       2895.02 | 
    |            55 |            51 |            13 |         22.00 |       2917.20 | 
    |            55 |            40 |            11 |         22.00 |       2939.33 | 
    |            55 |            32 |            10 |          0.63 |       2940.00 | 
    |            55 |            38 |            11 |          0.54 |       2940.69 | 
    |            55 |            45 |            12 |         22.00 |       2962.82 | 
    |            55 |            36 |            10 |         13.55 |       2976.53 | 
    |            55 |            43 |            12 |         22.00 |       2998.66 | 
    |            55 |            34 |             9 |          1.72 |       3000.42 | 
    |            55 |            40 |            12 |         12.71 |       3013.25 | 
    |            55 |            48 |            13 |         22.00 |       3035.43 | 
    |            55 |            38 |            10 |          0.15 |       3035.65 | 
    |            55 |            45 |            12 |         16.43 |       3052.30 | 
    |            55 |            54 |            14 |         22.01 |       3074.48 | 
    |            55 |            43 |            12 |         10.03 |       3084.64 | 
    |            55 |            51 |            13 |         22.03 |       3106.81 | 
    |            55 |            40 |            11 |         13.64 |       3120.54 | 
    |            55 |            48 |            13 |         22.00 |       3142.70 | 
    |            55 |            38 |            11 |          1.73 |       3144.50 | 
    |            55 |            45 |            12 |         22.00 |       3166.65 | 
    |            55 |            36 |            10 |          1.43 |       3168.18 | 
    |            55 |            43 |            11 |         22.00 |       3190.25 | 
    |            55 |            34 |             9 |          0.78 |       3191.09 | 
    |            55 |            40 |            11 |          2.56 |       3193.79 | 
    |            55 |            48 |            13 |         22.00 |       3215.93 | 
    |            55 |            38 |            10 |         22.01 |       3238.00 | 
    |            55 |            30 |             8 |          0.20 |       3238.25 | 
    |            55 |            36 |            10 |          1.19 |       3239.53 | 
-25.454545454545453
