Instance....: instances/I_250_20_S_1-49_9.txt
Algorithm...: Simulated Annealing (alpha=0.990, saMax=10M, t0=1)
Other params: maxIters=100M, seed=0, timeLimit=360.00s

    /--------------------------------------------------------\
    |     Iter |   RDP(%) |       S* |       S' |       Time | 
    |----------|----------|----------|----------|------------|
    |        0 |        - |     1353 |     1353 |       0.00 | s0
    |        3 |        - |     1325 |     1325 |       0.02 | *
    |        6 |        - |     1270 |     1270 |       0.02 | *
    |        7 |        - |     1251 |     1251 |       0.02 | *
    |        9 |        - |     1248 |     1248 |       0.02 | *
    |       10 |        - |     1238 |     1238 |       0.02 | *
    |       11 |        - |     1207 |     1207 |       0.02 | *
    |       16 |        - |     1206 |     1206 |       0.02 | *
    |       17 |        - |     1182 |     1182 |       0.02 | *
    |       20 |        - |     1179 |     1179 |       0.02 | *
    |       21 |        - |     1169 |     1169 |       0.02 | *
    |       23 |        - |     1161 |     1161 |       0.03 | *
    |       24 |        - |     1154 |     1154 |       0.03 | *
    |       26 |        - |     1119 |     1119 |       0.03 | *
    |       27 |        - |     1103 |     1103 |       0.03 | *
    |       31 |        - |     1096 |     1096 |       0.03 | *
    |       37 |        - |     1082 |     1082 |       0.03 | *
    |       40 |        - |     1081 |     1081 |       0.03 | *
    |       43 |        - |     1075 |     1075 |       0.03 | *
    |       45 |        - |     1061 |     1061 |       0.03 | *
    |       46 |        - |     1049 |     1049 |       0.03 | *
    |       49 |        - |     1047 |     1047 |       0.03 | *
    |       50 |        - |     1029 |     1029 |       0.03 | *
    |       52 |        - |     1017 |     1017 |       0.03 | *
    |       53 |        - |     1006 |     1006 |       0.03 | *
    |       54 |        - |     1004 |     1004 |       0.03 | *
    |       58 |        - |      998 |      998 |       0.03 | *
    |       62 |        - |      995 |      995 |       0.03 | *
    |       63 |        - |      993 |      993 |       0.03 | *
    |       71 |        - |      983 |      983 |       0.03 | *
    |       72 |        - |      967 |      967 |       0.03 | *
    |       77 |        - |      962 |      962 |       0.03 | *
    |       81 |        - |      961 |      961 |       0.03 | *
    |       82 |        - |      958 |      958 |       0.03 | *
    |       89 |        - |      957 |      957 |       0.03 | *
    |       91 |        - |      955 |      955 |       0.03 | *
    |      104 |        - |      949 |      949 |       0.03 | *
    |      109 |        - |      947 |      947 |       0.03 | *
    |      110 |        - |      937 |      937 |       0.04 | *
    |      114 |        - |      936 |      936 |       0.04 | *
    |      116 |        - |      935 |      935 |       0.04 | *
    |      126 |        - |      926 |      926 |       0.04 | *
    |      127 |        - |      922 |      922 |       0.04 | *
    |      129 |        - |      915 |      915 |       0.04 | *
    |      132 |        - |      908 |      908 |       0.04 | *
    |      141 |        - |      906 |      906 |       0.04 | *
    |      150 |        - |      903 |      903 |       0.04 | *
    |      154 |        - |      900 |      900 |       0.04 | *
    |      161 |        - |      897 |      897 |       0.04 | *
    |      163 |        - |      889 |      889 |       0.04 | *
    |      170 |        - |      888 |      888 |       0.04 | *
    |      172 |        - |      887 |      887 |       0.04 | *
    |      177 |        - |      886 |      886 |       0.04 | *
    |      178 |        - |      881 |      881 |       0.04 | *
    |      179 |        - |      876 |      876 |       0.04 | *
    |      195 |        - |      875 |      875 |       0.04 | *
    |      209 |        - |      871 |      871 |       0.04 | *
    |      217 |        - |      870 |      870 |       0.04 | *
    |      227 |        - |      866 |      866 |       0.04 | *
    |      245 |        - |      864 |      864 |       0.04 | *
    |      252 |        - |      863 |      863 |       0.04 | *
    |      258 |        - |      852 |      852 |       0.04 | *
    |      269 |        - |      837 |      837 |       0.04 | *
    |      276 |        - |      834 |      834 |       0.04 | *
    |      287 |        - |      824 |      824 |       0.04 | *
    |      289 |        - |      814 |      814 |       0.04 | *
    |      295 |        - |      812 |      812 |       0.04 | *
    |      297 |        - |      809 |      809 |       0.04 | *
    |      298 |        - |      794 |      794 |       0.04 | *
    |      311 |        - |      793 |      793 |       0.04 | *
    |      320 |        - |      792 |      792 |       0.04 | *
    |      330 |        - |      779 |      779 |       0.05 | *
    |      333 |        - |      770 |      770 |       0.05 | *
    |      337 |        - |      763 |      763 |       0.05 | *
    |      347 |        - |      761 |      761 |       0.05 | *
    |      349 |        - |      760 |      760 |       0.05 | *
    |      351 |        - |      757 |      757 |       0.05 | *
    |      359 |        - |      754 |      754 |       0.05 | *
    |      369 |        - |      747 |      747 |       0.05 | *
    |      370 |        - |      746 |      746 |       0.05 | *
    |      373 |        - |      743 |      743 |       0.05 | *
    |      377 |        - |      738 |      738 |       0.05 | *
    |      387 |        - |      737 |      737 |       0.05 | *
    |      400 |        - |      736 |      736 |       0.05 | *
    |      407 |        - |      734 |      734 |       0.05 | *
    |      408 |        - |      728 |      728 |       0.05 | *
    |      410 |        - |      727 |      727 |       0.05 | *
    |      411 |        - |      724 |      724 |       0.05 | *
    |      416 |        - |      722 |      722 |       0.05 | *
    |      421 |        - |      721 |      721 |       0.05 | *
    |      444 |        - |      719 |      719 |       0.05 | *
    |      453 |        - |      717 |      717 |       0.05 | *
    |      468 |        - |      716 |      716 |       0.05 | *
    |      485 |        - |      712 |      712 |       0.05 | *
    |      494 |        - |      710 |      710 |       0.05 | *
    |      534 |        - |      705 |      705 |       0.05 | *
    |      535 |        - |      703 |      703 |       0.05 | *
    |      540 |        - |      700 |      700 |       0.05 | *
    |      542 |        - |      699 |      699 |       0.05 | *
    |      584 |        - |      690 |      690 |       0.05 | *
    |      590 |        - |      685 |      685 |       0.05 | *
    |      592 |        - |      683 |      683 |       0.05 | *
    |      594 |        - |      678 |      678 |       0.05 | *
    |      611 |        - |      675 |      675 |       0.05 | *
    |      614 |        - |      667 |      667 |       0.05 | *
    |      616 |        - |      664 |      664 |       0.05 | *
    |      625 |        - |      663 |      663 |       0.05 | *
    |      660 |        - |      661 |      661 |       0.05 | *
    |      663 |        - |      657 |      657 |       0.05 | *
    |      665 |        - |      656 |      656 |       0.06 | *
    |      677 |        - |      653 |      653 |       0.06 | *
    |      721 |        - |      649 |      649 |       0.06 | *
    |      727 |        - |      646 |      646 |       0.06 | *
    |      729 |        - |      643 |      643 |       0.06 | *
    |      737 |        - |      641 |      641 |       0.06 | *
    |      752 |        - |      640 |      640 |       0.06 | *
    |      774 |        - |      639 |      639 |       0.06 | *
    |      783 |        - |      638 |      638 |       0.06 | *
    |      794 |        - |      635 |      635 |       0.06 | *
    |      803 |        - |      632 |      632 |       0.06 | *
    |      805 |        - |      629 |      629 |       0.06 | *
    |      810 |        - |      627 |      627 |       0.06 | *
    |      864 |        - |      624 |      624 |       0.06 | *
    |      873 |        - |      623 |      623 |       0.06 | *
    |      882 |        - |      622 |      622 |       0.06 | *
    |      884 |        - |      617 |      617 |       0.06 | *
    |      895 |        - |      615 |      615 |       0.06 | *
    |      902 |        - |      609 |      609 |       0.06 | *
    |      915 |        - |      605 |      605 |       0.06 | *
    |      919 |        - |      597 |      597 |       0.06 | *
    |      934 |        - |      596 |      596 |       0.06 | *
    |      961 |        - |      594 |      594 |       0.06 | *
    |      962 |        - |      591 |      591 |       0.06 | *
    |      975 |        - |      587 |      587 |       0.06 | *
    |      978 |        - |      585 |      585 |       0.06 | *
    |      994 |        - |      583 |      583 |       0.06 | *
    |     1015 |        - |      581 |      581 |       0.06 | *
    |     1050 |        - |      579 |      579 |       0.06 | *
    |     1097 |        - |      577 |      577 |       0.06 | *
    |     1116 |        - |      575 |      575 |       0.06 | *
    |     1144 |        - |      573 |      573 |       0.06 | *
    |     1145 |        - |      572 |      572 |       0.06 | *
    |     1171 |        - |      571 |      571 |       0.06 | *
    |     1203 |        - |      570 |      570 |       0.06 | *
    |     1217 |        - |      566 |      566 |       0.06 | *
    |     1244 |        - |      563 |      563 |       0.06 | *
    |     1267 |        - |      559 |      559 |       0.07 | *
    |     1281 |        - |      555 |      555 |       0.07 | *
    |     1300 |        - |      554 |      554 |       0.07 | *
    |     1301 |        - |      553 |      553 |       0.07 | *
    |     1323 |        - |      551 |      551 |       0.07 | *
    |     1327 |        - |      547 |      547 |       0.07 | *
    |     1334 |        - |      545 |      545 |       0.07 | *
    |     1380 |        - |      541 |      541 |       0.07 | *
    |     1391 |        - |      539 |      539 |       0.07 | *
    |     1404 |        - |      538 |      538 |       0.07 | *
    |     1424 |        - |      537 |      537 |       0.07 | *
    |     1426 |        - |      535 |      535 |       0.07 | *
    |     1450 |        - |      534 |      534 |       0.07 | *
    |     1496 |        - |      532 |      532 |       0.07 | *
    |     1528 |        - |      529 |      529 |       0.07 | *
    |     1529 |        - |      527 |      527 |       0.07 | *
    |     1534 |        - |      526 |      526 |       0.07 | *
    |     1567 |        - |      524 |      524 |       0.07 | *
    |     1593 |        - |      523 |      523 |       0.07 | *
    |     1618 |        - |      522 |      522 |       0.07 | *
    |     1635 |        - |      521 |      521 |       0.07 | *
    |     1672 |        - |      519 |      519 |       0.07 | *
    |     1689 |        - |      518 |      518 |       0.07 | *
    |     1734 |        - |      516 |      516 |       0.07 | *
    |     1775 |        - |      514 |      514 |       0.07 | *
    |     1783 |        - |      513 |      513 |       0.07 | *
    |     1815 |        - |      512 |      512 |       0.07 | *
    |     1831 |        - |      511 |      511 |       0.07 | *
    |     1845 |        - |      509 |      509 |       0.07 | *
    |     1882 |        - |      508 |      508 |       0.07 | *
    |     1883 |        - |      506 |      506 |       0.07 | *
    |     1891 |        - |      505 |      505 |       0.07 | *
    |     1894 |        - |      503 |      503 |       0.07 | *
    |     1913 |        - |      502 |      502 |       0.07 | *
    |     1930 |        - |      501 |      501 |       0.07 | *
    |     1933 |        - |      500 |      500 |       0.07 | *
    |     2001 |        - |      498 |      498 |       0.07 | *
    |     2006 |        - |      497 |      497 |       0.07 | *
    |     2076 |        - |      496 |      496 |       0.07 | *
    |     2083 |        - |      495 |      495 |       0.07 | *
    |     2090 |        - |      494 |      494 |       0.08 | *
    |     2094 |        - |      490 |      490 |       0.08 | *
    |     2105 |        - |      489 |      489 |       0.08 | *
    |     2120 |        - |      488 |      488 |       0.08 | *
    |     2151 |        - |      485 |      485 |       0.08 | *
    |     2169 |        - |      483 |      483 |       0.08 | *
    |     2173 |        - |      482 |      482 |       0.08 | *
    |     2174 |        - |      481 |      481 |       0.08 | *
    |     2179 |        - |      480 |      480 |       0.08 | *
    |     2188 |        - |      479 |      479 |       0.08 | *
    |     2200 |        - |      478 |      478 |       0.08 | *
    |     2216 |        - |      477 |      477 |       0.08 | *
    |     2233 |        - |      476 |      476 |       0.08 | *
    |     2257 |        - |      473 |      473 |       0.08 | *
    |     2263 |        - |      471 |      471 |       0.08 | *
    |     2264 |        - |      469 |      469 |       0.08 | *
    |     2273 |        - |      468 |      468 |       0.08 | *
    |     2284 |        - |      466 |      466 |       0.08 | *
    |     2285 |        - |      465 |      465 |       0.08 | *
    |     2290 |        - |      458 |      458 |       0.08 | *
    |     2301 |        - |      456 |      456 |       0.08 | *
    |     2312 |        - |      455 |      455 |       0.08 | *
    |     2334 |        - |      452 |      452 |       0.08 | *
    |     2338 |        - |      451 |      451 |       0.08 | *
    |     2343 |        - |      449 |      449 |       0.08 | *
    |     2349 |        - |      448 |      448 |       0.08 | *
    |     2351 |        - |      447 |      447 |       0.08 | *
    |     2366 |        - |      446 |      446 |       0.08 | *
    |     2390 |        - |      445 |      445 |       0.08 | *
    |     2400 |        - |      444 |      444 |       0.08 | *
    |     2448 |        - |      441 |      441 |       0.08 | *
    |     2467 |        - |      435 |      435 |       0.08 | *
    |     2491 |        - |      434 |      434 |       0.08 | *
    |     2492 |        - |      432 |      432 |       0.08 | *
    |     2505 |        - |      431 |      431 |       0.08 | *
    |     2538 |        - |      430 |      430 |       0.08 | *
    |     2545 |        - |      429 |      429 |       0.08 | *
    |     2578 |        - |      428 |      428 |       0.08 | *
    |     2591 |        - |      426 |      426 |       0.08 | *
    |     2597 |        - |      425 |      425 |       0.08 | *
    |     2621 |        - |      422 |      422 |       0.08 | *
    |     2690 |        - |      421 |      421 |       0.09 | *
    |     2712 |        - |      420 |      420 |       0.09 | *
    |     2734 |        - |      419 |      419 |       0.09 | *
    |     2741 |        - |      418 |      418 |       0.09 | *
    |     2784 |        - |      417 |      417 |       0.09 | *
    |     2810 |        - |      416 |      416 |       0.09 | *
    |     2824 |        - |      415 |      415 |       0.09 | *
    |     2849 |        - |      413 |      413 |       0.09 | *
    |     2858 |        - |      409 |      409 |       0.09 | *
    |     2876 |        - |      408 |      408 |       0.09 | *
    |     2878 |        - |      407 |      407 |       0.09 | *
    |     2926 |        - |      406 |      406 |       0.09 | *
    |     2938 |        - |      405 |      405 |       0.09 | *
    |     2953 |        - |      404 |      404 |       0.09 | *
    |     3082 |        - |      403 |      403 |       0.09 | *
    |     3090 |        - |      402 |      402 |       0.09 | *
    |     3106 |        - |      401 |      401 |       0.09 | *
    |     3149 |        - |      400 |      400 |       0.09 | *
    |     3195 |        - |      399 |      399 |       0.09 | *
    |     3254 |        - |      397 |      397 |       0.09 | *
    |     3328 |        - |      394 |      394 |       0.09 | *
    |     3433 |        - |      393 |      393 |       0.09 | *
    |     3477 |        - |      392 |      392 |       0.09 | *
    |     3487 |        - |      391 |      391 |       0.09 | *
    |     3543 |        - |      390 |      390 |       0.09 | *
    |     3567 |        - |      389 |      389 |       0.09 | *
    |     3574 |        - |      388 |      388 |       0.09 | *
    |     3643 |        - |      387 |      387 |       0.09 | *
    |     3654 |        - |      386 |      386 |       0.09 | *
    |     3864 |        - |      385 |      385 |       0.09 | *
    |     3869 |        - |      384 |      384 |       0.09 | *
    |     3883 |        - |      382 |      382 |       0.09 | *
    |     3947 |        - |      380 |      380 |       0.09 | *
    |     3988 |        - |      379 |      379 |       0.10 | *
    |     4046 |        - |      378 |      378 |       0.10 | *
    |     4097 |        - |      376 |      376 |       0.10 | *
    |     4111 |        - |      375 |      375 |       0.10 | *
    |     4181 |        - |      373 |      373 |       0.10 | *
    |     4193 |        - |      372 |      372 |       0.10 | *
    |     4268 |        - |      371 |      371 |       0.10 | *
    |     4346 |        - |      370 |      370 |       0.10 | *
    |     4483 |        - |      369 |      369 |       0.10 | *
    |     4496 |        - |      368 |      368 |       0.10 | *
    |     4500 |        - |      367 |      367 |       0.10 | *
    |     4621 |        - |      363 |      363 |       0.10 | *
    |     4641 |        - |      362 |      362 |       0.10 | *
    |     4643 |        - |      361 |      361 |       0.10 | *
    |     4656 |        - |      360 |      360 |       0.10 | *
    |     4723 |        - |      359 |      359 |       0.10 | *
    |     4731 |        - |      357 |      357 |       0.10 | *
    |     4947 |        - |      355 |      355 |       0.10 | *
    |     4959 |        - |      353 |      353 |       0.10 | *
    |     4964 |        - |      350 |      350 |       0.10 | *
    |     4968 |        - |      348 |      348 |       0.10 | *
    |     4994 |        - |      347 |      347 |       0.10 | *
    |     5086 |        - |      345 |      345 |       0.10 | *
    |     5106 |        - |      343 |      343 |       0.10 | *
    |     5139 |        - |      342 |      342 |       0.10 | *
    |     5148 |        - |      340 |      340 |       0.10 | *
    |     5176 |        - |      338 |      338 |       0.10 | *
    |     5503 |        - |      337 |      337 |       0.10 | *
    |     5512 |        - |      336 |      336 |       0.10 | *
    |     5537 |        - |      335 |      335 |       0.11 | *
    |     5549 |        - |      334 |      334 |       0.11 | *
    |     5759 |        - |      333 |      333 |       0.11 | *
    |     6035 |        - |      332 |      332 |       0.11 | *
    |     6106 |        - |      331 |      331 |       0.11 | *
    |     6386 |        - |      330 |      330 |       0.11 | *
    |     6816 |        - |      328 |      328 |       0.11 | *
    |     6870 |        - |      327 |      327 |       0.11 | *
    |     6916 |        - |      326 |      326 |       0.11 | *
    |     7005 |        - |      325 |      325 |       0.11 | *
    |     7066 |        - |      324 |      324 |       0.11 | *
    |     7175 |        - |      322 |      322 |       0.11 | *
    |     7247 |        - |      321 |      321 |       0.11 | *
    |     7719 |        - |      320 |      320 |       0.11 | *
    |     7824 |        - |      319 |      319 |       0.11 | *
    |     7874 |        - |      318 |      318 |       0.11 | *
    |     7936 |        - |      317 |      317 |       0.11 | *
    |     7971 |        - |      316 |      316 |       0.11 | *
    |     7972 |        - |      315 |      315 |       0.11 | *
    |     8139 |        - |      314 |      314 |       0.11 | *
    |     8147 |        - |      312 |      312 |       0.11 | *
    |     8191 |        - |      311 |      311 |       0.12 | *
    |     8611 |        - |      310 |      310 |       0.12 | *
    |     8670 |        - |      309 |      309 |       0.12 | *
    |     8953 |        - |      308 |      308 |       0.12 | *
    |     8967 |        - |      306 |      306 |       0.12 | *
    |     9017 |        - |      305 |      305 |       0.12 | *
    |     9576 |        - |      304 |      304 |       0.12 | *
    |     9627 |        - |      303 |      303 |       0.12 | *
    |      10K |        - |      302 |      302 |       0.12 | *
    |      11K |        - |      301 |      301 |       0.12 | *
    |      11K |        - |      300 |      300 |       0.12 | *
    |      11K |        - |      298 |      298 |       0.12 | *
    |      11K |        - |      297 |      297 |       0.12 | *
    |      11K |        - |      296 |      296 |       0.12 | *
    |      11K |        - |      295 |      295 |       0.12 | *
    |      12K |        - |      294 |      294 |       0.12 | *
    |      12K |        - |      292 |      292 |       0.13 | *
    |      12K |        - |      289 |      289 |       0.13 | *
    |      12K |        - |      288 |      288 |       0.13 | *
    |      12K |        - |      287 |      287 |       0.13 | *
    |      13K |        - |      285 |      285 |       0.13 | *
    |      13K |        - |      284 |      284 |       0.13 | *
    |      13K |        - |      283 |      283 |       0.13 | *
    |      13K |        - |      282 |      282 |       0.13 | *
    |      13K |        - |      281 |      281 |       0.13 | *
    |      13K |        - |      280 |      280 |       0.13 | *
    |      13K |        - |      279 |      279 |       0.13 | *
    |      13K |        - |      278 |      278 |       0.13 | *
    |      14K |        - |      277 |      277 |       0.13 | *
    |      14K |        - |      276 |      276 |       0.13 | *
    |      14K |        - |      275 |      275 |       0.13 | *
    |      14K |        - |      274 |      274 |       0.13 | *
    |      14K |        - |      273 |      273 |       0.13 | *
    |      14K |        - |      272 |      272 |       0.13 | *
    |      14K |        - |      271 |      271 |       0.13 | *
    |      14K |        - |      270 |      270 |       0.13 | *
    |      14K |        - |      269 |      269 |       0.14 | *
    |      14K |        - |      268 |      268 |       0.14 | *
    |      15K |        - |      266 |      266 |       0.14 | *
    |      15K |        - |      265 |      265 |       0.14 | *
    |      15K |        - |      264 |      264 |       0.14 | *
    |      15K |        - |      263 |      263 |       0.14 | *
    |      16K |        - |      262 |      262 |       0.14 | *
    |      16K |        - |      261 |      261 |       0.14 | *
    |      16K |        - |      260 |      260 |       0.14 | *
    |      16K |        - |      259 |      259 |       0.14 | *
    |      16K |        - |      258 |      258 |       0.14 | *
    |      17K |        - |      257 |      257 |       0.14 | *
    |      18K |        - |      256 |      256 |       0.14 | *
    |      18K |        - |      255 |      255 |       0.14 | *
    |      18K |        - |      254 |      254 |       0.14 | *
    |      19K |        - |      253 |      253 |       0.15 | *
    |      19K |        - |      251 |      251 |       0.15 | *
    |      19K |        - |      250 |      250 |       0.15 | *
    |      19K |        - |      249 |      249 |       0.15 | *
    |      20K |        - |      248 |      248 |       0.15 | *
    |      20K |        - |      247 |      247 |       0.15 | *
    |      20K |        - |      246 |      246 |       0.15 | *
    |      20K |        - |      245 |      245 |       0.15 | *
    |      20K |        - |      243 |      243 |       0.15 | *
    |      20K |        - |      242 |      242 |       0.15 | *
    |      20K |        - |      241 |      241 |       0.15 | *
    |      22K |        - |      240 |      240 |       0.15 | *
    |      22K |        - |      239 |      239 |       0.16 | *
    |      23K |        - |      238 |      238 |       0.16 | *
    |      23K |        - |      237 |      237 |       0.16 | *
    |      23K |        - |      236 |      236 |       0.16 | *
    |      23K |        - |      235 |      235 |       0.16 | *
    |      24K |        - |      234 |      234 |       0.16 | *
    |      24K |        - |      233 |      233 |       0.16 | *
    |      24K |        - |      232 |      232 |       0.16 | *
    |      24K |        - |      231 |      231 |       0.16 | *
    |      24K |        - |      230 |      230 |       0.16 | *
    |      24K |        - |      228 |      228 |       0.16 | *
    |      25K |        - |      227 |      227 |       0.16 | *
    |      27K |        - |      226 |      226 |       0.17 | *
    |      27K |        - |      225 |      225 |       0.17 | *
    |      27K |        - |      223 |      223 |       0.17 | *
    |      28K |        - |      222 |      222 |       0.17 | *
    |      28K |        - |      221 |      221 |       0.17 | *
    |      28K |        - |      220 |      220 |       0.17 | *
    |      28K |        - |      219 |      219 |       0.17 | *
    |      30K |        - |      218 |      218 |       0.18 | *
    |      32K |        - |      217 |      217 |       0.18 | *
    |      33K |        - |      216 |      216 |       0.18 | *
    |      33K |        - |      214 |      214 |       0.18 | *
    |      34K |        - |      213 |      213 |       0.18 | *
    |      35K |        - |      212 |      212 |       0.18 | *
    |      44K |        - |      211 |      211 |       0.20 | *
    |      45K |        - |      210 |      210 |       0.20 | *
    |      45K |        - |      209 |      209 |       0.20 | *
    |      47K |        - |      208 |      208 |       0.21 | *
    |      53K |        - |      207 |      207 |       0.22 | *
    |      54K |        - |      206 |      206 |       0.22 | *
    |      55K |        - |      205 |      205 |       0.22 | *
    |      55K |        - |      204 |      204 |       0.22 | *
    |      56K |        - |      203 |      203 |       0.22 | *
    |      72K |        - |      202 |      202 |       0.25 | *
    |      73K |        - |      201 |      201 |       0.25 | *
    |      73K |        - |      200 |      200 |       0.25 | *
    |      73K |        - |      199 |      199 |       0.25 | *
    |      73K |        - |      198 |      198 |       0.25 | *
    |      76K |        - |      197 |      197 |       0.26 | *
    |      80K |        - |      195 |      195 |       0.27 | *
    |      87K |        - |      194 |      194 |       0.28 | *
    |      90K |        - |      193 |      193 |       0.28 | *
    |      93K |        - |      192 |      192 |       0.29 | *
    |      94K |        - |      191 |      191 |       0.29 | *
    |      98K |        - |      189 |      189 |       0.30 | *
    |     104K |        - |      188 |      188 |       0.32 | *
    |     106K |        - |      187 |      187 |       0.32 | *
    |     107K |        - |      186 |      186 |       0.32 | *
    |     107K |        - |      185 |      185 |       0.32 | *
    |     110K |        - |      184 |      184 |       0.33 | *
    |     117K |        - |      183 |      183 |       0.34 | *
    |     124K |        - |      182 |      182 |       0.35 | *
    |     143K |        - |      181 |      181 |       0.38 | *
    |     145K |        - |      180 |      180 |       0.38 | *
    |     145K |        - |      179 |      179 |       0.38 | *
    |     155K |        - |      178 |      178 |       0.40 | *
    |     166K |        - |      177 |      177 |       0.42 | *
    |     169K |        - |      176 |      176 |       0.42 | *
    |     245K |        - |      175 |      175 |       0.54 | *
    |     245K |        - |      174 |      174 |       0.54 | *
    |     255K |        - |      173 |      173 |       0.56 | *
    |     255K |        - |      172 |      172 |       0.56 | *
    |     256K |        - |      171 |      171 |       0.56 | *
    |     257K |        - |      170 |      170 |       0.56 | *
    |     261K |        - |      169 |      169 |       0.57 | *
    |     263K |        - |      168 |      168 |       0.58 | *
    |     274K |        - |      167 |      167 |       0.60 | *
    |     283K |        - |      166 |      166 |       0.62 | *
    |     291K |        - |      165 |      165 |       0.63 | *
    |     298K |        - |      164 |      164 |       0.64 | *
    |     320K |        - |      163 |      163 |       0.67 | *
    |     320K |        - |      162 |      162 |       0.67 | *
    |     323K |        - |      161 |      161 |       0.68 | *
    |     325K |        - |      160 |      160 |       0.68 | *
    |     388K |        - |      159 |      159 |       0.79 | *
    |     394K |        - |      158 |      158 |       0.80 | *
    |     469K |        - |      157 |      157 |       0.91 | *
    |     514K |        - |      156 |      156 |       0.98 | *
    |     516K |        - |      155 |      155 |       0.98 | *
    |     518K |        - |      154 |      154 |       0.98 | *
    |    1174K |        - |      153 |      153 |       2.00 | *
    |    1177K |        - |      152 |      152 |       2.01 | *
    |    1180K |        - |      151 |      151 |       2.01 | *
    |    1227K |        - |      150 |      150 |       2.08 | *
    |    1231K |        - |      149 |      149 |       2.08 | *
    |    1236K |        - |      148 |      148 |       2.09 | *
    |    1770K |        - |      147 |      147 |       2.91 | *
    |    1770K |        - |      146 |      146 |       2.91 | *
    |    1785K |        - |      145 |      145 |       2.93 | *
    |    1885K |        - |      144 |      144 |       3.10 | *
    |    1885K |        - |      143 |      143 |       3.10 | *
    |    1891K |        - |      142 |      142 |       3.11 | *
    |    4381K |        - |      141 |      141 |       6.90 | *
    |    4703K |        - |      140 |      140 |       7.36 | *
    |    5028K |        - |      139 |      139 |       7.82 | *
    |    5519K |        - |      138 |      138 |       8.48 | *
    |    7219K |        - |      137 |      137 |      11.01 | *
    |    7221K |        - |      136 |      136 |      11.02 | *
    |    7285K |        - |      135 |      135 |      11.10 | *
    |      56M |        - |      134 |      134 |      79.57 | *
    |      95M |        - |      133 |      133 |     135.58 | *
    |     102M |        - |      132 |      132 |     145.78 | *
    |     150M |        - |      131 |      131 |     215.15 | *
    |     162M |        - |      130 |      130 |     232.04 | *
    |     196M |        - |      129 |      129 |     279.91 | *
    \--------------------------------------------------------/

Neighborhoods statistics (values in %):

    /----------------------------------------------------------------\
    | Move               | Improvs. | Sideways |  Accepts |  Rejects |
    |--------------------|----------|----------|----------|----------|
    | Shift(mk)          |      18K |      25K |      50K |      10M |
    | Shift              |      873 |     207K |     223K |      10M |
    | ShiftSmart(mk)     |     178K |     243K |     489K |      10M |
    | ShiftSmart         |     8806 |    1504K |    1610K |    8877K |
    | SimpSwap(mk)       |      104 |      164 |      315 |      10M |
    | SimpSwap           |        9 |      643 |      748 |      10M |
    | SimpSwapSmart(mk)  |      853 |     1561 |     2899 |      10M |
    | SimpSwapSmart      |       97 |     6503 |     7583 |      10M |
    | Swap(mk)           |       30 |       26 |       67 |      10M |
    | Swap               |        2 |      148 |      172 |      10M |
    | SwapSmart(mk)      |      902 |     1716 |     3060 |      10M |
    | SwapSmart          |      118 |     5816 |     6792 |      10M |
    | Switch(mk)         |     6092 |     830K |     838K |    9651K |
    | Switch             |      341 |     937K |     942K |    9556K |
    | SwitchSmart(mk)    |      56K |      65K |     139K |      10M |
    | SwitchSmart        |     2755 |     517K |     557K |    9935K |
    | TaskMove(mk)       |     1059 |     1960 |     3533 |      10M |
    | TaskMove           |       57 |     3927 |     4609 |      10M |
    | TaskMoveSmart(mk)  |      10K |      18K |      34K |      10M |
    | TaskMoveSmart      |      555 |      38K |      45K |      10M |
    | 2-Shift(mk)        |     4409 |      79K |      85K |      10M |
    | 2-Shift            |      207 |     135K |     139K |      10M |
    | 2-ShiftSmart(mk)   |      61K |     199K |     274K |      10M |
    | 2-ShiftSmart       |     3084 |     650K |     685K |    9809K |
    \----------------------------------------------------------------/

Best makespan.....: 129
N. of Iterations..: 251849473
Total runtime.....: 360.01s
Academic license - for non-commercial use only
Academic license - for non-commercial use only
Academic license - for non-commercial use only
Academic license - for non-commercial use only
Academic license - for non-commercial use only
Academic license - for non-commercial use only
Academic license - for non-commercial use only
Academic license - for non-commercial use only
Academic license - for non-commercial use only
Academic license - for non-commercial use only
Academic license - for non-commercial use only
Academic license - for non-commercial use only
Academic license - for non-commercial use only
Academic license - for non-commercial use only
Academic license - for non-commercial use only
Academic license - for non-commercial use only
Academic license - for non-commercial use only
Academic license - for non-commercial use only
Academic license - for non-commercial use only
Academic license - for non-commercial use only
Academic license - for non-commercial use only
Academic license - for non-commercial use only
Academic license - for non-commercial use only
Academic license - for non-commercial use only
Academic license - for non-commercial use only
Academic license - for non-commercial use only
Academic license - for non-commercial use only
Academic license - for non-commercial use only
Academic license - for non-commercial use only
Academic license - for non-commercial use only
Academic license - for non-commercial use only
Academic license - for non-commercial use only
Academic license - for non-commercial use only
Academic license - for non-commercial use only
Academic license - for non-commercial use only
Academic license - for non-commercial use only
Academic license - for non-commercial use only
Academic license - for non-commercial use only
Academic license - for non-commercial use only
Academic license - for non-commercial use only
Academic license - for non-commercial use only
Academic license - for non-commercial use only
Academic license - for non-commercial use only
Academic license - for non-commercial use only
Academic license - for non-commercial use only
Academic license - for non-commercial use only
Academic license - for non-commercial use only
Academic license - for non-commercial use only
Academic license - for non-commercial use only
Academic license - for non-commercial use only
Academic license - for non-commercial use only
Academic license - for non-commercial use only
Academic license - for non-commercial use only
Academic license - for non-commercial use only
Academic license - for non-commercial use only
Academic license - for non-commercial use only
Academic license - for non-commercial use only
Academic license - for non-commercial use only
Academic license - for non-commercial use only
Academic license - for non-commercial use only
Academic license - for non-commercial use only
Academic license - for non-commercial use only
Academic license - for non-commercial use only
Academic license - for non-commercial use only
Academic license - for non-commercial use only
Academic license - for non-commercial use only
Academic license - for non-commercial use only
Academic license - for non-commercial use only
Academic license - for non-commercial use only
Academic license - for non-commercial use only
Academic license - for non-commercial use only
Academic license - for non-commercial use only
Academic license - for non-commercial use only
Academic license - for non-commercial use only
Academic license - for non-commercial use only
Academic license - for non-commercial use only
Academic license - for non-commercial use only
Academic license - for non-commercial use only
Academic license - for non-commercial use only
Academic license - for non-commercial use only
Academic license - for non-commercial use only
Academic license - for non-commercial use only
Academic license - for non-commercial use only
Academic license - for non-commercial use only
Academic license - for non-commercial use only
Academic license - for non-commercial use only
Academic license - for non-commercial use only
Academic license - for non-commercial use only
Academic license - for non-commercial use only
Academic license - for non-commercial use only
Academic license - for non-commercial use only
Academic license - for non-commercial use only
    /-------------------------------------------------------------------------------\
    |    Makespam   |   Free Jobs   | Free Machines |    It. Time   |   Total Time  | 
    |-------------------------------------------------------------------------------|
    |           129 |            33 |             3 |          0.14 |          0.70 | 
    |           129 |            39 |             3 |          0.18 |          1.01 | 
    |           129 |            46 |             5 |          7.70 |          8.96 | 
    |           129 |            55 |             5 |         12.03 |         21.18 | 
    |           129 |            66 |             6 |          6.46 |         27.92 | 
    |           129 |            79 |             8 |         22.01 |         50.43 | 
    |           129 |            63 |             6 |         22.02 |         72.69 | 
    |           129 |            50 |             5 |          8.08 |         80.92 | 
    |           129 |            60 |             6 |          4.79 |         86.06 | 
    |           128 |            72 |             6 |          5.51 |         91.81 | 
    |           128 |            72 |             5 |         22.05 |        114.06 | 
    |           128 |            57 |             5 |         17.07 |        131.35 | 
    |           127 |            68 |             5 |          3.08 |        134.71 | 
    |           126 |            68 |             7 |         22.01 |        157.06 | 
    |           126 |            68 |             7 |         22.01 |        179.46 | 
    |           126 |            54 |             5 |         12.83 |        192.39 | 
    |           125 |            64 |             6 |         22.02 |        214.74 | 
    |           123 |            64 |             5 |          7.73 |        222.64 | 
    |           123 |            64 |             5 |          3.56 |        226.35 | 
    |           123 |            76 |             6 |          7.76 |        234.45 | 
    |           123 |            91 |             7 |          7.32 |        242.32 | 
    |           123 |           109 |             9 |         22.02 |        265.38 | 
    |           123 |            87 |             7 |         22.01 |        287.87 | 
    |           123 |            69 |             6 |         22.01 |        310.18 | 
    |           123 |            55 |             4 |          1.04 |        311.34 | 
    |           123 |            66 |             6 |         22.01 |        333.84 | 
    |           123 |            52 |             5 |         12.66 |        346.64 | 
    |           123 |            62 |             5 |         22.01 |        368.84 | 
    |           123 |            49 |             5 |          3.62 |        372.63 | 
    |           123 |            58 |             5 |          4.40 |        377.25 | 
    |           123 |            69 |             6 |         22.01 |        399.54 | 
    |           123 |            55 |             5 |          2.15 |        401.83 | 
    |           123 |            66 |             6 |         22.00 |        424.07 | 
    |           123 |            52 |             5 |          2.36 |        426.55 | 
    |           122 |            62 |             5 |         22.00 |        448.79 | 
    |           122 |            62 |             5 |          3.22 |        452.21 | 
    |           122 |            74 |             6 |         22.01 |        474.58 | 
    |           122 |            59 |             5 |          7.90 |        482.63 | 
    |           122 |            70 |             6 |         22.01 |        505.05 | 
    |           122 |            56 |             5 |          1.96 |        507.17 | 
    |           122 |            67 |             6 |         22.01 |        529.48 | 
    |           122 |            53 |             4 |          2.27 |        531.87 | 
    |           122 |            63 |             5 |          2.40 |        534.46 | 
    |           122 |            75 |             6 |         18.47 |        553.37 | 
    |           121 |            90 |             8 |         22.02 |        575.91 | 
    |           121 |            90 |             8 |         22.01 |        598.54 | 
    |           121 |            72 |             7 |         22.02 |        620.89 | 
    |           121 |            57 |             5 |         22.01 |        643.01 | 
    |           121 |            45 |             4 |          0.32 |        643.48 | 
    |           121 |            54 |             5 |         22.01 |        665.85 | 
    |           121 |            43 |             4 |          1.70 |        667.62 | 
    |           121 |            51 |             5 |          2.85 |        670.62 | 
    |           121 |            61 |             6 |         22.01 |        692.88 | 
    |           121 |            48 |             5 |         16.12 |        709.19 | 
    |           121 |            57 |             5 |          3.40 |        712.76 | 
    |           121 |            68 |             6 |          2.06 |        715.09 | 
    |           121 |            81 |             8 |         22.01 |        737.64 | 
    |           121 |            64 |             6 |         22.03 |        759.91 | 
    |           121 |            51 |             5 |         15.01 |        775.04 | 
    |           121 |            61 |             6 |         22.01 |        797.36 | 
    |           121 |            48 |             5 |         18.80 |        816.37 | 
    |           121 |            57 |             5 |          4.72 |        821.21 | 
    |           121 |            68 |             6 |         22.06 |        843.61 | 
    |           121 |            54 |             5 |          3.06 |        846.85 | 
    |           121 |            64 |             6 |          4.40 |        851.51 | 
    |           121 |            76 |             7 |         22.01 |        873.94 | 
    |           121 |            60 |             6 |         11.16 |        885.32 | 
    |           121 |            72 |             6 |         22.00 |        907.66 | 
    |           121 |            57 |             5 |          6.37 |        914.21 | 
    |           121 |            68 |             6 |         22.01 |        936.55 | 
    |           121 |            54 |             5 |          2.40 |        939.07 | 
    |           121 |            64 |             6 |         22.00 |        961.40 | 
    |           121 |            51 |             5 |          3.02 |        964.53 | 
    |           121 |            61 |             6 |          6.18 |        970.97 | 
    |           121 |            73 |             7 |         22.01 |        993.38 | 
    |           121 |            58 |             5 |          2.82 |        996.36 | 
    |           121 |            69 |             6 |         22.02 |       1018.66 | 
    |           121 |            55 |             5 |          1.77 |       1020.57 | 
    |           121 |            66 |             6 |         22.02 |       1042.85 | 
    |           121 |            52 |             5 |          3.33 |       1046.36 | 
    |           121 |            62 |             6 |         22.00 |       1068.58 | 
    |           121 |            49 |             5 |          2.40 |       1071.14 | 
    |           121 |            58 |             6 |         22.01 |       1093.37 | 
    |           121 |            46 |             4 |          0.42 |       1093.88 | 
    |           121 |            55 |             6 |         22.00 |       1116.13 | 
    |           121 |            44 |             5 |          5.20 |       1121.51 | 
    |           121 |            52 |             5 |          5.31 |       1126.98 | 
    |           121 |            62 |             6 |         22.00 |       1149.18 | 
    |           121 |            49 |             4 |          0.81 |       1150.12 | 
    |           121 |            58 |             5 |          2.99 |       1153.26 | 
    |           121 |            69 |             6 |         22.03 |       1175.59 | 
    |           121 |            55 |             5 |          2.48 |       1178.25 | Academic license - for non-commercial use only
Academic license - for non-commercial use only
Academic license - for non-commercial use only
Academic license - for non-commercial use only
Academic license - for non-commercial use only
Academic license - for non-commercial use only
Academic license - for non-commercial use only
Academic license - for non-commercial use only
Academic license - for non-commercial use only
Academic license - for non-commercial use only
Academic license - for non-commercial use only
Academic license - for non-commercial use only
Academic license - for non-commercial use only
Academic license - for non-commercial use only
Academic license - for non-commercial use only
Academic license - for non-commercial use only
Academic license - for non-commercial use only
Academic license - for non-commercial use only
Academic license - for non-commercial use only
Academic license - for non-commercial use only
Academic license - for non-commercial use only
Academic license - for non-commercial use only
Academic license - for non-commercial use only
Academic license - for non-commercial use only
Academic license - for non-commercial use only
Academic license - for non-commercial use only
Academic license - for non-commercial use only
Academic license - for non-commercial use only
Academic license - for non-commercial use only
Academic license - for non-commercial use only
Academic license - for non-commercial use only
Academic license - for non-commercial use only
Academic license - for non-commercial use only
Academic license - for non-commercial use only
Academic license - for non-commercial use only
Academic license - for non-commercial use only
Academic license - for non-commercial use only
Academic license - for non-commercial use only
Academic license - for non-commercial use only
Academic license - for non-commercial use only
Academic license - for non-commercial use only
Academic license - for non-commercial use only
Academic license - for non-commercial use only
Academic license - for non-commercial use only
Academic license - for non-commercial use only
Academic license - for non-commercial use only
Academic license - for non-commercial use only
Academic license - for non-commercial use only
Academic license - for non-commercial use only
Academic license - for non-commercial use only
Academic license - for non-commercial use only
Academic license - for non-commercial use only
Academic license - for non-commercial use only
Academic license - for non-commercial use only
Academic license - for non-commercial use only
Academic license - for non-commercial use only
Academic license - for non-commercial use only
Academic license - for non-commercial use only
Academic license - for non-commercial use only
Academic license - for non-commercial use only
Academic license - for non-commercial use only
Academic license - for non-commercial use only
Academic license - for non-commercial use only
Academic license - for non-commercial use only
Academic license - for non-commercial use only
Academic license - for non-commercial use only
Academic license - for non-commercial use only
Academic license - for non-commercial use only
Academic license - for non-commercial use only
Academic license - for non-commercial use only
Academic license - for non-commercial use only
Academic license - for non-commercial use only
Academic license - for non-commercial use only
Academic license - for non-commercial use only
Academic license - for non-commercial use only
Academic license - for non-commercial use only
Academic license - for non-commercial use only
Academic license - for non-commercial use only
Academic license - for non-commercial use only
Academic license - for non-commercial use only
Academic license - for non-commercial use only
Academic license - for non-commercial use only
Academic license - for non-commercial use only
Academic license - for non-commercial use only
Academic license - for non-commercial use only
Academic license - for non-commercial use only
Academic license - for non-commercial use only
Academic license - for non-commercial use only
Academic license - for non-commercial use only
Academic license - for non-commercial use only
Academic license - for non-commercial use only
Academic license - for non-commercial use only
Academic license - for non-commercial use only
Academic license - for non-commercial use only
Academic license - for non-commercial use only

    |           121 |            66 |             6 |          4.41 |       1182.89 | 
    |           121 |            79 |             7 |         22.01 |       1205.35 | 
    |           121 |            63 |             6 |         22.00 |       1227.56 | 
    |           121 |            50 |             4 |          0.73 |       1228.46 | 
    |           121 |            60 |             6 |         22.00 |       1250.84 | 
    |           121 |            48 |             5 |          2.15 |       1253.11 | 
    |           121 |            57 |             5 |          7.89 |       1261.13 | 
    |           121 |            68 |             7 |         22.01 |       1283.59 | 
    |           121 |            54 |             5 |          7.18 |       1290.95 | 
    |           121 |            64 |             6 |         22.00 |       1313.20 | 
    |           121 |            51 |             4 |          2.81 |       1316.12 | 
    |           121 |            61 |             6 |         22.00 |       1338.45 | 
    |           121 |            48 |             4 |          0.81 |       1339.33 | 
    |           121 |            57 |             5 |         17.64 |       1357.13 | 
    |           121 |            68 |             6 |          8.86 |       1366.30 | 
    |           121 |            81 |             7 |         22.03 |       1388.76 | 
    |           121 |            64 |             6 |         11.32 |       1400.40 | 
    |           121 |            76 |             7 |         22.01 |       1422.82 | 
    |           121 |            60 |             5 |         22.00 |       1445.17 | 
    |           121 |            48 |             4 |          3.69 |       1448.95 | 
    |           121 |            57 |             5 |          1.90 |       1451.03 | 
    |           121 |            68 |             6 |         22.01 |       1473.37 | 
    |           121 |            54 |             5 |          2.21 |       1475.74 | 
    |           121 |            64 |             6 |          6.44 |       1482.44 | 
    |           121 |            76 |             7 |         22.00 |       1505.11 | 
    |           121 |            60 |             5 |          2.72 |       1507.99 | 
    |           120 |            72 |             6 |          5.93 |       1514.21 | 
    |           120 |            72 |             6 |          8.11 |       1522.62 | 
    |           120 |            86 |             8 |         22.02 |       1545.25 | 
    |           120 |            68 |             6 |         22.03 |       1567.53 | 
    |           120 |            54 |             5 |          5.00 |       1572.70 | 
    |           120 |            64 |             5 |          5.54 |       1578.55 | 
    |           120 |            76 |             6 |         22.01 |       1600.90 | 
    |           120 |            60 |             5 |          1.06 |       1602.13 | 
    |           120 |            72 |             6 |          7.00 |       1609.55 | 
    |           120 |            86 |             8 |         22.11 |       1632.29 | 
    |           120 |            68 |             6 |         22.01 |       1654.63 | 
    |           120 |            54 |             5 |         10.20 |       1665.04 | 
    |           120 |            64 |             6 |          4.91 |       1670.24 | 
    |           119 |            76 |             6 |          6.39 |       1676.93 | 
    |           119 |            76 |             7 |         22.02 |       1699.38 | 
    |           119 |            60 |             5 |          1.74 |       1701.25 | 
    |           119 |            72 |             6 |         22.01 |       1723.55 | 
    |           119 |            57 |             5 |         13.20 |       1736.94 | 
    |           119 |            68 |             6 |         22.00 |       1759.21 | 
    |           119 |            54 |             5 |         17.18 |       1776.57 | 
    |           119 |            64 |             6 |         13.02 |       1789.90 | 
    |           119 |            76 |             6 |         10.29 |       1800.51 | 
    |           119 |            91 |             8 |         22.01 |       1823.12 | 
    |           119 |            72 |             6 |         22.03 |       1845.45 | 
    |           119 |            57 |             5 |          2.13 |       1847.71 | 
    |           119 |            68 |             6 |         22.02 |       1870.08 | 
    |           119 |            54 |             5 |          2.43 |       1872.66 | 
    |           119 |            64 |             5 |         22.00 |       1894.82 | 
    |           119 |            51 |             4 |          6.54 |       1901.46 | 
    |           119 |            61 |             5 |          2.94 |       1904.61 | 
    |           119 |            73 |             6 |         22.01 |       1926.89 | 
    |           119 |            58 |             5 |          3.07 |       1930.16 | 
    |           119 |            69 |             6 |          6.68 |       1937.11 | 
    |           119 |            82 |             7 |         22.04 |       1959.59 | 
    |           119 |            65 |             6 |         22.02 |       1981.92 | 
    |           119 |            52 |             5 |         13.33 |       1995.47 | 
    |           119 |            62 |             6 |          6.84 |       2002.66 | 
    |           119 |            74 |             6 |         22.00 |       2024.92 | 
    |           119 |            59 |             5 |          2.62 |       2027.72 | 
    |           119 |            70 |             6 |         22.02 |       2050.02 | 
    |           119 |            56 |             5 |          1.59 |       2051.80 | 
    |           119 |            67 |             5 |          3.89 |       2055.92 | 
    |           119 |            80 |             7 |         22.01 |       2078.46 | 
    |           119 |            64 |             6 |         22.00 |       2100.77 | 
    |           119 |            51 |             4 |          2.96 |       2103.82 | 
    |           119 |            61 |             6 |         22.00 |       2126.04 | 
    |           119 |            48 |             5 |          7.90 |       2134.15 | 
    |           119 |            57 |             5 |          1.70 |       2136.00 | 
    |           119 |            68 |             6 |         22.01 |       2158.26 | 
    |           119 |            54 |             5 |          1.11 |       2159.54 | 
    |           119 |            64 |             5 |         15.93 |       2175.64 | 
    |           119 |            76 |             6 |         22.00 |       2197.98 | 
    |           119 |            60 |             5 |          3.48 |       2201.62 | 
    |           119 |            72 |             6 |         22.08 |       2223.96 | 
    |           119 |            57 |             5 |          4.62 |       2228.76 | 
    |           119 |            68 |             6 |         22.01 |       2251.02 | 
    |           119 |            54 |             5 |          9.20 |       2260.35 | 
    |           119 |            64 |             6 |         22.04 |       2282.64 | 
    |           119 |            51 |             4 |          2.97 |       2285.75 | 
    |           119 |            61 |             5 |          3.28 |       2289.20 | 
    |           119 |            73 |             6 |          6.51 |       2295.98 | 
    |           119 |            87 |             7 |         16.84 |       2313.25 | 
    |           119 |           104 |             9 |         22.01 |       2336.16 | 
    |           118 |            83 |             8 |         22.01 |       2358.67 | 
    |           118 |            83 |             7 |         22.02 |       2381.19 | 
    |           118 |            66 |             6 |          5.47 |       2386.99 | 
    |           118 |            79 |             7 |         22.01 |       2409.65 | 
    |           118 |            63 |             6 |          1.74 |       2411.61 | 
    |           118 |            75 |             6 |         22.07 |       2434.10 | Academic license - for non-commercial use only
Academic license - for non-commercial use only
Academic license - for non-commercial use only
Academic license - for non-commercial use only
Academic license - for non-commercial use only
Academic license - for non-commercial use only
Academic license - for non-commercial use only
Academic license - for non-commercial use only
Academic license - for non-commercial use only
Academic license - for non-commercial use only
Academic license - for non-commercial use only
Academic license - for non-commercial use only
Academic license - for non-commercial use only
Academic license - for non-commercial use only
Academic license - for non-commercial use only
Academic license - for non-commercial use only
Academic license - for non-commercial use only
Academic license - for non-commercial use only
Academic license - for non-commercial use only
Academic license - for non-commercial use only
Academic license - for non-commercial use only
Academic license - for non-commercial use only
Academic license - for non-commercial use only
Academic license - for non-commercial use only
Academic license - for non-commercial use only
Academic license - for non-commercial use only
Academic license - for non-commercial use only
Academic license - for non-commercial use only
Academic license - for non-commercial use only
Academic license - for non-commercial use only
Academic license - for non-commercial use only
Academic license - for non-commercial use only
Academic license - for non-commercial use only
Academic license - for non-commercial use only
Academic license - for non-commercial use only
Academic license - for non-commercial use only
Academic license - for non-commercial use only
Academic license - for non-commercial use only
Academic license - for non-commercial use only
Academic license - for non-commercial use only
Academic license - for non-commercial use only
Academic license - for non-commercial use only
Academic license - for non-commercial use only
Academic license - for non-commercial use only
Academic license - for non-commercial use only
Academic license - for non-commercial use only
Academic license - for non-commercial use only
Academic license - for non-commercial use only
Academic license - for non-commercial use only
Academic license - for non-commercial use only
Academic license - for non-commercial use only
Academic license - for non-commercial use only
Academic license - for non-commercial use only
Academic license - for non-commercial use only
Academic license - for non-commercial use only
Academic license - for non-commercial use only
Academic license - for non-commercial use only

    |           118 |            60 |             5 |          8.28 |       2442.58 | 
    |           118 |            72 |             7 |         22.01 |       2465.10 | 
    |           118 |            57 |             5 |         22.00 |       2487.29 | 
    |           118 |            45 |             4 |          1.77 |       2489.13 | 
    |           118 |            54 |             4 |          2.26 |       2491.52 | 
    |           118 |            64 |             6 |          6.34 |       2498.23 | 
    |           118 |            76 |             6 |         22.01 |       2520.56 | 
    |           118 |            60 |             5 |         14.49 |       2535.21 | 
    |           118 |            72 |             6 |         22.01 |       2557.57 | 
    |           118 |            57 |             5 |         14.84 |       2572.55 | 
    |           118 |            68 |             6 |         22.00 |       2594.88 | 
    |           118 |            54 |             5 |          3.65 |       2598.68 | 
    |           118 |            64 |             5 |          4.24 |       2603.07 | 
    |           118 |            76 |             6 |         22.00 |       2625.48 | 
    |           118 |            60 |             5 |         21.00 |       2646.65 | 
    |           118 |            72 |             6 |         22.00 |       2668.95 | 
    |           118 |            57 |             5 |          3.35 |       2672.44 | 
    |           118 |            68 |             6 |          6.27 |       2679.08 | 
    |           118 |            81 |             7 |         22.01 |       2701.47 | 
    |           118 |            64 |             6 |         22.01 |       2723.73 | 
    |           118 |            51 |             5 |          9.73 |       2733.59 | 
    |           118 |            61 |             6 |         11.60 |       2745.49 | 
    |           118 |            73 |             6 |          6.61 |       2752.34 | 
    |           118 |            87 |             8 |         22.01 |       2774.89 | 
    |           118 |            69 |             7 |         22.01 |       2797.31 | 
    |           118 |            55 |             5 |         11.71 |       2809.18 | 
    |           118 |            66 |             6 |         22.00 |       2831.49 | 
    |           118 |            52 |             5 |         17.94 |       2849.65 | 
    |           118 |            62 |             6 |          5.61 |       2855.50 | 
    |           118 |            74 |             6 |         22.00 |       2877.80 | 
    |           118 |            59 |             5 |          8.21 |       2886.18 | 
    |           118 |            70 |             6 |         22.01 |       2908.52 | 
    |           118 |            56 |             5 |          1.96 |       2910.62 | 
    |           118 |            67 |             6 |         22.01 |       2932.87 | 
    |           118 |            53 |             5 |          3.94 |       2937.01 | 
    |           118 |            63 |             6 |         22.01 |       2959.29 | 
    |           118 |            50 |             5 |         12.67 |       2972.11 | 
    |           118 |            60 |             6 |          7.23 |       2979.53 | 
    |           118 |            72 |             6 |          6.39 |       2986.24 | 
    |           118 |            86 |             8 |         22.01 |       3008.81 | 
    |           118 |            68 |             7 |         22.00 |       3031.27 | 
    |           118 |            54 |             5 |          8.05 |       3039.43 | 
    |           118 |            64 |             6 |         22.00 |       3061.70 | 
    |           118 |            51 |             5 |         17.69 |       3079.60 | 
    |           118 |            61 |             5 |          2.46 |       3082.33 | 
    |           118 |            73 |             7 |         22.01 |       3104.78 | 
    |           118 |            58 |             5 |          6.79 |       3111.69 | 
    |           118 |            69 |             6 |         22.01 |       3133.94 | 
    |           118 |            55 |             6 |         13.23 |       3147.46 | 
    |           118 |            66 |             6 |          6.14 |       3153.82 | 
    |           118 |            79 |             7 |         22.01 |       3176.19 | 
    |           118 |            63 |             6 |         22.01 |       3198.42 | 
    |           118 |            50 |             5 |         22.00 |       3220.55 | 
    |           118 |            40 |             4 |          0.66 |       3221.32 | 
    |           118 |            48 |             5 |          1.85 |       3223.37 | 
    |           118 |            57 |             5 |          2.89 |       3226.47 | 
    |           118 |            68 |             6 |         12.53 |       3239.26 | 
-19.491525423728813
