10
10 28 95 10 89 93 43 74 72 33 7
13 85 30 81 45 71 26 65 80 78 22 40 20 49
9 36 75 55 91 24 3 23 56 62
10 46 90 67 17 54 86 37 18 98 60
9 73 0 94 51 97 9 66 47 64
11 58 70 83 4 27 38 15 34 96 76 59
11 92 25 82 35 1 68 79 19 31 21 88
9 52 57 39 99 84 16 87 63 29
11 48 5 13 12 11 6 32 50 69 77 53
7 61 42 14 8 44 2 41

Total makespan: 221

