20
4 0 68 72 74
6 65 71 56 45 91 96
6 49 54 4 29 69 95
5 92 3 14 52 20
3 27 42 85
3 12 89 93
5 99 75 7 21 94
4 58 41 2 15
5 32 23 38 6 53
4 43 37 25 78
5 84 61 70 13 86
4 16 62 81 36
7 26 47 33 9 46 5 22
6 19 18 57 31 51 83
4 44 64 66 11
6 67 39 55 63 30 34
5 35 60 73 59 17
5 8 10 90 98 48
7 24 79 28 87 88 1 97
6 76 77 82 40 80 50

Total makespan: 39

