30
4 72 6 20 44
3 15 51 68
3 19 78 56
3 65 94 82
3 9 30 32
2 23 34
4 0 22 86 40
3 85 93 98
3 4 58 61
4 57 63 67 28
4 37 48 8 45
3 7 90 38
3 18 49 50
6 3 52 89 25 47 36
3 24 96 55
3 66 79 73
3 46 11 17
3 16 2 60
3 21 29 62
5 59 10 53 84 42
3 33 69 41
4 76 26 81 70
2 87 54
2 71 1
4 43 27 91 75
3 5 14 31
3 64 92 80
4 12 13 99 97
4 88 74 35 83
3 39 95 77

Total makespan: 42

