30
3 96 47 45
5 20 31 38 33 53
3 84 91 56
5 93 80 63 86 85
4 40 46 71 74
2 12 6
3 94 17 34
3 81 5 2
3 8 62 29
4 87 57 0 99
3 64 70 43
4 32 50 24 79
3 23 98 97
3 51 15 13
2 44 95
3 75 41 16
3 27 66 25
4 60 26 76 22
3 10 78 92
3 35 89 83
3 77 65 68
4 1 88 52 37
4 30 9 18 58
3 49 54 14
3 82 61 19
4 3 55 21 72
3 11 42 69
4 28 7 59 67
3 39 73 48
3 90 4 36

Total makespan: 38

