20
5 30 6 45 98 49
7 62 67 77 17 15 53 7
6 2 78 22 35 43 74
5 89 44 96 52 75
6 21 60 58 87 51 84
6 88 73 1 13 28 9
5 8 90 3 38 57
6 76 56 61 63 55 12
6 42 79 92 19 80 91
4 81 54 46 50
5 16 86 41 71 85
5 95 65 26 23 99
4 64 97 69 70
4 20 5 47 0
5 72 82 94 34 14
4 11 48 18 68
5 29 33 4 10 24
5 37 36 31 66 32
4 40 93 25 83
3 27 59 39

Total makespan: 44

