25
4 94 78 64 81
3 74 80 85
4 22 46 61 60
5 42 18 10 86 12
4 76 62 43 84
4 39 97 51 68
6 38 37 40 48 29 26
4 44 87 1 63
3 89 2 33
5 73 98 79 75 28
4 8 32 52 82
2 58 25
4 45 55 35 70
4 14 16 19 83
5 23 7 59 3 15
5 69 88 31 30 50
6 47 0 54 36 99 5
3 49 9 72
5 56 21 71 6 13
7 92 24 65 93 53 77 41
3 57 96 34
3 17 90 27
3 20 67 4
2 66 91
2 95 11

Total makespan: 30

