20
3 77 31 64
6 6 91 5 55 17 1
4 81 74 62 63
5 84 88 57 66 83
3 58 89 20
6 22 71 75 86 50 68
6 99 39 53 41 3 82
4 54 42 97 14
4 16 48 19 65
4 61 30 72 56
5 73 9 11 4 49
6 60 96 27 87 34 10
7 51 45 23 21 70 13 95
6 26 0 69 18 37 2
5 35 29 93 28 33
5 36 67 8 79 46
6 32 80 43 47 76 98
4 85 24 44 12
4 7 78 52 92
7 25 59 40 15 94 38 90

Total makespan: 61

