20
6 87 25 65 16 67 23
3 14 9 54
6 41 51 30 84 97 58
5 76 77 45 69 63
4 2 49 72 91
3 75 61 52
5 18 34 90 42 85
6 22 10 56 11 5 40
6 27 79 29 19 43 32
4 71 78 70 35
5 89 13 47 44 24
9 60 17 53 37 92 83 68 26 55
4 95 93 8 3
4 96 38 12 88
5 74 15 73 66 4
5 46 98 33 50 7
6 0 36 99 31 39 1
3 28 62 82
6 86 80 48 21 81 94
5 64 6 20 59 57

Total makespan: 41

