30
3 15 11 18
5 57 99 77 59 72
3 0 84 76
3 33 50 46
4 55 12 96 94
2 90 74
4 51 48 54 95
3 65 81 6
2 52 63
4 67 7 80 3
3 32 58 89
3 38 16 17
3 78 10 34
2 43 70
3 37 86 53
2 98 27
2 83 28
2 30 21
2 8 97
3 69 45 60
5 64 93 13 1 20
3 22 31 9
6 71 91 29 35 75 88
5 82 25 26 47 73
2 42 68
5 40 19 56 41 44
5 87 92 24 61 2
4 39 66 62 4
3 85 36 14
4 79 23 49 5

Total makespan: 43

