20
4 90 10 48 76
4 96 51 71 81
5 50 65 22 52 46
4 30 9 35 6
4 39 18 21 53
5 97 83 59 89 79
6 5 15 7 84 73 77
6 28 75 42 20 26 74
5 31 27 72 13 38
6 19 32 45 43 16 24
3 60 8 99
4 4 56 25 95
5 58 37 86 98 66
5 94 80 23 87 88
7 44 63 92 69 68 49 29
6 93 2 34 14 40 64
5 3 67 17 57 47
5 82 41 1 12 33
4 54 78 70 0
7 91 61 55 36 11 62 85

Total makespan: 77

