10
8 65 7 84 93 95 18 41 36
9 42 87 83 75 22 30 40 73 96
10 20 17 46 8 91 48 29 76 25 11
8 21 99 49 51 52 98 67 54
10 10 62 34 88 78 35 55 74 43 57
10 13 80 44 72 89 90 66 69 47 12
12 5 38 39 45 14 37 6 64 32 92 4 77
12 86 70 26 27 53 94 3 19 97 56 15 82
9 61 31 9 68 85 50 2 60 23
12 71 59 58 33 24 0 81 1 63 28 79 16

Total makespan: 205

