15
7 76 60 34 27 4 44 25
9 22 51 52 18 49 37 91 6 33
5 23 65 97 59 81
4 62 87 99 40
7 2 93 35 79 57 58 19
4 24 94 48 73
6 8 11 56 71 46 61
7 67 75 17 15 74 85 78
7 84 96 31 13 86 89 47
9 7 77 66 20 41 21 32 90 63
10 14 16 39 10 30 12 50 0 42 64
7 53 9 1 72 29 95 45
6 69 68 55 82 98 92
7 5 80 88 43 70 54 83
5 28 3 26 38 36

Total makespan: 61

