25
4 44 66 81 59
3 28 19 13
3 34 5 93
6 40 90 14 21 85 22
4 42 46 41 15
3 32 67 63
4 16 72 25 95
5 38 98 37 24 31
4 50 49 73 39
6 86 4 45 43 3 17
5 91 8 75 84 30
3 77 54 58
4 70 83 33 99
5 47 20 82 6 64
3 62 92 48
5 9 27 7 68 36
2 69 18
5 87 23 53 55 94
4 10 60 35 80
4 57 11 76 74
4 12 1 26 71
4 89 79 2 97
3 51 52 96
4 61 56 65 78
3 29 88 0

Total makespan: 53

