30
7 72 105 10 41 147 38 92
3 113 14 8
4 28 27 1 21
6 107 91 76 138 17 64
5 83 118 46 109 22
5 51 18 112 101 39
4 122 62 61 59
6 50 56 108 13 53 24
3 12 139 65
4 148 130 68 90
6 75 123 74 86 89 58
5 16 7 49 98 88
5 85 100 97 146 69
7 70 43 60 71 55 110 52
6 11 143 137 42 66 133
4 0 31 116 29
7 95 142 73 36 44 54 121
5 140 45 84 2 134
2 127 114
5 40 94 4 144 106
5 135 99 34 26 87
4 30 117 5 25
3 96 111 141
5 57 19 63 132 102
8 79 103 120 128 15 3 104 6
9 131 125 145 33 126 81 129 124 136
4 32 9 119 35
5 23 67 77 37 115
6 20 93 48 82 47 149
2 78 80

Total makespan: 32

