20
8 135 143 21 120 24 60 101 90
7 26 22 4 25 132 84 36
7 76 69 95 68 87 96 124
8 15 80 127 13 116 42 71 83
8 43 118 38 136 32 49 44 51
6 52 146 114 55 75 145
8 122 91 121 70 103 133 31 99
8 37 128 89 48 130 98 100 125
7 35 33 30 78 149 104 56
8 40 110 65 129 131 109 113 64
7 45 123 17 18 29 10 63
7 27 59 139 3 115 86 53
9 119 19 141 126 117 73 72 148 77
7 0 111 137 74 108 46 20
14 142 61 88 85 16 12 94 106 28 102 144 1 39 6
7 138 107 112 81 50 93 34
7 9 57 147 58 62 105 8
4 134 41 23 82
6 67 14 11 97 140 66
7 5 7 47 2 79 54 92

Total makespan: 104

