30
4 64 92 122 14
3 84 146 72
7 38 21 25 148 79 128 27
5 66 35 116 104 134
4 142 74 127 99
7 89 5 82 36 53 125 88
2 115 17
4 15 39 18 120
4 133 30 13 108
4 107 58 11 126
4 20 55 32 131
3 19 62 46
5 61 138 73 78 16
4 26 85 135 10
6 54 118 114 50 63 144
6 71 0 69 56 47 67
3 68 60 96
7 97 123 90 113 83 93 130
5 87 70 23 124 37
7 57 91 34 1 149 103 81
5 129 22 132 80 101
7 6 110 51 121 86 112 147
7 111 48 59 45 106 105 76
4 139 33 109 136
5 31 2 65 95 4
6 42 24 145 141 119 7
5 28 12 117 43 75
8 41 8 9 40 29 3 49 94
4 44 52 143 137
5 77 102 140 98 100

Total makespan: 44

