20
9 72 48 12 30 143 28 113 25 91
8 109 133 121 41 59 140 146 76
8 142 116 110 69 18 90 145 56
6 50 16 95 85 129 92
9 43 66 2 0 32 42 62 104 105
6 61 74 68 128 141 35
10 73 147 136 100 58 45 67 22 71 47
7 57 38 60 83 64 106 103
8 5 65 46 55 131 21 144 122
4 135 7 130 107
11 24 99 127 108 94 40 123 93 98 125 8
5 75 101 19 117 33
8 137 29 138 49 1 39 126 70
9 3 86 149 78 27 53 31 13 89
8 132 114 11 77 44 17 112 96
8 34 37 79 87 134 51 102 10
7 80 52 63 120 88 84 54
7 111 36 20 139 115 148 124
4 14 9 81 119
8 82 97 26 23 15 118 6 4

Total makespan: 75

