15
8 65 136 124 39 22 8 24 60
9 2 64 79 25 18 146 129 67 23
9 107 99 142 55 14 139 31 149 84
10 70 26 110 93 105 126 109 113 86 57
11 122 33 66 17 127 106 27 123 112 54 51
9 140 34 88 81 20 71 100 128 15
12 133 12 76 134 118 125 50 83 49 19 28 132
7 38 58 6 111 9 148 42
10 82 48 13 114 5 45 85 29 108 40
9 80 36 61 121 72 141 104 37 135
9 90 46 16 73 69 1 63 144 52
10 143 89 120 95 4 74 21 87 115 7
14 130 91 98 119 147 30 101 0 68 43 137 138 75 56
14 78 59 62 96 44 3 11 92 94 47 97 32 41 116
9 102 10 131 77 145 117 53 103 35

Total makespan: 91

