10
14 39 115 55 79 109 58 40 8 50 77 94 4 105 120
13 100 32 139 10 47 126 7 81 123 11 83 69 57
19 62 149 15 46 91 16 66 121 74 25 103 144 111 12 102 80 143 78 14
16 119 82 51 34 65 133 37 106 142 9 23 129 87 130 147 41
14 117 45 63 59 17 44 113 148 88 146 108 76 135 61
12 95 140 75 107 90 36 48 67 3 122 134 86
19 42 70 131 60 72 96 145 38 101 136 116 52 54 124 49 97 89 0 56
10 53 118 138 24 21 84 64 125 2 98
16 68 99 127 5 128 73 110 104 29 132 28 35 114 43 141 27
17 19 71 30 6 112 20 1 85 22 137 33 93 18 13 92 31 26

Total makespan: 188

