15
11 65 11 86 19 100 5 91 75 45 145 69
11 38 35 77 59 29 36 143 94 51 52 148
10 81 49 22 117 115 136 72 13 146 84
10 14 70 61 139 119 21 138 68 113 128
13 2 82 124 40 4 31 76 78 10 71 62 18 9
9 50 101 74 109 110 114 130 53 12
9 63 141 97 105 120 131 132 26 60
10 116 23 137 64 46 118 92 147 16 88
8 33 42 121 44 87 0 41 34
7 58 55 15 95 20 89 99
10 149 106 129 134 98 25 126 103 67 39
11 125 57 7 83 32 8 96 30 140 54 66
7 56 6 90 108 47 3 135
13 1 133 102 93 37 122 79 111 80 123 28 27 73
11 17 48 107 142 85 112 104 127 24 43 144

Total makespan: 79

