25
8 103 136 100 11 34 102 38 86
7 139 101 104 92 46 27 14
6 66 31 74 110 47 3
6 143 36 146 119 147 137
4 73 49 125 48
6 105 22 10 42 2 126
5 122 15 7 30 85
7 25 129 99 140 16 116 120
8 114 44 29 39 118 109 127 112
5 141 97 148 1 57
5 55 77 81 26 8
5 134 124 149 32 35
6 18 59 45 12 63 117
6 17 13 54 53 71 131
7 23 115 40 60 56 94 80
6 21 28 62 83 70 106
8 90 82 144 67 91 0 43 138
8 68 51 96 113 33 41 75 64
5 4 5 78 145 9
6 52 19 79 87 58 76
6 89 135 24 142 69 61
7 121 50 133 123 65 98 111
5 93 108 6 95 128
4 37 72 88 20
4 107 130 132 84

Total makespan: 57

