20
5 106 58 6 56 120
8 99 29 12 74 87 0 113 17
6 16 39 28 71 37 108
8 22 111 32 75 136 110 149 25
8 101 40 48 26 132 38 41 20
9 5 125 8 130 14 89 34 96 43
8 60 50 121 131 115 112 65 114
7 117 116 137 72 10 42 146
6 3 31 45 123 9 148
8 107 2 118 145 51 82 62 61
9 57 88 103 35 129 105 18 85 15
6 142 79 91 138 73 78
5 128 47 83 7 144
9 30 109 68 102 55 93 77 86 54
7 80 141 59 64 124 46 49
8 95 100 11 24 126 23 63 84
6 19 134 139 81 135 67
9 27 133 21 52 70 119 69 104 94
7 44 13 140 4 66 36 1
11 127 97 53 92 143 98 90 122 33 147 76

Total makespan: 54

