20
9 7 122 144 19 44 8 118 125 10
6 6 84 12 138 88 52
5 101 24 47 35 79
7 137 56 103 126 60 107 112
4 83 21 85 55
6 135 67 128 17 91 72
10 116 78 130 142 63 13 0 5 18 34
7 32 95 96 42 108 74 57
9 3 15 75 87 31 65 77 110 89
9 114 70 111 146 86 2 62 147 30
7 124 58 25 41 145 133 132
9 48 100 53 97 50 28 109 22 23
8 81 9 69 80 113 149 46 102
8 94 51 106 99 38 93 59 68
8 39 136 11 61 54 73 40 143
10 16 90 20 26 92 148 45 120 14 49
6 129 1 140 82 117 66
7 37 76 36 127 119 134 115
9 98 27 123 71 131 4 141 43 29
6 64 121 139 33 105 104

Total makespan: 59

