20
7 124 144 142 104 109 53 44
7 17 64 83 81 47 87 131
6 116 49 132 58 69 146
7 21 141 72 88 74 25 65
8 102 137 75 80 7 70 76 16
6 126 98 32 138 62 57
7 3 19 5 140 119 4 15
7 127 148 40 79 85 133 100
7 110 136 78 113 73 94 71
8 97 14 125 120 115 84 99 90
9 149 55 45 23 129 89 63 134 91
9 106 28 33 121 22 35 36 122 9
8 48 46 82 56 8 66 130 105
8 86 43 11 61 42 128 12 92
9 52 114 34 54 108 117 24 107 2
8 101 26 112 1 93 139 68 67
7 103 38 143 39 13 10 20
6 50 123 60 95 51 147
5 0 96 77 18 6
11 59 30 111 31 37 145 135 118 41 27 29

Total makespan: 112

