25
7 10 77 72 141 120 137 85
7 58 84 47 108 116 83 147
4 101 68 106 104
8 125 21 140 119 52 63 40 35
6 51 130 23 18 110 17
6 22 36 57 54 82 105
7 131 97 34 146 123 109 88
6 32 142 74 43 143 86
5 41 111 93 61 107
8 103 139 33 71 60 132 128 38
4 73 144 80 30
7 79 133 96 135 6 25 115
6 66 127 89 37 19 100
6 62 65 94 114 92 28
3 124 102 112
4 136 20 145 118
6 134 149 42 8 117 48
8 76 90 29 75 138 129 31 122
5 7 13 1 16 53
9 70 24 121 113 26 64 9 59 3
6 12 56 44 91 11 2
4 55 95 45 5
6 99 14 87 46 27 0
4 50 49 81 69
8 4 39 126 67 15 78 98 148

Total makespan: 39

