25
10 46 98 101 22 15 113 30 54 47 29
7 14 69 55 32 130 67 56
4 99 21 18 3
5 134 4 65 51 64
7 40 146 138 59 140 79 125
5 39 142 16 33 147
4 141 139 6 83
6 41 94 115 117 114 68
7 2 135 66 5 111 123 9
7 102 143 85 148 107 45 80
6 77 91 109 90 129 84
5 82 13 31 71 92
5 7 63 132 131 128
7 76 11 118 28 52 23 110
7 58 10 25 36 74 121 37
6 119 44 81 122 34 89
7 100 53 103 93 26 17 137
5 95 49 43 60 8
6 61 75 105 88 87 48
5 96 145 0 144 112
4 24 70 35 1
5 72 149 20 104 62
7 38 124 27 106 86 116 108
8 127 120 136 133 50 126 12 19
5 57 42 73 97 78

Total makespan: 55

