20
7 73 149 85 13 90 84 28
9 20 83 8 91 69 61 123 44 101
5 78 2 77 107 87
7 25 67 109 93 38 52 27
9 35 72 96 46 49 144 117 10 110
8 148 31 63 130 80 66 14 62
7 24 121 34 58 68 129 64
9 128 95 60 29 124 15 47 17 98
7 22 1 118 119 120 9 122
8 138 32 7 57 51 26 3 94
5 88 103 114 125 131
7 104 146 97 11 23 126 105
6 55 0 147 111 108 4
9 12 39 102 65 18 136 33 16 140
7 106 134 79 141 41 21 37
6 113 82 74 36 48 56
7 76 54 86 50 133 42 127
9 75 59 43 112 143 116 19 145 53
9 40 30 81 115 70 89 100 132 5
9 45 92 6 137 142 135 139 99 71

Total makespan: 80

