10
12 100 57 139 77 1 134 109 96 119 143 75 83
20 142 88 42 2 25 4 149 33 32 113 64 8 130 29 117 99 97 74 145 108
11 17 45 138 132 36 126 39 53 0 7 62
13 63 59 103 20 114 80 65 148 73 125 3 105 121
15 14 81 122 104 60 115 16 93 133 120 30 13 116 5 67
16 147 48 27 92 21 70 19 118 146 87 94 106 112 68 10 111
18 56 11 137 23 61 12 22 144 98 85 49 37 89 50 76 140 28 69
13 78 15 123 46 107 128 24 41 44 95 124 102 58
16 47 72 34 51 6 43 71 79 31 35 54 9 131 26 141 40
16 66 38 18 136 52 129 90 135 127 82 110 55 91 101 86 84

Total makespan: 210

