10
20 34 109 149 37 97 101 102 75 18 68 15 122 128 9 105 35 118 3 136 92
15 42 110 27 57 38 106 111 132 117 86 45 79 142 24 11
18 85 32 44 76 91 143 83 48 100 72 54 43 73 70 121 120 13 96
16 137 127 0 7 95 4 12 20 146 40 58 23 25 116 29 147
13 59 39 139 145 94 90 89 49 69 93 140 65 98
17 144 78 61 119 80 71 134 88 47 125 33 14 126 30 113 135 2
11 41 99 60 124 82 64 123 52 62 74 1
12 8 19 50 63 46 138 53 131 28 112 148 67
13 10 21 66 56 130 84 55 77 87 103 36 51 6
15 17 104 107 114 16 26 31 129 22 115 141 108 133 5 81

Total makespan: 259

