15
9 15 128 125 50 40 104 94 142 132
7 117 10 90 55 66 147 78
10 9 134 85 28 37 67 136 54 81 52
10 102 82 114 98 36 34 49 95 89 44
10 32 146 45 92 133 140 1 97 5 12
11 8 144 24 29 109 73 19 79 88 65 46
8 93 53 3 99 96 118 72 113
12 30 17 148 39 38 91 0 4 138 22 131 77
13 101 21 31 121 6 143 14 100 41 61 116 43 83
11 59 105 76 60 111 122 68 11 112 64 145
8 27 127 16 2 123 108 139 87
10 130 33 120 7 26 47 115 75 13 135
10 124 126 57 71 86 58 106 56 23 103
11 62 20 149 70 141 110 74 18 42 51 69
10 63 84 80 25 48 137 35 107 129 119

Total makespan: 110

