25
5 121 123 73 104 132
7 50 81 114 72 57 37 105
5 113 1 15 49 122
6 100 78 142 54 139 86
8 8 88 107 40 83 45 97 144
8 7 71 52 116 84 91 106 136
6 112 138 13 108 30 23
6 82 129 119 56 76 10
6 111 101 148 120 96 62
6 127 26 19 41 126 11
6 14 146 74 48 42 70
5 18 35 92 109 63
6 17 93 147 28 68 134
5 140 47 94 34 90
5 115 143 131 55 141
5 145 16 60 38 99
7 3 36 2 117 103 61 33
7 43 75 77 27 21 125 12
7 53 130 67 85 133 44 65
6 128 5 69 118 102 32
8 6 46 59 80 110 20 39 149
5 58 64 22 9 135
5 87 124 89 66 25
5 95 0 29 31 4
5 137 79 24 98 51

Total makespan: 79

