20
7 21 43 133 42 75 44 104
7 90 58 31 93 0 15 96
4 83 12 88 123
11 131 148 98 94 62 69 135 121 129 89 147
8 77 29 84 4 82 116 71 17
11 1 10 103 23 53 8 87 37 128 40 54
7 141 107 92 125 134 79 19
9 143 68 76 144 64 132 49 63 100
6 102 59 139 95 97 25
7 57 60 48 136 26 27 7
5 45 115 73 24 137
6 111 46 33 101 117 99
6 110 91 34 66 41 142
9 74 65 80 50 118 145 28 113 52
8 36 20 122 130 56 30 124 81
10 61 6 67 138 22 119 140 108 78 55
9 47 127 106 51 38 146 35 5 16
8 11 149 126 114 105 13 112 2
10 18 14 9 120 32 109 72 3 85 86
2 70 39

Total makespan: 53

