25
10 15 120 9 98 130 164 138 46 95 115
7 123 165 3 68 22 142 161
11 30 157 132 32 102 88 149 159 195 4 0
9 56 29 74 190 131 25 93 121 63
7 180 5 23 94 58 27 71
10 139 18 154 35 49 199 171 117 77 34
10 50 21 150 192 135 19 1 105 85 155
8 11 60 114 156 198 61 99 59
11 79 147 67 107 38 45 189 128 51 84 80
5 8 69 182 17 40
6 14 170 31 54 127 113
9 73 109 106 116 126 104 33 100 43
5 184 110 175 119 168
9 183 187 174 176 2 158 57 78 76
8 96 144 197 185 178 134 87 16
7 83 141 24 162 146 81 48
9 6 193 92 163 66 44 52 65 101
8 188 151 36 194 7 108 62 143
7 125 26 55 42 37 145 75
5 124 53 89 70 160
8 167 153 111 166 91 86 196 12
8 10 20 140 97 181 103 72 28
8 82 179 64 122 173 136 148 41
7 152 137 191 169 118 39 177
8 172 47 90 186 129 112 133 13

Total makespan: 77

