20
12 84 80 87 147 47 50 19 13 158 61 174 67
9 36 185 140 161 182 133 162 15 193
11 120 54 124 39 34 136 73 168 108 107 35
7 21 149 160 82 122 128 154
11 150 159 167 152 187 24 7 176 197 166 105
10 55 169 100 97 198 11 77 132 94 42
14 145 131 23 111 91 41 116 12 104 93 32 48 30 18
9 51 43 62 117 45 75 57 9 163
10 101 137 16 148 49 88 196 171 156 186
11 199 6 74 70 27 8 3 37 119 165 181
13 76 78 142 188 95 134 40 189 20 192 173 59 98
10 79 17 112 153 175 10 90 110 191 109
7 172 85 31 155 99 60 121
9 38 29 183 44 63 127 65 114 72
8 69 68 102 89 81 1 118 179
9 138 126 141 157 151 4 26 144 0
11 123 184 2 96 106 53 170 125 195 22 83
7 66 14 190 178 194 52 71
11 64 33 164 46 135 139 5 92 28 115 103
11 130 129 113 177 58 180 143 25 146 86 56

Total makespan: 140

