20
12 152 165 164 67 116 38 14 153 172 55 96 124
10 0 130 87 15 6 198 189 62 57 27
12 59 77 89 81 195 196 163 8 20 85 31 64
10 34 60 82 73 131 161 35 37 167 190
8 160 29 49 118 132 150 9 110
8 72 140 147 154 136 149 120 106
12 3 13 66 65 17 179 146 48 51 170 99 185
8 26 117 42 83 23 192 52 100
7 33 41 128 145 197 144 187
11 47 166 98 157 95 156 138 54 158 180 88
11 19 12 182 169 61 141 193 129 4 7 90
9 127 25 171 53 21 28 184 186 135
9 105 69 122 1 68 177 101 113 70
8 175 32 173 119 10 45 143 109
12 18 75 71 162 137 5 111 142 168 155 58 2
7 103 123 46 44 39 84 115
11 121 94 24 102 30 43 151 108 104 191 181
8 194 178 91 176 133 199 36 50
15 40 125 92 93 80 16 97 183 56 79 107 63 76 139 112
12 78 148 86 11 174 22 114 134 126 74 159 188

Total makespan: 133

