30
6 32 140 22 101 165 90
9 112 63 84 13 113 147 39 23 146
7 141 6 168 82 99 159 60
8 20 115 95 1 130 70 132 176
7 109 149 3 187 4 37 78
7 134 76 167 128 25 135 94
6 47 153 131 117 30 15
7 110 57 188 74 98 27 122
7 93 139 49 196 91 164 178
5 119 184 92 40 75
9 50 172 199 88 156 124 2 67 65
8 105 0 177 145 100 56 103 29
6 61 81 18 198 183 51
9 193 31 54 21 129 138 96 34 26
6 186 155 42 154 5 143
6 127 16 162 148 55 35
7 152 58 66 11 175 46 170
5 53 123 72 151 44
6 118 179 120 111 182 171
6 173 85 48 45 77 19
5 104 192 150 52 158
4 69 102 10 160
7 14 87 89 185 41 190 17
6 121 68 126 43 189 197
10 106 163 73 83 62 195 24 114 108 180
7 174 181 8 136 157 9 142
6 71 107 64 80 161 144
5 169 28 86 166 79
8 36 59 125 137 12 97 38 7
5 133 191 33 194 116

Total makespan: 56

