30
7 141 171 105 2 139 21 79
5 143 99 113 85 118
4 198 153 194 81
9 120 32 10 34 150 31 17 49 104
6 61 95 177 54 66 28
8 159 180 116 183 11 67 77 15
8 72 63 119 134 22 40 4 122
4 160 55 9 193
8 0 187 184 190 33 155 23 78
7 18 37 138 117 44 1 56
6 42 110 144 147 170 106
9 137 65 36 27 48 75 192 91 71
6 90 29 169 69 64 3
5 97 53 126 6 59
6 195 62 41 142 162 128
7 168 30 149 111 24 125 38
5 43 145 151 58 132
5 45 89 8 60 70
6 76 196 136 133 164 87
7 57 161 13 35 158 148 114
6 7 176 127 92 131 12
7 107 103 154 68 93 51 197
7 88 166 179 101 146 86 163
6 181 5 115 172 25 130
8 96 174 50 39 189 165 191 152
7 175 156 108 94 129 14 188
6 121 100 26 102 19 73
9 199 46 173 123 157 47 83 52 98
7 20 74 186 185 82 182 84
9 80 16 178 124 140 109 135 112 167

Total makespan: 60

