30
4 24 29 155 129
6 31 140 60 1 57 40
8 100 32 134 151 168 172 160 94
6 18 12 67 128 90 190
8 152 34 86 177 111 180 104 164
5 143 96 198 184 181
7 101 33 58 115 66 85 192
6 173 175 150 189 19 135
8 76 9 108 161 23 107 8 121
9 191 99 182 7 139 171 37 97 148
7 49 15 149 146 35 120 98
9 59 179 38 95 119 83 131 106 169
5 193 17 145 87 105
4 51 61 185 178
7 157 72 45 78 113 81 167
3 118 54 26
5 71 41 27 65 55
7 10 130 56 194 141 80 124
7 44 25 174 4 69 103 186
7 122 75 138 30 82 147 88
6 125 14 28 153 197 43
10 123 133 2 188 52 22 84 21 39 93
6 199 183 116 109 112 5
6 170 195 42 3 102 154
6 63 68 53 165 92 0
6 6 20 196 110 156 176
8 89 132 136 159 11 13 114 46
9 36 158 163 144 47 187 79 126 162
8 77 64 117 73 50 137 70 166
7 127 74 91 142 62 16 48

Total makespan: 37

