30
5 186 65 31 50 158
6 190 171 132 127 67 155
8 141 23 29 174 32 196 56 192
6 113 6 123 175 24 73
7 91 121 170 110 25 177 43
7 75 77 52 96 100 19 61
8 105 62 116 88 70 166 143 11
10 40 140 79 187 128 169 129 164 72 66
8 0 182 99 8 102 60 80 137
4 76 162 167 44
6 14 3 147 118 84 144
3 184 199 133
6 45 130 55 131 178 151
7 82 49 176 106 21 20 26
6 71 94 22 115 191 46
7 27 165 78 198 163 95 139
5 146 59 124 111 119
7 103 108 122 81 172 12 34
7 85 194 193 48 90 159 64
7 89 57 189 145 117 142 112
10 2 197 33 69 13 36 9 183 148 7
4 30 68 136 83
6 38 152 135 150 15 17
6 5 107 51 156 101 53
7 97 54 58 10 168 35 134
7 138 47 63 42 41 39 98
9 37 160 104 153 74 149 114 180 161
6 120 1 4 125 86 185
6 109 126 28 16 154 195
9 87 188 173 181 93 18 92 157 179

Total makespan: 69

