30
5 187 167 169 171 44
6 160 99 184 53 159 112
6 102 70 66 105 140 100
7 73 57 60 195 15 104 90
6 182 64 145 71 52 190
9 16 114 55 31 43 197 7 119 48
5 143 34 118 62 192
5 121 132 141 142 125
7 85 180 134 80 89 41 98
6 151 88 129 58 22 92
10 116 152 153 51 5 13 35 185 101 147
9 189 193 79 78 10 163 179 27 38
5 176 158 40 131 175
6 95 33 162 25 61 120
6 124 154 113 77 1 93
4 54 155 19 188
9 9 161 130 67 149 156 97 183 170
6 14 18 17 68 109 0
10 157 168 30 198 26 94 166 138 164 135
7 59 126 32 24 148 56 63
9 65 174 128 199 12 69 81 110 28
7 45 86 103 36 11 96 127
8 82 172 3 123 137 139 91 181
5 4 178 194 107 8
6 76 108 84 117 47 72
7 136 2 87 29 23 37 191
7 83 196 122 74 173 111 115
3 144 6 50
8 177 106 75 42 186 165 39 150
6 133 21 46 146 20 49

Total makespan: 37

