30
6 114 160 91 132 38 161
9 71 181 153 8 94 192 102 73 133
6 131 34 88 149 195 1
6 11 24 169 37 67 26
7 164 20 184 9 115 86 2
5 76 179 0 187 144
5 177 112 116 123 99
6 185 151 142 104 117 40
7 129 145 69 111 15 4 166
9 100 83 87 191 90 140 43 113 197
5 62 36 150 141 168
6 167 196 173 59 165 188
7 158 65 45 120 170 51 171
8 35 174 33 107 95 147 180 198
7 130 93 72 189 19 79 152
7 82 46 74 56 10 53 47
4 159 199 126 154
6 176 75 52 22 194 108
4 49 25 85 121
9 106 175 81 163 98 119 28 193 124
6 61 60 78 143 17 138
8 14 21 12 55 70 122 31 54
10 27 125 23 162 77 57 157 16 101 128
6 92 48 7 127 156 44
7 63 42 134 66 97 29 30
6 178 110 190 137 58 3
7 13 41 5 109 68 96 84
10 18 182 135 186 89 80 32 136 118 105
4 6 39 103 139
7 64 148 146 183 172 50 155

Total makespan: 73

