10
25 53 101 90 56 32 138 64 164 51 150 197 38 159 163 187 173 48 39 182 122 176 18 125 134 110
15 180 68 118 105 31 22 120 80 179 78 152 115 108 160 99
22 60 61 44 177 198 117 194 84 196 75 16 96 140 181 114 69 192 19 12 59 109 73
17 58 66 86 37 10 26 43 136 67 183 93 126 70 141 190 40 168
20 88 28 13 155 50 23 162 65 132 154 131 24 8 106 145 186 36 72 41 129
21 139 15 82 57 34 119 124 25 91 166 97 156 137 128 14 95 9 92 102 121 62
21 144 71 158 33 47 184 6 55 142 191 112 3 83 172 165 127 2 49 107 46 135
19 85 76 1 54 169 143 171 149 175 147 21 148 45 5 81 20 98 17 199
22 52 7 100 29 113 79 188 35 130 185 30 151 133 178 116 89 195 4 161 0 11 146
18 123 103 77 111 42 167 193 104 174 87 74 170 153 63 94 27 157 189

Total makespan: 328

