20
11 65 32 192 38 17 53 11 131 105 94 29
10 188 85 67 170 6 21 115 45 160 167
6 49 10 189 127 92 50
9 57 165 76 73 184 119 113 136 145
10 180 163 132 108 199 133 15 41 99 134
12 88 63 193 116 98 142 34 30 166 161 122 151
11 77 120 148 44 139 52 187 79 176 194 155
11 150 135 171 114 14 169 82 111 75 20 4
9 109 107 61 70 3 89 191 141 158
12 26 100 23 178 48 185 168 177 80 54 93 28
8 146 128 55 86 43 190 18 186
10 96 157 95 175 39 182 74 59 2 143
12 25 179 9 78 156 33 81 172 22 123 12 90
12 27 97 24 36 42 126 46 195 103 129 60 83
10 64 87 144 62 71 164 91 106 183 154
10 196 66 72 124 110 121 1 19 181 84
11 118 162 147 7 13 56 31 173 68 16 35
8 58 130 174 37 47 197 149 198
8 69 0 101 125 51 112 140 137
10 117 138 5 40 104 102 8 152 153 159

Total makespan: 70

