30
6 126 5 121 131 98 194
6 154 159 188 168 115 13
6 22 40 67 100 28 21
5 81 86 163 161 169
5 197 153 45 87 58
8 104 69 31 47 172 179 11 145
7 167 63 19 35 16 137 142
7 143 72 156 140 170 119 41
8 173 54 4 39 33 14 117 189
7 89 166 8 44 146 62 0
6 88 182 26 116 85 29
7 198 109 110 139 101 15 53
9 150 193 38 75 79 162 17 52 32
7 55 152 135 134 122 144 37
6 78 174 9 129 190 196
6 49 113 25 106 120 157
5 42 36 73 94 50
7 80 92 51 60 59 56 155
7 199 2 181 178 136 133 192
7 148 112 95 1 185 93 195
8 165 103 123 20 128 90 114 180
7 141 84 177 164 96 138 18
6 149 108 64 176 91 171
6 30 3 191 158 97 183
9 12 46 68 187 74 34 24 57 132
10 186 65 125 76 82 111 83 77 147 27
8 151 105 43 127 48 107 70 66
6 7 71 102 130 23 6
4 118 175 160 61
4 99 10 184 124

Total makespan: 73

