10
26 161 176 131 61 51 72 240 36 217 236 162 206 156 224 248 142 237 60 4 163 188 238 212 26 148 166
26 1 231 90 79 154 230 71 184 119 99 167 193 10 208 5 17 29 168 106 88 213 222 31 102 175 220
31 74 136 58 13 81 12 197 219 57 190 101 103 171 247 20 210 116 185 215 3 169 98 94 59 19 232 83 181 241 221 6
26 23 24 192 73 16 158 173 107 35 91 227 249 110 209 93 78 122 243 75 48 85 0 34 246 43 50
16 242 159 174 96 121 109 32 245 153 70 147 152 229 95 62 92
25 199 84 39 126 178 155 137 198 125 117 201 170 179 200 104 130 202 172 63 123 205 33 165 25 113
25 80 150 53 87 14 55 145 211 37 108 151 143 218 140 244 40 105 160 207 225 86 22 204 42 129
22 196 15 182 18 76 120 65 164 183 189 44 30 186 27 52 114 228 124 115 239 146 7
29 118 134 38 111 191 28 149 132 89 2 66 112 234 216 180 144 235 226 100 223 45 128 203 8 77 139 127 49 97
24 141 135 68 133 177 64 233 47 46 56 9 214 41 54 67 82 157 194 69 187 11 138 21 195

Total makespan: 381

