30
9 235 242 80 163 248 93 22 133 144
6 52 199 178 46 223 172
7 214 155 224 53 2 149 96
7 141 212 166 37 153 116 127
10 101 225 245 160 66 119 108 47 17 118
8 57 182 86 215 89 48 43 15
10 238 32 162 183 54 241 189 20 192 190
8 125 217 156 50 184 7 99 114
10 159 84 14 1 179 115 87 97 180 126
6 34 59 18 230 188 38
9 174 161 4 31 139 168 106 221 88
7 243 79 143 44 42 177 164
7 208 244 202 76 124 187 83
9 56 94 61 123 72 204 203 194 154
8 63 229 35 152 28 170 158 136
8 77 0 197 90 236 231 227 75
11 173 148 201 206 145 110 240 138 130 247 102
9 117 226 195 216 65 49 64 209 181
10 23 29 122 30 16 103 95 132 121 109
11 134 81 135 213 151 105 222 131 220 186 62
7 157 205 234 249 10 3 239
9 211 196 67 233 191 11 12 19 71
7 5 92 128 107 120 36 218
6 176 207 150 140 98 137
9 147 6 13 26 68 129 45 82 228
7 8 55 91 60 146 100 41
9 74 237 246 210 167 9 142 58 232
9 113 78 70 198 169 112 73 175 219
9 51 193 21 85 33 165 25 39 185
8 24 69 40 27 111 200 104 171

Total makespan: 98

