20
14 7 126 233 242 226 248 185 51 11 189 192 249 117 18
13 42 152 196 122 55 66 114 25 145 214 193 13 127
13 211 87 33 235 112 154 45 107 217 239 98 104 68
12 94 6 169 4 229 159 199 220 202 76 111 227
9 2 183 155 41 231 208 151 135 63
13 209 190 160 80 243 168 128 144 148 165 181 162 17
15 30 230 213 3 110 176 149 58 164 50 130 47 31 187 223
9 186 23 59 197 170 43 72 158 120
12 102 153 195 173 133 46 90 84 75 198 232 178
11 60 22 113 79 40 150 139 71 115 67 15
8 70 8 12 49 184 83 73 147
13 136 244 163 119 171 52 20 142 105 134 141 246 86
15 167 228 5 69 89 85 174 44 95 109 234 88 118 36 77
12 146 200 157 99 57 123 225 221 116 218 143 48
12 0 188 207 27 180 14 78 81 132 9 91 161
14 201 240 29 53 74 97 65 203 219 101 37 16 24 32
14 19 177 103 34 245 121 238 96 156 216 224 28 35 179
13 205 100 247 124 38 129 61 140 241 194 1 21 137
11 26 56 175 212 138 206 10 64 106 172 125
17 62 182 237 210 191 215 93 82 92 54 39 204 222 131 166 236 108

Total makespan: 89

