25
12 202 211 50 130 131 219 119 167 92 43 209 34
11 32 198 125 153 117 26 195 156 170 120 160
11 96 42 5 133 241 128 15 165 40 204 233
10 135 85 116 230 126 221 248 1 143 113
12 234 95 52 111 61 187 214 184 8 3 138 227
10 17 77 47 238 84 243 188 98 56 232
12 51 101 222 80 225 53 82 62 212 200 60 229
12 179 97 185 48 6 16 28 79 127 142 166 159
11 228 114 102 75 105 216 246 78 115 81 31
8 242 213 217 146 22 235 152 215
11 72 218 183 10 122 63 245 58 30 87 172
13 154 64 103 148 23 109 36 144 236 169 68 193 67
7 13 37 33 249 158 73 205
11 164 231 155 207 12 25 106 44 0 210 197
9 29 132 182 4 191 244 134 220 18
7 177 57 239 194 41 74 178
8 180 150 147 151 171 189 175 46
12 65 39 70 157 2 7 186 88 237 199 54 226
8 86 69 140 100 136 206 108 174
12 9 123 49 38 24 145 124 173 91 110 163 66
9 112 247 55 59 107 149 14 201 196
8 129 99 19 224 90 45 83 192
9 76 104 208 121 71 176 94 223 139
8 181 240 141 118 168 203 190 35
9 21 137 11 20 161 27 89 93 162

Total makespan: 116

