15
13 105 18 221 17 126 75 86 134 169 33 153 161 186
17 151 94 180 95 205 222 25 236 200 235 13 59 203 73 167 88 49
18 132 8 26 15 175 46 208 62 53 9 128 101 69 87 115 112 103 243
15 176 224 100 201 48 197 67 98 131 54 207 30 199 133 183
17 3 121 172 244 85 2 76 36 237 41 220 114 28 188 147 24 6
16 96 231 55 21 194 58 119 14 227 109 137 104 187 111 139 219
22 61 168 157 166 142 196 71 124 10 189 242 165 23 5 4 99 116 74 233 80 230 51
13 78 150 229 213 56 43 170 145 35 192 120 239 34
19 149 202 179 102 143 92 249 72 223 212 171 22 177 66 181 141 42 164 155
16 127 206 232 37 64 209 11 40 44 174 159 130 138 0 79 162
20 123 45 146 93 163 113 215 184 89 38 218 247 246 27 158 57 97 7 248 173
13 210 240 214 65 91 154 178 107 216 118 32 234 135
20 225 226 140 136 84 211 63 106 193 122 190 195 1 47 191 217 77 148 129 241
12 228 238 152 39 82 110 160 31 90 81 68 19
19 16 108 198 117 50 245 125 70 156 29 83 204 60 185 144 52 12 182 20

Total makespan: 244

