10
29 205 45 154 85 162 161 190 120 32 130 166 165 8 145 235 242 0 90 97 192 238 137 189 81 114 31 56 175 182
25 202 48 176 179 52 147 135 140 228 58 139 210 66 218 247 143 133 92 86 230 246 167 59 186 243
24 149 241 100 168 213 29 91 124 14 78 129 118 22 125 34 76 122 136 102 234 226 106 212 191
23 111 206 121 5 79 224 148 41 163 236 155 194 231 21 123 110 19 4 35 214 105 198 84
21 74 18 229 83 169 27 127 157 119 144 158 195 73 249 68 39 181 16 75 188 128
24 50 26 36 37 67 196 96 63 69 170 159 53 141 62 222 171 47 219 223 33 178 82 103 6
26 104 40 244 87 172 239 51 237 215 43 88 134 207 7 89 12 153 248 245 232 209 95 44 24 61 42
24 233 64 208 200 20 98 156 13 65 151 117 217 60 152 221 187 71 199 204 113 46 197 220 77
28 227 112 183 185 94 55 17 30 38 107 28 2 54 173 99 23 150 177 109 225 180 138 203 10 164 216 184 1
26 9 93 116 201 108 211 240 142 146 132 160 80 72 3 101 174 193 126 15 25 70 115 49 131 11 57

Total makespan: 341

