25
11 125 231 67 164 167 240 51 3 246 216 205
8 22 13 10 245 96 15 184 185
7 142 148 54 188 40 212 145
10 79 0 244 42 161 31 219 214 225 224
10 110 173 19 78 191 171 210 73 94 35
13 207 149 92 21 117 157 163 208 138 176 7 77 122
12 227 24 48 213 241 223 11 141 235 211 232 229
11 160 112 61 63 100 53 88 183 107 60 181
8 215 46 156 70 135 221 69 179
11 218 196 86 200 230 82 233 151 55 143 131
11 217 228 150 113 114 192 65 108 129 202 169
9 5 140 34 52 170 247 204 49 36
10 75 14 74 32 98 116 83 17 155 137
10 197 187 198 84 154 104 1 237 50 249
8 159 85 8 222 72 126 147 76
11 172 115 243 199 93 162 4 87 209 189 38
7 26 178 153 66 234 23 62
11 109 177 41 33 9 28 68 43 124 220 193
10 132 30 168 95 89 146 6 166 206 27
9 71 64 37 103 44 106 186 120 134
12 25 97 59 180 99 2 47 239 165 203 194 20
12 242 121 101 118 29 12 90 58 248 39 236 81
9 130 139 190 56 119 182 45 174 111
8 144 175 152 18 127 226 80 91
12 195 201 57 128 16 123 158 105 136 102 238 133

Total makespan: 61

