25
13 192 13 163 15 137 118 103 64 247 176 115 88 206
10 203 130 27 97 26 60 162 111 160 114
10 75 186 248 156 51 6 63 154 244 102
11 16 221 12 204 157 77 2 124 41 122 45
11 200 191 90 202 196 5 19 100 3 126 14
11 183 147 220 93 232 213 120 148 53 141 37
10 43 46 94 155 67 239 54 132 225 243
12 231 69 165 174 228 72 61 139 22 66 44 35
10 106 166 215 227 74 131 21 24 105 42
13 172 48 78 136 226 151 224 169 236 233 153 216 33
10 39 185 34 129 222 89 159 149 237 95
10 188 83 152 177 71 241 17 138 179 208
10 9 59 85 117 82 52 92 134 205 173
8 170 4 20 135 145 32 76 104
9 112 167 161 187 56 79 0 98 144
11 55 245 242 40 29 171 49 210 199 211 25
9 110 31 50 209 168 65 217 219 234
9 116 91 207 127 158 150 214 119 11
10 142 80 123 57 190 58 84 128 198 10
7 8 109 178 81 18 121 143
8 195 7 197 1 36 23 212 223
10 125 28 235 70 180 99 181 193 133 246
11 230 101 107 113 175 164 38 73 194 249 201
7 238 86 229 68 87 189 218
10 146 62 184 140 30 182 96 108 47 240

Total makespan: 117

