10
25 75 122 218 60 233 217 27 207 197 171 31 79 193 13 247 8 240 37 82 176 113 226 129 213 249
29 127 34 170 219 12 158 125 112 149 63 120 52 15 80 139 39 116 72 22 58 175 192 68 123 94 134 114 180 14
26 245 194 17 0 178 211 145 198 7 133 203 227 73 174 135 239 93 196 124 205 70 204 182 33 53 9
23 55 121 221 104 103 195 225 146 11 101 57 163 223 85 188 190 215 248 10 30 199 132 119
20 164 183 160 50 162 38 147 92 155 224 238 107 19 137 222 165 141 202 212 185
29 216 201 77 143 200 69 235 106 126 47 40 179 244 49 67 56 150 168 24 229 90 220 177 241 242 208 191 36 109
23 234 95 87 142 187 169 128 97 83 108 65 184 20 231 173 98 42 84 76 25 110 71 117
26 28 161 138 214 159 131 86 89 61 246 5 228 4 232 6 172 115 140 209 3 23 237 210 62 157 96
28 54 41 105 130 167 189 206 166 18 32 44 99 26 152 78 16 21 151 46 2 111 66 236 91 154 51 81 243
21 136 35 118 48 43 74 45 59 144 88 64 29 148 102 186 181 156 153 1 100 230

Total makespan: 261

