15
17 196 5 130 110 54 236 118 69 109 102 201 181 219 160 153 128 36
14 51 190 239 87 249 100 47 99 23 28 124 203 39 59
18 141 229 115 60 14 85 2 179 112 9 94 12 166 187 13 149 19 168
16 175 11 111 24 167 204 225 56 248 101 158 79 211 52 232 98
20 213 222 157 192 119 191 71 66 116 164 170 46 74 123 57 180 193 205 188 151
17 86 243 20 31 108 76 237 242 78 41 150 34 30 189 134 62 140
15 21 83 42 138 1 93 230 147 126 120 215 103 228 106 7
11 199 144 240 198 48 217 197 202 241 218 200
19 165 173 3 246 50 53 177 37 70 185 127 10 49 176 125 77 4 182 33
14 104 0 58 117 91 161 234 132 95 64 183 216 44 68
13 55 155 38 25 27 17 212 122 171 26 224 154 152
17 32 148 121 22 223 129 178 162 105 214 235 186 8 114 15 169 172
20 6 210 43 156 73 207 96 97 18 88 40 135 159 145 206 184 107 131 113 143
22 247 208 81 82 226 45 35 133 137 146 92 65 238 209 221 195 75 90 61 163 142 63
17 67 220 139 29 84 72 244 89 227 194 16 245 80 233 231 174 136

Total makespan: 176

