10
27 102 120 12 244 208 123 56 122 236 227 174 195 191 159 47 14 249 139 152 63 85 160 220 58 36 7 219
25 184 205 22 222 21 43 72 178 70 196 134 206 170 187 202 171 44 9 2 10 13 51 103 0 97
21 167 238 189 138 55 194 111 52 169 173 73 15 107 248 34 162 137 53 198 141 239
27 241 100 38 148 197 132 228 98 80 45 166 95 96 131 41 240 190 17 91 42 116 82 136 50 226 129 114
28 140 218 112 60 127 157 92 109 29 163 54 210 75 199 200 67 113 104 46 211 237 59 142 143 106 130 28 115
26 225 40 128 48 149 245 25 164 176 221 87 172 81 4 231 118 89 217 183 168 133 135 125 188 35 230
22 215 76 33 247 27 37 66 153 110 62 18 84 209 57 88 69 65 243 8 233 213 223
25 32 108 19 1 145 90 207 186 68 212 181 179 126 182 31 99 232 121 83 23 30 193 101 154 146
29 203 11 147 175 161 26 24 105 201 74 71 156 20 155 165 158 177 246 229 79 242 77 6 216 192 234 235 3 94
20 16 64 49 93 5 119 61 151 144 150 117 204 224 214 185 180 86 124 39 78

Total makespan: 275

