25
10 212 88 71 202 166 85 24 158 72 200
11 196 198 153 148 113 93 160 168 16 236 54
8 48 50 90 105 82 47 207 53
11 107 149 84 162 163 140 116 210 241 164 186
10 244 23 119 43 182 181 218 45 193 95
12 42 127 79 214 77 185 110 216 98 92 234 219
12 101 235 14 170 68 86 199 228 21 94 215 221
11 230 1 237 17 62 97 126 64 195 211 34
8 89 51 229 123 242 106 184 134
13 4 99 76 222 36 73 192 20 63 114 78 25 246
10 40 61 152 12 146 7 209 201 226 67
10 249 121 131 204 139 178 133 37 183 194
11 33 208 247 151 223 137 233 8 132 171 136
7 248 10 174 91 109 52 144
9 58 154 59 60 120 3 83 69 135
11 103 104 0 243 177 6 156 9 65 22 238
6 15 111 70 145 35 161
9 5 28 217 18 175 147 118 41 122
6 197 188 187 102 165 117
9 240 31 245 96 224 225 227 173 38
14 179 55 11 128 206 2 189 49 239 80 150 213 100 19
13 30 169 87 205 125 66 155 57 129 130 74 138 108
9 13 220 190 29 159 143 203 115 44
10 176 157 180 232 32 27 112 75 172 191
10 124 46 81 26 56 39 167 141 142 231

Total makespan: 58

