10
25 195 90 128 193 0 234 103 22 226 23 14 68 44 100 106 29 245 105 132 43 163 32 214 144 182
29 108 198 211 15 170 71 67 229 238 215 42 161 117 185 246 36 35 186 47 66 247 155 184 10 76 150 156 168 123
25 172 136 167 130 4 164 61 109 1 98 79 196 26 16 21 171 201 31 133 33 84 131 2 153 147
18 12 191 249 24 248 78 3 241 169 49 162 115 200 5 190 25 88 207
26 8 225 45 65 205 199 77 143 236 222 87 224 174 134 158 227 146 175 237 7 59 125 30 54 160 53
27 197 52 63 178 72 187 101 202 188 181 57 18 220 112 91 180 99 189 232 121 95 60 152 242 38 223 111
24 235 124 58 173 208 116 83 206 19 122 41 119 110 80 114 93 244 69 221 159 48 231 166 70
26 135 73 212 183 154 86 129 11 27 39 219 157 137 120 239 140 92 148 50 233 217 177 138 34 141 210
24 145 151 142 203 94 127 243 209 62 176 216 149 102 74 179 81 213 204 75 165 37 228 9 17
26 51 192 56 139 28 230 97 126 218 13 89 113 40 104 64 96 46 55 85 118 194 107 6 240 82 20

Total makespan: 414

