25
12 117 20 104 112 71 138 218 116 217 121 155 174
9 145 29 231 147 226 41 34 189 149
8 19 5 236 66 56 146 133 181
8 13 235 94 195 162 23 137 141
7 128 96 53 122 100 200 232
11 142 223 135 130 83 158 2 171 84 57 87
12 249 98 197 99 176 74 237 136 45 51 16 190
10 11 62 7 230 172 103 199 159 101 194
7 225 206 58 92 129 186 184
12 114 219 76 48 140 55 157 123 24 212 124 90
10 37 52 148 102 78 93 86 64 69 54
11 88 38 115 42 81 166 227 170 89 182 12
9 127 30 67 154 160 32 82 169 14
11 9 68 118 108 97 204 221 131 106 25 202
11 1 213 244 238 8 26 143 132 208 163 153
13 229 31 203 49 222 201 240 85 214 248 33 59 61
14 80 215 183 47 134 241 192 196 28 211 198 95 234 161
9 17 228 77 150 209 188 40 151 44
7 4 156 239 216 139 233 175
12 245 247 144 152 126 193 243 6 164 205 39 70
7 109 79 180 168 60 191 91
9 15 224 210 110 3 63 207 65 0
10 178 165 75 173 73 113 246 220 43 179
13 125 187 72 35 120 177 36 111 105 18 119 107 21
8 10 185 46 242 27 22 50 167

Total makespan: 122

