25
10 219 239 173 127 153 206 238 168 25 188
11 191 178 143 192 231 162 49 136 40 7 103
9 237 64 107 109 19 10 88 201 87
11 13 56 39 247 74 227 160 21 50 28 177
6 144 14 37 31 185 198
9 34 62 131 186 57 124 82 102 148
13 175 205 233 120 232 68 208 125 119 156 193 18 59
12 189 235 240 29 90 220 207 145 154 141 86 113
11 164 149 5 221 172 134 84 176 43 246 224
8 89 60 165 105 46 138 72 115
12 211 30 33 35 225 129 203 135 133 152 179 146
8 15 76 6 209 214 244 155 38
7 53 11 55 234 42 181 12
7 44 83 194 122 174 150 48
7 2 54 197 157 126 182 222
11 1 217 97 80 63 47 216 204 159 142 169
12 161 58 241 95 32 139 140 81 199 242 218 123
9 121 96 51 98 249 27 151 20 4
10 108 171 93 195 91 112 190 167 215 71
12 16 111 183 210 226 78 212 23 116 17 170 200
10 180 118 184 41 130 24 117 8 45 163
9 196 230 94 75 223 36 100 77 114
12 147 92 26 22 187 110 213 166 3 132 128 99
13 61 158 69 73 243 70 104 228 66 67 9 106 101
11 137 248 245 202 0 229 236 79 52 85 65

Total makespan: 89

