15
17 232 27 97 164 1 66 228 162 165 209 239 230 8 77 129 104 144
13 247 70 101 246 99 149 100 145 59 61 51 21 112
19 6 226 120 44 244 233 105 171 25 68 168 37 235 207 79 131 138 113 181
14 175 38 194 173 96 102 60 47 128 73 28 176 188 187
14 166 153 72 67 76 204 26 114 89 243 150 83 211 81
14 177 115 46 219 183 35 124 31 152 87 2 222 4 139
19 49 174 213 10 242 117 118 43 229 42 126 205 111 108 93 19 214 0 109
16 237 12 63 32 136 199 11 220 29 172 116 215 193 148 33 130
17 5 53 191 18 170 195 146 236 57 55 142 125 133 22 88 218 210
19 7 48 94 231 147 90 134 156 20 86 234 91 24 179 248 224 155 95 208
18 189 182 110 13 151 223 36 39 157 103 84 62 154 40 45 85 160 98
18 163 240 201 80 185 54 14 184 192 241 74 197 106 158 135 3 137 198
14 196 206 249 41 107 221 56 186 78 200 58 178 159 190
16 180 238 203 245 227 143 82 121 64 9 15 122 217 52 127 16
22 169 167 132 17 225 212 75 140 92 69 119 216 123 161 65 71 23 202 50 141 30 34

Total makespan: 223

