30
10 238 159 244 127 48 82 8 194 163 38
10 105 39 197 214 1 201 154 207 199 140
10 67 184 24 138 139 93 58 240 130 170
5 142 59 172 20 228
9 187 7 95 87 113 134 85 202 210
7 63 171 144 203 235 122 246
8 107 239 91 123 191 195 141 57
9 4 162 27 40 213 218 19 70 143
9 35 119 33 49 169 110 249 234 72
7 41 22 25 94 174 109 10
10 168 220 155 137 66 193 74 211 23 5
6 178 12 146 30 90 150
10 14 212 145 102 189 65 62 180 196 54
8 18 229 204 84 231 68 164 99
6 226 248 111 3 73 205
12 176 166 29 136 121 50 152 83 46 60 96 106
9 37 97 108 2 47 43 77 190 167
6 225 76 100 52 151 78
7 245 125 120 241 132 219 183
8 13 186 209 200 15 223 128 124
7 217 112 6 179 237 116 133
11 215 233 69 149 148 175 104 115 51 160 177
10 28 92 165 182 131 126 156 42 117 44
7 45 118 88 9 56 81 208
6 103 157 222 101 135 89
10 75 0 230 31 80 221 188 216 53 153
9 158 242 114 79 232 55 181 227 192
9 243 129 185 26 16 64 11 17 36
8 98 71 247 34 32 147 21 61
7 224 161 198 236 206 173 86

Total makespan: 68

