20
11 117 185 170 236 102 190 162 172 228 202 28
10 201 152 93 212 80 101 147 26 222 68
15 200 73 221 57 235 109 49 139 132 29 46 196 186 180 205
13 138 153 96 52 83 178 154 112 238 176 149 213 192
12 62 239 179 215 8 47 163 151 70 3 184 164
13 198 144 160 37 123 120 246 230 98 74 204 124 133
15 158 191 42 128 67 91 247 86 121 233 146 116 21 197 84
8 106 181 95 18 188 242 17 155
12 243 40 6 135 126 107 59 33 89 209 90 166
13 145 189 224 78 206 229 183 24 245 219 22 182 174
12 210 150 156 194 30 240 130 177 5 92 50 214
11 82 81 195 216 64 175 187 227 113 118 167
10 169 4 161 134 114 41 226 16 69 75
13 237 241 104 103 159 23 115 77 43 31 199 25 211
13 105 157 137 223 45 129 63 7 65 66 61 85 94
17 119 244 58 2 100 111 87 140 72 53 35 99 108 79 136 32 36
12 9 39 110 1 56 15 76 55 34 97 141 27
16 11 171 232 249 207 127 48 13 165 217 220 88 19 20 248 60
13 10 142 51 203 38 12 173 131 143 234 71 148 44
11 168 14 218 193 225 54 0 208 231 122 125

Total makespan: 126

