20
2 6 30
3 7 41 20
2 28 42
3 15 1 16
2 32 25
3 22 8 40
3 18 3 11
2 24 5
4 2 19 14 33
1 36
3 27 46 43
2 0 29
4 38 37 13 44
3 47 17 48
1 39
2 35 26
2 4 49
4 34 9 21 45
2 12 10
2 23 31

Total makespan: 46

