25
2 8 23
1 25
1 0
1 40
2 35 36
2 6 22
1 37
3 46 33 10
3 5 16 44
3 32 4 24
2 29 31
2 7 2
1 3
2 19 28
1 42
2 43 45
2 41 38
1 47
3 15 13 30
3 20 39 34
2 27 48
3 26 21 1
1 9
3 14 11 18
3 12 49 17

Total makespan: 32

