25
2 28 1
2 43 2
2 14 23
2 29 33
1 7
2 37 19
2 5 44
1 16
2 45 35
2 12 20
2 11 18
2 40 27
4 38 30 9 10
2 22 42
3 4 47 24
1 3
2 0 21
2 32 17
2 48 49
1 25
2 36 26
2 34 15
3 6 46 41
2 8 13
2 31 39

Total makespan: 26

