20
3 27 33 17
3 1 16 35
1 22
2 40 19
2 23 43
2 49 8
1 47
2 21 26
3 10 25 2
4 39 42 38 44
3 4 13 15
3 0 48 24
3 3 32 46
2 9 12
2 31 28
3 29 30 5
2 45 14
3 34 7 6
3 20 18 11
3 41 37 36

Total makespan: 39

