20
3 35 40 25
2 37 44
3 23 24 22
3 30 43 11
3 39 8 32
4 36 41 29 48
1 10
3 20 28 19
2 21 4
3 33 15 16
2 13 27
3 1 46 42
2 12 14
2 7 49
4 45 5 34 38
1 3
2 0 17
3 47 26 2
2 6 31
2 9 18

Total makespan: 40

