20
2 45 2
3 21 39 13
3 6 28 14
3 12 22 0
2 49 42
2 1 44
3 36 38 23
2 8 11
2 47 34
2 37 20
2 31 43
3 26 40 9
3 29 46 15
1 41
2 27 33
3 7 48 32
3 24 19 25
3 5 4 30
2 18 35
4 3 10 17 16

Total makespan: 40

