30
1 46
2 20 41
3 19 13 40
1 21
1 33
3 2 9 32
1 11
2 42 22
1 39
2 47 37
1 10
2 38 45
1 43
1 49
2 24 34
3 23 6 31
2 27 18
1 35
1 30
1 15
1 8
2 48 3
1 16
2 12 5
2 26 0
3 4 14 36
2 28 25
3 1 44 17
1 29
1 7

Total makespan: 18

