15
11 80 104 94 40 132 15 128 125 50 99 62
16 19 112 100 55 13 113 142 66 72 29 90 147 70 81 131 117
8 41 28 37 85 9 134 26 138
15 89 34 48 114 44 51 136 49 0 145 118 27 98 36 82
9 45 31 87 133 140 1 130 22 97
10 79 88 65 46 102 8 144 24 109 73
5 96 3 95 93 146
8 30 141 39 38 91 148 4 77
10 14 143 116 6 53 83 101 121 61 78
8 68 11 64 111 60 59 105 76
6 127 16 2 108 110 21
10 75 67 43 135 5 120 7 139 17 47
16 107 58 106 23 103 32 126 57 33 56 63 71 86 123 124 52
10 20 149 74 18 69 92 12 10 42 122
8 115 25 119 129 84 137 35 54

Total makespan: 265

