25
0 
0 
0 
0 
0 
0 
0 
0 
0 
0 
0 
0 
0 
0 
0 
0 
0 
0 
0 
0 
0 
0 
0 
0 
200 173 187 3 38 88 160 126 170 0 30 34 151 7 193 37 107 196 9 86 110 104 124 167 155 56 129 197 195 68 8 108 145 157 150 33 106 47 4 111 59 11 12 26 169 51 118 97 65 81 131 120 176 130 45 75 103 147 10 140 95 28 153 154 6 121 101 141 163 171 15 91 48 80 158 165 137 172 181 18 189 85 96 53 93 71 128 113 43 188 112 39 109 55 161 99 198 142 125 134 166 117 184 179 191 23 94 22 127 116 122 64 149 2 58 60 132 177 76 143 164 159 24 156 119 192 84 146 100 13 136 44 139 194 52 98 89 67 77 79 5 72 19 31 114 180 1 182 21 168 35 46 36 185 74 83 17 115 144 190 82 78 16 49 69 41 186 50 70 73 62 66 178 42 87 90 199 183 61 102 40 27 63 162 138 20 135 174 54 152 148 14 29 25 133 175 57 123 32 105 92

Total makespan: 10332

