10
18 22 187 155 181 35 189 196 136 66 33 10 167 56 123 75 164 29 41
16 191 148 59 99 45 90 176 106 12 15 11 131 36 46 197 28
19 118 161 101 74 23 173 47 105 151 198 163 31 85 55 171 110 76 68 157
25 132 0 147 71 82 141 117 5 64 150 65 88 193 172 144 145 127 44 38 89 96 25 43 3 107
20 63 51 17 183 27 120 72 67 142 119 178 30 7 73 135 58 6 1 137 92
20 78 48 153 152 156 126 40 98 79 53 125 50 111 184 77 170 102 149 174 124
21 19 60 62 121 108 185 81 39 61 34 57 116 160 128 83 159 179 113 166 115 94
18 13 143 140 37 146 86 8 100 49 138 165 158 195 26 122 139 130 93
24 169 186 175 54 180 162 182 24 97 69 154 188 194 199 91 168 192 9 42 2 21 52 134 84
19 14 104 70 129 20 190 103 109 80 32 114 133 4 16 112 87 95 177 18

Total makespan: 246

