25
9 170 199 42 31 233 120 54 181 212
10 159 56 223 190 149 211 225 180 138 83
11 1 218 36 50 130 61 0 115 240 141 9
9 195 202 176 230 129 182 187 217 146
12 242 203 191 169 67 229 108 102 244 228 85 37
10 101 114 111 200 140 73 81 133 232 94
9 15 62 55 53 241 26 106 209 68
8 84 58 14 171 185 95 196 173
12 51 215 41 162 57 247 119 207 86 16 178 21
11 29 69 164 222 82 3 98 243 59 172 77
9 32 148 88 136 33 239 76 117 165
10 156 135 197 179 75 90 167 235 43 10
11 22 23 155 45 192 112 72 46 96 7 118
8 93 11 152 6 183 97 186 128
8 38 49 157 154 161 166 28 70
13 99 34 213 2 139 17 92 125 40 143 194 204 246
11 104 24 151 100 4 248 8 25 234 123 12
10 236 63 219 18 145 175 205 5 132 198
12 208 105 189 39 78 74 20 184 249 13 237 206
7 66 214 44 116 110 122 103
13 60 79 64 48 193 124 227 177 126 127 131 238 109
10 160 153 226 147 201 52 121 113 168 27
8 65 210 19 245 174 80 134 91
10 158 231 188 150 35 47 221 71 216 224
9 137 107 87 220 89 142 144 30 163

Total makespan: 130

