10
19 66 135 69 96 64 121 72 106 110 58 59 7 145 144 3 128 2 24 26
14 71 116 0 48 68 103 43 53 101 60 54 32 86 118
17 134 122 138 132 137 119 34 73 14 91 19 125 147 8 114 109 129
11 89 36 40 113 81 45 74 123 79 120 88
13 38 33 140 12 47 5 75 41 65 85 133 52 57
13 23 139 11 99 16 141 115 18 31 46 63 87 148
18 83 97 131 136 104 15 50 17 127 51 1 42 107 146 84 56 76 108
18 117 39 143 149 20 92 67 130 124 111 37 105 78 142 62 98 35 21
13 93 27 70 25 61 102 29 95 9 94 49 6 112
14 77 22 13 82 4 90 10 28 30 55 100 126 44 80

Total makespan: 246
