20
7 51 29 40 44 76 81 99
6 8 85 67 68 9 -1
4 18 98 93 7
5 72 2 16 11 15
1 88
6 84 34 1 21 71 10
3 64 54 91
2 75 96
4 19 42 17 27
3 77 43 78
5 38 87 65 80 50
5 61 55 3 63 5
4 30 45 48 82
4 31 89 97 62
3 94 26 22
3 59 14 49
2 52 53
2 39 79
2 35 57
6 12 66 28 90 24 74

Total makespan: 73

20
7 51 29 40 44 76 81 99
6 8 85 67 68 9 -1
4 18 98 93 7
5 72 2 16 11 15
1 88
6 84 34 1 21 71 10
3 64 54 91
2 75 96
4 19 42 17 27
3 77 43 78
5 38 87 65 80 50
5 61 55 3 63 5
4 30 45 48 82
4 31 89 97 62
3 94 26 22
3 59 14 49
2 52 53
2 39 79
2 35 57
6 12 66 28 90 24 74

Total makespan: 73

20
7 51 29 40 44 76 81 99
6 8 85 67 68 9 -1
4 18 98 93 7
5 72 2 16 11 15
1 88
6 84 34 1 21 71 10
3 64 54 91
2 75 96
4 19 42 17 27
3 77 43 78
5 38 87 65 80 50
5 61 55 3 63 5
4 30 45 48 82
4 31 89 97 62
3 94 26 22
3 59 14 49
2 52 53
2 39 79
2 35 57
6 12 66 28 90 24 74

Total makespan: 73

20
7 51 29 40 44 76 81 99
6 8 85 67 68 9 -1
4 18 98 93 7
5 72 2 16 11 15
1 88
6 84 34 1 21 71 10
3 64 54 91
2 75 96
4 19 42 17 27
3 77 43 78
5 38 87 65 80 50
5 61 55 3 63 5
4 30 45 48 82
4 31 89 97 62
3 94 26 22
3 59 14 49
2 52 53
2 39 79
2 35 57
6 12 66 28 90 24 74

Total makespan: 73

20
7 51 29 40 44 76 81 99
6 8 85 67 68 9 -1
4 18 98 93 7
5 72 2 16 11 15
1 88
6 84 34 1 21 71 10
3 64 54 91
2 75 96
4 19 42 17 27
3 77 43 78
5 38 87 65 80 50
5 61 55 3 63 5
4 30 45 48 82
4 31 89 97 62
3 94 26 22
3 59 14 49
2 52 53
2 39 79
2 35 57
6 12 66 28 90 24 74

Total makespan: 73

20
7 29 40 44 51 76 81 99
5 8 9 67 68 85
4 7 18 93 98
5 2 11 15 16 72
5 13 47 58 70 88
6 1 10 21 34 71 84
3 54 64 91
4 60 75 86 96
6 17 19 27 42 46 69
6 36 43 56 73 77 78
5 38 50 65 80 87
5 3 5 55 61 63
4 30 45 48 82
4 31 62 89 97
6 20 22 25 26 32 94
5 14 23 41 49 59
4 33 52 53 83
5 0 4 39 79 95
5 6 35 37 57 92
6 12 24 28 66 74 90

Total makespan: 73

20
7 29 40 44 51 76 81 99
5 8 9 67 68 85
4 7 18 93 98
5 2 11 15 16 72
5 13 47 58 70 88
6 1 10 21 34 71 84
3 54 64 91
4 60 75 86 96
6 17 19 27 42 46 69
6 36 43 56 73 77 78
5 38 50 65 80 87
5 3 5 55 61 63
4 30 45 48 82
4 31 62 89 97
6 20 22 25 26 32 94
5 14 23 41 49 59
4 33 52 53 83
5 0 4 39 79 95
5 6 35 37 57 92
6 12 24 28 66 74 90

Total makespan: 73

20
7 29 40 44 51 76 81 99
5 8 9 67 68 85
4 7 18 93 98
5 2 11 15 16 72
5 13 47 58 70 88
6 1 10 21 34 71 84
3 54 64 91
4 60 75 86 96
6 17 19 27 42 46 69
6 36 43 56 73 77 78
5 38 50 65 80 87
5 3 5 55 61 63
4 30 45 48 82
4 31 62 89 97
6 20 22 25 26 32 94
5 14 23 41 49 59
4 33 52 53 83
5 0 4 39 79 95
5 6 35 37 57 92
6 12 24 28 66 74 90

Total makespan: 73

20
7 51 29 40 44 76 81 99
5 8 85 67 68 9
4 18 98 93 7
5 72 2 16 11 15
5 88 47 58 13 70
6 84 34 1 21 71 10
3 64 54 91
4 75 96 60 86
6 69 46 19 42 17 27
6 56 36 73 77 43 78
5 38 87 65 80 50
5 61 55 3 63 5
4 30 45 48 82
4 31 89 97 62
6 94 26 22 25 32 20
5 23 41 59 14 49
4 33 83 52 53
5 39 79 95 4 0
5 35 57 37 92 6
6 12 66 28 90 24 74

Total makespan: 105

20
6 3 19 40 44 76 81
5 8 85 67 68 22
4 93 7 78 52
6 37 72 2 16 11 15
5 46 47 58 13 70
7 5 10 84 34 1 21 71
3 64 54 91
5 53 96 79 86 60
6 42 17 27 98 18 82
5 56 36 73 77 43
6 9 0 38 87 65 80
5 41 61 55 75 88
4 48 30 45 26
6 31 89 51 97 62 25
7 6 4 99 20 12 49 94
3 23 59 14
4 66 83 33 50
3 29 39 95
4 92 63 35 57
6 24 28 90 32 69 74

Total makespan: 86

20
4 51 33 81 13
4 67 5 9 30
6 93 68 20 78 70 18
2 72 15
2 85 58
6 49 34 99 10 84 21
13 44 7 76 19 8 71 94 54 91 59 65 64 22
3 86 53 96
4 17 27 46 82
13 28 69 77 43 83 73 56 36 25 37 87 32 61
5 40 0 38 80 3
1 55
5 45 90 60 79 88
4 97 31 89 92
2 6 1
7 23 41 14 47 48 12 95
5 66 16 50 62 52
8 42 57 63 75 4 11 29 39
3 98 2 35
3 24 74 26

Total makespan: 368

20
6 3 19 40 44 76 81
5 8 85 67 68 22
4 93 7 78 52
6 37 72 2 16 11 15
5 46 47 58 13 70
7 5 10 84 34 1 21 71
3 64 54 91
5 53 96 79 86 60
6 42 17 27 98 18 82
5 56 36 73 77 43
6 9 0 38 87 65 80
5 41 61 55 75 88
4 48 30 45 26
6 31 89 51 97 62 25
7 6 4 99 20 12 49 94
3 23 59 14
4 66 83 33 50
3 29 39 95
4 92 63 35 57
6 24 28 90 32 69 74

Total makespan: 86

20
6 3 19 40 44 76 81
5 8 85 67 68 22
4 93 7 78 52
6 37 72 2 16 11 15
5 46 47 58 13 70
7 5 10 84 34 1 21 71
3 64 54 91
5 53 96 79 86 60
6 42 17 27 98 18 82
5 56 36 73 77 43
6 9 0 38 87 65 80
5 41 61 55 75 88
4 48 30 45 26
6 31 89 51 97 62 25
7 6 4 99 20 12 49 94
3 23 59 14
4 66 83 33 50
3 29 39 95
4 92 63 35 57
6 24 28 90 32 69 74

Total makespan: 86

