25
11 167 46 120 9 98 130 164 138 95 115 -1
7 36 148 161 178 44 68 22
3 30 157 70
5 56 72 93 121 63
3 5 103 71
3 171 58 67
4 50 21 154 85
6 59 61 99 132 11 60
4 38 79 118 112
2 116 150
5 170 31 54 17 195
5 104 33 147 188 199
3 88 110 119
10 76 78 187 174 176 2 158 57 159 183
2 197 16
3 83 141 48
1 65
9 15 168 136 35 108 62 143 155 151
8 75 89 145 114 26 55 42 125
5 124 126 49 160 86
2 111 196
1 181
1 198
5 13 152 194 137 191
5 106 47 90 186 129

Total makespan: 109

25
11 167 46 120 9 98 130 164 138 95 115 -1
7 36 148 161 178 44 68 22
3 30 157 70
5 56 72 93 121 63
3 5 103 71
3 171 58 67
4 50 21 154 85
6 59 61 99 132 11 60
4 38 79 118 112
2 116 150
5 170 31 54 17 195
5 104 33 147 188 199
3 88 110 119
10 76 78 187 174 176 2 158 57 159 183
2 197 16
3 83 141 48
1 65
9 15 168 136 35 108 62 143 155 151
8 75 89 145 114 26 55 42 125
5 124 126 49 160 86
2 111 196
1 181
1 198
5 13 152 194 137 191
5 106 47 90 186 129

Total makespan: 109

25
11 167 46 120 9 98 130 164 138 95 115 -1
7 36 148 161 178 44 68 22
3 30 157 70
5 56 72 93 121 63
3 5 103 71
3 171 58 67
4 50 21 154 85
6 59 61 99 132 11 60
4 38 79 118 112
2 116 150
5 170 31 54 17 195
5 104 33 147 188 199
3 88 110 119
10 76 78 187 174 176 2 158 57 159 183
2 197 16
3 83 141 48
1 65
9 15 168 136 35 108 62 143 155 151
8 75 89 145 114 26 55 42 125
5 124 126 49 160 86
2 111 196
1 181
1 198
5 13 152 194 137 191
5 106 47 90 186 129

Total makespan: 109

25
11 167 46 120 9 98 130 164 138 95 115 -1
7 36 148 161 178 44 68 22
3 30 157 70
5 56 72 93 121 63
3 5 103 71
3 171 58 67
4 50 21 154 85
6 59 61 99 132 11 60
4 38 79 118 112
2 116 150
5 170 31 54 17 195
5 104 33 147 188 199
3 88 110 119
10 76 78 187 174 176 2 158 57 159 183
2 197 16
3 83 141 48
1 65
9 15 168 136 35 108 62 143 155 151
8 75 89 145 114 26 55 42 125
5 124 126 49 160 86
2 111 196
1 181
1 198
5 13 152 194 137 191
5 106 47 90 186 129

Total makespan: 109

25
10 9 46 95 98 115 120 130 138 164 167
9 22 36 41 44 68 123 148 161 178
7 0 4 14 30 70 134 157
9 29 56 63 72 74 93 121 131 190
8 5 27 71 94 96 103 169 184
8 18 34 58 67 77 117 139 171
11 1 19 21 50 85 105 154 156 165 175 192
8 11 59 60 61 99 100 132 135
10 38 45 51 79 80 84 112 118 128 189
6 8 40 69 91 116 150
7 17 31 54 113 127 170 195
9 33 43 52 73 104 109 147 188 199
6 3 7 88 110 119 166
10 2 57 76 78 158 159 174 176 183 187
5 16 107 146 185 197
9 23 24 37 48 81 83 141 144 193
8 6 10 65 66 92 102 142 163
9 15 35 62 108 136 143 151 155 168
8 26 42 55 75 89 114 125 145
7 49 53 86 124 126 160 180
7 12 32 39 111 149 153 196
6 20 28 97 140 162 181
7 64 82 122 173 179 182 198
7 13 101 137 152 177 191 194
9 25 47 87 90 106 129 133 172 186

Total makespan: 74

25
10 9 46 95 98 115 120 130 138 164 167
9 22 36 41 44 68 123 148 161 178
7 0 4 14 30 70 134 157
9 29 56 63 72 74 93 121 131 190
8 5 27 71 94 96 103 169 184
8 18 34 58 67 77 117 139 171
11 1 19 21 50 85 105 154 156 165 175 192
8 11 59 60 61 99 100 132 135
10 38 45 51 79 80 84 112 118 128 189
6 8 40 69 91 116 150
7 17 31 54 113 127 170 195
9 33 43 52 73 104 109 147 188 199
6 3 7 88 110 119 166
10 2 57 76 78 158 159 174 176 183 187
5 16 107 146 185 197
9 23 24 37 48 81 83 141 144 193
8 6 10 65 66 92 102 142 163
9 15 35 62 108 136 143 151 155 168
8 26 42 55 75 89 114 125 145
7 49 53 86 124 126 160 180
7 12 32 39 111 149 153 196
6 20 28 97 140 162 181
7 64 82 122 173 179 182 198
7 13 101 137 152 177 191 194
9 25 47 87 90 106 129 133 172 186

Total makespan: 74

25
10 9 46 95 98 115 120 130 138 164 167
9 22 36 41 44 68 123 148 161 178
7 0 4 14 30 70 134 157
9 29 56 63 72 74 93 121 131 190
8 5 27 71 94 96 103 169 184
8 18 34 58 67 77 117 139 171
11 1 19 21 50 85 105 154 156 165 175 192
8 11 59 60 61 99 100 132 135
10 38 45 51 79 80 84 112 118 128 189
6 8 40 69 91 116 150
7 17 31 54 113 127 170 195
9 33 43 52 73 104 109 147 188 199
6 3 7 88 110 119 166
10 2 57 76 78 158 159 174 176 183 187
5 16 107 146 185 197
9 23 24 37 48 81 83 141 144 193
8 6 10 65 66 92 102 142 163
9 15 35 62 108 136 143 151 155 168
8 26 42 55 75 89 114 125 145
7 49 53 86 124 126 160 180
7 12 32 39 111 149 153 196
6 20 28 97 140 162 181
7 64 82 122 173 179 182 198
7 13 101 137 152 177 191 194
9 25 47 87 90 106 129 133 172 186

Total makespan: 74

25
10 46 9 98 130 164 138 120 167 95 115
9 148 161 178 44 68 22 36 41 123
7 4 134 30 157 70 0 14
9 56 72 93 121 29 74 190 131 63
8 71 184 27 94 5 103 96 169
8 139 18 171 58 67 117 77 34
11 192 156 165 19 175 1 105 50 21 154 85
8 99 59 61 135 100 132 11 60
10 38 79 118 112 189 45 84 80 128 51
6 8 91 69 40 116 150
7 170 31 54 113 127 17 195
9 104 33 147 188 199 73 109 52 43
6 88 110 7 3 166 119
10 176 2 158 57 159 183 187 174 76 78
5 197 185 107 146 16
9 193 23 83 141 144 37 24 81 48
8 65 92 163 10 66 102 142 6
9 15 168 136 35 108 62 143 155 151
8 75 89 145 114 26 55 42 125
7 124 53 180 86 49 160 126
7 39 32 149 153 111 196 12
6 20 140 97 181 28 162
7 198 173 182 82 179 64 122
7 13 152 194 101 177 137 191
9 106 133 25 172 87 47 90 186 129

Total makespan: 98

25
10 44 130 164 138 120 167 91 48 95 115
9 13 36 148 161 178 191 20 68 22
10 157 14 102 135 149 159 195 4 154 0
7 93 74 190 25 85 121 63
8 169 88 5 23 94 184 27 71
7 34 49 171 18 117 77 56
10 165 19 150 175 192 46 1 105 50 21
8 11 60 114 156 198 61 99 59
11 189 128 51 84 80 79 66 38 30 147 67
6 69 182 17 177 8 129
6 170 31 54 145 113 127
9 188 199 73 116 126 104 33 100 43
5 58 110 7 3 166
11 176 2 158 109 29 45 183 187 174 76 78
7 185 107 197 16 96 144 134
7 83 141 37 24 162 146 81
10 142 6 41 118 10 52 65 193 92 163
9 35 108 62 143 155 47 15 168 151
5 70 42 125 139 75
8 160 86 132 180 119 89 124 53
7 9 153 39 32 111 196 12
7 140 97 181 103 72 28 55
7 82 179 64 122 173 136 133
6 152 194 137 98 101 40
10 131 112 172 57 123 26 87 90 186 106

Total makespan: 81

25
10 44 130 164 138 120 167 91 48 95 115
9 13 36 148 161 178 191 20 68 22
10 157 14 102 135 149 159 195 4 154 0
7 93 74 190 25 85 121 63
8 169 88 5 23 94 184 27 71
7 34 49 171 18 117 77 56
10 165 19 150 175 192 46 1 105 50 21
8 11 60 114 156 198 61 99 59
11 189 128 51 84 80 79 66 38 30 147 67
6 69 182 17 177 8 129
6 170 31 54 145 113 127
9 188 199 73 116 126 104 33 100 43
5 58 110 7 3 166
11 176 2 158 109 29 45 183 187 174 76 78
7 185 107 197 16 96 144 134
7 83 141 37 24 162 146 81
10 142 6 41 118 10 52 65 193 92 163
9 35 108 62 143 155 47 15 168 151
5 70 42 125 139 75
8 160 86 132 180 119 89 124 53
7 9 153 39 32 111 196 12
7 140 97 181 103 72 28 55
7 82 179 64 122 173 136 133
6 152 194 137 98 101 40
10 131 112 172 57 123 26 87 90 186 106

Total makespan: 81

25
10 44 130 164 138 120 167 91 48 95 115
9 13 36 148 161 178 191 20 68 22
10 157 14 102 135 149 159 195 4 154 0
7 93 74 190 25 85 121 63
8 169 88 5 23 94 184 27 71
7 34 49 171 18 117 77 56
10 165 19 150 175 192 46 1 105 50 21
8 11 60 114 156 198 61 99 59
11 189 128 51 84 80 79 66 38 30 147 67
6 69 182 17 177 8 129
6 170 31 54 145 113 127
9 188 199 73 116 126 104 33 100 43
5 58 110 7 3 166
11 176 2 158 109 29 45 183 187 174 76 78
7 185 107 197 16 96 144 134
7 83 141 37 24 162 146 81
10 142 6 41 118 10 52 65 193 92 163
9 35 108 62 143 155 47 15 168 151
5 70 42 125 139 75
8 160 86 132 180 119 89 124 53
7 9 153 39 32 111 196 12
7 140 97 181 103 72 28 55
7 82 179 64 122 173 136 133
6 152 194 137 98 101 40
10 131 112 172 57 123 26 87 90 186 106

Total makespan: 81

