30
2 44 48
1 27
2 31 26
1 16
1 37
2 33 43
1 21
2 38 35
1 1
1 46
1 9
2 30 45
2 29 22
3 49 7 15
2 2 4
2 41 3
2 19 34
1 8
3 32 10 25
1 0
2 20 39
2 5 13
2 6 42
2 17 11
1 12
3 18 36 28
1 47
1 40
2 23 14
1 24

Total makespan: 22

