Instance....: instances/I_100_15_S_1-49_4.txt
Algorithm...: Simulated Annealing (alpha=0.990, saMax=10M, t0=1)
Other params: maxIters=100M, seed=4, timeLimit=360.00s

    /--------------------------------------------------------\
    |     Iter |   RDP(%) |       S* |       S' |       Time | 
    |----------|----------|----------|----------|------------|
    |        0 |        - |      701 |      701 |       0.00 | s0
    |        0 |        - |      685 |      685 |       0.00 | *
    |        2 |        - |      682 |      682 |       0.00 | *
    |        3 |        - |      660 |      660 |       0.01 | *
    |        8 |        - |      655 |      655 |       0.02 | *
    |       10 |        - |      642 |      642 |       0.02 | *
    |       11 |        - |      622 |      622 |       0.03 | *
    |       14 |        - |      595 |      595 |       0.03 | *
    |       15 |        - |      585 |      585 |       0.03 | *
    |       16 |        - |      583 |      583 |       0.03 | *
    |       20 |        - |      576 |      576 |       0.03 | *
    |       24 |        - |      566 |      566 |       0.03 | *
    |       26 |        - |      554 |      554 |       0.03 | *
    |       27 |        - |      547 |      547 |       0.03 | *
    |       28 |        - |      543 |      543 |       0.03 | *
    |       30 |        - |      526 |      526 |       0.03 | *
    |       34 |        - |      505 |      505 |       0.03 | *
    |       36 |        - |      501 |      501 |       0.03 | *
    |       41 |        - |      497 |      497 |       0.03 | *
    |       51 |        - |      496 |      496 |       0.03 | *
    |       52 |        - |      491 |      491 |       0.03 | *
    |       65 |        - |      481 |      481 |       0.03 | *
    |       69 |        - |      455 |      455 |       0.03 | *
    |       74 |        - |      453 |      453 |       0.04 | *
    |       81 |        - |      446 |      446 |       0.04 | *
    |       82 |        - |      442 |      442 |       0.04 | *
    |       94 |        - |      423 |      423 |       0.04 | *
    |      101 |        - |      420 |      420 |       0.04 | *
    |      106 |        - |      413 |      413 |       0.04 | *
    |      119 |        - |      411 |      411 |       0.04 | *
    |      124 |        - |      407 |      407 |       0.04 | *
    |      144 |        - |      404 |      404 |       0.04 | *
    |      145 |        - |      403 |      403 |       0.04 | *
    |      161 |        - |      402 |      402 |       0.04 | *
    |      166 |        - |      392 |      392 |       0.04 | *
    |      184 |        - |      390 |      390 |       0.04 | *
    |      186 |        - |      389 |      389 |       0.04 | *
    |      188 |        - |      386 |      386 |       0.04 | *
    |      191 |        - |      377 |      377 |       0.04 | *
    |      194 |        - |      374 |      374 |       0.04 | *
    |      201 |        - |      364 |      364 |       0.04 | *
    |      210 |        - |      360 |      360 |       0.04 | *
    |      227 |        - |      359 |      359 |       0.04 | *
    |      235 |        - |      356 |      356 |       0.04 | *
    |      241 |        - |      355 |      355 |       0.05 | *
    |      268 |        - |      351 |      351 |       0.05 | *
    |      285 |        - |      349 |      349 |       0.05 | *
    |      293 |        - |      348 |      348 |       0.05 | *
    |      299 |        - |      347 |      347 |       0.05 | *
    |      303 |        - |      340 |      340 |       0.05 | *
    |      309 |        - |      339 |      339 |       0.05 | *
    |      321 |        - |      338 |      338 |       0.05 | *
    |      329 |        - |      337 |      337 |       0.05 | *
    |      336 |        - |      335 |      335 |       0.05 | *
    |      345 |        - |      334 |      334 |       0.05 | *
    |      354 |        - |      332 |      332 |       0.05 | *
    |      375 |        - |      331 |      331 |       0.05 | *
    |      390 |        - |      329 |      329 |       0.05 | *
    |      422 |        - |      326 |      326 |       0.05 | *
    |      428 |        - |      325 |      325 |       0.05 | *
    |      441 |        - |      324 |      324 |       0.05 | *
    |      452 |        - |      320 |      320 |       0.05 | *
    |      453 |        - |      318 |      318 |       0.05 | *
    |      459 |        - |      315 |      315 |       0.05 | *
    |      477 |        - |      313 |      313 |       0.05 | *
    |      508 |        - |      312 |      312 |       0.05 | *
    |      535 |        - |      309 |      309 |       0.05 | *
    |      542 |        - |      307 |      307 |       0.05 | *
    |      624 |        - |      306 |      306 |       0.05 | *
    |      652 |        - |      304 |      304 |       0.05 | *
    |      752 |        - |      302 |      302 |       0.05 | *
    |      758 |        - |      297 |      297 |       0.06 | *
    |      779 |        - |      289 |      289 |       0.06 | *
    |      782 |        - |      287 |      287 |       0.06 | *
    |      793 |        - |      285 |      285 |       0.06 | *
    |      808 |        - |      284 |      284 |       0.06 | *
    |      869 |        - |      283 |      283 |       0.06 | *
    |      879 |        - |      280 |      280 |       0.06 | *
    |      884 |        - |      277 |      277 |       0.06 | *
    |      900 |        - |      274 |      274 |       0.06 | *
    |      930 |        - |      273 |      273 |       0.06 | *
    |      960 |        - |      269 |      269 |       0.06 | *
    |     1012 |        - |      268 |      268 |       0.06 | *
    |     1166 |        - |      267 |      267 |       0.06 | *
    |     1168 |        - |      266 |      266 |       0.06 | *
    |     1179 |        - |      264 |      264 |       0.06 | *
    |     1194 |        - |      262 |      262 |       0.06 | *
    |     1218 |        - |      261 |      261 |       0.06 | *
    |     1223 |        - |      259 |      259 |       0.06 | *
    |     1228 |        - |      257 |      257 |       0.06 | *
    |     1244 |        - |      255 |      255 |       0.06 | *
    |     1255 |        - |      252 |      252 |       0.06 | *
    |     1315 |        - |      251 |      251 |       0.06 | *
    |     1385 |        - |      250 |      250 |       0.07 | *
    |     1411 |        - |      244 |      244 |       0.07 | *
    |     1412 |        - |      243 |      243 |       0.07 | *
    |     1430 |        - |      242 |      242 |       0.07 | *
    |     1439 |        - |      239 |      239 |       0.07 | *
    |     1470 |        - |      238 |      238 |       0.07 | *
    |     1586 |        - |      235 |      235 |       0.07 | *
    |     1708 |        - |      232 |      232 |       0.07 | *
    |     1733 |        - |      231 |      231 |       0.07 | *
    |     1735 |        - |      230 |      230 |       0.07 | *
    |     1761 |        - |      228 |      228 |       0.07 | *
    |     1768 |        - |      227 |      227 |       0.07 | *
    |     1886 |        - |      226 |      226 |       0.07 | *
    |     1887 |        - |      223 |      223 |       0.07 | *
    |     1898 |        - |      221 |      221 |       0.07 | *
    |     1910 |        - |      220 |      220 |       0.07 | *
    |     1915 |        - |      218 |      218 |       0.07 | *
    |     2041 |        - |      212 |      212 |       0.07 | *
    |     2072 |        - |      210 |      210 |       0.07 | *
    |     2170 |        - |      207 |      207 |       0.07 | *
    |     2274 |        - |      206 |      206 |       0.07 | *
    |     2375 |        - |      203 |      203 |       0.07 | *
    |     2397 |        - |      202 |      202 |       0.08 | *
    |     2400 |        - |      201 |      201 |       0.08 | *
    |     2508 |        - |      198 |      198 |       0.08 | *
    |     2558 |        - |      195 |      195 |       0.08 | *
    |     2567 |        - |      194 |      194 |       0.08 | *
    |     2644 |        - |      193 |      193 |       0.08 | *
    |     2667 |        - |      192 |      192 |       0.08 | *
    |     2765 |        - |      191 |      191 |       0.08 | *
    |     2858 |        - |      188 |      188 |       0.08 | *
    |     2881 |        - |      186 |      186 |       0.08 | *
    |     3282 |        - |      185 |      185 |       0.08 | *
    |     3400 |        - |      184 |      184 |       0.08 | *
    |     3500 |        - |      183 |      183 |       0.08 | *
    |     3550 |        - |      182 |      182 |       0.08 | *
    |     3552 |        - |      181 |      181 |       0.08 | *
    |     3557 |        - |      180 |      180 |       0.08 | *
    |     3564 |        - |      178 |      178 |       0.09 | *
    |     3626 |        - |      176 |      176 |       0.09 | *
    |     3646 |        - |      175 |      175 |       0.09 | *
    |     3726 |        - |      174 |      174 |       0.09 | *
    |     3733 |        - |      173 |      173 |       0.09 | *
    |     3740 |        - |      172 |      172 |       0.09 | *
    |     3820 |        - |      168 |      168 |       0.09 | *
    |     4035 |        - |      167 |      167 |       0.09 | *
    |     4143 |        - |      166 |      166 |       0.09 | *
    |     4186 |        - |      165 |      165 |       0.09 | *
    |     4192 |        - |      162 |      162 |       0.09 | *
    |     4200 |        - |      160 |      160 |       0.09 | *
    |     4552 |        - |      159 |      159 |       0.09 | *
    |     4559 |        - |      154 |      154 |       0.09 | *
    |     4631 |        - |      153 |      153 |       0.09 | *
    |     4675 |        - |      152 |      152 |       0.09 | *
    |     6588 |        - |      149 |      149 |       0.10 | *
    |     6646 |        - |      147 |      147 |       0.10 | *
    |     7488 |        - |      146 |      146 |       0.10 | *
    |     7969 |        - |      145 |      145 |       0.11 | *
    |     8179 |        - |      144 |      144 |       0.11 | *
    |     8193 |        - |      143 |      143 |       0.11 | *
    |     8804 |        - |      142 |      142 |       0.11 | *
    |     9705 |        - |      141 |      141 |       0.11 | *
    |     9748 |        - |      139 |      139 |       0.11 | *
    |     9841 |        - |      138 |      138 |       0.11 | *
    |     9856 |        - |      137 |      137 |       0.11 | *
    |      12K |        - |      136 |      136 |       0.11 | *
    |      12K |        - |      135 |      135 |       0.12 | *
    |      13K |        - |      134 |      134 |       0.12 | *
    |      14K |        - |      133 |      133 |       0.12 | *
    |      15K |        - |      132 |      132 |       0.12 | *
    |      16K |        - |      130 |      130 |       0.12 | *
    |      17K |        - |      129 |      129 |       0.13 | *
    |      17K |        - |      128 |      128 |       0.13 | *
    |      20K |        - |      127 |      127 |       0.13 | *
    |      24K |        - |      126 |      126 |       0.14 | *
    |      25K |        - |      125 |      125 |       0.14 | *
    |      29K |        - |      124 |      124 |       0.15 | *
    |      30K |        - |      123 |      123 |       0.15 | *
    |      31K |        - |      122 |      122 |       0.15 | *
    |      32K |        - |      121 |      121 |       0.15 | *
    |      32K |        - |      120 |      120 |       0.16 | *
    |      33K |        - |      119 |      119 |       0.16 | *
    |      33K |        - |      118 |      118 |       0.16 | *
    |      34K |        - |      117 |      117 |       0.16 | *
    |      36K |        - |      116 |      116 |       0.16 | *
    |      38K |        - |      115 |      115 |       0.17 | *
    |      38K |        - |      114 |      114 |       0.17 | *
    |      38K |        - |      113 |      113 |       0.17 | *
    |      40K |        - |      112 |      112 |       0.17 | *
    |      40K |        - |      111 |      111 |       0.17 | *
    |      59K |        - |      110 |      110 |       0.23 | *
    |      74K |        - |      108 |      108 |       0.25 | *
    |      85K |        - |      107 |      107 |       0.27 | *
    |      88K |        - |      106 |      106 |       0.27 | *
    |      89K |        - |      105 |      105 |       0.28 | *
    |      90K |        - |      104 |      104 |       0.28 | *
    |      91K |        - |      103 |      103 |       0.28 | *
    |     111K |        - |      102 |      102 |       0.31 | *
    |     143K |        - |      101 |      101 |       0.36 | *
    |     143K |        - |      100 |      100 |       0.36 | *
    |     143K |        - |       99 |       99 |       0.36 | *
    |     143K |        - |       98 |       98 |       0.36 | *
    |     143K |        - |       97 |       97 |       0.36 | *
    |     151K |        - |       96 |       96 |       0.37 | *
    |     151K |        - |       95 |       95 |       0.37 | *
    |     165K |        - |       94 |       94 |       0.39 | *
    |     166K |        - |       93 |       93 |       0.39 | *
    |     197K |        - |       92 |       92 |       0.43 | *
    |     197K |        - |       91 |       91 |       0.43 | *
    |     226K |        - |       90 |       90 |       0.47 | *
    |     241K |        - |       88 |       88 |       0.49 | *
    |    1036K |        - |       87 |       87 |       1.62 | *
    |    1703K |        - |       86 |       86 |       2.53 | *
    |    1705K |        - |       85 |       85 |       2.53 | *
    |    1728K |        - |       84 |       84 |       2.56 | *
    |    1800K |        - |       83 |       83 |       2.65 | *
    |      16M |        - |       82 |       82 |      20.01 | *
    |      16M |        - |       81 |       81 |      20.48 | *
    |      16M |        - |       80 |       80 |      20.48 | *
    |      16M |        - |       79 |       79 |      20.80 | *
    |     220M |        - |       78 |       78 |     277.14 | *
    \--------------------------------------------------------/

Neighborhoods statistics (values in %):

    /----------------------------------------------------------------\
    | Move               | Improvs. | Sideways |  Accepts |  Rejects |
    |--------------------|----------|----------|----------|----------|
    | Shift(mk)          |      29K |      38K |      78K |      12M |
    | Shift              |     1934 |     343K |     368K |      11M |
    | ShiftSmart(mk)     |     142K |     177K |     372K |      11M |
    | ShiftSmart         |     9356 |    1345K |    1444K |      10M |
    | SimpSwap(mk)       |      176 |      288 |      550 |      12M |
    | SimpSwap           |       22 |     1259 |     1463 |      12M |
    | SimpSwapSmart(mk)  |     1115 |     1609 |     3240 |      12M |
    | SimpSwapSmart      |      134 |     7249 |     8439 |      12M |
    | Swap(mk)           |       58 |       75 |      158 |      12M |
    | Swap               |       11 |      445 |      510 |      12M |
    | SwapSmart(mk)      |     1198 |     1995 |     3697 |      12M |
    | SwapSmart          |      173 |     7620 |     8765 |      12M |
    | Switch(mk)         |     9828 |    1797K |    1809K |    9981K |
    | Switch             |      645 |    1978K |    1987K |    9804K |
    | SwitchSmart(mk)    |      42K |      61K |     116K |      12M |
    | SwitchSmart        |     2891 |     466K |     501K |      11M |
    | TaskMove(mk)       |     1698 |     2479 |     4828 |      12M |
    | TaskMove           |      155 |     6703 |     7842 |      12M |
    | TaskMoveSmart(mk)  |     9403 |      14K |      28K |      12M |
    | TaskMoveSmart      |      763 |      37K |      44K |      12M |
    | 2-Shift(mk)        |      14K |     358K |     376K |      11M |
    | 2-Shift            |      887 |     547K |     559K |      11M |
    | 2-ShiftSmart(mk)   |      63K |     575K |     654K |      11M |
    | 2-ShiftSmart       |     4221 |    1128K |    1165K |      11M |
    \----------------------------------------------------------------/

Best makespan.....: 78
N. of Iterations..: 283017053
Total runtime.....: 360.01s
Academic license - for non-commercial use only
Academic license - for non-commercial use only
Academic license - for non-commercial use only
Academic license - for non-commercial use only
Academic license - for non-commercial use only
Academic license - for non-commercial use only
Academic license - for non-commercial use only
Academic license - for non-commercial use only
Academic license - for non-commercial use only
Academic license - for non-commercial use only
Academic license - for non-commercial use only
Academic license - for non-commercial use only
Academic license - for non-commercial use only
Academic license - for non-commercial use only
Academic license - for non-commercial use only
Academic license - for non-commercial use only
Academic license - for non-commercial use only
Academic license - for non-commercial use only
Academic license - for non-commercial use only
Academic license - for non-commercial use only
Academic license - for non-commercial use only
Academic license - for non-commercial use only
Academic license - for non-commercial use only
Academic license - for non-commercial use only
Academic license - for non-commercial use only
Academic license - for non-commercial use only
Academic license - for non-commercial use only
Academic license - for non-commercial use only
Academic license - for non-commercial use only
Academic license - for non-commercial use only
Academic license - for non-commercial use only
Academic license - for non-commercial use only
Academic license - for non-commercial use only
Academic license - for non-commercial use only
Academic license - for non-commercial use only
Academic license - for non-commercial use only
Academic license - for non-commercial use only
Academic license - for non-commercial use only
Academic license - for non-commercial use only
Academic license - for non-commercial use only
Academic license - for non-commercial use only
Academic license - for non-commercial use only
Academic license - for non-commercial use only
Academic license - for non-commercial use only
Academic license - for non-commercial use only
Academic license - for non-commercial use only
Academic license - for non-commercial use only
Academic license - for non-commercial use only
Academic license - for non-commercial use only
Academic license - for non-commercial use only
Academic license - for non-commercial use only
Academic license - for non-commercial use only
Academic license - for non-commercial use only
Academic license - for non-commercial use only
Academic license - for non-commercial use only
Academic license - for non-commercial use only
Academic license - for non-commercial use only
Academic license - for non-commercial use only
Academic license - for non-commercial use only
Academic license - for non-commercial use only
Academic license - for non-commercial use only
Academic license - for non-commercial use only
Academic license - for non-commercial use only
Academic license - for non-commercial use only
Academic license - for non-commercial use only
Academic license - for non-commercial use only
Academic license - for non-commercial use only
Academic license - for non-commercial use only
Academic license - for non-commercial use only
Academic license - for non-commercial use only
Academic license - for non-commercial use only
Academic license - for non-commercial use only
Academic license - for non-commercial use only
Academic license - for non-commercial use only
Academic license - for non-commercial use only
Academic license - for non-commercial use only
Academic license - for non-commercial use only
    /-------------------------------------------------------------------------------\
    |    Makespan   |   Free Jobs   | Free Machines |    It. Time   |   Total Time  | 
    |-------------------------------------------------------------------------------|
    |            78 |            30 |             5 |          1.35 |          1.95 | 
    |            78 |            36 |             6 |          6.31 |          8.46 | 
    |            78 |            43 |             7 |         20.00 |         28.59 | 
    |            78 |            34 |             6 |          0.63 |         29.31 | 
    |            78 |            40 |             7 |          8.69 |         38.10 | 
    |            78 |            48 |             8 |         20.01 |         58.26 | 
    |            78 |            38 |             7 |         12.98 |         71.34 | 
    |            78 |            45 |             8 |         20.01 |         91.55 | 
    |            78 |            36 |             6 |          2.66 |         94.29 | 
    |            78 |            43 |             7 |          3.60 |         98.01 | 
    |            78 |            51 |             9 |         20.01 |        118.16 | 
    |            78 |            40 |             7 |         20.01 |        138.26 | 
    |            78 |            32 |             5 |          0.90 |        139.26 | 
    |            78 |            38 |             6 |          7.39 |        146.77 | 
    |            78 |            45 |             7 |         20.01 |        167.02 | 
    |            78 |            36 |             6 |          2.51 |        169.60 | 
    |            78 |            43 |             7 |         20.00 |        189.77 | 
    |            78 |            34 |             6 |          0.53 |        190.40 | 
    |            78 |            40 |             6 |          5.99 |        196.51 | 
    |            78 |            48 |             7 |         20.01 |        216.64 | 
    |            78 |            38 |             6 |          5.73 |        222.46 | 
    |            78 |            45 |             7 |         20.03 |        242.63 | 
    |            78 |            36 |             6 |          3.80 |        246.50 | 
    |            78 |            43 |             7 |         20.00 |        266.63 | 
    |            78 |            34 |             6 |          1.86 |        268.58 | 
    |            78 |            40 |             6 |         20.00 |        288.68 | 
    |            78 |            32 |             6 |          3.15 |        291.88 | 
    |            78 |            38 |             6 |          2.04 |        294.02 | 
    |            78 |            45 |             7 |         20.00 |        314.17 | 
    |            78 |            36 |             6 |          9.76 |        323.99 | 
    |            78 |            43 |             7 |         20.00 |        344.11 | 
    |            78 |            34 |             6 |          1.60 |        345.75 | 
    |            78 |            40 |             7 |          5.07 |        350.94 | 
    |            78 |            48 |             8 |         20.01 |        371.08 | 
    |            78 |            38 |             6 |          3.33 |        374.48 | 
    |            78 |            45 |             7 |         20.00 |        394.60 | 
    |            78 |            36 |             6 |          3.17 |        397.85 | 
    |            78 |            43 |             6 |         14.09 |        412.03 | 
    |            78 |            51 |             8 |         20.02 |        432.23 | 
    |            78 |            40 |             6 |          7.02 |        439.36 | 
    |            78 |            48 |             7 |         20.01 |        459.51 | 
    |            78 |            38 |             6 |          2.58 |        462.22 | 
    |            78 |            45 |             8 |         20.02 |        482.42 | 
    |            78 |            36 |             6 |          6.46 |        488.93 | 
    |            78 |            43 |             7 |         20.00 |        509.04 | 
    |            78 |            34 |             5 |          3.84 |        512.91 | 
    |            78 |            40 |             6 |         20.00 |        533.04 | 
    |            78 |            32 |             5 |          1.88 |        534.98 | 
    |            78 |            38 |             6 |          1.72 |        536.80 | 
    |            77 |            45 |             7 |          4.38 |        541.32 | *
    |            77 |            45 |             7 |          2.25 |        543.64 | 
    |            77 |            54 |             9 |         20.01 |        564.01 | 
    |            77 |            43 |             7 |          6.12 |        570.23 | 
    |            77 |            51 |             8 |         20.01 |        590.39 | 
    |            77 |            40 |             6 |          3.10 |        593.62 | 
    |            77 |            48 |             7 |         20.01 |        613.76 | 
    |            77 |            38 |             6 |          9.12 |        622.93 | 
    |            77 |            45 |             7 |         20.00 |        643.07 | 
    |            77 |            36 |             6 |          1.79 |        644.93 | 
    |            77 |            43 |             7 |         20.00 |        665.06 | 
    |            77 |            34 |             6 |          0.69 |        665.80 | 
    |            77 |            40 |             6 |         11.54 |        677.41 | 
    |            77 |            48 |             7 |         20.00 |        697.51 | 
    |            77 |            38 |             6 |          2.55 |        700.12 | 
    |            77 |            45 |             7 |          6.03 |        706.23 | 
    |            77 |            54 |             8 |         20.01 |        726.40 | 
    |            77 |            43 |             7 |          4.48 |        731.02 | 
    |            77 |            51 |             8 |         20.03 |        751.19 | 
    |            77 |            40 |             7 |          3.97 |        755.29 | 
    |            77 |            48 |             7 |         20.00 |        775.38 | 
    |            77 |            38 |             6 |          1.40 |        776.86 | 
    |            77 |            45 |             7 |         20.02 |        797.24 | 
    |            77 |            36 |             6 |         11.72 |        809.03 | 
    |            77 |            43 |             7 |         20.00 |        829.15 | 
    |            77 |            34 |             6 |          1.11 |        830.31 | 
    |            77 |            40 |             6 |          1.70 |        832.12 | 
Instance....: instances/I_100_15_S_1-49_4.txt
Algorithm...: Simulated Annealing (alpha=0.990, saMax=10M, t0=1)
Other params: maxIters=100M, seed=4, timeLimit=360.00s

    /--------------------------------------------------------\
    |     Iter |   RDP(%) |       S* |       S' |       Time | 
    |----------|----------|----------|----------|------------|
    |        0 |        - |      701 |      701 |       0.00 | s0
    |        0 |        - |      685 |      685 |       0.00 | *
    |        2 |        - |      682 |      682 |       0.00 | *
    |        3 |        - |      660 |      660 |       0.00 | *
    |        8 |        - |      655 |      655 |       0.02 | *
    |       10 |        - |      642 |      642 |       0.02 | *
    |       11 |        - |      622 |      622 |       0.02 | *
    |       14 |        - |      595 |      595 |       0.02 | *
    |       15 |        - |      585 |      585 |       0.02 | *
    |       16 |        - |      583 |      583 |       0.02 | *
    |       20 |        - |      576 |      576 |       0.02 | *
    |       24 |        - |      566 |      566 |       0.02 | *
    |       26 |        - |      554 |      554 |       0.02 | *
    |       27 |        - |      547 |      547 |       0.02 | *
    |       28 |        - |      543 |      543 |       0.02 | *
    |       30 |        - |      526 |      526 |       0.02 | *
    |       34 |        - |      505 |      505 |       0.02 | *
    |       36 |        - |      501 |      501 |       0.02 | *
    |       41 |        - |      497 |      497 |       0.02 | *
    |       51 |        - |      496 |      496 |       0.03 | *
    |       52 |        - |      491 |      491 |       0.03 | *
    |       65 |        - |      481 |      481 |       0.03 | *
    |       69 |        - |      455 |      455 |       0.03 | *
    |       74 |        - |      453 |      453 |       0.03 | *
    |       81 |        - |      446 |      446 |       0.03 | *
    |       82 |        - |      442 |      442 |       0.03 | *
    |       94 |        - |      423 |      423 |       0.03 | *
    |      101 |        - |      420 |      420 |       0.03 | *
    |      106 |        - |      413 |      413 |       0.03 | *
    |      119 |        - |      411 |      411 |       0.03 | *
    |      124 |        - |      407 |      407 |       0.03 | *
    |      144 |        - |      404 |      404 |       0.03 | *
    |      145 |        - |      403 |      403 |       0.03 | *
    |      161 |        - |      402 |      402 |       0.03 | *
    |      166 |        - |      392 |      392 |       0.03 | *
    |      184 |        - |      390 |      390 |       0.03 | *
    |      186 |        - |      389 |      389 |       0.03 | *
    |      188 |        - |      386 |      386 |       0.03 | *
    |      191 |        - |      377 |      377 |       0.03 | *
    |      194 |        - |      374 |      374 |       0.03 | *
    |      201 |        - |      364 |      364 |       0.03 | *
    |      210 |        - |      360 |      360 |       0.03 | *
    |      227 |        - |      359 |      359 |       0.03 | *
    |      235 |        - |      356 |      356 |       0.03 | *
    |      241 |        - |      355 |      355 |       0.03 | *
    |      268 |        - |      351 |      351 |       0.04 | *
    |      285 |        - |      349 |      349 |       0.04 | *
    |      293 |        - |      348 |      348 |       0.04 | *
    |      299 |        - |      347 |      347 |       0.04 | *
    |      303 |        - |      340 |      340 |       0.04 | *
    |      309 |        - |      339 |      339 |       0.04 | *
    |      321 |        - |      338 |      338 |       0.04 | *
    |      329 |        - |      337 |      337 |       0.04 | *
    |      336 |        - |      335 |      335 |       0.04 | *
    |      345 |        - |      334 |      334 |       0.04 | *
    |      354 |        - |      332 |      332 |       0.04 | *
    |      375 |        - |      331 |      331 |       0.04 | *
    |      390 |        - |      329 |      329 |       0.04 | *
    |      422 |        - |      326 |      326 |       0.04 | *
    |      428 |        - |      325 |      325 |       0.04 | *
    |      441 |        - |      324 |      324 |       0.04 | *
    |      452 |        - |      320 |      320 |       0.04 | *
    |      453 |        - |      318 |      318 |       0.04 | *
    |      459 |        - |      315 |      315 |       0.04 | *
    |      477 |        - |      313 |      313 |       0.04 | *
    |      508 |        - |      312 |      312 |       0.04 | *
    |      535 |        - |      309 |      309 |       0.04 | *
    |      542 |        - |      307 |      307 |       0.04 | *
    |      624 |        - |      306 |      306 |       0.04 | *
    |      652 |        - |      304 |      304 |       0.04 | *
    |      752 |        - |      302 |      302 |       0.05 | *
    |      758 |        - |      297 |      297 |       0.05 | *
    |      779 |        - |      289 |      289 |       0.05 | *
    |      782 |        - |      287 |      287 |       0.05 | *
    |      793 |        - |      285 |      285 |       0.05 | *
    |      808 |        - |      284 |      284 |       0.05 | *
    |      869 |        - |      283 |      283 |       0.05 | *
    |      879 |        - |      280 |      280 |       0.05 | *
    |      884 |        - |      277 |      277 |       0.05 | *
    |      900 |        - |      274 |      274 |       0.05 | *
    |      930 |        - |      273 |      273 |       0.05 | *
    |      960 |        - |      269 |      269 |       0.05 | *
    |     1012 |        - |      268 |      268 |       0.05 | *
    |     1166 |        - |      267 |      267 |       0.05 | *
    |     1168 |        - |      266 |      266 |       0.05 | *
    |     1179 |        - |      264 |      264 |       0.05 | *
    |     1194 |        - |      262 |      262 |       0.05 | *
    |     1218 |        - |      261 |      261 |       0.05 | *
    |     1223 |        - |      259 |      259 |       0.05 | *
    |     1228 |        - |      257 |      257 |       0.05 | *
    |     1244 |        - |      255 |      255 |       0.05 | *
    |     1255 |        - |      252 |      252 |       0.05 | *
    |     1315 |        - |      251 |      251 |       0.05 | *
    |     1385 |        - |      250 |      250 |       0.05 | *
    |     1411 |        - |      244 |      244 |       0.05 | *
    |     1412 |        - |      243 |      243 |       0.05 | *
    |     1430 |        - |      242 |      242 |       0.05 | *
    |     1439 |        - |      239 |      239 |       0.05 | *
    |     1470 |        - |      238 |      238 |       0.05 | *
    |     1586 |        - |      235 |      235 |       0.05 | *
    |     1708 |        - |      232 |      232 |       0.06 | *
    |     1733 |        - |      231 |      231 |       0.06 | *
    |     1735 |        - |      230 |      230 |       0.06 | *
    |     1761 |        - |      228 |      228 |       0.06 | *
    |     1768 |        - |      227 |      227 |       0.06 | *
    |     1886 |        - |      226 |      226 |       0.06 | *
    |     1887 |        - |      223 |      223 |       0.06 | *
    |     1898 |        - |      221 |      221 |       0.06 | *
    |     1910 |        - |      220 |      220 |       0.06 | *
    |     1915 |        - |      218 |      218 |       0.06 | *
    |     2041 |        - |      212 |      212 |       0.06 | *
    |     2072 |        - |      210 |      210 |       0.06 | *
    |     2170 |        - |      207 |      207 |       0.06 | *
    |     2274 |        - |      206 |      206 |       0.06 | *
    |     2375 |        - |      203 |      203 |       0.06 | *
    |     2397 |        - |      202 |      202 |       0.06 | *
    |     2400 |        - |      201 |      201 |       0.06 | *
    |     2508 |        - |      198 |      198 |       0.06 | *
    |     2558 |        - |      195 |      195 |       0.06 | *
    |     2567 |        - |      194 |      194 |       0.06 | *
    |     2644 |        - |      193 |      193 |       0.06 | *
    |     2667 |        - |      192 |      192 |       0.06 | *
    |     2765 |        - |      191 |      191 |       0.06 | *
    |     2858 |        - |      188 |      188 |       0.06 | *
    |     2881 |        - |      186 |      186 |       0.06 | *
    |     3282 |        - |      185 |      185 |       0.07 | *
    |     3400 |        - |      184 |      184 |       0.07 | *
    |     3500 |        - |      183 |      183 |       0.07 | *
    |     3550 |        - |      182 |      182 |       0.07 | *
    |     3552 |        - |      181 |      181 |       0.07 | *
    |     3557 |        - |      180 |      180 |       0.07 | *
    |     3564 |        - |      178 |      178 |       0.07 | *
    |     3626 |        - |      176 |      176 |       0.07 | *
    |     3646 |        - |      175 |      175 |       0.07 | *
    |     3726 |        - |      174 |      174 |       0.07 | *
    |     3733 |        - |      173 |      173 |       0.07 | *
    |     3740 |        - |      172 |      172 |       0.07 | *
    |     3820 |        - |      168 |      168 |       0.07 | *
    |     4035 |        - |      167 |      167 |       0.07 | *
    |     4143 |        - |      166 |      166 |       0.07 | *
    |     4186 |        - |      165 |      165 |       0.07 | *
    |     4192 |        - |      162 |      162 |       0.07 | *
    |     4200 |        - |      160 |      160 |       0.07 | *
    |     4552 |        - |      159 |      159 |       0.07 | *
    |     4559 |        - |      154 |      154 |       0.07 | *
    |     4631 |        - |      153 |      153 |       0.07 | *
    |     4675 |        - |      152 |      152 |       0.07 | *
    |     6588 |        - |      149 |      149 |       0.08 | *
    |     6646 |        - |      147 |      147 |       0.08 | *
    |     7488 |        - |      146 |      146 |       0.08 | *
    |     7969 |        - |      145 |      145 |       0.08 | *
    |     8179 |        - |      144 |      144 |       0.08 | *
    |     8193 |        - |      143 |      143 |       0.08 | *
    |     8804 |        - |      142 |      142 |       0.08 | *
    |     9705 |        - |      141 |      141 |       0.09 | *
    |     9748 |        - |      139 |      139 |       0.09 | *
    |     9841 |        - |      138 |      138 |       0.09 | *
    |     9856 |        - |      137 |      137 |       0.09 | *
    |      12K |        - |      136 |      136 |       0.09 | *
    |      12K |        - |      135 |      135 |       0.09 | *
    |      13K |        - |      134 |      134 |       0.09 | *
    |      14K |        - |      133 |      133 |       0.09 | *
    |      15K |        - |      132 |      132 |       0.09 | *
    |      16K |        - |      130 |      130 |       0.10 | *
    |      17K |        - |      129 |      129 |       0.10 | *
    |      17K |        - |      128 |      128 |       0.10 | *
    |      20K |        - |      127 |      127 |       0.10 | *
    |      24K |        - |      126 |      126 |       0.11 | *
    |      25K |        - |      125 |      125 |       0.11 | *
    |      29K |        - |      124 |      124 |       0.12 | *
    |      30K |        - |      123 |      123 |       0.12 | *
    |      31K |        - |      122 |      122 |       0.12 | *
    |      32K |        - |      121 |      121 |       0.12 | *
    |      32K |        - |      120 |      120 |       0.13 | *
    |      33K |        - |      119 |      119 |       0.13 | *
    |      33K |        - |      118 |      118 |       0.13 | *
    |      34K |        - |      117 |      117 |       0.13 | *
    |      36K |        - |      116 |      116 |       0.13 | *
    |      38K |        - |      115 |      115 |       0.14 | *
    |      38K |        - |      114 |      114 |       0.14 | *
    |      38K |        - |      113 |      113 |       0.14 | *
    |      40K |        - |      112 |      112 |       0.14 | *
    |      40K |        - |      111 |      111 |       0.14 | *
    |      59K |        - |      110 |      110 |       0.17 | *
    |      74K |        - |      108 |      108 |       0.19 | *
    |      85K |        - |      107 |      107 |       0.21 | *
    |      88K |        - |      106 |      106 |       0.21 | *
    |      89K |        - |      105 |      105 |       0.22 | *
    |      90K |        - |      104 |      104 |       0.22 | *
    |      91K |        - |      103 |      103 |       0.22 | *
    |     111K |        - |      102 |      102 |       0.24 | *
    |     143K |        - |      101 |      101 |       0.28 | *
    |     143K |        - |      100 |      100 |       0.28 | *
    |     143K |        - |       99 |       99 |       0.28 | *
    |     143K |        - |       98 |       98 |       0.28 | *
    |     143K |        - |       97 |       97 |       0.28 | *
    |     151K |        - |       96 |       96 |       0.29 | *
    |     151K |        - |       95 |       95 |       0.29 | *
    |     165K |        - |       94 |       94 |       0.31 | *
    |     166K |        - |       93 |       93 |       0.31 | *
    |     197K |        - |       92 |       92 |       0.34 | *
    |     197K |        - |       91 |       91 |       0.34 | *
    |     226K |        - |       90 |       90 |       0.37 | *
    |     241K |        - |       88 |       88 |       0.39 | *
    |    1036K |        - |       87 |       87 |       1.29 | *
    |    1703K |        - |       86 |       86 |       2.08 | *
    |    1705K |        - |       85 |       85 |       2.08 | *
    |    1728K |        - |       84 |       84 |       2.10 | *
    |    1800K |        - |       83 |       83 |       2.18 | *
    |      16M |        - |       82 |       82 |      20.25 | *
    |      16M |        - |       81 |       81 |      20.75 | *
    |      16M |        - |       80 |       80 |      20.75 | *
    |      16M |        - |       79 |       79 |      21.13 | *
    |     220M |        - |       78 |       78 |     280.30 | *
    \--------------------------------------------------------/

Neighborhoods statistics (values in %):

    /----------------------------------------------------------------\
    | Move               | Improvs. | Sideways |  Accepts |  Rejects |
    |--------------------|----------|----------|----------|----------|
    | Shift(mk)          |      29K |      38K |      78K |      12M |
    | Shift              |     1932 |     342K |     368K |      11M |
    | ShiftSmart(mk)     |     141K |     176K |     371K |      11M |
    | ShiftSmart         |     9347 |    1342K |    1442K |      10M |
    | SimpSwap(mk)       |      176 |      286 |      548 |      12M |
    | SimpSwap           |       22 |     1256 |     1459 |      12M |
    | SimpSwapSmart(mk)  |     1115 |     1608 |     3239 |      12M |
    | SimpSwapSmart      |      134 |     7231 |     8421 |      12M |
    | Swap(mk)           |       58 |       75 |      158 |      12M |
    | Swap               |       11 |      443 |      508 |      12M |
    | SwapSmart(mk)      |     1196 |     1991 |     3689 |      12M |
    | SwapSmart          |      173 |     7607 |     8750 |      12M |
    | Switch(mk)         |     9814 |    1792K |    1805K |    9959K |
    | Switch             |      644 |    1973K |    1982K |    9782K |
    | SwitchSmart(mk)    |      42K |      61K |     116K |      12M |
    | SwitchSmart        |     2887 |     466K |     500K |      11M |
    | TaskMove(mk)       |     1697 |     2474 |     4822 |      12M |
    | TaskMove           |      155 |     6686 |     7822 |      12M |
    | TaskMoveSmart(mk)  |     9390 |      14K |      27K |      12M |
    | TaskMoveSmart      |      763 |      37K |      44K |      12M |
    | 2-Shift(mk)        |      14K |     357K |     375K |      11M |
    | 2-Shift            |      884 |     546K |     558K |      11M |
    | 2-ShiftSmart(mk)   |      63K |     573K |     652K |      11M |
    | 2-ShiftSmart       |     4214 |    1125K |    1163K |      11M |
    \----------------------------------------------------------------/

Best makespan.....: 78
N. of Iterations..: 282393386
Total runtime.....: 360.01s
Academic license - for non-commercial use only
Academic license - for non-commercial use only
Academic license - for non-commercial use only
Academic license - for non-commercial use only
Academic license - for non-commercial use only
Academic license - for non-commercial use only
Academic license - for non-commercial use only
Academic license - for non-commercial use only
Academic license - for non-commercial use only
Academic license - for non-commercial use only
Academic license - for non-commercial use only
Academic license - for non-commercial use only
Academic license - for non-commercial use only
Academic license - for non-commercial use only
Academic license - for non-commercial use only
Academic license - for non-commercial use only
Academic license - for non-commercial use only
Academic license - for non-commercial use only
Academic license - for non-commercial use only
Academic license - for non-commercial use only
Academic license - for non-commercial use only
Academic license - for non-commercial use only
Academic license - for non-commercial use only
Academic license - for non-commercial use only
Academic license - for non-commercial use only
Academic license - for non-commercial use only
Academic license - for non-commercial use only
Academic license - for non-commercial use only
Academic license - for non-commercial use only
Academic license - for non-commercial use only
Academic license - for non-commercial use only
Academic license - for non-commercial use only
Academic license - for non-commercial use only
Academic license - for non-commercial use only
Academic license - for non-commercial use only
Academic license - for non-commercial use only
Academic license - for non-commercial use only
Academic license - for non-commercial use only
Academic license - for non-commercial use only
Academic license - for non-commercial use only
Academic license - for non-commercial use only
Academic license - for non-commercial use only
Academic license - for non-commercial use only
Academic license - for non-commercial use only
Academic license - for non-commercial use only
Academic license - for non-commercial use only
Academic license - for non-commercial use only
Academic license - for non-commercial use only
Academic license - for non-commercial use only
Academic license - for non-commercial use only
Academic license - for non-commercial use only
Academic license - for non-commercial use only
Academic license - for non-commercial use only
Academic license - for non-commercial use only
Academic license - for non-commercial use only
Academic license - for non-commercial use only
Academic license - for non-commercial use only
Academic license - for non-commercial use only
Academic license - for non-commercial use only
Academic license - for non-commercial use only
Academic license - for non-commercial use only
Academic license - for non-commercial use only
Academic license - for non-commercial use only
Academic license - for non-commercial use only
Academic license - for non-commercial use only
Academic license - for non-commercial use only
Academic license - for non-commercial use only
Academic license - for non-commercial use only
Academic license - for non-commercial use only
Academic license - for non-commercial use only
Academic license - for non-commercial use only
Academic license - for non-commercial use only
Academic license - for non-commercial use only
Academic license - for non-commercial use only
Academic license - for non-commercial use only
Academic license - for non-commercial use only
Academic license - for non-commercial use only
Academic license - for non-commercial use only
Academic license - for non-commercial use only
Academic license - for non-commercial use only
Academic license - for non-commercial use only
Academic license - for non-commercial use only
Academic license - for non-commercial use only
Academic license - for non-commercial use only
Academic license - for non-commercial use only
Academic license - for non-commercial use only
Academic license - for non-commercial use only
Academic license - for non-commercial use only
Academic license - for non-commercial use only
Academic license - for non-commercial use only
Academic license - for non-commercial use only
Academic license - for non-commercial use only
    /-------------------------------------------------------------------------------\
    |    Makespan   |   Free Jobs   | Free Machines |    It. Time   |   Total Time  | 
    |-------------------------------------------------------------------------------|
    |            78 |            30 |             5 |          1.33 |          1.96 | 
    |            78 |            36 |             6 |          6.21 |          8.32 | 
    |            78 |            43 |             7 |         20.00 |         28.43 | 
    |            78 |            34 |             6 |          0.62 |         29.13 | 
    |            78 |            40 |             7 |          8.78 |         38.03 | 
    |            78 |            48 |             8 |         20.01 |         58.19 | 
    |            78 |            38 |             7 |         12.70 |         70.97 | 
    |            78 |            45 |             8 |         20.01 |         91.19 | 
    |            78 |            36 |             6 |          2.67 |         93.94 | 
    |            78 |            43 |             7 |          3.81 |         97.87 | 
    |            78 |            51 |             9 |         20.01 |        118.10 | 
    |            78 |            40 |             7 |         20.00 |        138.19 | 
    |            78 |            32 |             5 |          0.86 |        139.10 | 
    |            78 |            38 |             6 |          7.26 |        146.45 | 
    |            78 |            45 |             7 |         20.00 |        166.64 | 
    |            78 |            36 |             6 |          2.22 |        168.93 | 
    |            78 |            43 |             7 |         20.01 |        189.05 | 
    |            78 |            34 |             6 |          0.47 |        189.59 | 
    |            78 |            40 |             6 |          6.04 |        195.75 | 
    |            78 |            48 |             7 |         20.00 |        215.89 | 
    |            78 |            38 |             6 |          5.69 |        221.65 | 
    |            78 |            45 |             7 |         20.03 |        241.85 | 
    |            78 |            36 |             6 |          3.98 |        245.92 | 
    |            78 |            43 |             7 |         20.00 |        266.02 | 
    |            78 |            34 |             6 |          1.89 |        267.98 | 
    |            78 |            40 |             6 |         20.00 |        288.05 | 
    |            78 |            32 |             6 |          3.26 |        291.41 | 
    |            78 |            38 |             6 |          1.96 |        293.48 | 
    |            78 |            45 |             7 |         20.00 |        313.61 | 
    |            78 |            36 |             6 |          9.89 |        323.55 | 
    |            78 |            43 |             7 |         20.00 |        343.66 | 
    |            78 |            34 |             6 |          1.61 |        345.32 | 
    |            78 |            40 |             7 |          5.13 |        350.58 | 
    |            78 |            48 |             8 |         20.02 |        370.74 | 
    |            78 |            38 |             6 |          3.42 |        374.23 | 
    |            78 |            45 |             7 |         20.00 |        394.34 | 
    |            78 |            36 |             6 |          3.09 |        397.49 | 
    |            78 |            43 |             6 |         13.60 |        411.18 | 
    |            78 |            51 |             8 |         20.02 |        431.40 | 
    |            78 |            40 |             6 |          7.09 |        438.62 | 
    |            78 |            48 |             7 |         20.01 |        458.80 | 
    |            78 |            38 |             6 |          2.58 |        461.47 | 
    |            78 |            45 |             8 |         20.00 |        481.66 | 
    |            78 |            36 |             6 |          6.89 |        488.65 | 
    |            78 |            43 |             7 |         20.01 |        508.74 | 
    |            78 |            34 |             5 |          3.84 |        512.63 | 
    |            78 |            40 |             6 |         20.00 |        532.72 | 
    |            78 |            32 |             5 |          1.84 |        534.63 | 
    |            78 |            38 |             6 |          1.80 |        536.55 | 
    |            77 |            45 |             7 |          4.26 |        540.93 | *
    |            77 |            45 |             7 |          2.49 |        543.52 | 
    |            77 |            54 |             9 |         20.01 |        563.73 | 
    |            77 |            43 |             7 |          6.32 |        570.19 | 
    |            77 |            51 |             8 |         20.01 |        590.45 | 
    |            77 |            40 |             6 |          3.01 |        593.59 | 
    |            77 |            48 |             7 |         20.00 |        613.70 | 
    |            77 |            38 |             6 |          8.71 |        622.47 | 
    |            77 |            45 |             7 |         20.00 |        642.55 | 
    |            77 |            36 |             6 |          1.74 |        644.38 | 
    |            77 |            43 |             7 |         20.00 |        664.56 | 
    |            77 |            34 |             6 |          0.68 |        665.28 | 
    |            77 |            40 |             6 |         11.10 |        676.47 | 
    |            77 |            48 |             7 |         20.00 |        696.63 | 
    |            77 |            38 |             6 |          2.69 |        699.37 | 
    |            77 |            45 |             7 |          5.75 |        705.21 | 
    |            77 |            54 |             8 |         20.01 |        725.36 | 
    |            77 |            43 |             7 |          4.55 |        730.05 | 
    |            77 |            51 |             8 |         20.01 |        750.22 | 
    |            77 |            40 |             7 |          3.96 |        754.29 | 
    |            77 |            48 |             7 |         20.00 |        774.42 | 
    |            77 |            38 |             6 |          1.31 |        775.81 | 
    |            77 |            45 |             7 |         20.00 |        795.97 | 
    |            77 |            36 |             6 |         10.99 |        807.00 | 
    |            77 |            43 |             7 |         20.00 |        827.12 | 
    |            77 |            34 |             6 |          1.09 |        828.28 | 
    |            77 |            40 |             6 |          1.61 |        829.97 | 
    |            77 |            48 |             8 |         15.16 |        845.26 | 
    |            77 |            57 |             9 |         20.01 |        865.47 | 
    |            77 |            45 |             7 |         10.38 |        875.97 | 
    |            77 |            54 |             9 |         20.01 |        896.17 | 
    |            77 |            43 |             7 |          2.76 |        899.09 | 
    |            77 |            51 |             8 |         17.13 |        916.42 | 
    |            77 |            61 |            10 |         20.01 |        936.78 | 
    |            77 |            48 |             7 |          5.84 |        942.74 | 
    |            77 |            57 |             9 |         20.01 |        963.17 | 
    |            77 |            45 |             7 |         18.75 |        982.03 | 
    |            77 |            54 |             9 |         20.01 |       1002.22 | 
    |            77 |            43 |             7 |          2.35 |       1004.68 | 
    |            77 |            51 |             8 |         20.01 |       1024.93 | 
    |            77 |            40 |             6 |          2.30 |       1027.33 | 
    |            77 |            48 |             8 |          1.71 |       1029.15 | 
    |            77 |            57 |             9 |         20.00 |       1049.41 | Academic license - for non-commercial use only
Academic license - for non-commercial use only
Academic license - for non-commercial use only
Academic license - for non-commercial use only
Academic license - for non-commercial use only
Academic license - for non-commercial use only
Academic license - for non-commercial use only
Academic license - for non-commercial use only
Academic license - for non-commercial use only
Academic license - for non-commercial use only
Academic license - for non-commercial use only
Academic license - for non-commercial use only
Academic license - for non-commercial use only
Academic license - for non-commercial use only
Academic license - for non-commercial use only
Academic license - for non-commercial use only
Academic license - for non-commercial use only
Academic license - for non-commercial use only
Academic license - for non-commercial use only
Academic license - for non-commercial use only
Academic license - for non-commercial use only
Academic license - for non-commercial use only
Academic license - for non-commercial use only
Academic license - for non-commercial use only
Academic license - for non-commercial use only
Academic license - for non-commercial use only
Academic license - for non-commercial use only
Academic license - for non-commercial use only
Academic license - for non-commercial use only
Academic license - for non-commercial use only
Academic license - for non-commercial use only
Academic license - for non-commercial use only
Academic license - for non-commercial use only
Academic license - for non-commercial use only
Academic license - for non-commercial use only
Academic license - for non-commercial use only
Academic license - for non-commercial use only
Academic license - for non-commercial use only
Academic license - for non-commercial use only
Academic license - for non-commercial use only
Academic license - for non-commercial use only
Academic license - for non-commercial use only
Academic license - for non-commercial use only
Academic license - for non-commercial use only
Academic license - for non-commercial use only
Academic license - for non-commercial use only
Academic license - for non-commercial use only
Academic license - for non-commercial use only
Academic license - for non-commercial use only
Academic license - for non-commercial use only
Academic license - for non-commercial use only
Academic license - for non-commercial use only
Academic license - for non-commercial use only
Academic license - for non-commercial use only
Academic license - for non-commercial use only
Academic license - for non-commercial use only
Academic license - for non-commercial use only
Academic license - for non-commercial use only
Academic license - for non-commercial use only
Academic license - for non-commercial use only
Academic license - for non-commercial use only
Academic license - for non-commercial use only
Academic license - for non-commercial use only
Academic license - for non-commercial use only
Academic license - for non-commercial use only
Academic license - for non-commercial use only
Academic license - for non-commercial use only
Academic license - for non-commercial use only
Academic license - for non-commercial use only
Academic license - for non-commercial use only
Academic license - for non-commercial use only
Academic license - for non-commercial use only
Academic license - for non-commercial use only
Academic license - for non-commercial use only
Academic license - for non-commercial use only
Academic license - for non-commercial use only
Academic license - for non-commercial use only
Academic license - for non-commercial use only
Academic license - for non-commercial use only
Academic license - for non-commercial use only
Academic license - for non-commercial use only
Academic license - for non-commercial use only
Academic license - for non-commercial use only
Academic license - for non-commercial use only
Academic license - for non-commercial use only
Academic license - for non-commercial use only
Academic license - for non-commercial use only
Academic license - for non-commercial use only
Academic license - for non-commercial use only
Academic license - for non-commercial use only
Academic license - for non-commercial use only
Academic license - for non-commercial use only
Academic license - for non-commercial use only
Academic license - for non-commercial use only
Academic license - for non-commercial use only

    |            77 |            45 |             7 |         20.00 |       1069.51 | 
    |            77 |            36 |             6 |          4.33 |       1073.89 | 
    |            77 |            43 |             7 |         15.83 |       1089.79 | 
    |            77 |            51 |             8 |         20.00 |       1110.00 | 
    |            77 |            40 |             6 |          6.34 |       1116.39 | 
    |            77 |            48 |             8 |         20.00 |       1136.55 | 
    |            77 |            38 |             6 |          2.11 |       1138.75 | 
    |            77 |            45 |             7 |         20.00 |       1158.84 | 
    |            77 |            36 |             6 |          0.65 |       1159.57 | 
    |            77 |            43 |             7 |          5.87 |       1165.53 | 
    |            77 |            51 |             8 |         20.01 |       1185.65 | 
    |            77 |            40 |             6 |          2.68 |       1188.43 | 
    |            77 |            48 |             8 |         20.01 |       1208.55 | 
    |            77 |            38 |             6 |          1.89 |       1210.50 | 
    |            77 |            45 |             7 |         20.00 |       1230.58 | 
    |            77 |            36 |             6 |          3.29 |       1233.97 | 
    |            77 |            43 |             7 |         16.04 |       1250.13 | 
    |            77 |            51 |             8 |         20.00 |       1270.29 | 
    |            77 |            40 |             7 |          3.50 |       1273.87 | 
    |            77 |            48 |             8 |         20.00 |       1294.01 | 
    |            77 |            38 |             6 |         12.29 |       1306.40 | 
    |            77 |            45 |             8 |         20.00 |       1326.54 | 
    |            77 |            36 |             6 |          2.54 |       1329.12 | 
    |            77 |            43 |             7 |          9.50 |       1338.69 | 
    |            77 |            51 |             8 |         20.01 |       1358.88 | 
    |            77 |            40 |             6 |          3.19 |       1362.15 | 
    |            77 |            48 |             8 |         20.00 |       1382.31 | 
    |            77 |            38 |             6 |          5.00 |       1387.36 | 
    |            77 |            45 |             7 |         15.68 |       1403.14 | 
    |            77 |            54 |             9 |         20.00 |       1423.38 | 
    |            77 |            43 |             7 |         20.00 |       1443.47 | 
    |            77 |            34 |             6 |          1.01 |       1444.52 | 
    |            77 |            40 |             7 |          9.97 |       1454.57 | 
    |            77 |            48 |             8 |         20.01 |       1474.72 | 
    |            77 |            38 |             7 |         15.35 |       1490.18 | 
    |            77 |            45 |             7 |         20.00 |       1510.30 | 
    |            77 |            36 |             6 |          0.63 |       1510.99 | 
    |            77 |            43 |             7 |         13.55 |       1524.62 | 
    |            77 |            51 |             8 |         20.02 |       1544.78 | 
    |            77 |            40 |             6 |          5.86 |       1550.70 | 
    |            77 |            48 |             8 |         20.01 |       1570.87 | 
    |            77 |            38 |             6 |          4.78 |       1575.73 | 
    |            77 |            45 |             7 |          5.68 |       1581.50 | 
    |            77 |            54 |             9 |         20.00 |       1601.66 | 
    |            77 |            43 |             7 |         20.00 |       1621.77 | 
    |            77 |            34 |             6 |          5.42 |       1627.24 | 
    |            77 |            40 |             6 |          2.39 |       1629.73 | 
    |            77 |            48 |             8 |          7.42 |       1637.32 | 
    |            77 |            57 |             9 |         20.00 |       1657.51 | 
    |            77 |            45 |             7 |          4.65 |       1662.27 | 
    |            77 |            54 |             8 |         20.00 |       1682.44 | 
    |            77 |            43 |             7 |         20.01 |       1702.57 | 
    |            77 |            34 |             6 |          1.77 |       1704.39 | 
    |            77 |            40 |             6 |          6.82 |       1711.27 | 
    |            77 |            48 |             8 |         16.17 |       1727.61 | 
    |            77 |            57 |             9 |         20.01 |       1747.81 | 
    |            77 |            45 |             7 |         20.00 |       1767.92 | 
    |            77 |            36 |             6 |          1.53 |       1769.52 | 
    |            77 |            43 |             6 |          1.76 |       1771.40 | 
    |            77 |            51 |             8 |         20.02 |       1791.65 | 
    |            77 |            40 |             6 |          7.40 |       1799.10 | 
    |            77 |            48 |             7 |         20.00 |       1819.25 | 
    |            77 |            38 |             6 |          4.28 |       1823.59 | 
    |            77 |            45 |             7 |          4.58 |       1828.28 | 
    |            77 |            54 |             9 |         20.01 |       1848.54 | 
    |            77 |            43 |             7 |          3.24 |       1851.88 | 
    |            77 |            51 |             8 |          8.37 |       1860.41 | 
    |            77 |            61 |            10 |         20.02 |       1880.67 | 
    |            77 |            48 |             8 |          5.43 |       1886.24 | 
    |            77 |            57 |             9 |         20.00 |       1906.47 | 
    |            77 |            45 |             7 |          3.92 |       1910.51 | 
    |            77 |            54 |             9 |         20.00 |       1930.78 | 
    |            77 |            43 |             7 |          6.83 |       1937.68 | 
    |            77 |            51 |             8 |         20.01 |       1957.82 | 
    |            77 |            40 |             6 |          4.88 |       1962.75 | 
    |            77 |            48 |             8 |         20.00 |       1982.92 | 
    |            77 |            38 |             6 |          2.20 |       1985.17 | 
    |            77 |            45 |             7 |         20.01 |       2005.28 | 
    |            77 |            36 |             6 |          1.95 |       2007.28 | 
    |            77 |            43 |             7 |         20.00 |       2027.35 | 
    |            77 |            34 |             6 |          2.99 |       2030.43 | 
    |            77 |            40 |             7 |          3.06 |       2033.56 | 
    |            77 |            48 |             8 |         20.00 |       2053.72 | 
    |            77 |            38 |             6 |         20.00 |       2073.80 | 
    |            77 |            30 |             5 |          0.78 |       2074.62 | 
    |            77 |            36 |             6 |          2.33 |       2077.02 | 
    |            77 |            43 |             7 |          4.13 |       2081.28 | 
    |            77 |            51 |             8 |         20.00 |       2101.46 | 
    |            77 |            40 |             6 |         11.01 |       2112.53 | 
    |            77 |            48 |             8 |         20.00 |       2132.73 | 
    |            77 |            38 |             6 |          2.58 |       2135.39 | 
    |            77 |            45 |             7 |          6.40 |       2141.89 | 
    |            77 |            54 |             8 |         20.00 |       2162.07 | 
    |            77 |            43 |             6 |          5.01 |       2167.17 | 
    |            77 |            51 |             8 |         20.03 |       2187.33 | Academic license - for non-commercial use only
Academic license - for non-commercial use only
Academic license - for non-commercial use only
Academic license - for non-commercial use only
Academic license - for non-commercial use only
Academic license - for non-commercial use only
Academic license - for non-commercial use only
Academic license - for non-commercial use only
Academic license - for non-commercial use only
Academic license - for non-commercial use only
Academic license - for non-commercial use only
Academic license - for non-commercial use only
Academic license - for non-commercial use only
Academic license - for non-commercial use only
Academic license - for non-commercial use only
Academic license - for non-commercial use only
Academic license - for non-commercial use only
Academic license - for non-commercial use only
Academic license - for non-commercial use only
Academic license - for non-commercial use only
Academic license - for non-commercial use only
Academic license - for non-commercial use only
Academic license - for non-commercial use only
Academic license - for non-commercial use only
Academic license - for non-commercial use only
Academic license - for non-commercial use only
Academic license - for non-commercial use only
Academic license - for non-commercial use only
Academic license - for non-commercial use only
Academic license - for non-commercial use only
Academic license - for non-commercial use only
Academic license - for non-commercial use only
Academic license - for non-commercial use only
Academic license - for non-commercial use only
Academic license - for non-commercial use only
Academic license - for non-commercial use only
Academic license - for non-commercial use only
Academic license - for non-commercial use only
Academic license - for non-commercial use only
Academic license - for non-commercial use only
Academic license - for non-commercial use only
Academic license - for non-commercial use only
Academic license - for non-commercial use only
Academic license - for non-commercial use only
Academic license - for non-commercial use only
Academic license - for non-commercial use only
Academic license - for non-commercial use only
Academic license - for non-commercial use only
Academic license - for non-commercial use only
Academic license - for non-commercial use only
Academic license - for non-commercial use only
Academic license - for non-commercial use only
Academic license - for non-commercial use only
Academic license - for non-commercial use only
Academic license - for non-commercial use only
Academic license - for non-commercial use only
Academic license - for non-commercial use only
Academic license - for non-commercial use only
Academic license - for non-commercial use only
Academic license - for non-commercial use only
Academic license - for non-commercial use only
Academic license - for non-commercial use only
Academic license - for non-commercial use only
Academic license - for non-commercial use only
Academic license - for non-commercial use only
Academic license - for non-commercial use only
Academic license - for non-commercial use only
Academic license - for non-commercial use only
Academic license - for non-commercial use only
Academic license - for non-commercial use only
Academic license - for non-commercial use only
Academic license - for non-commercial use only
Academic license - for non-commercial use only
Academic license - for non-commercial use only
Academic license - for non-commercial use only
Academic license - for non-commercial use only
Academic license - for non-commercial use only
Academic license - for non-commercial use only
Academic license - for non-commercial use only
Academic license - for non-commercial use only
Academic license - for non-commercial use only
Academic license - for non-commercial use only
Academic license - for non-commercial use only
Academic license - for non-commercial use only

    |            77 |            40 |             6 |          7.54 |       2194.93 | 
    |            77 |            48 |             7 |         20.00 |       2215.04 | 
    |            77 |            38 |             7 |          2.90 |       2218.03 | 
    |            77 |            45 |             7 |          6.63 |       2224.75 | 
    |            77 |            54 |             9 |         20.01 |       2244.93 | 
    |            77 |            43 |             7 |          8.01 |       2253.05 | 
    |            77 |            51 |             8 |         10.42 |       2263.67 | 
    |            77 |            61 |             9 |         20.07 |       2283.96 | 
    |            77 |            48 |             8 |         18.68 |       2302.77 | 
    |            77 |            57 |             9 |         20.00 |       2323.03 | 
    |            77 |            45 |             7 |          5.47 |       2328.62 | 
    |            77 |            54 |             9 |         20.03 |       2348.91 | 
    |            77 |            43 |             7 |         12.09 |       2361.07 | 
    |            77 |            51 |             8 |         20.00 |       2381.23 | 
    |            77 |            40 |             6 |          7.17 |       2388.52 | 
    |            77 |            48 |             7 |         20.00 |       2408.64 | 
    |            77 |            38 |             6 |          1.93 |       2410.63 | 
    |            77 |            45 |             7 |         20.00 |       2430.74 | 
    |            77 |            36 |             6 |          5.00 |       2435.80 | 
    |            77 |            43 |             7 |          2.33 |       2438.26 | 
    |            77 |            51 |             8 |         20.00 |       2458.40 | 
    |            77 |            40 |             6 |          4.94 |       2463.41 | 
    |            77 |            48 |             7 |         20.00 |       2483.50 | 
    |            77 |            38 |             6 |          5.47 |       2489.02 | 
    |            77 |            45 |             7 |         20.00 |       2509.14 | 
    |            77 |            36 |             6 |          2.74 |       2511.96 | 
    |            77 |            43 |             7 |         16.13 |       2528.18 | 
    |            77 |            51 |             8 |         17.53 |       2545.85 | 
    |            77 |            61 |            10 |         20.00 |       2566.11 | 
    |            77 |            48 |             8 |         20.01 |       2586.23 | 
    |            77 |            38 |             6 |          2.81 |       2589.09 | 
    |            77 |            45 |             7 |          8.41 |       2597.63 | 
    |            77 |            54 |             9 |         20.00 |       2617.88 | 
    |            77 |            43 |             7 |         10.67 |       2628.63 | 
    |            77 |            51 |             8 |         20.01 |       2648.77 | 
    |            77 |            40 |             7 |          1.99 |       2650.88 | 
    |            77 |            48 |             8 |          1.83 |       2652.86 | 
    |            77 |            57 |             9 |         20.00 |       2673.09 | 
    |            77 |            45 |             7 |         19.09 |       2692.27 | 
    |            77 |            54 |             8 |         16.46 |       2708.87 | 
    |            77 |            64 |            10 |         20.04 |       2729.21 | 
    |            77 |            51 |             8 |         20.01 |       2749.36 | 
    |            77 |            40 |             6 |          2.74 |       2752.19 | 
    |            77 |            48 |             8 |         20.00 |       2772.40 | 
    |            77 |            38 |             6 |          1.45 |       2773.90 | 
    |            77 |            45 |             7 |          9.52 |       2783.55 | 
    |            77 |            54 |             8 |         20.00 |       2803.73 | 
    |            77 |            43 |             6 |          3.39 |       2807.21 | 
    |            77 |            51 |             8 |         20.01 |       2827.37 | 
    |            77 |            40 |             7 |         20.00 |       2847.48 | 
    |            77 |            32 |             5 |          0.98 |       2848.49 | 
    |            77 |            38 |             6 |          2.82 |       2851.39 | 
    |            77 |            45 |             7 |         20.00 |       2871.50 | 
    |            77 |            36 |             5 |          0.43 |       2871.96 | 
    |            77 |            43 |             7 |          4.72 |       2876.81 | 
    |            77 |            51 |             8 |         20.00 |       2896.98 | 
    |            77 |            40 |             6 |          3.48 |       2900.55 | 
    |            77 |            48 |             7 |         20.00 |       2920.64 | 
    |            77 |            38 |             6 |          1.75 |       2922.48 | 
    |            77 |            45 |             7 |         20.00 |       2942.64 | 
    |            77 |            36 |             6 |          8.55 |       2951.26 | 
    |            77 |            43 |             7 |         10.52 |       2961.89 | 
    |            77 |            51 |             9 |         20.00 |       2982.07 | 
    |            77 |            40 |             7 |         15.62 |       2997.80 | 
    |            77 |            48 |             8 |         20.00 |       3017.91 | 
    |            77 |            38 |             6 |          1.89 |       3019.89 | 
    |            77 |            45 |             7 |         14.06 |       3034.06 | 
    |            77 |            54 |             9 |         20.03 |       3054.25 | 
    |            77 |            43 |             7 |         12.11 |       3066.49 | 
    |            77 |            51 |             8 |         20.01 |       3086.65 | 
    |            77 |            40 |             6 |          1.10 |       3087.82 | 
    |            77 |            48 |             8 |         20.00 |       3107.99 | 
    |            77 |            38 |             6 |          6.05 |       3114.10 | 
    |            77 |            45 |             7 |         12.24 |       3126.49 | 
    |            77 |            54 |             9 |         20.00 |       3146.69 | 
    |            77 |            43 |             7 |          5.69 |       3152.49 | 
    |            77 |            51 |             8 |         20.00 |       3172.64 | 
    |            77 |            40 |             7 |          3.14 |       3175.87 | 
    |            77 |            48 |             7 |         20.00 |       3195.99 | 
    |            77 |            38 |             6 |          2.47 |       3198.57 | 
    |            77 |            45 |             7 |         20.01 |       3218.69 | 
    |            77 |            36 |             6 |          1.06 |       3219.81 | 
    |            77 |            43 |             7 |          3.12 |       3223.00 | 
    |            77 |            51 |             8 |         16.45 |       3239.62 | 
    \-------------------------------------------------------------------------------/
-14.285714285714285
