Instance....: instances/I_150_15_S_1-49_6.txt
Algorithm...: Simulated Annealing (alpha=0.990, saMax=10M, t0=1)
Other params: maxIters=100M, seed=4, timeLimit=360.00s

    /--------------------------------------------------------\
    |     Iter |   RDP(%) |       S* |       S' |       Time | 
    |----------|----------|----------|----------|------------|
    |        0 |        - |     1055 |     1055 |       0.00 | s0
    |        0 |        - |     1042 |     1042 |       0.00 | *
    |        4 |        - |     1016 |     1016 |       0.02 | *
    |        6 |        - |      954 |      954 |       0.02 | *
    |        7 |        - |      937 |      937 |       0.02 | *
    |        8 |        - |      935 |      935 |       0.02 | *
    |       10 |        - |      930 |      930 |       0.02 | *
    |       12 |        - |      929 |      929 |       0.02 | *
    |       22 |        - |      858 |      858 |       0.03 | *
    |       23 |        - |      831 |      831 |       0.03 | *
    |       29 |        - |      828 |      828 |       0.03 | *
    |       34 |        - |      827 |      827 |       0.03 | *
    |       36 |        - |      821 |      821 |       0.03 | *
    |       40 |        - |      814 |      814 |       0.03 | *
    |       44 |        - |      779 |      779 |       0.03 | *
    |       49 |        - |      774 |      774 |       0.03 | *
    |       52 |        - |      755 |      755 |       0.03 | *
    |       58 |        - |      751 |      751 |       0.03 | *
    |       67 |        - |      745 |      745 |       0.03 | *
    |       72 |        - |      741 |      741 |       0.03 | *
    |       73 |        - |      733 |      733 |       0.03 | *
    |       85 |        - |      732 |      732 |       0.03 | *
    |       88 |        - |      726 |      726 |       0.03 | *
    |       99 |        - |      709 |      709 |       0.03 | *
    |      123 |        - |      692 |      692 |       0.03 | *
    |      125 |        - |      690 |      690 |       0.03 | *
    |      127 |        - |      687 |      687 |       0.03 | *
    |      137 |        - |      679 |      679 |       0.03 | *
    |      139 |        - |      674 |      674 |       0.03 | *
    |      140 |        - |      667 |      667 |       0.04 | *
    |      142 |        - |      663 |      663 |       0.04 | *
    |      171 |        - |      660 |      660 |       0.04 | *
    |      172 |        - |      648 |      648 |       0.04 | *
    |      177 |        - |      645 |      645 |       0.04 | *
    |      184 |        - |      644 |      644 |       0.04 | *
    |      195 |        - |      640 |      640 |       0.04 | *
    |      200 |        - |      639 |      639 |       0.04 | *
    |      202 |        - |      638 |      638 |       0.04 | *
    |      210 |        - |      635 |      635 |       0.04 | *
    |      212 |        - |      630 |      630 |       0.04 | *
    |      214 |        - |      627 |      627 |       0.04 | *
    |      215 |        - |      626 |      626 |       0.04 | *
    |      226 |        - |      624 |      624 |       0.04 | *
    |      246 |        - |      622 |      622 |       0.04 | *
    |      249 |        - |      617 |      617 |       0.04 | *
    |      251 |        - |      608 |      608 |       0.04 | *
    |      261 |        - |      596 |      596 |       0.04 | *
    |      265 |        - |      595 |      595 |       0.04 | *
    |      268 |        - |      588 |      588 |       0.04 | *
    |      277 |        - |      587 |      587 |       0.04 | *
    |      278 |        - |      585 |      585 |       0.04 | *
    |      293 |        - |      584 |      584 |       0.04 | *
    |      296 |        - |      583 |      583 |       0.04 | *
    |      298 |        - |      579 |      579 |       0.04 | *
    |      314 |        - |      578 |      578 |       0.04 | *
    |      317 |        - |      574 |      574 |       0.05 | *
    |      318 |        - |      573 |      573 |       0.05 | *
    |      320 |        - |      572 |      572 |       0.05 | *
    |      321 |        - |      567 |      567 |       0.05 | *
    |      346 |        - |      564 |      564 |       0.05 | *
    |      361 |        - |      558 |      558 |       0.05 | *
    |      384 |        - |      557 |      557 |       0.05 | *
    |      412 |        - |      553 |      553 |       0.05 | *
    |      435 |        - |      549 |      549 |       0.05 | *
    |      438 |        - |      538 |      538 |       0.05 | *
    |      446 |        - |      531 |      531 |       0.05 | *
    |      465 |        - |      525 |      525 |       0.05 | *
    |      466 |        - |      524 |      524 |       0.05 | *
    |      474 |        - |      518 |      518 |       0.05 | *
    |      478 |        - |      516 |      516 |       0.05 | *
    |      496 |        - |      515 |      515 |       0.05 | *
    |      509 |        - |      511 |      511 |       0.05 | *
    |      516 |        - |      507 |      507 |       0.05 | *
    |      517 |        - |      506 |      506 |       0.05 | *
    |      552 |        - |      504 |      504 |       0.05 | *
    |      554 |        - |      503 |      503 |       0.05 | *
    |      555 |        - |      502 |      502 |       0.05 | *
    |      572 |        - |      496 |      496 |       0.05 | *
    |      602 |        - |      494 |      494 |       0.05 | *
    |      604 |        - |      491 |      491 |       0.05 | *
    |      614 |        - |      490 |      490 |       0.06 | *
    |      624 |        - |      489 |      489 |       0.06 | *
    |      628 |        - |      488 |      488 |       0.06 | *
    |      637 |        - |      485 |      485 |       0.06 | *
    |      640 |        - |      484 |      484 |       0.06 | *
    |      641 |        - |      481 |      481 |       0.06 | *
    |      660 |        - |      477 |      477 |       0.06 | *
    |      675 |        - |      472 |      472 |       0.06 | *
    |      683 |        - |      471 |      471 |       0.06 | *
    |      684 |        - |      470 |      470 |       0.06 | *
    |      745 |        - |      469 |      469 |       0.06 | *
    |      748 |        - |      464 |      464 |       0.06 | *
    |      757 |        - |      462 |      462 |       0.06 | *
    |      784 |        - |      461 |      461 |       0.06 | *
    |      788 |        - |      458 |      458 |       0.06 | *
    |      792 |        - |      457 |      457 |       0.06 | *
    |      805 |        - |      456 |      456 |       0.06 | *
    |      807 |        - |      454 |      454 |       0.06 | *
    |      826 |        - |      453 |      453 |       0.06 | *
    |      828 |        - |      452 |      452 |       0.06 | *
    |      843 |        - |      444 |      444 |       0.06 | *
    |      852 |        - |      440 |      440 |       0.06 | *
    |      858 |        - |      438 |      438 |       0.06 | *
    |      878 |        - |      437 |      437 |       0.06 | *
    |      884 |        - |      435 |      435 |       0.06 | *
    |      906 |        - |      434 |      434 |       0.06 | *
    |      929 |        - |      430 |      430 |       0.06 | *
    |      945 |        - |      426 |      426 |       0.06 | *
    |      957 |        - |      424 |      424 |       0.06 | *
    |      970 |        - |      423 |      423 |       0.06 | *
    |      979 |        - |      422 |      422 |       0.07 | *
    |     1022 |        - |      420 |      420 |       0.07 | *
    |     1026 |        - |      418 |      418 |       0.07 | *
    |     1087 |        - |      412 |      412 |       0.07 | *
    |     1134 |        - |      408 |      408 |       0.07 | *
    |     1138 |        - |      407 |      407 |       0.07 | *
    |     1170 |        - |      406 |      406 |       0.07 | *
    |     1212 |        - |      404 |      404 |       0.07 | *
    |     1219 |        - |      399 |      399 |       0.07 | *
    |     1259 |        - |      398 |      398 |       0.07 | *
    |     1264 |        - |      393 |      393 |       0.07 | *
    |     1278 |        - |      392 |      392 |       0.07 | *
    |     1279 |        - |      390 |      390 |       0.07 | *
    |     1282 |        - |      389 |      389 |       0.07 | *
    |     1304 |        - |      386 |      386 |       0.07 | *
    |     1305 |        - |      385 |      385 |       0.07 | *
    |     1306 |        - |      384 |      384 |       0.07 | *
    |     1310 |        - |      378 |      378 |       0.07 | *
    |     1321 |        - |      377 |      377 |       0.07 | *
    |     1348 |        - |      375 |      375 |       0.07 | *
    |     1354 |        - |      374 |      374 |       0.07 | *
    |     1356 |        - |      372 |      372 |       0.07 | *
    |     1364 |        - |      371 |      371 |       0.07 | *
    |     1382 |        - |      368 |      368 |       0.07 | *
    |     1398 |        - |      367 |      367 |       0.07 | *
    |     1406 |        - |      365 |      365 |       0.07 | *
    |     1426 |        - |      364 |      364 |       0.07 | *
    |     1431 |        - |      362 |      362 |       0.08 | *
    |     1441 |        - |      361 |      361 |       0.08 | *
    |     1464 |        - |      359 |      359 |       0.08 | *
    |     1468 |        - |      357 |      357 |       0.08 | *
    |     1489 |        - |      355 |      355 |       0.08 | *
    |     1491 |        - |      352 |      352 |       0.08 | *
    |     1492 |        - |      350 |      350 |       0.08 | *
    |     1494 |        - |      349 |      349 |       0.08 | *
    |     1528 |        - |      348 |      348 |       0.08 | *
    |     1588 |        - |      347 |      347 |       0.08 | *
    |     1612 |        - |      345 |      345 |       0.08 | *
    |     1624 |        - |      343 |      343 |       0.08 | *
    |     1644 |        - |      342 |      342 |       0.08 | *
    |     1672 |        - |      340 |      340 |       0.08 | *
    |     1679 |        - |      339 |      339 |       0.08 | *
    |     1701 |        - |      338 |      338 |       0.08 | *
    |     1702 |        - |      335 |      335 |       0.08 | *
    |     1840 |        - |      332 |      332 |       0.08 | *
    |     1848 |        - |      331 |      331 |       0.08 | *
    |     1849 |        - |      330 |      330 |       0.08 | *
    |     1869 |        - |      329 |      329 |       0.08 | *
    |     2075 |        - |      327 |      327 |       0.08 | *
    |     2095 |        - |      326 |      326 |       0.08 | *
    |     2135 |        - |      325 |      325 |       0.08 | *
    |     2345 |        - |      323 |      323 |       0.08 | *
    |     2418 |        - |      322 |      322 |       0.09 | *
    |     2560 |        - |      321 |      321 |       0.09 | *
    |     2561 |        - |      320 |      320 |       0.09 | *
    |     2581 |        - |      318 |      318 |       0.09 | *
    |     2598 |        - |      316 |      316 |       0.09 | *
    |     2627 |        - |      310 |      310 |       0.09 | *
    |     2633 |        - |      306 |      306 |       0.09 | *
    |     2682 |        - |      305 |      305 |       0.09 | *
    |     2709 |        - |      303 |      303 |       0.09 | *
    |     2749 |        - |      297 |      297 |       0.09 | *
    |     2853 |        - |      296 |      296 |       0.09 | *
    |     2905 |        - |      295 |      295 |       0.09 | *
    |     2909 |        - |      294 |      294 |       0.09 | *
    |     2934 |        - |      291 |      291 |       0.09 | *
    |     2948 |        - |      287 |      287 |       0.09 | *
    |     2954 |        - |      286 |      286 |       0.09 | *
    |     3103 |        - |      285 |      285 |       0.09 | *
    |     3141 |        - |      284 |      284 |       0.09 | *
    |     3161 |        - |      283 |      283 |       0.09 | *
    |     3213 |        - |      281 |      281 |       0.09 | *
    |     3250 |        - |      280 |      280 |       0.09 | *
    |     3258 |        - |      279 |      279 |       0.09 | *
    |     3278 |        - |      278 |      278 |       0.09 | *
    |     3292 |        - |      272 |      272 |       0.09 | *
    |     3341 |        - |      269 |      269 |       0.10 | *
    |     3346 |        - |      267 |      267 |       0.10 | *
    |     3364 |        - |      264 |      264 |       0.10 | *
    |     3689 |        - |      261 |      261 |       0.10 | *
    |     3962 |        - |      260 |      260 |       0.10 | *
    |     3963 |        - |      259 |      259 |       0.10 | *
    |     3983 |        - |      258 |      258 |       0.10 | *
    |     4106 |        - |      257 |      257 |       0.10 | *
    |     4118 |        - |      255 |      255 |       0.10 | *
    |     4119 |        - |      254 |      254 |       0.10 | *
    |     4189 |        - |      253 |      253 |       0.10 | *
    |     4196 |        - |      251 |      251 |       0.10 | *
    |     4203 |        - |      249 |      249 |       0.10 | *
    |     4291 |        - |      247 |      247 |       0.10 | *
    |     4443 |        - |      246 |      246 |       0.10 | *
    |     4477 |        - |      243 |      243 |       0.10 | *
    |     4642 |        - |      242 |      242 |       0.11 | *
    |     5647 |        - |      241 |      241 |       0.11 | *
    |     5757 |        - |      238 |      238 |       0.11 | *
    |     5915 |        - |      237 |      237 |       0.11 | *
    |     6041 |        - |      236 |      236 |       0.11 | *
    |     6080 |        - |      234 |      234 |       0.11 | *
    |     6281 |        - |      233 |      233 |       0.11 | *
    |     6312 |        - |      231 |      231 |       0.11 | *
    |     6388 |        - |      230 |      230 |       0.11 | *
    |     6434 |        - |      229 |      229 |       0.11 | *
    |     6605 |        - |      228 |      228 |       0.11 | *
    |     6638 |        - |      227 |      227 |       0.11 | *
    |     6655 |        - |      226 |      226 |       0.11 | *
    |     6715 |        - |      224 |      224 |       0.11 | *
    |     7438 |        - |      223 |      223 |       0.12 | *
    |     7493 |        - |      222 |      222 |       0.12 | *
    |     7501 |        - |      221 |      221 |       0.12 | *
    |     7604 |        - |      219 |      219 |       0.12 | *
    |     7700 |        - |      218 |      218 |       0.12 | *
    |     7709 |        - |      217 |      217 |       0.12 | *
    |     7727 |        - |      216 |      216 |       0.12 | *
    |     7962 |        - |      215 |      215 |       0.12 | *
    |     8054 |        - |      212 |      212 |       0.12 | *
    |     8185 |        - |      211 |      211 |       0.12 | *
    |     8244 |        - |      210 |      210 |       0.12 | *
    |     8396 |        - |      209 |      209 |       0.12 | *
    |     8472 |        - |      208 |      208 |       0.12 | *
    |     8606 |        - |      206 |      206 |       0.12 | *
    |     8626 |        - |      205 |      205 |       0.12 | *
    |     8793 |        - |      201 |      201 |       0.12 | *
    |     9059 |        - |      200 |      200 |       0.12 | *
    |     9749 |        - |      199 |      199 |       0.12 | *
    |     9803 |        - |      198 |      198 |       0.12 | *
    |      12K |        - |      197 |      197 |       0.13 | *
    |      13K |        - |      195 |      195 |       0.13 | *
    |      13K |        - |      194 |      194 |       0.13 | *
    |      13K |        - |      192 |      192 |       0.13 | *
    |      13K |        - |      191 |      191 |       0.13 | *
    |      14K |        - |      190 |      190 |       0.13 | *
    |      14K |        - |      189 |      189 |       0.13 | *
    |      20K |        - |      187 |      187 |       0.14 | *
    |      20K |        - |      186 |      186 |       0.15 | *
    |      22K |        - |      184 |      184 |       0.15 | *
    |      24K |        - |      182 |      182 |       0.16 | *
    |      24K |        - |      181 |      181 |       0.16 | *
    |      25K |        - |      179 |      179 |       0.16 | *
    |      26K |        - |      178 |      178 |       0.16 | *
    |      26K |        - |      177 |      177 |       0.16 | *
    |      26K |        - |      176 |      176 |       0.16 | *
    |      26K |        - |      175 |      175 |       0.16 | *
    |      28K |        - |      173 |      173 |       0.16 | *
    |      28K |        - |      172 |      172 |       0.17 | *
    |      41K |        - |      171 |      171 |       0.19 | *
    |      41K |        - |      170 |      170 |       0.19 | *
    |      42K |        - |      169 |      169 |       0.19 | *
    |      42K |        - |      168 |      168 |       0.19 | *
    |      43K |        - |      167 |      167 |       0.19 | *
    |      45K |        - |      166 |      166 |       0.19 | *
    |      49K |        - |      164 |      164 |       0.20 | *
    |      50K |        - |      163 |      163 |       0.20 | *
    |      51K |        - |      162 |      162 |       0.21 | *
    |      52K |        - |      161 |      161 |       0.21 | *
    |      52K |        - |      160 |      160 |       0.21 | *
    |      67K |        - |      159 |      159 |       0.23 | *
    |      78K |        - |      158 |      158 |       0.25 | *
    |      79K |        - |      157 |      157 |       0.25 | *
    |      79K |        - |      156 |      156 |       0.25 | *
    |      80K |        - |      155 |      155 |       0.25 | *
    |      80K |        - |      154 |      154 |       0.25 | *
    |      81K |        - |      153 |      153 |       0.25 | *
    |      82K |        - |      152 |      152 |       0.26 | *
    |      85K |        - |      151 |      151 |       0.26 | *
    |      85K |        - |      149 |      149 |       0.26 | *
    |      92K |        - |      148 |      148 |       0.27 | *
    |      93K |        - |      147 |      147 |       0.27 | *
    |      95K |        - |      146 |      146 |       0.28 | *
    |      97K |        - |      145 |      145 |       0.28 | *
    |     100K |        - |      144 |      144 |       0.29 | *
    |     117K |        - |      143 |      143 |       0.32 | *
    |     118K |        - |      142 |      142 |       0.32 | *
    |     205K |        - |      141 |      141 |       0.43 | *
    |     231K |        - |      140 |      140 |       0.47 | *
    |     234K |        - |      139 |      139 |       0.47 | *
    |     236K |        - |      138 |      138 |       0.47 | *
    |     236K |        - |      137 |      137 |       0.47 | *
    |     577K |        - |      136 |      136 |       0.93 | *
    |     589K |        - |      135 |      135 |       0.95 | *
    |     594K |        - |      134 |      134 |       0.96 | *
    |     595K |        - |      133 |      133 |       0.96 | *
    |     771K |        - |      132 |      132 |       1.19 | *
    |     771K |        - |      131 |      131 |       1.19 | *
    |     785K |        - |      130 |      130 |       1.21 | *
    |     809K |        - |      128 |      128 |       1.24 | *
    |    1367K |        - |      127 |      127 |       1.97 | *
    |    1392K |        - |      126 |      126 |       2.01 | *
    |    2411K |        - |      125 |      125 |       3.46 | *
    |    2631K |        - |      124 |      124 |       3.79 | *
    |    2888K |        - |      123 |      123 |       4.16 | *
    |    3743K |        - |      122 |      122 |       5.34 | *
    |      12M |        - |      121 |      121 |      16.21 | *
    |      12M |        - |      120 |      120 |      16.70 | *
    |      24M |        - |      119 |      119 |      31.47 | *
    |      77M |        - |      118 |      118 |     100.15 | *
    |     182M |        - |      117 |      117 |     236.94 | *
    |     201M |        - |      116 |      116 |     262.07 | *
    |     228M |        - |      115 |      115 |     296.92 | *
    |     238M |        - |      114 |      114 |     311.74 | *
    \--------------------------------------------------------/

Neighborhoods statistics (values in %):

    /----------------------------------------------------------------\
    | Move               | Improvs. | Sideways |  Accepts |  Rejects |
    |--------------------|----------|----------|----------|----------|
    | Shift(mk)          |      21K |      27K |      56K |      11M |
    | Shift              |     1420 |     228K |     247K |      11M |
    | ShiftSmart(mk)     |     158K |     202K |     419K |      11M |
    | ShiftSmart         |      11K |    1361K |    1467K |    9748K |
    | SimpSwap(mk)       |      110 |      151 |      303 |      11M |
    | SimpSwap           |       10 |      603 |      706 |      11M |
    | SimpSwapSmart(mk)  |      929 |     1307 |     2686 |      11M |
    | SimpSwapSmart      |      125 |     5601 |     6587 |      11M |
    | Swap(mk)           |       27 |       37 |       77 |      11M |
    | Swap               |        1 |      162 |      191 |      11M |
    | SwapSmart(mk)      |      850 |     1553 |     2820 |      11M |
    | SwapSmart          |      128 |     5440 |     6330 |      11M |
    | Switch(mk)         |     6867 |    1158K |    1167K |      10M |
    | Switch             |      476 |    1252K |    1258K |    9967K |
    | SwitchSmart(mk)    |      48K |      62K |     126K |      11M |
    | SwitchSmart        |     3349 |     461K |     500K |      11M |
    | TaskMove(mk)       |     1087 |     1613 |     3150 |      11M |
    | TaskMove           |       77 |     3753 |     4408 |      11M |
    | TaskMoveSmart(mk)  |     8387 |      13K |      25K |      11M |
    | TaskMoveSmart      |      644 |      30K |      36K |      11M |
    | 2-Shift(mk)        |     6325 |     151K |     159K |      11M |
    | 2-Shift            |      421 |     228K |     234K |      11M |
    | 2-ShiftSmart(mk)   |      56K |     312K |     381K |      11M |
    | 2-ShiftSmart       |     3789 |     724K |     759K |      10M |
    \----------------------------------------------------------------/

Best makespan.....: 114
N. of Iterations..: 269282072
Total runtime.....: 360.01s
Academic license - for non-commercial use only
Academic license - for non-commercial use only
Academic license - for non-commercial use only
Academic license - for non-commercial use only
Academic license - for non-commercial use only
Academic license - for non-commercial use only
Academic license - for non-commercial use only
Academic license - for non-commercial use only
Academic license - for non-commercial use only
Academic license - for non-commercial use only
Academic license - for non-commercial use only
Academic license - for non-commercial use only
Academic license - for non-commercial use only
Academic license - for non-commercial use only
Academic license - for non-commercial use only
Academic license - for non-commercial use only
Academic license - for non-commercial use only
Academic license - for non-commercial use only
Academic license - for non-commercial use only
Academic license - for non-commercial use only
Academic license - for non-commercial use only
Academic license - for non-commercial use only
Academic license - for non-commercial use only
Academic license - for non-commercial use only
Academic license - for non-commercial use only
Academic license - for non-commercial use only
Academic license - for non-commercial use only
Academic license - for non-commercial use only
Academic license - for non-commercial use only
Academic license - for non-commercial use only
Academic license - for non-commercial use only
Academic license - for non-commercial use only
Academic license - for non-commercial use only
Academic license - for non-commercial use only
Academic license - for non-commercial use only
Academic license - for non-commercial use only
Academic license - for non-commercial use only
Academic license - for non-commercial use only
Academic license - for non-commercial use only
Academic license - for non-commercial use only
Academic license - for non-commercial use only
Academic license - for non-commercial use only
Academic license - for non-commercial use only
Academic license - for non-commercial use only
Academic license - for non-commercial use only
Academic license - for non-commercial use only
Academic license - for non-commercial use only
Academic license - for non-commercial use only
Academic license - for non-commercial use only
Academic license - for non-commercial use only
Academic license - for non-commercial use only
Academic license - for non-commercial use only
Academic license - for non-commercial use only
Academic license - for non-commercial use only
Academic license - for non-commercial use only
Academic license - for non-commercial use only
Academic license - for non-commercial use only
Academic license - for non-commercial use only
Academic license - for non-commercial use only
Academic license - for non-commercial use only
Academic license - for non-commercial use only
Academic license - for non-commercial use only
Academic license - for non-commercial use only
Academic license - for non-commercial use only
Academic license - for non-commercial use only
Academic license - for non-commercial use only
Academic license - for non-commercial use only
Academic license - for non-commercial use only
Academic license - for non-commercial use only
Academic license - for non-commercial use only
Academic license - for non-commercial use only
Academic license - for non-commercial use only
Academic license - for non-commercial use only
Academic license - for non-commercial use only
Academic license - for non-commercial use only
Academic license - for non-commercial use only
Academic license - for non-commercial use only
Academic license - for non-commercial use only
Academic license - for non-commercial use only
Academic license - for non-commercial use only
Academic license - for non-commercial use only
Academic license - for non-commercial use only
Academic license - for non-commercial use only
Academic license - for non-commercial use only
Academic license - for non-commercial use only
Academic license - for non-commercial use only
Academic license - for non-commercial use only
Academic license - for non-commercial use only
Academic license - for non-commercial use only
Academic license - for non-commercial use only
Academic license - for non-commercial use only
Academic license - for non-commercial use only
    /-------------------------------------------------------------------------------\
    |    Makespan   |   Free Jobs   | Free Machines |    It. Time   |   Total Time  | 
    |-------------------------------------------------------------------------------|
    |           114 |            30 |             3 |          0.42 |          1.01 | 
    |           114 |            36 |             4 |          2.71 |          3.86 | 
    |           114 |            43 |             5 |          2.78 |          6.77 | 
    |           114 |            51 |             5 |         20.01 |         26.92 | 
    |           113 |            40 |             5 |         16.47 |         43.50 | *
    |           113 |            40 |             5 |          4.25 |         47.82 | 
    |           113 |            48 |             5 |          8.49 |         56.45 | 
    |           113 |            57 |             6 |         20.04 |         76.67 | 
    |           113 |            45 |             5 |          2.56 |         79.35 | 
    |           113 |            54 |             6 |         13.61 |         93.16 | 
    |           112 |            64 |             7 |         20.01 |        113.47 | *
    |           112 |            64 |             7 |         20.02 |        133.76 | 
    |           112 |            51 |             5 |          3.38 |        137.33 | 
    |           112 |            61 |             7 |         20.01 |        157.72 | 
    |           111 |            48 |             5 |         20.00 |        177.86 | *
    |           111 |            48 |             6 |          5.19 |        183.21 | 
    |           111 |            57 |             6 |         20.00 |        203.40 | 
    |           111 |            45 |             4 |          2.45 |        205.91 | 
    |           111 |            54 |             6 |          6.36 |        212.48 | 
    |           111 |            64 |             7 |         20.01 |        232.90 | 
    |           111 |            51 |             6 |         13.16 |        246.22 | 
    |           111 |            61 |             6 |         16.92 |        263.44 | 
    |           111 |            73 |             7 |         20.01 |        283.81 | 
    |           111 |            58 |             6 |         20.01 |        304.03 | 
    |           111 |            46 |             5 |          9.07 |        313.23 | 
    |           111 |            55 |             6 |         20.01 |        333.45 | 
    |           111 |            44 |             5 |          5.25 |        338.82 | 
    |           111 |            52 |             5 |          2.99 |        341.96 | 
    |           110 |            62 |             7 |         20.01 |        362.29 | *
    |           110 |            62 |             6 |          6.78 |        369.25 | 
    |           110 |            74 |             8 |         20.01 |        389.77 | 
    |           110 |            59 |             6 |         20.01 |        410.03 | 
    |           110 |            47 |             5 |          3.43 |        413.59 | 
    |           110 |            56 |             6 |          6.27 |        420.09 | 
    |           110 |            67 |             7 |         12.27 |        432.58 | 
    |           110 |            80 |             8 |         20.01 |        453.19 | 
    |           110 |            64 |             7 |         12.68 |        466.18 | 
    |           110 |            76 |             8 |         20.01 |        486.62 | 
    |           110 |            60 |             6 |         11.72 |        498.51 | 
    |           110 |            72 |             7 |         20.01 |        518.88 | 
    |           110 |            57 |             6 |          6.43 |        525.48 | 
    |           110 |            68 |             7 |         20.01 |        545.82 | 
    |           110 |            54 |             5 |          2.36 |        548.35 | 
    |           110 |            64 |             6 |         10.06 |        558.64 | 
    |           110 |            76 |             8 |         20.01 |        579.11 | 
    |           110 |            60 |             6 |         20.00 |        599.25 | 
    |           110 |            48 |             5 |          2.18 |        601.54 | 
    |           110 |            57 |             6 |         18.24 |        620.00 | 
    |           110 |            68 |             7 |          6.30 |        626.62 | 
    |           110 |            81 |             9 |         20.01 |        647.26 | 
    |           110 |            64 |             7 |          9.46 |        657.01 | 
    |           110 |            76 |             7 |         20.00 |        677.33 | 
    |           110 |            60 |             6 |          7.93 |        685.49 | 
    |           110 |            72 |             8 |         20.04 |        705.94 | 
    |           110 |            57 |             5 |          6.10 |        712.14 | 
    |           110 |            68 |             7 |          7.93 |        720.44 | 
    |           110 |            81 |             9 |         20.02 |        740.96 | 
    |           110 |            64 |             6 |         20.00 |        761.16 | 
    |           110 |            51 |             5 |          2.83 |        764.08 | 
    |           110 |            61 |             6 |          4.42 |        768.81 | 
    |           110 |            73 |             7 |         20.01 |        789.17 | 
    |           110 |            58 |             6 |         20.01 |        809.38 | 
    |           110 |            46 |             5 |          6.70 |        816.23 | 
    |           110 |            55 |             6 |          8.17 |        824.64 | 
    |           110 |            66 |             7 |          8.27 |        833.17 | 
    |           110 |            79 |             8 |         20.01 |        853.71 | 
    |           110 |            63 |             6 |          9.45 |        863.38 | 
    |           110 |            75 |             8 |         20.01 |        883.83 | 
    |           110 |            60 |             6 |          3.38 |        887.45 | 
    |           110 |            72 |             7 |         20.04 |        907.87 | 
    |           110 |            57 |             6 |         10.14 |        918.20 | 
    |           110 |            68 |             7 |         20.02 |        938.48 | 
    |           110 |            54 |             6 |          9.74 |        948.38 | 
    |           110 |            64 |             7 |         13.80 |        962.57 | 
    |           110 |            76 |             8 |         20.01 |        982.98 | 
    |           110 |            60 |             6 |          8.09 |        991.28 | 
    |           110 |            72 |             7 |         20.00 |       1011.68 | 
    |           110 |            57 |             5 |         12.21 |       1024.01 | 
    |           110 |            68 |             7 |         20.02 |       1044.50 | 
    |           110 |            54 |             5 |          3.17 |       1047.81 | 
    |           110 |            64 |             7 |         20.01 |       1068.17 | 
    |           110 |            51 |             5 |          2.29 |       1070.55 | 
    |           110 |            61 |             6 |          6.78 |       1077.57 | 
    |           110 |            73 |             7 |         20.01 |       1097.98 | 
    |           110 |            58 |             6 |          7.94 |       1106.12 | 
    |           110 |            69 |             7 |         20.01 |       1126.49 | 
    |           110 |            55 |             6 |          4.58 |       1131.23 | 
    |           110 |            66 |             7 |         20.00 |       1151.56 | 
    |           110 |            52 |             5 |          4.70 |       1156.36 | 
    |           110 |            62 |             6 |         20.02 |       1176.60 | 
    |           110 |            49 |             5 |          2.25 |       1178.96 | 
    |           110 |            58 |             6 |          7.05 |       1186.17 | Academic license - for non-commercial use only
Academic license - for non-commercial use only
Academic license - for non-commercial use only
Academic license - for non-commercial use only
Academic license - for non-commercial use only
Academic license - for non-commercial use only
Academic license - for non-commercial use only
Academic license - for non-commercial use only
Academic license - for non-commercial use only
Academic license - for non-commercial use only
Academic license - for non-commercial use only
Academic license - for non-commercial use only
Academic license - for non-commercial use only
Academic license - for non-commercial use only
Academic license - for non-commercial use only
Academic license - for non-commercial use only
Academic license - for non-commercial use only
Academic license - for non-commercial use only
Academic license - for non-commercial use only
Academic license - for non-commercial use only
Academic license - for non-commercial use only
Academic license - for non-commercial use only
Academic license - for non-commercial use only
Academic license - for non-commercial use only
Academic license - for non-commercial use only
Academic license - for non-commercial use only
Academic license - for non-commercial use only
Academic license - for non-commercial use only
Academic license - for non-commercial use only
Academic license - for non-commercial use only
Academic license - for non-commercial use only
Academic license - for non-commercial use only
Academic license - for non-commercial use only
Academic license - for non-commercial use only
Academic license - for non-commercial use only
Academic license - for non-commercial use only
Academic license - for non-commercial use only
Academic license - for non-commercial use only
Academic license - for non-commercial use only
Academic license - for non-commercial use only
Academic license - for non-commercial use only
Academic license - for non-commercial use only
Academic license - for non-commercial use only
Academic license - for non-commercial use only
Academic license - for non-commercial use only
Academic license - for non-commercial use only
Academic license - for non-commercial use only
Academic license - for non-commercial use only
Academic license - for non-commercial use only
Academic license - for non-commercial use only
Academic license - for non-commercial use only
Academic license - for non-commercial use only
Academic license - for non-commercial use only
Academic license - for non-commercial use only
Academic license - for non-commercial use only
Academic license - for non-commercial use only
Academic license - for non-commercial use only
Academic license - for non-commercial use only
Academic license - for non-commercial use only
Academic license - for non-commercial use only
Academic license - for non-commercial use only
Academic license - for non-commercial use only
Academic license - for non-commercial use only
Academic license - for non-commercial use only
Academic license - for non-commercial use only
Academic license - for non-commercial use only
Academic license - for non-commercial use only
Academic license - for non-commercial use only
Academic license - for non-commercial use only
Academic license - for non-commercial use only
Academic license - for non-commercial use only
Academic license - for non-commercial use only
Academic license - for non-commercial use only
Academic license - for non-commercial use only
Academic license - for non-commercial use only
Academic license - for non-commercial use only
Academic license - for non-commercial use only
Academic license - for non-commercial use only
Academic license - for non-commercial use only
Academic license - for non-commercial use only
Academic license - for non-commercial use only
Academic license - for non-commercial use only
Academic license - for non-commercial use only
Academic license - for non-commercial use only
Academic license - for non-commercial use only
Academic license - for non-commercial use only
Academic license - for non-commercial use only
Academic license - for non-commercial use only
Academic license - for non-commercial use only
Academic license - for non-commercial use only
Academic license - for non-commercial use only
Academic license - for non-commercial use only
Academic license - for non-commercial use only
Academic license - for non-commercial use only
Academic license - for non-commercial use only

    |           110 |            69 |             7 |         20.00 |       1206.47 | 
    |           110 |            55 |             6 |          6.46 |       1213.10 | 
    |           110 |            66 |             6 |         13.17 |       1226.46 | 
    |           110 |            79 |             8 |         15.76 |       1242.62 | 
    |           110 |            94 |            10 |         20.02 |       1263.39 | 
    |           110 |            75 |             8 |         20.00 |       1283.85 | 
    |           110 |            60 |             6 |          7.79 |       1291.77 | 
    |           110 |            72 |             8 |         20.00 |       1312.42 | 
    |           110 |            57 |             6 |          5.58 |       1318.14 | 
    |           110 |            68 |             7 |         20.01 |       1338.38 | 
    |           110 |            54 |             6 |          2.68 |       1341.25 | 
    |           110 |            64 |             6 |         17.74 |       1359.24 | 
    |           110 |            76 |             8 |         20.06 |       1379.81 | 
    |           110 |            60 |             7 |         20.01 |       1400.14 | 
    |           110 |            48 |             5 |          2.83 |       1403.07 | 
    |           110 |            57 |             6 |          7.28 |       1410.56 | 
    |           110 |            68 |             7 |         20.00 |       1430.94 | 
    |           110 |            54 |             6 |         20.02 |       1451.13 | 
    |           110 |            43 |             5 |          2.51 |       1453.73 | 
    |           110 |            51 |             5 |          5.40 |       1459.30 | 
    |           110 |            61 |             6 |         10.46 |       1470.00 | 
    |           110 |            73 |             8 |         20.01 |       1490.40 | 
    |           110 |            58 |             6 |          9.34 |       1499.93 | 
    |           110 |            69 |             8 |         20.00 |       1520.41 | 
    |           110 |            55 |             6 |          2.74 |       1523.33 | 
    |           110 |            66 |             6 |         20.00 |       1543.62 | 
    |           110 |            52 |             5 |          7.47 |       1551.18 | 
    |           110 |            62 |             7 |          7.62 |       1559.20 | 
    |           110 |            74 |             7 |         12.34 |       1571.80 | 
    |           110 |            88 |             9 |         20.01 |       1592.51 | 
    |           110 |            70 |             7 |         20.00 |       1612.81 | 
    |           110 |            56 |             6 |          4.67 |       1617.63 | 
    |           110 |            67 |             7 |         20.00 |       1637.99 | 
    |           110 |            53 |             6 |          4.78 |       1642.98 | 
    |           110 |            63 |             7 |         15.64 |       1659.10 | 
    |           110 |            75 |             8 |         20.01 |       1679.54 | 
    |           110 |            60 |             6 |          6.14 |       1685.84 | 
    |           110 |            72 |             8 |         20.01 |       1706.29 | 
    |           110 |            57 |             6 |          5.28 |       1711.79 | 
    |           110 |            68 |             7 |         20.02 |       1732.20 | 
    |           110 |            54 |             5 |          3.17 |       1735.47 | 
    |           110 |            64 |             6 |         20.02 |       1755.82 | 
    |           110 |            51 |             6 |         20.00 |       1776.01 | 
    |           110 |            40 |             4 |          0.70 |       1776.76 | 
    |           110 |            48 |             5 |          3.10 |       1779.96 | 
    |           110 |            57 |             6 |         11.36 |       1791.54 | 
    |           110 |            68 |             6 |         20.00 |       1811.80 | 
    |           110 |            54 |             6 |         20.00 |       1832.05 | 
    |           110 |            43 |             4 |          2.04 |       1834.15 | 
    |           110 |            51 |             6 |          2.78 |       1837.21 | 
    |           110 |            61 |             6 |         12.60 |       1850.00 | 
    |           110 |            73 |             7 |         20.01 |       1870.37 | 
    |           110 |            58 |             6 |         15.87 |       1886.41 | 
    |           110 |            69 |             7 |         16.01 |       1902.72 | 
    |           110 |            82 |             9 |         20.01 |       1923.31 | 
    |           110 |            65 |             7 |         20.00 |       1943.61 | 
    |           110 |            52 |             5 |         15.18 |       1959.07 | 
    |           110 |            62 |             7 |         10.13 |       1969.45 | 
    |           110 |            74 |             8 |         20.01 |       1990.02 | 
    |           110 |            59 |             6 |         20.00 |       2010.23 | 
    |           110 |            47 |             5 |          3.14 |       2013.45 | 
    |           110 |            56 |             7 |         20.01 |       2033.77 | 
    |           110 |            44 |             4 |          1.19 |       2035.02 | 
    |           110 |            52 |             5 |          3.73 |       2038.86 | 
    |           110 |            62 |             7 |         20.01 |       2059.18 | 
    |           110 |            49 |             5 |         15.65 |       2074.91 | 
    |           110 |            58 |             6 |          7.15 |       2082.23 | 
    |           110 |            69 |             6 |         20.01 |       2102.50 | 
    |           110 |            55 |             5 |          3.64 |       2106.24 | 
    |           110 |            66 |             7 |         20.00 |       2126.48 | 
    |           110 |            52 |             6 |         20.00 |       2146.67 | 
    |           110 |            41 |             5 |          0.94 |       2147.73 | 
    |           110 |            49 |             5 |          4.45 |       2152.27 | 
    |           110 |            58 |             6 |         20.00 |       2172.53 | 
    |           110 |            46 |             5 |          2.12 |       2174.74 | 
    |           110 |            55 |             6 |         13.44 |       2188.36 | 
    |           110 |            66 |             7 |         20.01 |       2208.66 | 
    |           110 |            52 |             5 |         17.43 |       2226.22 | 
    |           110 |            62 |             7 |          7.68 |       2234.23 | 
    |           110 |            74 |             8 |         20.01 |       2254.64 | 
    |           110 |            59 |             6 |         11.39 |       2266.23 | 
    |           110 |            70 |             7 |         20.01 |       2286.64 | 
    |           110 |            56 |             6 |          6.19 |       2293.00 | 
    |           110 |            67 |             7 |         20.00 |       2313.28 | 
    |           110 |            53 |             5 |          3.04 |       2316.42 | 
    |           110 |            63 |             6 |          7.75 |       2324.45 | 
    |           110 |            75 |             8 |         20.01 |       2344.81 | 
    |           110 |            60 |             7 |          8.33 |       2353.33 | 
    |           110 |            72 |             8 |         20.11 |       2373.99 | 
    |           110 |            57 |             5 |          3.18 |       2377.35 | 
    |           110 |            68 |             7 |         12.95 |       2390.63 | 
    |           110 |            81 |             8 |         20.01 |       2411.02 | 
    |           110 |            64 |             7 |         10.79 |       2422.06 | 
    |           110 |            76 |             8 |         20.14 |       2442.60 | 
    |           110 |            60 |             6 |          4.25 |       2447.05 | Academic license - for non-commercial use only
Academic license - for non-commercial use only
Academic license - for non-commercial use only
Academic license - for non-commercial use only
Academic license - for non-commercial use only
Academic license - for non-commercial use only
Academic license - for non-commercial use only
Academic license - for non-commercial use only
Academic license - for non-commercial use only
Academic license - for non-commercial use only
Academic license - for non-commercial use only
Academic license - for non-commercial use only
Academic license - for non-commercial use only
Academic license - for non-commercial use only
Academic license - for non-commercial use only
Academic license - for non-commercial use only
Academic license - for non-commercial use only
Academic license - for non-commercial use only
Academic license - for non-commercial use only
Academic license - for non-commercial use only
Academic license - for non-commercial use only
Academic license - for non-commercial use only
Academic license - for non-commercial use only
Academic license - for non-commercial use only
Academic license - for non-commercial use only
Academic license - for non-commercial use only
Academic license - for non-commercial use only
Academic license - for non-commercial use only
Academic license - for non-commercial use only
Academic license - for non-commercial use only
Academic license - for non-commercial use only
Academic license - for non-commercial use only
Academic license - for non-commercial use only
Academic license - for non-commercial use only
Academic license - for non-commercial use only
Academic license - for non-commercial use only
Academic license - for non-commercial use only
Academic license - for non-commercial use only
Academic license - for non-commercial use only
Academic license - for non-commercial use only
Academic license - for non-commercial use only
Academic license - for non-commercial use only
Academic license - for non-commercial use only
Academic license - for non-commercial use only
Academic license - for non-commercial use only
Academic license - for non-commercial use only
Academic license - for non-commercial use only
Academic license - for non-commercial use only
Academic license - for non-commercial use only
Academic license - for non-commercial use only
Academic license - for non-commercial use only
Academic license - for non-commercial use only
Academic license - for non-commercial use only
Academic license - for non-commercial use only
Academic license - for non-commercial use only
Academic license - for non-commercial use only
Academic license - for non-commercial use only
Academic license - for non-commercial use only
Academic license - for non-commercial use only
Academic license - for non-commercial use only
Academic license - for non-commercial use only
Academic license - for non-commercial use only
Academic license - for non-commercial use only

    |           110 |            72 |             7 |         20.01 |       2467.57 | 
    |           110 |            57 |             6 |         19.66 |       2487.37 | 
    |           110 |            68 |             7 |         20.01 |       2507.74 | 
    |           110 |            54 |             6 |          5.02 |       2512.95 | 
    |           110 |            64 |             6 |         20.00 |       2533.13 | 
    |           110 |            51 |             5 |         13.53 |       2546.80 | 
    |           110 |            61 |             6 |         20.01 |       2567.06 | 
    |           110 |            48 |             5 |          2.87 |       2570.10 | 
    |           110 |            57 |             6 |          5.63 |       2575.90 | 
    |           110 |            68 |             7 |         20.00 |       2596.26 | 
    |           110 |            54 |             6 |          5.59 |       2602.01 | 
    |           110 |            64 |             7 |         20.01 |       2622.37 | 
    |           110 |            51 |             6 |          2.38 |       2624.89 | 
    |           110 |            61 |             7 |         17.21 |       2642.46 | 
    |           110 |            73 |             7 |         20.01 |       2662.92 | 
    |           110 |            58 |             5 |         20.00 |       2683.06 | 
    |           110 |            46 |             5 |          3.85 |       2687.04 | 
    |           110 |            55 |             5 |          8.42 |       2695.57 | 
    |           110 |            66 |             7 |         20.01 |       2715.87 | 
    |           110 |            52 |             6 |         20.00 |       2736.07 | 
    |           110 |            41 |             4 |          0.85 |       2736.98 | 
    |           110 |            49 |             5 |          2.53 |       2739.73 | 
    |           110 |            58 |             6 |          8.49 |       2748.45 | 
    |           110 |            69 |             8 |         20.01 |       2768.80 | 
    |           110 |            55 |             6 |         13.42 |       2782.41 | 
    |           110 |            66 |             6 |         20.02 |       2802.64 | 
    |           110 |            52 |             6 |          4.59 |       2807.37 | 
    |           110 |            62 |             6 |         20.03 |       2827.62 | 
    |           110 |            49 |             5 |          1.82 |       2829.65 | 
    |           110 |            58 |             6 |          5.77 |       2835.62 | 
    |           110 |            69 |             7 |         20.00 |       2855.94 | 
    |           110 |            55 |             5 |          4.72 |       2860.76 | 
    |           110 |            66 |             7 |          8.80 |       2869.81 | 
    |           110 |            79 |             8 |         20.01 |       2890.30 | 
    |           110 |            63 |             6 |         10.69 |       2901.22 | 
    |           110 |            75 |             7 |         20.00 |       2921.51 | 
    |           110 |            60 |             6 |         20.00 |       2941.76 | 
    |           110 |            48 |             5 |          2.05 |       2943.97 | 
    |           110 |            57 |             6 |          4.84 |       2949.10 | 
    |           110 |            68 |             7 |         20.01 |       2969.38 | 
    |           110 |            54 |             5 |          2.44 |       2971.95 | 
    |           110 |            64 |             7 |         20.01 |       2992.23 | 
    |           110 |            51 |             5 |          8.57 |       3000.98 | 
    |           110 |            61 |             6 |         20.00 |       3021.14 | 
    |           110 |            48 |             6 |          3.49 |       3024.80 | 
    |           110 |            57 |             5 |          4.77 |       3029.75 | 
    |           110 |            68 |             6 |         20.01 |       3049.97 | 
    |           110 |            54 |             5 |          7.86 |       3058.00 | 
    |           110 |            64 |             6 |         20.00 |       3078.22 | 
    |           110 |            51 |             6 |          4.67 |       3083.06 | 
    |           110 |            61 |             6 |         20.01 |       3103.27 | 
    |           110 |            48 |             5 |          4.23 |       3107.62 | 
    |           110 |            57 |             6 |          4.90 |       3112.72 | 
    |           110 |            68 |             7 |         20.01 |       3133.01 | 
    |           110 |            54 |             5 |          3.58 |       3136.77 | 
    |           110 |            64 |             6 |         20.00 |       3156.98 | 
    |           110 |            51 |             5 |          4.72 |       3161.82 | 
    |           110 |            61 |             6 |         20.00 |       3182.06 | 
    |           110 |            48 |             5 |          8.09 |       3190.30 | 
    |           110 |            57 |             6 |         16.90 |       3207.35 | 
    |           110 |            68 |             7 |         20.00 |       3227.67 | 
    |           110 |            54 |             5 |          4.65 |       3232.45 | 
    |           110 |            64 |             6 |          6.93 |       3239.58 | 
    \-------------------------------------------------------------------------------/
-10.909090909090908
