Instance....: instances/I_100_15_S_1-49_4.txt
Algorithm...: Simulated Annealing (alpha=0.990, saMax=10M, t0=1)
Other params: maxIters=100M, seed=1, timeLimit=360.00s

    /--------------------------------------------------------\
    |     Iter |   RDP(%) |       S* |       S' |       Time | 
    |----------|----------|----------|----------|------------|
    |        0 |        - |      968 |      968 |       0.00 | s0
    |        2 |        - |      937 |      937 |       0.02 | *
    |        9 |        - |      887 |      887 |       0.02 | *
    |       11 |        - |      875 |      875 |       0.02 | *
    |       12 |        - |      866 |      866 |       0.02 | *
    |       15 |        - |      863 |      863 |       0.02 | *
    |       17 |        - |      838 |      838 |       0.02 | *
    |       18 |        - |      835 |      835 |       0.02 | *
    |       19 |        - |      820 |      820 |       0.02 | *
    |       29 |        - |      811 |      811 |       0.02 | *
    |       30 |        - |      801 |      801 |       0.02 | *
    |       31 |        - |      758 |      758 |       0.03 | *
    |       38 |        - |      730 |      730 |       0.03 | *
    |       47 |        - |      672 |      672 |       0.03 | *
    |       52 |        - |      671 |      671 |       0.03 | *
    |       57 |        - |      666 |      666 |       0.03 | *
    |       59 |        - |      660 |      660 |       0.03 | *
    |       60 |        - |      658 |      658 |       0.03 | *
    |       62 |        - |      655 |      655 |       0.03 | *
    |       63 |        - |      654 |      654 |       0.03 | *
    |       65 |        - |      651 |      651 |       0.03 | *
    |       67 |        - |      650 |      650 |       0.03 | *
    |       68 |        - |      647 |      647 |       0.03 | *
    |       69 |        - |      636 |      636 |       0.03 | *
    |       77 |        - |      615 |      615 |       0.03 | *
    |       79 |        - |      614 |      614 |       0.03 | *
    |       82 |        - |      608 |      608 |       0.03 | *
    |       86 |        - |      574 |      574 |       0.03 | *
    |       92 |        - |      565 |      565 |       0.03 | *
    |      101 |        - |      557 |      557 |       0.03 | *
    |      102 |        - |      545 |      545 |       0.03 | *
    |      107 |        - |      544 |      544 |       0.03 | *
    |      123 |        - |      537 |      537 |       0.03 | *
    |      128 |        - |      535 |      535 |       0.03 | *
    |      130 |        - |      531 |      531 |       0.03 | *
    |      134 |        - |      519 |      519 |       0.04 | *
    |      158 |        - |      508 |      508 |       0.04 | *
    |      160 |        - |      504 |      504 |       0.04 | *
    |      166 |        - |      502 |      502 |       0.04 | *
    |      167 |        - |      481 |      481 |       0.04 | *
    |      171 |        - |      477 |      477 |       0.04 | *
    |      178 |        - |      473 |      473 |       0.04 | *
    |      179 |        - |      470 |      470 |       0.04 | *
    |      185 |        - |      468 |      468 |       0.04 | *
    |      189 |        - |      462 |      462 |       0.04 | *
    |      191 |        - |      461 |      461 |       0.04 | *
    |      198 |        - |      456 |      456 |       0.04 | *
    |      216 |        - |      455 |      455 |       0.04 | *
    |      219 |        - |      454 |      454 |       0.04 | *
    |      225 |        - |      444 |      444 |       0.04 | *
    |      231 |        - |      442 |      442 |       0.04 | *
    |      232 |        - |      437 |      437 |       0.04 | *
    |      233 |        - |      436 |      436 |       0.04 | *
    |      239 |        - |      435 |      435 |       0.04 | *
    |      241 |        - |      432 |      432 |       0.04 | *
    |      244 |        - |      429 |      429 |       0.04 | *
    |      258 |        - |      425 |      425 |       0.04 | *
    |      285 |        - |      423 |      423 |       0.04 | *
    |      288 |        - |      422 |      422 |       0.04 | *
    |      304 |        - |      420 |      420 |       0.04 | *
    |      308 |        - |      417 |      417 |       0.04 | *
    |      324 |        - |      416 |      416 |       0.04 | *
    |      349 |        - |      415 |      415 |       0.05 | *
    |      350 |        - |      412 |      412 |       0.05 | *
    |      361 |        - |      410 |      410 |       0.05 | *
    |      364 |        - |      408 |      408 |       0.05 | *
    |      372 |        - |      407 |      407 |       0.05 | *
    |      378 |        - |      403 |      403 |       0.05 | *
    |      380 |        - |      400 |      400 |       0.05 | *
    |      384 |        - |      395 |      395 |       0.05 | *
    |      385 |        - |      392 |      392 |       0.05 | *
    |      393 |        - |      388 |      388 |       0.05 | *
    |      397 |        - |      385 |      385 |       0.05 | *
    |      414 |        - |      382 |      382 |       0.05 | *
    |      427 |        - |      379 |      379 |       0.05 | *
    |      437 |        - |      374 |      374 |       0.05 | *
    |      440 |        - |      373 |      373 |       0.05 | *
    |      482 |        - |      369 |      369 |       0.05 | *
    |      485 |        - |      366 |      366 |       0.05 | *
    |      491 |        - |      362 |      362 |       0.05 | *
    |      494 |        - |      355 |      355 |       0.05 | *
    |      500 |        - |      352 |      352 |       0.05 | *
    |      509 |        - |      351 |      351 |       0.05 | *
    |      519 |        - |      350 |      350 |       0.05 | *
    |      535 |        - |      349 |      349 |       0.05 | *
    |      545 |        - |      338 |      338 |       0.05 | *
    |      569 |        - |      337 |      337 |       0.05 | *
    |      575 |        - |      331 |      331 |       0.05 | *
    |      581 |        - |      325 |      325 |       0.06 | *
    |      583 |        - |      321 |      321 |       0.06 | *
    |      587 |        - |      320 |      320 |       0.06 | *
    |      606 |        - |      318 |      318 |       0.06 | *
    |      620 |        - |      314 |      314 |       0.06 | *
    |      629 |        - |      311 |      311 |       0.06 | *
    |      635 |        - |      310 |      310 |       0.06 | *
    |      646 |        - |      309 |      309 |       0.06 | *
    |      677 |        - |      306 |      306 |       0.06 | *
    |      690 |        - |      305 |      305 |       0.06 | *
    |      706 |        - |      302 |      302 |       0.06 | *
    |      737 |        - |      299 |      299 |       0.06 | *
    |      747 |        - |      297 |      297 |       0.06 | *
    |      794 |        - |      296 |      296 |       0.06 | *
    |      812 |        - |      294 |      294 |       0.06 | *
    |      834 |        - |      292 |      292 |       0.06 | *
    |      846 |        - |      291 |      291 |       0.06 | *
    |      917 |        - |      289 |      289 |       0.06 | *
    |      942 |        - |      288 |      288 |       0.06 | *
    |      959 |        - |      284 |      284 |       0.06 | *
    |      976 |        - |      279 |      279 |       0.06 | *
    |      977 |        - |      278 |      278 |       0.06 | *
    |      982 |        - |      277 |      277 |       0.06 | *
    |      992 |        - |      276 |      276 |       0.06 | *
    |     1048 |        - |      275 |      275 |       0.06 | *
    |     1055 |        - |      274 |      274 |       0.06 | *
    |     1058 |        - |      273 |      273 |       0.06 | *
    |     1075 |        - |      269 |      269 |       0.06 | *
    |     1077 |        - |      268 |      268 |       0.06 | *
    |     1129 |        - |      265 |      265 |       0.06 | *
    |     1218 |        - |      264 |      264 |       0.07 | *
    |     1279 |        - |      263 |      263 |       0.07 | *
    |     1280 |        - |      262 |      262 |       0.07 | *
    |     1293 |        - |      260 |      260 |       0.07 | *
    |     1351 |        - |      258 |      258 |       0.07 | *
    |     1371 |        - |      256 |      256 |       0.07 | *
    |     1382 |        - |      254 |      254 |       0.07 | *
    |     1392 |        - |      253 |      253 |       0.07 | *
    |     1399 |        - |      251 |      251 |       0.07 | *
    |     1472 |        - |      250 |      250 |       0.07 | *
    |     1477 |        - |      244 |      244 |       0.07 | *
    |     1480 |        - |      243 |      243 |       0.07 | *
    |     1501 |        - |      242 |      242 |       0.07 | *
    |     1502 |        - |      241 |      241 |       0.07 | *
    |     1570 |        - |      239 |      239 |       0.07 | *
    |     1628 |        - |      238 |      238 |       0.07 | *
    |     1640 |        - |      235 |      235 |       0.07 | *
    |     1642 |        - |      234 |      234 |       0.07 | *
    |     1660 |        - |      230 |      230 |       0.07 | *
    |     1707 |        - |      229 |      229 |       0.07 | *
    |     1748 |        - |      228 |      228 |       0.07 | *
    |     1788 |        - |      227 |      227 |       0.07 | *
    |     1808 |        - |      226 |      226 |       0.07 | *
    |     1851 |        - |      225 |      225 |       0.07 | *
    |     1864 |        - |      224 |      224 |       0.07 | *
    |     1977 |        - |      223 |      223 |       0.07 | *
    |     1981 |        - |      222 |      222 |       0.07 | *
    |     2026 |        - |      220 |      220 |       0.07 | *
    |     2098 |        - |      219 |      219 |       0.08 | *
    |     2103 |        - |      218 |      218 |       0.08 | *
    |     2112 |        - |      217 |      217 |       0.08 | *
    |     2114 |        - |      214 |      214 |       0.08 | *
    |     2122 |        - |      213 |      213 |       0.08 | *
    |     2135 |        - |      208 |      208 |       0.08 | *
    |     2159 |        - |      207 |      207 |       0.08 | *
    |     2203 |        - |      205 |      205 |       0.08 | *
    |     2204 |        - |      204 |      204 |       0.08 | *
    |     2315 |        - |      201 |      201 |       0.08 | *
    |     2334 |        - |      200 |      200 |       0.08 | *
    |     2373 |        - |      197 |      197 |       0.08 | *
    |     2399 |        - |      195 |      195 |       0.08 | *
    |     2421 |        - |      194 |      194 |       0.08 | *
    |     2438 |        - |      193 |      193 |       0.08 | *
    |     2508 |        - |      192 |      192 |       0.08 | *
    |     2517 |        - |      191 |      191 |       0.08 | *
    |     2533 |        - |      190 |      190 |       0.08 | *
    |     2660 |        - |      189 |      189 |       0.08 | *
    |     2723 |        - |      187 |      187 |       0.08 | *
    |     2802 |        - |      186 |      186 |       0.08 | *
    |     2872 |        - |      185 |      185 |       0.08 | *
    |     2916 |        - |      183 |      183 |       0.08 | *
    |     3201 |        - |      181 |      181 |       0.08 | *
    |     3226 |        - |      179 |      179 |       0.08 | *
    |     3250 |        - |      178 |      178 |       0.08 | *
    |     3265 |        - |      177 |      177 |       0.08 | *
    |     3939 |        - |      176 |      176 |       0.09 | *
    |     4000 |        - |      175 |      175 |       0.09 | *
    |     4283 |        - |      173 |      173 |       0.09 | *
    |     4294 |        - |      172 |      172 |       0.09 | *
    |     4515 |        - |      171 |      171 |       0.09 | *
    |     4570 |        - |      170 |      170 |       0.09 | *
    |     4819 |        - |      169 |      169 |       0.09 | *
    |     5120 |        - |      168 |      168 |       0.09 | *
    |     5129 |        - |      163 |      163 |       0.09 | *
    |     6712 |        - |      162 |      162 |       0.10 | *
    |     6853 |        - |      161 |      161 |       0.10 | *
    |     6912 |        - |      159 |      159 |       0.10 | *
    |     7733 |        - |      157 |      157 |       0.10 | *
    |     7785 |        - |      155 |      155 |       0.10 | *
    |     7906 |        - |      154 |      154 |       0.10 | *
    |     7925 |        - |      153 |      153 |       0.10 | *
    |     8079 |        - |      150 |      150 |       0.11 | *
    |     8123 |        - |      147 |      147 |       0.11 | *
    |     8252 |        - |      146 |      146 |       0.11 | *
    |     8301 |        - |      145 |      145 |       0.11 | *
    |     8717 |        - |      144 |      144 |       0.11 | *
    |     9246 |        - |      143 |      143 |       0.11 | *
    |     9481 |        - |      142 |      142 |       0.11 | *
    |      10K |        - |      141 |      141 |       0.11 | *
    |      10K |        - |      140 |      140 |       0.12 | *
    |      11K |        - |      139 |      139 |       0.12 | *
    |      12K |        - |      138 |      138 |       0.12 | *
    |      12K |        - |      136 |      136 |       0.12 | *
    |      12K |        - |      135 |      135 |       0.12 | *
    |      12K |        - |      133 |      133 |       0.12 | *
    |      13K |        - |      132 |      132 |       0.12 | *
    |      13K |        - |      131 |      131 |       0.13 | *
    |      13K |        - |      130 |      130 |       0.13 | *
    |      13K |        - |      128 |      128 |       0.13 | *
    |      17K |        - |      127 |      127 |       0.13 | *
    |      17K |        - |      126 |      126 |       0.13 | *
    |      17K |        - |      124 |      124 |       0.13 | *
    |      17K |        - |      123 |      123 |       0.13 | *
    |      23K |        - |      122 |      122 |       0.15 | *
    |      23K |        - |      121 |      121 |       0.15 | *
    |      23K |        - |      119 |      119 |       0.15 | *
    |      31K |        - |      118 |      118 |       0.16 | *
    |      31K |        - |      117 |      117 |       0.16 | *
    |      33K |        - |      116 |      116 |       0.17 | *
    |      48K |        - |      115 |      115 |       0.19 | *
    |      52K |        - |      114 |      114 |       0.20 | *
    |      52K |        - |      113 |      113 |       0.20 | *
    |      54K |        - |      112 |      112 |       0.21 | *
    |      55K |        - |      111 |      111 |       0.21 | *
    |      55K |        - |      110 |      110 |       0.21 | *
    |      55K |        - |      109 |      109 |       0.21 | *
    |      55K |        - |      108 |      108 |       0.21 | *
    |      56K |        - |      107 |      107 |       0.21 | *
    |      59K |        - |      106 |      106 |       0.22 | *
    |      60K |        - |      105 |      105 |       0.22 | *
    |      62K |        - |      104 |      104 |       0.22 | *
    |      63K |        - |      102 |      102 |       0.23 | *
    |      68K |        - |      101 |      101 |       0.24 | *
    |      72K |        - |      100 |      100 |       0.24 | *
    |      72K |        - |       99 |       99 |       0.24 | *
    |      72K |        - |       98 |       98 |       0.24 | *
    |     193K |        - |       97 |       97 |       0.44 | *
    |     193K |        - |       96 |       96 |       0.44 | *
    |     243K |        - |       95 |       95 |       0.52 | *
    |     245K |        - |       94 |       94 |       0.52 | *
    |     257K |        - |       93 |       93 |       0.54 | *
    |     262K |        - |       92 |       92 |       0.54 | *
    |     264K |        - |       90 |       90 |       0.55 | *
    |     313K |        - |       88 |       88 |       0.62 | *
    |     315K |        - |       87 |       87 |       0.62 | *
    |     319K |        - |       86 |       86 |       0.63 | *
    |     328K |        - |       85 |       85 |       0.64 | *
    |     342K |        - |       84 |       84 |       0.66 | *
    |     420K |        - |       83 |       83 |       0.77 | *
    |     420K |        - |       82 |       82 |       0.77 | *
    |     775K |        - |       81 |       81 |       1.28 | *
    |     881K |        - |       80 |       80 |       1.43 | *
    |    1966K |        - |       79 |       79 |       3.20 | *
    |      42M |        - |       78 |       78 |      56.35 | *
    \--------------------------------------------------------/

Neighborhoods statistics (values in %):

    /----------------------------------------------------------------\
    | Move               | Improvs. | Sideways |  Accepts |  Rejects |
    |--------------------|----------|----------|----------|----------|
    | Shift(mk)          |      28K |      36K |      75K |      11M |
    | Shift              |     1843 |     329K |     353K |      11M |
    | ShiftSmart(mk)     |     136K |     168K |     357K |      11M |
    | ShiftSmart         |     9018 |    1297K |    1393K |      10M |
    | SimpSwap(mk)       |      197 |      247 |      519 |      12M |
    | SimpSwap           |       19 |     1226 |     1415 |      12M |
    | SimpSwapSmart(mk)  |      971 |     1499 |     2931 |      12M |
    | SimpSwapSmart      |      139 |     6782 |     7859 |      12M |
    | Swap(mk)           |       58 |       85 |      169 |      12M |
    | Swap               |        5 |      448 |      511 |      12M |
    | SwapSmart(mk)      |     1108 |     1829 |     3413 |      12M |
    | SwapSmart          |      148 |     6804 |     7840 |      12M |
    | Switch(mk)         |     8846 |    1742K |    1754K |    9803K |
    | Switch             |      600 |    1928K |    1937K |    9620K |
    | SwitchSmart(mk)    |      39K |      62K |     112K |      11M |
    | SwitchSmart        |     2537 |     440K |     472K |      11M |
    | TaskMove(mk)       |     1619 |     2281 |     4505 |      12M |
    | TaskMove           |      115 |     6183 |     7269 |      12M |
    | TaskMoveSmart(mk)  |     9006 |      13K |      26K |      12M |
    | TaskMoveSmart      |      760 |      35K |      42K |      12M |
    | 2-Shift(mk)        |      13K |     338K |     355K |      11M |
    | 2-Shift            |      842 |     528K |     539K |      11M |
    | 2-ShiftSmart(mk)   |      61K |     516K |     591K |      11M |
    | 2-ShiftSmart       |     4082 |    1083K |    1121K |      10M |
    \----------------------------------------------------------------/

Best makespan.....: 78
N. of Iterations..: 277370531
Total runtime.....: 360.01s
Academic license - for non-commercial use only
Academic license - for non-commercial use only
Academic license - for non-commercial use only
Academic license - for non-commercial use only
Academic license - for non-commercial use only
Academic license - for non-commercial use only
Academic license - for non-commercial use only
Academic license - for non-commercial use only
Academic license - for non-commercial use only
Academic license - for non-commercial use only
Academic license - for non-commercial use only
Academic license - for non-commercial use only
Academic license - for non-commercial use only
Academic license - for non-commercial use only
Academic license - for non-commercial use only
Academic license - for non-commercial use only
Academic license - for non-commercial use only
Academic license - for non-commercial use only
Academic license - for non-commercial use only
Academic license - for non-commercial use only
Academic license - for non-commercial use only
Academic license - for non-commercial use only
Academic license - for non-commercial use only
Academic license - for non-commercial use only
Academic license - for non-commercial use only
Academic license - for non-commercial use only
Academic license - for non-commercial use only
Academic license - for non-commercial use only
Academic license - for non-commercial use only
Academic license - for non-commercial use only
Academic license - for non-commercial use only
Academic license - for non-commercial use only
Academic license - for non-commercial use only
Academic license - for non-commercial use only
Academic license - for non-commercial use only
Academic license - for non-commercial use only
Academic license - for non-commercial use only
Academic license - for non-commercial use only
Academic license - for non-commercial use only
Academic license - for non-commercial use only
Academic license - for non-commercial use only
Academic license - for non-commercial use only
Academic license - for non-commercial use only
Academic license - for non-commercial use only
Academic license - for non-commercial use only
Academic license - for non-commercial use only
Academic license - for non-commercial use only
Academic license - for non-commercial use only
Academic license - for non-commercial use only
Academic license - for non-commercial use only
Academic license - for non-commercial use only
Academic license - for non-commercial use only
Academic license - for non-commercial use only
Academic license - for non-commercial use only
Academic license - for non-commercial use only
Academic license - for non-commercial use only
Academic license - for non-commercial use only
Academic license - for non-commercial use only
Academic license - for non-commercial use only
Academic license - for non-commercial use only
Academic license - for non-commercial use only
Academic license - for non-commercial use only
Academic license - for non-commercial use only
Academic license - for non-commercial use only
Academic license - for non-commercial use only
Academic license - for non-commercial use only
Academic license - for non-commercial use only
Academic license - for non-commercial use only
Academic license - for non-commercial use only
Academic license - for non-commercial use only
Academic license - for non-commercial use only
Academic license - for non-commercial use only
Academic license - for non-commercial use only
Academic license - for non-commercial use only
Academic license - for non-commercial use only
Academic license - for non-commercial use only
Academic license - for non-commercial use only
Academic license - for non-commercial use only
Academic license - for non-commercial use only
Academic license - for non-commercial use only
Academic license - for non-commercial use only
Academic license - for non-commercial use only
Academic license - for non-commercial use only
Academic license - for non-commercial use only
Academic license - for non-commercial use only
Academic license - for non-commercial use only
Academic license - for non-commercial use only
Academic license - for non-commercial use only
Academic license - for non-commercial use only
Academic license - for non-commercial use only
Academic license - for non-commercial use only
Academic license - for non-commercial use only
    /-------------------------------------------------------------------------------\
    |    Makespam   |   Free Jobs   | Free Machines |    It. Time   |   Total Time  | 
    |-------------------------------------------------------------------------------|
    |            78 |            33 |             6 |          0.63 |          1.47 | 
    |            78 |            39 |             7 |          3.62 |          5.21 | 
    |            78 |            46 |             7 |          2.62 |          7.94 | 
    |            78 |            55 |            10 |         22.01 |         30.23 | 
    |            78 |            44 |             7 |          4.72 |         35.08 | 
    |            78 |            52 |             8 |         22.01 |         57.26 | 
    |            78 |            41 |             7 |          2.03 |         59.45 | 
    |            78 |            49 |             8 |         22.00 |         81.63 | 
    |            78 |            39 |             7 |          3.45 |         85.14 | 
    |            78 |            46 |             7 |         10.55 |         95.84 | 
    |            78 |            55 |             9 |         22.01 |        118.08 | 
    |            78 |            44 |             8 |         22.01 |        140.24 | 
    |            78 |            35 |             6 |          1.18 |        141.52 | 
    |            78 |            42 |             7 |          2.60 |        144.34 | 
    |            78 |            50 |             8 |         22.01 |        166.61 | 
    |            78 |            40 |             7 |         21.38 |        188.09 | 
    |            78 |            48 |             8 |         22.01 |        210.27 | 
    |            78 |            38 |             6 |          0.70 |        211.08 | 
    |            78 |            45 |             7 |          5.55 |        216.76 | 
    |            78 |            54 |             9 |          1.99 |        219.04 | 
    |            78 |            64 |            10 |         22.02 |        241.27 | 
    |            78 |            51 |             8 |         22.01 |        263.49 | 
    |            78 |            40 |             7 |         11.57 |        275.19 | 
    |            78 |            48 |             8 |          8.72 |        284.11 | 
    |            78 |            57 |             9 |         22.01 |        306.40 | 
    |            78 |            45 |             7 |          6.34 |        312.84 | 
    |            78 |            54 |             8 |         13.15 |        326.15 | 
    |            78 |            64 |            10 |         22.01 |        348.47 | 
    |            78 |            51 |             8 |         11.85 |        360.59 | 
    |            78 |            61 |            10 |         22.01 |        382.89 | 
    |            78 |            48 |             8 |          5.91 |        388.94 | 
    |            78 |            57 |            10 |         22.01 |        411.28 | 
    |            78 |            45 |             8 |         22.00 |        433.37 | 
    |            78 |            36 |             6 |          0.43 |        433.90 | 
    |            78 |            43 |             7 |         22.00 |        456.05 | 
    |            78 |            34 |             5 |          0.31 |        456.44 | 
    |            78 |            40 |             7 |          3.12 |        459.67 | 
    |            78 |            48 |             8 |         22.00 |        481.79 | 
    |            78 |            38 |             6 |          1.53 |        483.45 | 
    |            78 |            45 |             8 |         22.00 |        505.61 | 
    |            78 |            36 |             6 |          1.74 |        507.43 | 
    |            78 |            43 |             7 |          2.76 |        510.30 | 
    |            78 |            51 |             9 |         22.01 |        532.62 | 
    |            78 |            40 |             7 |          4.98 |        537.70 | 
    |            78 |            48 |             7 |         22.00 |        559.81 | 
    |            78 |            38 |             6 |          1.61 |        561.52 | 
    |            78 |            45 |             7 |         18.49 |        580.19 | 
    |            78 |            54 |             9 |         15.44 |        595.85 | 
    |            78 |            64 |            10 |         22.02 |        618.14 | 
    |            78 |            51 |             8 |         22.00 |        640.37 | 
    |            78 |            40 |             7 |          5.78 |        646.24 | 
    |            78 |            48 |             7 |          3.98 |        650.37 | 
    |            78 |            57 |             9 |         22.01 |        672.65 | 
    |            78 |            45 |             7 |          6.73 |        679.49 | 
    |            78 |            54 |             8 |         22.00 |        701.66 | 
    |            78 |            43 |             7 |          5.33 |        707.12 | 
    |            78 |            51 |             8 |         22.00 |        729.31 | 
    |            78 |            40 |             6 |          5.87 |        735.28 | 
    |            78 |            48 |             8 |         22.01 |        757.47 | 
    |            78 |            38 |             6 |          6.40 |        763.92 | 
    |            78 |            45 |             7 |         21.02 |        785.07 | 
    |            78 |            54 |             9 |         22.00 |        807.40 | 
    |            78 |            43 |             7 |          1.87 |        809.38 | 
    |            78 |            51 |             8 |          1.18 |        810.74 | 
    |            78 |            61 |             9 |         22.00 |        833.18 | 
    |            78 |            48 |             8 |         22.00 |        855.30 | 
    |            78 |            38 |             6 |          0.75 |        856.11 | 
    |            78 |            45 |             7 |         20.53 |        876.75 | 
    |            78 |            54 |             8 |         14.21 |        891.17 | 
    |            78 |            64 |            11 |         22.01 |        913.44 | 
    |            78 |            51 |             8 |         22.00 |        935.61 | 
    |            78 |            40 |             6 |          2.33 |        938.01 | 
    |            78 |            48 |             7 |          3.30 |        941.49 | 
    |            78 |            57 |             9 |         22.02 |        963.87 | 
    |            78 |            45 |             8 |         22.00 |        986.01 | 
    |            78 |            36 |             6 |          1.54 |        987.59 | 
    |            78 |            43 |             6 |          1.53 |        989.25 | 
    |            78 |            51 |             8 |         22.00 |       1011.42 | 
    |            78 |            40 |             6 |          2.34 |       1013.86 | 
    |            78 |            48 |             8 |          1.02 |       1014.99 | 
    |            78 |            57 |             9 |         22.02 |       1037.30 | 
    |            78 |            45 |             7 |          7.55 |       1044.93 | 
    |            78 |            54 |             8 |         22.02 |       1067.15 | 
    |            78 |            43 |             7 |         20.10 |       1087.42 | 
    |            78 |            51 |             8 |         22.00 |       1109.58 | 
    |            78 |            40 |             7 |          5.94 |       1115.63 | 
    |            78 |            48 |             8 |         22.01 |       1137.81 | 
    |            78 |            38 |             6 |         22.00 |       1159.93 | 
    |            78 |            30 |             5 |          0.90 |       1160.88 | 
    |            78 |            36 |             6 |          2.71 |       1163.70 | 
    |            78 |            43 |             7 |          0.66 |       1164.50 | 
    |            78 |            51 |             8 |         22.01 |       1186.71 | Academic license - for non-commercial use only
Academic license - for non-commercial use only
Academic license - for non-commercial use only
Academic license - for non-commercial use only
Academic license - for non-commercial use only
Academic license - for non-commercial use only
Academic license - for non-commercial use only
Academic license - for non-commercial use only
Academic license - for non-commercial use only
Academic license - for non-commercial use only
Academic license - for non-commercial use only
Academic license - for non-commercial use only
Academic license - for non-commercial use only
Academic license - for non-commercial use only
Academic license - for non-commercial use only
Academic license - for non-commercial use only
Academic license - for non-commercial use only
Academic license - for non-commercial use only
Academic license - for non-commercial use only
Academic license - for non-commercial use only
Academic license - for non-commercial use only
Academic license - for non-commercial use only
Academic license - for non-commercial use only
Academic license - for non-commercial use only
Academic license - for non-commercial use only
Academic license - for non-commercial use only
Academic license - for non-commercial use only
Academic license - for non-commercial use only
Academic license - for non-commercial use only
Academic license - for non-commercial use only
Academic license - for non-commercial use only
Academic license - for non-commercial use only
Academic license - for non-commercial use only
Academic license - for non-commercial use only
Academic license - for non-commercial use only
Academic license - for non-commercial use only
Academic license - for non-commercial use only
Academic license - for non-commercial use only
Academic license - for non-commercial use only
Academic license - for non-commercial use only
Academic license - for non-commercial use only
Academic license - for non-commercial use only
Academic license - for non-commercial use only
Academic license - for non-commercial use only
Academic license - for non-commercial use only
Academic license - for non-commercial use only
Academic license - for non-commercial use only
Academic license - for non-commercial use only
Academic license - for non-commercial use only
Academic license - for non-commercial use only
Academic license - for non-commercial use only
Academic license - for non-commercial use only
Academic license - for non-commercial use only
Academic license - for non-commercial use only
Academic license - for non-commercial use only
Academic license - for non-commercial use only
Academic license - for non-commercial use only
Academic license - for non-commercial use only
Academic license - for non-commercial use only
Academic license - for non-commercial use only
Academic license - for non-commercial use only
Academic license - for non-commercial use only
Academic license - for non-commercial use only
Academic license - for non-commercial use only
Academic license - for non-commercial use only
Academic license - for non-commercial use only
Academic license - for non-commercial use only
Academic license - for non-commercial use only
Academic license - for non-commercial use only
Academic license - for non-commercial use only
Academic license - for non-commercial use only
Academic license - for non-commercial use only
Academic license - for non-commercial use only
Academic license - for non-commercial use only
Academic license - for non-commercial use only
Academic license - for non-commercial use only
Academic license - for non-commercial use only
Academic license - for non-commercial use only
Academic license - for non-commercial use only
Academic license - for non-commercial use only
Academic license - for non-commercial use only
Academic license - for non-commercial use only
Academic license - for non-commercial use only
Academic license - for non-commercial use only
Academic license - for non-commercial use only
Academic license - for non-commercial use only
Academic license - for non-commercial use only
Academic license - for non-commercial use only
Academic license - for non-commercial use only
Academic license - for non-commercial use only
Academic license - for non-commercial use only
Academic license - for non-commercial use only
Academic license - for non-commercial use only
Academic license - for non-commercial use only
Academic license - for non-commercial use only

    |            78 |            40 |             6 |          2.09 |       1188.89 | 
    |            78 |            48 |             7 |          6.51 |       1195.54 | 
    |            78 |            57 |             9 |         22.01 |       1217.77 | 
    |            78 |            45 |             7 |         11.67 |       1229.54 | 
    |            78 |            54 |             8 |         22.00 |       1251.68 | 
    |            78 |            43 |             7 |         22.00 |       1273.83 | 
    |            78 |            34 |             5 |          0.37 |       1274.26 | 
    |            78 |            40 |             6 |          1.13 |       1275.48 | 
    |            78 |            48 |             8 |          1.15 |       1276.80 | 
    |            78 |            57 |             9 |         22.00 |       1298.96 | 
    |            78 |            45 |             7 |          5.27 |       1304.36 | 
    |            78 |            54 |             8 |         22.00 |       1326.56 | 
    |            78 |            43 |             7 |         22.00 |       1348.68 | 
    |            78 |            34 |             6 |          1.39 |       1350.12 | 
    |            78 |            40 |             6 |          1.82 |       1352.06 | 
    |            78 |            48 |             7 |         22.00 |       1374.18 | 
    |            78 |            38 |             7 |          7.12 |       1381.40 | 
    |            78 |            45 |             8 |         22.00 |       1403.55 | 
    |            78 |            36 |             6 |          5.35 |       1408.94 | 
    |            78 |            43 |             6 |         19.90 |       1428.97 | 
    |            78 |            51 |             8 |         22.00 |       1451.15 | 
    |            78 |            40 |             7 |         22.00 |       1473.26 | 
    |            78 |            32 |             5 |          0.56 |       1473.87 | 
    |            78 |            38 |             7 |          1.52 |       1475.53 | 
    |            78 |            45 |             7 |          8.45 |       1484.10 | 
    |            78 |            54 |             9 |         22.01 |       1506.28 | 
    |            78 |            43 |             8 |         22.00 |       1528.43 | 
    |            78 |            34 |             5 |          0.26 |       1528.78 | 
    |            78 |            40 |             7 |          8.69 |       1537.54 | 
    |            78 |            48 |             8 |         20.93 |       1558.63 | 
    |            78 |            57 |             9 |         22.01 |       1580.85 | 
    |            78 |            45 |             8 |         22.00 |       1602.98 | 
    |            78 |            36 |             6 |          1.32 |       1604.36 | 
    |            78 |            43 |             7 |         22.00 |       1626.47 | 
    |            78 |            34 |             6 |          2.87 |       1629.39 | 
    |            78 |            40 |             6 |          6.90 |       1636.43 | 
    |            78 |            48 |             8 |         14.73 |       1651.33 | 
    |            78 |            57 |             9 |         22.00 |       1673.51 | 
    |            78 |            45 |             8 |          5.52 |       1679.17 | 
    |            78 |            54 |             8 |          6.97 |       1686.32 | 
    |            78 |            64 |            10 |          2.88 |       1689.47 | 
    |            78 |            76 |            12 |         22.01 |       1711.99 | 
    |            78 |            60 |            10 |         22.01 |       1734.22 | 
    |            78 |            48 |             8 |         22.00 |       1756.32 | 
    |            78 |            38 |             7 |          0.42 |       1756.81 | 
    |            78 |            45 |             8 |         22.00 |       1779.11 | 
    |            78 |            36 |             6 |         17.02 |       1796.18 | 
    |            78 |            43 |             7 |         14.87 |       1811.17 | 
    |            78 |            51 |             8 |          1.22 |       1812.52 | 
    |            78 |            61 |            10 |         22.01 |       1834.80 | 
    |            78 |            48 |             8 |          1.07 |       1836.02 | 
    |            78 |            57 |             9 |          8.52 |       1844.74 | 
    |            78 |            68 |            11 |         22.09 |       1867.13 | 
    |            78 |            54 |             8 |         13.87 |       1881.17 | 
    |            78 |            64 |            10 |         22.01 |       1903.49 | 
    |            78 |            51 |             9 |         22.00 |       1925.66 | 
    |            78 |            40 |             7 |          0.50 |       1926.23 | 
    |            78 |            48 |             8 |         22.00 |       1948.44 | 
    |            78 |            38 |             6 |          1.43 |       1949.93 | 
    |            78 |            45 |             8 |          1.00 |       1951.05 | 
    |            78 |            54 |             8 |          1.44 |       1952.64 | 
    |            78 |            64 |            10 |         22.01 |       1974.96 | 
    |            78 |            51 |             8 |         22.00 |       1997.08 | 
    |            78 |            40 |             7 |          5.07 |       2002.25 | 
    |            78 |            48 |             8 |         22.00 |       2024.41 | 
    |            78 |            38 |             6 |          3.20 |       2027.67 | 
    |            78 |            45 |             7 |          4.13 |       2031.92 | 
    |            78 |            54 |             9 |         22.01 |       2054.14 | 
    |            78 |            43 |             7 |         22.00 |       2076.27 | 
    |            78 |            34 |             6 |          0.24 |       2076.56 | 
    |            78 |            40 |             6 |          0.23 |       2076.84 | 
    |            78 |            48 |             8 |          1.20 |       2078.18 | 
    |            78 |            57 |             9 |         22.00 |       2100.41 | 
    |            78 |            45 |             7 |         22.00 |       2122.51 | 
    |            78 |            36 |             6 |          2.41 |       2124.99 | 
    |            78 |            43 |             7 |          7.35 |       2132.41 | 
    |            78 |            51 |             9 |         22.00 |       2154.65 | 
    |            78 |            40 |             7 |          4.45 |       2159.16 | 
    |            78 |            48 |             7 |         22.00 |       2181.28 | 
    |            78 |            38 |             6 |          0.22 |       2181.56 | 
    |            78 |            45 |             8 |         22.01 |       2203.73 | 
    |            78 |            36 |             6 |          0.37 |       2204.16 | 
    |            78 |            43 |             7 |         22.00 |       2226.25 | 
    |            78 |            34 |             6 |          0.41 |       2226.73 | 
    |            78 |            40 |             7 |          0.63 |       2227.47 | 
    |            78 |            48 |             8 |          1.24 |       2228.86 | 
    |            78 |            57 |             9 |         22.00 |       2251.05 | 
    |            78 |            45 |             7 |          0.60 |       2251.76 | 
    |            78 |            54 |             9 |         22.00 |       2273.94 | 
    |            78 |            43 |             7 |         14.05 |       2288.11 | 
    |            78 |            51 |             8 |         22.01 |       2310.23 | 
    |            78 |            40 |             7 |          1.46 |       2311.79 | 
    |            78 |            48 |             7 |          3.15 |       2315.07 | 
    |            78 |            57 |             9 |          1.66 |       2316.92 | 
    |            78 |            68 |            11 |          4.04 |       2321.30 | Academic license - for non-commercial use only
Academic license - for non-commercial use only
Academic license - for non-commercial use only
Academic license - for non-commercial use only
Academic license - for non-commercial use only
Academic license - for non-commercial use only
Academic license - for non-commercial use only
Academic license - for non-commercial use only
Academic license - for non-commercial use only
Academic license - for non-commercial use only
Academic license - for non-commercial use only
Academic license - for non-commercial use only
Academic license - for non-commercial use only
Academic license - for non-commercial use only
Academic license - for non-commercial use only
Academic license - for non-commercial use only
Academic license - for non-commercial use only
Academic license - for non-commercial use only
Academic license - for non-commercial use only
Academic license - for non-commercial use only
Academic license - for non-commercial use only
Academic license - for non-commercial use only
Academic license - for non-commercial use only
Academic license - for non-commercial use only
Academic license - for non-commercial use only
Academic license - for non-commercial use only
Academic license - for non-commercial use only
Academic license - for non-commercial use only
Academic license - for non-commercial use only
Academic license - for non-commercial use only
Academic license - for non-commercial use only
Academic license - for non-commercial use only
Academic license - for non-commercial use only
Academic license - for non-commercial use only
Academic license - for non-commercial use only
Academic license - for non-commercial use only
Academic license - for non-commercial use only
Academic license - for non-commercial use only
Academic license - for non-commercial use only
Academic license - for non-commercial use only
Academic license - for non-commercial use only
Academic license - for non-commercial use only
Academic license - for non-commercial use only
Academic license - for non-commercial use only
Academic license - for non-commercial use only
Academic license - for non-commercial use only
Academic license - for non-commercial use only
Academic license - for non-commercial use only
Academic license - for non-commercial use only
Academic license - for non-commercial use only
Academic license - for non-commercial use only
Academic license - for non-commercial use only
Academic license - for non-commercial use only
Academic license - for non-commercial use only
Academic license - for non-commercial use only
Academic license - for non-commercial use only
Academic license - for non-commercial use only
Academic license - for non-commercial use only
Academic license - for non-commercial use only
Academic license - for non-commercial use only
Academic license - for non-commercial use only
Academic license - for non-commercial use only
Academic license - for non-commercial use only
Academic license - for non-commercial use only
Academic license - for non-commercial use only
Academic license - for non-commercial use only
Academic license - for non-commercial use only
Academic license - for non-commercial use only
Academic license - for non-commercial use only
Academic license - for non-commercial use only
Academic license - for non-commercial use only
Academic license - for non-commercial use only
Academic license - for non-commercial use only

    |            78 |            81 |            13 |          7.01 |       2328.82 | 
    |            78 |            97 |            15 |         22.02 |       2351.68 | 
    |            78 |            77 |            13 |          7.04 |       2359.42 | 
    |            78 |            92 |            14 |         10.64 |       2370.83 | 
    |            78 |           100 |            15 |         13.67 |       2385.35 | 
    |            78 |           100 |            15 |         13.38 |       2399.61 | 
    |            78 |           100 |            15 |         13.29 |       2413.83 | 
    |            78 |           100 |            15 |         13.82 |       2428.53 | 
    |            78 |           100 |            15 |         14.23 |       2443.74 | 
    |            78 |           100 |            15 |         14.07 |       2458.79 | 
    |            78 |           100 |            15 |         13.64 |       2473.20 | 
    |            78 |           100 |            15 |         13.39 |       2487.56 | 
    |            78 |           100 |            15 |         13.15 |       2501.85 | 
    |            78 |           100 |            15 |         22.01 |       2524.80 | 
    |            78 |            80 |            13 |         22.01 |       2547.25 | 
    |            78 |            64 |            10 |         22.01 |       2569.71 | 
    |            78 |            51 |             8 |         22.01 |       2591.99 | 
    |            78 |            40 |             7 |          2.98 |       2595.05 | 
    |            78 |            48 |             7 |         22.00 |       2617.27 | 
    |            78 |            38 |             6 |          2.42 |       2619.77 | 
    |            78 |            45 |             8 |          5.37 |       2625.26 | 
    |            78 |            54 |             9 |         22.00 |       2647.47 | 
    |            78 |            43 |             7 |          0.76 |       2648.35 | 
    |            78 |            51 |             8 |         22.00 |       2670.47 | 
    |            78 |            40 |             6 |          0.87 |       2671.42 | 
    |            78 |            48 |             8 |         22.00 |       2693.53 | 
    |            78 |            38 |             7 |          4.25 |       2697.88 | 
    |            78 |            45 |             7 |          6.34 |       2704.34 | 
    |            78 |            54 |             9 |         22.00 |       2726.53 | 
    |            78 |            43 |             6 |          1.39 |       2727.98 | 
    |            78 |            51 |             8 |          5.59 |       2733.70 | 
    |            78 |            61 |             9 |         22.00 |       2755.96 | 
    |            78 |            48 |             8 |         22.01 |       2778.09 | 
    |            78 |            38 |             6 |          2.57 |       2780.72 | 
    |            78 |            45 |             7 |          0.65 |       2781.48 | 
    |            78 |            54 |             9 |          1.96 |       2783.79 | 
    |            78 |            64 |            10 |         22.00 |       2806.06 | 
    |            78 |            51 |             9 |         22.00 |       2828.26 | 
    |            78 |            40 |             7 |         18.08 |       2846.41 | 
    |            78 |            48 |             8 |          1.24 |       2847.85 | 
    |            78 |            57 |             9 |         22.01 |       2870.06 | 
    |            78 |            45 |             7 |          6.81 |       2877.02 | 
    |            78 |            54 |             9 |         22.01 |       2899.22 | 
    |            78 |            43 |             7 |          5.10 |       2904.38 | 
    |            78 |            51 |             8 |         22.01 |       2926.57 | 
    |            78 |            40 |             7 |          0.51 |       2927.21 | 
    |            78 |            48 |             8 |         22.00 |       2949.41 | 
    |            78 |            38 |             7 |          6.36 |       2955.83 | 
    |            78 |            45 |             7 |          3.47 |       2959.49 | 
    |            78 |            54 |             8 |          1.23 |       2960.89 | 
    |            78 |            64 |            10 |          3.28 |       2964.47 | 
    |            78 |            76 |            12 |         22.01 |       2986.97 | 
    |            78 |            60 |             9 |         22.02 |       3009.22 | 
    |            78 |            48 |             8 |         22.00 |       3031.38 | 
    |            78 |            38 |             6 |          2.07 |       3033.50 | 
    |            78 |            45 |             7 |         11.71 |       3045.32 | 
    |            78 |            54 |             8 |         22.00 |       3067.59 | 
    |            78 |            43 |             7 |          0.60 |       3068.32 | 
    |            78 |            51 |             8 |         22.00 |       3090.47 | 
    |            78 |            40 |             6 |          0.27 |       3090.83 | 
    |            78 |            48 |             8 |         22.00 |       3112.97 | 
    |            78 |            38 |             6 |          0.85 |       3113.87 | 
    |            78 |            45 |             7 |          3.50 |       3117.46 | 
    |            78 |            54 |             8 |          1.32 |       3118.95 | 
    |            78 |            64 |            10 |         22.01 |       3141.38 | 
    |            78 |            51 |             8 |         22.00 |       3163.51 | 
    |            78 |            40 |             7 |         14.52 |       3178.15 | 
    |            78 |            48 |             8 |          9.73 |       3188.06 | 
    |            78 |            57 |            10 |         22.01 |       3210.31 | 
    |            78 |            45 |             7 |          1.81 |       3212.25 | 
    |            78 |            54 |             9 |         22.00 |       3234.46 | 
    |            78 |            43 |             7 |          0.71 |       3235.28 | 
    |            78 |            51 |             8 |          4.17 |       3239.62 | 
-12.82051282051282
