Instance....: instances/I_100_10_S_1-124_5.txt
Algorithm...: Simulated Annealing (alpha=0.990, saMax=10M, t0=1)
Other params: maxIters=100M, seed=1, timeLimit=360.00s

    /--------------------------------------------------------\
    |     Iter |   RDP(%) |       S* |       S' |       Time | 
    |----------|----------|----------|----------|------------|
    |        0 |        - |     1400 |     1400 |       0.00 | s0
    |        0 |        - |     1332 |     1332 |       0.00 | *
    |        1 |        - |     1258 |     1258 |       0.00 | *
    |        5 |        - |     1247 |     1247 |       0.02 | *
    |        7 |        - |     1191 |     1191 |       0.02 | *
    |        9 |        - |     1160 |     1160 |       0.02 | *
    |       13 |        - |     1133 |     1133 |       0.02 | *
    |       15 |        - |     1126 |     1126 |       0.02 | *
    |       19 |        - |     1105 |     1105 |       0.02 | *
    |       23 |        - |     1087 |     1087 |       0.02 | *
    |       28 |        - |     1068 |     1068 |       0.02 | *
    |       29 |        - |     1047 |     1047 |       0.02 | *
    |       39 |        - |     1045 |     1045 |       0.02 | *
    |       45 |        - |     1027 |     1027 |       0.02 | *
    |       55 |        - |     1021 |     1021 |       0.02 | *
    |       58 |        - |     1013 |     1013 |       0.02 | *
    |       62 |        - |     1000 |     1000 |       0.02 | *
    |       66 |        - |      989 |      989 |       0.02 | *
    |       72 |        - |      975 |      975 |       0.02 | *
    |       74 |        - |      964 |      964 |       0.02 | *
    |       80 |        - |      958 |      958 |       0.02 | *
    |       82 |        - |      938 |      938 |       0.02 | *
    |       85 |        - |      914 |      914 |       0.02 | *
    |       89 |        - |      903 |      903 |       0.02 | *
    |       90 |        - |      893 |      893 |       0.02 | *
    |       93 |        - |      890 |      890 |       0.02 | *
    |      105 |        - |      888 |      888 |       0.03 | *
    |      109 |        - |      867 |      867 |       0.03 | *
    |      112 |        - |      860 |      860 |       0.03 | *
    |      125 |        - |      831 |      831 |       0.03 | *
    |      131 |        - |      826 |      826 |       0.03 | *
    |      132 |        - |      825 |      825 |       0.03 | *
    |      134 |        - |      822 |      822 |       0.03 | *
    |      139 |        - |      820 |      820 |       0.03 | *
    |      141 |        - |      811 |      811 |       0.03 | *
    |      142 |        - |      806 |      806 |       0.03 | *
    |      144 |        - |      802 |      802 |       0.03 | *
    |      173 |        - |      801 |      801 |       0.03 | *
    |      178 |        - |      768 |      768 |       0.03 | *
    |      179 |        - |      755 |      755 |       0.03 | *
    |      183 |        - |      747 |      747 |       0.03 | *
    |      186 |        - |      736 |      736 |       0.03 | *
    |      201 |        - |      733 |      733 |       0.03 | *
    |      217 |        - |      715 |      715 |       0.03 | *
    |      223 |        - |      709 |      709 |       0.03 | *
    |      250 |        - |      699 |      699 |       0.03 | *
    |      259 |        - |      693 |      693 |       0.03 | *
    |      265 |        - |      689 |      689 |       0.03 | *
    |      271 |        - |      680 |      680 |       0.03 | *
    |      273 |        - |      677 |      677 |       0.03 | *
    |      295 |        - |      675 |      675 |       0.03 | *
    |      367 |        - |      669 |      669 |       0.03 | *
    |      385 |        - |      667 |      667 |       0.03 | *
    |      388 |        - |      662 |      662 |       0.03 | *
    |      433 |        - |      659 |      659 |       0.03 | *
    |      439 |        - |      652 |      652 |       0.03 | *
    |      461 |        - |      650 |      650 |       0.04 | *
    |      462 |        - |      648 |      648 |       0.04 | *
    |      466 |        - |      646 |      646 |       0.04 | *
    |      515 |        - |      642 |      642 |       0.04 | *
    |      664 |        - |      641 |      641 |       0.04 | *
    |      666 |        - |      637 |      637 |       0.04 | *
    |      682 |        - |      635 |      635 |       0.04 | *
    |      774 |        - |      634 |      634 |       0.04 | *
    |      781 |        - |      632 |      632 |       0.04 | *
    |      807 |        - |      629 |      629 |       0.04 | *
    |      808 |        - |      627 |      627 |       0.04 | *
    |      809 |        - |      622 |      622 |       0.04 | *
    |      812 |        - |      616 |      616 |       0.04 | *
    |      836 |        - |      611 |      611 |       0.04 | *
    |      927 |        - |      606 |      606 |       0.04 | *
    |      934 |        - |      603 |      603 |       0.04 | *
    |      986 |        - |      595 |      595 |       0.04 | *
    |     1087 |        - |      594 |      594 |       0.04 | *
    |     1172 |        - |      590 |      590 |       0.04 | *
    |     1207 |        - |      581 |      581 |       0.04 | *
    |     1232 |        - |      575 |      575 |       0.04 | *
    |     1250 |        - |      574 |      574 |       0.04 | *
    |     1281 |        - |      565 |      565 |       0.04 | *
    |     1299 |        - |      563 |      563 |       0.04 | *
    |     1318 |        - |      558 |      558 |       0.04 | *
    |     1360 |        - |      551 |      551 |       0.04 | *
    |     1361 |        - |      549 |      549 |       0.04 | *
    |     1367 |        - |      543 |      543 |       0.04 | *
    |     1393 |        - |      539 |      539 |       0.04 | *
    |     1438 |        - |      535 |      535 |       0.04 | *
    |     1486 |        - |      534 |      534 |       0.04 | *
    |     1535 |        - |      533 |      533 |       0.04 | *
    |     1557 |        - |      532 |      532 |       0.04 | *
    |     1579 |        - |      531 |      531 |       0.04 | *
    |     1642 |        - |      526 |      526 |       0.04 | *
    |     1703 |        - |      517 |      517 |       0.05 | *
    |     1819 |        - |      515 |      515 |       0.05 | *
    |     1915 |        - |      512 |      512 |       0.05 | *
    |     1988 |        - |      511 |      511 |       0.05 | *
    |     1990 |        - |      504 |      504 |       0.05 | *
    |     2011 |        - |      496 |      496 |       0.05 | *
    |     2129 |        - |      485 |      485 |       0.05 | *
    |     2196 |        - |      483 |      483 |       0.05 | *
    |     2201 |        - |      482 |      482 |       0.05 | *
    |     2389 |        - |      478 |      478 |       0.05 | *
    |     2494 |        - |      475 |      475 |       0.05 | *
    |     2751 |        - |      473 |      473 |       0.05 | *
    |     2753 |        - |      470 |      470 |       0.05 | *
    |     2758 |        - |      468 |      468 |       0.05 | *
    |     2989 |        - |      467 |      467 |       0.05 | *
    |     3044 |        - |      466 |      466 |       0.05 | *
    |     3230 |        - |      462 |      462 |       0.05 | *
    |     3337 |        - |      459 |      459 |       0.05 | *
    |     3374 |        - |      458 |      458 |       0.05 | *
    |     3381 |        - |      454 |      454 |       0.05 | *
    |     3417 |        - |      452 |      452 |       0.05 | *
    |     3434 |        - |      451 |      451 |       0.05 | *
    |     3552 |        - |      449 |      449 |       0.05 | *
    |     3742 |        - |      445 |      445 |       0.06 | *
    |     3812 |        - |      436 |      436 |       0.06 | *
    |     3815 |        - |      434 |      434 |       0.06 | *
    |     3823 |        - |      433 |      433 |       0.06 | *
    |     3965 |        - |      432 |      432 |       0.06 | *
    |     4020 |        - |      431 |      431 |       0.06 | *
    |     4833 |        - |      429 |      429 |       0.06 | *
    |     4861 |        - |      427 |      427 |       0.06 | *
    |     4898 |        - |      423 |      423 |       0.06 | *
    |     4912 |        - |      418 |      418 |       0.06 | *
    |     4986 |        - |      417 |      417 |       0.06 | *
    |     5003 |        - |      410 |      410 |       0.06 | *
    |     5225 |        - |      409 |      409 |       0.06 | *
    |     5825 |        - |      406 |      406 |       0.06 | *
    |     5906 |        - |      403 |      403 |       0.06 | *
    |     6410 |        - |      401 |      401 |       0.06 | *
    |     6415 |        - |      397 |      397 |       0.06 | *
    |     6452 |        - |      396 |      396 |       0.06 | *
    |     6684 |        - |      395 |      395 |       0.06 | *
    |     6731 |        - |      394 |      394 |       0.07 | *
    |     6781 |        - |      391 |      391 |       0.07 | *
    |     6813 |        - |      388 |      388 |       0.07 | *
    |     7099 |        - |      386 |      386 |       0.07 | *
    |     7116 |        - |      385 |      385 |       0.07 | *
    |     7188 |        - |      382 |      382 |       0.07 | *
    |     7780 |        - |      380 |      380 |       0.07 | *
    |     7913 |        - |      378 |      378 |       0.07 | *
    |     8787 |        - |      376 |      376 |       0.07 | *
    |     9286 |        - |      374 |      374 |       0.07 | *
    |     9387 |        - |      372 |      372 |       0.07 | *
    |     9606 |        - |      371 |      371 |       0.07 | *
    |     9716 |        - |      369 |      369 |       0.07 | *
    |     9773 |        - |      366 |      366 |       0.07 | *
    |     9798 |        - |      362 |      362 |       0.07 | *
    |     9967 |        - |      361 |      361 |       0.07 | *
    |      10K |        - |      360 |      360 |       0.07 | *
    |      10K |        - |      356 |      356 |       0.07 | *
    |      11K |        - |      355 |      355 |       0.07 | *
    |      11K |        - |      354 |      354 |       0.07 | *
    |      11K |        - |      353 |      353 |       0.07 | *
    |      11K |        - |      351 |      351 |       0.07 | *
    |      11K |        - |      348 |      348 |       0.08 | *
    |      11K |        - |      344 |      344 |       0.08 | *
    |      11K |        - |      342 |      342 |       0.08 | *
    |      12K |        - |      339 |      339 |       0.08 | *
    |      13K |        - |      336 |      336 |       0.08 | *
    |      13K |        - |      335 |      335 |       0.08 | *
    |      14K |        - |      334 |      334 |       0.08 | *
    |      14K |        - |      332 |      332 |       0.08 | *
    |      15K |        - |      329 |      329 |       0.08 | *
    |      18K |        - |      328 |      328 |       0.09 | *
    |      18K |        - |      326 |      326 |       0.09 | *
    |      19K |        - |      325 |      325 |       0.09 | *
    |      20K |        - |      322 |      322 |       0.09 | *
    |      20K |        - |      321 |      321 |       0.09 | *
    |      20K |        - |      318 |      318 |       0.09 | *
    |      21K |        - |      317 |      317 |       0.09 | *
    |      27K |        - |      315 |      315 |       0.10 | *
    |      30K |        - |      313 |      313 |       0.11 | *
    |      31K |        - |      312 |      312 |       0.11 | *
    |      31K |        - |      311 |      311 |       0.11 | *
    |      32K |        - |      310 |      310 |       0.11 | *
    |      45K |        - |      309 |      309 |       0.12 | *
    |      45K |        - |      307 |      307 |       0.12 | *
    |      47K |        - |      306 |      306 |       0.13 | *
    |      47K |        - |      305 |      305 |       0.13 | *
    |      47K |        - |      302 |      302 |       0.13 | *
    |      50K |        - |      300 |      300 |       0.13 | *
    |      53K |        - |      298 |      298 |       0.14 | *
    |      53K |        - |      291 |      291 |       0.14 | *
    |      54K |        - |      290 |      290 |       0.14 | *
    |      64K |        - |      287 |      287 |       0.15 | *
    |      64K |        - |      286 |      286 |       0.15 | *
    |      65K |        - |      284 |      284 |       0.15 | *
    |      67K |        - |      283 |      283 |       0.15 | *
    |      70K |        - |      281 |      281 |       0.16 | *
    |      71K |        - |      279 |      279 |       0.16 | *
    |      71K |        - |      278 |      278 |       0.16 | *
    |      75K |        - |      277 |      277 |       0.16 | *
    |      76K |        - |      273 |      273 |       0.17 | *
    |      84K |        - |      272 |      272 |       0.17 | *
    |      84K |        - |      271 |      271 |       0.18 | *
    |     150K |        - |      270 |      270 |       0.25 | *
    |     153K |        - |      269 |      269 |       0.26 | *
    |     154K |        - |      267 |      267 |       0.26 | *
    |     155K |        - |      266 |      266 |       0.26 | *
    |     170K |        - |      264 |      264 |       0.28 | *
    |     170K |        - |      263 |      263 |       0.28 | *
    |     175K |        - |      262 |      262 |       0.28 | *
    |     190K |        - |      260 |      260 |       0.30 | *
    |     190K |        - |      259 |      259 |       0.30 | *
    |     239K |        - |      258 |      258 |       0.35 | *
    |     254K |        - |      257 |      257 |       0.36 | *
    |     254K |        - |      252 |      252 |       0.36 | *
    |     261K |        - |      250 |      250 |       0.37 | *
    |     344K |        - |      249 |      249 |       0.46 | *
    |     345K |        - |      248 |      248 |       0.46 | *
    |     406K |        - |      247 |      247 |       0.52 | *
    |     407K |        - |      246 |      246 |       0.52 | *
    |     455K |        - |      245 |      245 |       0.57 | *
    |     483K |        - |      244 |      244 |       0.60 | *
    |     484K |        - |      243 |      243 |       0.61 | *
    |     486K |        - |      241 |      241 |       0.61 | *
    |     486K |        - |      240 |      240 |       0.61 | *
    |     944K |        - |      239 |      239 |       1.10 | *
    |     999K |        - |      238 |      238 |       1.16 | *
    |    1348K |        - |      236 |      236 |       1.53 | *
    |    1348K |        - |      235 |      235 |       1.53 | *
    |    1449K |        - |      233 |      233 |       1.63 | *
    |    1616K |        - |      231 |      231 |       1.82 | *
    |    1667K |        - |      229 |      229 |       1.87 | *
    |    1696K |        - |      228 |      228 |       1.90 | *
    |    1721K |        - |      227 |      227 |       1.93 | *
    |    2948K |        - |      226 |      226 |       3.32 | *
    |    2981K |        - |      225 |      225 |       3.35 | *
    |    5310K |        - |      224 |      224 |       5.90 | *
    |    5330K |        - |      222 |      222 |       5.92 | *
    |    5428K |        - |      221 |      221 |       6.03 | *
    |    5505K |        - |      220 |      220 |       6.11 | *
    |    6071K |        - |      219 |      219 |       6.71 | *
    |    6081K |        - |      218 |      218 |       6.72 | *
    |    8350K |        - |      217 |      217 |       9.44 | *
    |    9089K |        - |      216 |      216 |      10.50 | *
    |    9267K |        - |      215 |      215 |      10.75 | *
    |      10M |        - |      214 |      214 |      11.85 | *
    |      22M |        - |      213 |      213 |      26.87 | *
    |      47M |        - |      212 |      212 |      59.77 | *
    |      47M |        - |      211 |      211 |      59.77 | *
    |      47M |        - |      210 |      210 |      60.16 | *
    \--------------------------------------------------------/

Neighborhoods statistics (values in %):

    /----------------------------------------------------------------\
    | Move               | Improvs. | Sideways |  Accepts |  Rejects |
    |--------------------|----------|----------|----------|----------|
    | Shift(mk)          |     4631 |     5441 |      12K |      12M |
    | Shift              |      465 |      58K |      62K |      11M |
    | ShiftSmart(mk)     |      35K |      39K |      86K |      11M |
    | ShiftSmart         |     3479 |     406K |     435K |      11M |
    | SimpSwap(mk)       |       18 |       11 |       41 |      12M |
    | SimpSwap           |        6 |      134 |      154 |      12M |
    | SimpSwapSmart(mk)  |      201 |      112 |      439 |      12M |
    | SimpSwapSmart      |       55 |     1153 |     1337 |      12M |
    | Swap(mk)           |        8 |        7 |       17 |      12M |
    | Swap               |        2 |       42 |       49 |      12M |
    | SwapSmart(mk)      |      314 |      411 |      836 |      12M |
    | SwapSmart          |       57 |     1961 |     2248 |      12M |
    | Switch(mk)         |     1815 |    1189K |    1192K |      10M |
    | Switch             |      207 |    1221K |    1222K |      10M |
    | SwitchSmart(mk)    |      16K |     8377 |      33K |      12M |
    | SwitchSmart        |     1615 |     150K |     161K |      11M |
    | TaskMove(mk)       |      230 |      248 |      568 |      12M |
    | TaskMove           |       24 |      902 |     1071 |      12M |
    | TaskMoveSmart(mk)  |     1970 |     2278 |     5042 |      12M |
    | TaskMoveSmart      |      258 |     8356 |     9914 |      12M |
    | 2-Shift(mk)        |     1440 |     143K |     145K |      11M |
    | 2-Shift            |      144 |     163K |     164K |      11M |
    | 2-ShiftSmart(mk)   |     6588 |     199K |     207K |      11M |
    | 2-ShiftSmart       |      633 |     327K |     333K |      11M |
    \----------------------------------------------------------------/

Best makespan.....: 210
N. of Iterations..: 277079183
Total runtime.....: 360.01s
Academic license - for non-commercial use only
Academic license - for non-commercial use only
Academic license - for non-commercial use only
Academic license - for non-commercial use only
Academic license - for non-commercial use only
Academic license - for non-commercial use only
Academic license - for non-commercial use only
Academic license - for non-commercial use only
Academic license - for non-commercial use only
Academic license - for non-commercial use only
Academic license - for non-commercial use only
Academic license - for non-commercial use only
Academic license - for non-commercial use only
Academic license - for non-commercial use only
Academic license - for non-commercial use only
Academic license - for non-commercial use only
Academic license - for non-commercial use only
Academic license - for non-commercial use only
Academic license - for non-commercial use only
Academic license - for non-commercial use only
Academic license - for non-commercial use only
Academic license - for non-commercial use only
Academic license - for non-commercial use only
Academic license - for non-commercial use only
Academic license - for non-commercial use only
Academic license - for non-commercial use only
Academic license - for non-commercial use only
Academic license - for non-commercial use only
Academic license - for non-commercial use only
Academic license - for non-commercial use only
Academic license - for non-commercial use only
Academic license - for non-commercial use only
Academic license - for non-commercial use only
Academic license - for non-commercial use only
Academic license - for non-commercial use only
Academic license - for non-commercial use only
Academic license - for non-commercial use only
Academic license - for non-commercial use only
Academic license - for non-commercial use only
Academic license - for non-commercial use only
Academic license - for non-commercial use only
Academic license - for non-commercial use only
Academic license - for non-commercial use only
Academic license - for non-commercial use only
Academic license - for non-commercial use only
Academic license - for non-commercial use only
Academic license - for non-commercial use only
Academic license - for non-commercial use only
Academic license - for non-commercial use only
Academic license - for non-commercial use only
Academic license - for non-commercial use only
Academic license - for non-commercial use only
Academic license - for non-commercial use only
Academic license - for non-commercial use only
Academic license - for non-commercial use only
Academic license - for non-commercial use only
Academic license - for non-commercial use only
Academic license - for non-commercial use only
Academic license - for non-commercial use only
Academic license - for non-commercial use only
Academic license - for non-commercial use only
Academic license - for non-commercial use only
Academic license - for non-commercial use only
Academic license - for non-commercial use only
Academic license - for non-commercial use only
Academic license - for non-commercial use only
Academic license - for non-commercial use only
Academic license - for non-commercial use only
Academic license - for non-commercial use only
Academic license - for non-commercial use only
Academic license - for non-commercial use only
Academic license - for non-commercial use only
Academic license - for non-commercial use only
Academic license - for non-commercial use only
Academic license - for non-commercial use only
Academic license - for non-commercial use only
Academic license - for non-commercial use only
Academic license - for non-commercial use only
Academic license - for non-commercial use only
Academic license - for non-commercial use only
Academic license - for non-commercial use only
Academic license - for non-commercial use only
Academic license - for non-commercial use only
Academic license - for non-commercial use only
Academic license - for non-commercial use only
Academic license - for non-commercial use only
Academic license - for non-commercial use only
Academic license - for non-commercial use only
Academic license - for non-commercial use only
Academic license - for non-commercial use only
Academic license - for non-commercial use only
Academic license - for non-commercial use only
    /-------------------------------------------------------------------------------\
    |    Makespam   |   Free Jobs   | Free Machines |    It. Time   |   Total Time  | 
    |-------------------------------------------------------------------------------|
    |           210 |            33 |             4 |          2.17 |          2.78 | 
    |           210 |            39 |             5 |          0.42 |          3.36 | 
    |           210 |            46 |             5 |         13.55 |         17.05 | 
    |           210 |            55 |             6 |         22.00 |         39.26 | 
    |           210 |            44 |             5 |         15.21 |         54.62 | 
    |           208 |            52 |             6 |         22.02 |         76.83 | 
    |           208 |            52 |             6 |         22.01 |         99.06 | 
    |           208 |            41 |             5 |          2.77 |        101.99 | 
    |           208 |            49 |             6 |         22.00 |        124.20 | 
    |           208 |            39 |             4 |          1.42 |        125.68 | 
    |           208 |            46 |             5 |          6.10 |        131.92 | 
    |           208 |            55 |             6 |         22.01 |        154.08 | 
    |           208 |            44 |             4 |          9.90 |        164.09 | 
    |           207 |            52 |             6 |         22.01 |        186.34 | 
    |           207 |            52 |             6 |         22.01 |        208.56 | 
    |           207 |            41 |             5 |         22.00 |        230.70 | 
    |           207 |            32 |             4 |          2.01 |        232.77 | 
    |           207 |            38 |             4 |          0.44 |        233.31 | 
    |           206 |            45 |             5 |         20.72 |        254.25 | 
    |           205 |            45 |             5 |         22.01 |        276.35 | 
    |           205 |            45 |             5 |         20.81 |        297.33 | 
    |           205 |            54 |             6 |         22.00 |        319.52 | 
    |           205 |            43 |             5 |         22.00 |        341.62 | 
    |           205 |            34 |             4 |          2.88 |        344.57 | 
    |           205 |            40 |             5 |          7.29 |        351.98 | 
    |           205 |            48 |             5 |         22.00 |        374.14 | 
    |           205 |            38 |             4 |          0.29 |        374.49 | 
    |           204 |            45 |             5 |         22.00 |        396.58 | 
    |           204 |            45 |             5 |         20.59 |        417.28 | 
    |           202 |            54 |             6 |         22.01 |        439.54 | 
    |           202 |            54 |             6 |         22.00 |        461.71 | 
    |           202 |            43 |             5 |         22.00 |        483.81 | 
    |           202 |            34 |             4 |          0.50 |        484.40 | 
    |           202 |            40 |             5 |          0.45 |        484.94 | 
    |           202 |            48 |             5 |          4.76 |        489.88 | 
    |           202 |            57 |             6 |         22.00 |        512.07 | 
    |           202 |            45 |             5 |         12.22 |        524.38 | 
    |           202 |            54 |             6 |         22.00 |        546.59 | 
    |           202 |            43 |             5 |         12.27 |        558.97 | 
    |           202 |            51 |             6 |         22.01 |        581.18 | 
    |           202 |            40 |             5 |         22.00 |        603.27 | 
    |           202 |            32 |             4 |          2.03 |        605.37 | 
    |           202 |            38 |             5 |         20.51 |        625.97 | 
    |           202 |            45 |             5 |         22.00 |        648.11 | 
    |           202 |            36 |             4 |          0.33 |        648.50 | 
    |           202 |            43 |             5 |         17.43 |        666.07 | 
    |           202 |            51 |             6 |         22.00 |        688.34 | 
    |           202 |            40 |             5 |         22.00 |        710.43 | 
    |           202 |            32 |             4 |          0.41 |        710.89 | 
    |           202 |            38 |             4 |          1.44 |        712.41 | 
    |           202 |            45 |             5 |          1.09 |        713.58 | 
    |           202 |            54 |             6 |          1.29 |        715.07 | 
    |           202 |            64 |             7 |         22.01 |        737.33 | 
    |           202 |            51 |             6 |         20.29 |        757.86 | 
    |           202 |            61 |             7 |         22.02 |        780.25 | 
    |           202 |            48 |             5 |         11.11 |        791.49 | 
    |           202 |            57 |             6 |         22.04 |        813.80 | 
    |           202 |            45 |             5 |         10.25 |        824.20 | 
    |           202 |            54 |             6 |          6.81 |        831.18 | 
    |           202 |            64 |             7 |         22.01 |        853.53 | 
    |           202 |            51 |             6 |         13.86 |        867.56 | 
    |           202 |            61 |             6 |          5.51 |        873.26 | 
    |           202 |            73 |             8 |         22.01 |        895.79 | 
    |           202 |            58 |             6 |         22.01 |        918.02 | 
    |           202 |            46 |             6 |         22.00 |        940.30 | 
    |           202 |            36 |             4 |          2.49 |        942.84 | 
    |           202 |            43 |             5 |          2.16 |        945.17 | 
    |           202 |            51 |             6 |         22.00 |        967.42 | 
    |           202 |            40 |             5 |         17.33 |        984.83 | 
    |           202 |            48 |             5 |         18.44 |       1003.39 | 
    |           202 |            57 |             6 |         22.00 |       1025.71 | 
    |           202 |            45 |             5 |          2.47 |       1028.29 | 
    |           202 |            54 |             6 |         22.00 |       1050.51 | 
    |           202 |            43 |             5 |          2.93 |       1053.54 | 
    |           202 |            51 |             6 |         22.00 |       1075.72 | 
    |           202 |            40 |             4 |          0.34 |       1076.16 | 
    |           202 |            48 |             5 |          3.25 |       1079.56 | 
    |           202 |            57 |             6 |         22.00 |       1101.74 | 
    |           202 |            45 |             5 |          1.76 |       1103.60 | 
    |           202 |            54 |             6 |         22.00 |       1125.78 | 
    |           202 |            43 |             5 |         21.07 |       1146.98 | 
    |           202 |            51 |             6 |         22.00 |       1169.19 | 
    |           202 |            40 |             4 |          1.21 |       1170.49 | 
    |           202 |            48 |             5 |          2.44 |       1173.10 | 
    |           202 |            57 |             6 |         22.00 |       1195.26 | 
    |           202 |            45 |             5 |          2.12 |       1197.50 | 
    |           202 |            54 |             6 |         22.00 |       1219.72 | 
    |           202 |            43 |             5 |         10.13 |       1229.96 | 
    |           202 |            51 |             6 |         22.02 |       1252.16 | 
    |           202 |            40 |             5 |          4.22 |       1256.48 | 
    |           202 |            48 |             5 |          1.55 |       1258.14 | 
    |           202 |            57 |             6 |         22.00 |       1280.40 | Academic license - for non-commercial use only
Academic license - for non-commercial use only
Academic license - for non-commercial use only
Academic license - for non-commercial use only
Academic license - for non-commercial use only
Academic license - for non-commercial use only
Academic license - for non-commercial use only
Academic license - for non-commercial use only
Academic license - for non-commercial use only
Academic license - for non-commercial use only
Academic license - for non-commercial use only
Academic license - for non-commercial use only
Academic license - for non-commercial use only
Academic license - for non-commercial use only
Academic license - for non-commercial use only
Academic license - for non-commercial use only
Academic license - for non-commercial use only
Academic license - for non-commercial use only
Academic license - for non-commercial use only
Academic license - for non-commercial use only
Academic license - for non-commercial use only
Academic license - for non-commercial use only
Academic license - for non-commercial use only
Academic license - for non-commercial use only
Academic license - for non-commercial use only
Academic license - for non-commercial use only
Academic license - for non-commercial use only
Academic license - for non-commercial use only
Academic license - for non-commercial use only
Academic license - for non-commercial use only
Academic license - for non-commercial use only
Academic license - for non-commercial use only
Academic license - for non-commercial use only
Academic license - for non-commercial use only
Academic license - for non-commercial use only
Academic license - for non-commercial use only
Academic license - for non-commercial use only
Academic license - for non-commercial use only
Academic license - for non-commercial use only
Academic license - for non-commercial use only
Academic license - for non-commercial use only
Academic license - for non-commercial use only
Academic license - for non-commercial use only
Academic license - for non-commercial use only
Academic license - for non-commercial use only
Academic license - for non-commercial use only
Academic license - for non-commercial use only
Academic license - for non-commercial use only
Academic license - for non-commercial use only
Academic license - for non-commercial use only
Academic license - for non-commercial use only
Academic license - for non-commercial use only
Academic license - for non-commercial use only
Academic license - for non-commercial use only
Academic license - for non-commercial use only
Academic license - for non-commercial use only
Academic license - for non-commercial use only
Academic license - for non-commercial use only
Academic license - for non-commercial use only
Academic license - for non-commercial use only
Academic license - for non-commercial use only
Academic license - for non-commercial use only
Academic license - for non-commercial use only
Academic license - for non-commercial use only
Academic license - for non-commercial use only
Academic license - for non-commercial use only
Academic license - for non-commercial use only
Academic license - for non-commercial use only
Academic license - for non-commercial use only
Academic license - for non-commercial use only
Academic license - for non-commercial use only
Academic license - for non-commercial use only
Academic license - for non-commercial use only
Academic license - for non-commercial use only
Academic license - for non-commercial use only
Academic license - for non-commercial use only
Academic license - for non-commercial use only
Academic license - for non-commercial use only
Academic license - for non-commercial use only
Academic license - for non-commercial use only
Academic license - for non-commercial use only
Academic license - for non-commercial use only
Academic license - for non-commercial use only
Academic license - for non-commercial use only
Academic license - for non-commercial use only
Academic license - for non-commercial use only
Academic license - for non-commercial use only
Academic license - for non-commercial use only
Academic license - for non-commercial use only
Academic license - for non-commercial use only
Academic license - for non-commercial use only
Academic license - for non-commercial use only
Academic license - for non-commercial use only
Academic license - for non-commercial use only
Academic license - for non-commercial use only

    |           202 |            45 |             5 |         11.50 |       1292.03 | 
    |           202 |            54 |             6 |          7.73 |       1299.92 | 
    |           202 |            64 |             7 |         22.01 |       1322.26 | 
    |           202 |            51 |             6 |         22.00 |       1344.47 | 
    |           202 |            40 |             4 |          0.88 |       1345.41 | 
    |           202 |            48 |             5 |          2.08 |       1347.60 | 
    |           202 |            57 |             6 |         22.00 |       1369.86 | 
    |           202 |            45 |             5 |          2.77 |       1372.78 | 
    |           202 |            54 |             6 |         22.00 |       1394.97 | 
    |           202 |            43 |             5 |         14.62 |       1409.68 | 
    |           202 |            51 |             5 |          4.55 |       1414.38 | 
    |           202 |            61 |             7 |         22.01 |       1436.77 | 
    |           202 |            48 |             5 |          2.71 |       1439.60 | 
    |           202 |            57 |             6 |          5.06 |       1444.84 | 
    |           202 |            68 |             8 |         22.01 |       1467.30 | 
    |           202 |            54 |             6 |         22.00 |       1489.58 | 
    |           202 |            43 |             5 |          2.07 |       1491.75 | 
    |           202 |            51 |             6 |         22.00 |       1513.98 | 
    |           202 |            40 |             4 |          0.38 |       1514.42 | 
    |           202 |            48 |             6 |         22.00 |       1536.60 | 
    |           202 |            38 |             4 |          0.45 |       1537.09 | 
    |           202 |            45 |             5 |          2.54 |       1539.74 | 
    |           202 |            54 |             6 |         10.01 |       1550.04 | 
    |           202 |            64 |             7 |         21.97 |       1572.27 | 
    |           202 |            76 |             8 |         22.01 |       1594.78 | 
    |           202 |            60 |             7 |         22.01 |       1617.09 | 
    |           202 |            48 |             5 |          2.19 |       1619.41 | 
    |           202 |            57 |             6 |         22.00 |       1641.79 | 
    |           202 |            45 |             5 |         22.00 |       1663.93 | 
    |           202 |            36 |             4 |          0.70 |       1664.68 | 
    |           202 |            43 |             5 |         12.66 |       1677.50 | 
    |           202 |            51 |             6 |         22.00 |       1699.76 | 
    |           202 |            40 |             4 |          0.53 |       1700.38 | 
    |           202 |            48 |             5 |          3.97 |       1704.46 | 
    |           202 |            57 |             6 |         22.00 |       1726.71 | 
    |           202 |            45 |             5 |         22.00 |       1748.81 | 
    |           202 |            36 |             4 |          0.75 |       1749.60 | 
    |           202 |            43 |             5 |          2.21 |       1751.94 | 
    |           202 |            51 |             6 |         22.00 |       1774.15 | 
    |           202 |            40 |             4 |          0.47 |       1774.68 | 
    |           202 |            48 |             5 |         17.81 |       1792.57 | 
    |           202 |            57 |             7 |         22.00 |       1814.89 | 
    |           202 |            45 |             5 |         15.33 |       1830.33 | 
    |           202 |            54 |             6 |         22.00 |       1852.46 | 
    |           202 |            43 |             5 |          2.60 |       1855.16 | 
    |           202 |            51 |             5 |          5.64 |       1860.90 | 
    |           202 |            61 |             7 |         22.03 |       1883.21 | 
    |           202 |            48 |             5 |         22.00 |       1905.32 | 
    |           202 |            38 |             4 |          0.45 |       1905.81 | 
    |           202 |            45 |             5 |          4.45 |       1910.40 | 
    |           202 |            54 |             6 |         22.00 |       1932.63 | 
    |           202 |            43 |             5 |          2.16 |       1934.87 | 
    |           202 |            51 |             5 |         22.00 |       1957.00 | 
    |           202 |            40 |             4 |          0.40 |       1957.48 | 
    |           202 |            48 |             6 |         22.00 |       1979.81 | 
    |           202 |            38 |             4 |          0.43 |       1980.29 | 
    |           202 |            45 |             5 |         22.01 |       2002.42 | 
    |           202 |            36 |             4 |          0.68 |       2003.16 | 
    |           202 |            43 |             5 |          2.29 |       2005.53 | 
    |           202 |            51 |             6 |         22.00 |       2027.74 | 
    |           202 |            40 |             4 |          1.41 |       2029.23 | 
    |           202 |            48 |             5 |          2.74 |       2032.09 | 
    |           202 |            57 |             7 |         22.00 |       2054.38 | 
    |           202 |            45 |             5 |          2.25 |       2056.71 | 
    |           202 |            54 |             6 |          5.41 |       2062.29 | 
    |           202 |            64 |             6 |         22.01 |       2084.54 | 
    |           202 |            51 |             6 |          5.65 |       2090.40 | 
    |           202 |            61 |             7 |         22.00 |       2112.73 | 
    |           202 |            48 |             5 |         16.46 |       2129.32 | 
    |           202 |            57 |             6 |         22.00 |       2151.51 | 
    |           202 |            45 |             5 |          6.12 |       2157.80 | 
    |           202 |            54 |             6 |         22.00 |       2179.98 | 
    |           202 |            43 |             5 |         22.01 |       2202.10 | 
    |           202 |            34 |             4 |          0.33 |       2202.51 | 
    |           202 |            40 |             5 |          5.76 |       2208.49 | 
    |           202 |            48 |             6 |         22.00 |       2230.65 | 
    |           202 |            38 |             4 |          1.04 |       2231.80 | 
    |           202 |            45 |             5 |         22.01 |       2253.94 | 
    |           202 |            36 |             4 |          0.35 |       2254.37 | 
    |           202 |            43 |             5 |          1.12 |       2255.61 | 
    |           202 |            51 |             5 |         13.44 |       2269.15 | 
    |           202 |            61 |             7 |         22.00 |       2291.50 | 
    |           202 |            48 |             5 |         22.00 |       2313.59 | 
    |           202 |            38 |             4 |          0.58 |       2314.26 | 
    |           202 |            45 |             5 |          3.21 |       2317.61 | 
    |           202 |            54 |             6 |         22.00 |       2339.83 | 
    |           202 |            43 |             5 |         22.00 |       2361.95 | 
    |           202 |            34 |             4 |          0.58 |       2362.59 | 
    |           202 |            40 |             5 |          7.80 |       2370.46 | 
    |           202 |            48 |             6 |         22.00 |       2392.68 | 
    |           202 |            38 |             4 |          0.30 |       2393.05 | 
    |           202 |            45 |             5 |          1.54 |       2394.75 | 
    |           202 |            54 |             6 |         22.00 |       2416.97 | 
    |           202 |            43 |             5 |         16.96 |       2434.04 | 
    |           202 |            51 |             6 |         22.00 |       2456.24 | Academic license - for non-commercial use only
Academic license - for non-commercial use only
Academic license - for non-commercial use only
Academic license - for non-commercial use only
Academic license - for non-commercial use only
Academic license - for non-commercial use only
Academic license - for non-commercial use only
Academic license - for non-commercial use only
Academic license - for non-commercial use only
Academic license - for non-commercial use only
Academic license - for non-commercial use only
Academic license - for non-commercial use only
Academic license - for non-commercial use only
Academic license - for non-commercial use only
Academic license - for non-commercial use only
Academic license - for non-commercial use only
Academic license - for non-commercial use only
Academic license - for non-commercial use only
Academic license - for non-commercial use only
Academic license - for non-commercial use only
Academic license - for non-commercial use only
Academic license - for non-commercial use only
Academic license - for non-commercial use only
Academic license - for non-commercial use only
Academic license - for non-commercial use only
Academic license - for non-commercial use only
Academic license - for non-commercial use only
Academic license - for non-commercial use only
Academic license - for non-commercial use only
Academic license - for non-commercial use only
Academic license - for non-commercial use only
Academic license - for non-commercial use only
Academic license - for non-commercial use only
Academic license - for non-commercial use only
Academic license - for non-commercial use only
Academic license - for non-commercial use only
Academic license - for non-commercial use only
Academic license - for non-commercial use only
Academic license - for non-commercial use only
Academic license - for non-commercial use only
Academic license - for non-commercial use only
Academic license - for non-commercial use only
Academic license - for non-commercial use only
Academic license - for non-commercial use only
Academic license - for non-commercial use only
Academic license - for non-commercial use only
Academic license - for non-commercial use only
Academic license - for non-commercial use only
Academic license - for non-commercial use only
Academic license - for non-commercial use only
Academic license - for non-commercial use only
Academic license - for non-commercial use only
Academic license - for non-commercial use only
Academic license - for non-commercial use only
Academic license - for non-commercial use only
Academic license - for non-commercial use only
Academic license - for non-commercial use only
Academic license - for non-commercial use only
Academic license - for non-commercial use only
Academic license - for non-commercial use only
Academic license - for non-commercial use only

    |           202 |            40 |             5 |         11.96 |       2468.32 | 
    |           202 |            48 |             5 |          7.93 |       2476.37 | 
    |           202 |            57 |             6 |         22.02 |       2498.59 | 
    |           202 |            45 |             5 |          2.08 |       2500.78 | 
    |           202 |            54 |             6 |         22.00 |       2523.00 | 
    |           202 |            43 |             5 |          3.14 |       2526.26 | 
    |           202 |            51 |             5 |          2.42 |       2528.80 | 
    |           202 |            61 |             6 |         22.00 |       2551.03 | 
    |           202 |            48 |             5 |          3.14 |       2554.37 | 
    |           202 |            57 |             6 |         22.00 |       2576.66 | 
    |           202 |            45 |             5 |          1.15 |       2577.89 | 
    |           202 |            54 |             6 |         22.00 |       2600.12 | 
    |           202 |            43 |             5 |         20.88 |       2621.12 | 
    |           202 |            51 |             5 |          2.79 |       2624.06 | 
    |           202 |            61 |             6 |          5.04 |       2629.37 | 
    |           202 |            73 |             8 |         22.01 |       2651.78 | 
    |           202 |            58 |             6 |         22.00 |       2673.97 | 
    |           202 |            46 |             5 |          9.33 |       2683.43 | 
    |           202 |            55 |             6 |         22.00 |       2705.70 | 
    |           202 |            44 |             4 |          0.87 |       2706.65 | 
    |           202 |            52 |             5 |         22.00 |       2728.77 | 
    |           202 |            41 |             5 |         14.44 |       2743.34 | 
    |           202 |            49 |             5 |         22.00 |       2765.46 | 
    |           202 |            39 |             4 |          0.34 |       2765.88 | 
    |           202 |            46 |             5 |          1.24 |       2767.28 | 
    |           202 |            55 |             6 |         22.01 |       2789.53 | 
    |           202 |            44 |             5 |         22.00 |       2811.65 | 
    |           202 |            35 |             4 |          3.01 |       2814.72 | 
    |           202 |            42 |             5 |          9.42 |       2824.27 | 
    |           202 |            50 |             5 |          4.12 |       2828.56 | 
    |           202 |            60 |             6 |          5.55 |       2834.30 | 
    |           202 |            72 |             8 |         22.01 |       2856.87 | 
    |           202 |            57 |             6 |         22.00 |       2879.11 | 
    |           202 |            45 |             6 |         20.22 |       2899.50 | 
    |           202 |            54 |             6 |         22.00 |       2921.88 | 
    |           202 |            43 |             5 |         22.00 |       2943.97 | 
    |           202 |            34 |             4 |          0.34 |       2944.36 | 
    |           202 |            40 |             4 |          0.43 |       2944.88 | 
    |           202 |            48 |             5 |         11.09 |       2956.08 | 
    |           202 |            57 |             7 |         22.00 |       2978.41 | 
    |           202 |            45 |             5 |         22.00 |       3000.53 | 
    |           202 |            36 |             4 |          1.23 |       3001.81 | 
    |           202 |            43 |             5 |          4.07 |       3005.98 | 
    |           202 |            51 |             6 |         22.00 |       3028.25 | 
    |           202 |            40 |             4 |          1.92 |       3030.23 | 
    |           202 |            48 |             5 |         12.35 |       3042.77 | 
    |           202 |            57 |             7 |         22.00 |       3065.03 | 
    |           202 |            45 |             5 |         11.18 |       3076.31 | 
    |           202 |            54 |             5 |         11.71 |       3088.15 | 
    |           202 |            64 |             7 |         22.00 |       3110.45 | 
    |           202 |            51 |             6 |         22.00 |       3132.62 | 
    |           202 |            40 |             4 |          2.83 |       3135.51 | 
    |           202 |            48 |             5 |         13.27 |       3148.90 | 
    |           202 |            57 |             6 |         22.00 |       3171.12 | 
    |           202 |            45 |             5 |          3.79 |       3175.02 | 
    |           202 |            54 |             6 |         22.00 |       3197.19 | 
    |           202 |            43 |             5 |          5.18 |       3202.48 | 
    |           202 |            51 |             5 |          3.26 |       3205.85 | 
    |           202 |            61 |             6 |         22.01 |       3228.10 | 
    |           202 |            48 |             6 |          2.08 |       3230.33 | 
    |           202 |            57 |             6 |          9.10 |       3239.70 | 
-16.33663366336634
