Instance....: instances/I_200_30_S_1-124_2.txt
Algorithm...: Simulated Annealing (alpha=0.990, saMax=10M, t0=1)
Other params: maxIters=100M, seed=1, timeLimit=360.00s

    /--------------------------------------------------------\
    |     Iter |   RDP(%) |       S* |       S' |       Time | 
    |----------|----------|----------|----------|------------|
    |        0 |        - |     1866 |     1866 |       0.00 | s0
    |        2 |        - |     1732 |     1732 |       0.00 | *
    |        5 |        - |     1681 |     1681 |       0.00 | *
    |       11 |        - |     1591 |     1591 |       0.02 | *
    |       22 |        - |     1455 |     1455 |       0.02 | *
    |       34 |        - |     1404 |     1404 |       0.02 | *
    |       36 |        - |     1365 |     1365 |       0.02 | *
    |       37 |        - |     1289 |     1289 |       0.02 | *
    |       42 |        - |     1260 |     1260 |       0.02 | *
    |       47 |        - |     1236 |     1236 |       0.02 | *
    |       49 |        - |     1227 |     1227 |       0.03 | *
    |       52 |        - |     1193 |     1193 |       0.03 | *
    |       54 |        - |     1159 |     1159 |       0.03 | *
    |       55 |        - |     1066 |     1066 |       0.03 | *
    |       58 |        - |     1058 |     1058 |       0.03 | *
    |       61 |        - |     1046 |     1046 |       0.03 | *
    |       62 |        - |     1037 |     1037 |       0.03 | *
    |       89 |        - |     1036 |     1036 |       0.03 | *
    |       93 |        - |     1033 |     1033 |       0.03 | *
    |      106 |        - |     1030 |     1030 |       0.03 | *
    |      129 |        - |      996 |      996 |       0.03 | *
    |      130 |        - |      991 |      991 |       0.03 | *
    |      137 |        - |      986 |      986 |       0.03 | *
    |      138 |        - |      972 |      972 |       0.03 | *
    |      142 |        - |      950 |      950 |       0.03 | *
    |      144 |        - |      941 |      941 |       0.03 | *
    |      147 |        - |      934 |      934 |       0.03 | *
    |      152 |        - |      910 |      910 |       0.03 | *
    |      157 |        - |      903 |      903 |       0.03 | *
    |      159 |        - |      880 |      880 |       0.03 | *
    |      163 |        - |      873 |      873 |       0.03 | *
    |      165 |        - |      869 |      869 |       0.03 | *
    |      166 |        - |      859 |      859 |       0.03 | *
    |      173 |        - |      857 |      857 |       0.03 | *
    |      178 |        - |      849 |      849 |       0.03 | *
    |      182 |        - |      844 |      844 |       0.03 | *
    |      183 |        - |      836 |      836 |       0.03 | *
    |      195 |        - |      830 |      830 |       0.04 | *
    |      196 |        - |      813 |      813 |       0.04 | *
    |      207 |        - |      797 |      797 |       0.04 | *
    |      210 |        - |      792 |      792 |       0.04 | *
    |      212 |        - |      770 |      770 |       0.04 | *
    |      216 |        - |      764 |      764 |       0.04 | *
    |      218 |        - |      761 |      761 |       0.04 | *
    |      230 |        - |      724 |      724 |       0.04 | *
    |      237 |        - |      720 |      720 |       0.04 | *
    |      249 |        - |      712 |      712 |       0.04 | *
    |      279 |        - |      704 |      704 |       0.04 | *
    |      281 |        - |      701 |      701 |       0.04 | *
    |      282 |        - |      697 |      697 |       0.04 | *
    |      287 |        - |      685 |      685 |       0.04 | *
    |      288 |        - |      671 |      671 |       0.04 | *
    |      300 |        - |      670 |      670 |       0.04 | *
    |      312 |        - |      668 |      668 |       0.04 | *
    |      315 |        - |      661 |      661 |       0.04 | *
    |      320 |        - |      657 |      657 |       0.04 | *
    |      324 |        - |      652 |      652 |       0.04 | *
    |      336 |        - |      649 |      649 |       0.04 | *
    |      343 |        - |      648 |      648 |       0.04 | *
    |      344 |        - |      644 |      644 |       0.04 | *
    |      350 |        - |      642 |      642 |       0.04 | *
    |      365 |        - |      634 |      634 |       0.05 | *
    |      371 |        - |      632 |      632 |       0.05 | *
    |      382 |        - |      627 |      627 |       0.05 | *
    |      386 |        - |      625 |      625 |       0.05 | *
    |      404 |        - |      623 |      623 |       0.05 | *
    |      405 |        - |      620 |      620 |       0.05 | *
    |      419 |        - |      616 |      616 |       0.05 | *
    |      420 |        - |      615 |      615 |       0.05 | *
    |      439 |        - |      614 |      614 |       0.05 | *
    |      487 |        - |      613 |      613 |       0.05 | *
    |      488 |        - |      605 |      605 |       0.05 | *
    |      492 |        - |      601 |      601 |       0.05 | *
    |      504 |        - |      593 |      593 |       0.05 | *
    |      516 |        - |      591 |      591 |       0.05 | *
    |      521 |        - |      586 |      586 |       0.05 | *
    |      544 |        - |      585 |      585 |       0.05 | *
    |      554 |        - |      584 |      584 |       0.05 | *
    |      583 |        - |      573 |      573 |       0.05 | *
    |      601 |        - |      568 |      568 |       0.05 | *
    |      610 |        - |      567 |      567 |       0.05 | *
    |      614 |        - |      566 |      566 |       0.05 | *
    |      615 |        - |      565 |      565 |       0.05 | *
    |      629 |        - |      562 |      562 |       0.05 | *
    |      633 |        - |      555 |      555 |       0.05 | *
    |      646 |        - |      551 |      551 |       0.05 | *
    |      659 |        - |      550 |      550 |       0.05 | *
    |      663 |        - |      549 |      549 |       0.05 | *
    |      670 |        - |      546 |      546 |       0.05 | *
    |      671 |        - |      540 |      540 |       0.05 | *
    |      677 |        - |      538 |      538 |       0.06 | *
    |      696 |        - |      537 |      537 |       0.06 | *
    |      697 |        - |      535 |      535 |       0.06 | *
    |      716 |        - |      531 |      531 |       0.06 | *
    |      718 |        - |      523 |      523 |       0.06 | *
    |      723 |        - |      522 |      522 |       0.06 | *
    |      724 |        - |      516 |      516 |       0.06 | *
    |      767 |        - |      512 |      512 |       0.06 | *
    |      804 |        - |      511 |      511 |       0.06 | *
    |      812 |        - |      503 |      503 |       0.06 | *
    |      844 |        - |      501 |      501 |       0.06 | *
    |      847 |        - |      500 |      500 |       0.06 | *
    |      870 |        - |      499 |      499 |       0.06 | *
    |      876 |        - |      497 |      497 |       0.06 | *
    |      881 |        - |      494 |      494 |       0.06 | *
    |      892 |        - |      493 |      493 |       0.06 | *
    |      921 |        - |      492 |      492 |       0.06 | *
    |      925 |        - |      489 |      489 |       0.06 | *
    |      933 |        - |      487 |      487 |       0.06 | *
    |      969 |        - |      486 |      486 |       0.06 | *
    |      970 |        - |      485 |      485 |       0.06 | *
    |      986 |        - |      482 |      482 |       0.06 | *
    |      991 |        - |      474 |      474 |       0.06 | *
    |      992 |        - |      471 |      471 |       0.06 | *
    |     1004 |        - |      470 |      470 |       0.06 | *
    |     1018 |        - |      467 |      467 |       0.06 | *
    |     1059 |        - |      466 |      466 |       0.06 | *
    |     1061 |        - |      465 |      465 |       0.06 | *
    |     1074 |        - |      461 |      461 |       0.06 | *
    |     1088 |        - |      458 |      458 |       0.06 | *
    |     1092 |        - |      454 |      454 |       0.06 | *
    |     1099 |        - |      451 |      451 |       0.07 | *
    |     1108 |        - |      450 |      450 |       0.07 | *
    |     1116 |        - |      446 |      446 |       0.07 | *
    |     1126 |        - |      444 |      444 |       0.07 | *
    |     1175 |        - |      443 |      443 |       0.07 | *
    |     1203 |        - |      441 |      441 |       0.07 | *
    |     1209 |        - |      436 |      436 |       0.07 | *
    |     1215 |        - |      434 |      434 |       0.07 | *
    |     1264 |        - |      433 |      433 |       0.07 | *
    |     1272 |        - |      430 |      430 |       0.07 | *
    |     1273 |        - |      428 |      428 |       0.07 | *
    |     1317 |        - |      424 |      424 |       0.07 | *
    |     1321 |        - |      422 |      422 |       0.07 | *
    |     1335 |        - |      419 |      419 |       0.07 | *
    |     1370 |        - |      417 |      417 |       0.07 | *
    |     1382 |        - |      416 |      416 |       0.07 | *
    |     1387 |        - |      415 |      415 |       0.07 | *
    |     1413 |        - |      414 |      414 |       0.07 | *
    |     1417 |        - |      413 |      413 |       0.07 | *
    |     1433 |        - |      412 |      412 |       0.07 | *
    |     1493 |        - |      410 |      410 |       0.07 | *
    |     1544 |        - |      409 |      409 |       0.07 | *
    |     1610 |        - |      407 |      407 |       0.07 | *
    |     1809 |        - |      404 |      404 |       0.07 | *
    |     1896 |        - |      403 |      403 |       0.07 | *
    |     1918 |        - |      398 |      398 |       0.08 | *
    |     2013 |        - |      397 |      397 |       0.08 | *
    |     2082 |        - |      396 |      396 |       0.08 | *
    |     2094 |        - |      395 |      395 |       0.08 | *
    |     2100 |        - |      394 |      394 |       0.08 | *
    |     2113 |        - |      393 |      393 |       0.08 | *
    |     2126 |        - |      392 |      392 |       0.08 | *
    |     2167 |        - |      391 |      391 |       0.08 | *
    |     2172 |        - |      390 |      390 |       0.08 | *
    |     2200 |        - |      388 |      388 |       0.08 | *
    |     2340 |        - |      386 |      386 |       0.08 | *
    |     2436 |        - |      385 |      385 |       0.08 | *
    |     2443 |        - |      383 |      383 |       0.08 | *
    |     2452 |        - |      382 |      382 |       0.08 | *
    |     2515 |        - |      379 |      379 |       0.08 | *
    |     2657 |        - |      377 |      377 |       0.08 | *
    |     2674 |        - |      375 |      375 |       0.08 | *
    |     2809 |        - |      374 |      374 |       0.08 | *
    |     2819 |        - |      373 |      373 |       0.08 | *
    |     2825 |        - |      372 |      372 |       0.08 | *
    |     2864 |        - |      371 |      371 |       0.08 | *
    |     2911 |        - |      370 |      370 |       0.08 | *
    |     2926 |        - |      369 |      369 |       0.08 | *
    |     2939 |        - |      368 |      368 |       0.08 | *
    |     3084 |        - |      367 |      367 |       0.08 | *
    |     3115 |        - |      365 |      365 |       0.08 | *
    |     3159 |        - |      364 |      364 |       0.08 | *
    |     3260 |        - |      363 |      363 |       0.09 | *
    |     3285 |        - |      362 |      362 |       0.09 | *
    |     3349 |        - |      358 |      358 |       0.09 | *
    |     3365 |        - |      357 |      357 |       0.09 | *
    |     3366 |        - |      356 |      356 |       0.09 | *
    |     3382 |        - |      355 |      355 |       0.09 | *
    |     3539 |        - |      354 |      354 |       0.09 | *
    |     3554 |        - |      351 |      351 |       0.09 | *
    |     3560 |        - |      350 |      350 |       0.09 | *
    |     3587 |        - |      348 |      348 |       0.09 | *
    |     3618 |        - |      347 |      347 |       0.09 | *
    |     3682 |        - |      346 |      346 |       0.09 | *
    |     3770 |        - |      344 |      344 |       0.09 | *
    |     3823 |        - |      342 |      342 |       0.09 | *
    |     3828 |        - |      340 |      340 |       0.09 | *
    |     3853 |        - |      339 |      339 |       0.09 | *
    |     3932 |        - |      337 |      337 |       0.09 | *
    |     3954 |        - |      336 |      336 |       0.09 | *
    |     3977 |        - |      335 |      335 |       0.09 | *
    |     4041 |        - |      334 |      334 |       0.09 | *
    |     4159 |        - |      333 |      333 |       0.09 | *
    |     4170 |        - |      332 |      332 |       0.09 | *
    |     4228 |        - |      331 |      331 |       0.09 | *
    |     4232 |        - |      330 |      330 |       0.09 | *
    |     4251 |        - |      329 |      329 |       0.09 | *
    |     4267 |        - |      328 |      328 |       0.10 | *
    |     4450 |        - |      327 |      327 |       0.10 | *
    |     4459 |        - |      325 |      325 |       0.10 | *
    |     4524 |        - |      324 |      324 |       0.10 | *
    |     4545 |        - |      323 |      323 |       0.10 | *
    |     4568 |        - |      322 |      322 |       0.10 | *
    |     4651 |        - |      321 |      321 |       0.10 | *
    |     4672 |        - |      320 |      320 |       0.10 | *
    |     4688 |        - |      319 |      319 |       0.10 | *
    |     4698 |        - |      318 |      318 |       0.10 | *
    |     4771 |        - |      317 |      317 |       0.10 | *
    |     4785 |        - |      316 |      316 |       0.10 | *
    |     4797 |        - |      315 |      315 |       0.10 | *
    |     6076 |        - |      314 |      314 |       0.10 | *
    |     6206 |        - |      311 |      311 |       0.11 | *
    |     6447 |        - |      310 |      310 |       0.11 | *
    |     6562 |        - |      309 |      309 |       0.11 | *
    |     6676 |        - |      308 |      308 |       0.11 | *
    |     6805 |        - |      302 |      302 |       0.11 | *
    |     6904 |        - |      300 |      300 |       0.11 | *
    |     6923 |        - |      299 |      299 |       0.11 | *
    |     7046 |        - |      297 |      297 |       0.11 | *
    |     7230 |        - |      296 |      296 |       0.11 | *
    |     7410 |        - |      295 |      295 |       0.11 | *
    |     7424 |        - |      293 |      293 |       0.11 | *
    |     8067 |        - |      292 |      292 |       0.11 | *
    |     8175 |        - |      291 |      291 |       0.11 | *
    |     8198 |        - |      290 |      290 |       0.11 | *
    |     8430 |        - |      289 |      289 |       0.11 | *
    |     8607 |        - |      287 |      287 |       0.11 | *
    |     8688 |        - |      286 |      286 |       0.11 | *
    |     8935 |        - |      285 |      285 |       0.11 | *
    |     8939 |        - |      284 |      284 |       0.11 | *
    |     8945 |        - |      283 |      283 |       0.11 | *
    |     9009 |        - |      282 |      282 |       0.11 | *
    |     9173 |        - |      281 |      281 |       0.11 | *
    |     9175 |        - |      280 |      280 |       0.11 | *
    |     9220 |        - |      279 |      279 |       0.11 | *
    |     9356 |        - |      276 |      276 |       0.12 | *
    |     9390 |        - |      275 |      275 |       0.12 | *
    |     9656 |        - |      274 |      274 |       0.12 | *
    |     9721 |        - |      272 |      272 |       0.12 | *
    |      10K |        - |      271 |      271 |       0.12 | *
    |      10K |        - |      269 |      269 |       0.12 | *
    |      11K |        - |      267 |      267 |       0.12 | *
    |      11K |        - |      266 |      266 |       0.12 | *
    |      11K |        - |      262 |      262 |       0.12 | *
    |      11K |        - |      261 |      261 |       0.12 | *
    |      12K |        - |      260 |      260 |       0.12 | *
    |      12K |        - |      258 |      258 |       0.12 | *
    |      12K |        - |      256 |      256 |       0.12 | *
    |      13K |        - |      255 |      255 |       0.13 | *
    |      13K |        - |      254 |      254 |       0.13 | *
    |      14K |        - |      253 |      253 |       0.13 | *
    |      14K |        - |      252 |      252 |       0.13 | *
    |      15K |        - |      251 |      251 |       0.13 | *
    |      15K |        - |      250 |      250 |       0.13 | *
    |      15K |        - |      249 |      249 |       0.13 | *
    |      15K |        - |      248 |      248 |       0.13 | *
    |      16K |        - |      247 |      247 |       0.13 | *
    |      17K |        - |      246 |      246 |       0.13 | *
    |      17K |        - |      244 |      244 |       0.14 | *
    |      18K |        - |      243 |      243 |       0.14 | *
    |      18K |        - |      242 |      242 |       0.14 | *
    |      18K |        - |      241 |      241 |       0.14 | *
    |      18K |        - |      239 |      239 |       0.14 | *
    |      20K |        - |      238 |      238 |       0.14 | *
    |      24K |        - |      237 |      237 |       0.15 | *
    |      24K |        - |      236 |      236 |       0.15 | *
    |      25K |        - |      235 |      235 |       0.15 | *
    |      25K |        - |      233 |      233 |       0.15 | *
    |      26K |        - |      232 |      232 |       0.15 | *
    |      26K |        - |      231 |      231 |       0.15 | *
    |      27K |        - |      230 |      230 |       0.16 | *
    |      27K |        - |      228 |      228 |       0.16 | *
    |      27K |        - |      225 |      225 |       0.16 | *
    |      28K |        - |      224 |      224 |       0.16 | *
    |      28K |        - |      223 |      223 |       0.16 | *
    |      28K |        - |      222 |      222 |       0.16 | *
    |      28K |        - |      221 |      221 |       0.16 | *
    |      29K |        - |      220 |      220 |       0.16 | *
    |      29K |        - |      219 |      219 |       0.17 | *
    |      30K |        - |      218 |      218 |       0.17 | *
    |      30K |        - |      216 |      216 |       0.17 | *
    |      31K |        - |      214 |      214 |       0.17 | *
    |      31K |        - |      211 |      211 |       0.17 | *
    |      33K |        - |      210 |      210 |       0.18 | *
    |      37K |        - |      209 |      209 |       0.19 | *
    |      37K |        - |      208 |      208 |       0.19 | *
    |      37K |        - |      206 |      206 |       0.19 | *
    |      37K |        - |      205 |      205 |       0.19 | *
    |      38K |        - |      204 |      204 |       0.19 | *
    |      40K |        - |      203 |      203 |       0.20 | *
    |      41K |        - |      202 |      202 |       0.20 | *
    |      43K |        - |      201 |      201 |       0.21 | *
    |      43K |        - |      200 |      200 |       0.21 | *
    |      43K |        - |      199 |      199 |       0.21 | *
    |      48K |        - |      198 |      198 |       0.22 | *
    |      49K |        - |      197 |      197 |       0.22 | *
    |      49K |        - |      196 |      196 |       0.22 | *
    |      49K |        - |      195 |      195 |       0.22 | *
    |      50K |        - |      194 |      194 |       0.23 | *
    |      50K |        - |      193 |      193 |       0.23 | *
    |      50K |        - |      192 |      192 |       0.23 | *
    |      51K |        - |      191 |      191 |       0.23 | *
    |      58K |        - |      190 |      190 |       0.24 | *
    |      59K |        - |      189 |      189 |       0.25 | *
    |      61K |        - |      188 |      188 |       0.25 | *
    |      61K |        - |      187 |      187 |       0.25 | *
    |      61K |        - |      186 |      186 |       0.25 | *
    |      62K |        - |      184 |      184 |       0.25 | *
    |      62K |        - |      183 |      183 |       0.25 | *
    |      62K |        - |      182 |      182 |       0.25 | *
    |      63K |        - |      181 |      181 |       0.25 | *
    |      63K |        - |      180 |      180 |       0.26 | *
    |      64K |        - |      178 |      178 |       0.26 | *
    |      64K |        - |      177 |      177 |       0.26 | *
    |      65K |        - |      176 |      176 |       0.26 | *
    |      67K |        - |      175 |      175 |       0.26 | *
    |      72K |        - |      174 |      174 |       0.28 | *
    |      75K |        - |      173 |      173 |       0.28 | *
    |      75K |        - |      172 |      172 |       0.28 | *
    |      77K |        - |      171 |      171 |       0.29 | *
    |      79K |        - |      170 |      170 |       0.29 | *
    |      79K |        - |      169 |      169 |       0.29 | *
    |      80K |        - |      168 |      168 |       0.29 | *
    |      82K |        - |      167 |      167 |       0.30 | *
    |      88K |        - |      166 |      166 |       0.31 | *
    |      88K |        - |      163 |      163 |       0.31 | *
    |      97K |        - |      162 |      162 |       0.33 | *
    |      98K |        - |      161 |      161 |       0.33 | *
    |     107K |        - |      160 |      160 |       0.35 | *
    |     108K |        - |      159 |      159 |       0.35 | *
    |     110K |        - |      158 |      158 |       0.36 | *
    |     113K |        - |      157 |      157 |       0.36 | *
    |     114K |        - |      156 |      156 |       0.37 | *
    |     118K |        - |      155 |      155 |       0.38 | *
    |     119K |        - |      154 |      154 |       0.38 | *
    |     121K |        - |      153 |      153 |       0.39 | *
    |     125K |        - |      152 |      152 |       0.40 | *
    |     125K |        - |      151 |      151 |       0.40 | *
    |     129K |        - |      150 |      150 |       0.41 | *
    |     136K |        - |      149 |      149 |       0.42 | *
    |     162K |        - |      148 |      148 |       0.46 | *
    |     162K |        - |      147 |      147 |       0.46 | *
    |     167K |        - |      146 |      146 |       0.47 | *
    |     181K |        - |      145 |      145 |       0.50 | *
    |     181K |        - |      144 |      144 |       0.50 | *
    |     183K |        - |      143 |      143 |       0.50 | *
    |     186K |        - |      142 |      142 |       0.51 | *
    |     194K |        - |      141 |      141 |       0.53 | *
    |     207K |        - |      140 |      140 |       0.55 | *
    |     245K |        - |      139 |      139 |       0.61 | *
    |     250K |        - |      138 |      138 |       0.62 | *
    |     251K |        - |      137 |      137 |       0.62 | *
    |     267K |        - |      136 |      136 |       0.65 | *
    |     276K |        - |      135 |      135 |       0.67 | *
    |     293K |        - |      134 |      134 |       0.69 | *
    |     298K |        - |      133 |      133 |       0.70 | *
    |     306K |        - |      132 |      132 |       0.71 | *
    |     353K |        - |      131 |      131 |       0.79 | *
    |     365K |        - |      130 |      130 |       0.82 | *
    |     402K |        - |      129 |      129 |       0.87 | *
    |     403K |        - |      128 |      128 |       0.87 | *
    |     421K |        - |      127 |      127 |       0.90 | *
    |     429K |        - |      126 |      126 |       0.92 | *
    |     497K |        - |      125 |      125 |       1.02 | *
    |     534K |        - |      124 |      124 |       1.09 | *
    |     556K |        - |      123 |      123 |       1.13 | *
    |     562K |        - |      122 |      122 |       1.15 | *
    |     702K |        - |      121 |      121 |       1.38 | *
    |     763K |        - |      120 |      120 |       1.47 | *
    |     763K |        - |      119 |      119 |       1.47 | *
    |     779K |        - |      118 |      118 |       1.50 | *
    |     809K |        - |      117 |      117 |       1.54 | *
    |     871K |        - |      116 |      116 |       1.63 | *
    |     920K |        - |      115 |      115 |       1.70 | *
    |    1005K |        - |      114 |      114 |       1.82 | *
    |    1007K |        - |      112 |      112 |       1.82 | *
    |    1026K |        - |      111 |      111 |       1.85 | *
    |    1144K |        - |      110 |      110 |       2.01 | *
    |    1159K |        - |      109 |      109 |       2.03 | *
    |    1204K |        - |      108 |      108 |       2.09 | *
    |    1322K |        - |      107 |      107 |       2.26 | *
    |    1644K |        - |      106 |      106 |       2.69 | *
    |    1830K |        - |      105 |      105 |       2.94 | *
    |    2375K |        - |      104 |      104 |       3.73 | *
    |    3119K |        - |      103 |      103 |       4.81 | *
    |    3532K |        - |      102 |      102 |       5.44 | *
    |    3701K |        - |      101 |      101 |       5.67 | *
    |    4877K |        - |      100 |      100 |       7.34 | *
    |    4941K |        - |       99 |       99 |       7.44 | *
    |    5039K |        - |       98 |       98 |       7.57 | *
    |    7710K |        - |       97 |       97 |      11.38 | *
    |    7711K |        - |       96 |       96 |      11.38 | *
    |      13M |        - |       95 |       95 |      17.85 | *
    |      13M |        - |       94 |       94 |      17.87 | *
    |      16M |        - |       93 |       93 |      22.77 | *
    |      17M |        - |       92 |       92 |      23.58 | *
    |      24M |        - |       91 |       91 |      32.72 | *
    |      24M |        - |       90 |       90 |      32.75 | *
    |      25M |        - |       89 |       89 |      34.46 | *
    |      25M |        - |       88 |       88 |      35.14 | *
    |      32M |        - |       87 |       87 |      44.20 | *
    |      34M |        - |       86 |       86 |      46.46 | *
    |     117M |        - |       85 |       85 |     162.02 | *
    \--------------------------------------------------------/

Neighborhoods statistics (values in %):

    /----------------------------------------------------------------\
    | Move               | Improvs. | Sideways |  Accepts |  Rejects |
    |--------------------|----------|----------|----------|----------|
    | Shift(mk)          |     8136 |      10K |      21K |      11M |
    | Shift              |      241 |     129K |     136K |      11M |
    | ShiftSmart(mk)     |      40K |      48K |     101K |      11M |
    | ShiftSmart         |     1310 |     526K |     554K |      10M |
    | SimpSwap(mk)       |       62 |      105 |      193 |      11M |
    | SimpSwap           |        3 |      564 |      628 |      11M |
    | SimpSwapSmart(mk)  |      357 |      509 |      983 |      11M |
    | SimpSwapSmart      |       24 |     2865 |     3200 |      11M |
    | Swap(mk)           |       17 |       32 |       54 |      11M |
    | Swap               |        0 |      201 |      214 |      11M |
    | SwapSmart(mk)      |      373 |      707 |     1208 |      11M |
    | SwapSmart          |       25 |     3141 |     3441 |      11M |
    | Switch(mk)         |     2145 |    1612K |    1615K |    9227K |
    | Switch             |       57 |    1761K |    1763K |    9077K |
    | SwitchSmart(mk)    |      11K |      13K |      28K |      11M |
    | SwitchSmart        |      351 |     133K |     140K |      11M |
    | TaskMove(mk)       |      645 |     1083 |     1959 |      11M |
    | TaskMove           |       27 |     3565 |     3988 |      11M |
    | TaskMoveSmart(mk)  |     4005 |     6378 |      12K |      11M |
    | TaskMoveSmart      |      172 |      20K |      23K |      11M |
    | 2-Shift(mk)        |     3764 |     310K |     315K |      11M |
    | 2-Shift            |      128 |     436K |     439K |      10M |
    | 2-ShiftSmart(mk)   |      14K |     470K |     487K |      10M |
    | 2-ShiftSmart       |      468 |     737K |     747K |      10M |
    \----------------------------------------------------------------/

Best makespan.....: 85
N. of Iterations..: 260159333
Total runtime.....: 360.01s
Academic license - for non-commercial use only
Academic license - for non-commercial use only
Academic license - for non-commercial use only
Academic license - for non-commercial use only
Academic license - for non-commercial use only
Academic license - for non-commercial use only
Academic license - for non-commercial use only
Academic license - for non-commercial use only
Academic license - for non-commercial use only
Academic license - for non-commercial use only
Academic license - for non-commercial use only
Academic license - for non-commercial use only
Academic license - for non-commercial use only
Academic license - for non-commercial use only
Academic license - for non-commercial use only
Academic license - for non-commercial use only
Academic license - for non-commercial use only
Academic license - for non-commercial use only
Academic license - for non-commercial use only
Academic license - for non-commercial use only
Academic license - for non-commercial use only
Academic license - for non-commercial use only
Academic license - for non-commercial use only
Academic license - for non-commercial use only
Academic license - for non-commercial use only
Academic license - for non-commercial use only
Academic license - for non-commercial use only
Academic license - for non-commercial use only
Academic license - for non-commercial use only
Academic license - for non-commercial use only
Academic license - for non-commercial use only
Academic license - for non-commercial use only
Academic license - for non-commercial use only
Academic license - for non-commercial use only
Academic license - for non-commercial use only
Academic license - for non-commercial use only
Academic license - for non-commercial use only
Academic license - for non-commercial use only
Academic license - for non-commercial use only
Academic license - for non-commercial use only
Academic license - for non-commercial use only
Academic license - for non-commercial use only
Academic license - for non-commercial use only
Academic license - for non-commercial use only
Academic license - for non-commercial use only
Academic license - for non-commercial use only
Academic license - for non-commercial use only
Academic license - for non-commercial use only
Academic license - for non-commercial use only
Academic license - for non-commercial use only
Academic license - for non-commercial use only
Academic license - for non-commercial use only
Academic license - for non-commercial use only
Academic license - for non-commercial use only
Academic license - for non-commercial use only
Academic license - for non-commercial use only
Academic license - for non-commercial use only
Academic license - for non-commercial use only
Academic license - for non-commercial use only
Academic license - for non-commercial use only
Academic license - for non-commercial use only
Academic license - for non-commercial use only
Academic license - for non-commercial use only
Academic license - for non-commercial use only
Academic license - for non-commercial use only
Academic license - for non-commercial use only
Academic license - for non-commercial use only
Academic license - for non-commercial use only
Academic license - for non-commercial use only
Academic license - for non-commercial use only
Academic license - for non-commercial use only
Academic license - for non-commercial use only
Academic license - for non-commercial use only
Academic license - for non-commercial use only
Academic license - for non-commercial use only
Academic license - for non-commercial use only
Academic license - for non-commercial use only
Academic license - for non-commercial use only
Academic license - for non-commercial use only
Academic license - for non-commercial use only
Academic license - for non-commercial use only
Academic license - for non-commercial use only
Academic license - for non-commercial use only
Academic license - for non-commercial use only
Academic license - for non-commercial use only
Academic license - for non-commercial use only
Academic license - for non-commercial use only
Academic license - for non-commercial use only
Academic license - for non-commercial use only
Academic license - for non-commercial use only
Academic license - for non-commercial use only
Academic license - for non-commercial use only
    /-------------------------------------------------------------------------------\
    |    Makespam   |   Free Jobs   | Free Machines |    It. Time   |   Total Time  | 
    |-------------------------------------------------------------------------------|
    |            85 |            33 |             5 |          0.18 |          0.79 | 
    |            85 |            39 |             7 |          6.51 |          7.58 | 
    |            85 |            46 |             7 |          3.37 |         11.11 | 
    |            85 |            55 |            10 |         22.02 |         33.34 | 
    |            85 |            44 |             9 |         22.01 |         55.46 | 
    |            85 |            35 |             5 |          0.81 |         56.32 | 
    |            85 |            42 |             6 |          0.38 |         56.81 | 
    |            85 |            50 |             8 |          6.48 |         63.47 | 
    |            85 |            60 |             9 |         22.01 |         85.67 | 
    |            85 |            48 |             8 |         21.32 |        107.10 | 
    |            85 |            57 |             9 |         22.01 |        129.27 | 
    |            85 |            45 |             8 |         22.01 |        151.49 | 
    |            85 |            36 |             6 |          0.91 |        152.47 | 
    |            85 |            43 |             8 |          8.86 |        161.50 | 
    |            85 |            51 |             7 |          3.91 |        165.58 | 
    |            85 |            61 |            10 |         22.01 |        187.87 | 
    |            85 |            48 |             7 |          1.87 |        189.85 | 
    |            85 |            57 |             9 |          1.48 |        191.53 | 
    |            85 |            68 |            11 |         22.02 |        213.83 | 
    |            85 |            54 |             8 |         22.00 |        236.00 | 
    |            85 |            43 |             7 |          1.59 |        237.68 | 
    |            85 |            51 |             8 |          7.83 |        245.68 | 
    |            85 |            61 |             9 |         11.54 |        257.44 | 
    |            85 |            73 |            11 |         22.06 |        279.88 | 
    |            85 |            58 |             9 |         22.04 |        302.11 | 
    |            85 |            46 |             8 |         13.95 |        316.20 | 
    |            85 |            55 |             9 |          6.90 |        323.32 | 
    |            85 |            66 |            10 |         22.01 |        345.53 | 
    |            85 |            52 |             8 |         22.00 |        367.69 | 
    |            85 |            41 |             6 |          1.56 |        369.33 | 
    |            85 |            49 |             7 |         11.93 |        381.39 | 
    |            85 |            58 |             9 |         19.10 |        400.77 | 
    |            85 |            69 |            10 |         22.02 |        423.02 | 
    |            84 |            55 |             9 |          2.97 |        426.17 | 
    |            84 |            55 |             9 |         21.54 |        447.93 | 
    |            84 |            66 |            10 |         22.01 |        470.25 | 
    |            84 |            52 |             9 |         16.01 |        486.41 | 
    |            84 |            62 |            10 |         22.00 |        508.63 | 
    |            84 |            49 |             8 |          0.62 |        509.39 | 
    |            84 |            58 |             9 |         22.00 |        531.61 | 
    |            84 |            46 |             7 |          0.47 |        532.16 | 
    |            84 |            55 |             9 |         22.00 |        554.32 | 
    |            84 |            44 |             7 |          1.17 |        555.63 | 
    |            84 |            52 |             9 |         22.00 |        577.79 | 
    |            84 |            41 |             7 |          1.94 |        579.79 | 
    |            84 |            49 |             8 |         22.00 |        601.95 | 
    |            84 |            39 |             6 |          0.74 |        602.73 | 
    |            84 |            46 |             7 |          4.73 |        607.60 | 
    |            84 |            55 |             9 |         22.01 |        629.77 | 
    |            84 |            44 |             7 |          2.38 |        632.24 | 
    |            84 |            52 |             8 |         17.55 |        649.96 | 
    |            84 |            62 |            10 |         22.01 |        672.14 | 
    |            84 |            49 |             8 |          2.42 |        674.65 | 
    |            84 |            58 |            10 |         22.00 |        696.97 | 
    |            84 |            46 |             7 |          3.83 |        700.87 | 
    |            84 |            55 |             8 |          4.50 |        705.50 | 
    |            84 |            66 |            10 |         22.01 |        727.82 | 
    |            84 |            52 |             8 |          3.63 |        731.55 | 
    |            84 |            62 |            10 |         22.00 |        753.74 | 
    |            84 |            49 |             8 |         22.00 |        775.86 | 
    |            84 |            39 |             6 |          1.07 |        776.98 | 
    |            84 |            46 |             7 |          0.32 |        777.36 | 
    |            84 |            55 |             9 |         20.58 |        798.08 | 
    |            84 |            66 |            11 |         22.01 |        820.33 | 
    |            84 |            52 |             8 |          6.10 |        826.55 | 
    |            84 |            62 |            10 |         22.01 |        848.76 | 
    |            84 |            49 |             7 |          3.44 |        852.30 | 
    |            84 |            58 |            10 |         22.01 |        874.61 | 
    |            84 |            46 |             8 |         21.92 |        896.65 | 
    |            84 |            55 |             9 |          6.38 |        903.15 | 
    |            84 |            66 |            10 |         22.01 |        925.41 | 
    |            84 |            52 |             8 |         22.00 |        947.61 | 
    |            84 |            41 |             7 |          5.20 |        952.89 | 
    |            84 |            49 |             8 |          5.05 |        958.09 | 
    |            84 |            58 |             8 |         22.01 |        980.32 | 
    |            84 |            46 |             7 |          1.61 |        982.07 | 
    |            84 |            55 |             8 |         19.10 |       1001.30 | 
    |            84 |            66 |            10 |         22.02 |       1023.60 | 
    |            84 |            52 |             8 |          5.52 |       1029.24 | 
    |            84 |            62 |            10 |         22.00 |       1051.43 | 
    |            84 |            49 |             8 |          4.60 |       1056.11 | 
    |            84 |            58 |            10 |         22.00 |       1078.31 | 
    |            84 |            46 |             8 |         12.12 |       1090.55 | 
    |            84 |            55 |             8 |          3.44 |       1094.12 | 
    |            84 |            66 |            11 |         22.01 |       1116.37 | 
    |            84 |            52 |             8 |         13.27 |       1129.77 | 
    |            84 |            62 |            10 |         22.01 |       1152.12 | 
    |            84 |            49 |             8 |          2.91 |       1155.12 | 
    |            84 |            58 |             9 |         17.65 |       1173.03 | 
    |            84 |            69 |            10 |         22.04 |       1195.32 | 
    |            84 |            55 |             9 |         22.00 |       1217.50 | 
    |            84 |            44 |             7 |          4.37 |       1221.94 | Academic license - for non-commercial use only
Academic license - for non-commercial use only
Academic license - for non-commercial use only
Academic license - for non-commercial use only
Academic license - for non-commercial use only
Academic license - for non-commercial use only
Academic license - for non-commercial use only
Academic license - for non-commercial use only
Academic license - for non-commercial use only
Academic license - for non-commercial use only
Academic license - for non-commercial use only
Academic license - for non-commercial use only
Academic license - for non-commercial use only
Academic license - for non-commercial use only
Academic license - for non-commercial use only
Academic license - for non-commercial use only
Academic license - for non-commercial use only
Academic license - for non-commercial use only
Academic license - for non-commercial use only
Academic license - for non-commercial use only
Academic license - for non-commercial use only
Academic license - for non-commercial use only
Academic license - for non-commercial use only
Academic license - for non-commercial use only
Academic license - for non-commercial use only
Academic license - for non-commercial use only
Academic license - for non-commercial use only
Academic license - for non-commercial use only
Academic license - for non-commercial use only
Academic license - for non-commercial use only
Academic license - for non-commercial use only
Academic license - for non-commercial use only
Academic license - for non-commercial use only
Academic license - for non-commercial use only
Academic license - for non-commercial use only
Academic license - for non-commercial use only
Academic license - for non-commercial use only
Academic license - for non-commercial use only
Academic license - for non-commercial use only
Academic license - for non-commercial use only
Academic license - for non-commercial use only
Academic license - for non-commercial use only
Academic license - for non-commercial use only
Academic license - for non-commercial use only
Academic license - for non-commercial use only
Academic license - for non-commercial use only
Academic license - for non-commercial use only
Academic license - for non-commercial use only
Academic license - for non-commercial use only
Academic license - for non-commercial use only
Academic license - for non-commercial use only
Academic license - for non-commercial use only
Academic license - for non-commercial use only
Academic license - for non-commercial use only
Academic license - for non-commercial use only
Academic license - for non-commercial use only
Academic license - for non-commercial use only
Academic license - for non-commercial use only
Academic license - for non-commercial use only
Academic license - for non-commercial use only
Academic license - for non-commercial use only
Academic license - for non-commercial use only
Academic license - for non-commercial use only
Academic license - for non-commercial use only
Academic license - for non-commercial use only
Academic license - for non-commercial use only
Academic license - for non-commercial use only
Academic license - for non-commercial use only
Academic license - for non-commercial use only
Academic license - for non-commercial use only
Academic license - for non-commercial use only
Academic license - for non-commercial use only
Academic license - for non-commercial use only
Academic license - for non-commercial use only
Academic license - for non-commercial use only
Academic license - for non-commercial use only
Academic license - for non-commercial use only
Academic license - for non-commercial use only
Academic license - for non-commercial use only
Academic license - for non-commercial use only
Academic license - for non-commercial use only
Academic license - for non-commercial use only
Academic license - for non-commercial use only
Academic license - for non-commercial use only
Academic license - for non-commercial use only
Academic license - for non-commercial use only
Academic license - for non-commercial use only
Academic license - for non-commercial use only
Academic license - for non-commercial use only
Academic license - for non-commercial use only
Academic license - for non-commercial use only
Academic license - for non-commercial use only
Academic license - for non-commercial use only
Academic license - for non-commercial use only
Academic license - for non-commercial use only

    |            84 |            52 |             9 |         22.00 |       1244.13 | 
    |            84 |            41 |             7 |          0.60 |       1244.89 | 
    |            84 |            49 |             7 |          1.18 |       1246.17 | 
    |            84 |            58 |             9 |         22.00 |       1268.36 | 
    |            84 |            46 |             7 |          2.12 |       1270.61 | 
    |            84 |            55 |             8 |          4.43 |       1275.20 | 
    |            84 |            66 |            11 |         22.02 |       1297.51 | 
    |            84 |            52 |             8 |          3.47 |       1301.11 | 
    |            84 |            62 |            10 |         22.00 |       1323.38 | 
    |            84 |            49 |             9 |         22.01 |       1345.55 | 
    |            84 |            39 |             7 |          5.61 |       1351.25 | 
    |            84 |            46 |             7 |          1.61 |       1352.96 | 
    |            84 |            55 |             9 |         22.01 |       1375.09 | 
    |            84 |            44 |             7 |          0.83 |       1376.03 | 
    |            84 |            52 |             9 |         22.00 |       1398.29 | 
    |            84 |            41 |             7 |          1.55 |       1399.90 | 
    |            84 |            49 |             7 |          2.10 |       1402.17 | 
    |            84 |            58 |             9 |         21.24 |       1423.65 | 
    |            84 |            69 |            11 |         22.01 |       1445.98 | 
    |            84 |            55 |             9 |         15.15 |       1461.35 | 
    |            84 |            66 |            11 |         22.01 |       1483.74 | 
    |            84 |            52 |             9 |         12.49 |       1496.33 | 
    |            84 |            62 |             9 |         22.01 |       1518.52 | 
    |            84 |            49 |             8 |          2.42 |       1521.12 | 
    |            84 |            58 |             9 |         22.01 |       1543.32 | 
    |            84 |            46 |             8 |          3.53 |       1546.95 | 
    |            84 |            55 |             9 |         22.01 |       1569.22 | 
    |            84 |            44 |             8 |          1.12 |       1570.44 | 
    |            84 |            52 |             8 |          2.44 |       1572.99 | 
    |            84 |            62 |             9 |          9.19 |       1582.31 | 
    |            84 |            74 |            12 |         22.01 |       1604.66 | 
    |            84 |            59 |            10 |         22.01 |       1627.02 | 
    |            84 |            47 |             8 |         22.00 |       1649.13 | 
    |            84 |            37 |             6 |          0.89 |       1650.06 | 
    |            84 |            44 |             8 |          5.31 |       1655.60 | 
    |            84 |            52 |             8 |          0.58 |       1656.34 | 
    |            84 |            62 |            10 |         22.01 |       1678.56 | 
    |            84 |            49 |             7 |          2.17 |       1680.82 | 
    |            84 |            58 |             9 |         22.00 |       1702.97 | 
    |            84 |            46 |             7 |          1.54 |       1704.61 | 
    |            84 |            55 |             8 |          2.04 |       1706.80 | 
    |            84 |            66 |            10 |         22.00 |       1729.01 | 
    |            84 |            52 |             9 |         22.00 |       1751.16 | 
    |            84 |            41 |             6 |          0.62 |       1751.82 | 
    |            84 |            49 |             8 |          4.05 |       1756.00 | 
    |            84 |            58 |            10 |         22.01 |       1778.22 | 
    |            84 |            46 |             7 |          6.43 |       1784.75 | 
    |            84 |            55 |            10 |         22.00 |       1807.00 | 
    |            84 |            44 |             7 |          1.44 |       1808.50 | 
    |            84 |            52 |             9 |         22.00 |       1830.74 | 
    |            84 |            41 |             8 |         21.23 |       1852.06 | 
    |            84 |            49 |             8 |         22.00 |       1874.18 | 
    |            84 |            39 |             7 |          0.73 |       1874.99 | 
    |            84 |            46 |             8 |          2.69 |       1877.81 | 
    |            84 |            55 |             8 |         22.00 |       1900.08 | 
    |            84 |            44 |             7 |          2.28 |       1902.44 | 
    |            84 |            52 |             8 |         15.89 |       1918.47 | 
    |            84 |            62 |            10 |         22.01 |       1940.69 | 
    |            84 |            49 |             7 |          2.74 |       1943.52 | 
    |            84 |            58 |             9 |         22.00 |       1965.77 | 
    |            84 |            46 |             7 |          2.37 |       1968.22 | 
    |            84 |            55 |             9 |         22.00 |       1990.42 | 
    |            84 |            44 |             7 |          1.62 |       1992.15 | 
    |            84 |            52 |             9 |         22.01 |       2014.28 | 
    |            84 |            41 |             7 |          0.78 |       2015.15 | 
    |            84 |            49 |             8 |          5.79 |       2021.03 | 
    |            84 |            58 |             9 |         22.01 |       2043.27 | 
    |            84 |            46 |             8 |         12.65 |       2056.08 | 
    |            84 |            55 |             9 |         22.01 |       2078.26 | 
    |            84 |            44 |             7 |          1.22 |       2079.60 | 
    |            84 |            52 |             9 |         11.63 |       2091.35 | 
    |            84 |            62 |            10 |         22.00 |       2113.58 | 
    |            84 |            49 |             8 |          3.77 |       2117.54 | 
    |            84 |            58 |             9 |         22.00 |       2139.71 | 
    |            84 |            46 |             6 |          3.58 |       2143.34 | 
    |            84 |            55 |             9 |         22.00 |       2165.56 | 
    |            84 |            44 |             7 |          0.52 |       2166.18 | 
    |            84 |            52 |             8 |          2.48 |       2168.80 | 
    |            84 |            62 |            10 |         22.01 |       2191.10 | 
    |            84 |            49 |             7 |          2.60 |       2193.81 | 
    |            84 |            58 |            10 |         22.00 |       2215.98 | 
    |            84 |            46 |             7 |          1.95 |       2218.05 | 
    |            84 |            55 |             9 |         22.00 |       2240.16 | 
    |            84 |            44 |             7 |          5.77 |       2246.03 | 
    |            84 |            52 |             9 |         22.00 |       2268.25 | 
    |            84 |            41 |             7 |          1.89 |       2270.19 | 
    |            84 |            49 |             7 |          0.83 |       2271.09 | 
    |            84 |            58 |             9 |         22.00 |       2293.25 | 
    |            84 |            46 |             7 |         18.28 |       2311.60 | 
    |            84 |            55 |             9 |         22.00 |       2333.77 | 
    |            84 |            44 |             7 |         15.74 |       2349.62 | 
    |            84 |            52 |             8 |         13.94 |       2363.67 | 
    |            84 |            62 |            10 |         22.01 |       2385.96 | 
    |            84 |            49 |             8 |          2.78 |       2388.88 | 
    |            84 |            58 |            10 |         22.01 |       2411.14 | Academic license - for non-commercial use only
Academic license - for non-commercial use only
Academic license - for non-commercial use only
Academic license - for non-commercial use only
Academic license - for non-commercial use only
Academic license - for non-commercial use only
Academic license - for non-commercial use only
Academic license - for non-commercial use only
Academic license - for non-commercial use only
Academic license - for non-commercial use only
Academic license - for non-commercial use only
Academic license - for non-commercial use only
Academic license - for non-commercial use only
Academic license - for non-commercial use only
Academic license - for non-commercial use only
Academic license - for non-commercial use only
Academic license - for non-commercial use only
Academic license - for non-commercial use only
Academic license - for non-commercial use only
Academic license - for non-commercial use only
Academic license - for non-commercial use only
Academic license - for non-commercial use only
Academic license - for non-commercial use only
Academic license - for non-commercial use only
Academic license - for non-commercial use only
Academic license - for non-commercial use only
Academic license - for non-commercial use only
Academic license - for non-commercial use only
Academic license - for non-commercial use only
Academic license - for non-commercial use only
Academic license - for non-commercial use only
Academic license - for non-commercial use only
Academic license - for non-commercial use only
Academic license - for non-commercial use only
Academic license - for non-commercial use only
Academic license - for non-commercial use only
Academic license - for non-commercial use only
Academic license - for non-commercial use only
Academic license - for non-commercial use only
Academic license - for non-commercial use only
Academic license - for non-commercial use only
Academic license - for non-commercial use only
Academic license - for non-commercial use only
Academic license - for non-commercial use only
Academic license - for non-commercial use only
Academic license - for non-commercial use only
Academic license - for non-commercial use only
Academic license - for non-commercial use only
Academic license - for non-commercial use only
Academic license - for non-commercial use only
Academic license - for non-commercial use only
Academic license - for non-commercial use only
Academic license - for non-commercial use only
Academic license - for non-commercial use only
Academic license - for non-commercial use only
Academic license - for non-commercial use only
Academic license - for non-commercial use only
Academic license - for non-commercial use only
Academic license - for non-commercial use only
Academic license - for non-commercial use only
Academic license - for non-commercial use only
Academic license - for non-commercial use only
Academic license - for non-commercial use only
Academic license - for non-commercial use only

    |            84 |            46 |             7 |          8.30 |       2419.50 | 
    |            84 |            55 |             9 |         22.01 |       2441.67 | 
    |            84 |            44 |             7 |          4.23 |       2446.02 | 
    |            84 |            52 |             8 |         22.00 |       2468.13 | 
    |            84 |            41 |             6 |          0.52 |       2468.76 | 
    |            84 |            49 |             8 |          2.90 |       2471.77 | 
    |            84 |            58 |            10 |         22.01 |       2494.07 | 
    |            84 |            46 |             7 |          5.41 |       2499.58 | 
    |            84 |            55 |             8 |         22.00 |       2521.74 | 
    |            84 |            44 |             7 |          1.43 |       2523.28 | 
    |            84 |            52 |             9 |          5.85 |       2529.31 | 
    |            84 |            62 |            10 |         22.01 |       2551.50 | 
    |            84 |            49 |             8 |          6.89 |       2558.51 | 
    |            84 |            58 |            11 |         22.01 |       2580.74 | 
    |            84 |            46 |             7 |         11.41 |       2592.33 | 
    |            84 |            55 |             8 |         22.00 |       2614.52 | 
    |            84 |            44 |             8 |         22.00 |       2636.61 | 
    |            84 |            35 |             5 |          0.19 |       2636.83 | 
    |            84 |            42 |             7 |          1.54 |       2638.58 | 
    |            84 |            50 |             9 |         22.00 |       2660.75 | 
    |            84 |            40 |             6 |          0.93 |       2661.74 | 
    |            84 |            48 |             8 |          1.89 |       2663.76 | 
    |            84 |            57 |            10 |         22.01 |       2685.95 | 
    |            84 |            45 |             8 |          5.99 |       2692.10 | 
    |            84 |            54 |             9 |         16.36 |       2708.63 | 
    |            84 |            64 |            11 |         22.01 |       2730.98 | 
    |            84 |            51 |             8 |         22.00 |       2753.08 | 
    |            84 |            40 |             7 |         11.75 |       2764.89 | 
    |            84 |            48 |             8 |          4.34 |       2769.37 | 
    |            84 |            57 |             8 |          4.54 |       2774.09 | 
    |            84 |            68 |            10 |         22.02 |       2796.35 | 
    |            84 |            54 |             9 |         22.00 |       2818.52 | 
    |            84 |            43 |             6 |          0.19 |       2818.77 | 
    |            84 |            51 |             9 |         22.00 |       2840.96 | 
    |            84 |            40 |             6 |          0.65 |       2841.66 | 
    |            84 |            48 |             8 |         18.63 |       2860.42 | 
    |            84 |            57 |            10 |         22.00 |       2882.68 | 
    |            84 |            45 |             7 |         10.49 |       2893.25 | 
    |            84 |            54 |             9 |         22.00 |       2915.37 | 
    |            84 |            43 |             8 |         20.71 |       2936.20 | 
    |            84 |            51 |             8 |         22.00 |       2958.29 | 
    |            84 |            40 |             7 |          1.00 |       2959.40 | 
    |            84 |            48 |             7 |          3.27 |       2962.76 | 
    |            84 |            57 |            10 |         22.01 |       2984.97 | 
    |            84 |            45 |             7 |          1.85 |       2986.90 | 
    |            84 |            54 |             9 |         22.00 |       3009.06 | 
    |            84 |            43 |             7 |         11.81 |       3020.96 | 
    |            84 |            51 |             9 |          4.58 |       3025.71 | 
    |            84 |            61 |             9 |         12.52 |       3038.41 | 
    |            84 |            73 |            11 |         22.01 |       3060.70 | 
    |            84 |            58 |            10 |         22.00 |       3082.93 | 
    |            84 |            46 |             7 |          1.98 |       3085.00 | 
    |            84 |            55 |             9 |         22.00 |       3107.31 | 
    |            84 |            44 |             7 |          8.08 |       3115.46 | 
    |            84 |            52 |             9 |         22.00 |       3137.62 | 
    |            84 |            41 |             6 |          0.44 |       3138.12 | 
    |            84 |            49 |             8 |          4.81 |       3143.01 | 
    |            84 |            58 |             9 |         22.00 |       3165.22 | 
    |            84 |            46 |             7 |         17.38 |       3182.72 | 
    |            84 |            55 |             9 |         22.01 |       3204.86 | 
    |            84 |            44 |             7 |          1.55 |       3206.48 | 
    |            84 |            52 |             9 |         22.00 |       3228.59 | 
    |            84 |            41 |             8 |          5.94 |       3234.67 | 
    |            84 |            49 |             8 |          4.40 |       3239.18 | 
-29.761904761904763
