10
15 22 187 123 75 164 118 181 35 33 10 167 56 117 173 66
15 15 11 191 131 36 46 197 28 59 99 45 106 90 94 141
19 105 151 198 51 161 101 130 55 171 74 23 31 85 126 100 76 163 68 157
25 193 172 144 145 132 0 147 71 82 19 110 25 150 65 88 20 43 3 107 89 96 5 38 44 113
21 119 178 194 183 27 120 1 6 47 7 73 135 58 67 142 30 17 72 137 92 104
21 102 111 184 77 155 170 153 152 78 48 148 174 156 149 79 127 124 98 125 50 53
25 108 185 41 34 57 116 160 40 136 62 121 128 83 159 179 81 61 52 60 84 176 115 39 166 114
18 158 195 26 64 16 13 122 139 93 138 165 8 189 37 146 86 143 140
22 199 54 180 162 182 69 154 188 169 186 175 24 97 12 42 2 21 134 91 168 192 9
19 29 18 63 190 103 49 196 32 112 87 70 177 133 4 14 109 80 129 95

Total makespan: 248

