30
5 104 77 176 40 114
6 42 134 166 96 174 157
7 14 21 63 103 26 199 183
6 24 117 60 36 109 28
4 169 82 1 88
7 161 59 173 138 143 6 53
4 101 121 170 130
5 55 147 47 182 139
7 197 100 198 167 30 111 195
5 71 142 141 79 184
5 144 168 113 163 192
6 132 165 19 57 98 179
8 5 108 107 2 140 83 164 72
6 145 64 112 50 68 16
7 106 122 12 4 94 38 69
7 127 11 0 131 13 116 124
7 17 3 177 92 150 23 93
7 70 119 33 196 95 85 129
10 136 20 180 118 178 22 86 171 15 51
6 58 31 87 148 74 62
9 126 190 39 187 76 84 99 159 43
8 194 186 65 155 128 52 56 41
7 149 125 66 44 81 89 151
8 25 189 32 153 193 34 185 175
7 156 61 54 133 29 35 45
8 10 73 97 135 110 27 9 49
6 191 18 75 67 80 37
8 152 181 158 78 7 188 90 123
7 146 115 46 48 160 137 102
7 172 91 162 120 105 154 8

Total makespan: 84

