25
8 134 199 42 31 233 156 248 108
12 159 149 211 225 141 21 27 239 123 155 223 138
7 114 245 168 1 218 158 240
13 35 176 230 197 164 187 180 217 146 205 88 94 206
11 178 169 243 135 103 85 37 11 242 203 212
11 81 133 186 96 122 33 200 140 73 102 64
11 61 151 209 68 54 130 55 195 111 15 191
9 7 95 66 53 30 41 58 14 116
9 227 16 215 119 86 57 247 144 13
11 59 172 48 91 84 228 185 3 112 222 82
9 67 100 234 181 202 171 136 117 32
9 170 235 129 38 120 56 101 179 75
11 150 246 118 29 174 152 192 76 196 60 28
8 6 193 63 190 165 183 97 99
8 124 166 213 157 154 115 49 2
14 143 194 34 204 106 98 139 70 207 241 23 17 92 125
7 25 46 128 161 87 8 43
13 90 121 219 18 145 198 110 22 236 26 175 132 5
12 184 249 36 24 237 93 50 208 105 189 39 78
7 4 162 104 40 51 0 44
13 131 238 109 167 220 173 244 163 177 126 127 10 79
10 153 226 147 201 52 137 45 229 214 113
8 65 210 47 72 12 19 80 9
10 182 69 231 188 221 71 216 224 148 232
9 74 20 83 107 89 142 160 77 62

Total makespan: 130

