20
11 244 69 47 109 108 232 176 113 134 123 229
13 132 8 183 122 230 163 216 195 10 6 11 128 226
11 94 88 140 203 116 80 59 149 56 179 124
15 214 117 215 107 51 77 221 223 26 50 247 105 60 200 41
15 165 238 162 145 24 208 148 196 67 187 23 201 48 17 44
12 243 98 38 4 96 152 241 166 169 220 76 86
15 112 234 82 177 126 143 212 135 249 118 28 54 225 115 3
17 29 167 160 171 224 14 89 73 71 233 137 95 85 182 156 231 186
12 142 155 2 170 70 211 168 114 37 159 222 16
15 5 84 7 210 119 236 245 129 164 55 147 206 202 39 136
9 30 174 27 218 106 175 150 22 227
11 102 52 68 193 87 18 153 66 58 81 34
11 228 239 204 31 79 78 146 217 97 21 36
11 92 199 13 184 25 161 19 178 35 103 12
9 133 198 139 141 125 180 194 120 101
12 205 173 248 111 104 235 185 213 63 191 131 209
12 157 32 75 15 45 237 172 242 130 46 61 83
14 33 197 49 40 121 192 62 90 57 240 0 72 53 188
13 43 99 74 154 100 190 110 20 189 181 9 144 42
12 219 65 93 91 64 138 151 1 207 127 158 246

Total makespan: 118

