Instance....: instances/I_50_15_S_1-99_4.txt
Algorithm...: Simulated Annealing (alpha=0.990, saMax=10M, t0=1)
Other params: maxIters=100M, seed=2, timeLimit=3600.00s

    /--------------------------------------------------------\
    |     Iter |   RDP(%) |       S* |       S' |       Time | 
    |----------|----------|----------|----------|------------|
    |        0 |        - |      585 |      585 |       0.00 | s0
    |        4 |        - |      494 |      494 |       0.02 | *
    |        5 |        - |      477 |      477 |       0.02 | *
    |        6 |        - |      467 |      467 |       0.02 | *
    |       20 |        - |      440 |      440 |       0.02 | *
    |       32 |        - |      438 |      438 |       0.02 | *
    |       40 |        - |      431 |      431 |       0.03 | *
    |       45 |        - |      413 |      413 |       0.03 | *
    |       47 |        - |      412 |      412 |       0.03 | *
    |       49 |        - |      402 |      402 |       0.03 | *
    |       53 |        - |      397 |      397 |       0.03 | *
    |       56 |        - |      393 |      393 |       0.03 | *
    |       57 |        - |      386 |      386 |       0.03 | *
    |       59 |        - |      376 |      376 |       0.03 | *
    |      105 |        - |      365 |      365 |       0.03 | *
    |      108 |        - |      361 |      361 |       0.03 | *
    |      114 |        - |      357 |      357 |       0.03 | *
    |      116 |        - |      334 |      334 |       0.03 | *
    |      149 |        - |      322 |      322 |       0.03 | *
    |      154 |        - |      314 |      314 |       0.03 | *
    |      155 |        - |      312 |      312 |       0.03 | *
    |      165 |        - |      308 |      308 |       0.03 | *
    |      169 |        - |      299 |      299 |       0.04 | *
    |      171 |        - |      291 |      291 |       0.04 | *
    |      174 |        - |      286 |      286 |       0.04 | *
    |      178 |        - |      276 |      276 |       0.04 | *
    |      215 |        - |      267 |      267 |       0.04 | *
    |      218 |        - |      265 |      265 |       0.04 | *
    |      219 |        - |      258 |      258 |       0.04 | *
    |      232 |        - |      250 |      250 |       0.04 | *
    |      233 |        - |      234 |      234 |       0.04 | *
    |      238 |        - |      231 |      231 |       0.04 | *
    |      260 |        - |      226 |      226 |       0.04 | *
    |      261 |        - |      222 |      222 |       0.04 | *
    |      277 |        - |      213 |      213 |       0.04 | *
    |      287 |        - |      212 |      212 |       0.04 | *
    |      291 |        - |      211 |      211 |       0.05 | *
    |      436 |        - |      209 |      209 |       0.05 | *
    |      469 |        - |      201 |      201 |       0.05 | *
    |      485 |        - |      198 |      198 |       0.05 | *
    |      487 |        - |      197 |      197 |       0.05 | *
    |      505 |        - |      193 |      193 |       0.05 | *
    |      526 |        - |      192 |      192 |       0.05 | *
    |      625 |        - |      184 |      184 |       0.05 | *
    |      643 |        - |      182 |      182 |       0.05 | *
    |      654 |        - |      178 |      178 |       0.05 | *
    |      661 |        - |      176 |      176 |       0.05 | *
    |      662 |        - |      168 |      168 |       0.05 | *
    |      691 |        - |      167 |      167 |       0.05 | *
    |      790 |        - |      163 |      163 |       0.05 | *
    |      791 |        - |      159 |      159 |       0.05 | *
    |      807 |        - |      158 |      158 |       0.05 | *
    |      824 |        - |      157 |      157 |       0.05 | *
    |      826 |        - |      155 |      155 |       0.05 | *
    |      850 |        - |      153 |      153 |       0.05 | *
    |      975 |        - |      144 |      144 |       0.05 | *
    |     1031 |        - |      143 |      143 |       0.05 | *
    |     1032 |        - |      141 |      141 |       0.05 | *
    |     1233 |        - |      140 |      140 |       0.06 | *
    |     1787 |        - |      136 |      136 |       0.06 | *
    |     1827 |        - |      131 |      131 |       0.06 | *
    |     2489 |        - |      129 |      129 |       0.06 | *
    |     2490 |        - |      128 |      128 |       0.06 | *
    |     2539 |        - |      127 |      127 |       0.06 | *
    |     3068 |        - |      126 |      126 |       0.06 | *
    |     3176 |        - |      125 |      125 |       0.06 | *
    |     3181 |        - |      121 |      121 |       0.06 | *
    |     3304 |        - |      120 |      120 |       0.06 | *
    |     3308 |        - |      118 |      118 |       0.06 | *
    |     4340 |        - |      117 |      117 |       0.06 | *
    |     4660 |        - |      112 |      112 |       0.06 | *
    |     4672 |        - |      111 |      111 |       0.06 | *
    |     4983 |        - |      109 |      109 |       0.07 | *
    |     5021 |        - |      108 |      108 |       0.07 | *
    |     5034 |        - |      105 |      105 |       0.07 | *
    |     5134 |        - |      103 |      103 |       0.07 | *
    |     6859 |        - |      102 |      102 |       0.07 | *
    |     7082 |        - |      101 |      101 |       0.07 | *
    |     7726 |        - |      100 |      100 |       0.07 | *
    |     7728 |        - |       99 |       99 |       0.07 | *
    |     9899 |        - |       98 |       98 |       0.07 | *
    |      11K |        - |       97 |       97 |       0.08 | *
    |      11K |        - |       94 |       94 |       0.08 | *
    |      12K |        - |       91 |       91 |       0.08 | *
    |      13K |        - |       90 |       90 |       0.08 | *
    |      13K |        - |       89 |       89 |       0.08 | *
    |      14K |        - |       88 |       88 |       0.08 | *
    |      14K |        - |       87 |       87 |       0.08 | *
    |      14K |        - |       86 |       86 |       0.08 | *
    |      17K |        - |       85 |       85 |       0.08 | *
    |      18K |        - |       84 |       84 |       0.08 | *
    |      19K |        - |       82 |       82 |       0.08 | *
    |      19K |        - |       81 |       81 |       0.08 | *
    |      21K |        - |       80 |       80 |       0.08 | *
    |      26K |        - |       79 |       79 |       0.09 | *
    |      28K |        - |       78 |       78 |       0.09 | *
    |      39K |        - |       77 |       77 |       0.10 | *
    |      40K |        - |       76 |       76 |       0.10 | *
    |      41K |        - |       74 |       74 |       0.10 | *
    |      60K |        - |       73 |       73 |       0.11 | *
    |      93K |        - |       72 |       72 |       0.13 | *
    |     103K |        - |       71 |       71 |       0.14 | *
    |     155K |        - |       70 |       70 |       0.18 | *
    |     335K |        - |       69 |       69 |       0.31 | *
    |     384K |        - |       67 |       67 |       0.34 | *
    |     422K |        - |       66 |       66 |       0.37 | *
    |     641K |        - |       64 |       64 |       0.47 | *
    |    1122K |        - |       63 |       63 |       0.62 | *
    |    1201K |        - |       62 |       62 |       0.64 | *
    |    9240K |        - |       61 |       61 |       3.10 | *
    |    9244K |        - |       60 |       60 |       3.10 | *
    |    9417K |        - |       59 |       59 |       3.17 | *
    |      13M |        - |       58 |       58 |       4.30 | *
    \--------------------------------------------------------/

Neighborhoods statistics (values in %):

    /----------------------------------------------------------------\
    | Move               | Improvs. | Sideways |  Accepts |  Rejects |
    |--------------------|----------|----------|----------|----------|
    | Shift(mk)          |      68K |     133K |     217K |     489M |
    | Shift              |     4563 |    9780K |    9845K |     480M |
    | ShiftSmart(mk)     |     123K |     217K |     390K |     489M |
    | ShiftSmart         |     8332 |      22M |      22M |     467M |
    | SimpSwap(mk)       |      651 |      453 |     1237 |     489M |
    | SimpSwap           |       72 |      27K |      28K |     489M |
    | SimpSwapSmart(mk)  |     1335 |      985 |     2611 |     490M |
    | SimpSwapSmart      |      192 |      60K |      62K |     489M |
    | Swap(mk)           |      578 |      406 |     1122 |     489M |
    | Swap               |       88 |      14K |      15K |     490M |
    | SwapSmart(mk)      |     2356 |     1836 |     4715 |     489M |
    | SwapSmart          |      315 |      61K |      64K |     489M |
    | Switch(mk)         |      25K |     100M |     100M |     389M |
    | Switch             |     1664 |     159M |     159M |     330M |
    | SwitchSmart(mk)    |      50K |     107K |     166K |     489M |
    | SwitchSmart        |     3538 |    1314K |    1367K |     488M |
    | TaskMove(mk)       |     3917 |     8098 |      13K |     489M |
    | TaskMove           |      274 |      34K |      37K |     490M |
    | TaskMoveSmart(mk)  |      12K |      27K |      42K |     489M |
    | TaskMoveSmart      |      890 |     114K |     124K |     489M |
    | 2-Shift(mk)        |      41K |      26M |      26M |     463M |
    | 2-Shift            |     2852 |     102M |     102M |     387M |
    | 2-ShiftSmart(mk)   |      55K |    4810K |    4875K |     485M |
    | 2-ShiftSmart       |     3722 |     147M |     147M |     342M |
    \----------------------------------------------------------------/

Best makespan.....: 58
N. of Iterations..: 11741924003
Total runtime.....: 3600.01s
