10
8 65 84 93 95 18 41 36 33
10 42 87 83 75 22 30 40 73 24 7
11 32 20 29 76 10 91 48 17 82 11 98
9 21 99 49 51 52 62 25 67 54
7 88 78 34 74 43 8 35
10 96 47 12 89 90 66 13 80 44 72
13 57 39 45 55 92 5 38 69 14 37 6 4 77
12 56 15 64 86 70 26 27 53 94 3 19 97
9 31 61 9 68 85 50 2 60 23
11 0 81 1 63 28 79 16 71 59 58 46

Total makespan: 203

