25
4 81 69 41 31
4 73 97 38 3
5 20 55 1 99 64
4 2 56 22 51
5 86 25 27 37 47
3 79 24 40
5 34 98 53 45 93
2 80 89
3 30 63 59
6 16 91 66 77 72 94
6 28 11 76 39 18 21
4 61 70 84 78
3 50 13 7
3 10 42 75
3 90 26 0
6 43 58 33 85 19 6
4 62 12 23 74
3 35 4 46
4 15 17 48 5
3 9 95 82
3 60 14 32
6 92 54 65 71 88 57
5 8 52 96 29 36
4 49 68 87 67
2 83 44

Total makespan: 56

