20
12 80 160 102 174 67 153 54 84 47 42 50 29
10 36 185 140 74 193 66 133 149 85 139
12 73 168 108 107 35 136 34 120 77 146 124 39
10 21 82 188 145 127 88 18 92 86 154
9 121 141 48 164 43 131 150 159 24
9 162 93 94 151 199 100 97 198 126
8 91 41 116 12 23 103 30 128
10 132 55 117 32 51 57 9 163 182 62
9 186 156 130 137 16 148 196 135 10
9 26 104 72 27 8 3 37 119 165
13 19 78 142 59 98 158 173 90 13 40 189 20 192
11 109 176 17 112 191 110 65 175 79 25 181
10 180 152 157 99 155 105 11 111 194 171
9 63 5 197 166 161 95 183 114 38
8 179 115 69 68 169 1 134 147
12 144 0 70 4 138 122 83 167 178 49 125 44
12 52 123 195 2 96 118 129 7 106 53 170 184
8 101 60 71 15 87 75 14 45
11 187 28 190 33 31 172 56 46 64 81 76
8 177 58 61 143 113 22 6 89

Total makespan: 144

