10
21 126 232 25 160 36 119 9 217 236 233 227 190 196 182 136 0 111 133 103 33 66
27 48 213 41 31 65 71 165 75 159 62 170 141 183 106 218 223 178 238 167 101 53 16 97 63 225 12 92
26 221 102 208 241 122 249 175 47 131 19 26 230 204 80 109 211 152 22 115 107 52 161 42 202 128 89
25 179 28 98 20 61 235 199 46 123 23 157 59 5 248 37 229 74 58 49 240 163 34 95 112 73
26 151 10 168 13 138 173 110 244 79 198 15 29 137 40 171 188 93 226 193 70 4 90 180 176 134 82
24 200 54 88 50 142 32 207 3 195 158 100 146 224 237 215 242 192 222 83 21 214 39 114 216
22 44 169 64 56 1 234 140 206 243 11 156 164 228 166 27 127 118 18 143 76 197 155
25 149 172 91 68 8 177 94 132 38 189 135 247 104 231 99 239 124 144 147 186 212 51 117 120 209
26 245 116 184 246 69 24 84 187 2 55 105 35 153 81 174 72 185 113 191 125 220 210 6 86 60 181
28 145 108 201 205 130 129 67 7 121 78 17 139 194 43 85 14 150 162 154 30 45 77 203 96 219 148 57 87

Total makespan: 369

