30
7 89 101 92 166 105 13 175
8 25 39 244 188 181 219 45 121
8 53 149 228 238 135 182 26 20
8 93 37 160 220 145 125 76 236
8 48 199 43 150 46 132 72 194
10 172 0 156 110 127 162 108 14 94 208
9 225 233 113 68 19 15 83 98 217
10 52 161 174 124 66 202 33 10 36 84
9 246 229 51 134 44 100 215 230 141
9 232 47 243 227 167 69 31 21 153
9 131 142 185 144 117 165 30 7 234
8 189 203 95 82 191 35 198 73
10 193 57 163 111 85 42 118 58 22 241
7 1 77 99 65 60 104 12
7 23 128 91 130 213 186 210
11 137 32 50 40 197 239 27 59 133 138 190
7 61 240 106 187 173 164 196
6 55 107 176 200 71 96
9 18 235 3 81 148 212 75 206 70
6 179 224 157 109 16 195
7 74 63 171 146 159 24 123
11 170 119 28 64 201 116 152 4 216 184 207
7 221 231 158 169 56 67 223
8 114 237 139 168 143 103 112 177
11 120 6 38 88 242 151 129 178 140 247 155
9 8 180 147 34 204 154 2 192 97
10 218 9 87 245 5 249 102 80 78 214
7 49 115 183 122 11 90 86
6 211 17 41 136 29 209
8 62 226 79 54 205 222 126 248

Total makespan: 74

