50  10  1
10
	0	46	1	10	2	90	3	55	4	52	5	10	6	63	7	22	8	6	9	40
	0	70	1	39	2	40	3	98	4	77	5	15	6	56	7	81	8	53	9	61
	0	98	1	44	2	39	3	95	4	27	5	9	6	99	7	78	8	43	9	83
	0	100	1	93	2	98	3	56	4	95	5	86	6	89	7	72	8	78	9	59
	0	29	1	7	2	55	3	74	4	27	5	92	6	62	7	93	8	37	9	56
	0	87	1	89	2	41	3	3	4	6	5	83	6	97	7	15	8	45	9	2
	0	47	1	63	2	94	3	56	4	74	5	79	6	70	7	86	8	65	9	93
	0	92	1	28	2	89	3	56	4	2	5	94	6	30	7	6	8	77	9	64
	0	14	1	38	2	79	3	47	4	24	5	89	6	57	7	44	8	99	9	45
	0	13	1	28	2	47	3	42	4	58	5	32	6	33	7	10	8	54	9	84
	0	13	1	74	2	3	3	60	4	29	5	31	6	29	7	28	8	82	9	52
	0	70	1	5	2	49	3	76	4	65	5	53	6	20	7	10	8	25	9	83
	0	55	1	40	2	93	3	50	4	96	5	15	6	49	7	47	8	90	9	67
	0	30	1	37	2	99	3	82	4	32	5	87	6	98	7	19	8	50	9	83
	0	1	1	56	2	57	3	41	4	63	5	8	6	28	7	51	8	37	9	41
	0	65	1	10	2	93	3	80	4	71	5	37	6	27	7	89	8	96	9	78
	0	21	1	60	2	26	3	26	4	22	5	47	6	17	7	44	8	54	9	44
	0	73	1	42	2	89	3	59	4	28	5	51	6	34	7	63	8	93	9	11
	0	15	1	18	2	51	3	33	4	49	5	84	6	30	7	35	8	57	9	87
	0	96	1	53	2	57	3	84	4	19	5	61	6	14	7	64	8	18	9	65
	0	62	1	70	2	2	3	62	4	28	5	14	6	41	7	65	8	98	9	57
	0	33	1	31	2	26	3	43	4	77	5	64	6	67	7	10	8	47	9	66
	0	87	1	44	2	19	3	54	4	88	5	28	6	26	7	75	8	37	9	92
	0	14	1	88	2	94	3	98	4	39	5	81	6	84	7	90	8	24	9	64
	0	49	1	97	2	64	3	34	4	77	5	81	6	59	7	16	8	100	9	54
	0	92	1	29	2	98	3	12	4	3	5	12	6	62	7	65	8	12	9	32
	0	90	1	52	2	7	3	51	4	33	5	70	6	77	7	11	8	7	9	69
	0	76	1	80	2	37	3	77	4	50	5	71	6	5	7	63	8	33	9	4
	0	6	1	53	2	36	3	100	4	56	5	55	6	57	7	10	8	83	9	62
	0	89	1	20	2	2	3	32	4	15	5	95	6	65	7	67	8	7	9	40
	0	28	1	47	2	68	3	98	4	73	5	81	6	97	7	17	8	82	9	81
	0	53	1	43	2	54	3	81	4	39	5	31	6	10	7	50	8	61	9	85
	0	16	1	71	2	12	3	54	4	35	5	81	6	82	7	62	8	88	9	8
	0	14	1	33	2	62	3	36	4	38	5	54	6	23	7	83	8	60	9	77
	0	11	1	94	2	96	3	51	4	19	5	53	6	61	7	51	8	89	9	91
	0	65	1	22	2	80	3	34	4	80	5	76	6	86	7	15	8	67	9	94
	0	6	1	53	2	79	3	33	4	6	5	59	6	96	7	35	8	13	9	45
	0	37	1	80	2	31	3	23	4	59	5	47	6	84	7	22	8	55	9	65
	0	9	1	84	2	89	3	60	4	56	5	85	6	41	7	53	8	82	9	13
	0	51	1	37	2	31	3	98	4	79	5	59	6	41	7	55	8	24	9	81
	0	24	1	18	2	71	3	83	4	9	5	53	6	57	7	52	8	39	9	81
	0	69	1	54	2	65	3	49	4	23	5	89	6	79	7	43	8	86	9	80
	0	85	1	18	2	38	3	37	4	83	5	81	6	85	7	5	8	29	9	76
	0	70	1	82	2	98	3	42	4	51	5	68	6	50	7	36	8	28	9	88
	0	85	1	60	2	49	3	77	4	37	5	21	6	28	7	50	8	45	9	19
	0	52	1	79	2	88	3	36	4	49	5	43	6	89	7	77	8	64	9	42
	0	16	1	90	2	58	3	79	4	34	5	47	6	13	7	46	8	88	9	85
	0	29	1	79	2	26	3	30	4	33	5	70	6	87	7	50	8	36	9	37
	0	4	1	10	2	20	3	97	4	18	5	38	6	26	7	3	8	85	9	1
	0	77	1	21	2	31	3	77	4	77	5	68	6	86	7	50	8	35	9	52
SSD
M0
0	45	38	19	25	39	1	28	21	30	48	24	46	34	3	9	5	17	29	16	34	7	4	41	32	42	16	44	46	35	30	22	24	30	27	26	14	31	10	24	42	42	19	17	7	3	41	10	8	15
49	0	25	47	14	45	17	36	37	31	13	25	28	37	4	13	14	13	45	21	6	38	18	29	36	34	19	24	20	4	21	23	15	10	41	17	42	40	39	14	36	46	45	45	38	38	22	49	32	29
45	11	0	30	47	20	5	7	44	36	48	28	18	23	26	45	25	28	20	26	24	30	39	22	30	27	6	8	22	6	6	32	43	7	48	27	22	37	25	44	10	9	4	48	5	23	8	3	40	6
36	2	4	0	9	31	13	8	31	33	10	19	10	15	32	6	17	3	24	13	26	39	26	46	15	41	29	32	45	21	47	34	8	45	11	2	41	41	24	12	13	28	46	6	9	26	13	46	28	39
3	43	39	32	0	25	29	15	39	49	11	41	34	10	15	25	28	48	13	44	12	9	32	14	19	48	4	3	49	24	29	48	26	45	4	29	28	3	37	7	1	17	45	32	26	32	24	11	14	14
1	28	24	13	15	0	11	8	24	27	10	10	31	48	48	33	41	5	43	37	13	10	21	2	18	38	13	40	27	37	28	36	10	49	5	45	23	14	17	25	11	38	26	44	16	33	9	30	34	28
28	12	49	40	25	48	0	17	32	2	34	21	9	49	26	43	11	29	34	18	40	28	23	28	40	18	5	26	40	19	36	18	22	28	40	2	30	22	21	9	18	39	27	8	27	8	18	24	8	10
34	17	11	28	34	21	32	0	24	4	26	14	31	24	44	9	34	47	46	39	49	24	16	29	37	4	48	12	45	46	18	32	46	30	31	2	33	15	14	8	6	20	46	25	4	15	18	25	35	2
2	33	29	40	40	43	31	9	0	19	15	16	45	42	45	42	43	14	42	46	45	11	6	47	43	35	30	9	32	45	31	20	4	30	33	18	27	14	33	30	4	13	21	33	1	21	27	44	34	9
24	6	35	45	7	7	28	7	17	0	27	49	38	4	21	45	33	21	11	18	44	18	15	11	39	44	21	49	29	29	48	1	2	41	34	17	28	40	13	42	39	4	49	40	14	42	22	9	5	33
34	20	23	8	38	16	24	35	12	28	0	47	22	48	28	18	47	39	1	1	28	19	16	31	43	28	31	41	12	3	10	29	13	3	20	15	10	28	20	9	21	1	26	10	42	36	43	27	3	15
21	32	34	48	42	45	19	24	46	44	1	0	39	7	34	11	13	27	18	25	31	35	4	16	41	31	5	3	49	10	39	23	39	39	21	21	2	29	10	45	8	15	49	15	9	43	36	36	1	29
7	49	20	37	32	14	47	33	23	29	25	27	0	5	33	26	41	43	44	45	47	21	22	13	13	39	31	32	3	45	3	32	37	36	22	39	18	37	39	44	23	13	21	47	36	16	14	24	40	8
3	26	29	41	26	30	18	48	42	32	8	12	33	0	13	38	39	29	5	28	25	3	15	40	22	45	48	14	7	3	17	25	47	40	7	23	49	21	12	11	16	16	25	16	28	7	30	48	27	47
7	34	22	41	6	29	5	40	9	28	2	45	24	9	0	28	48	28	38	39	49	20	21	36	34	28	26	28	9	11	5	42	3	7	16	17	30	21	32	19	11	4	33	19	44	49	31	41	8	48
48	24	38	27	28	5	3	4	25	35	32	12	24	4	13	0	39	16	18	22	24	41	25	34	8	21	16	8	32	9	9	47	4	41	30	44	17	14	23	44	14	36	16	28	28	46	11	39	13	39
47	4	42	2	40	7	45	23	41	2	47	32	32	40	48	16	0	2	8	30	12	46	3	16	23	29	4	39	39	40	41	7	7	47	43	10	9	32	42	35	10	37	1	6	19	40	3	13	35	1
1	20	4	34	38	19	37	24	23	12	45	49	19	24	1	22	41	0	22	8	25	26	46	37	35	34	49	13	42	46	47	27	3	25	2	23	46	36	24	17	39	6	42	32	24	20	40	15	45	29
34	45	45	14	43	3	10	39	10	30	25	28	27	31	2	20	45	6	0	3	45	35	40	9	32	19	44	28	33	4	11	6	23	14	20	24	27	38	39	25	10	3	18	7	47	48	1	8	1	36
36	22	38	2	23	5	37	11	2	6	46	33	10	9	18	34	29	47	12	0	44	21	38	47	27	45	30	49	31	2	46	18	17	1	28	6	19	19	42	13	23	49	27	38	25	47	27	42	34	22
3	29	18	8	46	12	20	9	21	25	18	15	11	5	41	36	1	8	33	22	0	27	8	46	10	45	33	43	22	48	8	8	48	33	12	16	48	40	17	1	29	31	9	23	32	11	23	23	30	22
23	36	12	7	29	7	30	39	1	27	47	27	7	12	10	35	12	42	31	48	35	0	25	6	44	27	34	10	20	21	37	22	26	3	19	8	21	40	14	32	19	3	38	47	36	12	14	6	11	2
48	31	45	45	35	12	21	6	11	19	32	25	16	49	6	14	18	17	48	12	16	17	0	22	49	10	12	11	32	39	38	13	21	32	12	43	36	6	44	49	11	37	41	4	46	6	4	3	45	19
35	14	22	41	7	15	43	49	42	7	5	25	13	49	31	41	27	47	49	49	31	1	5	0	18	23	11	27	9	24	16	6	6	46	27	3	9	4	43	29	35	5	43	49	20	31	34	12	21	16
5	36	12	21	20	45	30	24	44	40	40	5	46	22	8	22	44	48	19	33	31	2	21	27	0	8	22	29	47	33	14	11	8	2	4	24	42	35	34	27	17	12	43	26	36	1	40	5	23	12
6	9	47	33	44	30	2	4	5	20	18	15	5	3	20	19	17	4	45	2	17	30	37	36	24	0	1	12	37	28	21	48	16	31	48	24	31	40	10	32	49	15	21	49	5	25	33	7	25	46
2	10	4	33	37	35	8	3	8	26	20	21	31	35	35	37	47	16	36	13	30	39	32	1	19	46	0	31	31	36	13	34	23	6	38	5	18	15	23	34	31	5	23	17	25	7	9	42	43	45
3	38	32	34	4	4	44	13	19	24	2	46	21	48	30	38	12	46	2	6	27	39	43	5	48	48	14	0	16	31	45	27	22	40	8	13	36	20	33	8	9	23	21	34	42	48	13	12	7	35
1	9	25	35	11	8	34	48	40	33	26	6	1	21	37	9	41	14	25	47	7	35	26	20	10	45	4	7	0	14	17	3	39	17	7	7	1	5	20	29	21	21	46	2	23	1	16	41	15	17
38	12	7	24	5	43	19	36	21	4	41	29	4	4	32	23	9	13	39	45	13	35	13	24	38	4	10	31	11	0	14	41	39	35	28	33	4	25	47	30	45	18	18	37	27	34	24	45	28	24
24	30	19	47	8	23	36	11	42	34	20	10	26	45	44	44	30	25	31	36	38	16	40	12	16	18	19	30	11	38	0	19	3	45	15	32	19	14	2	47	37	25	1	35	24	28	13	45	6	47
43	7	13	24	38	25	45	17	44	7	20	46	45	11	42	5	48	7	3	30	47	4	10	7	3	37	24	10	2	34	48	0	31	13	46	9	24	10	10	36	36	18	32	37	1	27	47	34	1	3
30	9	41	13	4	39	38	21	28	34	44	47	32	1	5	22	36	12	16	45	8	16	39	25	30	25	25	18	3	14	8	7	0	6	27	44	48	47	9	22	26	49	38	40	13	41	31	14	21	25
39	40	9	34	39	36	44	28	32	10	30	30	13	20	7	6	29	47	7	44	19	6	26	36	26	40	34	39	5	28	26	28	44	0	46	15	12	28	37	38	43	14	28	3	9	5	6	12	17	22
17	42	4	38	33	17	14	44	24	24	35	33	40	13	31	10	43	32	14	27	48	12	33	34	39	46	1	9	5	43	43	39	29	9	0	39	8	49	33	49	47	6	22	15	19	14	25	31	49	1
25	20	46	24	5	49	12	36	3	43	39	32	37	4	3	22	10	20	37	43	49	2	46	34	41	45	11	36	15	43	12	48	13	13	20	0	18	46	33	25	49	35	7	5	23	41	35	11	42	3
17	5	6	25	20	9	43	23	22	3	18	1	3	26	26	14	29	46	28	7	17	9	43	34	35	9	35	19	41	47	47	42	7	10	21	10	0	45	11	4	33	18	31	40	14	6	3	35	46	8
48	3	40	26	2	17	18	6	47	2	43	39	27	7	37	19	20	24	42	12	34	19	14	35	30	9	48	17	35	34	32	44	15	36	42	26	4	0	4	26	24	14	25	4	17	46	46	45	37	23
45	48	42	18	29	31	7	25	1	12	18	1	44	40	37	7	23	44	24	20	25	28	22	44	31	2	25	34	5	25	1	25	15	41	4	8	9	30	0	42	37	17	25	8	4	45	44	38	3	3
19	19	12	36	17	12	20	21	3	32	3	30	35	48	3	10	25	1	9	19	28	31	34	31	21	49	35	30	16	3	2	13	24	2	49	27	13	36	17	0	16	33	24	42	31	37	27	4	3	40
33	29	4	22	41	24	38	48	23	17	47	28	41	22	40	8	2	9	22	11	16	4	11	36	1	30	26	42	36	42	17	15	40	37	43	31	22	14	7	18	0	27	2	10	5	17	2	17	6	44
23	31	32	48	46	22	17	29	22	43	12	30	5	22	19	4	7	5	4	46	2	28	3	23	25	37	21	49	48	25	41	42	33	3	24	13	4	39	42	45	8	0	22	8	14	44	36	6	45	21
38	9	22	31	16	40	42	4	12	3	9	39	43	29	2	36	15	8	16	30	26	43	49	8	11	44	49	37	23	20	30	16	29	47	32	42	6	31	30	39	25	26	0	20	21	47	18	19	36	34
33	43	23	17	17	7	25	19	37	3	26	46	44	12	38	48	42	38	17	7	39	48	12	28	17	14	9	13	47	34	45	13	24	10	26	19	18	3	44	16	49	41	23	0	16	49	37	40	3	42
34	33	2	41	28	35	33	6	23	38	9	44	27	32	36	30	10	26	15	20	35	34	30	46	38	13	39	44	46	31	33	25	39	14	43	28	13	5	12	19	36	16	8	25	0	18	21	25	27	16
5	6	6	21	43	2	47	21	47	24	26	18	28	16	39	4	24	11	3	16	49	47	37	42	15	24	42	20	45	37	17	28	38	18	24	42	2	31	17	20	48	22	29	22	5	0	13	13	6	25
2	32	14	27	31	40	37	30	23	39	37	45	14	26	29	48	1	36	48	24	28	25	20	8	34	28	22	40	21	48	3	24	38	46	2	31	16	9	21	25	18	45	16	17	32	10	0	27	1	24
16	5	5	12	40	9	36	10	35	21	24	23	25	31	21	17	39	41	35	14	26	45	32	18	30	42	13	4	44	10	4	33	1	42	21	13	31	28	14	44	1	15	1	34	46	6	10	0	5	17
10	43	48	23	18	7	31	49	44	45	26	36	45	14	42	41	10	33	21	20	26	40	32	13	39	21	8	42	22	29	41	1	1	45	2	35	48	18	13	49	43	32	31	15	29	29	42	3	0	22
31	38	27	2	36	16	47	23	43	31	20	1	15	40	23	24	11	18	44	3	10	16	14	49	46	36	37	37	42	44	11	9	40	24	24	9	40	33	22	35	34	27	10	45	43	37	30	7	40	0
M1
0	49	36	48	42	40	13	16	21	45	35	22	43	33	8	18	14	49	34	7	12	22	37	37	17	3	19	36	39	39	32	42	19	10	47	9	47	35	8	36	45	44	17	17	15	15	47	14	40	46
32	0	6	28	17	37	30	20	2	32	33	19	29	3	39	12	22	14	9	26	45	46	46	14	8	15	33	32	20	46	26	39	5	40	22	36	49	2	9	31	2	7	25	44	9	27	24	18	22	23
29	46	0	16	16	22	30	43	39	13	19	2	36	2	12	26	36	26	5	1	46	7	44	16	28	29	22	5	7	38	17	1	13	5	48	37	40	32	5	43	24	24	40	32	10	3	41	22	43	40
20	47	31	0	2	11	43	7	42	4	16	3	41	21	14	22	23	42	48	34	36	4	38	32	16	7	12	24	10	44	14	40	43	38	14	48	11	37	16	30	39	33	15	42	9	23	25	40	26	6
35	47	36	1	0	39	49	15	25	11	1	17	17	33	5	17	35	25	32	44	39	4	9	25	3	43	16	30	2	10	8	11	37	32	21	23	28	47	37	28	43	20	23	38	40	23	13	44	7	49
4	2	39	10	30	0	32	46	21	24	15	12	1	17	25	4	22	33	32	22	44	36	39	8	8	36	2	26	34	46	17	17	8	23	26	17	24	10	23	42	35	35	37	46	43	8	24	42	34	48
37	29	2	8	15	6	0	10	3	1	17	30	33	26	1	13	37	49	6	20	36	38	15	49	27	37	26	43	25	14	11	44	23	6	2	21	43	45	21	39	45	48	38	32	5	20	12	30	34	47
2	7	24	48	32	47	43	0	23	7	14	11	8	34	29	48	45	46	43	9	5	32	28	1	22	49	24	42	49	24	20	36	37	3	29	16	2	7	37	39	17	22	31	10	20	10	10	8	7	33
43	44	41	11	34	19	17	39	0	46	29	20	30	41	8	25	18	16	27	26	45	48	35	9	42	31	18	20	2	7	18	30	32	30	18	37	25	35	14	41	29	5	46	39	42	1	49	11	10	33
1	27	2	34	12	6	18	8	30	0	31	43	37	39	46	24	47	23	49	36	33	11	24	24	10	29	20	42	3	49	35	2	30	5	42	21	20	17	31	30	17	43	30	42	18	16	31	47	28	27
16	49	2	2	9	9	35	12	28	34	0	48	37	29	19	41	33	35	43	5	8	22	43	26	6	49	20	12	32	48	45	34	25	4	17	38	38	4	2	16	29	36	36	38	28	18	49	38	8	48
5	7	8	35	6	9	14	23	21	29	12	0	6	20	18	37	7	32	13	37	36	3	43	18	17	40	18	26	14	34	26	22	6	35	22	3	43	43	2	19	38	8	28	15	1	28	15	11	49	35
17	29	48	44	22	15	49	7	33	23	24	22	0	44	48	6	10	14	41	33	18	3	19	40	13	15	41	22	37	43	16	36	12	16	7	1	40	15	7	16	15	26	2	46	21	19	33	31	46	24
35	11	23	16	15	25	37	43	27	49	19	13	2	0	47	39	46	25	17	36	47	34	2	14	36	28	19	44	12	2	39	9	12	10	46	31	9	9	42	5	16	48	8	2	11	40	45	40	20	6
39	10	4	34	46	23	2	12	23	11	18	1	20	6	0	12	6	28	49	8	3	47	5	30	20	9	24	16	32	19	34	19	30	26	22	26	48	45	30	9	47	30	49	19	6	37	39	30	23	10
18	1	48	47	47	32	43	9	27	37	2	37	33	47	45	0	3	16	21	16	46	43	39	20	4	44	31	16	38	7	46	27	12	6	33	1	7	15	19	9	2	13	23	49	47	43	35	11	10	13
2	30	49	40	24	1	47	36	6	9	47	48	14	47	21	16	0	14	14	39	5	30	45	27	38	4	3	27	17	33	48	5	22	43	33	13	18	42	49	8	26	29	36	18	3	6	26	40	34	9
42	17	37	7	21	15	18	46	13	30	48	13	44	12	29	31	17	0	43	41	19	17	22	16	24	25	33	49	19	17	40	25	45	44	13	2	34	40	33	24	3	8	42	29	23	49	20	6	10	26
7	48	28	38	19	22	47	30	4	13	24	40	6	39	13	24	5	5	0	1	46	46	35	10	42	26	45	30	25	38	5	34	6	18	44	41	39	18	11	40	29	19	15	15	26	38	8	7	40	25
24	35	22	6	36	40	46	24	25	27	46	37	9	20	1	1	3	27	33	0	32	12	30	28	49	17	5	20	10	42	36	3	9	9	21	37	8	21	2	25	7	42	27	5	9	35	43	8	29	19
2	23	14	7	30	8	42	30	32	30	3	37	19	18	45	25	35	1	38	38	0	35	10	25	16	18	49	7	33	39	24	31	8	30	48	8	37	37	25	25	8	8	29	20	21	34	48	30	9	2
9	25	45	20	7	7	10	8	49	5	32	3	46	42	3	25	36	49	2	35	12	0	4	46	15	1	28	2	19	3	9	16	46	46	35	7	17	48	10	30	29	32	41	43	41	25	46	6	44	6
16	3	40	26	12	39	10	43	14	20	23	43	33	22	38	37	32	41	26	45	22	31	0	37	39	21	14	20	8	37	40	46	11	25	5	7	3	14	23	20	19	27	1	4	33	8	23	46	42	16
29	29	31	8	8	9	27	17	19	16	46	8	48	35	43	38	25	22	1	3	29	48	2	0	34	45	31	34	43	31	38	13	29	4	45	15	12	2	43	15	15	16	15	40	7	42	15	37	7	41
10	6	48	34	17	29	20	44	34	11	2	33	25	36	8	7	28	33	8	49	15	34	21	47	0	14	42	36	4	34	11	23	34	29	29	3	8	23	3	33	16	2	28	1	30	21	38	28	38	15
47	47	30	19	30	5	35	20	5	4	32	41	22	21	44	23	9	44	17	35	37	42	10	32	1	0	10	46	34	35	7	5	31	46	14	20	21	13	4	33	48	31	19	48	32	18	27	20	20	7
32	19	46	11	29	11	36	45	5	25	21	28	2	17	34	42	15	37	15	3	22	30	28	25	46	43	0	49	33	8	14	35	12	2	19	21	15	42	33	33	28	15	27	37	11	15	46	19	24	40
46	12	35	30	42	45	41	5	25	34	41	22	38	17	38	20	15	44	3	47	25	4	18	21	34	33	10	0	37	21	14	7	9	6	47	9	13	21	48	35	15	23	25	2	19	10	49	27	32	2
28	42	28	14	36	33	12	49	11	45	3	24	34	31	16	18	32	36	23	49	44	15	3	35	9	15	40	5	0	3	42	12	16	5	16	32	13	32	42	26	41	16	23	34	45	29	14	38	31	46
42	31	43	49	36	48	31	18	19	19	6	31	29	12	39	28	16	24	14	1	17	8	2	44	37	48	35	33	46	0	31	36	43	15	23	48	44	7	37	47	34	40	29	49	24	2	13	1	26	1
35	43	13	26	7	38	39	20	3	47	16	47	26	21	2	6	49	42	15	37	5	40	37	42	35	35	7	6	26	19	0	1	40	14	8	48	42	24	33	40	43	46	45	34	11	37	17	18	30	29
38	10	35	43	37	4	28	45	15	39	9	41	12	23	20	24	47	49	39	16	34	36	16	18	48	25	5	7	47	16	16	0	47	29	37	12	48	35	8	38	8	47	17	7	26	38	39	36	45	33
17	38	41	9	12	35	1	31	17	25	3	35	38	5	5	37	17	28	20	48	22	2	11	3	20	20	28	4	19	1	26	18	0	11	14	17	45	2	37	16	28	18	44	25	43	5	2	19	22	25
46	10	13	16	37	37	4	14	44	24	9	2	36	29	38	2	41	7	3	36	45	29	30	25	8	2	31	4	24	25	22	3	28	0	27	32	6	49	9	32	49	4	17	45	3	30	33	12	23	46
35	6	44	24	45	33	19	38	41	4	47	5	23	8	48	38	31	32	9	32	39	26	13	44	43	4	7	33	36	37	15	5	27	2	0	3	22	12	43	15	34	28	8	22	36	29	32	20	41	37
6	36	19	35	31	24	41	15	16	24	10	49	46	29	43	12	8	34	29	18	21	14	21	27	37	35	27	27	30	38	1	16	16	48	30	0	41	1	40	44	23	10	35	35	3	3	28	41	22	8
13	22	42	35	4	47	32	28	17	49	16	20	31	32	38	46	5	23	47	42	4	27	38	8	45	2	40	3	34	26	45	9	5	17	8	11	0	4	39	16	14	20	37	13	1	39	5	32	49	9
46	32	24	38	42	12	26	31	12	25	23	28	28	24	33	30	17	25	31	22	48	30	20	21	38	1	3	13	33	27	47	16	35	17	19	8	17	0	20	27	42	33	34	23	3	27	3	27	2	15
1	35	48	3	5	17	18	14	26	39	10	36	8	30	25	14	15	8	8	4	21	15	1	45	13	46	11	4	29	4	32	40	28	20	13	5	1	21	0	32	37	7	6	2	34	14	10	37	43	28
28	21	30	3	39	2	41	23	16	15	41	8	45	32	12	46	39	25	33	4	42	8	47	22	30	19	45	36	17	46	24	3	25	14	1	28	47	13	29	0	40	36	37	21	44	7	9	37	32	3
32	43	32	35	10	43	23	21	1	41	23	1	48	44	25	49	39	46	42	26	25	27	10	46	12	26	49	8	17	12	7	29	18	15	33	48	29	41	22	20	0	48	42	22	31	34	32	23	12	34
22	18	12	49	20	41	17	30	42	39	42	10	18	29	43	48	5	30	26	27	18	49	1	23	21	38	48	43	2	17	25	22	10	8	30	24	5	11	47	47	4	0	31	20	38	28	5	27	27	44
27	7	37	14	5	18	44	49	31	10	12	7	17	14	10	18	41	6	5	39	13	24	26	45	46	23	1	3	25	18	42	42	8	21	17	32	1	9	43	3	11	43	0	25	39	25	9	39	28	29
6	23	48	6	12	39	5	14	2	43	39	27	14	16	31	33	47	45	41	17	44	12	4	43	48	15	28	35	44	41	49	11	41	34	17	15	9	21	18	13	26	9	25	0	36	15	6	21	44	9
27	22	2	25	1	29	48	40	11	43	32	16	26	18	2	20	12	46	34	45	16	25	26	34	38	34	23	34	7	47	11	20	34	18	15	34	22	4	1	7	42	39	42	25	0	44	43	49	42	7
49	21	33	26	13	43	37	22	31	44	36	45	20	30	41	17	35	39	37	46	4	26	4	32	13	34	28	28	12	30	5	39	1	1	16	18	23	6	12	44	16	4	45	37	26	0	30	29	43	45
18	33	7	9	7	8	5	45	16	40	47	36	46	45	4	41	15	21	15	43	10	8	42	29	41	43	29	29	17	33	8	31	15	1	43	45	29	14	30	10	39	35	5	4	33	49	0	18	24	21
6	1	18	4	41	45	48	43	19	7	16	26	47	26	41	7	2	10	44	30	36	26	15	45	40	39	28	1	47	20	15	44	10	21	36	43	49	34	40	33	15	37	2	21	12	36	33	0	41	29
18	33	5	10	10	9	19	42	26	48	41	13	23	41	25	6	30	43	35	40	35	9	28	35	27	25	45	8	48	33	27	9	40	44	49	38	43	28	33	35	23	30	25	12	11	49	20	48	0	43
31	40	39	24	48	36	38	14	3	20	16	46	26	44	49	9	9	15	45	38	46	6	17	26	16	49	10	41	42	2	24	35	44	25	42	23	38	8	40	23	26	46	6	38	14	35	40	16	9	0
M2
0	7	25	4	27	43	46	14	20	43	12	45	40	13	49	42	28	9	15	2	48	32	15	14	11	5	46	1	8	12	4	16	27	32	38	45	21	46	37	2	36	13	21	25	27	7	27	9	28	14
41	0	28	38	43	41	30	3	2	49	36	36	1	42	21	47	6	17	18	18	4	11	38	33	43	32	6	46	8	38	40	42	17	26	18	1	14	8	5	17	27	21	20	37	44	43	4	6	42	15
24	45	0	48	44	11	5	49	38	36	8	6	46	3	16	1	42	34	23	9	8	1	2	45	10	46	17	4	23	47	35	14	1	12	19	3	25	37	20	24	24	35	34	4	1	22	49	48	35	38
25	34	43	0	18	24	3	13	37	39	6	33	46	23	44	17	29	42	33	44	25	25	40	19	48	12	26	27	35	40	1	16	37	20	39	22	42	32	24	19	34	34	40	5	5	6	12	23	20	10
43	2	14	42	0	49	47	41	38	10	36	37	39	48	18	38	6	14	10	46	46	11	14	3	46	20	3	35	22	47	47	27	49	33	3	28	19	30	28	2	26	11	22	34	45	40	43	44	20	36
30	33	17	45	24	0	28	31	17	21	12	9	39	42	40	33	40	12	31	27	42	26	40	1	48	8	43	13	25	13	8	38	31	10	45	14	39	25	23	8	26	40	19	7	26	24	47	16	45	48
17	16	24	47	43	2	0	13	1	42	40	8	18	27	25	10	37	9	39	33	32	19	10	3	19	1	6	3	32	35	45	20	41	18	10	41	46	17	31	5	39	16	34	46	19	48	31	29	6	34
17	44	10	21	33	24	49	0	11	45	15	23	34	4	28	25	49	10	40	19	38	3	47	44	13	45	5	47	17	48	34	16	18	46	20	15	9	37	30	6	16	19	17	26	27	14	23	39	14	41
45	7	12	46	26	19	39	30	0	47	1	24	6	14	24	41	7	38	47	32	45	27	45	38	17	14	37	41	36	2	34	46	7	11	47	12	4	44	46	13	42	44	49	10	20	45	46	23	48	4
4	14	42	41	5	15	34	14	23	0	4	19	1	16	21	33	18	20	34	30	22	44	11	39	21	32	11	45	2	4	13	1	1	25	2	29	12	5	39	14	31	19	36	1	49	45	43	25	28	49
49	43	44	12	20	27	5	8	14	27	0	43	24	47	16	42	45	14	17	45	48	17	1	33	31	12	5	18	43	6	12	32	8	1	26	15	29	40	14	26	2	49	46	24	44	2	26	21	45	41
32	15	20	14	40	41	34	48	45	17	35	0	35	47	48	8	3	23	2	10	28	7	22	14	49	23	38	8	30	34	8	48	48	14	11	34	5	29	31	23	14	25	1	7	43	13	26	8	44	42
40	47	2	17	32	10	40	17	23	12	27	23	0	3	24	22	15	37	41	26	14	30	12	21	33	14	47	30	16	41	12	34	6	32	20	40	3	1	26	49	23	6	15	19	49	34	33	21	1	19
21	23	42	23	34	33	48	40	6	26	38	49	18	0	8	47	44	36	30	25	23	19	49	28	4	30	19	46	12	36	27	49	42	35	2	14	46	42	8	37	9	36	1	37	36	19	20	16	14	37
22	46	2	14	10	4	30	29	26	21	19	33	46	5	0	14	30	29	27	40	11	5	5	38	49	6	48	15	1	48	23	39	45	24	28	41	5	2	13	35	39	22	10	24	22	6	21	6	30	30
33	49	30	27	44	37	17	30	31	28	45	45	43	38	16	0	4	34	3	7	38	6	12	45	25	22	21	43	5	19	4	44	41	31	23	13	28	38	9	12	46	20	46	29	35	14	45	36	41	27
47	5	36	19	45	40	40	42	32	33	16	28	14	14	11	25	0	13	40	8	5	44	19	15	27	22	22	13	37	10	25	26	23	42	1	6	30	13	22	5	34	11	21	35	45	7	12	44	16	26
13	15	3	29	28	27	40	32	39	48	28	47	34	8	36	9	19	0	6	4	29	46	42	35	38	34	30	29	20	41	8	8	23	2	43	29	38	35	13	21	36	40	33	13	43	45	44	34	22	3
43	42	6	27	13	7	23	39	42	3	6	40	30	4	17	45	37	18	0	39	45	36	8	21	30	33	33	44	25	7	32	10	12	24	38	41	33	9	39	7	2	33	48	34	27	47	10	27	5	37
42	40	20	45	16	3	6	33	44	18	20	24	49	6	29	49	20	28	43	0	11	47	6	29	40	17	43	2	8	31	25	8	32	13	41	26	27	36	25	13	44	13	45	10	36	4	45	7	18	7
48	40	33	22	17	25	22	20	34	47	18	25	37	4	8	30	33	38	48	33	0	14	36	49	20	26	6	43	15	19	14	29	3	28	17	25	30	16	37	10	32	27	30	45	47	42	10	48	31	48
40	14	1	20	11	3	11	23	1	7	2	22	42	27	4	31	19	21	12	8	8	0	7	42	8	45	20	7	25	14	34	42	13	21	15	4	26	12	32	41	20	19	45	37	2	2	5	42	17	4
41	36	26	22	39	1	27	22	27	12	23	24	46	27	40	26	26	37	42	12	38	34	0	13	20	41	41	11	19	3	39	33	32	40	47	33	12	8	24	5	21	16	22	27	15	10	40	38	10	6
20	9	25	44	22	16	42	34	37	5	46	9	5	20	24	8	15	21	3	33	39	24	35	0	45	48	33	33	49	20	5	31	2	47	43	13	46	3	10	8	26	48	43	1	9	34	9	6	21	33
9	15	10	39	38	40	34	2	41	46	38	47	29	8	41	39	42	30	12	36	42	18	26	47	0	41	19	35	15	23	10	38	25	46	14	7	27	13	43	10	43	4	37	45	40	43	15	43	42	33
27	31	47	27	11	7	12	16	11	22	22	26	28	7	35	11	8	12	22	34	32	11	37	28	12	0	38	3	20	33	7	29	20	45	20	23	42	3	49	15	38	1	44	16	24	8	7	37	12	1
38	6	1	28	38	45	26	44	31	29	22	1	17	48	37	26	14	14	34	43	45	33	35	37	31	47	0	15	3	4	30	32	41	21	21	30	34	48	32	12	28	37	4	6	14	46	23	47	1	21
33	17	14	46	44	35	36	6	7	36	23	49	37	38	21	19	27	6	37	13	14	5	27	18	44	18	24	0	49	2	43	47	24	8	18	28	14	27	22	32	40	21	18	40	29	9	23	29	12	45
27	2	10	6	27	23	30	12	45	42	20	12	44	38	27	29	34	32	20	9	32	31	3	5	32	27	15	21	0	11	46	2	10	10	29	29	24	6	19	30	3	20	34	32	4	1	40	7	1	25
5	47	19	8	7	11	13	41	18	14	25	2	49	16	19	37	48	21	36	22	38	21	2	10	23	47	4	41	14	0	14	38	21	3	38	39	43	5	29	36	49	2	17	48	26	9	3	32	8	25
44	11	10	20	4	33	30	39	15	15	22	15	18	22	16	20	45	49	38	37	21	6	2	25	2	44	43	41	33	25	0	37	3	20	16	8	26	27	10	32	22	15	16	31	44	17	47	21	29	30
31	45	38	44	41	36	41	29	41	42	6	49	34	7	10	28	22	9	37	36	31	13	14	15	12	32	46	27	19	13	37	0	16	19	21	12	10	47	30	12	47	44	39	6	21	12	15	5	8	49
8	4	27	36	9	19	17	31	20	10	38	8	35	31	36	43	26	27	19	21	5	4	38	33	31	42	34	22	26	29	12	20	0	6	44	40	1	46	43	9	30	18	19	15	46	49	31	33	40	26
29	28	45	19	42	19	16	43	9	2	40	20	7	48	5	7	48	15	41	46	6	13	42	27	3	41	32	32	38	11	45	38	27	0	35	41	27	10	43	22	28	42	9	10	46	42	40	27	19	25
38	11	20	26	36	22	29	33	25	25	25	38	32	42	36	4	41	20	23	43	48	12	19	26	11	33	17	23	18	11	4	3	44	49	0	18	35	23	6	33	29	48	46	38	45	21	20	45	8	39
30	42	39	7	17	28	37	39	28	13	20	22	29	28	27	17	40	34	21	1	49	28	1	15	35	48	8	11	14	46	10	25	7	11	2	0	27	47	46	46	45	24	29	33	4	9	10	18	33	48
5	27	33	39	31	5	49	40	46	7	45	12	23	49	38	25	48	39	3	38	42	22	5	17	31	47	25	25	24	11	24	33	6	3	17	36	0	39	43	3	24	42	4	29	5	14	36	19	49	13
20	12	2	14	24	14	12	47	27	7	6	47	12	12	37	5	8	37	26	27	11	44	13	10	42	26	30	11	47	4	31	6	17	18	22	40	7	0	44	31	22	20	32	26	12	47	21	44	11	7
12	20	1	48	19	46	41	48	10	29	9	32	26	9	20	12	20	14	26	22	38	7	20	6	41	16	2	13	22	26	25	20	45	8	40	39	44	27	0	44	31	16	44	9	9	17	11	39	41	2
15	7	12	13	36	17	46	38	5	8	22	32	41	38	29	26	2	11	15	10	22	43	30	39	16	15	12	8	5	39	3	32	38	47	16	5	30	11	36	0	33	21	22	11	18	40	36	19	28	42
2	46	27	10	28	18	33	36	32	1	25	42	36	45	16	25	39	19	25	12	11	49	1	46	42	32	43	7	41	32	11	43	33	4	30	33	8	48	13	2	0	25	49	43	20	37	31	42	40	6
47	9	18	44	45	21	13	19	10	18	16	22	20	19	47	5	48	27	48	4	8	6	4	7	6	35	17	43	24	35	26	46	24	11	48	9	13	38	2	7	37	0	3	31	35	38	32	20	42	38
48	25	8	15	43	38	48	33	21	2	45	48	6	48	41	17	10	18	11	23	5	45	15	26	2	3	29	3	16	4	5	25	47	45	24	20	24	2	22	19	18	34	0	25	34	47	1	48	37	9
2	30	31	34	29	6	9	21	20	44	34	18	18	26	6	47	4	27	5	3	40	5	14	42	9	6	19	40	2	7	40	31	39	10	23	48	36	45	38	11	12	15	10	0	25	7	20	21	48	12
6	33	45	2	28	45	7	10	3	46	49	46	32	27	23	35	9	16	32	3	6	33	22	43	12	16	8	38	32	5	20	39	14	4	26	34	26	4	22	11	23	18	26	5	0	19	42	6	6	4
9	28	15	10	36	2	18	49	44	20	11	33	38	7	24	26	43	33	37	38	5	46	22	15	42	6	22	42	27	20	31	36	36	40	10	37	6	42	29	36	44	4	44	24	46	0	23	13	29	13
12	10	8	29	36	42	16	34	8	22	5	14	32	3	18	10	32	24	19	24	39	8	18	23	34	35	36	47	10	20	27	4	18	2	31	29	44	11	9	17	38	1	38	33	28	28	0	22	27	27
46	41	38	31	22	34	43	21	9	27	5	26	20	42	42	19	17	9	26	24	1	14	20	39	31	4	7	18	26	41	16	11	18	44	18	6	30	16	26	12	12	35	26	7	2	13	35	0	41	5
44	12	23	26	46	28	35	15	42	4	36	30	33	35	26	26	22	1	48	27	33	48	37	21	28	15	9	17	41	19	21	20	46	45	38	41	10	36	39	25	21	35	37	37	24	28	28	13	0	23
45	42	46	1	44	14	34	1	18	11	31	49	17	7	16	28	10	14	35	2	45	46	13	37	10	49	6	4	20	31	20	47	29	18	12	22	7	42	29	26	27	16	24	23	29	5	46	6	2	0
M3
0	41	37	10	12	38	5	19	26	24	9	29	14	11	39	3	48	4	32	43	33	11	8	11	27	48	35	15	42	31	17	48	42	12	15	12	2	33	4	21	33	33	31	25	1	1	15	46	21	25
7	0	3	29	39	47	34	2	5	22	45	22	15	34	30	19	12	23	30	34	31	36	28	19	24	25	32	49	45	40	44	31	8	22	27	8	35	2	10	23	5	1	1	17	43	5	30	40	26	5
26	40	0	19	9	3	20	16	49	7	14	2	9	12	35	20	5	39	39	42	1	27	13	42	6	33	9	15	36	29	34	37	42	2	5	21	48	37	16	48	33	22	26	34	18	21	8	33	17	49
49	36	47	0	6	34	32	30	11	11	35	36	12	48	27	6	4	20	42	13	4	29	37	15	17	4	19	14	46	44	13	11	11	22	29	25	42	46	12	32	20	16	25	15	20	49	21	5	18	36
27	31	1	30	0	19	45	47	45	40	42	18	8	24	27	17	47	19	38	15	3	42	34	11	3	11	32	46	24	46	34	21	11	2	12	8	31	2	42	36	31	45	2	18	33	27	43	5	25	39
21	28	2	7	22	0	3	29	32	47	37	27	26	31	33	6	30	37	32	40	19	33	23	23	40	41	34	22	34	28	1	8	8	31	18	35	11	41	30	36	36	24	46	34	31	18	14	43	9	16
12	9	24	11	12	16	0	40	10	7	48	49	34	24	9	27	2	48	40	32	6	43	48	33	24	26	41	30	6	15	2	22	33	11	34	45	31	23	36	22	7	30	4	30	6	34	46	34	43	11
47	24	38	9	19	41	9	0	37	13	38	44	30	15	38	47	25	8	33	13	47	42	21	35	3	1	28	24	33	47	5	41	27	35	9	28	12	35	39	44	43	31	21	24	44	25	11	45	26	15
10	37	37	26	35	44	28	19	0	43	9	14	43	46	7	47	21	33	26	2	18	17	43	11	2	39	19	32	32	27	40	18	36	20	2	14	9	21	39	12	12	24	19	11	26	2	27	2	23	17
46	44	16	23	23	10	47	2	44	0	13	40	12	17	32	46	33	13	15	44	45	21	15	46	16	49	47	40	2	16	47	48	2	18	24	13	17	47	15	10	16	4	44	14	24	40	27	15	38	42
42	21	34	45	2	16	12	37	43	41	0	8	11	22	2	1	30	39	25	19	36	7	2	36	38	27	22	8	48	42	6	48	28	19	8	27	17	38	27	2	3	7	40	21	26	41	33	3	39	6
49	9	6	16	4	14	27	3	42	42	8	0	46	27	2	16	28	3	19	40	49	11	26	9	36	6	25	3	1	34	17	12	5	14	26	24	30	19	1	39	5	10	41	8	36	31	6	20	25	41
19	23	10	14	19	4	23	12	39	6	22	43	0	25	28	36	31	21	11	39	17	41	29	7	14	5	14	37	18	40	13	27	37	44	21	48	6	16	27	2	40	19	28	11	43	33	34	14	44	4
37	37	38	34	42	25	5	18	21	5	27	12	35	0	22	37	22	43	2	24	46	4	44	32	3	37	47	10	19	36	20	28	44	23	23	43	20	12	17	35	49	44	20	45	45	37	10	21	41	49
4	24	42	47	18	32	16	26	41	16	33	6	3	40	0	24	39	48	11	39	8	31	20	5	29	48	6	40	34	10	48	1	47	48	34	28	12	28	44	19	13	34	25	47	27	24	20	34	11	20
38	30	40	8	26	24	44	30	31	18	5	6	13	7	48	0	31	49	29	37	24	28	7	44	42	49	9	46	16	39	25	9	46	46	29	6	28	31	33	36	34	44	25	39	1	39	29	13	2	36
17	4	45	3	11	40	14	43	34	25	26	2	7	8	42	22	0	19	41	15	19	42	24	12	8	26	44	11	34	46	4	11	29	12	28	22	40	44	46	24	7	17	36	16	41	2	32	26	23	31
20	33	29	47	7	40	32	13	36	22	37	47	33	18	34	31	16	0	29	23	10	37	29	32	19	19	17	26	40	8	18	26	44	5	38	9	28	6	26	22	46	47	32	19	30	15	34	24	40	12
28	39	43	9	13	10	26	22	24	7	16	12	44	28	35	45	28	13	0	2	19	6	23	14	22	10	33	5	12	24	42	2	47	25	35	15	35	38	22	49	10	1	15	28	21	34	44	27	32	40
3	18	22	44	29	21	19	38	14	40	40	6	5	25	43	17	13	30	16	0	46	46	19	9	26	12	39	13	22	11	42	42	5	46	14	15	35	29	49	8	16	29	16	17	4	41	19	10	42	32
32	27	8	6	40	10	44	46	22	16	44	33	49	40	42	20	11	22	1	3	0	3	23	11	28	22	7	43	7	39	42	30	8	46	20	23	16	39	17	18	43	8	11	41	35	16	31	18	7	16
45	42	28	5	15	4	40	7	27	6	21	38	27	1	16	34	21	19	37	16	45	0	25	15	40	26	10	12	7	6	33	44	20	13	40	25	6	41	44	31	31	47	25	27	19	38	18	35	43	32
5	27	41	28	11	1	20	44	48	26	34	44	36	32	49	27	6	10	27	28	47	45	0	16	35	40	34	28	36	35	5	6	33	16	35	13	6	35	26	11	47	9	12	8	17	12	21	18	18	25
41	11	13	45	10	39	12	43	25	13	24	46	18	37	28	18	7	46	37	26	45	35	16	0	48	21	34	29	38	23	21	39	16	25	25	46	36	33	42	46	31	48	17	37	39	27	41	47	5	29
33	40	28	48	26	35	29	27	22	27	37	6	42	21	24	10	8	43	34	9	27	11	3	24	0	32	5	42	40	5	45	49	38	35	1	49	3	26	39	15	21	21	44	19	43	48	20	26	39	21
29	20	8	3	27	14	40	48	40	24	25	49	6	4	12	38	13	19	12	39	13	23	15	32	2	0	36	18	43	19	23	2	48	47	41	37	39	17	21	8	2	48	45	2	35	34	48	23	2	38
29	10	29	40	27	38	6	10	32	20	13	24	1	29	49	49	12	33	20	7	36	3	26	21	8	3	0	4	14	43	38	5	49	38	12	18	11	3	43	35	17	43	42	32	21	18	49	2	5	12
17	34	18	26	24	5	36	7	13	32	6	27	20	2	32	23	15	40	9	31	49	16	10	46	40	8	17	0	18	34	7	42	37	38	34	27	10	38	18	14	26	27	35	42	18	25	18	37	26	2
40	25	46	45	38	14	9	22	32	48	18	49	42	7	2	31	30	10	11	32	42	11	42	45	11	35	11	5	0	4	27	5	32	22	46	36	40	41	40	41	6	36	26	18	6	5	5	34	12	45
44	7	13	4	20	23	27	42	21	32	4	30	27	35	1	48	13	41	14	12	43	43	16	32	37	45	9	14	7	0	31	27	11	6	29	5	25	27	28	36	47	11	36	13	40	29	9	34	45	16
10	13	34	11	9	31	19	43	5	9	13	47	4	7	18	24	13	5	26	2	8	44	32	44	6	16	3	33	33	40	0	46	45	40	6	39	21	21	41	31	32	33	48	18	22	32	13	19	27	48
26	25	3	5	32	33	33	4	42	6	8	33	10	46	44	36	29	7	40	6	41	36	20	43	19	17	42	9	39	27	46	0	28	5	38	30	2	34	26	17	20	16	12	31	48	14	1	6	6	40
15	24	29	33	39	44	28	3	21	31	47	12	13	12	48	43	30	20	23	44	20	13	25	6	5	46	37	7	23	22	10	15	0	37	14	49	26	30	22	11	28	13	25	25	36	11	5	11	17	10
44	36	13	9	10	17	23	43	9	23	25	39	37	15	48	47	41	16	35	32	44	40	17	1	25	35	5	13	7	20	17	38	19	0	48	45	23	26	25	26	8	38	44	38	35	48	39	8	15	27
19	35	7	29	47	36	12	43	39	38	21	2	35	7	20	43	10	9	26	3	4	17	49	17	8	45	6	49	6	25	8	27	42	5	0	47	18	40	47	48	8	15	41	49	23	19	19	10	8	9
22	19	10	40	40	44	40	37	28	6	39	42	8	41	38	9	33	34	30	7	8	35	8	4	48	22	6	37	4	10	38	29	14	37	40	0	48	38	41	18	22	3	3	13	30	27	28	44	33	13
33	10	14	17	18	45	17	28	19	34	11	33	20	3	42	20	49	14	22	46	11	23	16	15	20	20	5	28	30	19	22	45	43	28	5	21	0	17	39	30	30	37	45	14	47	36	4	15	33	12
27	33	44	45	39	42	42	46	9	3	23	5	21	24	39	2	31	6	8	24	18	37	37	28	26	26	7	4	34	2	2	16	2	32	7	12	17	0	38	46	26	30	19	44	8	2	28	11	27	40
18	14	5	24	45	14	7	14	28	42	14	26	2	33	35	34	49	2	48	18	11	19	17	33	48	44	44	47	16	31	27	3	25	16	45	15	31	4	0	46	47	6	2	9	46	2	39	33	47	44
43	16	18	28	35	34	21	43	43	15	34	8	31	41	42	38	38	7	10	36	36	31	16	1	4	25	4	33	42	4	40	5	40	1	5	30	2	6	43	0	7	35	19	25	18	45	46	10	45	48
23	41	18	23	6	9	6	37	48	43	19	19	29	38	47	44	7	32	20	7	17	6	47	27	3	24	2	19	4	27	17	10	47	7	4	4	24	18	19	10	0	11	49	21	4	25	40	17	3	14
14	18	21	16	11	28	2	10	20	5	3	9	47	49	28	9	14	31	4	1	34	42	49	44	44	43	38	43	24	39	8	26	29	11	47	10	13	15	8	34	41	0	16	2	44	47	20	5	9	37
10	29	11	49	30	4	27	37	33	21	21	41	17	44	16	20	2	20	15	17	28	14	14	8	14	33	27	27	34	35	21	11	14	18	38	8	43	36	34	28	27	8	0	29	19	33	44	31	41	11
7	10	30	41	10	37	22	19	17	8	17	26	12	40	36	32	40	30	4	45	36	39	4	4	11	24	11	49	32	41	12	24	6	32	8	31	3	38	29	43	33	25	20	0	9	18	35	24	22	48
39	30	4	7	15	39	34	49	1	45	5	28	40	13	42	46	28	9	32	22	1	10	40	16	48	16	24	34	49	1	8	28	33	34	38	24	29	47	29	2	33	29	19	46	0	42	39	36	44	8
41	28	13	4	35	5	10	38	10	44	34	44	7	27	43	35	11	25	33	49	31	42	1	35	43	40	46	35	1	40	42	38	14	9	44	26	15	23	13	36	33	18	35	9	42	0	36	44	33	8
43	46	38	31	18	36	5	42	44	30	30	17	7	18	47	36	18	1	43	43	22	33	18	43	25	3	1	25	9	11	21	24	26	49	10	24	41	8	24	11	39	46	11	24	3	30	0	23	21	4
39	28	7	22	33	49	23	23	43	3	32	32	6	6	6	11	44	21	28	40	19	11	6	8	37	31	20	13	19	16	27	17	35	2	28	32	35	26	30	48	9	20	9	13	23	4	5	0	36	4
32	47	33	32	19	11	14	40	22	16	38	10	33	19	12	33	33	20	6	16	32	49	17	45	29	7	21	38	40	19	48	20	45	25	29	17	35	36	1	36	33	36	46	5	43	9	48	47	0	38
31	34	11	35	42	23	46	31	48	44	12	3	2	46	6	16	43	31	47	34	19	39	2	38	20	20	43	27	11	40	13	30	1	3	13	40	43	40	45	47	13	39	33	37	3	32	41	41	22	0
M4
0	31	8	24	18	31	8	34	17	11	42	22	38	5	33	22	5	38	19	34	14	21	25	24	47	25	26	1	25	12	27	21	19	14	37	48	22	4	18	41	43	33	6	28	9	11	30	22	7	8
35	0	41	42	45	8	28	11	38	43	10	23	45	34	1	30	5	34	36	42	16	42	49	25	22	14	5	37	34	46	37	12	19	27	21	42	25	14	2	24	34	23	41	1	48	3	23	40	21	2
2	19	0	6	35	24	6	25	33	22	40	4	45	22	11	24	12	16	2	48	8	8	23	32	33	33	11	38	42	28	23	21	1	42	17	37	46	3	37	9	11	9	36	3	9	28	31	14	18	8
36	33	47	0	31	6	18	25	33	12	37	31	6	39	4	49	45	25	7	17	44	38	6	26	6	44	16	36	7	43	21	30	9	36	26	36	32	35	44	30	47	8	21	17	42	38	12	23	27	10
38	37	32	39	0	13	40	13	33	34	49	4	3	21	38	19	18	4	22	40	34	32	16	44	8	19	20	20	8	27	5	44	13	34	37	20	36	46	46	39	22	4	39	15	4	28	41	23	23	21
44	11	43	15	26	0	3	19	16	25	21	24	24	32	36	2	25	44	37	35	37	20	8	33	20	15	33	28	2	44	41	21	10	43	19	14	45	41	9	49	48	42	25	2	18	2	28	20	23	30
33	7	33	19	47	38	0	37	6	49	48	38	9	28	5	33	47	16	10	43	22	12	10	10	45	8	42	16	18	29	37	16	11	31	35	48	31	48	9	11	11	2	23	30	6	25	42	33	33	22
10	41	11	20	11	43	33	0	44	39	17	40	34	47	23	46	26	19	14	29	14	19	1	48	24	49	7	10	6	32	30	22	32	6	42	33	2	12	49	19	8	19	9	36	25	23	41	42	38	17
25	17	3	41	20	6	3	14	0	42	5	31	42	23	26	14	2	14	46	35	27	32	39	16	49	24	30	17	8	47	46	8	5	46	29	36	3	36	41	16	39	2	31	46	22	38	7	7	16	38
38	11	17	46	48	37	38	35	3	0	10	26	46	5	47	18	9	33	46	27	23	31	44	40	38	36	33	42	36	16	23	30	18	31	25	46	7	21	37	27	6	43	40	25	21	5	44	9	6	29
26	41	5	23	14	16	2	25	8	3	0	49	4	48	39	19	27	38	29	25	49	27	1	41	46	29	28	35	30	9	39	2	47	24	23	10	32	47	5	29	9	21	26	45	12	41	1	25	12	21
30	21	49	19	27	39	16	32	36	31	7	0	20	37	25	4	5	49	24	44	19	35	2	5	8	14	16	27	31	35	35	2	1	16	19	3	19	17	36	11	41	24	28	9	33	43	21	42	38	49
32	15	45	23	38	40	40	41	34	33	21	28	0	16	46	17	2	44	11	34	17	13	46	32	43	26	2	26	12	2	41	9	3	27	19	45	21	5	47	26	10	3	6	36	26	48	28	21	6	27
46	18	13	39	48	18	20	5	47	48	8	45	10	0	7	39	3	48	33	21	4	15	6	46	1	15	27	41	34	9	21	46	4	1	21	27	29	45	43	7	20	1	21	12	46	39	35	40	9	20
21	5	30	40	6	5	38	27	14	47	36	33	38	43	0	11	35	41	23	35	26	42	32	9	13	39	18	16	6	7	37	48	15	19	39	22	27	40	14	3	2	39	32	38	30	4	14	42	30	26
1	3	35	31	2	36	28	22	33	31	13	44	14	28	36	0	34	33	8	35	4	28	12	43	22	46	36	8	5	30	42	35	20	47	19	24	12	44	47	35	9	27	36	48	31	3	8	7	23	31
7	33	30	27	12	1	48	5	46	9	44	14	14	21	12	42	0	11	2	22	17	14	19	12	33	41	33	10	38	4	18	37	15	29	45	37	19	28	19	32	34	48	5	33	36	9	26	43	49	48
33	33	49	37	7	17	47	23	19	33	5	33	32	28	9	30	5	0	27	34	13	35	7	25	40	3	41	20	35	8	2	21	43	42	6	2	49	23	33	30	24	39	16	38	18	29	44	22	2	47
37	31	1	31	30	32	35	39	49	39	7	46	20	1	46	9	30	5	0	11	33	41	5	5	11	30	26	36	10	31	2	30	22	40	44	3	35	31	22	15	33	49	19	37	38	30	17	2	18	35
18	9	1	43	7	39	30	11	5	18	43	31	35	41	30	46	31	9	20	0	12	26	24	38	41	33	47	1	14	39	44	16	34	26	11	32	18	37	21	29	1	12	45	20	37	48	5	32	46	28
39	49	48	37	26	35	38	8	11	21	47	23	2	3	26	41	15	27	12	8	0	9	19	5	37	9	49	38	4	29	43	20	45	42	35	38	13	1	41	11	20	5	5	8	14	39	35	43	47	44
32	46	45	28	42	36	21	48	10	20	3	17	40	31	21	44	34	1	24	44	5	0	41	48	10	29	15	44	19	30	5	9	5	37	18	39	19	28	21	2	12	47	17	34	8	3	27	16	4	44
30	4	18	4	21	20	13	38	41	36	39	9	15	12	28	28	41	43	39	32	42	22	0	47	32	10	27	38	18	43	19	4	10	40	49	1	1	2	14	3	47	5	48	43	49	12	20	28	31	7
22	15	46	44	24	9	1	30	48	32	32	48	45	9	21	22	21	36	38	47	10	22	40	0	21	30	15	39	21	24	44	22	27	6	36	41	33	49	5	10	4	2	8	47	46	33	12	11	34	41
38	43	28	39	18	22	4	17	27	20	1	38	47	19	35	37	9	23	23	42	46	34	6	29	0	21	22	26	48	35	8	11	48	34	23	28	33	41	16	14	33	48	44	44	5	36	34	40	22	8
26	39	47	48	21	10	14	22	23	13	33	29	32	10	42	17	18	40	24	46	14	11	42	36	17	0	34	38	38	25	22	29	22	19	17	9	30	36	33	24	3	23	17	4	24	4	8	35	47	49
16	45	44	30	49	44	38	3	33	33	11	43	32	41	9	4	2	24	16	13	46	17	44	3	31	4	0	27	32	7	5	3	21	19	29	45	45	36	29	45	24	41	8	37	36	47	5	39	11	48
38	32	6	15	39	21	48	37	3	27	24	32	40	27	19	22	12	17	12	21	25	40	8	44	6	34	42	0	15	28	5	6	24	48	10	39	49	26	48	5	49	43	39	31	31	46	30	11	9	28
29	49	4	46	46	39	12	45	44	49	7	34	10	34	5	6	33	7	13	48	32	24	20	46	11	47	21	38	0	36	47	24	14	7	1	32	48	27	12	49	26	40	36	15	8	25	25	24	6	42
21	12	18	20	14	31	9	14	13	46	45	41	10	19	6	28	25	1	24	40	23	48	16	22	28	6	48	40	38	0	31	1	30	15	5	33	2	39	6	3	2	11	20	12	2	12	9	41	26	3
1	3	32	32	33	14	20	42	18	19	10	18	31	39	41	39	43	32	8	23	49	24	8	22	31	43	43	1	17	11	0	35	32	24	5	41	49	16	41	43	44	13	43	6	36	39	25	28	17	30
40	11	44	2	48	41	18	39	10	10	4	28	2	45	32	7	37	49	48	41	49	31	40	24	12	14	3	34	8	45	38	0	14	21	25	40	40	23	43	18	27	44	8	30	36	5	3	41	35	44
27	5	41	12	48	35	10	25	40	3	3	42	49	14	40	28	4	4	26	24	33	32	1	42	12	24	46	10	4	17	42	12	0	38	3	32	28	41	24	48	49	4	9	40	31	5	24	6	1	43
35	6	2	6	20	36	14	13	8	22	11	49	38	9	11	37	34	15	26	34	49	41	13	40	24	5	30	26	18	1	18	33	43	0	10	33	40	31	37	31	20	38	38	47	46	49	13	3	20	47
27	6	31	46	14	8	6	32	14	42	34	16	15	46	2	41	5	20	41	12	26	31	6	5	29	14	5	20	30	34	24	49	39	45	0	15	47	13	39	18	49	44	26	3	6	36	43	19	2	44
41	42	4	48	13	11	26	41	5	36	33	34	44	28	2	10	1	45	27	9	25	13	26	35	36	10	45	49	1	46	3	14	49	9	40	0	24	38	42	5	30	14	9	45	47	8	2	24	29	47
15	5	43	48	43	42	32	32	36	14	37	49	39	29	36	26	30	2	42	34	22	25	9	37	44	33	37	38	8	43	26	43	39	45	33	3	0	28	11	45	21	20	8	30	13	41	26	19	25	29
12	20	38	41	4	5	21	18	38	22	37	47	43	13	18	20	7	15	47	4	26	40	13	48	43	6	46	38	41	4	28	6	39	41	5	5	39	0	3	12	8	28	15	44	17	15	36	28	32	43
49	4	19	16	48	17	16	8	39	48	9	32	19	43	37	47	18	48	35	12	49	8	48	33	28	39	1	6	30	7	32	2	20	6	43	38	5	43	0	21	7	4	5	22	13	27	2	33	44	30
47	21	34	49	8	25	9	21	38	27	20	11	11	4	26	33	3	13	35	11	6	13	16	22	36	36	4	27	13	30	31	34	46	18	49	20	12	29	26	0	1	45	14	20	32	26	12	2	17	5
25	28	23	15	48	30	11	7	6	32	1	11	42	6	6	48	46	36	37	19	6	29	23	5	22	25	32	12	48	12	22	38	1	24	12	34	36	13	37	15	0	23	34	16	7	16	9	46	24	46
2	37	30	4	28	39	48	2	11	35	3	34	30	23	40	21	9	5	27	39	49	15	49	22	1	28	34	24	25	27	5	20	36	17	47	24	5	1	45	46	11	0	48	10	21	29	17	12	36	2
42	10	24	43	5	37	29	32	24	8	18	36	45	35	39	14	32	24	25	11	6	4	41	14	16	22	38	23	21	19	14	3	24	45	13	17	17	42	12	33	29	13	0	29	18	17	25	41	37	2
13	15	15	47	20	10	17	18	1	42	22	28	37	36	47	8	2	29	14	8	17	29	17	1	14	18	37	34	46	29	45	1	17	10	8	21	28	21	25	16	35	21	30	0	4	9	3	49	15	44
3	45	32	5	31	4	33	49	24	10	10	34	24	5	18	43	27	49	17	3	32	49	11	39	41	45	33	38	29	6	24	43	15	43	42	33	10	21	6	34	14	42	29	36	0	11	17	49	45	38
18	23	4	44	8	36	4	46	12	28	43	47	46	25	15	3	9	37	21	48	3	34	9	36	40	2	16	43	15	4	31	21	13	27	31	47	24	12	44	12	16	19	5	7	32	0	20	30	7	13
15	24	20	39	16	40	16	49	8	46	40	14	48	7	3	1	11	23	25	32	41	4	39	41	12	17	21	7	16	8	21	45	21	36	42	30	37	20	7	12	3	18	37	10	11	31	0	19	20	7
5	2	21	17	48	10	15	35	36	21	45	36	20	43	17	47	42	22	29	17	17	43	15	12	31	36	31	29	13	7	27	44	40	41	36	11	22	35	7	38	35	7	5	11	37	27	7	0	35	11
7	1	11	23	38	38	35	1	6	40	2	11	9	49	49	34	3	31	34	43	5	33	44	47	40	25	29	32	28	13	22	3	38	11	9	10	32	10	44	6	31	29	36	35	18	33	47	25	0	32
16	33	8	36	5	1	19	3	28	42	29	5	5	44	15	46	39	35	22	45	47	33	37	13	23	3	48	36	43	10	43	21	9	36	36	27	27	23	13	41	16	13	2	22	19	34	33	6	17	0
M5
0	3	30	28	18	20	49	20	28	27	13	16	16	7	7	49	33	11	25	4	48	5	1	19	25	11	23	48	14	25	32	29	34	5	31	7	28	44	12	34	35	2	38	14	5	5	20	40	21	6
46	0	21	14	8	21	16	23	18	21	4	17	42	23	24	40	23	48	40	34	18	4	8	13	23	40	41	35	20	28	8	11	9	47	12	11	19	23	28	9	26	21	16	24	16	8	36	39	23	30
13	32	0	27	22	8	16	1	34	14	49	15	13	7	47	40	4	40	23	48	22	19	15	36	49	12	1	17	25	4	41	7	49	41	17	30	23	16	29	4	32	1	12	49	45	34	33	6	14	48
28	26	44	0	16	4	10	35	26	33	19	1	8	15	10	8	17	24	6	28	32	20	12	2	23	6	31	34	28	28	46	3	6	47	8	31	15	22	20	8	46	27	41	3	20	37	4	30	14	37
8	23	24	36	0	15	10	9	32	17	26	19	49	40	23	13	49	20	34	27	46	48	44	13	7	49	33	2	39	44	18	33	31	12	4	23	11	12	23	38	14	10	7	26	20	47	49	47	43	12
22	32	37	37	27	0	22	16	10	34	8	12	25	48	6	28	17	32	28	6	14	9	45	42	10	1	13	20	15	37	18	35	6	24	24	37	39	36	21	18	33	37	34	1	22	26	40	42	44	32
5	17	39	38	20	29	0	17	19	33	37	26	13	9	26	47	33	14	18	17	4	14	47	30	10	18	10	45	28	25	34	37	42	35	21	20	29	4	3	27	12	32	17	45	32	37	10	4	8	28
37	43	13	8	6	9	10	0	36	49	45	11	28	10	12	13	16	28	44	3	43	16	33	18	45	11	28	24	46	27	15	17	12	31	1	45	13	16	24	31	11	38	3	3	44	16	8	8	13	29
16	30	38	36	28	15	3	27	0	10	44	10	10	43	43	25	21	32	37	43	20	29	9	1	49	34	12	49	47	37	5	6	47	42	33	42	3	2	17	22	31	14	26	28	38	27	35	43	9	41
22	19	29	24	13	10	17	44	19	0	47	41	33	44	43	38	45	36	14	25	38	28	15	46	46	26	34	34	21	1	11	27	42	36	11	24	8	6	31	28	20	33	21	32	5	30	38	40	7	11
16	32	25	40	32	4	3	26	36	15	0	9	14	37	42	7	17	45	5	25	33	2	28	33	36	31	45	29	30	22	21	17	32	13	19	43	32	20	38	9	36	23	43	41	10	47	4	20	1	5
42	21	33	47	22	44	39	20	4	11	25	0	39	33	27	26	24	6	22	23	11	44	29	42	12	25	47	40	33	39	26	25	21	26	36	31	36	18	44	26	5	23	23	9	5	10	48	18	24	27
40	20	33	23	12	3	1	11	24	18	5	13	0	28	30	32	14	10	38	29	33	13	9	35	15	15	37	46	18	4	34	41	40	23	16	4	33	40	6	13	47	44	17	36	18	39	4	31	35	27
9	25	42	14	24	39	33	7	32	11	3	24	4	0	5	21	42	46	31	38	33	12	5	24	1	29	20	30	36	38	14	37	23	30	18	26	44	33	22	28	40	26	10	45	2	3	2	15	19	30
18	11	44	10	8	26	11	7	12	8	3	24	30	39	0	30	31	41	22	40	25	19	44	32	17	23	8	37	12	20	35	22	29	5	30	13	14	34	31	14	15	38	41	32	4	33	28	28	28	20
25	20	14	43	22	20	15	43	32	45	11	5	19	16	40	0	25	33	12	12	26	15	23	34	39	3	31	19	30	9	42	26	21	38	37	39	40	42	16	42	34	45	46	30	1	18	15	49	5	11
2	21	4	44	22	7	22	46	13	13	33	9	48	17	3	21	0	31	18	30	35	3	37	22	6	23	1	10	7	30	31	9	15	27	30	14	32	18	38	10	10	4	32	8	24	20	33	15	37	28
39	13	22	36	49	2	2	20	5	37	29	20	49	45	2	17	8	0	35	35	41	48	42	9	38	20	23	19	26	42	46	13	35	22	20	20	45	42	34	6	37	26	41	45	42	5	15	36	36	45
24	7	45	20	26	45	13	22	3	29	35	5	32	26	49	9	9	40	0	33	42	45	22	39	48	35	39	49	35	6	40	35	12	17	42	6	47	33	1	32	37	23	9	12	13	44	15	49	18	17
39	23	40	29	35	49	6	35	12	44	20	1	40	48	2	27	33	20	41	0	5	40	12	11	15	31	20	5	48	24	1	44	11	19	12	38	46	15	2	34	11	34	25	25	23	22	46	34	49	14
8	24	44	11	28	41	14	40	19	49	2	5	5	9	35	23	19	3	22	10	0	37	19	38	47	40	4	38	29	34	5	5	15	14	30	24	40	18	28	9	49	19	11	1	14	44	6	16	40	36
14	49	3	12	47	44	11	34	47	2	10	3	36	43	10	5	9	33	38	26	21	0	42	39	26	36	35	19	43	9	5	8	29	15	37	7	38	7	12	6	49	40	11	20	28	24	47	19	18	23
26	48	10	21	11	15	42	14	36	40	6	15	34	2	35	13	11	18	41	36	27	30	0	26	47	4	25	20	43	25	6	15	47	24	45	35	29	15	44	20	18	25	9	22	47	15	46	14	25	13
16	4	25	29	3	1	29	13	43	25	40	15	27	29	21	15	35	29	47	10	21	9	15	0	17	11	19	6	36	10	49	37	1	9	21	13	14	12	10	30	9	4	25	42	31	36	19	46	2	7
28	29	3	5	4	5	16	39	8	15	18	4	46	43	48	39	46	40	26	17	35	33	5	39	0	35	47	22	31	13	38	5	30	29	27	7	26	2	29	18	45	35	25	8	35	32	5	49	33	45
49	21	43	10	13	5	43	8	33	12	2	12	25	12	9	40	46	37	34	41	16	11	36	32	13	0	31	7	9	42	9	44	42	32	2	38	10	27	6	14	29	2	3	35	42	49	26	26	28	42
16	47	16	33	24	26	17	32	43	12	49	42	3	12	23	32	28	20	12	25	44	6	21	30	28	13	0	1	16	16	1	20	22	15	7	11	36	28	37	38	10	30	43	1	6	19	7	31	43	15
23	40	45	1	32	41	21	49	9	6	42	19	30	4	40	13	19	11	19	35	48	36	49	4	35	30	44	0	16	31	23	10	28	3	16	12	42	13	30	6	7	43	3	13	36	46	27	6	41	11
48	12	48	44	32	31	6	17	29	33	16	18	13	28	39	34	8	38	33	25	16	38	18	30	4	19	37	11	0	47	26	37	32	6	36	13	19	32	10	9	13	14	12	10	34	27	43	24	12	32
27	26	1	12	48	32	29	49	22	8	19	34	12	39	47	9	1	15	21	30	18	12	41	18	33	2	29	1	3	0	11	2	4	18	14	32	15	44	27	42	48	42	47	47	14	22	40	45	34	2
31	8	4	12	44	17	4	13	15	33	29	5	33	34	33	39	33	17	7	9	7	19	36	15	26	5	27	17	38	29	0	5	24	31	43	15	25	14	44	2	29	38	8	20	48	28	16	32	8	13
10	7	48	8	1	16	38	28	33	20	10	35	26	41	41	26	47	12	15	7	28	16	25	27	47	38	32	36	17	7	28	0	19	22	17	48	41	24	18	22	4	6	3	11	36	31	13	16	17	49
27	16	38	14	26	6	2	29	11	6	2	30	12	44	13	23	26	18	3	22	42	43	21	26	44	34	49	8	35	45	46	33	0	31	39	5	44	29	40	2	12	24	22	24	18	1	37	45	39	7
42	12	20	14	39	12	32	23	44	38	41	23	21	1	41	25	20	27	4	1	12	30	35	24	31	5	11	23	27	10	3	19	34	0	19	37	29	11	28	42	28	5	20	34	36	17	5	22	48	20
9	22	34	14	9	22	17	35	1	11	26	23	40	4	6	29	5	40	7	22	35	9	9	32	16	10	36	48	26	32	25	27	32	26	0	48	6	24	27	21	40	23	37	6	19	13	39	45	40	25
38	38	2	17	14	26	41	1	11	28	20	24	33	14	4	6	33	34	10	29	37	13	47	34	30	7	1	44	14	2	7	19	35	38	40	0	22	23	47	49	2	49	17	21	48	47	9	40	19	9
5	11	45	22	29	13	4	48	17	42	42	38	25	43	2	31	44	42	16	33	4	25	3	8	5	31	41	1	38	1	40	11	44	8	8	30	0	19	42	4	23	28	4	8	30	48	39	18	17	17
27	31	24	35	36	40	35	42	20	35	27	19	25	16	42	14	13	21	45	37	41	9	49	24	34	32	15	42	11	42	31	36	23	17	7	41	3	0	4	6	26	41	5	17	47	31	22	1	43	1
3	32	4	19	1	48	39	23	46	25	10	1	26	8	10	25	36	25	33	43	38	7	1	41	17	21	11	11	13	27	37	9	38	38	45	31	11	7	0	5	44	27	49	43	26	3	21	14	41	22
3	30	31	42	48	11	3	27	41	27	31	22	10	22	39	30	42	2	38	29	30	1	14	37	34	15	29	31	43	49	42	21	49	14	36	18	12	44	45	0	35	43	3	36	12	28	47	9	47	5
18	48	45	46	4	34	36	33	36	30	2	41	39	12	48	3	24	31	21	44	42	30	31	43	26	46	25	9	34	42	25	18	5	23	7	2	37	45	20	7	0	3	24	32	25	30	48	33	34	12
40	11	16	38	3	46	20	25	6	30	22	27	34	13	8	30	23	12	11	24	28	30	21	43	32	20	48	38	12	24	47	38	36	2	12	17	1	4	6	8	36	0	28	32	44	38	30	31	22	11
14	11	34	47	46	2	25	48	41	12	7	25	33	29	26	44	11	41	8	46	18	40	22	35	45	49	25	23	10	27	20	47	19	5	34	12	42	29	48	47	2	9	0	47	27	41	45	5	40	11
32	41	3	44	22	45	24	39	25	31	19	2	16	23	48	40	17	40	14	31	42	48	27	34	28	48	17	43	46	16	1	27	29	42	22	30	5	47	1	46	10	49	21	0	25	1	39	26	42	41
14	35	19	36	47	11	3	3	18	9	3	14	13	2	39	48	36	41	14	1	27	41	31	45	36	36	11	18	38	46	42	41	17	48	2	15	49	47	47	11	38	30	47	12	0	6	22	29	27	44
38	25	27	21	44	37	20	23	37	10	33	1	26	15	1	6	11	18	35	48	13	40	23	13	21	24	34	17	40	36	19	36	29	36	11	1	37	37	15	12	9	37	46	15	30	0	36	21	36	20
47	17	19	9	31	8	19	35	44	10	29	36	49	49	28	17	10	33	23	20	33	6	30	46	27	39	30	27	37	24	13	12	10	30	23	12	47	25	6	40	36	48	34	40	16	13	0	35	44	48
35	29	20	5	15	25	14	27	24	8	34	2	2	36	9	20	9	8	24	47	31	46	15	43	42	34	32	34	21	19	41	49	13	45	41	12	7	18	33	3	45	18	21	18	15	5	24	0	29	37
6	25	17	25	35	3	28	14	43	44	6	10	40	27	49	19	35	12	42	41	3	43	35	33	38	7	29	43	14	8	34	13	32	19	20	4	40	11	17	20	32	11	38	30	8	8	26	16	0	45
37	14	24	45	44	24	43	12	12	32	37	10	48	20	36	41	34	4	5	2	10	5	47	35	13	43	6	24	28	49	20	8	47	22	4	35	2	33	20	38	9	26	18	32	22	17	16	19	29	0
M6
0	38	13	31	33	49	18	45	36	34	27	44	24	31	6	40	48	41	24	35	40	42	35	28	19	15	22	21	45	42	18	39	34	27	6	17	26	31	31	15	15	31	6	19	15	24	6	45	23	27
22	0	28	4	1	45	2	15	7	11	13	20	9	16	10	6	1	7	15	49	39	23	9	35	5	24	45	11	22	10	11	28	11	31	22	44	21	36	41	20	13	10	42	39	17	38	22	29	18	32
7	26	0	36	8	49	33	31	30	20	12	9	12	10	47	6	29	45	30	33	29	36	9	1	18	42	32	11	22	5	12	19	46	45	41	46	34	20	46	42	46	35	3	14	16	1	41	49	37	2
40	34	24	0	39	8	39	3	42	18	26	12	21	39	20	4	8	47	12	33	16	13	22	11	34	10	4	31	26	43	15	21	16	21	37	6	12	41	2	1	20	2	38	9	20	21	19	6	43	6
42	16	40	22	0	7	32	5	45	38	25	14	16	48	42	35	27	21	38	25	36	16	18	1	29	16	20	34	45	39	48	22	42	12	25	8	13	40	40	33	12	19	21	29	45	28	6	30	30	32
21	10	21	13	30	0	7	32	18	11	33	22	37	22	39	46	12	39	42	25	18	32	5	48	37	1	20	43	10	11	43	14	32	33	10	24	28	33	9	34	44	3	20	40	44	10	11	23	2	16
28	2	39	27	1	32	0	29	2	21	49	29	4	41	25	49	35	26	23	2	41	25	44	39	26	34	14	24	42	27	35	4	44	10	33	8	10	49	31	18	20	49	27	48	21	12	24	29	22	21
49	25	39	22	9	34	16	0	49	32	16	43	49	15	10	47	43	13	31	38	30	48	20	7	12	16	14	47	16	34	33	19	17	33	46	31	13	16	5	16	25	10	41	30	14	4	27	29	42	34
22	38	16	27	45	21	45	31	0	43	12	36	42	39	33	46	5	17	41	8	39	17	25	6	37	47	15	26	8	28	26	33	42	43	7	31	49	42	29	26	16	41	34	31	48	41	6	2	48	41
11	17	41	28	2	21	33	14	7	0	17	46	4	6	49	30	17	8	43	34	2	5	13	35	35	34	27	16	49	8	36	45	27	3	45	24	38	10	36	39	45	7	40	2	10	19	38	46	15	26
23	38	6	27	1	33	34	22	28	22	0	41	43	13	30	38	1	49	26	38	20	1	23	28	11	20	19	19	49	5	36	14	17	34	9	28	34	20	28	26	4	7	6	11	47	6	38	41	5	29
25	9	12	48	30	28	9	5	9	21	10	0	14	46	45	4	39	30	35	20	35	16	26	30	11	20	17	39	46	4	7	36	33	37	23	20	2	29	36	38	15	42	21	46	42	27	44	29	1	24
31	36	47	15	30	46	9	33	36	18	29	12	0	8	36	11	17	46	35	15	16	26	28	44	6	40	38	26	26	1	7	26	2	17	41	42	22	14	42	44	23	12	16	8	2	24	14	6	7	35
10	28	13	47	4	10	47	19	46	11	42	6	20	0	21	12	29	49	39	10	28	3	31	34	2	46	45	10	36	1	10	36	36	47	18	17	33	32	48	31	10	13	4	28	6	19	40	42	49	35
45	24	6	6	8	22	32	6	17	25	32	45	14	26	0	39	14	45	1	39	28	22	30	35	13	20	34	3	27	34	18	49	26	1	40	8	24	32	7	44	23	7	36	2	16	6	32	24	27	6
13	5	49	15	34	32	2	38	12	49	34	3	5	44	9	0	31	7	24	26	40	21	47	8	7	34	37	1	20	1	13	17	30	29	47	49	34	46	5	18	43	16	7	1	41	3	38	27	48	48
24	24	35	11	15	1	24	9	38	9	40	15	18	17	35	48	0	11	24	8	30	23	34	33	48	34	8	45	4	27	32	49	17	4	25	46	35	39	28	22	2	6	16	47	48	45	18	22	47	21
16	38	16	25	1	16	14	1	5	8	36	48	31	15	37	40	30	0	24	18	27	45	25	6	44	20	19	11	39	19	28	29	31	11	2	43	13	4	7	19	23	10	16	17	32	38	12	13	40	35
41	44	3	40	19	14	16	37	32	1	37	27	25	20	24	39	43	20	0	7	10	34	18	28	13	9	2	48	26	42	21	36	32	45	15	6	33	48	20	31	5	9	6	20	3	19	24	11	26	34
13	41	18	36	19	42	21	21	34	9	21	43	17	42	5	5	40	43	27	0	18	19	10	26	22	49	6	16	2	20	30	42	17	5	21	8	11	29	48	13	34	46	18	12	36	29	2	31	10	47
39	6	43	7	22	27	39	47	7	45	3	14	4	1	6	39	13	43	15	7	0	31	36	31	8	20	39	30	14	33	38	25	26	32	36	1	28	43	3	28	2	26	22	32	36	27	12	40	26	3
19	17	11	30	7	37	27	1	3	16	2	38	43	37	27	28	16	25	31	3	17	0	4	1	9	39	38	43	29	28	29	35	43	12	45	2	40	12	29	2	38	11	21	1	46	9	7	18	49	25
13	15	32	4	26	23	39	43	5	18	14	46	7	3	1	30	38	40	8	7	29	16	0	2	26	10	41	14	43	15	26	35	27	19	26	20	15	6	36	45	38	48	18	18	11	29	27	11	15	44
38	34	17	10	43	1	20	30	35	28	48	17	44	40	16	10	15	7	24	49	45	45	38	0	23	27	4	9	24	18	24	40	23	7	24	37	39	46	38	19	14	15	4	22	38	29	36	18	13	31
36	24	13	43	1	11	16	6	15	19	43	2	8	11	41	11	38	33	33	24	7	10	29	40	0	37	4	31	48	12	42	13	26	8	25	48	12	12	32	1	39	21	20	11	16	45	14	31	12	38
37	6	14	40	33	31	48	49	30	17	34	19	29	8	2	24	10	6	20	21	34	36	39	24	31	0	22	12	37	17	28	26	42	5	18	43	17	39	7	1	45	32	42	32	31	1	4	10	40	29
33	26	13	9	16	42	3	19	47	4	49	22	35	19	20	7	29	28	2	32	30	34	5	33	24	2	0	35	13	18	5	19	2	26	28	14	2	19	11	16	41	28	20	15	14	9	6	47	37	47
19	5	27	11	13	38	4	3	14	33	1	27	40	22	20	28	9	39	17	9	35	48	3	29	1	33	5	0	20	5	2	9	26	9	26	42	43	25	34	8	42	4	45	34	19	20	19	41	29	41
1	16	35	28	20	3	37	1	20	44	49	32	17	2	18	27	8	7	5	36	11	4	28	20	10	13	40	2	0	31	44	19	37	44	17	32	31	22	33	12	38	7	11	35	8	28	18	22	40	33
3	12	36	15	43	20	25	27	21	48	40	35	30	32	46	14	44	19	9	30	33	35	43	43	15	28	1	27	28	0	36	7	25	22	13	41	22	25	47	44	19	22	13	43	11	14	4	7	41	32
49	5	46	34	14	12	43	2	39	30	8	22	6	19	2	13	42	45	38	41	16	15	19	14	9	19	41	35	15	44	0	1	17	16	35	3	14	24	49	39	44	38	18	18	11	23	11	18	31	20
15	45	28	2	38	29	24	26	26	14	1	44	22	7	47	40	43	9	42	17	28	27	2	7	35	10	23	29	3	24	38	0	3	43	7	17	3	31	19	14	13	24	22	35	19	44	18	25	35	49
6	36	15	31	23	12	33	6	39	7	12	4	10	4	28	2	13	32	42	21	23	27	26	24	9	37	14	1	31	11	43	47	0	10	6	15	6	6	48	21	2	17	31	7	13	7	4	23	34	35
45	15	48	42	38	35	35	26	21	1	22	37	22	47	9	20	6	34	14	23	13	29	46	7	35	47	14	37	21	47	12	23	21	0	36	19	44	5	19	22	25	22	48	24	17	34	12	29	12	35
14	28	39	41	31	16	25	24	15	32	17	47	47	32	3	19	48	1	14	15	16	44	14	45	26	13	42	26	37	31	40	39	19	36	0	32	2	6	34	44	27	38	30	1	30	3	18	33	40	13
24	1	39	25	18	3	16	47	33	28	38	10	13	39	7	34	38	49	42	46	30	40	39	44	8	35	22	30	16	49	36	14	35	21	31	0	6	7	8	25	26	18	29	16	1	48	22	19	19	48
3	46	5	29	42	27	6	5	9	36	31	3	17	48	11	40	10	27	26	24	48	39	21	36	42	11	16	37	29	4	6	44	22	27	41	9	0	34	26	44	48	4	41	41	26	28	15	33	13	16
42	17	37	45	39	41	46	6	32	46	5	33	34	48	15	2	29	29	49	2	41	30	3	38	11	31	14	6	16	35	35	5	27	17	14	27	27	0	42	48	48	47	19	2	32	27	23	15	4	31
49	29	38	47	31	24	27	29	10	16	3	29	41	6	10	13	27	19	24	27	28	25	42	30	44	5	5	43	30	11	6	42	45	28	37	39	10	2	0	24	35	16	11	49	25	1	36	29	12	6
22	20	28	48	2	49	11	22	18	9	37	42	33	5	5	20	28	47	29	30	18	25	26	29	1	4	20	34	49	29	20	23	41	5	42	4	39	23	27	0	31	18	31	11	4	25	9	42	34	11
23	3	1	41	16	6	9	15	5	22	36	35	40	15	11	46	19	1	38	38	9	23	39	12	35	9	32	42	47	11	12	10	21	10	30	28	26	33	5	8	0	19	38	22	42	12	5	7	10	10
3	47	37	43	2	1	26	17	19	18	7	13	46	35	6	1	24	24	23	24	28	47	11	43	16	31	35	8	32	14	1	27	17	22	14	5	20	1	20	48	26	0	25	1	17	22	48	35	27	38
35	11	23	14	6	29	4	49	26	42	9	19	41	41	25	34	2	32	12	44	12	23	32	9	37	20	34	37	4	33	19	13	13	13	24	22	31	45	2	26	40	5	0	12	22	11	6	12	13	23
46	25	48	43	43	48	40	14	26	10	26	16	33	48	28	8	38	22	43	12	17	21	29	32	24	32	28	4	16	49	30	22	48	48	12	37	14	8	36	35	41	3	6	0	7	25	42	36	13	37
2	22	20	27	24	36	30	20	48	8	9	48	3	34	28	17	24	21	21	43	47	11	5	2	37	24	11	42	31	5	24	44	40	11	16	37	1	18	36	22	9	11	30	26	0	42	42	24	21	38
19	9	18	35	19	49	8	8	10	21	26	48	25	31	36	6	20	41	30	20	42	26	24	24	21	27	27	42	41	36	18	16	9	48	46	19	12	17	22	21	26	43	14	33	7	0	25	25	8	18
24	17	31	18	48	33	25	6	23	26	29	37	39	1	25	46	24	16	23	36	30	20	4	16	40	45	25	26	39	13	47	26	29	36	12	2	22	20	7	11	48	2	34	7	8	4	0	26	47	4
38	2	31	33	42	46	8	37	12	23	32	11	38	18	27	5	48	18	42	40	18	32	16	45	32	43	44	10	48	19	34	41	3	38	31	41	42	8	7	19	4	24	43	20	30	3	9	0	35	43
33	35	19	25	30	33	17	47	46	15	16	43	46	36	27	21	44	15	45	35	11	6	28	13	33	46	46	5	25	16	38	34	24	19	46	49	44	8	24	26	35	3	40	38	40	38	32	33	0	13
8	7	49	46	24	21	32	9	47	17	17	5	1	20	11	31	27	33	17	37	13	39	48	7	13	47	18	27	34	19	5	11	27	11	30	23	19	13	6	11	23	8	10	48	22	18	39	28	36	0
M7
0	14	13	35	7	46	47	13	17	47	7	23	24	30	26	38	35	15	31	13	25	28	27	6	19	40	13	5	46	8	11	15	21	43	37	34	30	36	5	9	10	1	18	34	16	46	15	24	39	48
22	0	7	11	2	41	12	1	35	47	16	47	48	41	21	47	3	5	44	6	13	3	2	4	12	4	11	22	32	14	23	42	15	36	10	27	30	45	3	3	10	20	14	5	36	26	5	27	41	41
42	35	0	39	25	6	29	36	2	43	15	36	40	22	39	39	19	45	6	18	35	6	29	30	27	23	5	49	32	5	16	34	36	22	5	38	8	36	39	25	40	14	23	45	39	35	22	20	29	4
11	31	9	0	3	5	9	3	7	43	4	6	36	15	28	43	42	34	43	35	15	5	29	35	45	31	28	30	5	25	28	38	38	39	46	13	27	23	7	20	22	20	1	15	45	19	43	29	30	21
48	43	16	17	0	43	41	3	31	41	9	5	29	6	34	23	20	49	48	19	45	32	38	18	45	24	7	6	18	21	24	28	48	6	19	17	34	14	49	42	24	25	46	34	8	20	15	44	13	36
14	20	5	40	9	0	33	33	44	4	21	46	26	20	45	31	30	1	49	38	32	42	11	15	6	40	25	31	10	41	9	11	13	10	27	5	37	18	47	7	19	3	22	32	47	23	7	15	45	27
2	28	39	38	48	17	0	42	15	35	12	35	41	36	37	45	39	41	15	22	40	35	44	37	28	21	49	44	5	6	26	36	35	12	21	23	43	34	1	32	17	3	9	31	2	16	1	12	2	16
27	45	41	8	33	27	27	0	7	15	48	45	48	27	46	18	25	7	18	5	40	44	7	22	44	24	5	24	49	38	48	3	12	2	4	24	21	17	47	27	48	42	18	43	11	8	29	14	38	42
8	6	30	33	31	30	7	4	0	33	26	9	21	3	44	38	20	40	26	21	46	47	27	44	37	28	8	33	44	1	16	4	6	22	19	8	7	8	19	13	41	21	34	29	2	31	31	14	29	47
29	46	28	6	6	20	3	32	10	0	24	42	35	16	26	43	40	5	20	14	23	38	17	22	41	41	16	15	1	19	7	1	16	48	25	27	41	13	31	33	2	37	7	39	18	8	16	23	38	11
4	12	49	17	2	26	42	4	38	27	0	39	14	42	23	31	39	28	15	5	27	13	19	33	39	22	6	42	34	37	29	39	25	37	12	42	8	28	30	43	37	30	38	35	23	48	4	30	47	19
21	33	5	27	46	46	27	26	44	16	40	0	6	17	15	23	42	34	45	41	36	3	37	25	46	27	35	3	6	20	45	3	48	30	49	22	17	44	32	28	41	40	3	22	43	13	33	17	28	5
35	22	45	8	38	13	5	9	47	12	1	20	0	6	26	13	35	11	36	3	37	5	30	9	8	28	26	26	11	12	11	1	9	24	30	4	6	36	8	40	27	40	11	23	21	39	25	47	36	10
29	35	42	1	37	33	46	28	48	32	25	16	42	0	2	35	10	23	38	49	40	31	6	9	41	8	16	9	23	48	31	40	23	7	42	25	29	14	38	37	48	37	44	39	6	41	18	33	24	33
4	36	34	19	17	13	40	14	27	39	29	30	32	11	0	15	3	33	40	22	38	11	41	44	41	1	6	40	25	26	7	37	18	36	8	23	19	11	30	34	42	9	37	28	42	11	18	32	25	43
42	35	6	8	5	34	10	40	48	29	47	46	19	49	12	0	48	4	36	42	36	34	33	4	14	48	40	48	20	40	8	8	39	27	44	18	49	2	42	43	9	10	26	2	37	37	2	25	33	3
25	14	12	29	5	11	4	38	30	48	2	13	12	12	14	36	0	2	46	25	43	5	43	6	49	33	20	1	38	15	42	13	32	13	22	20	3	28	29	39	38	13	29	40	27	45	22	42	6	27
23	37	18	20	10	31	1	2	21	29	6	49	26	36	12	46	17	0	13	24	44	22	40	5	48	18	13	33	48	2	27	15	18	42	9	1	43	46	44	14	28	15	9	27	47	12	33	8	44	14
5	44	1	6	25	9	47	29	37	35	44	36	47	39	42	14	25	43	0	42	8	4	9	9	46	12	3	39	14	13	29	49	41	29	46	7	45	20	44	17	16	21	47	42	41	15	47	39	9	40
34	44	45	24	26	37	49	9	33	37	20	12	30	25	39	35	44	33	9	0	3	23	10	19	15	40	36	4	18	5	23	12	25	42	36	16	23	25	4	49	6	33	41	45	44	10	10	12	40	38
10	14	7	25	29	19	11	39	6	40	26	19	30	23	15	17	15	24	23	34	0	46	6	4	18	36	29	8	11	12	28	24	5	25	29	18	5	25	33	41	30	14	40	33	42	19	4	14	42	37
26	1	3	3	19	43	14	41	38	25	21	15	19	36	6	30	23	27	30	45	19	0	31	4	12	21	18	23	20	29	39	32	23	31	35	47	6	26	8	3	11	15	47	22	23	27	42	35	36	16
28	42	34	18	46	7	33	24	33	4	37	36	28	33	49	44	10	7	36	4	21	24	0	34	25	9	42	14	11	23	18	13	30	19	3	35	16	44	46	47	17	13	20	47	29	32	26	4	27	13
37	25	15	48	24	37	14	19	2	39	41	25	12	39	35	3	37	37	31	23	34	11	44	0	20	4	2	20	19	20	34	38	36	17	47	14	47	6	29	49	16	17	21	3	14	6	9	5	34	48
30	25	24	39	14	26	45	29	19	39	25	8	49	37	25	40	28	41	16	30	6	27	20	47	0	6	41	20	20	20	13	25	3	49	44	27	38	30	6	10	18	44	27	1	15	18	35	28	23	39
25	42	13	47	17	27	48	11	19	39	11	35	31	37	37	28	25	7	14	21	7	12	34	47	39	0	13	48	19	45	49	2	1	34	11	30	19	16	15	21	28	9	36	12	26	37	39	12	47	40
26	7	31	24	30	36	15	43	46	47	39	29	45	29	29	24	41	13	22	45	36	7	21	48	40	40	0	23	5	4	2	35	5	41	15	43	30	22	30	12	20	3	32	30	1	29	32	41	38	48
48	42	6	26	45	25	38	47	46	17	10	5	4	20	16	49	41	22	25	22	12	22	15	46	8	49	24	0	13	3	48	10	37	33	1	18	48	21	1	42	20	13	11	31	22	34	23	16	39	49
19	32	46	25	4	36	13	7	17	15	17	4	12	8	6	20	3	33	43	9	29	36	37	1	17	46	39	29	0	19	29	41	7	20	2	37	8	37	4	1	47	11	37	15	19	39	42	41	18	40
27	32	32	14	13	44	8	6	33	43	42	24	24	25	38	46	9	19	40	26	3	26	29	23	10	32	2	36	11	0	23	43	40	49	15	8	33	23	4	11	10	21	27	1	8	2	6	27	5	6
42	1	45	31	21	32	1	48	1	22	6	48	22	20	13	29	19	47	35	36	43	20	22	41	33	45	34	6	35	13	0	37	20	38	9	44	49	36	21	6	22	3	22	48	29	2	28	7	18	3
6	44	30	7	26	44	25	13	42	15	17	10	42	20	4	15	31	43	32	35	40	7	49	29	13	15	14	15	6	3	43	0	3	32	3	1	7	5	39	3	17	24	10	3	18	19	17	36	11	27
37	18	49	17	34	49	21	25	49	4	7	47	19	11	33	24	30	3	19	9	31	8	4	44	28	20	35	3	22	22	44	1	0	41	6	28	12	29	44	25	10	47	36	14	6	6	49	38	19	16
7	38	29	1	24	33	24	24	15	34	13	21	42	11	2	45	11	36	14	42	5	41	34	49	40	14	37	3	17	41	1	24	46	0	25	34	41	35	20	5	49	20	25	23	29	4	34	23	11	11
4	48	33	2	24	39	44	29	28	11	30	43	45	48	38	18	5	26	8	26	32	49	7	8	10	15	49	36	20	4	22	45	28	20	0	23	10	31	32	21	8	15	46	48	36	29	34	18	31	22
38	12	32	44	38	43	38	33	28	20	49	1	26	35	20	23	16	43	1	24	42	13	17	28	25	48	30	4	26	44	10	35	37	28	41	0	30	21	6	10	29	9	15	27	37	17	32	1	18	7
34	49	19	18	2	36	11	33	9	32	8	36	20	39	20	21	40	39	21	19	37	9	27	8	40	27	20	48	14	19	12	42	48	33	35	24	0	18	34	48	16	43	28	8	20	21	21	20	19	41
15	2	20	28	10	43	37	40	35	20	37	6	18	15	8	45	25	46	49	39	18	16	22	49	28	2	29	47	16	42	44	36	7	10	35	19	26	0	38	13	43	13	34	42	5	5	8	18	48	4
31	49	41	32	33	12	11	19	14	10	20	2	13	40	38	5	36	41	45	10	13	9	13	45	40	21	31	1	36	20	39	45	20	1	45	10	8	48	0	46	12	48	1	32	17	22	33	23	49	28
37	40	1	9	6	48	47	44	23	30	38	13	44	9	29	47	47	23	21	42	5	10	45	39	37	3	16	30	31	24	31	35	40	38	25	11	42	33	6	0	33	41	15	15	15	3	10	34	5	6
43	28	26	10	40	33	48	48	19	13	9	24	36	42	11	37	17	2	43	14	36	35	18	16	24	41	38	38	5	39	33	9	20	26	45	49	13	15	16	9	0	44	38	49	35	14	27	12	36	4
33	25	22	12	25	43	29	19	40	44	26	15	27	30	11	19	4	23	18	34	6	13	35	14	34	11	17	23	27	1	12	24	14	12	26	49	40	31	11	34	49	0	11	26	24	27	47	35	49	33
26	13	2	46	37	40	34	7	15	8	37	37	42	11	49	23	4	41	24	24	32	31	25	18	32	26	24	23	39	26	21	29	13	43	43	4	17	33	35	26	2	24	0	43	3	7	48	2	32	41
42	43	42	26	10	20	10	19	48	18	46	15	45	39	42	31	24	24	20	9	14	21	24	27	18	36	20	17	9	46	48	8	9	6	38	20	7	22	2	47	46	18	32	0	36	25	10	12	22	24
43	14	48	29	15	46	15	20	21	35	49	47	1	17	27	27	37	30	4	27	4	33	12	8	49	15	20	17	34	15	18	24	38	30	49	20	17	2	4	45	14	45	35	36	0	27	22	13	42	7
14	41	24	14	8	21	48	43	29	37	41	11	18	41	7	26	37	6	22	46	14	48	40	41	49	10	21	36	37	23	6	12	9	30	40	20	41	3	20	44	12	13	40	37	24	0	8	17	15	32
40	16	47	17	22	34	38	46	13	13	37	23	5	26	38	11	42	18	16	15	48	3	7	49	23	23	9	27	22	3	43	36	3	24	36	10	13	37	1	35	34	44	35	28	47	18	0	9	42	33
38	15	21	18	12	42	29	2	19	17	8	33	21	38	46	24	17	2	6	25	40	36	17	24	19	34	40	32	5	26	1	33	33	6	15	36	43	27	40	34	28	3	34	29	34	11	35	0	14	7
5	30	30	21	11	44	30	7	35	35	30	15	34	9	4	24	48	17	45	25	44	22	11	19	3	15	41	14	5	2	8	4	28	21	16	32	2	17	9	49	38	26	6	34	7	17	34	28	0	26
11	4	16	37	14	26	30	3	44	40	37	4	22	25	9	30	31	35	16	44	39	17	8	39	16	14	9	6	49	43	10	43	42	35	11	12	8	26	19	36	7	39	38	23	44	10	20	40	25	0
M8
0	10	40	37	16	18	11	33	45	2	36	28	8	30	24	28	20	32	31	32	43	15	14	34	24	43	9	15	45	37	27	9	31	26	10	36	48	28	10	12	43	5	26	6	17	20	24	33	18	1
34	0	23	15	46	10	23	8	48	47	15	28	11	19	13	43	36	8	10	45	17	23	15	26	4	42	5	31	18	4	30	21	16	8	19	14	30	25	31	6	42	11	45	20	12	25	46	15	11	3
34	11	0	8	38	29	49	19	7	26	27	9	6	15	29	17	24	15	36	31	45	31	5	4	10	13	24	4	20	33	14	36	41	48	2	29	16	39	7	13	47	8	10	7	13	8	6	12	32	16
25	15	26	0	44	30	2	16	10	19	25	24	13	24	14	6	49	26	14	32	30	30	38	1	22	9	2	7	48	24	23	19	38	26	4	41	39	45	48	4	14	11	45	2	2	39	14	8	44	42
46	34	29	40	0	40	9	26	28	17	10	3	26	39	1	7	36	23	36	33	4	46	9	36	30	13	12	38	17	19	43	3	10	17	40	16	45	5	22	13	1	2	41	7	13	18	24	8	3	1
26	39	44	41	20	0	26	34	5	7	31	30	34	38	3	38	18	35	16	42	10	46	9	33	34	14	19	1	31	20	36	22	20	42	21	45	19	37	15	5	25	36	16	13	25	4	32	38	48	26
3	16	23	46	28	8	0	23	36	22	17	16	2	48	44	19	40	38	23	5	15	22	49	11	41	47	14	26	28	39	21	9	37	46	39	7	42	18	33	4	10	22	7	29	14	11	18	37	41	45
33	19	14	48	4	25	9	0	5	44	39	35	33	49	5	15	16	24	12	13	12	44	43	32	43	23	42	32	48	44	20	37	1	20	21	4	33	26	10	22	37	29	32	30	32	37	44	23	27	20
31	42	27	1	36	43	39	36	0	42	15	49	23	16	41	5	13	13	10	1	3	36	5	21	6	36	1	17	46	42	44	44	17	1	23	19	39	6	29	30	28	35	4	10	6	28	34	9	32	36
15	9	43	6	28	1	25	5	15	0	25	43	14	35	29	39	45	4	24	20	3	21	12	43	40	20	36	46	11	17	10	37	26	11	1	38	46	9	47	3	1	24	6	42	31	16	40	3	33	39
17	32	10	43	4	41	44	20	45	47	0	26	9	4	24	9	42	6	47	18	4	2	16	10	12	20	11	19	31	35	10	22	44	8	38	36	15	44	44	3	38	14	13	38	1	33	26	49	15	37
12	6	20	27	6	30	43	36	14	6	41	0	18	2	13	38	38	27	23	1	47	36	34	45	30	48	15	2	40	18	9	39	44	43	27	4	13	27	27	15	34	21	23	29	40	9	47	49	39	14
35	8	1	17	25	41	41	9	28	41	12	10	0	35	33	13	34	26	49	18	46	33	7	5	1	9	46	4	48	10	10	25	39	22	40	11	48	28	9	4	1	5	17	35	1	21	22	11	49	27
44	24	46	46	30	47	21	3	13	5	27	22	12	0	44	19	8	45	10	5	14	13	37	31	22	47	44	29	47	38	43	31	32	21	37	20	33	27	23	3	48	18	37	39	2	3	32	46	48	15
2	24	17	49	17	8	17	20	20	22	40	20	49	47	0	23	7	35	26	23	25	1	17	46	24	46	18	6	39	9	38	26	36	13	10	38	48	33	41	25	42	42	42	14	15	6	41	11	22	17
33	15	30	13	35	46	8	21	32	33	32	29	39	4	38	0	42	25	48	20	33	39	39	40	36	43	25	26	20	31	34	33	8	27	22	31	48	29	6	20	48	43	23	3	32	19	23	49	13	48
31	8	26	13	4	10	28	15	22	13	39	13	13	1	2	6	0	25	1	10	24	33	28	17	48	9	25	45	22	5	38	18	22	37	36	28	23	19	18	39	38	46	43	43	7	42	28	18	28	22
41	7	42	44	20	8	33	11	33	27	20	46	20	26	1	35	13	0	20	31	37	47	38	29	27	41	48	9	49	17	47	18	25	39	11	9	6	4	4	21	45	18	25	9	28	4	25	2	10	26
40	2	17	6	44	44	37	38	4	41	39	10	3	15	15	12	4	49	0	38	7	32	25	18	26	18	12	6	42	29	7	9	46	37	46	18	16	22	27	41	23	46	4	45	46	22	17	36	9	28
40	19	24	20	46	25	13	23	28	15	35	23	11	2	29	21	30	6	21	0	34	11	43	41	46	19	32	9	13	38	4	11	33	9	27	22	40	23	6	39	40	31	21	25	15	22	20	7	10	17
49	35	40	15	42	44	11	36	39	24	8	7	44	32	32	33	45	37	17	33	0	39	24	7	21	18	48	34	10	15	47	32	24	23	42	48	48	25	43	31	31	39	16	11	13	5	19	47	41	12
24	18	41	48	41	44	23	27	39	35	11	2	1	30	18	1	42	16	9	20	4	0	32	6	30	49	48	10	45	48	11	14	17	8	10	3	44	26	9	39	2	21	43	22	13	47	2	16	15	9
44	31	1	48	28	35	41	37	22	14	46	30	14	30	6	32	8	8	31	17	42	47	0	22	17	7	4	46	1	8	34	48	33	35	40	27	10	14	24	29	34	2	6	1	6	10	21	28	11	24
37	6	10	21	1	45	41	46	30	20	6	17	44	42	26	38	47	4	24	21	49	31	40	0	33	29	20	48	11	20	36	27	19	11	5	9	8	26	13	5	8	40	13	40	11	16	37	18	47	3
27	36	19	17	13	2	34	40	32	16	40	7	37	33	49	34	7	24	49	31	39	12	5	35	0	24	14	29	17	29	9	9	45	32	49	8	5	17	6	44	10	30	44	30	17	41	3	22	4	30
24	28	44	22	11	27	27	19	17	23	22	20	18	13	2	47	20	26	21	17	37	28	20	24	5	0	25	35	14	26	38	2	37	34	11	22	35	45	38	44	28	23	2	1	12	35	49	36	42	15
45	45	15	24	20	19	42	47	26	44	23	16	1	1	30	35	3	46	34	6	21	28	47	38	37	26	0	13	20	6	4	28	8	25	36	42	40	28	15	25	8	48	31	40	3	5	11	4	16	38
27	49	21	32	31	42	49	11	23	36	47	16	44	6	27	7	27	8	3	34	32	34	2	16	33	43	36	0	48	30	42	22	42	44	44	22	3	22	42	26	12	15	47	19	12	39	20	10	18	27
1	23	40	7	44	26	11	36	13	37	25	44	24	7	23	11	10	27	34	31	43	20	43	27	16	48	24	7	0	6	1	23	19	38	8	24	37	48	12	27	28	31	45	25	30	16	30	23	9	14
6	3	3	10	15	17	36	14	25	29	4	39	1	21	16	17	8	33	39	5	21	19	49	37	19	37	49	29	9	0	21	2	7	16	4	42	20	25	3	18	21	5	4	23	38	16	43	3	12	19
39	36	37	47	2	38	23	36	49	5	12	17	30	24	14	15	10	21	20	1	33	1	18	12	20	49	13	14	10	41	0	28	31	38	20	40	17	48	36	35	46	45	34	10	36	1	40	42	2	13
24	21	19	1	13	40	43	48	4	12	15	25	20	47	30	44	41	19	38	44	34	22	17	7	18	5	4	15	37	27	20	0	28	45	4	42	6	33	26	13	8	46	29	48	26	3	34	43	49	18
48	2	34	23	38	34	12	20	22	14	42	30	32	11	44	48	12	14	13	41	19	7	13	24	47	1	38	29	27	45	14	29	0	20	28	22	46	40	5	40	46	30	20	37	8	1	6	24	5	6
11	43	18	17	26	27	24	41	15	21	14	47	4	23	17	40	23	23	48	41	7	15	39	35	31	39	36	5	33	48	2	16	40	0	29	45	20	46	13	20	28	41	19	48	43	32	34	37	32	23
12	23	7	33	9	31	37	13	23	7	44	16	24	39	34	41	14	5	34	11	28	25	14	36	11	48	42	37	28	9	37	45	25	15	0	4	2	42	39	27	39	47	36	1	20	31	30	22	36	49
29	16	31	29	41	48	15	12	8	2	22	7	16	11	41	8	20	7	45	33	24	37	39	9	19	30	9	21	3	6	30	49	3	30	39	0	21	7	23	47	23	44	7	30	46	3	25	42	14	35
43	20	46	29	41	2	35	23	22	37	17	45	30	7	37	10	42	36	5	48	19	13	27	3	21	5	43	29	19	13	12	8	44	48	45	39	0	5	19	42	41	41	6	17	13	5	34	45	36	23
45	30	34	10	47	45	2	39	31	21	17	49	49	25	36	44	24	41	27	34	43	31	46	34	11	40	20	5	15	19	18	47	6	43	17	10	41	0	34	38	33	38	21	2	38	32	41	19	32	11
41	5	27	34	37	33	24	40	28	46	24	28	10	42	42	28	40	39	25	45	33	32	4	1	9	33	23	19	6	7	1	39	4	20	22	5	31	24	0	15	30	46	37	20	38	32	45	41	41	13
33	3	16	18	33	31	38	24	24	8	5	25	49	46	14	30	10	1	29	18	17	38	8	32	47	20	42	11	17	30	45	2	16	33	16	49	12	24	14	0	29	47	16	12	17	49	21	5	23	2
35	36	38	33	6	46	46	46	15	19	29	46	48	9	43	45	46	16	24	19	20	35	6	44	32	47	6	8	27	3	30	8	39	13	20	25	6	15	21	18	0	13	27	32	23	40	21	24	18	13
43	23	28	37	6	12	16	13	2	30	27	24	18	1	31	18	2	23	16	9	25	12	7	39	8	22	38	4	38	27	17	46	33	12	39	20	21	27	27	28	43	0	36	12	24	32	26	12	17	4
43	6	11	34	47	24	34	37	16	33	39	38	32	14	3	26	43	29	43	25	3	7	14	26	32	17	43	44	1	29	23	26	14	23	39	43	27	41	7	22	38	1	0	5	19	19	20	26	21	3
1	11	3	14	47	23	35	34	46	3	24	13	1	18	35	1	19	48	48	26	45	28	47	22	33	9	45	12	34	5	24	12	29	5	34	8	5	26	35	20	8	24	9	0	1	31	20	49	6	22
25	39	39	35	41	37	14	26	14	5	35	43	17	47	29	21	36	45	4	44	9	27	27	6	37	8	48	14	43	1	16	35	30	3	36	24	3	40	19	22	37	2	11	22	0	33	12	45	3	45
7	44	2	23	41	4	1	23	48	39	31	39	23	4	39	7	17	9	36	33	44	3	18	3	12	7	34	15	41	38	31	3	31	45	19	38	39	7	48	18	28	3	3	4	9	0	25	39	26	6
19	13	24	13	39	10	32	29	40	32	16	23	21	37	5	28	45	6	40	18	7	10	11	14	18	38	22	9	24	17	37	38	6	5	32	45	15	44	7	19	26	6	30	45	39	27	0	28	1	4
33	29	2	29	44	46	41	9	33	23	29	28	28	20	27	27	28	27	23	27	20	10	13	25	33	42	7	27	33	29	47	5	36	24	2	14	12	20	18	1	24	24	34	1	7	32	31	0	16	12
1	8	29	35	26	16	46	31	31	12	3	13	43	10	3	13	9	9	9	26	35	18	13	32	37	44	37	11	10	2	26	48	6	43	39	39	48	1	49	5	15	23	18	2	34	26	28	25	0	34
44	23	46	45	36	15	21	14	38	24	25	18	35	36	43	14	7	33	32	20	8	37	47	3	9	12	8	43	27	30	47	19	14	25	38	12	37	23	39	47	49	27	10	4	23	45	16	15	7	0
M9
0	46	15	40	1	14	40	47	44	8	18	42	38	34	17	44	6	44	15	45	6	49	26	22	20	1	49	37	2	26	48	12	34	27	39	12	10	28	4	40	15	15	43	32	31	36	36	13	38	20
40	0	14	45	9	7	13	1	33	9	23	2	24	35	25	11	30	9	41	36	28	45	17	8	25	21	42	20	6	19	39	12	2	30	38	28	7	47	39	45	48	22	41	46	8	35	43	41	25	25
38	1	0	10	12	3	22	18	13	30	15	33	43	7	11	48	1	43	47	3	49	9	19	6	4	4	7	17	20	18	13	36	43	17	42	16	37	15	11	8	9	32	20	35	1	16	48	29	20	9
15	1	7	0	22	39	48	43	46	45	15	27	21	44	3	19	45	21	38	45	11	34	44	23	17	33	47	44	30	25	25	4	15	13	2	45	21	35	7	6	40	21	39	2	38	36	20	6	46	16
14	47	40	13	0	11	45	26	49	29	43	33	17	25	22	1	42	7	36	38	40	44	31	30	37	46	9	22	21	48	12	46	24	30	42	46	20	26	42	36	5	15	28	23	37	30	43	4	24	13
34	48	46	11	36	0	43	41	18	21	42	13	3	43	24	16	20	18	11	37	46	5	48	32	8	42	15	28	49	39	21	48	15	33	18	1	40	13	33	25	10	28	34	11	13	9	13	26	16	1
7	6	12	2	44	8	0	36	43	39	15	5	29	49	25	7	17	3	9	4	29	33	25	46	31	49	41	16	18	1	15	46	4	1	21	44	24	35	4	2	4	45	6	26	35	41	33	28	6	3
32	6	29	7	23	28	45	0	7	17	11	28	30	7	38	32	49	35	8	44	10	36	25	6	46	40	4	29	3	21	17	9	8	42	35	31	45	43	26	48	41	29	5	2	46	47	16	24	3	10
44	5	37	15	4	47	22	39	0	38	35	43	9	9	24	49	13	20	32	18	8	35	33	4	4	16	48	48	5	1	11	47	12	36	27	14	44	6	39	21	6	42	27	27	33	37	38	1	29	18
2	25	29	23	3	13	47	25	31	0	39	12	14	9	16	16	48	8	16	24	22	6	6	26	36	30	22	2	34	24	26	30	27	38	44	19	28	26	1	49	19	12	26	25	22	24	31	4	31	19
49	49	16	33	6	17	1	19	49	41	0	28	43	30	15	26	13	33	28	15	35	19	31	47	5	21	17	40	1	7	12	21	9	47	8	24	23	18	29	28	21	35	48	44	48	11	35	32	25	27
8	18	23	35	45	20	23	37	32	31	21	0	47	37	38	2	23	33	6	38	4	42	20	12	9	39	8	28	8	6	45	48	40	48	44	48	31	27	5	32	46	35	6	6	2	33	40	45	18	2
42	6	42	22	38	21	3	1	40	9	48	42	0	4	34	17	39	25	32	8	43	32	49	19	7	21	13	6	8	18	17	3	36	38	17	31	14	5	26	6	36	10	7	6	22	27	7	30	11	13
10	31	42	40	39	32	1	33	40	40	27	46	17	0	27	3	21	24	29	43	1	7	8	20	35	25	42	27	22	18	31	40	34	28	32	8	31	20	17	38	45	24	26	16	38	23	20	14	38	45
16	23	20	44	5	48	31	6	13	47	31	44	49	48	0	37	48	12	1	13	11	9	12	9	37	25	5	41	36	38	24	15	10	36	42	15	18	45	33	8	30	13	28	30	41	46	1	43	44	33
17	6	28	44	31	23	41	41	31	36	37	18	34	43	11	0	1	26	46	12	32	9	27	16	27	25	32	36	9	7	45	5	30	34	40	44	17	27	32	37	20	39	40	29	24	39	43	7	37	30
39	6	22	27	46	21	37	47	34	33	4	21	11	30	49	11	0	7	28	22	1	32	14	48	32	6	41	3	28	5	16	38	42	25	36	26	11	20	39	11	13	19	14	28	43	28	33	6	39	6
2	11	20	14	46	3	17	21	31	24	34	38	23	16	32	47	35	0	9	3	3	6	10	47	3	34	6	17	9	43	31	42	47	36	37	25	17	3	5	10	7	29	42	36	32	23	45	3	10	37
38	13	42	40	36	31	38	26	42	30	38	1	21	26	4	5	9	24	0	27	33	13	33	23	43	37	7	44	27	20	35	26	30	37	22	40	5	35	5	15	47	19	15	22	9	40	27	5	32	38
45	31	32	31	19	11	7	19	15	5	8	49	48	18	49	33	31	40	46	0	41	12	4	31	47	49	42	35	20	16	42	41	39	37	9	28	3	2	48	28	26	20	17	2	11	39	20	32	5	11
36	3	32	7	15	38	19	5	48	10	5	42	17	9	34	16	41	39	12	26	0	1	42	25	31	7	8	43	37	27	17	36	49	21	47	25	49	39	2	4	47	18	28	9	42	39	10	45	18	7
23	36	42	14	10	14	47	24	40	9	6	42	42	16	7	31	45	29	8	8	34	0	48	38	46	45	11	29	33	21	1	2	29	24	42	10	22	18	17	15	40	25	29	37	30	47	36	12	4	46
47	3	32	22	31	32	6	33	7	1	29	20	30	40	32	24	40	43	44	27	39	24	0	48	1	48	9	15	24	42	11	24	40	21	18	12	27	9	29	38	25	10	38	19	35	21	31	36	46	30
14	35	26	14	9	17	21	24	28	30	12	35	23	24	7	34	40	30	38	16	23	10	18	0	46	2	5	45	11	38	9	49	5	1	33	29	2	49	34	3	30	36	22	4	17	35	32	11	12	16
8	19	16	5	9	21	14	36	48	30	44	46	16	31	47	41	11	25	45	18	13	24	7	5	0	44	42	45	4	25	7	20	44	47	10	3	5	46	10	22	16	23	22	18	9	22	29	33	26	29
28	14	34	37	27	12	37	13	21	34	6	29	38	19	38	38	25	48	4	5	20	49	49	12	1	0	32	49	38	16	27	8	33	31	6	11	15	20	18	21	2	33	45	35	17	35	6	12	7	9
3	23	42	1	39	28	6	48	41	12	22	6	37	42	1	49	49	4	26	20	15	25	46	26	2	10	0	7	19	23	37	11	25	45	29	36	17	4	21	9	48	6	8	31	49	14	44	46	27	2
16	24	11	11	47	43	44	23	12	18	46	2	47	45	19	35	35	38	44	19	33	33	35	37	20	19	35	0	47	35	23	31	46	42	33	37	26	22	47	35	38	47	16	13	17	27	40	9	10	45
24	24	28	1	3	43	3	48	37	42	18	42	12	7	1	26	2	9	2	14	24	44	29	39	13	3	32	22	0	12	38	35	12	39	8	41	40	1	7	23	17	35	35	1	2	36	22	6	1	1
48	42	17	49	23	29	32	20	39	6	33	10	28	8	29	4	13	35	5	21	13	21	14	12	20	9	6	49	25	0	33	46	24	40	21	13	10	17	28	38	45	33	34	18	20	25	1	37	9	20
3	23	16	47	26	1	9	36	1	3	43	35	37	38	36	35	24	10	1	29	18	39	46	33	8	43	12	1	17	19	0	21	20	2	11	1	49	20	6	21	18	21	1	43	2	44	45	28	44	8
1	29	8	45	38	25	27	6	31	42	2	39	6	27	20	8	13	47	7	39	30	38	32	11	12	11	45	17	30	9	43	0	42	11	12	5	12	7	34	39	2	10	3	3	28	18	37	41	13	9
42	9	24	41	46	36	48	7	39	17	40	3	14	21	16	45	25	23	21	35	22	36	9	18	17	3	23	26	34	15	26	8	0	28	45	18	29	33	26	9	14	13	40	31	13	49	28	33	45	6
15	32	34	35	18	31	46	48	26	42	40	24	37	22	2	11	7	19	49	30	36	2	17	46	16	37	10	44	32	13	29	1	33	0	6	34	19	25	17	47	42	24	35	18	33	19	41	15	3	36
28	30	18	38	34	7	42	19	32	33	3	11	42	1	18	34	10	34	14	38	3	28	31	23	28	12	15	31	40	5	30	24	2	19	0	25	42	1	33	36	4	18	22	45	6	26	44	23	23	14
6	11	23	17	4	31	25	25	17	40	11	45	8	28	16	49	32	28	48	39	2	1	45	29	5	23	22	32	27	44	5	41	34	46	35	0	32	45	44	10	11	23	7	8	45	45	41	3	34	6
1	41	28	25	42	48	26	8	5	28	47	46	20	35	21	30	7	18	9	31	8	29	48	16	33	33	46	20	24	32	24	44	14	48	38	22	0	3	43	48	49	31	7	24	35	47	24	33	20	22
4	49	46	43	14	31	25	11	15	23	14	43	47	39	25	36	32	30	19	10	33	17	46	20	2	30	5	34	29	16	2	25	12	2	36	8	19	0	29	25	4	39	14	46	23	45	6	39	34	44
9	2	26	1	28	6	9	22	3	49	49	10	7	42	43	3	49	47	45	26	42	33	47	12	25	14	1	24	3	4	24	26	16	9	48	2	9	30	0	7	38	41	48	20	25	49	28	2	22	22
39	32	41	1	14	4	46	28	47	20	31	12	2	15	6	39	39	11	17	16	20	48	37	15	9	35	36	43	15	23	4	36	24	31	49	11	24	3	22	0	14	9	38	14	22	35	18	48	6	47
30	8	33	16	38	15	8	22	43	6	37	27	30	23	4	23	41	7	10	16	49	31	35	43	21	23	22	27	40	10	33	45	9	6	25	5	7	34	21	11	0	3	43	38	12	39	40	27	15	44
49	13	37	22	30	15	27	44	8	9	21	36	34	33	3	37	22	34	19	4	19	22	31	33	15	5	32	18	6	48	32	11	37	15	27	20	37	41	20	46	20	0	28	28	9	3	5	44	36	40
31	33	4	8	44	19	13	32	49	22	30	8	3	20	41	5	39	23	16	34	17	10	22	11	35	28	9	34	43	4	17	24	16	20	2	2	38	44	31	12	39	35	0	37	22	16	24	26	15	38
6	5	17	15	21	28	34	35	24	33	37	31	20	20	10	20	42	19	15	19	8	37	18	46	44	48	15	6	4	39	6	43	48	6	44	21	9	32	41	38	35	28	9	0	45	40	27	10	49	12
46	25	21	42	41	17	44	43	20	37	30	19	38	39	15	21	8	37	38	8	11	37	9	2	35	33	2	20	1	13	41	31	48	24	42	13	12	25	13	43	7	33	41	41	0	19	5	40	38	26
32	38	39	2	27	15	32	47	32	10	20	39	34	14	49	12	16	49	18	30	12	33	27	12	29	29	48	9	18	39	8	45	27	7	2	3	16	29	7	3	20	18	7	29	13	0	9	10	46	19
25	35	35	44	42	44	34	45	27	24	23	18	9	32	25	34	45	28	20	11	27	24	36	42	20	7	38	16	3	1	36	13	16	27	27	42	31	17	21	37	10	8	11	23	23	11	0	45	28	25
34	22	19	38	1	33	40	45	2	22	34	46	4	34	42	38	36	17	26	44	34	18	48	43	49	8	23	37	33	11	47	31	17	36	47	46	25	24	38	21	30	19	36	23	44	19	16	0	23	38
24	16	28	7	17	13	35	5	32	38	35	38	47	43	15	5	2	7	40	5	37	1	12	40	6	15	41	46	40	3	18	40	29	35	36	13	10	1	33	34	40	12	30	6	6	32	44	8	0	15
5	11	15	2	30	23	34	41	38	42	25	23	37	37	32	23	4	25	3	34	21	28	9	22	12	12	12	7	40	6	20	35	3	3	3	40	18	5	22	21	4	44	39	12	18	11	35	8	47	0
