50  10  1
10
	0	14	1	6	2	98	3	73	4	63	5	61	6	73	7	72	8	58	9	77
	0	11	1	77	2	6	3	32	4	63	5	25	6	67	7	62	8	71	9	53
	0	39	1	15	2	58	3	14	4	98	5	75	6	15	7	8	8	72	9	41
	0	93	1	68	2	49	3	83	4	92	5	14	6	51	7	35	8	16	9	56
	0	26	1	93	2	32	3	10	4	49	5	8	6	61	7	64	8	21	9	10
	0	80	1	2	2	3	3	7	4	7	5	78	6	43	7	30	8	22	9	85
	0	71	1	25	2	15	3	79	4	66	5	12	6	89	7	50	8	29	9	65
	0	46	1	33	2	12	3	85	4	40	5	18	6	89	7	58	8	66	9	100
	0	66	1	29	2	31	3	68	4	61	5	41	6	22	7	39	8	22	9	1
	0	58	1	72	2	35	3	88	4	8	5	26	6	61	7	18	8	92	9	42
	0	100	1	3	2	12	3	74	4	60	5	5	6	82	7	79	8	94	9	58
	0	37	1	61	2	28	3	90	4	52	5	26	6	83	7	1	8	9	9	68
	0	80	1	58	2	70	3	35	4	73	5	12	6	66	7	12	8	40	9	63
	0	3	1	32	2	51	3	13	4	30	5	100	6	70	7	93	8	51	9	94
	0	65	1	45	2	51	3	77	4	41	5	98	6	67	7	29	8	21	9	86
	0	45	1	89	2	23	3	63	4	47	5	63	6	25	7	41	8	3	9	44
	0	14	1	48	2	17	3	34	4	50	5	77	6	87	7	87	8	2	9	81
	0	86	1	93	2	34	3	21	4	8	5	79	6	48	7	100	8	94	9	7
	0	9	1	6	2	78	3	77	4	12	5	65	6	26	7	74	8	67	9	84
	0	51	1	26	2	6	3	16	4	25	5	42	6	48	7	89	8	41	9	60
	0	70	1	86	2	70	3	31	4	66	5	53	6	27	7	98	8	97	9	81
	0	46	1	66	2	65	3	89	4	26	5	58	6	69	7	4	8	88	9	13
	0	5	1	16	2	65	3	69	4	42	5	44	6	14	7	25	8	79	9	56
	0	20	1	97	2	50	3	18	4	33	5	91	6	61	7	72	8	46	9	69
	0	46	1	65	2	33	3	88	4	91	5	73	6	76	7	10	8	71	9	6
	0	60	1	49	2	80	3	73	4	19	5	81	6	61	7	53	8	66	9	30
	0	60	1	100	2	23	3	26	4	74	5	73	6	47	7	81	8	50	9	71
	0	25	1	28	2	60	3	15	4	59	5	33	6	68	7	15	8	88	9	64
	0	54	1	89	2	13	3	80	4	65	5	57	6	9	7	74	8	4	9	99
	0	57	1	77	2	91	3	59	4	17	5	28	6	30	7	39	8	34	9	36
	0	97	1	9	2	45	3	11	4	12	5	35	6	23	7	36	8	64	9	81
	0	90	1	100	2	12	3	59	4	65	5	29	6	64	7	34	8	50	9	60
	0	26	1	81	2	59	3	67	4	54	5	81	6	42	7	35	8	68	9	90
	0	57	1	20	2	99	3	9	4	5	5	57	6	83	7	66	8	21	9	9
	0	27	1	54	2	81	3	52	4	96	5	11	6	78	7	47	8	17	9	32
	0	76	1	54	2	84	3	34	4	41	5	75	6	15	7	32	8	7	9	30
	0	91	1	91	2	27	3	19	4	85	5	57	6	26	7	7	8	62	9	88
	0	43	1	43	2	89	3	30	4	30	5	3	6	15	7	29	8	60	9	10
	0	94	1	46	2	43	3	72	4	48	5	32	6	65	7	53	8	22	9	89
	0	91	1	49	2	64	3	96	4	100	5	49	6	20	7	5	8	50	9	2
	0	44	1	20	2	75	3	1	4	64	5	20	6	77	7	90	8	38	9	85
	0	64	1	21	2	100	3	33	4	28	5	32	6	91	7	91	8	90	9	30
	0	6	1	46	2	44	3	79	4	8	5	48	6	76	7	52	8	97	9	66
	0	36	1	85	2	35	3	22	4	96	5	26	6	51	7	49	8	33	9	99
	0	88	1	43	2	89	3	11	4	71	5	15	6	26	7	53	8	98	9	64
	0	68	1	10	2	81	3	9	4	87	5	57	6	100	7	78	8	2	9	96
	0	45	1	19	2	67	3	1	4	46	5	91	6	84	7	36	8	28	9	54
	0	77	1	71	2	48	3	53	4	79	5	35	6	78	7	79	8	55	9	55
	0	59	1	42	2	49	3	77	4	43	5	98	6	10	7	73	8	79	9	6
	0	69	1	75	2	26	3	8	4	44	5	98	6	97	7	64	8	10	9	27
SSD
M0
0	6	8	6	9	6	5	2	7	2	7	5	6	7	6	7	8	7	5	7	7	4	4	2	1	3	4	8	2	2	2	4	7	9	2	1	2	2	8	5	5	4	1	7	9	5	8	9	8	3
1	0	1	4	3	8	2	5	9	8	5	3	4	6	4	2	5	3	9	2	8	5	5	8	9	7	9	8	9	2	3	6	6	4	2	3	6	3	1	7	6	7	7	5	1	6	6	8	5	1
1	6	0	7	6	4	4	9	9	2	5	4	3	2	2	9	3	7	3	1	4	6	7	4	2	6	6	7	9	6	7	9	7	5	4	5	2	9	2	7	9	6	2	1	8	8	2	4	5	2
8	9	9	0	8	7	5	6	1	2	9	1	8	7	4	3	5	8	5	1	3	2	9	4	6	4	4	2	4	1	9	2	5	1	9	4	6	5	4	5	4	5	4	7	8	4	5	4	7	2
5	9	1	9	0	5	5	7	2	8	1	2	1	3	5	7	4	5	3	7	6	2	7	9	4	8	8	8	8	8	3	5	8	2	6	3	2	8	4	8	1	8	4	2	8	1	7	3	8	8
8	9	2	9	7	0	5	4	1	9	3	3	6	8	1	7	3	5	4	8	5	6	8	3	2	6	5	4	7	5	5	9	2	3	3	6	3	8	7	1	1	1	4	6	8	7	2	6	6	9
5	1	6	5	1	3	0	4	6	2	2	4	3	2	8	9	8	9	5	1	7	8	9	6	4	5	3	4	9	5	4	4	4	1	3	4	8	7	4	4	7	2	2	2	9	9	9	7	5	1
6	6	9	9	8	1	6	0	7	8	2	5	1	7	2	9	7	5	4	4	6	9	8	3	4	7	2	2	3	5	8	1	9	3	3	7	6	3	3	7	3	3	5	6	1	6	5	7	1	4
7	1	4	5	8	5	7	4	0	8	3	2	9	2	4	3	7	2	7	5	1	6	2	3	5	1	6	9	7	2	7	7	6	6	9	2	4	3	7	9	7	8	3	3	6	3	1	5	7	4
3	4	7	4	8	6	3	9	2	0	1	3	7	8	9	4	7	3	1	2	3	7	9	1	6	4	2	9	1	7	2	1	5	5	4	1	8	9	6	1	2	7	6	8	3	7	5	7	8	4
6	1	9	7	4	5	4	3	9	2	0	2	9	5	2	3	2	7	8	5	2	9	9	6	1	3	4	5	2	4	6	5	8	4	7	6	2	1	8	2	5	5	9	8	8	1	3	9	4	9
6	9	4	7	9	1	2	6	9	5	7	0	4	4	1	1	2	6	6	1	5	7	8	6	4	5	8	8	1	2	1	2	7	2	7	1	6	7	9	2	5	4	3	7	4	7	6	2	9	2
3	7	4	5	1	7	9	4	5	9	8	9	0	4	3	8	4	4	1	7	9	7	2	2	6	1	5	9	6	3	8	2	1	9	1	2	2	3	7	9	9	8	2	5	8	3	8	5	1	9
4	5	7	5	5	9	7	8	3	1	9	7	3	0	9	6	5	9	5	8	1	7	2	8	2	6	5	3	1	6	8	8	2	8	1	2	4	6	1	5	2	2	1	2	9	5	2	5	2	1
7	1	5	2	9	4	7	8	6	2	6	4	5	5	0	8	2	7	1	3	3	7	2	3	3	8	2	1	1	5	3	1	3	2	3	6	5	4	3	2	7	3	5	1	2	1	1	1	8	3
9	7	1	4	6	7	4	6	7	6	2	2	6	6	8	0	4	6	2	1	4	7	7	7	3	5	9	7	5	3	9	5	4	1	3	9	6	9	9	3	4	9	7	8	3	9	8	5	6	2
8	8	3	6	1	4	7	9	1	5	8	9	5	5	5	6	0	2	1	4	1	6	5	2	6	4	4	3	9	7	4	2	5	3	6	2	3	8	1	4	6	6	7	4	9	1	1	1	5	8
5	5	3	3	9	7	2	2	2	9	3	3	8	2	3	7	3	0	2	5	8	9	5	6	9	1	6	3	9	4	7	3	9	6	4	3	9	7	2	7	2	8	9	5	5	7	8	6	3	2
8	6	7	3	6	4	9	7	4	6	5	6	7	3	5	7	4	6	0	2	4	1	5	4	9	5	4	6	4	4	6	9	4	3	4	6	1	6	4	6	9	4	2	2	4	4	7	2	7	3
1	2	1	4	1	4	4	8	5	9	5	7	1	5	5	6	3	1	3	0	3	8	6	2	9	7	6	9	2	5	3	1	7	9	7	8	7	3	2	1	3	7	7	9	1	4	7	9	6	2
6	5	5	6	6	8	3	2	3	7	2	4	3	8	9	2	1	8	9	2	0	8	3	6	5	4	3	3	1	9	5	6	4	9	7	5	4	7	8	8	6	9	6	7	7	3	1	1	3	2
9	5	9	9	9	7	7	5	3	4	2	5	1	7	9	6	5	4	7	4	7	0	4	8	5	7	9	7	2	7	7	9	5	9	2	4	3	8	7	2	5	1	3	5	5	5	7	3	5	2
4	7	4	7	9	1	6	8	1	4	7	3	4	8	1	5	3	3	1	2	7	4	0	1	3	7	6	9	1	1	3	4	2	3	5	7	6	5	2	3	1	9	6	6	2	1	7	6	2	6
7	7	8	4	4	1	9	5	9	6	9	2	3	3	8	2	7	9	1	5	2	6	6	0	8	7	3	9	6	3	3	4	3	2	3	5	3	8	1	5	5	6	9	6	8	5	1	3	9	1
8	9	4	2	5	5	6	1	9	3	6	3	9	6	1	2	8	2	3	5	2	5	4	6	0	6	5	6	3	9	6	6	5	3	3	9	3	3	8	2	6	7	2	3	4	8	9	9	7	8
9	5	2	2	4	8	6	7	4	9	7	1	7	8	5	8	3	1	4	2	3	4	3	6	6	0	5	5	1	7	6	1	1	1	3	8	1	4	3	9	5	1	9	2	7	4	5	5	3	1
9	8	4	7	3	7	4	6	9	2	1	8	9	5	7	8	1	2	2	7	5	9	7	6	1	9	0	9	5	3	4	5	5	9	5	5	7	4	1	4	6	8	6	9	3	5	9	4	8	5
2	5	6	9	5	2	9	9	3	5	5	1	4	1	6	6	5	8	9	6	5	3	9	4	1	4	8	0	3	2	6	7	6	7	5	6	2	3	5	5	7	5	6	9	3	6	5	6	6	2
1	5	7	9	3	3	3	9	7	1	5	6	8	3	4	6	3	2	4	1	1	6	2	2	2	3	6	9	0	1	1	9	6	8	1	2	9	4	3	8	6	8	7	1	7	3	4	3	7	5
5	2	8	1	7	8	2	3	7	6	1	1	2	8	8	7	5	7	1	4	8	4	3	9	3	2	3	8	3	0	7	2	5	6	8	7	5	7	1	4	2	5	8	3	2	8	6	2	6	2
9	4	3	9	6	5	3	2	7	4	6	9	3	7	8	8	5	6	4	2	7	7	2	6	5	1	4	7	7	7	0	4	7	2	7	4	6	2	5	3	4	7	2	1	9	2	4	4	7	6
1	5	2	4	1	5	2	5	9	2	8	2	8	9	5	1	1	2	2	3	8	2	4	9	5	9	7	2	2	6	4	0	3	3	2	8	6	3	9	8	6	1	2	1	6	6	3	8	8	5
8	2	9	8	6	1	5	9	4	8	9	1	6	3	6	5	9	3	3	4	7	5	7	5	3	8	5	3	6	6	2	6	0	4	1	8	9	9	3	7	8	8	2	7	1	1	4	7	5	9
1	3	3	5	6	7	8	1	4	2	3	1	2	1	2	7	5	3	6	1	1	9	4	9	6	4	1	9	7	7	8	3	5	0	1	9	9	9	1	8	1	3	1	7	9	2	9	1	5	5
3	5	4	9	3	3	9	1	9	3	5	9	5	2	6	4	7	4	9	7	7	5	3	1	1	9	5	7	1	8	4	8	6	7	0	2	7	9	5	2	1	3	6	6	2	2	4	8	5	2
4	2	3	9	1	1	6	2	3	3	3	6	6	5	7	9	2	7	6	1	2	3	6	9	3	6	8	5	6	4	7	9	3	7	7	0	8	2	1	6	5	1	6	7	6	6	2	4	3	9
5	3	5	7	5	5	5	3	8	6	4	4	6	2	4	7	3	4	4	6	3	5	5	5	2	2	3	6	4	3	5	1	2	8	6	8	0	3	1	5	7	6	7	7	3	7	2	5	2	3
1	6	5	9	1	7	2	5	4	6	2	9	8	3	6	2	6	1	5	1	4	1	6	3	8	2	4	5	9	8	4	5	6	5	1	9	9	0	9	3	6	4	6	7	5	9	8	5	3	5
1	1	2	9	3	3	5	7	6	9	1	1	9	5	6	8	8	1	9	4	4	3	9	5	2	4	6	3	2	9	2	5	2	8	9	2	5	7	0	7	1	5	4	9	1	9	6	5	3	6
4	4	2	9	5	7	5	3	9	5	7	9	9	8	4	5	7	9	1	3	2	7	3	6	5	6	8	4	9	8	7	5	2	9	9	2	5	6	8	0	8	2	4	6	7	8	1	1	5	7
4	1	3	8	3	7	6	4	4	3	9	3	8	3	4	7	5	8	7	6	8	8	4	4	2	9	4	4	9	1	3	1	5	5	7	7	2	7	8	3	0	4	5	8	2	3	5	8	8	4
5	4	3	5	5	1	8	7	4	8	1	4	8	3	4	2	1	5	3	3	5	8	8	6	7	9	4	5	5	7	4	2	5	2	9	7	3	3	4	7	2	0	6	7	8	8	3	5	2	4
2	6	7	2	1	7	8	2	8	5	5	4	4	6	7	8	3	2	9	9	8	9	5	2	8	8	3	4	7	5	1	7	2	9	4	4	1	3	6	4	8	2	0	8	3	6	1	5	2	1
4	3	6	4	8	4	1	5	4	2	7	3	8	5	6	4	5	5	4	9	6	5	9	9	2	6	7	8	4	9	9	3	2	4	8	4	4	6	8	2	7	7	7	0	4	9	4	6	8	6
3	6	1	6	8	7	9	2	4	8	6	6	9	2	7	9	6	5	4	5	9	6	3	9	7	6	6	9	1	7	5	5	1	8	8	8	5	6	3	8	5	2	2	1	0	9	4	5	4	7
1	1	1	2	6	6	3	3	9	2	7	3	6	9	6	2	5	3	8	7	6	8	1	7	2	2	3	3	9	6	9	2	1	6	5	1	3	2	1	5	7	6	9	1	8	0	6	2	1	2
7	7	9	9	7	4	6	4	7	9	1	7	7	3	8	6	5	3	8	9	2	6	6	5	1	3	6	1	4	4	4	8	2	4	1	9	4	9	9	1	4	3	5	3	4	9	0	5	3	1
4	8	4	8	9	8	7	9	5	6	2	3	8	6	1	6	7	3	1	9	1	5	5	1	5	1	7	5	5	2	9	7	7	3	4	9	6	7	9	4	9	1	4	5	7	5	5	0	3	9
8	9	4	8	3	8	2	4	7	1	1	6	6	9	5	8	8	8	2	8	4	5	7	2	3	5	4	5	7	6	9	5	1	3	5	1	2	1	7	6	6	7	3	9	1	8	7	1	0	4
8	6	9	6	4	7	7	9	1	6	5	3	8	6	3	5	1	5	5	3	1	1	4	4	7	7	1	6	6	5	6	5	6	3	3	7	8	9	8	9	4	8	2	1	2	3	2	2	2	0
M1
0	4	1	6	5	9	2	8	8	1	7	4	9	1	4	5	4	7	3	7	8	9	7	6	3	2	9	9	1	6	5	5	9	9	6	6	2	6	5	2	5	9	5	8	4	3	1	6	9	4
2	0	2	2	1	9	5	1	9	3	2	4	4	8	9	6	7	9	3	7	8	5	9	7	7	2	3	5	3	9	1	6	4	5	9	7	1	2	5	9	4	6	7	1	5	1	7	6	7	2
3	4	0	7	2	1	3	4	5	1	6	9	5	5	4	4	5	8	1	9	6	2	7	2	4	1	9	5	1	7	6	9	8	8	7	9	1	7	4	7	2	8	8	4	4	7	1	8	7	1
7	4	7	0	8	7	2	1	3	7	1	4	9	3	8	3	6	9	5	9	3	1	1	8	2	6	2	6	4	7	9	5	4	2	4	8	5	1	4	3	9	9	8	5	2	5	7	2	1	1
9	7	7	9	0	5	4	6	7	4	5	7	6	5	5	3	7	5	1	4	3	9	5	5	2	3	5	8	3	5	6	9	2	3	6	3	2	1	6	2	3	7	3	8	9	2	9	6	6	6
5	3	7	5	2	0	4	7	1	3	2	9	9	5	1	2	9	4	3	6	1	2	5	8	9	2	9	4	2	6	1	9	2	5	8	4	5	8	3	9	5	4	6	5	4	9	2	9	8	6
7	8	9	9	6	5	0	6	8	8	4	4	5	6	7	1	7	5	7	8	2	9	8	1	5	9	7	9	7	2	9	2	4	6	1	4	8	5	5	5	8	1	8	7	7	9	8	5	2	7
3	5	8	2	7	1	6	0	2	9	3	1	3	1	9	1	5	1	4	6	1	6	1	5	3	5	4	3	6	1	4	9	4	6	9	2	7	2	8	7	9	9	9	9	2	5	2	2	3	2
9	1	7	9	1	1	8	6	0	6	2	2	9	8	7	8	4	3	9	6	3	6	5	7	6	2	4	4	8	6	6	9	6	3	1	5	2	7	2	7	2	9	6	2	3	6	1	6	7	5
8	8	7	7	6	7	9	7	5	0	8	3	6	6	1	2	1	6	8	9	7	5	2	5	1	4	6	3	7	9	4	4	2	4	5	1	3	2	3	1	4	4	2	8	5	4	4	9	9	6
1	8	3	5	7	3	2	9	1	5	0	8	7	7	9	6	3	8	8	5	2	3	3	3	1	3	7	5	6	1	2	8	9	6	3	9	3	3	8	1	2	8	9	9	9	8	4	8	2	9
4	3	5	6	9	4	8	2	7	1	3	0	6	4	7	4	2	6	8	8	2	2	4	3	5	9	6	4	8	3	5	8	3	1	8	7	7	8	6	6	9	6	1	5	7	1	2	2	1	2
4	8	6	9	4	3	5	4	6	1	7	3	0	2	8	3	1	1	1	3	4	2	7	5	4	1	8	5	8	5	1	3	8	6	6	9	3	2	5	6	3	5	4	2	2	7	1	3	2	8
6	5	6	3	1	3	4	9	8	4	5	4	1	0	5	8	9	4	1	4	4	9	5	3	1	9	9	6	2	2	1	8	2	3	6	5	6	2	4	1	8	5	3	2	9	3	5	9	3	4
7	5	5	9	2	2	5	5	3	9	9	9	1	4	0	9	7	4	1	8	9	4	1	7	3	2	7	3	5	4	1	7	1	5	2	6	6	2	5	7	2	7	2	5	2	1	9	8	2	7
6	2	8	4	4	7	4	4	6	5	1	9	7	4	2	0	8	8	4	3	7	7	8	5	9	6	4	5	9	9	7	8	1	6	4	8	2	4	6	8	8	1	4	7	5	7	3	7	2	4
6	9	7	3	5	2	3	7	6	8	5	1	2	7	1	6	0	2	4	2	9	3	6	6	7	6	7	1	2	2	1	4	6	3	2	5	3	9	8	2	2	2	1	8	4	9	4	9	3	9
6	2	2	6	9	9	1	1	1	9	8	1	7	5	5	5	9	0	1	8	5	9	4	5	4	8	7	6	6	4	7	5	6	8	7	8	5	4	7	2	8	8	4	6	8	5	2	2	8	8
8	2	4	8	2	8	7	2	5	5	7	7	3	1	1	3	8	5	0	4	8	9	7	4	2	8	9	2	6	2	9	5	8	9	1	1	3	8	9	1	8	3	6	9	6	4	3	5	5	3
1	4	5	1	1	3	2	8	5	9	3	8	4	7	5	1	4	3	2	0	4	3	1	7	3	5	5	7	7	3	3	4	2	8	7	6	7	2	2	1	8	5	7	2	4	9	1	8	6	8
6	8	8	7	9	7	8	3	1	5	6	5	1	7	4	3	3	8	1	6	0	1	7	6	5	2	1	8	3	2	6	3	8	7	8	7	2	1	8	5	6	8	2	4	6	6	6	3	7	5
1	4	6	1	6	7	5	1	4	2	4	1	9	5	2	1	8	8	8	7	8	0	7	2	3	9	9	9	9	5	8	2	1	4	4	2	6	8	2	7	7	3	2	2	5	3	4	9	3	1
2	7	9	8	2	4	6	5	2	7	2	6	5	9	1	4	1	7	3	6	5	1	0	8	7	2	8	3	8	4	6	5	6	3	4	4	6	3	8	9	4	9	6	8	5	5	8	3	7	9
6	7	9	9	5	8	3	7	5	5	3	7	2	4	2	9	1	3	3	9	6	7	1	0	7	7	4	6	5	6	8	4	5	5	1	4	5	5	1	5	9	7	1	8	1	7	2	6	2	7
9	7	9	2	9	5	9	5	9	3	7	2	3	5	9	8	3	9	1	2	9	6	9	1	0	7	1	8	3	2	1	5	9	8	1	2	4	7	6	6	2	1	9	1	2	6	5	5	8	9
9	1	6	8	7	5	2	9	3	7	6	6	8	6	7	8	2	6	5	2	1	9	3	4	2	0	9	1	4	4	9	2	6	7	6	6	9	4	5	9	6	2	5	4	8	5	7	1	7	2
3	2	2	2	7	4	9	3	4	2	5	1	2	3	9	6	2	1	5	3	2	3	5	9	9	2	0	7	2	1	2	6	2	4	3	8	2	7	5	8	9	9	8	2	7	5	2	9	7	1
7	7	6	2	4	3	4	7	6	7	8	5	4	1	1	1	3	9	9	3	4	4	5	8	4	5	1	0	7	4	9	5	7	2	8	5	4	4	9	8	2	1	6	1	2	3	4	1	5	1
4	2	9	2	1	7	7	8	6	8	7	4	3	4	8	8	7	8	1	8	4	8	1	7	6	5	3	4	0	4	3	3	7	9	4	7	2	6	7	9	1	4	2	8	1	5	5	1	3	6
1	9	2	3	9	6	7	4	1	6	5	1	8	8	9	5	8	6	5	1	5	4	9	8	4	6	9	4	4	0	1	4	5	6	6	1	9	7	8	3	3	1	3	5	6	7	4	6	7	3
6	9	5	4	7	4	7	1	3	3	9	4	6	8	2	6	6	5	2	7	3	3	8	1	7	5	3	3	8	1	0	4	8	2	1	2	1	7	9	2	2	8	9	4	9	7	3	7	9	3
3	8	7	9	5	2	6	6	6	6	5	8	1	8	6	9	6	8	9	1	1	6	8	1	6	3	5	3	9	8	3	0	8	5	3	1	5	8	7	9	8	2	4	6	9	7	9	3	2	5
9	9	2	4	2	5	8	2	9	3	4	5	4	9	1	5	6	6	4	6	6	3	9	6	7	8	2	7	2	6	8	7	0	8	4	6	9	3	7	6	5	5	9	1	7	2	3	9	7	6
7	3	6	1	3	6	8	5	3	3	9	8	6	2	6	3	3	9	3	8	6	8	1	7	8	6	1	9	1	1	5	8	4	0	5	2	2	6	8	1	4	3	4	5	6	8	8	5	9	8
8	2	2	3	5	8	9	6	2	4	3	2	8	6	4	1	3	5	2	5	8	7	7	1	5	3	8	5	4	8	1	2	1	8	0	2	2	8	7	5	5	3	7	7	9	5	8	3	5	9
9	9	2	5	4	4	9	8	4	7	8	4	3	7	6	7	9	2	2	5	8	2	3	3	7	1	8	3	2	1	3	7	4	6	4	0	8	5	4	9	5	3	7	6	2	6	7	3	3	5
7	1	4	4	7	3	6	2	7	6	2	6	2	3	4	9	1	1	1	3	9	6	8	7	1	6	6	6	3	5	2	1	2	4	7	8	0	2	2	9	5	2	2	7	5	5	2	1	4	3
2	8	4	3	2	3	2	9	3	8	5	6	3	2	1	9	5	1	5	7	5	9	4	8	2	7	2	7	8	8	5	9	3	2	9	1	8	0	2	1	5	6	6	3	7	2	7	2	4	4
4	4	8	7	4	1	2	7	5	1	5	7	1	8	2	1	4	3	1	1	2	7	7	7	4	5	8	1	8	5	8	9	9	9	2	5	9	7	0	4	9	4	9	8	9	8	1	4	5	3
7	4	2	8	3	9	2	7	5	4	7	9	5	5	5	3	4	6	5	7	5	9	8	4	5	5	1	6	5	5	7	6	6	1	5	8	8	1	5	0	8	9	2	2	4	1	5	7	2	6
1	3	6	5	9	7	5	7	1	1	7	5	2	3	8	9	6	4	9	4	9	9	7	5	9	7	7	4	1	6	9	1	9	5	6	6	7	3	4	7	0	8	6	8	3	1	9	6	3	6
3	1	7	6	6	4	2	1	7	4	2	4	1	2	7	7	7	9	7	3	5	6	6	6	8	4	9	6	6	7	6	8	6	1	7	1	1	5	8	5	7	0	3	4	2	6	7	6	8	7
7	3	8	2	6	7	3	2	3	4	5	7	5	1	3	8	9	8	9	1	6	9	1	8	7	5	9	9	7	8	4	2	4	2	4	2	6	7	9	8	9	5	0	1	7	7	7	3	3	8
8	1	7	2	5	1	6	7	4	2	9	8	6	3	8	2	5	9	8	7	1	8	5	5	1	9	5	3	1	2	4	8	8	2	3	4	2	8	3	2	2	2	7	0	7	6	9	2	6	2
5	5	6	7	6	4	6	8	3	1	4	6	5	8	2	5	1	4	3	4	2	4	9	4	4	9	7	2	6	2	3	9	9	8	3	4	7	9	5	2	7	8	6	8	0	2	8	3	7	3
7	6	1	6	3	1	3	1	2	4	2	2	5	6	3	3	8	1	3	4	6	9	6	2	3	9	8	3	2	5	9	5	7	3	1	4	6	6	9	7	4	4	2	5	9	0	4	9	2	9
4	5	5	9	5	5	4	5	6	1	8	2	3	7	2	5	7	2	6	5	8	4	2	1	1	6	5	2	4	2	4	3	4	5	6	2	8	1	1	4	3	1	5	4	1	3	0	8	8	3
8	7	7	1	5	1	5	8	2	6	1	4	5	8	1	2	6	8	9	7	3	6	6	8	6	8	5	7	2	1	5	2	2	3	6	3	2	2	5	6	5	3	5	4	9	1	1	0	5	6
4	7	3	3	2	6	5	5	6	8	7	3	1	9	4	7	3	8	4	9	7	3	5	6	1	2	4	8	6	7	2	1	7	2	2	8	7	4	8	7	9	3	9	8	4	3	7	9	0	6
6	5	6	7	1	9	5	1	9	3	8	3	5	6	1	4	6	6	8	3	3	7	3	1	2	4	6	2	4	9	7	6	8	5	4	2	4	7	5	3	6	5	2	5	3	2	6	5	7	0
M2
0	5	9	8	6	4	7	4	3	7	6	8	3	5	8	5	7	6	9	1	2	1	7	1	3	1	3	8	2	9	8	6	8	4	6	3	3	5	2	6	2	2	4	6	2	7	3	3	2	1
3	0	3	6	5	8	8	6	3	2	7	7	1	1	4	9	1	4	6	1	8	5	5	5	8	8	5	4	7	2	4	4	2	6	5	9	7	3	4	6	6	2	4	2	2	7	1	3	4	6
5	3	0	6	9	3	8	7	1	8	9	6	9	2	5	2	9	8	8	8	1	5	2	6	8	5	8	1	5	5	6	3	4	8	6	4	7	9	1	3	7	6	7	1	7	6	6	8	3	8
3	4	8	0	4	2	6	3	1	6	2	2	2	5	6	1	3	8	1	5	3	7	6	9	7	2	7	4	5	6	4	5	3	5	1	8	4	6	4	2	5	2	7	5	5	6	7	5	6	8
7	7	7	5	0	4	1	5	6	2	5	2	1	7	2	7	7	2	9	8	5	6	2	1	9	9	6	4	6	5	6	3	2	1	3	2	2	9	1	5	3	6	9	7	8	2	9	1	9	8
8	7	7	1	6	0	8	2	7	6	7	2	4	2	2	2	8	8	8	5	8	9	9	8	1	6	1	2	9	3	5	9	1	7	8	4	5	1	9	7	9	8	8	9	5	9	6	9	2	7
8	3	7	4	4	9	0	7	7	6	3	5	6	9	1	8	4	3	4	9	7	5	5	1	7	7	7	5	4	2	5	7	8	6	2	4	4	9	1	2	6	6	5	1	2	4	7	7	4	4
8	5	9	5	9	7	9	0	4	1	5	1	2	3	2	7	1	9	6	3	1	3	2	5	9	7	5	2	8	7	3	8	7	8	1	5	9	4	1	1	3	9	4	4	4	9	8	6	9	5
3	8	6	5	1	1	2	6	0	9	5	2	2	7	4	1	2	8	7	7	8	2	1	5	8	6	4	7	3	1	3	3	6	3	3	3	4	1	1	8	1	4	4	1	4	4	6	3	3	2
1	7	2	9	8	2	8	9	5	0	8	7	7	3	5	2	6	1	6	4	3	2	8	6	4	4	5	8	1	5	5	9	3	6	9	8	3	7	8	3	9	5	7	5	1	7	1	8	5	3
2	8	7	4	9	4	8	4	2	4	0	8	7	2	5	7	7	9	2	7	9	8	4	8	4	9	4	5	4	6	7	2	1	6	5	2	8	5	8	6	9	7	2	9	7	7	8	8	2	6
4	6	8	2	7	2	9	3	5	7	7	0	1	5	8	2	2	3	9	8	7	9	8	5	8	6	3	3	9	3	2	1	7	4	2	1	6	3	4	9	2	9	1	6	5	2	7	8	5	6
7	8	4	5	4	6	2	3	8	3	8	9	0	5	2	7	6	6	3	6	6	2	9	4	3	8	8	3	6	4	5	7	7	7	2	2	6	5	4	1	1	9	7	5	1	4	2	3	7	7
5	4	9	9	5	3	3	8	8	9	8	4	1	0	5	8	7	6	3	7	2	2	4	1	4	6	4	6	6	5	1	7	2	5	6	9	8	8	6	1	3	3	1	6	2	7	8	5	9	1
5	1	1	9	2	9	1	5	9	9	3	9	5	6	0	6	5	1	6	4	3	5	8	5	2	7	1	5	2	1	5	9	3	7	2	2	6	3	2	5	5	1	2	1	6	1	9	4	8	8
6	6	9	7	3	4	4	8	1	9	6	5	9	3	5	0	2	4	2	2	6	7	3	5	6	7	2	9	2	4	7	8	8	2	4	9	2	2	1	1	9	6	5	4	1	2	3	1	9	4
4	2	9	9	5	9	8	6	6	8	3	2	7	2	9	1	0	1	3	5	6	8	6	5	7	1	4	1	9	2	1	7	2	7	4	2	4	4	9	1	3	6	6	5	2	1	4	3	3	4
6	6	1	4	3	3	5	5	7	4	8	1	3	2	6	6	3	0	8	6	7	3	8	8	4	1	3	2	6	5	1	7	8	7	2	2	1	8	1	8	8	2	2	4	8	2	3	9	9	3
8	7	4	2	1	7	3	1	9	7	7	3	1	6	6	2	9	7	0	2	7	1	8	4	7	3	6	9	7	9	7	4	7	6	9	9	8	6	2	8	2	4	1	9	1	7	6	2	6	3
9	4	1	6	6	2	6	6	5	2	7	7	5	1	7	8	1	7	8	0	8	6	4	3	9	4	4	9	3	9	8	3	9	3	8	5	3	2	5	9	1	7	7	4	1	7	7	4	9	6
1	4	8	2	5	6	7	5	9	4	5	5	3	5	4	5	8	5	8	7	0	8	6	5	7	7	8	7	9	7	7	7	9	9	6	5	4	1	7	7	8	6	9	1	6	9	4	2	4	3
2	2	3	5	4	6	8	2	5	6	8	9	6	3	2	3	1	5	6	5	6	0	8	9	8	3	2	9	7	2	5	5	1	9	5	9	2	3	2	9	1	7	9	8	8	7	2	2	8	8
8	2	8	8	2	7	4	3	8	9	2	6	9	1	6	3	1	9	3	4	9	8	0	9	4	8	6	5	7	7	5	1	9	7	4	8	2	5	3	4	7	8	4	4	6	7	8	7	9	5
5	6	7	4	1	3	2	2	6	6	3	3	6	5	8	5	9	5	7	8	3	9	9	0	5	7	9	9	4	1	4	7	6	6	8	3	1	8	4	9	4	7	2	6	1	8	1	6	9	1
9	2	8	9	2	1	9	7	2	2	7	8	9	8	2	5	8	6	7	3	4	7	7	3	0	2	2	3	7	2	1	8	2	2	5	4	6	8	5	1	8	9	9	3	9	2	9	6	5	5
6	7	2	3	9	9	2	9	2	1	4	4	7	1	8	4	9	1	2	6	8	2	9	6	5	0	9	9	9	6	2	8	8	7	5	1	8	7	8	8	3	6	6	8	5	6	8	5	1	4
6	3	8	6	5	5	1	2	1	2	7	1	3	6	9	6	4	4	6	7	7	3	9	6	8	8	0	1	4	8	7	3	9	7	6	8	6	2	4	1	2	4	8	3	1	1	1	8	3	8
2	3	4	4	8	9	9	1	9	4	4	4	9	6	2	8	2	8	9	6	1	5	5	3	6	4	9	0	2	6	9	3	2	4	9	7	8	5	8	4	9	2	5	7	5	6	6	9	5	2
6	6	2	6	4	3	4	4	5	8	8	5	4	5	6	7	7	4	3	7	1	6	6	8	7	9	2	5	0	7	6	4	4	9	9	9	4	7	2	8	4	4	5	6	9	5	2	3	4	5
6	8	5	3	3	8	5	6	3	6	9	7	9	6	2	6	2	6	4	6	2	2	9	8	1	1	4	9	9	0	5	7	2	4	5	4	1	7	6	8	1	7	2	6	4	9	8	1	8	7
5	2	4	7	6	7	4	7	7	9	2	8	2	6	3	3	7	5	3	3	5	1	2	8	7	2	5	3	3	9	0	1	5	9	8	2	4	6	7	5	1	9	3	7	4	5	8	3	7	7
2	6	2	5	5	7	7	9	1	8	6	3	8	3	2	6	8	5	5	1	3	3	4	6	5	4	4	6	7	3	2	0	4	5	1	5	9	7	5	3	9	9	6	3	9	2	3	7	1	3
5	6	5	7	9	4	4	1	8	9	2	6	5	5	4	2	5	4	9	6	7	1	9	5	6	9	6	4	1	1	6	7	0	1	7	7	8	3	8	7	4	1	8	4	5	7	5	2	2	2
6	7	3	8	9	4	5	3	8	5	7	9	6	2	2	5	1	2	7	1	8	4	8	7	1	1	3	8	4	6	1	9	9	0	1	2	9	9	1	4	6	2	6	9	4	6	4	4	7	4
5	5	6	2	5	8	2	8	9	3	3	2	6	2	4	2	3	9	2	4	6	9	9	9	9	8	8	5	6	5	2	8	9	9	0	7	4	2	9	2	1	9	8	4	2	5	8	3	7	1
4	9	2	3	9	7	3	6	7	1	1	9	9	9	9	3	6	1	5	9	5	2	9	7	2	6	9	5	5	5	2	6	9	2	2	0	2	9	3	8	5	8	9	1	1	2	7	6	5	7
2	4	4	9	2	9	9	9	7	1	4	6	2	8	5	8	2	6	9	8	2	6	6	3	4	3	4	6	8	2	4	7	5	4	3	9	0	6	2	3	8	7	3	8	4	1	9	8	9	3
4	2	2	1	9	8	5	9	8	2	5	9	1	9	1	1	4	7	8	8	7	4	2	4	3	1	7	4	6	1	3	4	2	7	9	6	8	0	8	3	7	9	2	6	5	7	6	6	9	3
8	1	3	6	8	2	2	4	1	5	3	8	3	9	7	3	7	8	6	2	6	7	1	9	2	2	5	3	3	6	9	3	2	4	6	7	9	7	0	3	5	4	7	2	6	7	6	8	4	4
5	8	8	7	9	1	4	3	8	4	9	5	5	9	4	3	3	3	7	4	3	2	1	6	4	1	6	5	1	4	3	3	9	2	5	9	7	5	7	0	5	8	4	6	1	8	1	1	9	3
3	5	4	6	7	5	6	5	7	7	8	3	6	9	1	9	7	7	8	5	9	9	4	1	2	3	3	5	1	6	4	9	1	4	5	6	7	4	4	2	0	4	3	6	6	1	2	6	3	5
1	1	8	1	7	6	7	1	6	9	9	6	9	7	9	7	9	8	4	9	4	2	3	8	1	8	7	5	5	1	8	7	8	1	6	2	2	1	6	8	3	0	3	4	1	6	5	8	2	3
8	6	8	4	3	1	5	2	5	4	2	9	6	4	5	5	5	7	4	5	5	1	1	9	8	7	1	6	3	3	4	9	6	8	7	5	6	4	3	9	5	7	0	3	3	8	1	3	9	6
8	6	1	5	8	5	9	9	9	3	8	8	8	4	8	5	3	7	6	7	6	8	5	7	1	8	8	5	5	3	5	1	3	8	3	2	4	1	6	1	3	1	8	0	4	3	4	1	4	9
8	3	9	5	2	9	9	2	9	7	5	8	1	8	9	4	6	8	6	5	6	4	2	2	9	5	2	2	8	4	6	6	9	8	3	4	2	2	7	9	1	4	8	8	0	2	2	7	8	4
3	2	5	2	2	8	5	8	6	6	3	7	7	9	8	7	8	4	3	9	1	2	5	8	3	8	6	3	7	7	5	5	7	3	4	9	9	9	4	8	5	3	4	7	5	0	6	9	4	9
6	6	5	2	5	3	6	3	2	9	9	6	9	7	1	9	8	6	7	8	1	2	5	3	2	1	3	7	4	1	5	1	2	2	3	3	8	2	6	9	4	9	2	9	7	7	0	1	4	7
9	2	5	7	3	7	4	4	2	8	4	3	1	1	1	9	4	2	7	3	8	7	5	5	6	5	4	1	5	4	2	3	8	4	6	5	8	6	4	2	3	2	2	2	5	1	3	0	3	3
8	8	6	8	9	8	6	8	2	9	2	9	4	8	6	3	8	7	1	6	8	9	8	4	1	1	7	7	2	8	4	3	5	2	2	5	8	3	1	7	9	3	1	3	7	9	5	8	0	7
4	5	4	9	7	3	2	1	4	7	8	2	2	3	3	8	6	6	7	1	2	4	3	1	9	5	1	6	2	5	4	1	9	6	5	4	9	4	4	2	1	8	9	4	8	6	9	3	3	0
M3
0	1	4	7	2	3	7	6	3	7	2	2	5	9	4	1	6	4	1	6	4	1	9	4	1	9	6	1	5	7	2	7	3	1	8	2	8	7	9	9	8	4	4	2	8	5	9	7	5	5
3	0	3	6	7	6	8	9	4	2	4	1	5	5	6	2	7	8	3	9	9	1	3	6	5	5	6	4	1	6	5	7	9	4	6	6	9	3	4	7	9	1	2	4	7	1	1	8	5	9
9	4	0	2	2	1	1	7	6	9	4	8	4	6	1	2	4	2	4	2	8	4	8	9	1	3	7	8	2	7	9	3	5	7	5	9	5	8	9	8	1	5	3	8	8	7	5	1	1	6
1	6	1	0	2	7	1	1	2	3	1	2	7	9	5	7	2	2	1	2	1	3	6	5	7	7	8	9	1	6	9	7	3	8	1	8	8	7	6	4	3	3	2	5	9	1	1	3	4	1
5	2	3	8	0	7	6	5	4	3	5	4	1	8	9	4	5	1	2	1	3	9	5	9	5	7	3	8	8	3	1	8	4	3	8	5	4	6	9	8	1	4	4	4	3	9	5	9	2	1
1	3	3	4	4	0	1	5	9	1	2	4	8	4	2	2	1	3	3	4	9	5	4	8	9	5	7	6	9	4	9	8	7	2	9	9	4	7	6	1	8	2	7	7	9	4	4	8	1	7
5	4	2	4	8	8	0	5	7	3	4	1	8	9	3	1	7	9	9	9	2	3	3	1	1	4	7	3	1	9	6	3	4	2	8	8	2	4	2	3	8	1	7	8	6	5	6	1	6	7
5	5	2	7	1	8	9	0	9	4	1	2	4	3	6	5	4	8	4	3	3	5	3	1	7	6	5	5	9	7	2	7	4	9	9	6	2	8	4	5	8	4	7	1	8	3	2	3	1	6
1	1	6	3	2	9	7	2	0	6	5	6	3	7	3	7	2	6	5	8	8	4	1	6	4	4	2	5	8	5	1	6	3	3	5	3	2	3	7	8	1	1	2	3	3	7	1	6	3	4
4	7	6	3	2	9	8	4	3	0	3	5	9	9	1	6	3	3	9	1	8	2	7	9	4	1	1	5	9	3	3	1	3	7	8	8	4	2	6	3	8	4	1	8	5	4	9	6	3	1
1	8	3	6	2	6	5	9	3	6	0	5	8	6	4	4	7	7	3	4	6	5	8	1	8	1	7	2	7	6	8	5	9	1	7	4	6	1	5	6	3	7	6	7	9	1	8	5	2	9
9	1	9	5	8	8	1	2	9	9	2	0	5	9	2	2	1	1	3	5	3	9	7	3	5	1	3	5	7	2	5	9	8	9	5	9	5	3	4	1	2	7	3	1	3	4	2	5	1	1
7	1	9	2	1	7	1	6	8	8	2	4	0	3	3	6	4	8	8	7	2	7	7	5	9	8	8	5	7	7	5	9	3	4	7	3	5	2	6	9	2	3	9	6	3	5	6	3	7	6
4	2	5	7	6	7	4	4	7	1	9	7	6	0	4	5	6	1	1	9	5	2	4	3	8	9	7	7	9	7	5	4	3	9	3	8	3	3	8	2	1	3	5	5	2	8	8	5	3	5
1	4	5	8	6	4	9	9	9	1	2	6	1	1	0	9	3	1	8	4	5	1	1	8	9	9	2	9	2	6	3	1	1	3	7	2	4	5	3	9	2	2	2	1	6	5	5	5	9	2
2	6	5	3	7	2	9	3	2	8	2	8	9	5	8	0	3	6	3	9	1	7	7	8	1	1	9	1	1	6	3	6	8	2	9	7	2	3	8	7	5	1	8	4	5	7	6	7	5	7
7	8	6	8	3	1	4	3	5	9	7	6	5	7	8	1	0	9	7	1	4	4	9	7	8	5	8	5	9	2	4	6	6	8	4	8	4	7	1	1	7	3	3	7	5	2	3	6	3	4
7	7	6	2	8	3	9	7	6	4	2	7	4	1	7	6	7	0	7	1	4	1	2	8	5	5	7	7	7	5	9	8	6	6	9	9	2	9	4	1	1	4	5	1	4	4	8	2	3	7
7	8	9	3	6	3	7	9	4	8	7	5	5	6	6	1	1	2	0	8	9	3	3	2	6	4	5	3	2	5	3	8	8	5	6	2	1	7	1	2	7	1	4	1	6	3	5	6	8	6
6	8	1	5	3	5	6	9	4	8	4	3	1	3	6	9	7	8	5	0	6	7	4	8	2	1	4	8	1	5	3	7	6	3	1	1	6	8	8	3	2	7	4	8	7	6	5	2	6	3
4	1	6	1	3	8	7	9	2	6	1	9	8	3	2	6	4	3	1	4	0	5	4	9	8	1	9	3	5	7	4	1	9	1	9	2	5	4	2	6	9	5	9	1	7	8	9	1	2	3
4	6	6	9	7	7	1	5	9	8	8	3	8	2	2	5	6	6	6	7	9	0	7	3	3	4	5	9	5	4	9	7	9	1	9	6	5	3	9	9	2	2	6	9	5	2	4	7	5	2
5	4	3	3	6	4	1	9	4	2	2	8	3	8	1	7	9	8	6	4	9	2	0	2	6	9	6	7	4	3	4	1	1	5	4	4	6	7	6	9	1	3	5	1	6	5	7	6	1	5
3	5	7	8	4	4	1	2	1	9	6	9	4	3	7	3	3	8	6	2	7	9	9	0	4	2	5	3	6	2	6	6	6	1	4	9	4	7	3	3	7	6	7	5	7	7	7	5	6	5
7	5	2	2	7	1	4	1	5	7	7	7	3	2	3	9	6	5	4	1	2	1	2	6	0	8	6	1	8	8	6	3	4	9	2	5	2	6	6	6	2	2	2	4	4	9	2	6	1	3
4	5	6	9	5	9	1	6	1	9	8	5	7	3	3	3	6	1	6	6	1	8	3	6	8	0	6	1	5	5	9	7	3	6	9	9	3	1	9	9	7	2	8	7	7	2	6	3	8	2
3	7	5	6	7	9	8	4	4	1	6	7	5	8	9	8	2	4	5	9	7	1	6	4	2	8	0	7	4	4	3	1	2	6	7	7	7	1	8	6	9	4	4	5	5	6	5	3	5	1
6	7	8	3	4	8	6	9	4	8	8	7	4	9	7	2	1	5	8	6	4	3	6	5	8	3	6	0	8	5	1	7	5	4	6	7	3	3	6	8	5	1	8	9	8	3	1	6	2	5
5	4	6	9	2	8	8	6	5	8	6	8	3	6	4	6	6	5	1	5	5	5	5	3	5	2	1	8	0	1	6	3	7	5	7	7	7	6	4	1	7	9	8	6	8	8	7	9	5	1
3	3	5	5	1	6	1	7	2	8	4	6	8	4	4	6	4	4	8	1	2	7	8	3	5	4	3	6	6	0	8	9	6	7	5	4	2	6	4	9	8	3	6	8	2	6	9	8	9	6
4	5	4	5	3	1	7	4	8	3	3	7	1	6	9	1	5	6	5	2	3	5	3	3	8	1	3	6	3	1	0	1	3	4	4	1	9	1	3	5	4	7	6	6	8	7	7	3	9	9
2	7	2	2	5	7	4	3	7	4	8	6	3	4	4	5	4	1	2	9	2	2	4	1	2	3	8	6	1	7	8	0	9	1	9	3	3	5	9	5	5	6	9	4	9	1	9	8	3	2
6	4	2	8	3	2	7	2	9	3	5	3	8	3	2	2	3	5	3	9	9	9	5	3	3	6	2	1	5	9	9	3	0	6	8	2	9	9	6	8	5	2	6	8	3	9	7	9	3	5
8	1	5	1	5	9	1	7	5	8	8	6	4	4	4	2	1	7	2	1	4	5	2	6	7	9	3	3	8	1	2	9	1	0	8	8	6	6	8	4	5	7	5	3	5	6	9	6	1	1
9	4	9	6	1	8	6	6	9	3	5	1	1	2	3	6	1	9	4	1	3	4	9	7	6	4	9	3	7	4	5	8	4	4	0	2	9	7	4	6	9	9	6	2	1	8	9	6	6	8
7	3	4	2	2	2	8	2	4	6	8	2	7	9	7	8	6	5	5	8	1	2	9	6	8	5	4	1	7	4	4	2	6	2	4	0	9	9	3	1	2	5	7	1	4	7	5	5	4	9
7	1	1	6	5	8	8	5	4	7	9	7	8	5	6	6	4	6	6	3	3	2	4	2	3	4	2	3	7	1	5	1	9	6	8	1	0	9	5	8	4	3	5	1	2	3	6	2	5	4
7	6	3	4	7	6	1	1	6	7	3	6	6	9	4	6	1	6	9	8	7	9	4	7	6	9	9	7	8	1	7	9	5	4	4	5	9	0	2	6	5	3	1	4	4	4	8	7	2	4
4	1	3	9	4	4	5	5	4	1	6	5	6	2	8	7	4	3	6	2	4	9	6	1	4	3	2	4	6	6	3	6	7	8	6	3	2	7	0	5	9	9	3	6	3	7	4	1	9	3
2	5	9	5	8	2	6	9	3	1	4	2	4	9	7	5	7	7	8	9	6	9	6	6	3	3	9	7	8	1	2	5	8	1	2	3	6	8	8	0	3	9	1	7	4	8	2	7	7	8
9	2	4	5	2	3	9	6	2	6	9	4	2	9	8	2	2	9	7	4	6	2	5	4	2	9	8	4	5	5	4	6	1	1	9	1	8	5	4	7	0	6	7	4	6	2	2	3	4	5
6	2	6	7	5	4	8	2	7	2	3	3	4	6	9	2	6	9	9	5	2	6	1	2	9	1	6	8	6	4	5	8	1	3	8	5	5	4	3	2	1	0	5	2	4	2	5	9	2	8
3	9	5	8	9	7	9	2	6	4	4	1	4	6	7	9	2	8	4	9	3	8	7	5	3	6	6	1	3	3	1	7	2	3	5	6	4	1	5	6	8	3	0	1	5	3	2	9	7	9
3	5	6	6	2	1	4	3	5	2	2	3	8	5	6	1	9	4	8	5	9	9	7	7	4	3	5	1	2	8	5	6	3	4	3	4	2	4	6	5	7	5	5	0	1	1	5	1	8	4
5	7	3	3	7	2	8	6	8	2	9	9	2	4	9	9	7	7	4	3	8	3	3	4	9	2	8	7	6	1	7	8	6	8	6	1	6	9	2	4	6	3	2	2	0	2	9	4	4	4
9	7	9	8	8	4	6	5	5	4	1	6	5	9	9	7	1	6	7	3	4	5	6	7	8	3	9	4	9	4	2	4	5	2	8	1	8	8	1	9	4	2	6	2	1	0	7	5	2	2
1	1	2	1	6	9	5	5	5	9	3	5	2	7	2	5	3	1	1	3	2	8	4	2	1	2	8	2	7	3	1	3	6	5	9	5	2	9	3	5	4	8	1	6	8	7	0	2	6	8
8	4	2	8	9	4	1	8	3	2	8	9	3	4	8	1	4	1	9	3	4	1	5	5	9	1	2	3	9	1	8	5	2	3	1	1	8	4	2	3	5	8	1	7	6	6	3	0	1	9
8	7	4	8	5	7	6	2	6	6	2	5	7	9	3	1	5	6	2	8	3	6	3	1	1	7	5	6	9	9	7	4	8	3	2	7	7	9	4	3	7	5	1	4	4	1	9	4	0	1
7	7	6	8	8	1	4	5	1	5	7	4	2	8	8	3	6	9	8	3	2	6	8	6	7	4	8	3	8	8	8	6	7	9	7	4	9	6	5	3	4	8	4	6	6	7	1	6	7	0
M4
0	1	7	5	5	2	7	4	2	3	3	9	6	6	1	1	1	1	3	2	3	2	6	9	8	3	4	1	5	3	9	8	1	3	6	3	9	1	2	1	6	8	2	9	8	8	6	1	6	7
8	0	9	1	8	3	6	9	5	6	6	5	9	3	5	2	6	2	4	4	4	7	7	4	8	2	5	9	5	8	5	2	9	1	3	6	2	8	6	3	1	9	3	9	7	6	4	2	5	9
9	1	0	2	5	3	5	9	2	4	6	2	2	6	2	1	7	4	2	4	5	2	3	3	5	3	5	2	4	8	9	7	1	5	9	7	9	6	2	7	9	3	2	1	6	4	2	8	6	3
2	2	3	0	3	9	4	6	9	5	7	1	8	1	4	2	4	2	3	6	7	8	5	7	4	3	8	4	9	9	2	1	5	8	1	3	2	1	4	6	2	6	9	9	5	4	7	6	4	7
2	9	3	1	0	5	7	7	3	8	4	3	7	3	9	5	7	6	4	7	2	1	2	5	2	4	2	6	6	7	5	5	8	9	5	1	1	7	2	1	9	9	5	4	6	9	8	2	9	5
3	1	8	1	8	0	2	1	8	7	4	2	3	5	8	6	9	1	8	7	9	7	6	6	7	6	1	4	1	1	5	1	7	7	1	9	9	4	3	5	8	6	3	5	7	9	8	2	9	2
3	1	7	8	5	2	0	2	2	3	9	1	4	6	4	1	2	7	5	1	9	5	5	5	7	5	3	9	6	9	7	5	5	1	3	7	6	6	8	9	7	6	4	3	3	1	4	5	2	8
2	4	5	1	2	5	7	0	6	7	8	2	1	4	5	2	6	9	2	6	5	6	2	8	1	2	1	1	4	5	1	1	3	3	1	4	3	6	1	3	5	9	7	7	9	3	6	8	6	9
2	2	2	9	7	7	2	8	0	4	3	4	2	9	8	6	1	8	8	9	2	1	8	7	7	5	4	9	8	8	3	5	2	7	3	7	5	8	6	8	6	9	6	1	8	2	1	8	6	3
6	4	7	8	9	1	7	1	4	0	3	1	2	8	7	1	6	5	6	8	7	7	3	4	7	1	7	9	2	3	4	4	9	2	9	6	5	7	8	1	7	1	6	3	6	3	7	2	5	2
2	8	6	8	6	8	9	2	7	1	0	3	7	1	1	1	4	5	9	4	4	1	1	3	2	8	7	4	6	8	5	8	1	5	1	8	9	8	7	2	5	6	7	9	8	3	8	8	3	7
9	9	2	7	5	7	9	7	7	6	4	0	3	1	8	7	3	3	8	8	7	9	5	9	4	4	6	7	6	7	1	8	8	8	6	8	6	2	3	6	5	4	7	5	3	3	6	3	9	1
2	1	6	8	9	1	1	6	8	7	6	5	0	6	3	9	9	7	4	9	2	7	9	6	3	1	2	3	7	2	6	6	5	4	3	9	9	3	3	7	9	4	3	6	6	9	2	7	3	4
5	3	1	1	1	6	5	9	1	2	5	3	1	0	1	9	1	9	9	1	3	4	9	9	9	7	2	5	7	7	6	4	7	7	7	5	5	1	3	6	1	3	2	5	4	8	8	5	2	3
1	3	2	1	3	3	5	5	4	3	1	8	7	3	0	1	8	7	3	7	6	7	6	9	2	4	6	1	4	2	7	2	6	4	8	7	4	6	5	6	5	7	6	1	2	9	6	8	9	3
8	8	9	9	2	4	6	8	3	5	5	9	6	4	1	0	2	5	6	2	1	3	6	9	4	3	6	7	7	3	3	6	8	6	9	9	5	6	1	7	4	5	7	7	1	7	5	6	6	9
1	1	8	2	4	6	6	5	5	5	4	9	2	9	3	2	0	8	2	9	2	8	3	2	6	8	2	5	2	6	1	8	5	7	9	3	9	1	4	4	6	2	7	9	6	8	1	8	7	5
8	2	5	6	3	8	2	3	7	5	6	9	3	6	5	5	8	0	2	1	8	8	1	3	2	8	8	1	2	9	4	6	1	7	9	8	4	9	4	7	7	5	8	2	6	9	4	5	5	8
4	4	1	8	5	4	7	3	6	3	7	4	2	2	3	3	7	6	0	4	2	5	6	7	9	9	3	9	6	8	6	3	3	9	6	2	4	8	2	8	7	2	9	5	2	8	3	9	7	8
4	6	2	9	9	3	5	8	3	4	8	9	9	7	6	2	4	5	4	0	1	1	3	8	4	3	3	1	6	2	5	7	8	6	3	4	4	6	5	7	6	8	2	7	5	9	9	3	4	4
6	7	9	8	9	6	6	8	2	4	9	1	5	6	6	7	8	9	5	1	0	4	4	6	1	1	7	6	3	6	3	5	5	2	7	4	3	3	1	1	9	1	8	9	5	9	5	3	3	6
9	9	6	4	3	2	7	4	9	6	1	4	1	2	5	7	3	3	9	6	5	0	6	2	3	6	2	5	8	1	9	8	2	4	2	6	3	6	3	8	2	3	6	6	6	9	5	9	1	5
4	1	2	2	9	8	9	9	5	1	1	6	1	7	8	2	8	8	3	3	6	4	0	8	8	9	2	6	9	9	8	2	1	5	6	1	6	1	5	4	8	3	7	4	1	3	7	4	9	2
9	6	8	5	5	5	3	7	8	4	3	8	9	8	8	2	4	9	3	2	6	8	5	0	6	2	1	9	4	4	6	6	7	4	2	5	2	8	8	3	9	5	1	4	8	9	2	3	1	1
7	2	8	9	1	6	5	2	6	6	5	2	2	4	8	4	1	9	2	8	1	5	7	6	0	1	9	1	9	1	9	8	8	7	1	5	6	2	1	9	2	2	9	8	7	8	1	8	8	7
9	1	2	1	4	1	5	2	4	3	6	7	2	1	8	4	9	2	5	2	5	1	4	6	4	0	8	7	8	7	9	5	7	4	2	3	2	3	8	3	6	9	1	7	5	3	2	1	7	1
7	9	5	4	6	7	8	2	2	7	9	7	5	8	5	2	2	8	3	5	9	1	8	1	8	5	0	7	4	6	9	9	7	6	7	1	4	6	2	4	9	7	3	3	9	6	2	9	4	8
3	2	1	3	1	6	4	3	5	5	6	7	9	7	5	9	3	5	7	6	9	8	3	4	3	2	7	0	3	4	3	5	4	3	7	2	7	9	2	8	3	8	6	8	9	2	7	8	8	3
1	6	8	6	4	2	6	2	7	6	8	4	3	8	7	5	8	6	9	8	7	9	1	4	4	1	6	6	0	4	6	6	3	4	2	5	9	2	5	8	8	3	7	2	7	5	9	7	6	6
3	6	7	4	2	7	1	5	7	9	9	2	5	8	2	9	4	8	1	3	4	6	9	4	5	2	7	4	6	0	7	1	2	9	5	1	9	4	9	9	7	7	2	6	9	8	3	2	5	3
9	2	2	9	9	1	4	6	9	4	3	6	8	7	7	1	2	7	1	1	5	8	8	3	5	8	9	5	8	4	0	5	5	9	1	8	8	7	1	8	4	4	6	4	9	8	1	5	2	1
5	4	5	2	9	6	2	9	5	8	9	8	2	2	8	9	4	3	4	5	7	5	4	3	1	6	7	3	1	8	6	0	9	7	2	5	2	1	9	3	6	5	2	7	4	6	1	8	7	4
2	4	5	7	9	5	5	9	6	2	4	2	2	7	2	8	6	6	7	4	9	2	5	3	4	2	4	9	4	9	6	4	0	4	4	5	9	2	3	6	6	1	8	9	4	2	7	2	7	6
1	5	9	7	5	8	1	9	2	2	3	9	6	1	2	8	7	4	1	9	4	5	9	5	2	7	1	1	6	3	4	2	4	0	2	6	3	7	2	1	7	5	2	2	2	8	3	6	3	3
3	9	2	1	8	5	2	9	1	4	9	2	1	2	7	1	7	7	1	2	7	8	7	3	3	5	9	1	9	8	4	3	4	5	0	9	7	2	8	9	8	9	7	2	5	4	5	2	3	3
3	4	1	1	3	8	7	1	9	8	2	8	3	4	1	3	5	4	4	1	1	1	9	1	3	8	1	9	3	3	6	1	3	4	6	0	3	4	4	8	8	5	8	1	6	7	7	4	6	8
7	4	9	3	9	4	9	5	6	7	6	7	6	5	8	8	8	7	8	6	1	4	6	6	8	5	2	3	2	5	3	4	1	4	5	2	0	4	3	6	4	8	8	7	1	8	8	2	3	2
5	5	5	9	7	3	6	9	4	8	9	9	7	5	9	9	5	1	2	8	3	9	7	1	8	3	1	2	2	2	6	1	5	1	9	1	6	0	2	8	2	1	4	4	4	4	4	6	6	4
9	6	4	6	6	4	8	9	4	5	7	9	8	1	3	6	1	3	4	9	5	5	7	2	3	4	4	1	6	2	8	7	5	5	1	2	7	2	0	1	4	1	5	4	8	6	8	4	3	1
5	6	6	1	2	7	1	1	9	1	7	8	6	9	9	1	7	8	6	3	2	4	3	3	7	1	6	2	9	5	2	4	8	3	9	4	2	7	1	0	1	4	8	8	9	8	6	6	9	7
5	1	8	9	8	6	7	6	2	3	1	8	5	5	8	7	8	1	8	9	9	2	7	3	5	8	1	9	7	8	2	9	5	5	9	8	1	1	7	3	0	5	7	4	6	3	6	6	8	5
4	2	7	9	4	4	6	1	4	5	8	9	1	9	5	2	3	5	3	4	5	6	9	9	4	3	6	2	5	1	3	2	6	3	3	2	9	5	3	1	2	0	8	5	4	2	4	2	7	6
4	7	7	5	5	1	8	4	2	1	2	4	6	1	9	3	4	7	6	4	1	8	3	4	8	9	7	4	5	5	4	1	9	7	4	6	8	4	9	4	6	2	0	6	1	5	9	2	3	7
7	5	5	4	7	7	7	4	3	3	4	4	2	7	4	5	5	5	3	7	1	2	9	4	3	8	5	1	5	7	6	8	7	1	9	6	1	7	7	5	5	9	9	0	9	1	6	3	8	8
5	7	3	2	9	9	4	6	3	3	3	1	7	3	3	3	8	3	9	9	3	4	7	7	2	8	1	3	5	7	4	9	7	2	5	4	8	1	1	7	4	2	4	6	0	5	8	4	7	1
7	3	7	3	5	4	1	1	5	6	4	6	8	7	7	8	7	7	5	9	6	5	7	8	4	5	9	8	4	8	9	4	6	9	3	1	5	5	4	1	4	5	9	4	7	0	6	4	1	3
5	6	4	6	5	1	2	6	7	8	8	6	3	9	4	2	4	4	6	4	7	1	5	1	4	2	6	9	8	6	5	8	2	2	1	5	7	1	1	8	8	4	9	1	1	8	0	9	4	1
5	7	7	4	2	1	3	9	9	3	8	8	9	4	1	4	6	7	6	3	3	5	5	1	9	8	7	1	8	5	3	5	9	9	8	8	7	2	6	1	2	8	1	5	1	9	6	0	2	1
7	7	4	8	3	4	1	2	7	6	1	7	2	7	7	5	8	7	5	9	7	7	2	3	8	5	8	4	8	1	2	4	7	5	3	4	3	7	8	9	7	6	4	1	6	3	3	3	0	6
9	3	2	2	7	9	5	7	9	2	8	1	7	3	2	7	9	8	3	7	1	2	6	8	1	3	4	1	7	3	5	5	6	2	4	6	2	9	1	5	5	8	6	6	1	1	1	9	9	0
M5
0	6	8	5	5	8	3	8	4	4	4	5	5	9	8	3	7	2	8	9	1	5	7	2	5	7	8	8	3	4	1	9	8	8	7	1	2	4	9	5	1	3	9	2	1	4	1	9	7	7
8	0	9	6	3	9	5	1	4	7	6	3	6	3	7	7	6	4	6	1	7	4	1	7	2	3	1	7	8	2	8	7	4	5	8	6	5	2	2	9	1	3	4	3	6	3	6	4	4	3
4	2	0	4	1	1	4	9	5	7	5	1	7	7	5	1	2	7	1	6	5	5	5	9	1	5	1	6	7	1	1	7	8	8	2	9	1	4	7	3	9	4	7	4	2	5	6	5	1	9
5	8	8	0	9	7	7	8	4	3	3	7	2	7	6	7	6	8	8	6	1	9	4	7	8	1	5	5	6	9	2	5	6	8	5	8	6	4	7	3	4	8	9	5	1	2	9	4	2	6
7	4	9	4	0	4	3	2	6	5	8	5	3	2	8	2	3	8	8	2	5	1	2	4	2	2	5	3	5	9	4	3	2	8	1	5	2	1	5	3	1	1	6	5	9	3	3	1	4	8
2	7	5	6	2	0	8	6	9	7	8	7	2	4	6	5	7	7	3	1	6	1	8	9	3	6	6	8	2	3	9	5	8	5	6	4	9	3	6	7	1	2	9	4	2	9	9	4	7	6
4	5	4	8	6	9	0	5	6	7	7	9	1	3	8	7	8	4	9	3	9	3	5	2	1	2	6	9	6	4	4	9	5	1	5	1	5	4	4	8	8	7	8	7	9	8	2	6	5	3
6	5	4	1	2	1	2	0	4	4	3	9	6	1	8	9	1	7	3	1	3	6	7	9	8	2	9	5	3	9	4	7	4	1	2	9	6	7	3	3	7	9	6	7	9	8	5	5	3	5
3	1	1	8	1	6	8	9	0	2	1	6	6	2	6	5	4	8	9	4	1	5	5	9	7	4	6	4	8	2	2	2	9	1	7	1	1	9	8	5	7	3	9	6	2	6	8	4	5	4
8	1	1	4	2	7	2	3	2	0	3	6	8	8	2	3	1	5	3	4	5	8	4	1	3	6	5	1	6	9	7	6	6	8	3	2	2	2	4	8	1	2	7	8	6	3	5	3	8	5
1	6	6	3	8	6	3	6	1	1	0	1	3	8	1	1	5	9	2	6	3	4	8	8	3	2	9	5	8	3	3	3	6	6	5	3	9	1	4	8	2	7	3	6	9	8	2	7	9	7
4	8	7	7	6	8	1	2	3	5	8	0	3	3	3	7	6	7	4	8	1	2	4	1	6	4	9	7	8	7	5	9	8	3	5	1	4	7	6	5	2	2	5	1	3	1	3	6	2	8
7	4	7	3	9	5	9	4	7	2	8	4	0	1	6	9	1	6	8	9	9	8	3	7	7	4	3	7	8	3	5	2	2	3	2	7	8	4	2	3	4	6	6	4	9	6	6	6	7	8
1	4	1	3	9	5	9	9	2	1	6	4	1	0	1	3	5	1	4	5	1	5	9	3	1	4	1	6	1	3	6	4	9	2	7	1	2	6	4	8	1	7	5	8	1	5	7	2	4	3
5	6	3	1	6	2	5	3	2	4	1	2	4	1	0	5	6	6	2	6	7	2	2	3	3	1	9	5	5	7	9	3	1	7	9	8	4	8	6	6	8	9	5	2	7	2	4	4	1	7
6	3	4	7	7	5	4	5	6	7	4	2	8	2	3	0	4	3	4	1	4	4	7	6	4	6	3	5	6	2	9	7	3	6	7	3	1	9	2	7	6	6	5	9	7	5	2	7	1	7
2	6	1	1	2	8	4	2	2	8	9	9	9	8	7	1	0	9	3	3	5	1	5	8	7	2	4	8	7	3	7	7	3	2	7	6	9	2	4	6	9	4	6	8	2	6	1	1	4	9
2	6	6	6	9	5	1	7	5	2	3	6	6	5	4	2	1	0	1	4	2	9	4	8	2	1	9	2	6	2	2	6	1	9	1	8	2	8	7	8	1	7	3	6	7	3	1	3	5	1
4	8	3	2	3	7	4	9	1	4	2	3	6	5	8	4	2	9	0	5	8	6	4	6	7	2	4	9	5	2	6	2	4	6	1	7	1	3	7	5	7	7	7	8	8	3	4	8	5	2
4	8	4	9	2	6	1	4	7	7	8	1	9	3	9	2	3	6	9	0	5	3	9	2	2	4	6	5	2	4	2	1	6	7	5	5	3	7	9	3	2	9	2	6	3	2	9	2	1	3
1	4	6	8	7	7	1	2	2	2	8	1	8	1	9	2	8	2	3	7	0	2	1	2	2	7	6	7	3	8	7	7	1	1	9	3	7	4	2	7	1	3	9	1	6	2	5	9	1	1
1	1	3	6	1	7	3	3	1	6	4	4	5	5	9	6	1	1	8	5	9	0	9	6	6	4	9	2	6	4	2	4	5	7	7	3	3	8	8	4	3	2	4	7	6	2	1	8	6	8
2	1	1	9	2	5	7	1	8	1	1	5	5	4	3	2	4	9	9	3	9	3	0	6	6	9	7	5	4	7	8	1	9	7	2	9	6	6	2	2	2	5	7	2	1	6	7	5	6	8
5	8	7	2	5	5	2	5	7	5	1	3	7	7	1	7	5	7	9	6	1	6	7	0	2	8	4	9	6	4	3	7	6	4	3	3	1	6	7	9	6	7	8	7	4	3	5	6	9	3
5	4	5	4	3	4	2	1	8	3	5	7	6	8	1	3	1	3	8	2	4	4	9	2	0	4	4	9	1	9	8	9	8	2	8	9	4	8	9	3	4	1	9	3	7	4	5	6	9	5
8	3	6	4	3	7	3	9	7	7	6	9	5	3	7	5	8	4	1	6	3	6	6	8	2	0	2	6	7	6	4	2	2	4	8	9	6	3	5	1	6	6	7	3	2	3	1	7	7	4
7	3	9	8	5	3	2	9	5	8	3	1	2	8	6	9	4	5	7	8	2	8	7	8	9	6	0	2	7	4	6	8	1	4	9	9	2	8	2	2	3	4	4	2	3	7	4	7	9	5
3	6	2	7	7	7	2	5	4	4	9	3	4	6	8	5	8	2	1	4	3	1	5	4	8	9	7	0	7	9	8	6	4	2	9	2	6	5	4	7	7	2	6	9	5	1	6	3	6	4
4	7	8	7	5	6	9	8	5	5	6	9	8	4	5	9	6	8	8	6	5	2	7	5	2	5	5	1	0	7	5	1	4	3	4	7	6	2	6	6	5	5	5	5	9	5	4	3	4	8
3	4	2	2	4	8	5	4	1	7	6	1	9	6	9	5	7	3	5	2	8	1	5	5	3	6	7	4	3	0	6	1	5	1	8	7	8	4	6	7	8	9	5	4	9	9	6	5	5	7
6	6	5	4	9	7	3	3	6	2	5	1	7	4	9	1	8	7	9	2	5	9	7	2	7	9	7	9	1	3	0	8	5	7	9	6	5	1	4	3	7	5	1	8	4	8	8	9	2	5
1	2	4	1	6	4	5	4	2	4	2	5	2	8	4	4	9	1	4	3	5	1	4	6	8	8	4	3	6	6	8	0	5	3	4	4	8	4	9	6	3	9	4	2	1	3	2	3	1	8
6	1	6	9	1	2	5	5	8	7	4	8	5	6	4	7	8	7	8	3	8	7	8	4	4	2	3	5	9	9	6	4	0	2	9	1	4	7	5	2	6	7	6	9	5	9	4	3	4	8
7	7	7	9	9	4	8	3	9	7	4	7	7	7	2	1	3	7	5	3	5	8	8	2	7	1	7	3	2	7	5	7	3	0	3	5	6	3	2	6	8	5	9	6	5	2	1	2	5	3
7	8	3	3	3	6	5	2	7	3	5	3	4	5	5	3	7	9	7	2	3	2	5	6	6	8	8	8	1	1	2	3	4	9	0	9	5	2	9	9	8	5	7	3	6	4	2	8	9	9
7	3	2	6	3	4	6	6	3	5	9	8	5	7	4	1	9	4	7	1	7	1	8	3	8	3	8	2	8	1	3	1	8	3	3	0	7	7	6	1	6	4	1	6	6	3	3	2	2	2
8	3	4	2	5	9	8	1	9	3	4	6	5	3	4	5	7	6	2	3	5	4	6	4	3	6	3	1	1	7	2	6	5	3	3	5	0	4	5	2	8	2	2	3	4	6	2	1	8	3
7	3	2	5	3	5	2	5	6	5	3	3	6	6	5	5	4	6	1	6	1	3	3	2	5	1	4	1	8	6	7	9	1	2	6	5	1	0	5	9	3	7	9	8	7	9	2	4	7	4
3	5	7	2	4	7	6	1	5	6	1	5	4	9	4	9	1	9	2	5	6	4	1	3	9	3	1	3	6	4	2	5	1	4	9	6	5	2	0	6	1	7	8	5	4	8	3	4	3	5
7	9	9	2	3	3	9	6	8	4	9	7	8	9	8	4	7	4	6	1	5	1	2	2	2	8	5	7	4	6	9	4	5	9	2	4	4	2	6	0	3	4	8	3	4	6	8	4	5	3
7	9	2	7	7	9	4	8	6	1	6	7	6	4	1	2	8	6	8	1	3	4	5	4	8	8	6	9	8	7	6	2	4	2	6	4	4	6	5	1	0	6	2	2	5	1	8	7	5	3
1	7	9	6	7	3	1	1	9	3	3	6	4	7	7	4	1	5	2	8	4	8	4	8	2	5	4	5	4	8	6	4	1	7	2	5	3	8	2	2	1	0	7	6	9	4	6	4	5	1
7	7	6	7	2	5	4	1	3	2	3	9	1	8	2	3	4	1	1	1	8	2	4	7	1	4	5	8	8	5	3	9	7	3	6	7	5	9	6	3	5	3	0	1	9	3	4	1	3	6
6	5	2	2	1	7	4	5	4	1	3	9	9	1	3	5	2	2	2	1	7	2	9	4	3	1	8	2	8	4	9	8	9	7	2	2	6	8	4	4	7	3	4	0	2	3	6	9	4	6
1	6	7	8	8	4	9	3	7	7	2	7	4	7	3	8	9	8	4	2	1	5	3	9	6	3	6	7	5	4	8	7	5	7	4	6	4	7	5	9	3	4	6	9	0	5	6	5	1	9
1	7	7	5	1	6	9	6	9	4	2	2	6	4	3	3	2	4	1	3	4	2	9	9	6	4	3	4	1	8	4	9	2	5	8	1	7	1	1	8	4	1	8	6	1	0	4	4	5	4
4	9	7	6	5	6	2	7	7	8	9	9	1	2	5	7	2	8	1	9	2	1	6	8	3	3	5	7	6	6	8	5	5	6	4	8	9	6	8	9	2	7	2	1	7	1	0	7	5	8
7	7	3	7	9	4	8	4	8	3	1	7	7	2	5	9	1	1	2	1	1	2	3	4	4	6	1	6	3	1	6	6	8	9	5	5	3	5	4	9	3	2	3	5	2	3	2	0	3	8
7	1	3	3	3	3	7	3	3	8	5	1	7	4	9	6	5	1	5	9	2	3	7	3	9	8	8	3	8	7	6	3	5	9	5	2	1	5	6	9	4	2	3	5	9	4	1	7	0	4
6	7	2	8	2	7	8	1	7	6	6	6	7	3	2	9	2	3	9	6	2	9	2	3	8	9	6	7	5	8	6	8	8	1	6	4	4	7	1	9	6	8	2	2	8	8	2	5	1	0
M6
0	7	2	8	4	6	9	6	8	7	4	3	9	9	6	4	4	8	4	3	2	3	1	3	6	7	1	9	2	2	5	1	2	5	9	6	7	5	2	2	7	4	5	7	1	4	3	6	8	2
9	0	5	4	8	3	9	3	3	3	8	9	7	9	6	7	8	5	7	9	2	1	8	6	5	6	9	4	2	1	5	9	4	1	2	7	5	2	2	6	8	8	9	7	1	8	4	3	6	7
9	2	0	8	8	1	3	1	4	9	1	9	9	9	4	7	9	2	5	4	5	1	5	7	3	9	3	2	5	8	3	2	8	1	6	8	2	1	7	7	3	7	2	5	7	4	8	8	4	5
9	4	7	0	4	9	4	4	1	8	3	6	5	2	6	3	7	9	2	5	5	6	6	6	1	2	1	7	2	1	2	2	1	2	3	2	5	7	1	6	9	5	9	5	2	5	3	1	7	9
7	7	1	3	0	6	5	7	8	2	8	9	9	3	8	8	7	4	5	7	9	7	5	4	2	1	2	1	8	6	6	4	8	3	5	9	2	9	2	6	2	7	6	7	1	8	2	6	3	3
2	8	3	7	4	0	2	5	1	4	2	5	1	5	6	8	3	9	2	7	6	7	4	4	7	4	5	2	7	3	2	9	1	5	3	9	9	4	1	7	5	5	2	1	2	1	6	8	1	2
5	6	2	9	7	1	0	8	1	6	2	6	8	2	9	8	8	6	8	9	6	6	3	2	3	4	3	6	6	9	4	8	6	2	1	6	8	3	8	8	9	5	9	6	6	4	8	3	9	6
9	8	2	5	7	3	5	0	9	5	1	1	9	1	6	6	3	7	6	7	5	1	8	5	9	1	6	2	3	3	3	5	9	3	4	8	3	2	6	3	8	4	2	9	2	9	2	7	6	9
4	6	3	7	3	4	6	6	0	6	2	7	6	2	5	1	1	8	4	4	6	9	6	2	5	1	7	8	1	4	7	7	6	8	6	7	6	2	9	8	4	9	8	1	9	4	8	1	9	1
5	4	6	5	8	4	6	5	5	0	1	2	5	5	7	9	4	4	5	6	5	5	8	2	7	5	8	2	9	7	6	4	5	8	8	1	8	3	4	2	5	8	3	6	1	9	5	7	8	9
8	6	7	6	1	8	2	2	4	8	0	1	6	4	2	2	8	7	7	9	6	7	8	3	5	6	7	1	4	6	4	9	6	4	3	7	6	3	4	8	2	4	3	4	8	5	6	6	7	7
9	8	4	6	3	9	7	2	6	6	8	0	5	7	7	3	1	1	6	6	4	8	2	2	9	7	7	1	7	7	1	7	9	4	2	6	4	3	7	4	1	9	4	1	1	1	9	9	5	1
8	2	4	8	6	4	5	2	3	9	8	6	0	3	1	7	6	8	9	3	4	9	2	2	4	1	3	9	3	8	5	6	2	2	7	8	5	8	1	2	2	6	6	1	4	5	7	1	9	9
8	2	4	1	7	7	2	2	4	6	9	4	5	0	8	2	7	1	1	8	6	3	4	3	7	7	4	3	7	6	4	5	2	3	8	1	5	8	5	4	9	3	2	8	8	7	9	5	8	8
8	7	6	2	2	6	6	8	6	4	4	5	6	9	0	2	9	4	1	8	7	5	9	5	8	5	3	4	5	3	4	5	2	1	3	7	4	6	2	1	9	1	2	5	1	8	2	3	9	1
1	8	9	4	3	9	2	1	4	5	3	8	8	6	9	0	9	4	8	9	9	8	7	6	8	4	8	8	9	4	9	4	3	1	1	4	2	1	8	6	9	6	5	3	5	5	6	6	7	1
1	5	1	9	9	5	8	6	6	4	2	7	1	7	8	6	0	4	6	5	2	8	6	3	8	9	7	2	2	4	5	9	5	4	6	9	9	1	3	6	7	4	1	9	2	7	3	6	6	7
2	2	7	5	6	6	7	4	7	9	7	9	2	4	6	1	5	0	6	7	2	7	2	4	8	1	7	4	4	7	6	9	9	4	7	3	9	4	2	1	7	1	4	6	6	1	9	6	3	9
9	1	2	9	7	6	7	5	8	6	9	7	2	4	2	8	8	3	0	4	7	2	5	3	6	5	4	3	3	7	4	4	8	7	7	8	2	7	8	6	5	3	4	5	2	8	7	5	4	1
9	6	6	2	9	2	2	8	9	9	6	3	3	8	6	7	9	8	5	0	5	2	7	8	6	4	6	1	2	8	1	3	9	3	5	2	7	2	2	4	4	3	8	2	9	3	1	9	7	9
4	5	2	1	6	4	8	6	1	7	3	7	1	4	9	9	5	5	8	2	0	4	6	5	7	9	1	5	5	5	1	4	4	8	8	4	7	5	9	2	4	9	1	1	1	1	7	5	6	2
3	5	4	7	4	9	1	2	9	1	1	9	5	5	1	4	9	7	6	4	1	0	5	1	7	9	9	1	3	8	9	4	6	8	2	1	5	9	1	1	8	1	5	3	1	3	5	3	7	8
3	1	7	1	1	5	3	7	3	4	4	6	6	5	8	9	2	8	6	4	7	1	0	8	2	5	3	6	6	1	3	6	6	8	4	3	5	6	7	6	2	1	1	9	3	8	5	9	4	4
7	7	8	1	3	1	9	4	2	6	4	6	9	6	2	9	1	7	6	5	2	2	1	0	9	1	4	6	8	1	5	1	4	5	8	3	6	5	8	5	1	3	8	5	7	2	3	1	9	5
4	4	2	3	7	6	3	4	7	5	7	6	1	2	7	2	7	6	7	7	9	7	4	8	0	4	7	7	1	5	5	8	9	7	2	7	9	5	7	2	9	6	6	8	2	1	8	4	6	6
4	9	2	4	1	6	1	3	7	1	2	6	1	1	1	3	6	8	3	8	8	2	7	1	7	0	1	5	6	5	1	8	4	5	1	3	5	5	1	1	8	9	9	4	3	5	3	2	8	6
4	7	6	2	2	9	9	9	6	5	7	7	4	7	5	3	8	8	9	9	4	4	3	9	8	4	0	4	6	3	8	9	9	9	7	6	5	9	4	4	1	4	3	4	1	3	3	9	2	9
9	7	7	4	1	8	8	7	8	2	4	1	4	5	3	3	4	6	4	7	3	4	9	4	2	3	4	0	8	5	2	4	9	7	2	7	9	6	1	2	9	9	3	1	9	5	2	9	8	8
2	8	8	6	4	2	6	1	7	6	5	5	6	4	7	9	9	8	4	3	4	7	6	8	7	7	2	5	0	3	4	4	5	3	6	7	5	4	4	7	6	3	8	6	9	7	9	4	3	1
2	9	4	4	7	8	3	5	8	6	2	5	9	3	1	5	1	3	9	9	8	6	4	9	3	2	4	1	3	0	7	8	7	8	3	4	8	8	6	8	5	9	8	8	3	7	1	5	5	3
4	2	5	2	2	5	9	3	8	5	3	2	1	9	7	3	3	5	2	1	9	9	4	8	2	2	4	8	2	1	0	4	8	1	3	4	2	1	9	8	4	9	5	2	3	8	4	9	7	7
2	5	8	8	7	7	2	5	6	5	2	9	3	5	9	9	5	5	4	8	5	4	3	7	4	5	3	4	8	7	2	0	2	8	6	9	2	1	6	9	7	1	6	6	6	8	5	7	3	7
3	6	3	7	1	6	8	4	9	8	1	5	6	9	7	8	4	7	8	5	4	3	1	7	5	9	8	8	4	7	1	4	0	5	7	9	8	3	4	8	5	9	3	1	9	6	4	1	7	9
5	5	6	9	5	6	6	4	6	3	5	7	1	2	6	1	5	3	9	1	6	9	1	1	9	6	6	1	2	1	8	4	4	0	1	5	1	9	3	1	9	4	6	5	1	6	7	6	8	7
8	8	4	6	9	8	7	1	8	6	5	7	7	7	9	8	1	1	4	1	6	9	8	4	7	6	5	9	2	5	8	7	1	2	0	1	6	6	5	8	7	1	2	9	2	2	8	8	4	5
2	5	6	6	7	8	2	8	9	4	2	1	7	2	3	3	2	7	1	2	7	9	8	9	7	5	2	1	6	5	5	6	2	5	3	0	4	3	5	7	8	8	3	1	2	3	8	4	9	1
8	8	7	1	3	4	9	9	9	1	8	6	3	4	3	4	6	2	4	2	2	2	9	9	4	1	4	6	3	7	4	6	6	5	8	5	0	3	1	8	9	1	8	3	4	7	2	8	8	8
4	1	3	4	5	9	2	8	2	1	1	6	9	7	6	3	9	9	4	4	6	6	8	2	3	6	5	4	2	9	2	8	9	5	1	5	6	0	8	6	4	2	4	7	3	4	2	3	6	3
3	9	4	5	9	4	9	4	8	4	1	1	8	1	2	4	2	7	4	2	4	7	2	3	2	1	6	7	9	1	5	7	7	5	7	2	9	3	0	1	3	6	7	3	9	9	8	4	3	7
5	5	9	5	2	3	6	1	3	4	9	3	6	5	6	6	1	3	1	3	6	9	5	5	2	1	3	7	5	6	1	2	6	8	3	8	1	4	7	0	1	9	1	6	1	8	9	4	3	3
7	3	7	7	2	2	4	1	3	9	4	9	1	6	5	5	2	7	3	4	7	9	4	3	4	5	3	2	3	6	6	2	3	1	9	3	5	2	2	4	0	8	3	2	7	6	9	1	3	4
5	3	7	3	2	4	6	1	8	1	8	4	1	4	4	4	3	6	9	2	9	3	5	7	9	4	3	9	2	2	6	5	9	7	8	9	8	8	4	1	2	0	3	8	3	7	7	8	7	9
3	1	8	6	1	1	3	1	1	7	7	3	7	4	7	9	8	8	5	2	4	1	1	5	8	9	6	5	9	2	8	7	6	9	3	9	3	9	6	8	3	8	0	2	8	5	4	1	7	6
8	3	2	1	1	4	3	4	6	1	7	5	6	4	4	9	3	7	4	6	6	9	3	2	5	7	3	7	6	1	9	1	4	9	1	1	7	8	3	1	3	8	5	0	1	7	4	4	9	9
7	8	4	9	8	6	7	1	3	2	6	8	6	5	1	5	4	1	9	6	8	6	3	9	3	5	7	6	4	4	8	2	2	1	6	6	5	5	9	6	8	3	6	2	0	5	9	6	1	9
9	2	2	4	9	8	5	5	2	3	9	6	5	2	5	2	4	9	2	7	8	7	3	9	7	5	2	9	9	4	5	2	1	6	8	8	2	4	5	2	3	4	1	8	2	0	1	5	3	8
9	6	8	1	8	7	4	3	3	2	7	8	5	5	1	4	3	2	7	7	5	3	2	7	3	4	4	4	9	4	4	8	5	5	7	1	3	4	3	4	8	8	3	9	2	8	0	8	7	4
7	4	2	8	9	9	5	8	4	3	3	9	2	6	8	7	8	1	8	8	6	8	2	8	4	5	5	7	6	1	3	5	9	5	7	8	6	8	8	8	7	9	6	4	5	4	5	0	9	2
6	1	1	5	3	4	4	5	1	7	3	3	6	1	1	4	6	9	9	6	1	9	6	5	5	4	3	3	7	6	6	4	5	7	7	7	3	4	5	5	9	4	8	5	8	6	1	7	0	4
6	5	6	7	3	3	6	6	1	7	4	6	1	4	4	6	1	4	8	6	1	9	1	9	6	6	3	3	3	5	4	7	2	9	7	5	5	5	3	5	4	7	2	7	8	2	9	9	9	0
M7
0	8	2	7	3	1	6	3	9	5	8	7	8	6	1	3	3	6	9	2	3	9	3	9	8	4	3	6	3	1	1	7	5	5	9	9	1	9	7	8	3	6	5	6	7	8	4	3	8	7
9	0	2	5	6	9	5	7	6	5	6	5	4	3	3	2	8	8	4	6	4	9	2	1	7	2	3	3	7	9	5	6	6	3	8	1	5	2	9	3	3	1	2	3	6	8	7	9	4	6
2	3	0	8	9	1	7	8	7	8	2	3	4	2	3	3	2	3	3	2	2	8	6	2	3	1	9	4	4	6	1	4	6	1	5	5	2	3	6	6	5	3	8	6	4	5	1	9	5	6
3	9	8	0	5	9	2	7	4	5	8	1	3	3	4	9	7	9	3	4	9	9	9	9	2	4	7	7	6	7	7	3	6	5	7	5	5	9	1	5	6	6	8	6	3	6	6	6	5	3
7	1	7	9	0	6	9	6	6	4	8	8	2	6	1	8	6	4	2	2	6	5	6	5	5	8	1	3	6	3	2	9	4	2	1	2	6	3	6	5	7	1	6	7	9	6	9	7	3	2
1	4	7	2	5	0	3	2	3	4	1	2	7	3	9	3	7	7	9	7	5	2	5	8	6	7	7	8	6	2	7	3	3	3	6	6	7	1	3	2	9	5	3	4	9	9	5	3	1	1
6	2	9	2	5	6	0	2	9	3	9	6	6	8	7	5	1	7	9	6	2	3	7	7	5	8	1	3	3	5	5	4	4	4	6	1	6	7	2	1	9	2	9	3	7	1	6	3	5	5
2	6	1	3	6	7	3	0	6	3	6	9	5	4	2	8	6	6	6	6	5	6	7	6	1	8	7	1	1	3	9	1	1	4	8	2	9	4	4	9	6	3	1	5	1	7	9	7	7	6
7	4	7	3	8	6	7	9	0	4	7	6	2	4	6	2	8	1	4	8	2	1	6	1	9	6	2	2	1	3	1	5	1	1	8	7	6	3	8	1	1	1	6	2	8	2	7	1	6	5
7	1	7	6	2	9	6	1	2	0	2	4	5	4	3	1	7	7	7	4	1	1	1	4	5	4	8	8	6	3	8	5	5	5	1	5	9	8	7	7	5	2	9	6	4	7	9	9	3	3
8	9	6	2	7	4	3	5	7	1	0	9	1	8	6	3	3	6	5	3	5	5	4	7	7	2	9	7	6	2	6	7	9	9	6	4	9	2	2	9	2	8	6	6	8	2	4	3	8	7
5	8	6	8	9	4	2	5	6	8	9	0	9	9	7	5	7	1	1	2	6	8	1	3	9	4	2	3	4	5	5	4	7	7	2	9	1	2	4	7	4	2	7	5	1	8	9	8	9	6
5	9	3	2	1	7	5	8	8	5	9	6	0	2	2	5	2	2	8	9	3	3	2	9	2	1	3	7	9	8	3	6	4	8	1	5	4	3	9	9	3	4	9	5	9	4	9	9	6	6
3	9	7	9	3	3	2	3	8	7	9	3	4	0	3	2	5	4	8	8	3	2	6	2	4	9	5	9	3	5	5	1	8	7	7	5	7	2	4	2	7	4	5	3	5	8	8	2	7	8
6	5	3	5	5	3	1	8	8	6	7	1	8	6	0	1	1	3	9	4	3	9	2	9	4	2	2	3	6	2	3	5	4	5	7	5	6	4	4	3	9	1	2	8	1	1	6	9	6	4
8	3	5	4	2	8	1	2	1	7	3	9	3	6	1	0	2	1	4	3	2	5	8	9	3	5	3	3	4	4	2	5	1	3	9	5	2	6	4	1	7	1	6	3	8	4	2	6	4	6
9	7	3	6	1	8	3	5	3	5	7	7	8	2	2	6	0	8	6	6	7	6	6	5	2	9	4	8	4	5	4	8	9	4	9	2	1	9	5	2	7	3	1	8	2	9	7	8	9	3
3	6	3	3	3	9	4	3	7	6	9	2	1	6	7	8	1	0	9	2	4	8	9	1	3	5	3	6	9	4	4	5	6	4	1	8	7	4	8	4	6	8	8	2	9	7	5	2	3	5
7	4	6	9	1	8	9	4	7	9	5	5	1	9	2	7	7	4	0	8	7	7	2	4	2	5	8	6	6	6	2	8	6	3	6	1	7	4	6	1	9	9	6	4	3	1	4	1	8	1
6	6	3	5	1	6	8	2	4	5	5	1	5	3	7	3	4	5	1	0	5	6	1	4	5	4	4	2	9	3	5	1	4	9	5	9	9	7	5	8	4	9	7	7	1	6	7	7	4	7
4	2	7	1	7	3	9	2	9	4	2	4	7	3	9	5	5	9	3	4	0	9	6	5	3	1	1	9	3	8	3	7	8	3	8	7	9	4	5	3	2	3	3	3	1	7	5	6	6	7
2	2	5	2	9	6	7	1	9	1	8	6	8	7	7	8	4	7	4	8	9	0	8	4	2	3	9	8	6	3	5	9	6	7	9	2	9	7	6	3	7	2	8	7	7	6	2	9	9	6
7	1	2	2	3	4	2	6	8	8	3	8	9	2	4	6	7	5	4	3	6	7	0	3	1	8	9	9	7	1	9	9	7	2	9	1	8	5	3	5	8	8	5	8	5	6	2	3	2	8
3	3	2	8	2	1	7	5	9	8	7	8	3	9	7	2	5	6	6	9	1	2	3	0	8	5	9	1	8	7	7	1	5	6	4	9	2	6	5	3	6	3	2	2	2	8	7	8	3	4
5	7	1	2	8	4	7	1	7	2	7	9	4	7	3	9	6	8	5	7	5	9	1	3	0	5	5	3	5	8	1	8	9	5	6	8	8	8	5	6	8	8	2	3	3	1	1	5	1	6
9	3	6	9	9	4	4	3	6	3	3	3	7	4	5	4	1	6	7	2	1	6	8	1	4	0	2	9	8	4	1	4	1	1	2	3	1	4	7	5	1	5	2	5	3	6	6	4	7	8
1	4	8	7	9	3	2	7	2	6	9	7	2	5	6	9	2	9	2	5	9	1	3	5	8	5	0	2	3	2	5	2	3	9	8	9	7	8	1	7	9	7	7	8	5	1	5	9	6	7
1	9	7	2	6	3	2	7	6	4	5	7	9	3	7	7	7	1	8	6	3	5	4	1	4	3	5	0	1	7	5	4	5	3	9	9	6	4	5	6	4	6	9	9	4	6	6	2	8	5
7	3	7	5	9	4	4	3	1	3	4	1	8	1	4	9	4	8	3	8	2	5	2	3	5	4	7	3	0	7	4	3	2	8	7	8	5	6	1	5	6	2	8	7	7	4	5	8	2	3
4	7	7	6	7	1	4	5	4	2	5	8	7	3	3	4	8	3	8	9	9	3	6	9	6	5	3	5	7	0	5	7	2	1	2	4	9	6	1	1	1	9	4	9	5	7	5	2	5	9
9	2	5	8	3	6	1	6	5	7	7	3	3	8	5	1	1	6	4	3	8	6	1	6	9	1	9	2	7	6	0	8	7	5	5	6	8	9	2	8	3	2	6	2	7	6	6	1	7	1
3	1	7	1	2	1	2	6	1	6	3	3	4	9	7	7	4	5	2	6	8	4	8	6	4	3	2	2	6	9	5	0	6	8	1	6	2	3	2	5	3	3	5	2	6	5	5	6	5	6
6	6	2	5	6	6	3	6	9	8	8	2	3	7	6	2	3	6	4	5	4	4	8	8	1	6	7	8	8	1	9	6	0	2	8	7	2	2	7	6	4	7	1	9	1	5	7	6	5	7
6	8	8	3	5	1	6	2	4	8	9	1	5	9	9	3	1	8	7	1	9	1	2	5	7	1	8	2	9	6	4	5	9	0	4	8	4	9	3	6	3	7	5	8	6	8	7	7	2	6
3	5	4	1	2	9	6	7	3	8	2	8	5	9	3	2	6	7	5	3	5	6	2	8	5	3	2	5	6	4	9	3	3	8	0	7	9	8	6	7	5	8	7	5	6	2	4	9	9	3
6	6	7	9	3	1	6	2	8	7	4	6	7	6	7	2	3	5	5	6	2	2	5	3	1	3	9	9	6	3	5	7	9	9	7	0	8	2	6	8	8	3	1	1	4	9	3	5	8	4
7	6	4	3	5	5	7	9	1	2	7	8	2	1	2	1	8	6	6	7	1	7	6	5	7	3	3	7	8	7	4	8	2	2	1	6	0	1	7	3	2	3	8	9	5	1	2	6	5	1
9	7	3	9	8	6	8	1	8	7	1	3	3	4	7	2	1	6	7	3	4	6	9	9	4	7	7	8	7	1	1	2	9	7	2	4	7	0	2	1	6	3	4	4	4	1	4	1	1	4
1	1	4	2	6	5	1	3	6	6	8	8	9	7	4	3	1	4	1	6	4	8	6	6	1	5	9	4	8	1	6	8	7	1	6	8	6	4	0	7	2	1	2	8	8	1	4	8	2	6
1	7	5	3	4	7	4	4	4	8	7	8	9	5	7	5	7	2	7	2	1	4	5	6	3	3	5	6	3	1	4	9	1	8	2	4	7	6	6	0	2	9	8	1	4	4	8	6	1	3
3	1	2	3	8	7	8	6	6	6	8	6	5	1	2	2	3	2	5	3	5	9	4	8	5	9	5	8	7	8	4	7	9	6	9	7	7	6	5	9	0	2	4	7	8	2	1	8	2	6
7	8	3	2	2	2	6	5	3	6	1	7	2	3	8	4	3	9	6	3	6	4	7	5	3	2	6	8	6	3	5	3	2	9	4	5	4	3	8	5	2	0	4	1	4	9	1	6	4	4
2	8	6	4	4	6	7	1	8	6	1	6	3	7	8	9	5	2	5	2	2	8	9	8	2	8	6	9	5	5	2	2	7	9	2	5	3	6	2	5	2	7	0	9	2	2	3	7	1	6
7	7	5	8	1	4	1	1	5	3	4	2	2	4	6	3	1	7	6	3	3	1	2	5	9	4	2	1	3	3	5	9	6	4	3	8	4	3	4	1	6	9	2	0	8	1	3	5	7	1
9	3	4	4	6	2	9	4	2	1	4	9	9	8	2	4	4	4	3	1	9	4	9	3	6	6	3	5	3	3	2	2	1	4	8	2	9	6	6	4	3	6	4	3	0	9	5	5	1	6
8	8	9	8	1	5	4	4	5	6	7	5	4	3	6	3	3	7	4	2	4	3	3	9	2	7	2	6	5	3	1	1	4	9	1	3	5	1	6	7	4	7	8	4	6	0	8	2	9	9
6	1	3	8	5	7	7	6	7	5	1	9	3	9	2	1	3	8	4	2	9	7	1	1	7	9	8	1	1	1	9	9	7	5	2	4	7	4	2	4	2	1	6	5	7	4	0	3	8	5
2	5	7	3	8	3	9	6	8	4	1	5	3	9	1	7	5	9	2	4	2	3	4	5	3	2	7	9	2	4	7	5	3	8	2	2	2	1	9	8	3	7	2	9	6	2	1	0	9	5
4	9	5	9	8	1	8	7	1	5	8	4	2	6	9	9	4	7	2	1	9	5	5	1	2	4	6	3	7	5	3	8	5	4	1	8	5	3	7	8	1	3	4	9	8	7	8	1	0	3
9	1	7	1	6	3	7	6	6	1	2	3	4	2	6	8	8	8	3	4	6	3	7	3	4	1	3	8	8	3	2	5	4	3	9	1	7	4	7	2	4	1	7	4	4	7	2	4	5	0
M8
0	4	6	4	9	4	6	6	7	6	5	5	2	2	9	2	5	1	5	6	7	5	5	4	3	8	4	1	3	6	4	7	3	3	3	2	8	4	7	1	3	1	5	7	6	9	7	1	1	4
1	0	9	3	2	1	5	4	7	8	2	9	8	3	6	7	6	1	1	2	1	7	2	4	8	6	3	5	6	2	1	1	4	7	8	2	2	8	2	7	8	7	2	2	5	4	5	4	6	7
1	7	0	9	7	2	6	8	9	5	6	6	1	2	1	7	7	1	2	2	6	2	8	1	9	6	8	6	7	1	5	1	4	9	3	2	2	3	8	8	1	6	4	3	9	1	3	9	3	8
3	2	5	0	1	4	9	4	9	8	4	6	8	1	8	1	2	5	3	9	6	1	5	5	3	6	2	6	5	1	5	8	4	9	9	3	8	4	3	4	4	1	2	8	3	6	4	9	8	4
7	4	6	6	0	4	1	1	6	8	1	2	9	7	1	3	3	7	5	8	1	3	2	8	3	3	3	8	8	3	5	7	6	9	8	1	4	5	4	1	6	8	1	8	8	5	4	1	9	3
8	9	9	4	2	0	6	4	1	7	8	1	6	3	5	3	7	7	2	9	4	7	4	5	9	4	9	1	8	9	7	1	2	8	3	9	4	9	3	5	2	8	6	2	5	8	3	1	7	2
8	7	6	2	5	8	0	1	4	1	8	4	7	3	2	4	8	7	8	4	4	5	5	9	1	5	1	8	2	2	8	6	3	3	1	4	9	8	5	7	9	8	9	8	6	3	5	4	1	4
2	7	9	3	2	3	9	0	6	2	4	2	7	5	4	9	1	6	8	5	2	8	3	1	6	3	4	2	9	6	4	6	9	5	4	1	6	7	8	6	3	9	5	8	3	2	9	1	3	4
7	5	5	1	5	2	9	2	0	4	6	2	6	2	7	5	6	3	6	9	1	4	5	7	5	7	5	9	4	4	3	7	6	2	4	1	4	5	4	1	8	8	6	6	5	9	1	6	6	9
1	7	1	8	5	7	7	3	5	0	5	5	7	4	2	7	5	4	2	2	6	7	3	4	6	8	7	2	7	7	3	8	2	5	7	8	3	8	7	2	1	4	4	2	2	7	2	5	3	2
4	6	9	2	9	6	3	1	6	4	0	8	3	8	1	9	9	8	5	6	1	4	2	9	8	8	7	9	9	7	1	5	2	6	9	9	5	4	8	5	4	9	5	5	4	3	1	7	7	2
1	9	3	8	1	7	6	6	7	5	1	0	2	6	7	3	7	6	9	4	6	6	6	8	2	3	2	4	1	1	3	9	2	5	6	8	1	6	9	6	3	5	9	5	3	7	3	3	8	9
5	6	8	7	8	7	6	8	2	9	8	5	0	7	3	3	9	8	6	7	6	7	1	3	8	3	2	5	3	4	4	5	2	1	5	1	3	9	5	1	9	2	2	1	1	3	3	3	6	1
6	8	5	4	9	4	9	5	2	4	3	4	6	0	3	7	5	5	5	6	1	5	1	2	6	2	2	8	8	7	2	4	5	6	9	5	9	8	5	8	7	3	4	1	7	6	9	8	4	7
1	3	7	6	9	1	4	2	6	9	4	5	1	5	0	9	5	1	6	2	2	8	6	4	3	8	3	5	5	5	1	6	6	7	3	4	6	7	9	1	9	8	8	4	7	2	3	8	7	6
6	7	6	6	2	5	9	1	8	9	2	1	8	1	9	0	3	6	4	4	1	8	7	5	1	4	4	4	3	6	8	8	3	9	2	8	6	9	8	6	5	9	7	1	2	4	6	1	7	7
8	2	4	9	9	4	7	6	6	2	1	7	8	2	8	8	0	6	9	2	7	3	7	2	9	8	4	5	2	3	3	7	3	8	1	7	3	2	4	8	8	4	2	4	9	5	2	5	6	4
8	6	9	9	7	6	5	5	9	6	8	4	7	2	4	1	6	0	9	2	1	1	7	5	3	2	5	4	8	7	1	8	4	8	9	5	1	8	7	5	4	2	7	7	9	8	7	9	2	2
6	4	1	6	5	5	4	9	8	3	8	3	7	2	5	2	6	7	0	6	9	8	4	4	2	1	3	3	3	1	7	7	5	7	6	2	4	3	1	2	3	8	9	5	4	1	9	2	5	9
5	1	3	8	4	7	5	9	9	7	2	8	1	8	4	5	6	8	7	0	1	3	2	3	4	5	1	3	3	3	9	3	1	5	6	6	8	4	1	7	1	5	7	1	6	4	7	8	3	8
5	5	9	1	5	2	4	3	7	3	7	2	2	4	6	5	8	7	7	4	0	3	6	2	2	9	9	8	7	4	8	5	3	5	8	8	1	4	1	2	5	6	4	7	1	8	6	9	1	9
2	6	6	7	9	4	6	7	2	1	7	5	7	2	5	5	5	6	6	6	7	0	8	6	4	8	5	5	8	2	3	2	9	7	2	6	8	9	1	4	8	4	7	9	6	8	1	4	1	2
1	1	1	4	3	8	3	4	1	7	2	2	4	3	2	6	4	2	6	6	3	2	0	2	6	2	8	3	5	5	5	8	7	2	2	2	1	1	5	9	8	6	5	2	9	9	5	6	4	9
4	3	3	1	4	3	5	7	3	7	7	7	8	7	5	5	7	5	4	4	9	1	8	0	3	6	4	9	9	2	8	1	7	7	4	4	1	7	3	9	8	3	9	9	5	1	4	8	1	1
1	7	3	5	1	2	9	6	1	8	5	6	1	8	3	6	8	6	3	7	1	1	5	3	0	9	4	4	1	1	3	2	7	1	8	2	7	9	1	7	6	3	3	3	3	8	7	4	9	9
5	2	2	6	6	2	8	5	9	6	6	5	9	8	4	4	3	6	8	5	1	4	7	8	2	0	4	2	6	6	5	9	1	2	9	6	3	6	8	9	1	8	2	6	1	8	2	1	7	4
6	3	6	2	9	7	6	7	1	1	2	3	3	8	1	4	5	7	1	5	6	6	1	5	7	8	0	5	9	2	1	5	7	1	5	4	8	2	1	1	9	1	8	2	4	2	5	4	5	5
2	4	2	6	5	7	4	4	3	5	3	1	8	3	1	1	9	7	8	9	1	7	2	8	4	4	6	0	8	8	4	5	2	7	5	8	8	9	2	1	5	7	1	4	4	4	1	3	3	1
9	4	8	7	6	8	4	7	6	2	3	8	9	2	6	1	9	1	3	2	2	5	7	2	9	2	4	6	0	2	3	1	3	2	9	6	1	8	6	7	5	9	7	3	2	3	8	4	8	3
9	8	3	5	4	5	3	2	9	6	1	1	4	4	2	8	5	9	6	3	3	4	9	3	3	9	5	9	4	0	2	9	1	8	3	8	7	9	9	5	7	4	1	1	7	5	3	2	3	4
5	6	7	5	6	7	8	1	6	8	7	4	9	1	9	5	6	4	2	3	1	3	9	6	4	7	5	5	9	9	0	9	4	6	4	6	6	3	1	6	1	5	4	7	2	6	1	7	2	5
3	1	7	3	8	8	8	5	2	9	6	8	7	5	6	1	6	4	4	3	7	2	2	8	7	6	6	5	5	3	4	0	6	5	3	8	9	1	9	3	7	7	8	8	6	4	4	6	1	2
1	5	7	8	4	3	5	7	1	3	2	4	4	1	8	7	8	3	1	1	3	9	9	1	6	6	9	3	4	2	2	4	0	8	2	9	2	2	9	9	3	4	2	2	5	2	6	6	7	4
6	2	7	6	6	5	2	7	4	1	2	4	7	7	5	4	9	5	2	6	8	9	7	9	2	6	7	7	8	6	6	4	9	0	7	3	3	2	2	2	1	8	2	4	2	8	9	3	5	7
1	5	6	4	7	7	6	8	4	8	1	7	4	6	2	2	8	5	2	2	1	7	9	6	6	8	6	7	3	7	6	3	7	5	0	5	1	9	2	5	1	8	7	5	9	4	6	9	5	4
6	5	3	1	3	9	8	2	9	8	8	8	2	2	6	3	8	4	1	8	1	1	7	6	3	4	3	2	2	6	4	7	6	5	9	0	1	2	7	3	7	5	8	8	7	9	2	8	5	1
6	4	8	8	2	1	2	4	1	2	9	6	1	1	9	8	7	4	8	4	7	4	1	9	8	2	3	9	6	3	6	9	5	3	2	3	0	8	3	7	1	9	3	3	2	9	4	3	1	3
9	3	6	5	3	8	3	2	5	4	1	4	4	5	9	6	6	3	1	7	7	1	1	6	5	4	7	7	9	9	6	9	7	9	6	7	6	0	2	8	1	7	1	8	2	6	1	7	3	2
2	5	4	9	7	5	7	6	5	1	6	6	5	5	1	7	7	4	7	7	8	6	1	4	5	6	3	8	6	8	5	6	2	1	9	8	2	3	0	1	3	8	5	9	5	9	2	6	8	1
3	1	7	8	2	4	2	5	4	1	7	2	2	5	6	2	3	1	8	1	4	2	8	6	4	4	7	8	3	9	9	8	1	4	2	1	4	9	4	0	1	1	7	4	7	1	5	7	6	4
3	3	4	8	1	8	9	6	1	6	7	6	1	6	2	4	2	3	9	8	1	6	8	3	1	8	6	6	1	2	1	5	8	9	3	6	6	5	9	9	0	4	6	6	8	8	4	9	4	7
1	8	4	7	7	8	3	1	5	2	3	2	3	9	2	1	3	1	7	8	2	5	8	7	3	5	6	3	8	4	6	9	2	5	8	5	3	7	5	2	7	0	3	9	8	2	7	2	7	6
3	2	8	5	7	7	6	4	7	8	4	4	2	6	9	6	8	9	5	9	2	5	8	9	5	1	3	1	8	5	8	5	5	2	8	1	5	5	8	7	5	9	0	4	1	3	4	3	3	7
6	5	9	8	3	4	1	3	7	4	7	5	4	9	4	9	6	1	1	7	9	6	5	9	1	2	2	3	9	8	8	7	5	5	7	5	1	8	7	6	5	7	1	0	1	6	8	5	6	8
7	8	2	8	5	6	5	7	4	7	4	9	6	2	3	6	8	2	5	1	2	9	3	3	4	8	9	8	4	4	7	6	4	5	7	4	2	5	6	9	2	6	8	1	0	2	2	9	7	5
8	5	4	2	8	5	8	8	5	9	3	1	4	1	3	4	1	2	7	9	6	3	2	2	6	7	2	3	2	7	8	9	3	8	7	3	7	6	9	5	7	6	2	5	5	0	3	9	3	5
1	7	2	4	2	7	6	5	3	6	2	3	7	7	3	6	2	5	1	1	5	5	1	9	7	4	9	3	3	8	8	4	2	9	8	7	9	9	4	7	4	9	2	2	3	3	0	1	4	6
2	6	2	5	4	1	3	6	5	6	2	3	9	7	7	1	9	9	4	5	2	8	9	5	8	1	2	8	5	8	5	7	5	1	7	9	3	2	9	1	9	3	8	7	5	7	9	0	3	7
2	3	8	8	1	4	1	4	2	3	1	3	2	2	6	5	3	8	9	4	3	1	3	1	9	9	9	8	6	6	4	4	9	6	5	3	5	5	4	9	7	1	9	7	6	2	6	7	0	9
2	9	2	2	6	8	5	1	6	9	1	5	9	8	5	8	7	6	9	5	2	2	1	5	7	6	6	1	5	9	5	6	9	4	1	8	3	1	3	2	8	6	4	3	4	9	6	8	1	0
M9
0	3	1	7	7	5	6	8	2	4	9	2	5	7	8	7	3	4	5	3	1	3	6	4	8	1	1	2	8	3	9	3	9	2	5	4	8	8	7	9	1	8	8	9	3	9	6	5	7	6
8	0	5	4	6	1	9	8	7	4	2	6	9	4	7	3	5	2	5	5	2	6	6	4	5	3	3	8	8	5	8	7	6	7	9	8	5	2	6	5	2	7	8	4	3	8	1	9	5	1
5	4	0	1	2	9	1	6	2	3	9	3	9	7	9	5	3	6	8	1	3	5	3	2	2	2	3	7	8	7	7	9	2	3	2	4	1	5	5	9	8	2	5	2	1	7	2	1	5	1
7	4	4	0	7	3	7	2	8	7	2	5	2	8	1	4	7	2	5	6	8	8	2	1	9	9	6	7	4	4	1	4	4	6	6	3	1	9	1	1	3	5	8	2	4	6	4	9	9	9
2	2	1	8	0	6	1	9	2	4	7	2	5	7	8	5	6	7	6	4	7	5	1	9	9	9	4	5	4	5	7	6	7	7	6	5	7	2	9	7	3	3	4	1	9	9	2	5	6	7
5	2	6	7	6	0	7	7	5	9	4	6	2	8	2	6	8	7	2	6	6	8	5	9	9	2	2	1	5	2	5	7	6	4	9	1	5	1	1	7	4	1	6	2	6	3	5	7	6	8
8	2	3	8	8	9	0	4	8	3	3	7	1	8	4	3	8	7	4	7	8	9	4	6	9	7	7	8	2	2	1	8	4	9	7	4	9	4	8	1	2	2	2	7	8	6	5	5	7	8
4	8	3	3	6	1	5	0	1	3	5	6	4	3	5	2	3	2	6	6	8	3	7	8	1	7	3	7	4	5	1	3	8	6	9	8	9	6	6	3	6	9	1	7	6	4	2	3	8	1
6	8	8	4	8	9	5	6	0	9	6	5	8	9	8	7	2	8	9	1	8	1	8	6	9	5	5	2	8	8	9	1	5	3	7	4	7	1	6	5	2	9	8	6	7	6	9	7	9	4
1	6	3	3	3	6	7	8	3	0	9	1	8	7	5	6	9	7	3	3	7	8	2	4	1	4	3	5	8	8	6	2	5	7	9	5	8	5	4	8	4	1	3	6	2	5	3	7	9	8
5	3	4	9	2	7	9	7	3	3	0	2	6	1	2	4	2	2	1	4	4	4	8	4	2	2	7	1	3	7	1	8	4	2	5	5	3	1	6	9	7	1	8	4	6	6	5	6	2	8
2	7	2	8	5	8	5	2	7	5	5	0	5	3	4	7	3	9	3	2	5	7	2	7	9	3	7	7	6	5	6	1	3	3	2	4	8	9	2	7	5	4	5	8	7	8	5	9	3	1
1	4	6	7	1	8	5	4	8	9	2	3	0	4	5	1	5	5	8	5	2	9	6	7	9	1	1	6	9	5	4	4	9	2	6	5	7	3	4	9	6	1	5	5	4	8	9	6	1	1
4	4	4	1	7	3	1	1	4	8	1	7	4	0	8	6	7	2	2	6	9	5	3	7	9	1	1	1	3	9	8	7	4	5	2	1	3	9	9	7	2	3	5	7	6	3	3	9	9	3
4	6	7	6	7	9	6	2	9	2	2	1	3	4	0	7	6	3	5	9	1	3	3	6	3	7	9	2	4	2	8	9	9	7	1	3	8	3	8	5	2	3	5	1	9	9	8	5	8	1
6	3	8	3	5	7	6	4	1	3	1	2	7	7	8	0	5	4	7	6	6	5	7	3	6	9	8	2	5	8	9	8	5	9	1	8	4	7	5	2	3	7	3	6	8	5	4	4	2	3
1	1	8	1	6	1	8	6	6	4	2	5	4	3	5	6	0	8	3	1	2	4	7	8	5	3	4	1	4	8	8	6	5	1	6	7	5	2	5	3	8	5	3	8	7	1	5	8	6	9
6	8	1	4	8	7	2	2	8	6	1	1	3	8	8	8	6	0	5	8	7	7	4	7	1	3	7	5	9	7	1	2	2	1	3	6	6	6	7	7	6	5	5	3	8	4	6	5	6	4
1	6	1	9	1	1	1	3	1	2	3	9	5	6	3	2	1	7	0	1	4	2	2	6	6	7	7	2	7	4	5	1	2	9	7	5	1	5	3	1	9	1	7	2	6	6	5	5	9	8
4	7	5	8	9	4	6	3	9	7	6	5	2	6	7	1	7	6	8	0	2	3	4	8	2	3	5	3	2	4	1	2	7	1	5	1	6	1	5	2	4	3	2	2	4	9	4	9	2	9
7	5	1	9	3	8	7	5	3	2	2	1	5	9	3	7	5	8	6	3	0	4	5	3	2	4	2	9	6	4	7	4	8	3	6	4	5	1	5	4	4	4	2	4	5	5	9	7	7	2
5	6	2	9	3	3	6	8	2	1	7	1	1	5	6	6	8	5	8	6	7	0	7	3	7	1	3	8	1	4	8	6	7	4	5	5	2	8	7	1	3	6	5	2	6	8	7	4	9	2
3	6	6	2	4	2	3	4	3	1	2	9	2	6	6	5	5	1	4	9	2	1	0	2	6	7	1	2	1	3	3	4	9	1	1	2	6	1	9	5	3	4	6	3	8	6	9	7	9	3
2	9	8	1	8	1	1	1	4	4	6	4	9	4	5	2	2	7	9	8	4	5	8	0	8	9	7	8	7	8	5	2	6	8	4	3	2	9	3	5	7	7	5	6	4	5	8	7	5	3
6	9	4	4	6	9	5	7	5	2	5	2	8	7	8	5	7	7	1	3	4	6	7	3	0	7	9	7	4	1	8	3	7	5	4	7	3	6	1	8	7	3	6	8	8	9	7	6	6	9
8	6	1	7	4	1	6	7	8	7	4	8	8	8	2	5	1	1	9	2	5	5	8	3	4	0	9	7	7	4	6	8	3	3	7	9	5	8	2	7	1	1	2	8	3	6	1	1	5	9
5	3	8	4	8	9	8	4	6	4	4	9	3	7	2	4	2	2	2	6	6	2	8	8	6	1	0	4	8	2	6	8	9	2	9	9	6	9	5	6	8	3	4	5	4	1	5	3	1	1
2	7	4	7	1	1	2	8	5	1	7	5	4	1	7	5	9	1	8	8	6	2	6	2	3	3	6	0	8	1	4	8	5	7	6	4	7	6	3	3	4	2	9	5	9	9	8	4	8	4
5	3	3	9	5	1	6	3	3	8	9	6	7	4	7	1	7	4	5	9	8	1	6	2	2	1	6	1	0	1	8	6	1	7	2	1	8	7	9	8	6	5	6	7	3	4	4	9	9	3
5	1	7	6	7	1	3	2	2	9	6	9	8	4	2	9	5	5	3	4	7	7	6	4	8	2	9	8	5	0	4	3	2	1	7	3	3	4	1	5	9	1	7	7	6	5	8	9	5	9
1	1	7	4	4	1	1	5	5	8	8	5	6	6	6	4	2	5	4	4	5	5	8	1	1	4	8	8	5	5	0	6	8	7	2	8	2	9	9	7	9	2	9	3	2	9	6	4	7	7
1	1	5	7	7	8	1	5	2	1	6	4	9	4	5	5	7	3	1	8	1	3	7	1	9	2	9	2	6	4	8	0	3	2	9	3	8	8	3	9	6	3	5	1	2	9	1	9	2	3
6	5	1	1	1	7	3	2	7	9	7	2	5	3	1	7	6	6	5	2	7	9	5	6	1	1	8	5	5	8	3	9	0	9	4	3	5	7	1	5	5	5	7	4	3	5	5	7	1	4
1	7	1	6	6	8	5	2	6	5	2	9	7	5	6	1	4	7	9	6	3	4	4	2	1	1	3	3	6	8	6	1	5	0	4	5	5	6	1	3	3	7	1	7	3	8	8	8	4	2
2	7	3	8	3	2	6	9	6	9	3	5	8	9	4	5	8	6	6	2	5	6	2	7	8	4	4	3	5	5	3	5	9	1	0	8	7	5	7	9	9	8	4	4	9	1	8	5	9	9
4	5	5	4	8	8	4	9	7	3	8	5	7	7	3	2	1	9	1	9	3	4	1	8	3	2	4	6	9	6	4	2	6	2	2	0	6	2	4	9	8	6	6	1	4	5	2	1	2	7
5	5	8	3	5	1	8	5	1	8	3	3	4	1	7	1	2	9	2	3	2	4	8	7	4	4	9	3	9	9	2	2	9	5	5	3	0	9	9	9	4	7	5	9	1	3	3	1	4	4
1	4	4	7	1	5	6	3	8	5	4	3	4	8	9	4	3	8	8	7	4	4	6	6	1	2	4	4	2	5	9	2	8	1	6	8	8	0	3	4	9	4	4	4	8	5	4	8	1	1
1	8	7	4	6	3	2	9	3	8	6	4	8	2	6	9	2	4	4	1	8	8	1	5	5	1	9	8	7	6	8	2	4	1	5	8	9	9	0	7	4	5	7	4	1	5	5	7	2	2
2	5	8	9	8	3	6	8	3	9	6	3	5	9	6	8	8	4	7	9	5	6	6	1	9	2	7	4	9	4	7	8	7	7	3	4	5	1	1	0	1	9	5	5	1	9	3	3	5	1
2	9	2	2	1	3	6	2	6	5	1	6	9	1	9	6	5	7	1	8	9	7	8	2	3	4	6	4	7	5	7	5	7	4	3	7	4	1	9	4	0	6	1	6	4	8	9	1	1	5
3	7	8	5	2	4	4	5	2	1	7	3	9	3	2	2	2	1	2	8	2	7	7	5	6	7	4	3	3	8	8	9	2	6	1	1	9	1	9	2	9	0	2	2	7	5	4	2	9	2
2	8	5	7	3	4	3	7	8	1	9	3	3	4	8	7	8	4	9	4	8	4	8	3	2	5	8	1	4	9	5	4	7	8	4	6	7	7	6	7	5	2	0	6	4	7	8	5	2	4
1	5	3	6	4	9	6	2	7	5	3	2	6	4	8	6	2	7	6	2	4	2	3	4	2	1	5	9	1	7	8	7	7	2	6	1	7	6	5	4	5	2	5	0	6	1	8	6	8	6
3	8	4	8	1	6	5	5	9	5	7	2	1	8	1	6	9	7	7	5	5	2	1	4	8	9	3	7	8	8	5	1	3	7	1	1	1	4	3	6	8	7	5	4	0	6	7	8	1	2
9	8	8	2	5	7	8	8	5	8	7	7	4	9	9	5	9	8	8	8	9	9	4	4	8	1	3	6	6	6	1	9	5	7	9	8	6	5	4	8	7	4	7	1	5	0	4	2	7	4
1	4	6	1	3	2	1	5	2	3	4	9	8	6	3	1	3	3	2	3	4	2	3	4	4	1	5	2	2	8	9	5	6	8	4	1	6	9	6	9	3	2	5	1	4	5	0	4	2	4
3	9	9	5	5	8	4	5	9	2	5	6	5	7	4	8	5	9	6	8	3	1	4	1	6	8	3	7	7	1	4	8	6	4	4	9	3	6	1	7	8	2	8	5	3	9	2	0	4	1
5	2	3	3	3	5	4	8	4	1	8	8	4	6	8	3	6	8	3	6	3	7	6	2	7	1	3	4	3	4	9	1	3	5	2	4	2	2	6	7	3	7	5	4	3	8	9	1	0	1
2	4	2	9	3	7	7	5	4	6	5	3	8	1	3	1	1	2	2	4	6	3	7	9	8	8	7	5	8	2	2	4	7	1	8	1	7	2	3	2	1	3	9	6	7	8	6	3	5	0
