50  10  1
10
	0	86	1	8	2	47	3	96	4	44	5	10	6	92	7	73	8	83	9	74
	0	72	1	82	2	12	3	77	4	74	5	94	6	99	7	43	8	51	9	9
	0	99	1	24	2	18	3	13	4	7	5	73	6	90	7	53	8	55	9	44
	0	10	1	22	2	11	3	17	4	22	5	14	6	60	7	13	8	91	9	83
	0	73	1	59	2	86	3	13	4	91	5	23	6	57	7	100	8	76	9	5
	0	91	1	86	2	23	3	83	4	29	5	99	6	11	7	31	8	55	9	96
	0	57	1	66	2	15	3	9	4	95	5	88	6	23	7	39	8	82	9	19
	0	44	1	54	2	27	3	62	4	79	5	70	6	70	7	26	8	88	9	49
	0	73	1	94	2	24	3	20	4	96	5	29	6	62	7	6	8	73	9	49
	0	47	1	34	2	97	3	3	4	4	5	39	6	96	7	47	8	69	9	3
	0	57	1	89	2	42	3	81	4	12	5	51	6	74	7	10	8	22	9	83
	0	33	1	5	2	99	3	6	4	16	5	81	6	56	7	82	8	94	9	56
	0	89	1	38	2	15	3	37	4	15	5	84	6	4	7	78	8	31	9	10
	0	25	1	62	2	60	3	47	4	97	5	62	6	100	7	31	8	90	9	66
	0	2	1	2	2	28	3	85	4	26	5	25	6	79	7	64	8	72	9	22
	0	22	1	71	2	61	3	49	4	100	5	52	6	31	7	51	8	11	9	44
	0	73	1	81	2	100	3	3	4	3	5	84	6	43	7	96	8	74	9	49
	0	43	1	49	2	45	3	8	4	78	5	57	6	81	7	25	8	69	9	92
	0	44	1	96	2	63	3	77	4	100	5	73	6	38	7	3	8	48	9	59
	0	89	1	5	2	52	3	54	4	47	5	35	6	29	7	51	8	30	9	83
	0	23	1	89	2	41	3	45	4	73	5	38	6	60	7	40	8	48	9	69
	0	90	1	15	2	8	3	14	4	55	5	99	6	23	7	38	8	63	9	87
	0	54	1	77	2	77	3	81	4	58	5	12	6	69	7	96	8	13	9	66
	0	33	1	24	2	44	3	74	4	90	5	16	6	89	7	45	8	21	9	5
	0	70	1	10	2	89	3	9	4	30	5	50	6	57	7	65	8	58	9	12
	0	2	1	83	2	16	3	91	4	81	5	44	6	37	7	25	8	9	9	52
	0	65	1	10	2	43	3	25	4	42	5	67	6	90	7	3	8	77	9	93
	0	77	1	75	2	48	3	89	4	59	5	77	6	12	7	41	8	46	9	4
	0	38	1	2	2	78	3	43	4	88	5	98	6	78	7	18	8	95	9	54
	0	59	1	91	2	25	3	28	4	76	5	89	6	30	7	69	8	38	9	22
	0	7	1	64	2	17	3	25	4	41	5	35	6	38	7	47	8	85	9	91
	0	21	1	48	2	5	3	55	4	10	5	97	6	5	7	9	8	15	9	77
	0	93	1	50	2	54	3	33	4	69	5	30	6	64	7	23	8	28	9	22
	0	23	1	65	2	30	3	50	4	97	5	79	6	65	7	68	8	10	9	75
	0	16	1	66	2	2	3	28	4	8	5	55	6	11	7	50	8	83	9	51
	0	11	1	49	2	52	3	50	4	75	5	21	6	2	7	89	8	63	9	36
	0	66	1	4	2	33	3	2	4	80	5	61	6	46	7	16	8	95	9	96
	0	4	1	43	2	3	3	96	4	27	5	79	6	5	7	28	8	91	9	85
	0	24	1	64	2	53	3	11	4	50	5	83	6	51	7	25	8	67	9	41
	0	45	1	37	2	79	3	36	4	49	5	78	6	74	7	19	8	62	9	63
	0	61	1	16	2	94	3	60	4	78	5	75	6	56	7	35	8	60	9	36
	0	53	1	62	2	11	3	3	4	1	5	93	6	23	7	66	8	51	9	42
	0	34	1	89	2	6	3	37	4	11	5	74	6	48	7	17	8	11	9	58
	0	14	1	3	2	55	3	16	4	99	5	62	6	5	7	62	8	69	9	36
	0	48	1	82	2	98	3	16	4	10	5	34	6	82	7	76	8	65	9	4
	0	94	1	97	2	10	3	99	4	62	5	50	6	14	7	16	8	2	9	17
	0	74	1	31	2	40	3	66	4	23	5	70	6	86	7	10	8	80	9	79
	0	67	1	17	2	48	3	7	4	20	5	59	6	69	7	42	8	96	9	93
	0	26	1	93	2	42	3	38	4	33	5	99	6	47	7	89	8	49	9	98
	0	80	1	54	2	29	3	1	4	50	5	36	6	70	7	42	8	63	9	92
SSD
M0
0	34	14	68	21	49	91	9	79	22	22	12	28	17	16	2	44	73	83	17	71	81	94	43	78	23	46	22	48	61	87	85	24	29	16	16	89	48	56	51	45	81	83	69	17	4	47	29	17	37
10	0	48	14	88	20	51	22	88	59	9	89	16	48	56	48	61	99	71	64	49	59	28	95	46	53	79	49	12	48	20	86	60	99	37	36	52	28	56	87	38	47	28	98	15	55	20	32	58	46
14	91	0	63	98	15	50	95	68	21	61	25	70	20	10	12	40	1	58	63	10	9	58	69	31	70	65	92	30	67	69	81	95	47	18	13	10	83	4	93	81	46	44	82	53	16	70	95	79	74
3	22	97	0	51	91	60	44	97	30	44	82	37	82	24	57	92	90	23	70	2	29	85	59	74	42	82	28	45	76	45	33	17	94	33	62	24	23	75	35	41	85	23	12	11	19	14	99	91	59
30	93	30	73	0	99	83	97	46	82	12	84	65	30	77	6	57	13	12	62	64	57	68	1	78	38	5	15	53	9	59	9	75	77	35	26	61	47	48	77	4	95	12	61	98	50	55	38	18	81
96	95	3	35	20	0	49	3	57	40	22	86	4	36	27	92	16	86	43	94	23	62	46	10	93	26	45	66	40	73	32	7	70	2	50	4	19	79	29	7	7	82	51	46	21	91	48	63	6	81
30	51	5	48	5	15	0	7	39	51	83	65	2	27	52	18	56	45	8	4	54	51	89	70	87	65	85	20	53	96	44	12	89	29	85	51	43	27	17	21	26	41	93	27	73	81	86	67	25	98
33	64	61	98	3	88	99	0	72	86	91	13	17	92	10	23	78	29	6	98	55	69	83	50	21	65	55	88	74	42	74	12	20	73	59	35	26	47	61	52	28	55	59	26	73	68	81	29	14	87
93	80	2	73	96	64	41	93	0	16	8	5	55	99	61	17	1	33	22	54	78	45	67	29	26	78	12	49	31	17	96	64	48	24	66	51	85	21	11	1	1	7	58	93	61	12	57	91	62	8
83	78	1	55	56	22	59	40	53	0	51	43	15	53	53	69	86	50	56	11	74	21	40	35	59	31	79	98	87	21	41	80	91	94	62	71	63	20	96	41	64	98	3	68	81	66	2	88	56	39
42	7	35	14	48	71	35	80	24	6	0	13	12	57	58	76	45	39	99	1	47	86	86	7	60	50	70	29	40	24	21	89	55	3	84	37	98	57	13	32	25	8	24	78	33	29	71	34	38	15
44	55	18	74	35	55	12	60	19	79	20	0	32	56	26	33	3	3	71	74	45	87	78	47	31	96	86	21	40	73	21	91	63	18	72	98	84	52	30	93	18	80	62	89	30	60	87	23	76	75
88	27	35	49	36	93	16	67	44	55	67	94	0	75	36	29	83	57	46	87	31	84	11	30	25	14	71	21	78	80	87	30	66	96	34	96	79	99	75	3	81	67	53	85	42	19	18	30	57	71
6	2	93	6	30	24	24	79	27	99	30	92	5	0	39	91	61	59	44	86	96	68	55	86	79	70	64	99	57	96	49	3	33	14	87	83	10	83	46	50	13	57	59	12	94	66	49	17	5	59
36	7	87	10	54	32	14	3	67	27	76	46	44	41	0	20	93	53	75	51	67	64	79	72	4	86	96	39	78	76	62	10	75	78	97	66	4	4	67	8	84	55	60	47	53	41	39	67	58	49
67	13	41	65	87	28	43	64	35	64	60	8	96	14	41	0	20	50	57	17	25	45	9	89	82	13	22	22	37	20	68	9	75	86	13	30	58	51	55	94	69	53	88	46	1	44	15	77	56	77
19	80	62	18	73	30	99	74	36	65	98	54	73	37	73	84	0	2	21	71	50	38	15	75	53	13	83	80	76	67	95	28	20	44	89	78	42	63	58	52	11	9	15	63	68	91	23	31	41	60
66	53	66	68	1	51	15	25	35	47	19	83	95	22	44	57	5	0	58	72	49	64	81	65	41	15	38	37	88	37	83	61	7	83	72	80	46	87	59	94	89	75	66	48	33	65	68	46	15	47
5	69	10	77	24	57	17	24	2	86	89	35	9	77	88	51	19	77	0	77	49	60	25	59	96	76	91	45	82	44	45	7	5	43	91	32	68	12	81	4	12	2	97	74	66	32	49	87	16	1
43	77	97	7	15	66	3	87	30	5	15	71	88	56	31	19	99	8	42	0	71	12	51	67	58	99	85	67	21	60	17	84	50	63	70	88	49	50	27	11	76	94	56	19	18	50	19	39	94	58
41	49	24	96	91	88	58	75	18	62	92	24	25	30	16	28	87	10	33	93	0	41	53	93	67	1	37	94	29	82	9	58	30	41	72	89	61	40	91	62	57	29	67	6	78	90	88	69	27	65
94	98	83	88	76	57	83	97	6	61	53	69	84	15	81	25	39	79	8	94	5	0	99	32	32	84	66	88	27	61	99	51	51	12	80	35	36	42	58	28	63	48	19	75	33	74	88	81	18	12
2	16	37	69	70	34	95	7	25	46	79	14	20	95	1	69	10	41	30	23	56	39	0	74	74	19	75	59	49	29	96	53	94	60	40	31	42	43	54	51	16	78	68	26	73	61	54	73	16	14
69	1	9	80	6	61	87	52	60	69	45	99	99	72	29	55	12	22	94	60	31	84	83	0	68	2	78	34	75	23	41	38	13	65	61	3	33	68	17	77	59	62	15	62	89	63	24	97	78	40
41	11	31	55	40	69	79	16	79	52	33	2	81	61	24	51	8	20	84	19	88	24	24	41	0	81	64	5	59	63	21	21	10	99	89	38	71	21	21	46	10	7	48	28	87	78	51	60	24	18
91	75	2	82	94	76	82	86	79	73	64	57	56	67	82	93	44	32	73	84	77	44	7	69	8	0	73	83	27	11	28	58	54	62	18	12	63	47	92	1	82	99	43	54	75	4	97	96	98	1
34	7	52	66	97	58	10	80	1	91	27	84	30	8	60	92	93	95	52	29	90	34	52	80	83	9	0	99	2	87	65	77	99	37	69	97	3	73	42	3	78	65	16	87	53	65	97	63	53	54
53	28	74	38	47	12	44	80	8	18	25	7	81	73	96	3	10	54	91	85	62	56	80	39	63	26	38	0	26	34	74	32	24	32	29	9	45	35	11	72	45	33	24	90	23	12	12	61	64	31
15	28	91	49	12	26	17	40	66	99	3	97	83	31	93	35	51	46	67	14	31	15	5	67	23	52	95	1	0	3	76	24	82	27	94	97	59	42	21	13	55	42	38	77	46	69	64	28	16	46
88	9	31	89	83	11	94	25	5	83	69	38	38	56	70	98	64	50	78	55	36	61	20	91	91	30	13	87	61	0	59	77	26	29	13	57	31	55	31	3	50	80	36	16	91	58	4	49	94	98
46	16	87	3	17	46	64	36	36	10	81	64	91	78	59	47	75	91	39	70	57	78	24	51	4	13	22	63	79	27	0	36	47	24	8	14	20	56	47	15	89	65	23	73	32	98	24	71	14	31
60	25	33	98	12	83	29	26	12	68	90	70	60	6	50	69	18	37	49	73	39	8	7	82	18	71	36	26	75	47	88	0	64	14	35	13	86	93	69	62	43	40	55	94	29	60	40	36	13	37
94	16	85	37	15	82	48	33	64	60	87	43	30	18	3	31	50	42	72	17	32	42	86	1	87	42	79	89	36	23	30	81	0	59	10	28	61	14	50	18	86	24	6	68	89	18	41	20	16	79
17	26	75	30	94	86	74	54	16	19	59	46	16	42	94	32	84	56	31	92	83	44	72	7	84	23	29	69	82	34	2	70	98	0	40	64	29	89	66	17	28	11	12	37	84	13	16	45	50	57
49	66	47	93	72	59	50	26	78	26	1	58	11	45	98	12	27	81	4	31	44	63	62	36	94	37	18	97	62	30	82	12	4	92	0	77	31	45	95	75	70	30	99	84	73	57	31	75	46	18
25	35	65	36	23	94	17	72	28	75	43	40	72	30	92	35	33	96	86	98	3	85	73	44	17	52	20	31	69	43	54	65	96	12	77	0	50	81	45	89	22	29	41	15	49	21	27	10	83	14
22	88	65	81	67	6	56	97	92	81	30	1	77	53	44	96	32	89	93	3	17	6	89	13	58	62	39	52	42	39	5	63	78	6	74	9	0	90	51	74	16	53	30	99	86	88	24	45	30	99
65	64	26	94	32	93	99	28	29	3	68	74	17	79	10	2	44	48	36	6	8	76	94	38	24	32	18	16	13	82	1	29	6	60	68	47	49	0	20	65	9	42	77	98	57	45	5	84	33	50
5	93	50	86	8	7	9	16	61	14	36	27	91	17	40	53	71	21	27	50	27	35	16	24	48	99	56	91	1	21	22	10	57	87	39	15	88	81	0	86	42	69	18	55	41	24	84	61	84	84
55	66	43	43	86	25	80	42	51	70	86	5	52	25	47	17	1	74	31	5	94	50	32	84	98	13	92	56	16	29	21	80	15	83	50	65	48	67	11	0	35	64	30	23	78	13	9	26	85	91
39	91	16	77	34	2	76	55	81	82	82	20	87	20	38	24	78	8	63	1	32	99	46	73	1	60	2	41	45	47	64	96	99	62	51	11	33	57	63	11	0	68	76	17	11	87	77	28	80	33
66	75	75	68	24	40	41	78	22	73	76	15	53	47	28	5	28	9	27	97	93	7	15	11	4	96	3	89	31	18	61	12	90	12	57	79	47	27	54	93	92	0	15	57	8	25	26	73	86	82
58	11	38	95	17	45	79	59	75	11	62	54	70	17	65	58	50	80	31	24	62	30	9	24	66	27	19	81	84	99	58	38	39	98	21	36	44	4	79	99	31	54	0	78	61	46	77	22	61	42
32	42	95	47	8	19	31	89	27	52	81	5	48	20	19	62	77	70	75	88	22	48	46	58	51	24	7	95	47	96	7	7	50	92	95	28	57	53	92	66	4	22	24	0	62	37	49	63	8	85
71	67	93	55	53	85	75	23	87	82	69	8	86	16	35	25	19	43	95	73	71	51	97	4	46	43	29	63	10	24	25	15	62	51	48	86	98	67	18	91	69	19	12	19	0	70	23	88	97	15
48	87	75	68	13	7	74	52	18	71	95	48	67	36	7	43	57	87	26	20	6	44	80	76	87	61	14	11	76	96	60	34	11	84	14	70	50	35	66	77	60	52	84	92	74	0	32	55	68	2
90	9	83	79	30	15	21	96	53	6	53	39	61	58	85	19	15	61	37	97	45	29	63	27	29	54	54	40	74	5	53	94	81	98	91	29	75	22	27	95	18	81	24	88	54	88	0	38	48	51
19	61	54	21	16	62	9	53	6	28	73	94	54	69	30	33	84	78	61	97	31	24	72	80	7	35	14	18	96	16	65	11	15	67	82	64	81	32	39	74	18	90	96	95	50	47	95	0	58	81
9	46	35	70	49	52	62	22	80	22	65	83	5	26	58	3	13	11	1	81	41	88	36	44	2	47	50	93	72	66	20	33	83	19	47	73	49	2	78	44	34	31	77	99	44	74	2	63	0	90
30	73	74	61	67	75	15	5	76	99	36	90	4	24	8	35	76	12	73	77	26	40	69	58	74	8	46	33	43	94	4	22	95	47	17	77	26	28	40	25	48	58	79	7	62	22	1	27	81	0
M1
0	30	3	94	68	55	67	92	98	80	78	30	55	37	57	64	27	5	71	78	51	22	2	70	43	9	79	79	83	10	34	57	62	21	1	70	12	25	86	62	65	88	2	49	21	72	85	7	7	53
99	0	63	71	82	61	32	54	6	43	28	98	31	57	57	7	24	3	80	78	47	50	74	50	96	72	62	43	91	75	71	82	17	64	37	52	29	56	84	88	72	26	30	27	72	44	90	71	1	50
11	29	0	14	58	22	42	37	98	2	9	29	39	13	67	42	32	13	1	77	1	83	67	4	39	18	77	67	97	53	73	30	82	53	63	13	88	74	45	16	42	53	97	66	17	18	37	92	68	13
59	39	84	0	70	26	64	43	85	49	94	45	73	96	15	44	9	21	28	95	90	75	8	14	64	77	29	75	9	29	57	43	66	14	19	74	66	15	88	51	82	29	75	42	13	87	75	76	85	80
37	9	8	65	0	57	76	39	5	86	9	38	49	40	25	10	86	17	15	76	95	83	26	15	93	80	69	68	56	54	28	98	59	15	34	48	61	80	45	38	25	57	36	90	64	70	84	88	38	32
25	88	48	22	83	0	51	7	23	36	65	78	12	44	72	13	30	56	17	21	62	86	81	73	3	4	87	7	92	97	56	70	54	3	74	62	52	90	12	25	63	75	64	93	32	74	38	37	48	35
99	20	60	19	47	74	0	29	83	78	72	76	36	71	23	72	20	87	45	89	67	80	89	5	49	59	3	17	69	35	65	27	7	67	44	99	11	68	40	89	76	49	21	9	77	3	74	67	27	64
16	22	83	94	35	98	45	0	75	75	88	80	11	73	23	84	72	97	77	83	40	72	81	8	17	77	96	99	27	44	17	50	23	8	4	60	51	81	40	78	72	41	91	61	21	71	85	57	51	94
61	11	11	63	48	30	31	29	0	70	81	29	87	95	92	66	70	63	71	6	39	69	87	40	94	88	67	27	13	62	92	22	65	87	16	91	92	77	22	74	28	76	4	98	2	70	34	80	64	98
42	69	10	72	42	5	96	63	54	0	1	87	92	32	85	54	64	74	47	29	3	89	64	91	86	49	36	23	6	30	31	66	77	49	13	80	80	34	22	70	20	81	20	26	13	94	27	20	70	14
2	32	4	65	47	99	86	2	49	24	0	60	13	70	66	37	20	65	30	71	85	82	2	82	8	71	95	56	78	13	33	52	14	38	47	5	7	7	96	89	46	52	18	88	92	30	68	86	34	11
25	65	43	9	44	97	95	48	6	48	53	0	91	81	29	4	95	13	74	2	55	90	23	70	69	58	41	53	28	90	5	24	94	20	30	79	57	12	28	7	53	3	12	70	97	64	90	66	71	53
28	59	40	55	38	62	31	36	61	59	62	65	0	40	71	17	62	78	96	15	84	60	6	95	72	64	53	46	96	96	35	21	83	26	20	42	26	5	13	74	82	89	49	14	40	13	11	38	84	68
20	5	6	1	59	93	40	19	6	34	6	74	95	0	58	7	74	47	73	3	15	14	48	66	62	37	49	73	12	28	74	10	3	4	79	84	74	34	72	70	83	6	43	35	25	83	54	16	23	34
79	53	79	58	6	96	11	16	14	41	97	61	2	51	0	30	26	26	90	27	1	64	66	61	9	37	41	19	87	37	92	68	97	37	3	29	42	8	21	60	54	39	31	1	99	52	10	44	95	64
61	27	28	11	69	53	46	62	94	96	47	93	8	51	83	0	60	47	16	59	26	27	32	96	38	47	21	82	17	74	84	43	47	95	60	88	60	61	51	27	49	79	68	54	68	21	60	62	89	41
13	11	37	39	44	64	6	5	30	3	44	27	35	30	59	58	0	34	57	69	63	45	35	9	95	15	52	63	81	25	32	5	7	11	94	27	23	7	57	22	34	68	5	39	34	25	42	20	76	75
10	4	33	20	34	37	54	88	35	40	28	25	18	14	29	24	12	0	88	82	30	49	47	81	48	82	66	53	31	91	78	43	34	21	34	71	56	59	11	83	11	48	15	85	81	68	58	57	84	65
24	60	15	90	26	6	51	84	47	32	71	18	19	14	76	71	41	14	0	30	28	91	23	72	90	63	71	63	64	15	4	46	60	40	40	59	11	84	78	29	8	63	5	14	86	59	9	91	40	13
38	11	30	23	29	38	11	20	91	84	7	90	46	82	1	56	41	58	14	0	35	88	5	3	50	97	67	89	47	13	88	9	44	60	64	33	31	70	39	9	76	39	2	29	27	26	87	95	94	25
98	81	68	35	71	70	3	23	89	47	65	73	95	60	39	34	53	81	24	30	0	78	38	80	96	20	86	96	49	76	54	89	90	65	69	60	34	92	65	76	85	81	4	29	3	63	80	9	53	33
95	95	4	29	3	40	38	88	63	7	83	81	85	79	76	37	14	70	15	99	91	0	79	74	90	32	85	79	61	54	71	52	57	74	19	5	35	57	20	25	2	70	96	64	60	3	13	59	89	24
38	21	98	5	81	73	9	30	16	41	79	71	55	2	71	91	52	58	11	9	43	6	0	99	44	37	87	85	19	46	55	92	87	87	9	62	13	10	51	73	23	34	94	28	20	94	13	19	96	36
2	39	16	88	22	67	48	34	16	55	50	43	22	11	69	27	50	36	75	48	66	68	63	0	84	7	37	90	32	35	38	18	93	90	76	89	95	2	36	72	25	73	82	13	74	52	5	9	44	30
33	3	39	67	20	29	48	12	58	76	18	59	62	57	30	90	45	91	59	62	80	34	79	52	0	7	24	19	80	31	23	13	49	39	59	81	91	3	25	36	6	64	72	10	13	19	97	35	84	43
33	35	11	22	75	2	5	81	6	65	78	40	6	87	20	10	57	33	66	36	82	92	50	44	73	0	74	62	33	93	80	67	34	81	33	42	27	66	28	49	85	78	7	59	78	27	7	71	70	62
11	5	82	59	95	68	12	76	84	16	23	79	20	50	54	51	24	42	8	4	26	67	15	64	47	73	0	88	33	91	43	17	92	86	13	52	41	55	50	98	80	23	17	3	65	90	54	10	12	34
84	22	10	98	6	87	89	95	11	8	47	44	92	16	16	92	83	1	37	15	49	57	85	77	50	83	37	0	13	19	76	82	49	33	70	34	79	72	41	79	72	99	67	70	53	88	4	53	18	99
27	86	50	82	60	94	47	40	70	58	89	95	2	33	12	38	2	52	37	44	34	62	2	10	96	78	85	16	0	86	76	9	32	77	53	70	30	2	11	36	49	63	68	7	50	3	87	23	41	9
67	70	57	43	66	18	46	17	23	95	71	42	9	70	42	41	27	16	38	94	39	56	78	57	83	33	63	66	19	0	41	72	29	9	13	15	69	23	64	56	48	35	16	68	19	25	64	78	55	27
62	15	73	85	30	68	44	96	19	29	50	54	81	52	48	31	30	83	29	64	87	25	4	20	66	32	33	51	12	81	0	1	95	16	35	91	59	84	1	10	77	98	53	82	70	20	88	92	18	21
92	64	26	48	77	91	60	46	2	73	66	89	77	5	5	17	35	23	69	57	91	37	71	90	61	61	95	87	77	38	76	0	16	37	32	41	9	75	17	16	39	33	98	1	35	84	38	51	38	17
63	28	90	1	2	1	92	86	56	11	74	7	5	43	80	75	14	48	44	22	79	22	11	94	38	34	41	8	19	57	85	45	0	28	47	38	24	76	64	87	81	5	48	28	51	56	79	11	30	10
85	34	59	74	90	12	67	89	99	59	42	9	73	96	50	51	41	58	98	29	38	41	9	17	91	53	75	3	74	37	87	41	93	0	67	67	90	11	71	47	22	82	98	72	17	78	44	26	89	26
20	98	22	74	3	48	71	75	15	33	1	42	21	98	46	14	41	66	16	48	7	47	76	18	27	71	95	73	31	30	19	21	96	38	0	14	2	1	91	19	87	32	66	50	25	60	78	88	90	58
14	29	45	13	88	63	93	68	1	43	88	93	83	35	43	73	71	59	25	51	45	79	64	84	8	97	90	80	5	49	66	32	9	8	19	0	72	13	61	48	7	13	4	81	3	72	55	14	39	89
5	27	50	30	43	97	9	78	35	34	44	22	29	90	81	86	22	65	46	70	21	72	81	47	67	34	60	46	16	55	94	25	95	64	76	80	0	70	28	99	86	97	75	45	36	51	9	35	25	40
57	81	29	65	9	91	33	66	56	2	21	75	91	45	47	72	74	93	46	93	47	10	33	69	65	10	17	57	72	27	37	24	41	6	69	83	51	0	93	89	81	83	95	71	10	48	6	66	68	66
45	88	14	2	47	5	75	75	97	2	11	32	2	77	31	42	32	86	38	45	1	24	38	79	42	43	19	51	98	30	14	30	59	85	2	86	82	78	0	90	8	2	88	94	40	11	40	13	61	53
88	61	86	85	32	7	34	74	39	19	30	53	27	35	29	47	27	1	50	39	21	32	89	46	41	11	50	12	56	19	78	47	98	54	24	76	1	3	61	0	61	32	49	15	8	82	52	5	3	19
22	90	3	86	62	76	89	85	84	20	71	96	91	46	73	55	89	58	62	4	85	4	99	54	68	37	8	64	81	75	1	79	48	59	13	21	91	46	22	14	0	60	6	65	72	71	95	74	7	12
40	87	5	64	32	23	6	55	29	7	75	34	35	2	42	34	58	69	56	72	9	68	81	1	66	76	33	89	35	76	20	31	73	55	57	88	39	95	47	11	26	0	66	59	18	54	47	54	1	42
29	15	5	95	83	7	90	62	92	65	78	49	87	74	34	12	27	3	56	50	16	7	53	65	55	1	32	80	62	76	42	16	8	9	34	69	57	75	36	56	13	98	0	60	97	98	62	71	62	21
73	9	11	14	73	23	83	50	21	77	38	53	84	23	36	76	38	48	15	11	33	61	12	44	98	56	18	83	91	69	83	13	86	34	97	54	3	81	20	36	79	43	28	0	12	68	77	12	66	91
83	47	1	91	13	93	98	70	80	24	99	83	22	82	39	54	65	13	32	13	8	17	6	78	20	26	11	30	10	4	66	49	20	6	14	28	55	69	98	59	45	7	85	72	0	93	22	89	72	79
84	75	87	4	16	58	56	89	87	6	87	94	22	21	78	84	56	70	80	76	6	72	48	55	32	65	10	19	14	15	29	2	66	48	72	90	61	4	91	31	41	36	73	77	31	0	35	35	47	93
24	53	80	74	58	61	13	44	42	58	4	23	23	1	99	41	44	78	11	99	56	99	19	95	23	32	73	46	69	65	25	36	60	14	96	46	99	58	13	64	6	94	23	63	80	52	0	88	16	91
80	25	76	41	40	21	32	71	23	68	33	45	5	79	30	97	95	70	94	51	42	48	86	26	13	24	4	9	38	26	26	49	18	16	42	88	5	2	13	67	21	19	9	38	76	17	49	0	89	92
69	93	71	51	6	86	56	16	21	61	90	2	18	32	11	93	85	46	39	31	22	72	82	13	51	44	83	93	91	92	19	66	81	19	29	65	68	13	34	25	3	8	64	75	15	22	3	74	0	58
41	40	91	37	25	68	2	61	60	75	58	99	85	3	40	16	49	1	3	14	91	78	74	24	64	27	81	11	11	82	91	76	79	45	97	96	59	62	2	17	29	63	61	84	81	93	3	98	63	0
M2
0	70	20	14	27	91	11	14	5	33	31	47	37	44	41	3	18	18	3	46	42	80	44	55	75	56	83	34	59	71	7	80	42	30	13	39	96	57	97	68	54	94	22	10	70	10	80	23	11	29
95	0	27	17	26	72	83	74	20	93	83	25	54	66	30	68	78	18	51	59	44	11	56	88	82	44	30	4	37	35	39	19	56	9	75	3	82	44	80	54	79	50	10	9	89	64	36	25	23	8
10	44	0	2	39	15	36	24	74	84	57	16	90	76	99	87	9	24	93	17	33	94	92	16	1	38	72	58	44	8	99	79	97	70	63	65	87	53	76	7	81	94	78	69	98	80	17	15	4	98
64	78	24	0	43	21	69	80	38	98	76	14	75	76	69	38	80	1	49	74	50	41	72	19	29	42	53	76	16	31	42	41	23	63	1	18	16	21	38	17	25	1	88	46	89	47	26	23	87	20
53	32	54	13	0	23	34	98	46	55	2	68	8	77	8	13	15	97	29	72	26	77	22	58	18	76	78	21	99	86	80	30	58	59	7	85	26	19	60	62	19	97	19	42	12	40	27	81	23	69
85	41	22	99	2	0	43	13	52	11	60	27	96	81	44	33	32	58	33	66	75	20	23	13	34	35	64	13	53	64	39	64	95	30	23	45	76	47	31	79	61	8	18	22	12	34	60	35	18	62
57	71	69	25	28	9	0	51	23	81	79	51	23	86	96	39	19	87	83	36	41	19	34	81	98	27	79	93	85	5	32	48	7	87	31	33	78	73	13	68	18	59	80	75	44	25	49	49	23	75
76	66	54	46	23	25	75	0	37	96	13	25	99	71	35	94	26	84	56	69	95	57	38	20	86	90	73	10	47	32	53	27	96	17	10	46	2	16	34	96	22	70	45	75	62	72	74	43	42	25
87	76	81	2	46	92	68	81	0	3	40	42	30	63	29	34	46	71	65	16	12	86	81	73	2	77	4	4	35	46	80	78	95	34	69	60	33	11	64	33	30	28	95	96	4	76	43	37	59	9
50	67	35	91	17	5	89	4	14	0	31	33	10	54	45	91	58	6	6	63	82	28	29	13	20	73	89	92	68	94	29	4	41	27	77	36	90	49	48	39	23	47	48	19	12	23	26	60	83	32
38	33	45	37	25	9	59	11	96	10	0	2	25	2	75	44	13	16	92	61	94	58	54	45	87	53	19	77	58	71	1	87	82	25	6	15	15	8	96	35	86	87	47	18	89	16	24	51	13	93
9	9	28	7	39	88	54	38	39	17	47	0	4	61	10	83	76	76	41	44	86	59	41	15	30	72	45	57	7	50	52	22	72	16	75	92	89	3	74	10	93	59	24	92	18	44	45	48	48	61
7	72	91	79	82	50	84	30	91	12	74	7	0	98	21	53	69	35	92	20	53	38	52	2	37	72	8	74	4	45	78	42	9	27	14	71	41	69	87	8	41	48	48	94	97	96	84	87	55	92
97	33	2	19	21	43	9	23	22	9	42	22	68	0	5	88	48	44	96	32	21	58	51	3	91	80	10	77	11	73	68	82	88	41	82	60	64	91	92	82	15	79	24	18	44	96	30	99	52	4
56	39	64	36	63	89	78	31	34	54	63	37	37	87	0	93	20	45	42	30	81	19	46	72	38	93	38	38	35	53	68	51	96	61	52	34	31	86	50	49	42	51	85	36	17	76	35	14	97	16
62	80	47	87	65	3	67	63	62	88	41	58	45	92	92	0	42	62	72	93	57	14	27	64	16	82	65	40	20	15	86	97	11	38	85	81	60	77	94	53	46	1	37	63	73	10	55	23	50	62
31	12	11	83	19	67	54	6	48	25	41	43	82	12	65	87	0	27	20	92	3	22	96	28	16	83	40	72	65	50	86	56	45	66	16	74	40	12	32	59	70	38	77	62	62	5	92	37	31	89
33	35	32	39	10	64	23	85	96	73	45	23	42	53	8	46	71	0	73	39	77	53	98	39	47	94	50	44	88	57	2	89	69	35	34	37	84	20	80	86	59	48	41	6	51	16	51	46	42	84
25	15	72	41	6	29	45	60	15	83	3	89	57	86	68	75	32	64	0	77	70	71	24	78	99	83	32	44	95	83	60	37	3	44	77	32	20	89	9	58	48	15	3	51	34	21	47	96	44	66
36	24	15	6	4	73	44	57	36	45	35	3	50	21	8	41	12	76	27	0	24	97	72	23	52	53	65	2	30	95	74	71	68	53	9	25	18	46	33	64	61	54	31	52	82	18	88	26	22	83
9	14	56	66	30	35	75	9	15	65	42	61	26	23	67	91	2	83	16	25	0	5	31	41	51	11	26	14	67	48	18	85	30	16	47	5	37	32	26	75	72	99	65	37	72	86	8	85	4	55
89	76	60	92	7	86	18	24	4	12	3	11	85	28	68	64	7	55	85	37	25	0	92	74	51	2	13	61	96	72	41	20	3	53	47	30	59	39	36	71	46	93	11	30	96	69	41	91	7	85
65	36	61	53	9	69	37	41	88	59	6	99	48	46	64	3	46	59	25	67	68	56	0	84	69	63	59	35	50	10	69	77	92	65	66	79	18	54	40	54	15	3	99	72	17	16	64	38	76	60
27	68	21	11	43	79	68	44	99	61	46	17	46	92	50	50	6	23	17	3	94	35	17	0	16	20	61	84	47	34	10	29	50	61	25	15	36	28	3	91	49	61	22	16	40	46	51	93	91	34
81	35	74	68	43	6	7	55	46	8	44	91	43	30	42	45	88	55	60	35	60	5	93	58	0	65	55	49	66	38	74	26	84	3	50	34	25	75	5	77	46	6	26	99	48	88	59	37	10	10
38	47	14	91	38	11	5	54	1	15	84	16	56	64	39	91	25	90	50	63	98	47	31	30	20	0	6	92	77	16	4	41	98	47	4	43	66	83	58	17	54	27	97	51	35	17	84	34	13	14
1	60	67	39	56	52	16	11	46	91	25	9	81	74	23	54	83	24	89	1	12	12	41	49	56	94	0	26	50	38	55	86	59	65	97	83	41	68	53	66	56	3	85	28	62	80	97	6	24	84
87	97	11	66	9	98	20	46	22	2	62	44	42	91	92	29	29	41	83	62	79	94	53	52	94	66	15	0	81	48	32	6	51	89	60	99	40	29	18	32	14	15	59	72	92	83	64	36	85	50
1	9	40	77	19	40	65	13	4	20	35	18	41	40	71	13	80	17	70	94	96	16	4	30	78	18	46	21	0	99	97	70	82	55	24	26	94	69	91	9	12	85	44	61	50	31	57	81	68	92
75	13	28	42	42	56	4	21	44	34	48	49	77	65	72	33	99	60	79	78	23	45	40	41	68	53	36	58	74	0	59	90	65	55	45	56	68	20	7	46	32	17	59	8	24	63	98	96	92	72
7	85	92	88	31	23	80	86	70	23	38	1	31	43	99	97	66	7	97	99	83	47	40	11	92	98	91	31	42	53	0	26	39	48	64	60	81	21	61	99	8	45	7	40	31	67	15	29	9	94
6	60	66	13	70	55	18	75	66	77	48	14	72	59	64	87	70	43	33	61	33	74	55	80	36	96	52	82	22	21	58	0	67	84	93	48	17	57	70	43	21	10	65	70	78	6	49	75	49	58
5	15	96	92	65	66	48	11	92	38	38	7	73	81	44	75	44	11	9	25	63	6	12	81	96	40	43	36	87	63	76	87	0	22	37	65	70	15	90	90	82	74	53	41	37	19	75	4	11	64
59	3	68	91	38	2	83	70	91	62	70	97	82	34	16	76	50	1	75	49	95	23	55	44	50	42	10	23	4	46	25	16	36	0	4	59	98	87	12	68	43	47	35	41	35	54	7	4	58	40
33	90	75	58	26	82	64	70	38	47	82	91	90	55	67	25	14	43	8	16	38	42	31	18	7	9	90	60	98	14	65	36	86	77	0	85	73	55	70	53	45	72	96	29	31	77	39	96	48	31
45	28	97	42	62	5	5	65	61	84	49	36	9	4	5	81	73	53	47	35	78	86	94	31	34	26	75	67	16	88	66	47	66	48	22	0	60	37	96	97	48	13	73	32	64	55	86	50	32	91
36	3	58	14	98	27	48	60	68	44	40	27	34	79	51	82	43	93	95	27	92	73	35	1	43	84	48	20	36	19	50	23	72	72	90	38	0	82	42	2	6	86	19	97	14	35	26	26	48	67
29	24	43	41	2	51	93	16	47	75	69	81	92	41	34	84	9	66	65	87	26	15	23	42	48	61	22	98	86	49	93	60	60	89	49	45	38	0	68	84	43	23	51	75	58	95	7	68	79	74
91	57	21	54	56	94	29	41	71	96	42	75	95	25	44	32	9	60	66	29	3	91	12	80	3	9	13	89	42	47	43	46	41	31	49	93	40	28	0	75	73	91	84	87	51	35	27	22	5	67
42	23	9	17	63	42	50	77	42	97	74	41	65	47	16	62	53	95	98	25	58	41	83	4	35	67	9	30	59	81	51	20	12	94	2	16	71	83	30	0	42	50	73	90	88	97	46	89	69	43
40	11	18	47	20	75	10	98	21	81	42	57	93	61	94	41	14	20	54	15	21	78	85	10	8	17	68	92	75	88	51	70	24	64	66	80	37	15	32	27	0	95	44	25	34	11	34	87	50	75
66	29	21	73	20	15	98	76	71	58	77	55	44	62	56	42	80	67	74	52	34	16	73	46	9	30	80	68	87	65	11	30	32	81	40	88	43	58	94	64	12	0	32	55	86	6	31	76	49	69
61	68	56	28	23	93	35	27	4	62	85	51	65	48	84	97	3	54	52	1	65	80	63	33	55	5	54	35	55	53	59	31	33	31	72	55	37	43	33	89	85	22	0	62	68	95	38	7	31	25
66	77	8	4	38	72	72	94	82	27	8	3	65	41	54	16	54	59	40	63	81	20	26	12	78	83	97	34	7	21	91	27	10	15	45	64	50	98	3	8	21	54	15	0	11	39	23	16	84	61
8	69	26	67	80	6	16	29	17	12	30	35	8	26	33	44	44	57	56	3	57	37	50	29	71	60	88	56	91	84	61	96	38	94	69	62	10	36	24	44	11	95	99	51	0	9	70	14	53	80
52	9	84	72	28	69	92	91	61	14	46	89	16	14	35	8	31	59	30	8	65	57	75	98	50	34	38	20	52	82	49	70	4	72	82	73	68	13	74	16	51	37	92	19	53	0	55	77	4	59
80	34	86	77	35	45	95	90	90	30	97	83	1	71	94	47	18	86	99	87	19	13	26	76	76	29	39	33	42	49	49	22	38	41	63	98	69	58	1	44	1	12	55	69	73	84	0	65	84	36
90	97	55	24	23	85	96	22	42	66	76	78	5	96	27	59	17	61	92	68	92	92	53	63	20	63	2	51	80	27	78	37	85	21	80	58	97	43	87	34	69	76	96	13	23	34	46	0	90	33
16	64	36	4	37	75	48	42	50	62	31	76	59	60	54	67	32	11	49	5	27	36	43	99	3	94	38	11	79	16	97	59	67	53	70	22	80	79	96	19	3	23	52	18	72	21	39	33	0	1
33	17	90	52	46	49	74	35	60	93	2	86	35	67	67	64	42	66	57	52	52	19	41	66	42	5	75	11	18	62	80	6	72	79	74	14	34	23	84	21	73	65	54	41	68	8	31	62	52	0
M3
0	14	93	64	91	95	52	43	70	18	48	51	72	17	9	30	94	48	57	90	31	7	73	68	4	80	55	60	44	46	27	28	42	96	93	12	10	79	47	92	44	70	59	2	69	16	19	69	5	31
12	0	44	80	11	38	40	7	17	18	94	53	30	31	32	10	95	94	72	34	90	71	32	90	84	60	7	58	92	14	24	43	31	90	18	43	19	25	58	29	91	79	29	52	28	21	55	93	86	11
7	6	0	23	23	39	27	28	28	40	51	99	98	3	93	45	21	40	90	80	31	2	8	73	8	78	62	28	79	84	69	39	34	59	79	37	50	45	57	16	67	10	27	11	77	22	77	67	7	19
10	21	8	0	10	67	71	94	94	66	40	85	16	54	19	32	55	24	66	54	43	76	5	9	57	25	21	59	7	54	86	31	49	3	31	56	75	20	42	58	57	13	92	23	52	2	89	49	4	22
14	87	81	67	0	98	10	55	52	43	53	89	24	87	49	6	84	74	29	54	70	88	45	83	16	34	77	7	6	6	6	97	71	53	55	68	3	48	53	11	76	14	68	11	25	48	97	46	83	85
32	54	9	55	26	0	19	50	36	35	96	99	20	1	11	83	27	11	66	43	47	50	63	33	85	18	17	34	43	84	12	43	66	20	46	18	36	2	46	56	87	82	49	56	79	6	1	83	49	62
99	40	35	38	83	19	0	35	15	65	67	43	99	27	21	92	3	56	66	68	94	77	40	99	11	99	84	27	73	9	10	6	67	47	33	97	78	77	95	57	74	19	81	14	5	98	88	8	37	68
13	35	59	59	68	3	10	0	90	36	1	30	57	18	49	38	49	50	65	63	82	87	68	14	49	70	15	41	17	30	27	36	25	8	64	71	70	75	47	72	71	99	34	79	52	72	5	34	1	9
14	9	69	86	5	51	36	68	0	3	27	52	47	34	61	26	85	28	38	23	57	5	92	1	3	54	2	83	57	68	69	56	17	65	57	40	45	22	7	65	48	28	53	61	52	85	27	28	74	47
89	62	75	67	67	44	14	87	54	0	21	67	6	9	26	68	84	78	32	81	98	2	33	21	38	92	82	72	8	97	48	88	85	83	64	53	46	91	76	39	50	69	20	12	51	69	80	50	83	70
14	77	30	59	41	37	74	89	35	50	0	94	92	59	34	51	6	41	81	74	66	78	23	59	58	19	15	12	19	46	34	20	53	86	79	34	5	1	88	73	69	24	41	13	79	92	2	99	66	34
12	5	90	40	51	23	6	35	14	63	76	0	10	85	96	78	84	96	48	62	29	2	68	30	35	15	1	77	37	76	31	3	21	62	9	67	58	46	47	77	74	61	53	13	12	54	60	22	76	4
31	61	53	47	87	49	38	55	63	60	39	28	0	90	80	9	14	80	98	37	70	31	11	20	23	98	50	55	82	4	84	62	38	61	30	7	30	52	79	85	60	78	51	4	19	69	89	40	12	34
90	91	27	72	23	42	77	86	64	97	99	66	97	0	73	4	37	99	31	97	82	50	11	42	93	24	93	96	3	47	88	64	3	50	40	55	61	6	91	21	74	80	56	27	31	15	76	65	77	4
76	35	91	66	32	27	26	6	29	2	71	98	62	45	0	40	84	12	35	83	30	2	60	89	76	4	70	27	19	70	53	22	74	99	65	88	13	51	54	65	74	87	61	4	12	99	92	21	5	43
86	21	41	90	18	32	79	72	28	29	20	86	63	29	49	0	66	54	77	47	50	78	68	60	5	91	70	86	75	8	41	21	78	65	51	60	56	29	69	71	52	86	55	51	88	53	79	63	49	2
57	5	95	68	64	44	75	1	89	44	93	55	14	46	70	70	0	46	88	83	46	40	83	91	22	72	76	74	45	74	56	29	51	25	98	37	6	53	58	50	81	22	36	94	66	75	94	76	38	73
99	37	32	54	99	94	96	89	82	72	26	33	68	94	82	68	19	0	5	87	3	88	38	18	77	39	47	33	82	83	65	41	96	46	64	65	90	55	26	67	61	85	46	46	96	41	42	15	75	28
14	24	54	69	8	84	8	56	56	14	10	29	14	95	73	58	96	38	0	99	36	6	74	90	27	91	21	27	18	76	8	26	70	63	38	17	89	82	43	12	17	59	30	53	51	2	54	56	39	47
57	1	82	13	50	22	75	35	28	5	43	8	58	95	64	31	71	70	86	0	46	45	34	78	26	68	31	70	23	9	95	71	14	44	85	81	83	16	47	24	40	12	32	64	58	3	56	4	81	73
66	52	39	30	63	24	58	77	78	9	75	90	36	14	75	32	14	77	13	80	0	4	95	99	78	30	30	55	19	75	61	60	13	26	28	59	28	33	61	91	72	54	90	65	71	15	2	94	71	18
60	53	44	73	37	39	98	43	87	33	19	14	84	95	69	40	9	63	56	24	29	0	93	30	35	41	8	59	68	45	15	23	97	77	15	93	82	24	20	9	33	89	35	59	31	98	99	39	69	38
64	24	60	87	66	93	20	86	23	4	27	33	66	65	25	23	64	6	5	55	33	6	0	81	88	13	32	77	5	66	30	46	15	35	27	14	28	42	68	25	56	44	90	16	31	58	87	43	45	29
48	58	60	5	54	93	40	26	69	4	81	72	64	73	85	5	50	98	64	88	26	90	79	0	6	49	54	78	84	96	63	43	92	75	6	92	91	81	93	97	40	43	50	82	78	80	23	51	61	70
76	40	5	98	75	88	56	43	60	93	21	11	68	67	94	31	56	33	85	78	23	20	30	62	0	58	40	26	29	38	63	50	49	53	25	23	86	57	17	48	77	44	71	27	62	12	21	35	49	63
88	10	99	48	65	78	76	61	59	42	74	31	25	72	39	81	13	8	50	37	98	41	96	13	83	0	45	99	17	57	71	51	26	92	20	66	52	95	75	74	87	27	34	96	86	90	91	84	57	26
57	18	33	70	7	83	68	74	99	83	76	82	18	50	90	6	7	61	42	71	19	83	62	3	93	88	0	57	66	25	14	22	14	2	79	87	69	21	60	9	71	97	88	54	52	47	44	45	15	91
31	41	57	15	70	6	24	93	57	67	11	49	49	65	51	6	88	58	36	67	86	25	73	31	5	86	75	0	90	25	25	34	28	87	95	18	76	40	33	4	92	25	12	33	98	97	19	40	63	65
28	12	40	64	7	57	70	36	75	14	35	70	12	3	6	8	71	21	26	38	54	34	29	26	55	92	64	59	0	60	8	6	91	96	37	39	31	35	78	74	98	96	77	27	47	30	87	43	30	54
33	91	47	76	80	25	12	31	4	98	20	14	11	93	15	86	57	71	66	90	64	80	25	95	30	70	13	51	81	0	95	59	51	26	11	90	99	86	86	43	47	30	8	56	48	29	22	44	38	19
54	86	47	25	10	60	87	86	27	14	92	5	47	62	88	71	28	30	21	74	2	99	77	86	57	33	77	72	18	56	0	15	68	11	48	72	41	68	64	58	14	16	84	16	4	19	71	15	40	96
65	32	38	40	72	68	41	70	6	61	72	42	89	96	54	72	46	32	74	41	11	63	29	15	48	27	50	60	82	94	8	0	77	38	20	52	57	67	36	12	30	17	4	93	87	47	88	27	79	17
84	60	1	86	31	2	58	19	78	44	57	56	19	52	38	27	68	66	87	5	67	70	72	99	55	21	80	95	12	39	77	32	0	86	13	98	95	55	53	40	96	69	12	26	16	93	48	54	50	53
8	52	17	18	36	96	75	11	70	79	67	10	43	24	4	88	21	70	52	6	55	11	75	41	6	18	50	47	77	11	63	48	77	0	52	53	17	85	55	54	12	81	75	55	47	94	79	85	35	51
35	86	18	34	77	33	82	5	16	11	29	20	98	63	22	56	72	75	60	41	63	37	43	23	93	21	7	51	16	67	67	45	93	43	0	1	64	9	40	28	15	34	14	8	57	18	86	38	99	80
59	17	80	88	11	37	87	90	86	93	69	11	78	23	24	31	79	31	73	27	54	55	67	23	41	73	74	76	7	55	41	28	94	24	31	0	61	55	70	95	57	39	30	11	51	87	32	82	13	68
57	39	15	23	89	22	62	36	34	57	87	36	29	88	47	85	90	73	65	36	64	95	15	31	63	34	30	4	22	93	88	95	98	93	12	82	0	1	63	67	8	22	91	76	28	8	28	55	52	94
39	46	10	85	60	20	77	57	5	51	73	16	6	92	61	44	19	17	59	3	5	85	27	84	67	72	74	36	23	49	24	86	10	4	20	48	90	0	61	58	97	86	23	81	31	45	39	80	52	47
83	66	55	82	95	33	93	74	15	5	56	11	13	50	84	20	97	3	9	12	59	17	89	44	63	55	80	14	27	80	53	64	25	9	65	63	11	24	0	41	4	50	89	2	7	11	88	78	56	46
80	71	77	68	60	60	47	96	56	71	89	36	5	46	7	14	77	82	38	76	66	37	49	32	37	5	5	88	16	29	55	24	65	83	69	75	61	54	62	0	57	89	9	29	31	10	2	63	78	56
4	26	70	87	13	7	22	94	91	71	77	19	65	8	62	57	39	91	99	55	40	63	86	97	89	63	58	65	60	73	5	14	70	70	4	81	20	71	91	50	0	82	53	90	2	89	52	53	49	78
78	93	42	4	20	31	60	11	1	47	56	33	29	38	12	68	42	21	6	32	41	18	29	95	71	24	79	71	81	44	18	84	88	44	85	52	6	50	98	59	27	0	11	82	99	72	79	97	31	41
98	79	40	17	85	95	42	23	56	84	52	40	42	34	88	10	67	14	14	98	6	73	21	2	42	55	14	97	90	11	35	89	46	88	57	98	87	55	30	84	48	60	0	44	23	11	54	63	53	15
20	35	73	71	80	76	65	22	3	94	52	88	77	3	40	6	82	16	89	27	49	62	6	45	67	29	76	72	24	32	58	70	58	86	10	27	60	1	31	8	65	36	33	0	48	13	3	70	52	74
71	93	12	60	36	17	73	76	58	99	6	80	58	91	51	50	54	86	60	87	63	89	45	96	1	88	5	24	48	82	94	40	95	17	58	11	46	20	42	76	55	42	48	47	0	53	44	6	79	48
86	66	78	32	11	60	67	19	21	48	4	97	9	72	23	82	67	90	59	79	96	46	67	12	6	96	39	73	36	16	94	98	92	50	87	68	37	62	60	95	82	29	36	55	6	0	59	27	47	53
43	6	22	6	59	65	92	43	2	58	21	13	97	9	52	88	21	9	27	89	42	73	4	75	53	93	70	58	63	23	25	84	54	88	51	80	40	97	29	59	76	96	42	46	97	96	0	81	62	99
76	61	66	75	16	86	56	85	36	36	75	22	42	68	75	71	85	43	31	30	10	27	10	87	35	30	34	97	1	75	1	12	60	19	42	19	14	58	33	49	16	94	94	7	84	54	37	0	52	13
67	46	53	57	59	4	63	44	21	3	11	24	43	93	92	72	42	65	14	7	3	62	24	72	30	78	25	10	78	86	59	26	88	88	16	13	70	99	87	82	98	4	83	36	18	32	84	63	0	67
65	82	49	74	56	48	33	72	19	12	44	56	40	65	20	68	98	9	61	74	9	2	98	90	15	93	68	48	8	38	22	31	44	32	7	98	74	18	16	98	31	39	77	24	16	47	28	62	94	0
M4
0	3	2	58	93	7	28	70	42	54	20	8	16	11	75	58	82	51	61	70	32	87	28	29	58	9	64	38	33	93	22	21	68	54	48	75	68	59	99	58	15	9	49	85	52	70	91	75	38	10
10	0	55	92	68	65	29	70	59	22	74	15	98	16	91	91	1	28	52	97	76	27	16	92	36	82	96	13	88	78	99	43	64	60	88	73	30	12	13	63	57	31	32	82	66	59	15	10	63	83
84	99	0	30	15	55	60	46	9	70	97	47	78	48	8	51	38	76	41	98	42	36	60	5	40	27	62	6	41	29	46	45	70	38	42	51	57	29	28	81	80	61	7	37	78	28	20	90	79	95
17	61	20	0	1	11	37	57	96	79	35	92	67	2	33	58	50	47	30	36	37	34	18	15	41	41	54	1	45	40	84	37	93	71	59	95	56	91	21	57	1	61	81	80	55	51	95	30	28	84
13	22	27	42	0	65	92	3	6	4	9	2	11	20	76	85	27	93	12	93	4	57	77	16	37	78	12	18	49	86	84	47	78	5	77	87	43	64	59	61	5	98	4	90	46	65	77	60	57	24
96	52	76	78	22	0	41	39	67	33	72	24	39	34	57	5	67	51	55	55	88	25	50	46	60	25	5	39	70	35	74	88	64	72	15	66	50	55	96	98	98	29	34	81	71	5	74	89	22	82
12	22	47	62	22	36	0	16	55	30	60	71	56	57	98	91	44	12	55	70	8	20	50	28	25	10	5	84	35	86	10	45	98	83	13	78	9	53	84	3	11	49	54	83	63	6	16	36	12	16
51	71	75	72	28	23	82	0	5	53	62	81	54	96	73	17	41	26	56	65	37	5	63	50	37	44	8	93	89	20	88	60	48	90	18	16	33	71	54	7	20	62	69	11	4	31	2	42	4	85
85	97	89	8	51	71	67	29	0	26	96	46	45	94	65	72	34	6	51	2	17	5	37	48	44	55	6	36	45	79	71	33	40	5	36	46	10	26	10	7	83	4	36	86	72	62	91	99	72	64
68	99	6	61	54	80	88	52	63	0	20	23	18	86	37	67	85	72	61	25	54	40	20	61	88	90	88	39	53	92	83	18	58	19	67	79	21	78	4	59	74	92	94	3	82	62	68	70	32	67
12	71	12	76	63	89	13	54	4	30	0	88	12	27	14	81	16	66	81	87	69	96	99	19	19	70	69	98	60	26	78	79	40	94	68	82	72	91	74	88	31	51	85	48	79	75	28	63	39	77
57	74	22	37	28	66	80	27	62	50	32	0	54	50	99	77	26	37	55	20	52	97	15	44	21	93	67	18	21	54	63	31	3	52	99	75	96	39	80	30	16	73	76	17	40	66	94	29	42	98
31	51	91	18	68	26	74	96	41	36	98	16	0	76	98	65	15	92	5	41	5	6	35	58	44	76	46	21	37	98	10	2	78	16	35	47	69	13	26	43	86	22	32	91	58	29	14	6	95	88
25	32	72	72	75	44	68	7	36	74	98	80	95	0	80	1	23	83	55	63	93	8	28	9	20	95	28	58	80	11	88	44	29	90	29	68	89	46	36	91	80	95	26	14	41	31	77	91	76	42
44	88	38	48	1	60	3	4	78	15	24	88	95	14	0	67	93	83	93	54	55	65	11	69	20	46	72	14	20	11	81	5	99	41	11	57	36	3	86	95	21	63	56	83	11	31	59	60	66	44
25	41	27	35	73	4	96	51	88	65	34	19	99	46	84	0	66	68	43	78	48	88	83	3	44	36	18	4	18	37	76	80	53	18	12	98	16	79	70	99	1	6	95	8	61	78	46	59	35	81
74	94	18	16	7	94	30	36	17	59	99	3	89	46	50	3	0	8	20	53	81	15	91	3	93	36	38	16	49	58	31	60	44	9	16	65	71	64	29	75	63	6	34	42	16	82	13	69	87	56
56	57	82	41	27	7	46	51	88	82	48	44	43	47	26	87	90	0	14	10	14	28	78	50	39	45	29	37	45	68	40	57	63	87	14	37	8	46	12	86	40	85	80	11	73	77	97	76	37	79
57	35	69	4	85	59	7	77	65	29	74	40	86	71	22	7	76	50	0	36	80	58	62	33	19	51	76	21	57	10	17	63	58	59	5	5	56	85	75	31	78	75	55	78	95	29	67	6	21	67
81	1	51	35	50	93	44	55	82	73	42	76	50	58	16	54	27	49	74	0	13	13	66	60	7	80	68	40	82	59	70	51	82	39	37	66	74	51	17	78	71	71	23	34	85	52	93	56	47	63
90	39	49	12	1	96	24	72	67	17	57	38	56	34	86	85	37	24	55	92	0	33	6	2	85	69	70	19	77	27	96	12	25	76	15	20	38	55	29	14	97	4	11	60	70	86	18	14	31	50
12	99	31	4	72	67	68	21	31	56	55	95	68	93	74	9	61	95	85	81	61	0	81	28	15	44	91	99	64	66	70	41	84	5	76	46	23	89	10	66	92	31	71	93	22	17	8	27	51	22
93	74	66	60	55	34	45	79	48	45	80	57	31	30	5	70	2	47	19	31	91	27	0	11	29	34	74	10	2	42	48	23	33	75	50	29	58	81	88	48	17	23	5	4	83	42	67	36	61	33
68	51	37	94	97	5	20	8	59	47	97	50	57	99	18	48	85	20	51	28	66	83	96	0	1	51	87	49	20	69	58	21	75	71	14	11	22	30	15	37	52	83	4	91	59	24	17	89	64	80
26	99	82	44	20	97	66	35	70	74	50	8	11	82	79	42	32	18	95	75	87	54	23	60	0	32	85	66	68	69	50	21	60	62	27	52	98	34	38	95	81	69	93	91	5	90	68	40	97	65
90	60	87	78	84	70	80	68	94	39	63	6	90	61	77	80	22	66	10	9	74	63	93	88	54	0	69	32	51	87	97	76	5	24	77	22	50	79	40	9	31	51	13	33	35	91	73	13	62	37
73	59	36	4	36	52	11	19	82	16	7	40	39	46	73	77	32	34	74	30	73	88	21	96	97	53	0	25	22	92	69	24	87	42	28	16	61	79	12	6	63	98	33	27	16	95	2	31	73	28
83	28	65	7	39	23	89	69	52	97	40	95	81	14	54	62	99	56	20	51	5	22	77	54	11	39	91	0	43	62	65	1	89	29	97	55	71	56	4	4	77	7	36	92	8	7	14	81	43	62
70	94	7	42	94	65	60	29	29	34	3	76	99	9	62	32	78	6	94	12	13	24	40	50	80	18	98	31	0	38	78	15	99	82	37	93	8	39	46	93	20	42	1	44	18	90	15	11	55	71
66	98	56	82	51	47	61	27	39	82	66	34	17	27	4	24	40	59	65	53	51	4	64	77	34	77	84	26	97	0	20	64	85	21	1	15	29	98	56	76	33	72	21	50	79	34	50	62	32	32
43	52	21	27	10	98	96	70	61	6	27	2	96	24	40	95	15	88	49	95	97	79	10	20	18	49	89	30	76	67	0	54	83	79	85	6	34	3	8	16	32	99	33	47	34	65	2	59	54	48
56	25	84	71	7	30	76	25	53	8	69	16	14	44	4	1	56	54	47	41	29	10	31	40	46	74	66	73	67	76	1	0	5	74	21	23	48	48	21	22	38	81	14	81	1	95	64	39	33	33
98	55	55	52	11	68	77	53	28	35	87	91	32	76	83	74	81	79	67	41	71	27	98	78	18	59	81	9	84	78	97	60	0	50	60	47	18	11	35	49	86	59	39	94	47	75	63	78	64	38
39	40	79	23	53	93	16	64	59	31	52	81	45	11	61	6	78	86	17	57	10	41	5	55	43	2	7	63	80	78	29	3	2	0	47	5	80	48	55	90	30	3	43	25	42	7	84	33	43	42
15	94	56	62	81	95	33	75	36	46	60	89	69	30	69	79	40	12	3	49	60	28	23	74	28	28	58	65	28	51	24	93	44	45	0	71	48	47	70	43	27	46	42	38	86	31	5	17	99	42
46	9	85	32	77	87	23	20	64	32	64	42	66	92	94	56	16	26	16	58	68	70	55	99	73	76	12	38	70	5	3	43	6	72	71	0	38	19	97	63	72	39	72	86	26	7	77	17	3	6
98	99	78	56	31	79	85	20	63	40	62	15	77	43	6	41	29	13	92	54	61	70	59	56	95	53	72	76	86	46	7	64	27	25	21	26	0	74	83	12	63	94	86	69	8	62	90	64	51	68
4	52	16	20	87	74	25	27	23	71	57	13	85	60	92	6	6	41	95	82	18	9	87	74	8	21	93	66	28	20	89	41	27	23	59	47	19	0	31	53	97	96	5	6	33	49	27	44	89	44
40	13	70	92	26	76	13	97	72	92	82	53	47	59	53	56	53	69	48	34	65	52	49	13	53	57	5	65	41	24	87	32	65	47	85	84	32	16	0	29	86	77	3	85	76	88	16	69	51	37
57	63	67	31	33	29	48	91	22	69	79	5	87	68	50	9	98	9	35	17	95	50	49	82	96	32	23	59	66	14	64	16	57	63	15	5	11	91	19	0	89	87	50	47	93	44	60	70	9	92
53	49	92	3	12	95	30	27	64	33	42	70	64	33	73	36	54	39	80	99	3	80	13	17	54	40	50	51	46	49	47	80	65	93	87	30	55	75	58	19	0	4	59	92	37	61	87	41	80	73
66	74	17	32	29	21	51	71	45	90	20	69	36	53	40	25	3	55	69	32	78	1	77	57	68	35	28	99	45	93	10	91	84	23	80	60	96	70	7	74	59	0	99	15	28	68	99	77	43	72
65	15	98	32	85	82	14	44	64	57	34	12	53	65	12	49	83	10	73	56	12	78	18	97	32	48	80	72	5	23	64	64	10	62	23	5	37	90	45	80	47	88	0	75	83	86	18	69	77	31
28	66	21	92	35	40	87	15	85	43	62	33	34	66	3	2	10	76	2	73	36	4	87	18	39	93	46	4	63	34	51	64	56	43	40	54	24	61	71	42	44	89	43	0	94	96	59	76	71	54
43	69	11	27	29	89	84	77	16	73	63	24	7	17	99	21	13	5	34	67	86	4	80	93	50	10	44	22	86	39	72	97	11	90	57	52	41	23	21	22	27	27	67	50	0	23	83	75	46	93
43	64	67	1	54	67	53	13	42	80	46	24	8	77	41	77	90	18	72	41	41	75	43	70	59	63	18	49	27	49	61	12	23	72	97	73	9	10	96	27	14	50	35	79	62	0	80	88	47	31
94	30	16	9	65	65	46	13	44	29	86	83	99	95	2	53	82	13	58	63	84	45	95	84	42	78	96	49	93	44	34	15	82	38	34	6	76	62	13	17	49	13	66	55	26	78	0	6	77	12
41	87	30	38	74	80	4	94	94	48	77	52	17	57	80	73	91	46	27	68	59	87	89	60	25	56	11	46	44	72	82	74	89	81	36	89	11	4	11	88	27	41	20	10	12	47	10	0	51	59
86	80	67	34	44	41	8	47	53	78	99	26	59	93	80	41	39	21	27	33	42	34	49	45	16	15	40	41	38	20	99	87	72	88	72	15	15	67	64	89	89	54	46	58	31	71	32	54	0	44
38	8	71	32	88	48	48	46	63	39	15	75	70	95	96	4	86	52	82	88	55	52	86	30	94	66	79	61	21	31	64	63	57	61	6	67	82	5	57	36	30	21	46	10	57	12	88	63	25	0
M5
0	45	69	13	81	34	99	70	24	59	28	32	82	70	84	44	59	87	69	98	9	80	25	24	46	21	50	3	16	14	37	15	68	61	58	94	8	21	18	41	28	46	44	29	36	42	3	20	42	54
46	0	36	53	82	27	82	4	95	41	20	23	66	94	9	95	79	85	95	90	67	56	4	57	68	68	51	3	30	84	5	15	2	72	46	87	65	65	15	61	20	39	38	91	27	90	74	98	50	37
37	71	0	75	57	55	27	85	46	2	40	17	73	95	3	41	37	55	75	26	72	58	41	91	61	39	75	49	29	26	83	93	51	98	81	91	86	23	16	80	21	92	46	78	85	73	43	51	76	44
66	10	3	0	82	28	26	29	15	66	82	92	60	71	98	18	16	42	6	42	69	66	54	40	43	58	85	18	99	90	82	83	54	2	5	40	88	72	61	64	64	95	70	40	57	97	28	78	83	63
55	42	86	85	0	30	51	82	51	5	42	22	11	57	98	84	11	45	93	14	87	53	91	93	34	53	6	78	10	12	26	55	43	22	36	2	45	49	4	46	40	99	5	68	83	66	17	89	13	11
1	25	52	80	35	0	16	91	64	1	68	71	51	4	40	71	34	98	74	78	74	49	75	80	26	32	50	6	70	83	85	14	28	22	23	9	41	23	56	16	35	14	56	59	19	10	5	23	64	30
97	86	89	40	23	63	0	38	25	62	84	2	94	43	11	65	48	43	62	52	83	42	93	90	9	51	63	55	91	77	65	29	58	95	32	97	30	47	22	82	62	80	44	63	98	91	90	40	94	49
84	53	46	13	54	52	28	0	48	89	74	47	40	53	93	36	27	42	22	76	16	28	5	96	66	20	27	95	19	26	12	4	43	8	2	43	13	60	34	89	24	56	59	27	34	30	65	46	81	7
7	35	2	90	41	60	60	64	0	35	38	69	81	87	44	56	32	79	7	96	19	49	85	35	97	60	35	58	31	98	94	84	83	16	66	88	59	27	60	90	42	2	28	48	11	19	12	53	18	82
72	25	73	5	88	26	60	4	24	0	70	77	92	16	90	89	35	30	66	22	91	81	63	32	10	21	14	55	3	29	32	93	34	77	66	6	1	46	20	5	80	99	85	79	92	69	89	11	68	87
33	8	59	83	71	28	13	22	86	45	0	81	43	23	49	71	58	98	38	36	81	25	7	56	20	76	40	86	42	4	92	41	4	93	81	51	6	87	37	35	90	42	1	42	31	89	39	56	54	7
33	2	95	32	56	65	91	71	47	12	48	0	88	48	98	44	62	49	80	60	68	80	71	34	16	32	17	93	29	82	68	8	82	88	87	66	13	55	11	76	61	79	48	27	30	52	7	73	60	55
59	37	54	94	86	15	98	36	85	58	68	60	0	11	59	26	45	76	45	25	23	68	84	90	5	21	45	49	44	53	62	18	84	92	5	68	27	15	45	40	99	71	81	71	21	3	55	46	80	46
64	7	90	83	80	63	80	2	96	99	29	42	79	0	70	58	82	6	14	42	61	89	50	1	42	44	32	75	86	40	59	12	70	31	79	2	71	79	41	51	7	1	68	74	2	96	64	39	25	60
79	19	2	62	91	4	12	54	77	96	25	61	87	95	0	20	27	47	19	18	46	44	53	97	3	72	11	79	86	51	28	12	66	37	47	83	31	90	63	41	46	68	26	98	67	63	27	57	13	98
14	78	99	48	9	81	77	63	36	41	25	91	64	30	94	0	40	34	21	15	26	22	34	80	98	65	11	9	27	41	43	25	2	74	80	10	90	32	11	23	28	10	75	86	54	28	62	97	24	97
2	83	38	13	40	46	92	81	85	38	24	11	32	77	12	4	0	20	96	62	25	83	64	81	55	91	49	16	36	87	99	8	73	82	60	24	58	56	56	9	6	64	8	11	49	75	58	62	17	64
34	16	78	43	56	75	60	16	93	58	46	77	5	95	10	90	17	0	36	67	21	52	41	34	12	73	49	8	19	35	72	43	51	44	57	72	76	76	91	78	97	98	75	53	99	91	70	66	23	79
89	41	22	2	12	25	12	92	10	77	4	50	44	28	86	6	55	75	0	18	31	47	26	7	48	66	94	20	17	1	22	47	24	53	67	89	97	78	2	67	22	72	87	64	23	61	29	50	43	33
47	47	52	88	82	31	26	38	44	95	14	37	64	3	78	56	25	2	61	0	31	52	5	22	22	7	35	48	90	18	90	38	71	35	87	98	99	92	81	17	5	14	82	89	12	98	96	23	82	79
78	39	93	28	66	54	53	43	41	99	82	80	25	19	13	74	8	55	92	65	0	87	9	91	56	29	32	43	44	9	88	77	88	87	6	20	43	19	80	68	44	5	26	67	19	42	67	52	91	25
34	15	72	98	89	27	65	81	2	28	31	87	57	42	95	43	60	99	79	48	67	0	75	94	45	52	63	45	3	19	47	99	97	74	47	51	86	50	51	68	78	39	49	8	53	65	35	35	1	31
53	78	58	78	93	22	73	81	67	89	35	57	9	5	32	41	2	1	42	82	11	37	0	56	58	71	33	93	97	74	30	65	69	35	49	76	82	48	87	98	91	60	93	40	21	10	96	79	25	23
88	75	78	59	79	46	51	42	82	70	90	35	93	83	56	32	63	48	48	71	96	25	39	0	6	14	86	95	78	59	34	44	90	41	18	35	58	43	73	87	90	45	13	35	49	26	51	97	64	56
41	46	5	89	50	54	51	22	16	22	2	62	39	44	16	52	23	47	78	15	60	12	30	22	0	23	71	8	18	6	27	82	28	41	50	96	50	69	46	25	1	39	92	23	66	80	95	41	78	61
13	97	22	24	46	57	31	69	90	58	49	33	3	74	42	56	32	5	96	71	99	40	50	36	50	0	46	20	91	96	44	41	26	33	99	27	76	87	50	3	95	37	9	87	62	13	56	27	14	68
91	89	41	76	91	82	60	87	30	60	48	71	34	25	29	8	80	35	24	12	69	80	13	6	22	90	0	67	69	80	75	61	35	31	28	59	15	57	25	31	52	92	16	73	71	53	79	4	40	39
89	71	70	61	26	2	44	19	6	70	11	29	43	68	12	2	48	99	28	97	19	42	42	11	2	35	74	0	76	18	5	34	85	72	15	90	52	10	16	50	81	67	36	3	20	49	22	78	93	27
35	9	56	18	54	6	17	24	47	82	13	17	4	96	36	5	48	77	51	20	76	74	45	1	74	39	2	79	0	31	16	99	80	30	25	59	91	2	44	3	75	68	29	2	18	95	33	15	47	61
12	51	57	76	18	6	20	44	37	57	81	25	8	25	63	47	20	16	24	86	9	17	40	2	69	17	27	95	54	0	55	97	37	50	28	36	80	34	16	27	45	44	1	67	54	38	80	70	42	15
18	12	82	5	67	91	97	87	66	12	37	69	96	96	54	29	40	87	20	27	87	15	25	30	80	14	86	94	85	33	0	67	7	41	65	33	87	18	88	50	94	87	8	74	92	87	19	89	57	29
53	1	53	89	63	74	95	76	61	14	64	66	24	69	71	42	11	52	63	92	84	98	28	53	12	84	35	82	83	11	23	0	17	90	94	21	47	43	34	64	4	15	46	37	58	53	92	57	60	86
24	90	69	17	28	49	67	85	61	13	47	45	85	88	13	72	48	89	44	13	83	88	6	43	14	4	4	72	73	92	21	47	0	3	80	89	15	70	49	69	54	22	44	51	97	71	96	6	82	74
69	25	22	52	47	64	78	67	56	53	70	45	80	29	59	14	94	46	95	1	45	28	8	3	45	75	74	27	63	66	21	58	23	0	88	6	14	44	89	17	78	89	63	74	37	2	73	6	51	45
95	67	40	79	47	1	58	37	6	50	2	81	52	1	57	65	91	91	87	12	27	21	39	98	2	52	72	13	25	80	81	97	47	25	0	54	22	62	50	67	41	37	36	43	23	99	50	94	60	50
94	37	7	54	14	61	81	42	10	71	48	39	93	41	68	72	53	56	69	43	37	27	80	71	81	92	32	31	12	66	27	39	20	71	15	0	80	85	77	36	65	93	47	16	53	69	34	26	97	26
2	44	91	10	53	79	21	77	87	33	48	40	41	33	87	59	45	47	50	89	39	64	61	87	10	4	86	45	39	88	8	6	94	96	41	76	0	83	64	4	53	60	26	39	5	53	98	85	95	59
41	38	41	20	66	27	15	65	74	43	73	1	28	46	46	82	1	60	12	78	62	44	76	39	87	72	90	10	95	79	2	58	60	53	23	13	46	0	67	39	13	67	7	19	37	67	13	86	56	60
48	54	14	4	78	54	46	70	1	94	88	48	75	38	34	95	37	79	31	10	95	60	49	99	48	63	36	80	67	58	57	5	38	6	89	19	46	32	0	99	3	57	29	37	31	34	53	21	66	64
21	10	62	32	20	64	63	17	98	54	92	26	79	66	89	95	33	25	40	98	96	15	92	62	21	72	70	75	86	1	14	43	19	2	14	5	98	46	28	0	48	34	20	81	61	59	14	96	20	65
58	2	91	71	99	22	15	9	83	45	79	66	1	10	12	13	82	72	50	14	75	39	57	91	31	76	8	95	74	34	42	98	50	38	91	20	58	49	97	48	0	29	83	80	8	91	51	43	3	45
50	14	25	29	19	46	8	57	57	53	73	67	38	25	89	79	88	71	45	90	10	78	7	36	68	72	19	92	62	44	54	7	59	45	27	79	67	96	32	37	56	0	45	69	56	71	68	62	46	89
11	87	91	18	5	66	6	31	7	93	64	91	51	97	1	16	6	57	94	60	73	30	79	57	90	47	53	21	99	3	72	82	99	28	51	60	9	24	6	57	93	16	0	15	18	38	26	84	34	62
91	37	48	25	78	63	95	51	61	13	2	82	61	98	9	33	86	56	5	6	90	77	81	99	60	98	43	7	96	33	32	90	42	64	60	81	71	40	57	49	53	35	56	0	12	54	84	12	17	21
86	90	92	89	29	92	50	86	13	97	95	33	43	29	73	63	32	4	59	15	28	80	62	55	67	53	17	58	14	36	62	30	18	38	50	60	42	29	27	48	2	37	72	19	0	32	46	2	47	86
57	52	29	19	55	29	88	1	85	58	17	86	29	88	50	23	42	40	54	67	80	70	83	54	46	41	6	35	5	73	26	74	81	41	48	73	23	41	63	72	75	29	38	25	38	0	25	57	68	73
9	40	24	90	80	24	6	32	37	7	11	30	97	68	33	11	88	22	22	77	53	76	63	70	57	91	72	13	5	66	15	81	85	96	6	53	13	86	34	33	28	99	36	45	86	84	0	98	57	38
14	66	62	73	18	2	46	2	13	90	5	73	30	22	90	81	20	72	13	80	79	66	12	14	28	9	79	62	24	1	8	20	98	79	73	72	64	60	3	54	2	63	65	80	44	41	2	0	91	18
56	66	55	98	71	55	30	95	48	60	56	72	64	27	42	68	1	59	72	81	57	66	41	20	94	51	86	38	21	92	90	14	59	61	68	31	65	81	42	74	91	17	6	58	12	57	99	28	0	44
18	60	25	54	93	19	95	6	17	56	84	5	19	41	45	55	99	6	49	10	32	50	98	98	82	56	47	57	16	68	97	92	2	74	38	62	63	79	21	43	19	66	93	31	12	83	62	84	32	0
M6
0	14	19	10	76	85	65	48	89	61	42	13	96	8	8	98	12	17	55	33	83	46	49	70	17	96	15	34	76	46	31	63	61	94	92	18	9	13	38	39	73	81	88	85	70	59	8	85	2	42
98	0	68	86	75	1	71	72	40	35	42	99	34	31	72	43	9	11	30	52	31	43	91	69	86	68	77	85	48	58	47	78	66	78	10	35	56	59	51	46	92	83	81	41	41	53	67	81	76	6
90	55	0	70	71	46	15	53	5	84	65	82	34	46	97	62	96	50	15	10	72	36	3	60	26	71	38	40	8	70	37	73	97	84	93	93	76	62	51	67	57	2	11	51	24	19	68	59	42	23
39	92	52	0	70	8	58	68	27	4	87	14	78	17	33	93	46	67	98	76	22	19	19	28	15	98	28	33	67	51	46	92	9	48	91	73	20	26	6	54	59	30	24	9	53	83	49	94	53	7
13	56	25	59	0	11	54	8	82	69	78	68	57	68	18	33	9	27	75	72	28	34	67	73	83	70	40	32	48	70	85	29	64	97	61	93	17	50	14	59	93	14	90	67	50	31	72	68	14	52
63	33	81	78	32	0	71	7	33	72	20	75	5	44	43	24	49	2	68	39	52	26	43	38	82	16	77	44	94	4	30	83	53	5	29	60	84	9	49	20	1	83	90	81	19	35	9	92	94	53
12	70	41	46	29	98	0	80	14	86	7	79	46	80	63	48	30	7	36	6	99	99	21	42	64	92	32	34	13	85	5	94	55	7	62	49	69	80	36	94	58	50	54	62	23	26	26	90	37	34
83	2	42	8	82	13	22	0	40	48	34	20	78	22	41	11	55	63	16	31	57	86	95	36	94	58	78	47	19	71	63	85	99	79	40	18	58	54	47	74	21	97	55	90	38	31	60	85	80	26
87	3	16	63	36	50	17	38	0	21	22	58	26	84	98	11	1	98	44	28	62	67	57	90	4	96	45	58	47	11	12	25	4	19	99	6	56	51	17	82	67	39	38	85	42	4	65	94	27	60
76	89	10	73	18	78	40	11	95	0	80	10	85	85	52	51	74	71	72	31	60	64	31	69	44	74	90	97	5	37	2	39	17	13	13	75	50	18	80	30	12	39	90	88	8	63	47	26	23	10
57	31	63	38	69	21	99	2	5	99	0	3	31	1	19	68	88	59	17	66	33	64	52	70	67	21	75	34	71	13	86	44	44	96	75	45	95	74	48	32	77	10	79	47	27	80	52	21	77	89
66	72	54	68	34	12	56	46	91	56	95	0	73	91	23	43	22	59	73	10	95	31	22	49	28	96	17	70	50	22	91	91	58	32	1	85	2	54	25	72	89	83	94	87	75	2	55	15	61	56
97	66	51	99	10	53	29	36	29	68	41	18	0	2	85	14	99	68	45	43	45	52	73	19	26	7	62	82	81	42	7	35	15	49	65	30	36	91	16	28	10	30	93	2	26	82	50	2	32	73
65	40	88	94	4	44	19	80	1	80	95	92	4	0	62	59	44	21	91	74	25	50	86	55	97	83	4	39	72	15	62	69	98	91	14	20	13	96	26	87	37	46	74	8	25	32	56	94	80	62
65	98	23	60	8	39	47	39	37	47	19	50	31	24	0	8	85	53	25	23	76	66	87	31	6	91	87	64	55	24	96	40	31	50	46	54	40	44	52	22	24	15	44	75	65	39	90	49	22	18
40	99	54	14	96	48	50	77	4	44	76	69	23	86	84	0	18	6	50	69	91	13	2	66	66	25	4	7	13	37	52	88	38	56	76	31	61	23	9	18	98	27	5	38	91	4	65	92	8	16
96	20	90	66	96	61	44	85	74	62	72	8	30	87	16	13	0	44	98	49	97	64	7	43	28	94	22	84	47	7	40	31	69	38	52	29	81	51	64	21	25	65	57	37	25	79	37	21	2	50
35	62	82	2	81	16	83	72	48	38	40	23	27	68	8	75	14	0	39	59	41	95	88	42	60	57	17	86	77	66	94	66	1	10	28	62	38	70	47	66	99	75	37	42	10	64	72	27	71	44
96	22	77	42	60	38	54	65	20	67	86	21	48	4	61	80	24	49	0	25	65	82	54	51	4	60	92	43	79	62	72	42	68	26	22	2	52	68	17	48	25	49	19	51	60	64	59	52	91	69
83	46	22	91	27	5	69	85	6	85	13	33	41	63	5	93	36	88	39	0	66	80	50	19	2	69	97	56	95	33	53	81	29	31	17	60	63	62	50	49	81	72	79	21	45	83	69	57	14	68
46	79	28	36	77	67	73	22	36	96	63	72	2	72	16	83	87	65	5	43	0	81	59	15	61	51	72	32	99	51	20	46	49	16	15	48	91	55	31	50	60	59	81	60	80	94	80	84	60	40
85	46	53	4	54	47	15	11	49	96	42	57	76	92	36	71	50	40	55	14	9	0	18	39	44	27	50	11	82	7	37	7	89	33	37	76	26	28	35	56	50	48	12	15	95	98	4	13	18	56
38	38	95	40	54	94	46	62	67	67	77	44	20	94	84	83	47	99	69	13	31	81	0	42	82	21	72	31	48	73	89	95	65	97	51	48	1	36	36	9	30	14	7	49	72	27	24	4	78	66
10	59	82	80	64	46	76	38	23	85	76	42	4	75	75	94	9	26	9	31	52	55	87	0	64	37	22	63	94	18	62	22	5	96	32	46	29	56	3	69	48	25	39	22	94	19	64	48	23	27
93	19	7	6	92	7	63	16	82	74	6	29	5	83	93	52	29	54	12	84	34	14	6	87	0	31	14	61	25	97	9	1	21	23	26	22	37	10	73	25	56	70	54	87	36	12	94	84	68	1
96	63	52	46	79	35	73	57	69	19	37	47	47	62	11	92	63	33	64	79	85	35	20	87	40	0	16	43	95	52	47	39	5	1	12	40	28	45	31	95	70	95	87	1	16	18	64	15	89	4
90	79	57	57	49	21	91	58	7	82	98	18	73	60	9	34	82	5	51	9	59	20	83	88	34	83	0	39	38	84	55	9	60	43	54	80	17	91	24	96	25	27	12	1	16	76	29	84	4	92
78	70	78	56	60	65	32	69	82	86	89	19	54	52	82	30	34	70	6	59	47	77	42	84	15	10	36	0	87	44	15	54	57	73	23	78	27	86	43	1	52	22	60	19	85	38	32	60	90	43
31	79	19	60	64	6	33	4	71	30	60	6	89	69	86	74	29	46	49	19	3	57	83	48	93	35	23	32	0	65	23	56	80	48	9	6	81	47	97	74	17	59	16	66	17	4	74	85	45	90
35	68	26	86	54	12	40	54	14	87	63	78	39	54	22	91	75	27	83	72	88	54	17	84	74	99	79	64	31	0	54	25	94	9	2	32	94	32	30	99	43	91	58	62	6	15	8	22	14	79
60	90	44	39	61	94	85	51	74	99	84	41	88	30	8	48	37	11	86	22	76	54	92	72	34	59	88	96	37	9	0	48	32	53	76	26	99	33	68	40	54	22	83	82	45	80	54	83	48	32
88	77	42	34	61	68	21	34	86	76	70	53	89	14	59	23	68	37	10	50	82	53	59	99	40	89	23	15	65	54	16	0	15	43	43	1	33	2	69	68	97	77	26	60	67	46	10	1	58	44
55	95	39	6	65	1	79	78	40	92	74	10	38	73	83	2	15	95	46	85	26	9	83	69	4	29	82	38	22	12	17	34	0	18	74	71	36	49	82	57	11	78	14	36	11	34	57	6	45	81
14	93	47	4	1	72	97	82	78	98	99	14	59	29	19	17	53	66	97	10	69	47	48	57	81	71	65	25	18	21	7	92	30	0	41	49	99	66	64	1	42	52	12	46	35	27	91	31	5	26
84	40	87	89	86	7	36	34	49	52	76	19	40	69	51	9	97	79	42	93	79	21	71	29	10	63	19	10	75	55	91	76	34	41	0	51	39	29	2	81	44	31	20	36	40	40	68	22	4	19
54	94	32	59	98	67	30	80	18	78	20	20	28	43	79	68	2	7	73	51	50	69	27	76	99	35	72	71	89	26	57	6	13	52	96	0	64	76	35	12	5	52	11	80	35	36	84	95	85	54
90	16	50	72	83	36	38	96	87	24	55	71	42	2	6	25	44	66	76	1	84	73	56	84	97	30	2	18	98	76	30	53	71	52	42	88	0	15	63	64	91	89	14	82	5	6	57	9	85	31
84	97	18	36	52	10	10	1	22	68	66	27	63	90	83	52	31	64	21	60	40	2	43	22	77	12	31	13	35	51	15	6	56	50	74	19	23	0	30	99	67	22	59	21	66	83	3	53	68	67
72	93	29	37	86	85	45	63	75	42	15	32	17	62	96	54	75	22	66	1	80	2	24	12	62	77	74	58	44	98	88	39	46	31	33	62	56	33	0	5	34	75	82	23	38	31	1	61	14	37
10	24	40	17	42	83	86	41	79	64	92	41	82	13	87	82	61	96	66	39	70	29	66	82	49	3	29	68	31	94	32	18	92	41	34	93	22	41	54	0	28	25	8	84	63	94	76	20	99	12
48	36	62	64	28	52	39	89	82	70	46	81	19	74	21	23	77	14	58	19	71	37	23	63	35	19	27	51	43	7	35	14	26	97	45	55	95	95	57	2	0	45	20	27	7	94	66	70	57	99
52	53	86	36	73	1	91	33	70	92	92	15	80	50	97	76	18	4	61	9	16	20	38	31	19	20	86	11	99	10	52	81	57	19	57	78	15	3	64	47	4	0	67	89	22	41	21	97	52	99
50	76	26	46	79	1	39	2	79	28	91	31	4	68	7	80	88	37	22	24	42	82	80	71	3	38	31	50	49	48	15	88	90	71	88	34	60	42	28	91	5	65	0	93	77	37	65	65	9	91
12	75	82	3	3	93	14	94	58	39	34	54	85	34	66	28	93	23	40	55	69	12	99	39	58	6	25	15	6	54	70	52	42	32	82	39	29	6	64	85	99	76	83	0	75	48	85	56	58	68
35	39	29	39	62	25	74	94	49	19	60	52	79	31	91	64	63	31	73	21	93	41	63	37	7	54	74	73	54	18	74	94	16	21	15	59	11	58	44	87	80	72	22	71	0	55	96	23	92	27
51	2	87	90	54	61	73	26	62	30	5	33	52	65	50	38	89	17	89	45	78	30	77	86	60	63	29	3	12	58	17	63	76	88	89	89	1	56	36	64	92	44	83	22	97	0	13	89	59	62
12	43	12	52	57	30	87	23	71	93	52	61	4	6	93	56	67	38	40	69	73	79	82	91	39	54	30	33	96	41	16	69	43	82	14	37	96	38	37	63	53	35	38	65	60	2	0	24	56	45
99	50	35	80	85	75	69	55	62	72	75	89	14	31	58	26	23	13	78	65	23	21	50	35	24	8	88	23	24	41	51	96	88	84	63	91	63	70	2	55	55	72	81	61	88	10	87	0	48	30
30	11	24	29	58	15	64	36	13	30	86	70	17	36	68	72	68	10	66	45	28	26	21	81	62	47	77	28	38	31	64	23	41	59	81	31	1	54	8	43	14	30	35	14	6	14	76	68	0	80
16	10	94	41	47	54	92	81	5	95	67	85	76	1	69	80	35	88	27	32	27	53	23	78	67	53	5	42	6	7	49	62	16	71	97	36	31	79	39	77	30	73	19	7	26	55	91	43	42	0
M7
0	44	44	70	58	10	52	84	61	17	68	47	45	17	35	9	30	46	69	71	10	39	74	5	34	58	73	36	94	93	63	78	70	89	34	66	35	5	11	14	67	2	9	22	79	34	1	75	69	76
49	0	38	77	97	54	26	69	98	96	92	14	54	7	94	99	16	75	2	11	86	79	60	82	73	4	51	72	55	69	74	35	46	7	62	93	37	35	13	27	35	32	77	27	44	98	59	99	53	74
92	2	0	25	41	22	42	97	11	3	97	48	19	75	14	87	34	98	81	62	76	42	35	2	97	75	91	41	65	95	30	83	63	87	87	10	78	7	20	32	62	28	48	52	76	9	83	77	53	38
29	98	35	0	1	64	33	89	52	80	93	87	86	36	30	2	68	14	49	78	30	30	32	67	60	26	74	23	57	13	38	10	5	87	89	75	84	21	55	81	58	80	21	94	70	55	61	73	49	86
73	27	14	24	0	46	12	14	49	93	89	66	56	35	77	52	73	1	58	92	53	89	22	26	89	11	68	46	12	93	90	77	81	34	14	89	94	21	57	89	52	60	57	38	59	82	58	70	64	18
49	36	47	54	36	0	70	25	23	43	68	23	85	93	32	33	1	28	95	71	95	43	68	79	91	62	30	56	38	76	79	5	47	14	33	27	62	26	90	13	87	3	50	89	45	45	25	42	63	62
79	24	5	85	16	91	0	79	90	60	69	4	86	35	3	13	19	7	57	22	70	66	96	4	85	63	5	21	37	4	74	34	10	93	60	81	74	77	64	82	78	4	12	29	69	22	29	62	35	93
42	37	25	63	33	42	78	0	37	52	10	88	45	58	44	65	2	30	50	80	85	84	31	15	93	83	8	30	61	21	62	32	31	22	7	22	26	91	42	23	56	1	53	44	60	86	46	25	73	19
34	47	51	57	26	42	20	76	0	79	1	5	77	98	82	70	79	24	67	84	58	16	9	66	11	39	75	93	16	11	87	84	53	48	97	72	96	39	50	31	69	27	43	38	63	80	59	67	34	78
49	52	32	43	79	70	31	96	78	0	22	67	32	51	23	96	6	29	26	34	10	84	33	30	80	43	78	5	35	40	85	46	56	28	23	24	76	29	27	99	7	79	54	26	22	19	80	55	14	17
74	15	51	40	89	17	17	12	78	95	0	9	98	98	14	36	40	75	61	37	5	55	44	88	29	33	41	13	92	59	70	75	11	61	98	45	63	24	75	54	88	21	91	70	16	85	74	94	3	69
86	17	3	31	79	13	5	33	26	58	77	0	67	24	88	41	14	56	43	52	15	43	59	41	22	13	9	71	34	6	2	5	49	53	78	74	86	13	92	10	63	57	33	77	22	39	46	12	42	76
67	58	98	42	42	60	31	43	34	46	41	22	0	23	16	40	30	55	18	14	36	84	75	63	76	30	1	47	74	38	3	39	60	12	81	72	88	60	65	31	31	72	24	9	79	21	79	52	2	48
87	62	34	94	59	8	89	63	57	75	29	47	71	0	79	22	38	76	88	84	15	2	37	89	75	89	48	70	52	16	77	64	33	86	39	78	70	44	3	65	69	56	47	43	53	54	23	90	81	46
57	21	52	41	95	94	13	29	79	28	68	24	89	29	0	51	70	9	31	9	41	86	38	1	11	11	91	31	59	10	11	44	48	48	79	65	83	88	86	73	30	30	26	16	77	47	21	17	45	92
41	47	87	32	4	34	34	21	93	50	75	64	38	1	90	0	87	31	91	52	29	70	69	82	33	73	38	25	90	80	16	71	73	50	72	46	43	26	65	41	43	3	76	65	92	45	95	31	59	33
14	1	62	15	30	76	31	21	74	96	42	59	2	57	87	85	0	14	7	59	29	9	49	46	14	70	71	84	18	43	81	6	34	59	6	68	52	6	6	75	57	55	93	9	27	98	66	32	65	48
85	49	3	2	76	12	61	87	9	13	53	29	4	27	72	3	73	0	59	78	70	64	24	12	11	97	78	63	3	10	60	96	95	28	17	1	99	42	25	18	78	71	33	67	9	14	80	72	63	35
78	56	13	46	42	51	65	65	23	65	79	54	84	73	24	1	98	42	0	81	69	82	94	91	30	82	87	7	75	82	51	3	47	5	10	47	51	4	81	37	29	97	41	63	16	72	83	44	3	63
8	42	79	85	43	66	30	81	54	20	6	6	13	33	96	48	27	4	76	0	91	48	41	99	39	16	62	61	54	97	14	55	12	43	99	97	45	52	42	96	35	23	14	74	81	50	8	92	51	62
37	23	93	36	86	64	66	26	51	11	12	81	34	8	78	60	91	50	79	52	0	50	28	29	65	26	2	98	45	27	74	89	32	19	92	8	68	79	84	84	24	78	36	90	84	53	37	32	31	76
65	15	11	18	1	32	64	62	59	5	71	36	5	73	17	42	87	39	8	19	2	0	77	76	59	59	90	50	65	44	71	95	33	71	85	35	69	68	97	18	99	69	3	87	25	75	43	63	22	15
99	56	3	30	14	62	81	55	69	8	7	60	31	54	59	99	33	71	23	59	59	38	0	86	9	57	44	31	3	73	79	89	80	11	54	20	64	46	76	4	48	44	76	63	39	74	74	73	82	6
4	90	80	35	51	41	4	87	79	35	32	71	40	2	92	2	81	57	71	7	26	52	17	0	89	64	62	64	2	86	17	54	62	58	84	15	27	95	50	31	71	22	63	33	76	80	31	61	7	56
97	99	15	33	27	89	37	68	78	44	44	84	47	50	68	96	6	21	16	28	73	22	44	88	0	87	3	62	4	73	96	71	38	17	70	68	35	96	46	75	76	31	13	66	28	45	7	95	23	56
34	69	16	39	57	1	84	26	65	35	74	43	13	47	22	87	83	50	81	98	20	53	62	85	34	0	63	37	12	63	25	76	30	67	37	41	45	68	92	5	40	70	31	23	76	23	93	44	77	13
26	37	42	94	76	91	52	95	67	1	66	60	46	40	18	10	49	99	62	42	28	34	39	94	23	43	0	28	44	77	81	49	12	43	80	9	4	8	18	86	12	39	69	50	39	54	33	4	26	21
3	31	12	75	46	74	42	15	91	74	93	76	47	61	9	34	3	46	35	67	83	88	26	75	56	24	42	0	54	12	71	58	49	74	59	67	58	2	45	42	43	90	13	91	71	93	67	9	12	12
75	27	35	20	5	5	4	41	70	17	58	77	94	25	16	53	28	46	61	52	94	51	77	25	58	56	54	14	0	17	93	73	27	87	68	47	49	27	42	86	67	89	7	85	63	45	21	82	92	88
39	23	39	14	52	21	47	48	13	24	39	52	23	97	84	42	2	98	79	91	61	15	41	5	62	64	48	90	19	0	95	58	61	88	42	90	35	54	9	68	40	82	86	40	14	30	46	32	71	19
41	10	80	10	19	34	59	31	30	46	93	66	82	32	37	88	76	26	40	94	8	68	12	91	57	26	37	27	66	33	0	76	66	85	30	22	61	55	79	14	66	26	10	11	88	56	7	78	84	38
52	51	36	21	88	61	68	57	44	52	3	83	63	28	38	98	15	87	17	18	78	52	19	3	34	94	86	11	93	17	72	0	99	66	41	66	79	36	6	39	17	84	83	20	10	15	69	82	8	32
95	4	31	93	78	44	20	49	93	38	23	14	54	2	91	54	25	2	52	79	84	36	73	72	52	22	38	91	12	99	94	36	0	11	76	53	52	15	97	44	29	51	97	53	6	63	71	99	88	63
85	38	53	56	88	74	73	74	26	45	14	39	38	1	71	39	16	75	45	7	37	50	80	7	96	43	20	87	34	70	36	62	85	0	67	57	99	32	71	92	61	25	89	14	3	3	27	71	37	29
20	28	19	21	19	56	92	42	18	21	39	91	6	47	73	97	8	52	16	99	26	73	20	91	14	39	28	46	29	57	3	50	45	20	0	34	10	42	42	40	19	88	87	1	99	68	64	94	45	55
65	22	28	8	98	52	71	43	50	7	73	21	42	80	38	38	6	57	65	18	66	72	87	43	15	28	64	75	20	67	74	40	87	60	56	0	93	91	55	90	83	23	4	43	77	26	60	81	22	31
16	52	51	95	10	84	57	9	44	43	4	32	78	62	28	72	90	22	68	12	21	48	26	46	53	61	27	97	77	92	52	9	53	36	55	35	0	67	25	87	90	43	46	87	11	62	11	13	39	92
67	23	60	39	22	44	24	59	90	59	36	13	13	15	14	36	81	52	30	56	98	73	97	90	33	20	54	96	46	25	70	69	34	60	76	91	65	0	94	74	96	42	19	9	91	7	32	86	51	59
71	64	82	72	37	76	21	17	49	49	5	26	25	14	40	67	86	37	57	9	15	27	11	78	11	73	85	68	55	30	4	37	50	59	47	90	84	92	0	39	62	84	72	54	29	9	78	47	12	19
60	10	58	26	29	18	14	95	75	12	19	72	13	22	88	32	77	46	71	3	23	21	83	90	89	61	65	4	40	52	16	80	3	19	98	34	39	2	17	0	94	48	30	3	1	66	51	85	71	20
71	14	63	60	13	49	90	53	83	68	69	38	39	27	3	58	48	89	26	32	21	4	83	17	48	92	93	86	61	3	27	27	11	89	20	9	31	77	67	9	0	27	98	99	74	9	97	25	64	58
66	71	94	99	44	97	94	20	89	34	35	37	16	68	77	46	49	8	89	61	39	58	87	41	46	21	18	84	77	94	91	4	43	23	30	37	59	30	83	41	19	0	39	34	88	4	71	88	55	19
47	35	61	54	60	12	21	23	89	97	10	21	67	53	36	10	17	52	97	22	31	74	55	32	61	71	44	45	20	18	12	2	41	94	57	98	29	91	8	70	99	10	0	47	82	6	3	99	31	71
92	20	57	11	47	52	10	80	2	51	21	6	61	83	76	72	30	48	95	75	27	87	57	74	14	81	20	79	28	36	51	87	94	11	39	33	70	63	56	15	39	79	13	0	28	55	34	99	11	17
1	23	71	8	91	75	70	33	18	90	67	61	81	88	50	17	50	95	24	5	68	4	12	64	19	6	94	73	23	4	5	45	53	8	44	10	95	46	79	54	78	55	56	70	0	68	40	26	30	84
7	65	94	92	13	53	23	78	84	20	28	5	97	89	20	15	30	78	1	22	17	23	30	9	74	40	62	23	76	64	23	33	2	96	78	5	67	53	22	87	37	28	72	28	68	0	80	58	62	22
21	36	38	61	56	74	74	10	20	85	67	49	97	93	83	63	15	81	19	79	58	35	96	51	48	98	39	76	76	92	47	64	70	62	57	78	68	68	61	28	7	26	20	81	42	57	0	97	24	75
17	96	87	48	97	77	18	21	37	77	62	59	70	87	92	86	13	36	96	80	54	73	93	18	8	92	76	95	42	3	69	92	89	43	56	37	12	19	28	91	56	77	40	93	51	73	93	0	87	10
78	68	47	40	38	75	77	94	94	14	38	90	99	37	37	92	9	78	68	42	34	75	15	66	72	3	27	10	64	4	48	66	32	73	54	98	2	41	20	91	29	47	35	60	58	15	37	7	0	89
71	22	16	53	55	52	14	87	18	89	35	91	12	1	83	91	18	22	65	30	62	84	40	95	9	32	20	19	42	80	3	28	79	8	28	28	64	73	85	44	31	93	29	54	58	35	51	95	36	0
M8
0	3	39	11	12	22	21	86	8	58	55	92	11	10	41	10	74	70	33	31	99	56	9	58	64	36	9	25	37	1	50	28	86	81	84	51	61	88	54	93	28	27	65	60	63	29	69	67	55	85
54	0	55	61	87	47	44	16	94	5	44	90	4	47	20	55	77	30	77	88	48	1	99	32	33	62	73	93	97	28	77	44	64	75	13	50	59	5	7	59	32	62	23	14	9	1	45	55	40	67
39	68	0	72	59	85	57	53	72	54	50	33	41	64	92	48	45	37	70	72	25	51	48	91	40	43	54	36	57	25	26	53	52	5	81	42	65	28	18	49	38	93	28	13	27	94	79	12	78	80
24	36	89	0	73	8	1	11	58	11	65	51	25	33	35	6	60	6	45	97	95	7	64	13	55	77	68	90	81	8	63	51	18	18	67	21	68	45	68	60	89	32	35	10	55	68	33	12	18	25
76	70	55	89	0	24	67	70	99	91	25	84	9	44	5	42	60	90	77	25	39	88	92	30	21	40	44	72	51	31	18	4	21	40	39	69	13	39	83	43	46	32	14	8	39	28	45	68	59	38
59	26	49	37	20	0	44	30	34	59	79	28	42	37	69	78	47	97	92	95	1	58	46	22	96	30	99	82	20	41	31	25	50	6	51	8	70	73	63	63	26	45	21	69	16	46	83	83	18	78
79	36	82	4	23	80	0	50	35	54	49	60	27	84	70	75	92	75	27	32	94	91	77	86	84	90	74	32	85	36	26	76	54	74	9	44	44	88	31	15	78	14	77	21	99	5	9	68	38	68
92	43	42	5	81	42	45	0	25	68	4	59	38	92	60	35	22	63	24	20	26	31	72	1	61	29	7	20	86	55	93	95	95	70	13	87	46	33	75	88	9	4	77	37	20	76	10	71	60	27
46	83	89	90	59	30	27	94	0	54	15	47	27	22	61	18	99	30	15	30	44	30	61	67	57	33	50	33	68	77	53	21	4	17	4	5	71	71	83	88	91	35	73	21	42	32	69	90	97	67
25	41	76	6	2	77	35	80	95	0	48	64	19	8	34	74	24	60	67	86	64	69	66	61	52	50	65	21	13	90	65	57	79	31	36	45	59	34	55	68	66	36	57	58	3	3	23	94	41	50
42	2	49	81	26	75	42	62	58	83	0	58	38	88	50	4	60	39	14	8	76	65	15	67	93	72	49	1	44	6	98	20	82	64	33	94	7	80	29	72	91	94	54	70	63	2	21	63	55	47
3	23	31	19	59	93	59	25	35	94	77	0	98	95	99	81	40	48	29	17	86	45	46	84	92	57	60	54	42	94	59	70	27	77	38	91	68	13	88	85	69	16	75	87	11	73	99	83	47	67
36	77	45	73	96	51	90	19	46	42	42	69	0	79	76	14	60	39	41	15	13	28	88	76	93	39	97	47	93	23	42	31	60	60	38	7	89	92	65	46	67	53	93	30	23	92	57	14	22	75
51	4	24	21	51	40	72	90	70	9	96	55	23	0	9	50	1	41	61	96	33	64	37	31	18	16	29	8	52	10	7	87	51	82	25	37	9	17	74	56	42	7	89	98	65	5	68	12	17	16
49	23	52	52	63	41	79	55	57	54	91	48	38	30	0	29	85	16	69	65	95	13	53	16	48	83	92	4	82	67	70	26	83	53	24	14	94	43	30	87	96	28	66	28	95	27	77	27	96	56
64	97	61	10	70	40	74	74	47	6	64	33	4	99	50	0	3	83	18	21	16	31	2	65	50	28	63	94	60	7	26	46	74	92	46	51	39	19	50	5	44	9	86	72	64	40	72	14	72	9
95	27	41	81	84	25	28	98	81	98	97	48	60	49	40	51	0	84	66	95	8	90	96	71	1	47	42	29	60	33	61	80	35	11	70	98	17	11	75	62	13	46	75	66	83	25	13	72	64	17
71	94	52	13	46	27	20	70	25	67	96	29	67	92	26	61	73	0	89	76	60	61	48	83	9	8	66	44	69	32	33	82	82	97	71	64	77	90	79	43	21	84	87	32	66	97	19	68	75	24
33	99	22	61	73	1	99	92	67	16	5	89	30	81	53	38	82	62	0	51	4	91	22	46	98	70	2	7	5	16	77	18	71	70	30	92	95	26	28	34	39	9	34	97	60	16	64	31	50	3
63	10	2	21	85	79	61	63	93	73	32	82	95	82	31	63	9	75	23	0	86	8	9	72	99	86	72	5	90	62	54	55	30	85	36	36	22	40	32	77	88	44	43	11	65	89	97	82	93	82
83	40	30	59	5	31	22	12	12	75	96	31	92	40	78	50	22	99	42	65	0	2	69	36	44	53	62	56	56	25	66	61	96	37	85	29	77	84	67	25	1	57	13	23	52	48	54	87	79	64
23	27	22	68	70	66	35	99	95	92	15	58	91	90	99	62	34	50	33	94	48	0	31	94	8	45	5	38	56	11	13	96	72	77	16	43	93	30	10	10	33	10	56	14	24	29	22	41	95	1
56	75	62	54	30	88	17	91	22	23	85	89	32	28	58	73	43	41	23	11	69	13	0	63	93	73	28	81	12	20	72	79	39	3	29	99	81	83	28	1	60	98	70	36	31	44	1	44	57	38
4	84	88	16	40	59	24	18	58	24	41	66	46	66	43	44	95	2	37	24	8	31	46	0	6	68	42	42	66	42	62	18	28	95	87	56	91	39	46	65	8	32	75	79	65	16	15	45	28	52
45	45	53	78	37	36	59	34	69	92	38	83	48	81	33	58	26	17	9	9	8	75	6	4	0	94	54	40	39	90	15	98	53	89	41	45	39	6	5	19	9	19	18	18	55	48	14	68	10	77
90	50	2	85	95	20	53	72	56	34	71	69	64	92	30	78	78	40	42	82	15	92	62	21	14	0	83	90	17	19	46	43	99	10	69	18	78	62	6	87	32	42	13	72	33	41	46	91	36	20
53	89	71	20	31	90	42	45	37	26	14	43	72	30	35	22	87	13	43	95	61	41	29	29	60	4	0	71	34	86	20	71	47	67	36	32	62	31	14	78	38	95	95	9	66	50	19	9	88	1
90	95	8	32	74	54	3	81	26	83	72	41	76	75	50	35	87	83	72	35	81	62	81	1	39	78	13	0	75	32	28	85	71	10	7	98	7	74	28	9	1	3	73	20	27	99	22	40	82	4
3	70	31	70	56	32	12	94	9	41	42	70	82	99	34	77	8	59	22	54	7	60	65	1	57	83	61	2	0	69	35	3	92	24	65	50	79	57	7	11	4	90	54	37	12	46	37	93	55	87
66	57	54	76	33	40	85	53	8	53	74	55	71	60	15	39	55	73	39	92	89	98	10	26	89	44	10	75	15	0	24	53	90	88	38	40	59	65	11	25	93	76	11	83	2	99	91	83	97	27
22	4	26	26	95	55	21	25	42	94	9	63	71	36	22	82	37	6	8	62	84	90	14	12	33	73	17	83	99	62	0	8	58	64	54	51	28	44	86	92	79	4	72	66	28	51	18	43	93	69
71	7	90	88	53	59	76	18	63	85	98	62	66	35	12	17	98	95	69	6	51	65	8	99	28	54	70	49	65	73	58	0	96	82	77	83	69	85	82	70	56	51	80	38	24	64	3	44	37	71
20	90	62	98	69	6	92	20	60	62	20	96	90	97	27	12	69	36	94	62	43	34	35	10	54	8	3	74	92	98	31	35	0	17	93	18	77	45	8	44	84	52	92	91	80	29	27	12	58	68
9	51	60	11	46	38	88	44	27	82	66	43	7	47	75	13	45	94	41	39	87	9	37	85	62	60	39	81	48	49	50	91	25	0	48	56	61	25	42	14	68	30	22	62	51	90	82	9	66	76
34	42	7	57	37	64	93	87	93	44	98	51	82	37	89	74	14	30	77	28	21	88	31	64	48	35	71	61	76	73	69	83	3	36	0	12	70	74	34	95	98	28	20	90	16	99	99	43	8	95
61	53	50	42	92	15	91	58	11	17	17	16	39	45	26	82	80	23	15	61	89	93	40	71	42	22	14	34	44	70	42	64	35	85	28	0	70	81	88	88	20	65	56	48	31	97	51	26	77	32
20	22	35	49	71	69	2	39	17	1	65	2	20	57	8	33	83	36	63	88	3	46	71	27	19	32	99	71	78	70	13	50	88	61	27	9	0	95	58	67	88	59	26	17	31	71	97	37	41	62
85	76	22	90	66	22	75	89	35	43	6	49	13	33	97	23	39	64	41	17	93	86	22	86	24	59	18	40	72	80	47	44	31	59	68	67	69	0	49	42	14	14	28	76	18	66	4	37	25	3
68	94	66	75	49	21	97	22	7	74	72	54	89	39	59	63	56	89	34	86	3	9	91	13	68	81	74	13	9	33	5	39	58	96	60	18	14	18	0	47	34	19	38	49	79	34	7	48	13	8
25	70	65	2	11	82	66	20	48	40	94	55	50	79	72	46	47	96	50	11	99	50	63	3	75	81	48	5	44	56	49	49	88	42	64	35	35	5	97	0	88	31	67	20	69	57	74	66	41	26
56	14	38	2	75	3	8	76	17	25	14	42	37	81	13	74	96	59	64	17	31	18	21	9	44	59	96	23	23	26	45	87	3	65	67	14	52	33	31	60	0	32	40	91	96	53	56	23	49	63
39	20	46	96	30	11	88	90	50	4	19	65	92	57	65	83	76	38	74	68	27	14	71	38	84	89	4	75	62	3	59	56	6	1	63	90	24	97	3	59	91	0	77	16	51	47	73	66	28	31
62	75	67	43	42	81	79	17	81	62	80	24	67	26	70	75	78	62	61	77	65	11	34	47	26	88	37	10	81	75	47	27	20	60	52	31	48	87	33	57	59	71	0	53	7	30	46	84	79	94
84	15	61	45	98	34	46	75	13	87	41	66	55	38	78	63	22	82	28	10	15	8	90	34	32	88	14	98	97	61	63	61	26	16	32	11	80	10	79	75	64	73	39	0	10	43	76	12	14	8
75	61	50	14	46	66	41	47	86	89	75	29	43	84	59	34	86	35	83	93	45	5	93	22	75	41	84	53	24	68	63	16	9	47	36	61	23	97	32	21	56	15	57	68	0	58	18	41	7	6
8	27	6	56	40	17	66	82	24	63	77	25	2	73	93	14	90	82	63	47	61	82	59	15	12	40	22	16	48	29	93	11	73	55	8	93	71	56	78	89	3	12	83	4	82	0	78	44	83	85
46	48	58	99	83	70	86	40	10	70	10	77	17	97	97	47	22	19	38	45	40	42	99	33	90	16	71	93	80	18	66	16	32	75	31	17	52	61	4	99	53	69	15	22	66	70	0	19	31	30
85	6	76	18	42	24	9	57	94	19	31	52	19	68	54	89	27	71	83	22	44	6	28	47	55	88	9	13	18	84	17	26	78	44	40	59	64	81	63	64	18	21	7	38	4	56	61	0	12	15
18	32	48	31	42	4	68	38	74	82	58	94	65	85	2	97	33	76	53	96	1	67	57	59	36	46	52	79	52	87	41	73	43	60	5	34	67	42	85	5	93	99	76	11	85	8	94	66	0	86
89	13	28	15	32	79	70	3	87	78	3	35	72	61	69	52	30	88	70	46	98	63	19	55	33	14	23	32	41	89	38	51	50	66	51	66	8	70	76	46	86	70	85	44	46	3	90	82	67	0
M9
0	15	55	49	69	64	22	47	66	83	44	44	36	12	90	5	89	65	57	6	83	60	83	70	8	54	89	75	24	41	53	4	61	21	9	55	86	43	30	42	1	70	37	24	28	37	29	60	5	81
40	0	91	88	80	69	66	35	24	27	83	14	97	3	21	65	61	49	53	24	50	38	96	48	31	14	28	43	83	84	62	56	7	96	89	89	53	93	4	63	47	62	78	12	40	7	68	98	15	98
36	92	0	34	14	47	38	89	41	72	97	15	15	88	68	52	23	73	91	98	86	38	3	56	14	31	2	78	62	15	42	77	79	7	43	35	6	15	10	43	36	30	95	40	5	48	32	51	18	25
42	31	61	0	7	75	60	48	68	59	70	91	64	41	66	18	76	66	90	36	5	21	57	68	33	30	15	65	84	98	55	83	34	24	59	2	29	20	35	85	74	45	19	46	48	8	20	39	63	91
34	6	1	41	0	68	56	69	84	39	34	75	86	38	20	96	61	89	71	8	88	26	96	93	13	70	99	37	15	95	69	93	85	91	90	74	53	84	73	86	29	58	75	27	75	92	31	18	17	21
12	30	47	51	4	0	26	4	19	55	28	99	72	41	1	55	87	42	77	56	81	43	89	26	62	80	81	11	32	23	12	91	51	37	62	75	97	81	29	47	3	42	56	66	48	82	27	49	40	92
44	61	8	39	39	24	0	86	66	15	3	90	1	98	27	70	41	58	67	23	55	21	62	6	16	86	80	43	27	22	50	62	45	91	94	80	88	57	61	15	77	32	25	22	73	6	3	64	92	49
31	56	4	75	57	55	59	0	17	71	95	9	42	83	64	84	22	97	87	69	21	67	71	83	74	13	1	51	70	38	15	38	54	89	93	53	24	31	28	80	79	35	65	63	52	12	49	69	17	23
88	12	66	57	29	81	15	69	0	22	44	37	89	99	98	72	77	5	86	55	68	41	15	39	29	32	27	28	39	18	35	44	39	12	97	87	39	5	95	58	59	1	66	56	55	90	75	86	46	30
35	20	45	61	24	91	76	96	39	0	47	6	64	94	51	29	55	58	36	6	62	75	43	13	72	32	88	70	56	42	61	59	76	82	20	26	97	97	67	63	79	40	99	91	78	35	71	88	89	78
21	42	8	98	41	24	92	56	2	11	0	57	51	45	95	24	63	21	64	6	49	29	40	22	70	82	18	47	24	18	29	54	94	9	21	94	68	55	49	37	58	70	90	54	33	69	48	23	64	43
3	86	22	71	23	83	75	98	42	51	2	0	89	73	58	93	25	6	22	14	24	11	2	55	78	62	98	90	48	23	93	25	65	74	87	82	24	88	46	98	61	63	65	87	64	61	83	15	53	46
34	91	16	95	5	69	16	19	42	7	76	40	0	27	33	24	97	97	26	47	81	13	86	89	17	62	77	8	45	79	49	32	83	19	84	34	52	81	22	82	91	26	40	36	35	81	32	15	84	56
74	34	8	6	87	12	78	9	41	64	91	68	38	0	62	47	11	4	13	94	89	37	84	51	90	25	87	56	91	13	87	32	43	75	13	39	65	52	62	64	67	29	62	81	39	76	97	55	90	82
21	1	8	40	36	6	71	74	76	66	55	22	55	30	0	86	3	42	11	56	29	85	28	94	63	15	9	55	9	54	15	82	86	60	14	33	58	59	5	98	74	30	42	47	54	83	54	60	57	14
20	60	73	32	62	43	48	14	83	48	31	2	23	57	3	0	62	39	83	21	84	35	96	90	60	75	8	58	99	71	80	67	54	32	82	39	61	99	61	59	38	29	20	93	71	65	30	48	95	47
97	56	49	25	87	63	59	69	49	32	86	36	12	86	20	72	0	44	80	39	11	93	52	47	80	43	95	51	17	62	64	58	72	34	96	99	38	86	12	5	45	55	27	84	93	62	95	3	34	91
56	41	7	77	58	84	90	60	87	84	41	59	21	82	13	72	75	0	88	81	5	30	55	34	77	46	94	75	85	3	27	71	87	25	49	36	47	84	73	24	84	74	75	90	74	14	35	30	13	28
78	96	49	88	52	83	40	42	72	6	82	39	47	4	17	48	53	86	0	33	15	25	59	99	9	85	8	4	64	11	51	73	88	37	68	22	34	20	56	37	21	34	95	95	68	53	16	84	85	51
87	58	10	28	89	60	98	32	23	89	21	43	67	95	97	41	18	20	91	0	67	26	31	39	50	44	16	74	67	53	16	4	49	4	43	9	58	24	88	2	91	56	19	59	93	33	39	93	76	6
36	62	84	82	58	7	53	42	77	72	44	29	57	65	60	42	4	23	70	82	0	79	26	99	17	25	80	59	66	84	17	35	33	59	21	44	29	21	82	30	68	62	3	71	18	73	39	7	45	49
44	7	99	97	34	47	4	85	13	69	49	33	11	18	37	70	24	3	83	94	78	0	27	89	96	31	69	60	50	91	18	98	87	38	87	27	79	37	85	3	25	13	84	30	7	19	32	98	50	99
97	77	25	57	48	63	49	50	92	60	95	94	30	25	18	50	19	27	29	99	21	90	0	12	60	2	19	46	86	93	33	71	56	52	56	28	35	55	35	38	80	25	84	36	19	87	85	38	99	88
77	21	38	20	32	59	63	45	90	14	62	27	97	4	75	70	79	87	78	67	40	25	68	0	86	66	17	36	45	80	39	83	67	69	4	18	5	83	27	57	78	84	91	94	63	86	12	19	40	21
61	4	62	1	17	86	29	1	8	23	61	51	9	73	10	10	91	59	58	85	21	3	92	3	0	82	33	42	36	54	23	29	67	76	81	74	32	65	34	37	48	95	54	5	75	29	22	51	18	71
31	18	73	89	87	14	13	9	30	11	19	87	99	92	23	27	32	96	34	69	38	27	33	87	9	0	52	72	78	52	11	27	1	57	82	67	30	26	2	47	15	39	24	47	61	39	65	2	82	29
80	99	71	49	50	42	13	64	87	97	29	70	91	86	7	10	4	77	81	58	47	98	63	16	44	72	0	22	7	66	34	78	95	35	8	59	47	89	30	21	4	2	49	50	53	77	56	86	14	96
5	30	52	73	28	38	16	43	86	10	47	95	64	24	9	24	29	66	39	59	11	79	8	95	61	5	58	0	37	15	7	45	30	37	7	2	40	59	43	97	98	18	62	78	38	51	95	95	74	20
73	55	10	65	77	60	75	8	52	18	21	50	8	34	33	52	89	28	36	77	3	21	96	36	10	96	61	64	0	43	34	66	29	3	55	22	39	26	48	56	4	47	41	61	67	96	58	90	17	99
76	83	36	62	47	32	49	79	74	15	93	84	55	41	92	25	25	10	40	54	57	61	99	39	13	75	84	53	50	0	46	88	4	23	38	50	87	40	7	4	94	60	30	36	8	41	94	36	55	75
20	40	12	77	23	87	71	96	62	35	25	91	3	10	15	65	88	98	62	62	29	86	71	79	24	8	73	25	83	73	0	53	45	32	76	70	97	77	98	87	32	3	63	32	18	18	17	91	32	57
26	92	81	18	22	24	36	92	36	11	92	21	9	24	1	59	49	21	10	72	2	20	32	61	31	64	14	11	32	35	75	0	95	39	5	64	97	73	60	7	19	65	19	79	77	34	19	31	48	24
73	9	61	6	2	90	86	13	82	18	54	67	95	76	93	11	46	80	3	45	84	48	66	50	68	75	81	33	34	56	74	29	0	59	87	8	59	57	75	9	96	15	19	81	24	66	40	68	76	81
1	73	79	93	90	81	61	1	20	21	74	11	20	51	58	32	44	79	48	10	31	39	85	64	56	84	93	86	1	73	35	98	95	0	57	58	83	44	92	84	25	4	40	18	35	94	22	66	62	75
56	98	75	80	75	95	99	25	10	53	40	17	94	51	6	41	13	99	43	92	14	18	23	69	40	14	41	76	63	75	42	82	22	75	0	66	22	95	58	63	65	65	73	57	74	48	53	29	12	4
65	57	97	39	74	46	13	81	1	4	91	84	71	85	64	70	82	89	29	60	18	67	75	14	10	13	87	87	34	17	84	2	53	7	97	0	45	80	16	79	82	3	48	90	27	3	26	25	4	63
48	53	15	34	92	1	77	11	27	94	94	47	37	38	86	1	65	7	95	76	25	66	19	39	40	50	68	82	15	69	29	99	40	24	86	78	0	91	40	35	11	66	60	86	15	78	52	47	84	5
17	31	20	35	23	25	13	94	74	14	87	27	2	64	13	59	44	84	39	86	43	26	35	41	79	12	22	50	8	79	20	91	95	79	76	79	51	0	89	19	68	94	6	60	56	30	34	63	94	94
2	17	70	12	44	97	7	69	54	14	81	89	85	63	86	87	50	32	60	2	64	41	67	68	18	5	17	64	70	49	29	35	13	27	8	99	43	99	0	66	75	28	6	21	81	76	6	46	12	34
81	51	80	55	50	40	78	55	91	43	14	13	11	43	97	78	97	30	10	33	35	66	70	80	73	39	70	73	82	23	68	6	38	96	40	27	10	81	36	0	58	53	91	91	11	24	10	93	37	73
41	99	82	84	98	52	92	57	26	43	2	64	63	29	24	26	9	90	3	69	30	77	98	87	35	10	18	6	1	11	15	11	16	77	20	17	2	46	78	61	0	91	89	95	63	12	46	28	84	73
88	62	67	72	65	81	56	70	85	1	12	80	12	17	82	98	2	27	91	56	5	82	54	66	2	98	29	4	46	41	67	44	44	44	34	38	91	44	85	14	35	0	28	37	10	39	34	71	5	83
48	57	92	6	85	69	3	70	61	49	74	32	70	42	46	20	44	86	5	72	56	64	1	75	80	14	44	8	38	79	18	84	81	51	83	54	98	4	70	91	41	54	0	51	84	4	89	74	29	17
31	90	50	22	46	87	28	44	16	35	12	84	19	93	21	85	98	48	81	67	17	61	59	4	11	58	61	13	6	94	36	72	64	64	94	77	50	51	14	16	55	29	22	0	11	18	57	56	76	17
50	45	67	35	88	71	24	24	15	94	52	1	42	57	82	70	37	2	91	57	89	55	95	83	67	84	38	18	6	9	27	8	98	31	11	46	82	27	82	41	36	94	59	97	0	24	61	71	23	65
95	65	15	20	78	95	88	88	22	70	75	5	47	68	66	48	48	39	4	97	27	69	44	31	49	54	35	15	67	27	85	52	25	33	31	78	8	34	99	24	36	93	58	91	90	0	89	74	99	36
30	25	6	71	81	59	5	19	39	64	63	46	91	11	46	65	63	80	25	72	36	86	2	1	77	52	72	13	37	4	98	58	90	90	1	66	23	48	58	45	99	51	86	20	64	39	0	38	20	56
2	37	1	37	55	45	71	73	55	24	36	16	16	35	6	63	47	94	15	9	12	86	44	6	75	69	64	6	99	67	18	43	96	13	25	77	52	72	75	17	77	94	35	89	59	44	95	0	23	2
23	24	57	91	81	8	8	31	72	4	31	14	19	14	91	32	72	75	7	62	96	19	26	47	1	37	76	73	9	72	75	29	40	3	98	66	28	7	39	27	21	16	15	87	19	91	99	38	0	55
86	84	11	28	86	1	4	33	21	55	85	55	6	61	65	18	59	67	56	10	85	18	84	16	30	88	21	44	58	97	10	19	95	72	59	69	35	24	1	47	14	61	13	54	92	53	14	54	7	0
