6  5  1
5
	0	92	1	71	2	56	3	99	4	10
	0	20	1	22	2	58	3	91	4	64
	0	47	1	72	2	12	3	27	4	33
	0	29	1	25	2	88	3	70	4	49
	0	42	1	36	2	16	3	43	4	72
	0	67	1	62	2	92	3	60	4	86
SSD
M0
0	50	98	1	25	104
57	0	62	76	54	57
50	119	0	11	17	95
98	118	106	0	96	88
1	35	92	50	0	42
90	112	123	88	51	0
M1
0	85	41	117	42	9
27	0	21	12	36	116
6	77	0	124	36	47
120	65	29	0	98	54
9	98	52	89	0	95
79	98	107	116	98	0
M2
0	27	25	31	26	74
74	0	37	17	26	74
109	72	0	4	47	19
43	95	75	0	34	39
33	60	33	8	0	58
92	24	115	88	36	0
M3
0	118	12	19	86	25
52	0	94	111	27	117
103	84	0	93	45	42
101	22	120	0	42	119
57	78	30	89	0	97
11	105	44	99	67	0
M4
0	34	28	113	8	28
100	0	4	92	34	103
85	34	0	14	11	58
62	106	97	0	22	18
113	59	13	82	0	4
13	49	10	62	67	0
