8  2  1
2
	0	80	1	17
	0	71	1	48
	0	18	1	62
	0	36	1	99
	0	80	1	41
	0	34	1	38
	0	58	1	59
	0	53	1	82
SSD
M0
0	19	79	77	88	61	58	58
47	0	32	36	71	76	78	92
84	3	0	22	85	24	67	18
11	99	23	0	19	75	47	15
46	71	84	26	0	69	70	95
71	13	97	88	52	0	58	53
89	96	16	80	69	63	0	63
95	18	78	95	47	10	31	0
M1
0	32	62	24	53	56	78	20
45	0	3	95	71	42	20	84
18	21	0	48	37	89	87	18
41	96	14	0	50	19	9	93
4	72	63	43	0	12	2	62
77	5	4	65	19	0	96	74
80	28	2	55	3	73	0	96
9	67	63	41	6	10	8	0
