10
9 7 18 33 36 41 72 78 93 95
9 22 24 30 40 42 73 75 83 87
11 1 10 11 20 25 29 48 76 91 92 98
8 2 21 49 51 52 54 65 67
8 8 34 35 43 55 62 74 88
10 12 13 17 44 47 66 80 89 90 96
12 4 6 14 32 37 38 39 45 57 64 69 77
12 3 15 19 26 27 53 56 70 82 86 97 99
9 23 31 50 60 61 68 79 84 85
12 0 5 9 16 28 46 58 59 63 71 81 94

Total makespan: 852

