10
20 1 2 3 7 24 26 41 54 58 59 64 69 72 81 96 110 128 135 144 145
13 0 6 38 48 53 60 68 71 101 103 116 118 140
16 5 8 14 19 34 57 88 90 91 109 119 122 125 129 132 134
15 36 37 40 43 45 70 74 86 89 94 106 113 120 126 147
12 12 33 47 52 65 75 79 84 85 121 123 133
15 11 16 18 23 31 42 63 87 99 105 115 137 139 141 148
18 15 17 29 32 50 51 56 73 76 83 97 104 107 108 114 127 131 136
17 4 20 21 35 39 62 67 78 92 98 111 117 130 142 143 146 149
11 9 25 27 49 61 66 93 95 102 112 124
13 10 13 22 28 30 44 46 55 77 80 82 100 138

Total makespan: 1025

