15
19 9 18 23 25 46 60 63 76 102 104 129 143 176 204 206 207 217 219 228
18 0 1 32 35 74 96 107 108 115 122 131 139 150 175 188 199 210 215
17 22 24 47 65 89 114 133 137 148 154 179 190 196 198 218 239 243
16 6 54 68 87 105 125 140 146 147 152 158 202 212 229 231 244
16 2 3 4 21 39 59 75 99 101 110 119 134 155 163 189 232
17 19 42 44 45 51 52 70 112 123 124 138 184 195 205 222 236 249
14 28 48 72 77 91 100 144 160 169 185 209 227 240 245
14 13 36 56 84 86 90 149 172 193 203 226 230 241 246
22 10 12 16 31 38 64 73 85 109 136 151 156 157 159 178 186 191 192 194 220 238 242
14 15 20 33 50 53 55 66 92 98 106 130 167 208 216
20 5 17 30 34 61 62 111 117 118 120 135 141 161 162 164 166 170 180 211 213
15 26 80 81 82 97 116 126 132 168 173 177 197 201 221 248
12 7 40 94 95 113 121 128 153 174 182 223 237
20 14 37 41 43 49 57 58 69 71 83 93 103 145 181 183 187 214 233 234 235
16 8 11 27 29 67 78 79 88 127 142 165 171 200 224 225 247

Total makespan: 220

