10
22 0 9 25 33 36 65 66 75 98 111 119 126 133 136 162 182 190 196 227 232 233 235
25 12 16 31 41 48 53 62 63 72 92 97 101 141 165 167 169 170 183 200 202 213 218 223 225 231
26 19 22 26 42 47 52 67 80 89 102 103 115 128 131 142 152 161 175 198 204 208 209 211 221 230 249
28 5 20 23 28 34 46 49 56 58 61 73 74 95 112 123 132 149 157 159 163 178 179 199 229 240 241 242 248
25 4 10 13 15 29 40 70 79 90 93 110 134 137 138 151 168 171 173 176 180 188 193 210 226 244
22 3 11 17 21 32 39 54 71 83 88 100 146 158 195 207 214 215 216 224 236 237 245
23 1 18 27 44 76 82 107 109 118 127 140 143 155 156 160 164 166 192 197 206 217 234 243
25 8 37 38 51 59 64 91 94 104 106 117 120 124 135 144 147 172 177 186 189 212 222 228 239 247
26 2 6 24 35 43 55 60 68 69 81 84 86 105 113 114 116 125 153 174 181 184 185 187 191 238 246
28 7 14 30 45 50 57 77 78 85 87 96 99 108 121 122 129 130 139 145 148 150 154 194 201 203 205 219 220

Total makespan: 1911

