20
3 24 27 46
3 11 31 44
2 41 45
2 3 49
3 23 32 39
2 12 43
2 0 18
4 4 8 17 35
3 5 26 28
3 13 21 47
1 40
2 14 42
2 6 37
3 15 16 33
3 2 7 22
3 20 29 38
3 9 19 36
2 30 34
2 1 48
2 10 25

Total makespan: 120

