20
6 51 29 40 44 76 91
5 30 85 67 26 33
5 4 5 93 7 68
5 72 2 59 15 22
6 88 86 47 58 46 41
6 84 34 1 21 71 10
4 8 18 65 64
5 53 96 60 16 36
6 19 82 25 42 17 27
6 73 56 99 77 43 83
5 3 0 38 45 80
4 61 55 75 54
3 9 79 48
5 31 89 50 97 62
6 20 12 49 94 28 6
4 23 70 87 14
4 52 13 98 66
4 39 95 81 11
5 63 35 57 37 92
6 32 69 78 90 24 74

Total makespan: 75

