25
9 233 185 61 199 42 34 181 108 234
11 149 211 225 2 238 33 56 123 155 223 246
10 115 201 13 20 237 203 75 114 71 36
13 176 105 241 230 197 187 180 217 146 205 88 94 206
13 134 3 191 169 243 135 153 244 228 85 37 11 242
10 140 73 102 64 18 121 122 81 133 186
11 195 209 68 54 130 55 193 168 138 224 26
8 148 171 95 147 53 219 189 58
10 247 41 162 57 99 119 207 86 16 178
13 59 174 82 141 44 5 172 77 116 84 111 69 164
8 202 40 67 79 21 136 117 32
9 167 159 101 179 112 43 170 235 129
12 150 72 145 118 29 215 163 96 7 192 76 196
7 190 165 226 1 6 183 97
10 28 131 15 38 49 157 166 70 14 124
11 143 194 204 106 98 139 17 218 158 125 152
11 104 24 4 93 12 46 208 248 8 151 100
10 236 63 39 31 175 132 198 110 62 173
10 25 78 74 50 103 10 48 128 184 249
6 240 87 66 92 51 0
9 120 154 60 220 227 177 126 127 109
10 90 52 45 229 27 222 214 113 200 212
9 91 156 161 19 80 9 65 210 23
9 35 22 182 30 216 231 188 221 47
11 83 107 239 160 232 89 142 144 245 137 213

Total makespan: 126

