15
17 154 197 172 89 167 41 130 177 87 10 94 18 34 134 46 15 78
15 181 179 135 101 123 25 157 43 58 0 110 4 39 184 122
11 151 36 190 72 166 194 23 9 148 98 33
12 146 107 141 161 149 95 21 44 26 64 37 76
14 193 182 115 189 174 99 80 153 30 12 192 24 51 45
10 164 77 155 103 48 11 176 93 117 79
14 57 70 7 83 145 126 75 31 53 86 116 150 169 19
11 100 62 56 17 199 28 47 32 85 163 35
14 132 73 139 195 143 112 160 59 173 158 14 165 13 133
15 69 104 168 27 109 178 65 66 96 118 82 3 187 120 68
15 50 20 16 52 171 2 6 81 92 138 159 102 106 162 97
15 1 121 131 191 74 175 84 144 60 156 136 119 127 55 142
14 198 140 90 29 49 40 22 91 137 125 129 8 186 38
14 111 42 61 108 67 71 105 188 124 170 88 5 180 152
9 54 183 63 147 114 128 113 196 185

Total makespan: 176

