Instance....: instances/I_100_25_S_1-49_7.txt
Algorithm...: Simulated Annealing (alpha=0.990, saMax=10M, t0=1)
Other params: maxIters=100M, seed=-1, timeLimit=3600.00s

    /--------------------------------------------------------\
    |     Iter |   RDP(%) |       S* |       S' |       Time | 
    |----------|----------|----------|----------|------------|
    |        0 |        - |      795 |      795 |       0.00 | s0
    |        0 |        - |      680 |      680 |       0.00 | *
    |        3 |        - |      678 |      678 |       0.02 | *
    |        5 |        - |      618 |      618 |       0.02 | *
    |       22 |        - |      585 |      585 |       0.02 | *
    |       37 |        - |      541 |      541 |       0.03 | *
    |       41 |        - |      515 |      515 |       0.03 | *
    |       43 |        - |      509 |      509 |       0.03 | *
    |       44 |        - |      496 |      496 |       0.03 | *
    |       45 |        - |      478 |      478 |       0.03 | *
    |       46 |        - |      460 |      460 |       0.03 | *
    |       47 |        - |      451 |      451 |       0.03 | *
    |       51 |        - |      448 |      448 |       0.03 | *
    |       53 |        - |      445 |      445 |       0.03 | *
    |       57 |        - |      439 |      439 |       0.03 | *
    |       59 |        - |      437 |      437 |       0.03 | *
    |       63 |        - |      431 |      431 |       0.04 | *
    |       73 |        - |      430 |      430 |       0.04 | *
    |       80 |        - |      419 |      419 |       0.04 | *
    |       82 |        - |      417 |      417 |       0.04 | *
    |       90 |        - |      399 |      399 |       0.04 | *
    |       99 |        - |      397 |      397 |       0.04 | *
    |      100 |        - |      374 |      374 |       0.04 | *
    |      101 |        - |      373 |      373 |       0.04 | *
    |      104 |        - |      367 |      367 |       0.04 | *
    |      114 |        - |      360 |      360 |       0.04 | *
    |      116 |        - |      359 |      359 |       0.04 | *
    |      117 |        - |      357 |      357 |       0.04 | *
    |      143 |        - |      349 |      349 |       0.04 | *
    |      148 |        - |      348 |      348 |       0.04 | *
    |      155 |        - |      347 |      347 |       0.04 | *
    |      156 |        - |      344 |      344 |       0.05 | *
    |      173 |        - |      340 |      340 |       0.05 | *
    |      179 |        - |      337 |      337 |       0.05 | *
    |      184 |        - |      334 |      334 |       0.05 | *
    |      188 |        - |      332 |      332 |       0.05 | *
    |      192 |        - |      330 |      330 |       0.05 | *
    |      198 |        - |      328 |      328 |       0.05 | *
    |      201 |        - |      327 |      327 |       0.05 | *
    |      203 |        - |      323 |      323 |       0.05 | *
    |      211 |        - |      317 |      317 |       0.05 | *
    |      215 |        - |      315 |      315 |       0.05 | *
    |      225 |        - |      307 |      307 |       0.05 | *
    |      227 |        - |      306 |      306 |       0.05 | *
    |      230 |        - |      305 |      305 |       0.05 | *
    |      231 |        - |      289 |      289 |       0.05 | *
    |      233 |        - |      285 |      285 |       0.06 | *
    |      247 |        - |      284 |      284 |       0.06 | *
    |      252 |        - |      283 |      283 |       0.06 | *
    |      253 |        - |      282 |      282 |       0.06 | *
    |      266 |        - |      278 |      278 |       0.06 | *
    |      287 |        - |      272 |      272 |       0.06 | *
    |      288 |        - |      271 |      271 |       0.06 | *
    |      312 |        - |      266 |      266 |       0.06 | *
    |      317 |        - |      261 |      261 |       0.06 | *
    |      336 |        - |      254 |      254 |       0.06 | *
    |      340 |        - |      252 |      252 |       0.06 | *
    |      344 |        - |      251 |      251 |       0.06 | *
    |      346 |        - |      245 |      245 |       0.06 | *
    |      391 |        - |      240 |      240 |       0.06 | *
    |      397 |        - |      235 |      235 |       0.06 | *
    |      400 |        - |      232 |      232 |       0.06 | *
    |      407 |        - |      230 |      230 |       0.06 | *
    |      448 |        - |      229 |      229 |       0.07 | *
    |      463 |        - |      227 |      227 |       0.07 | *
    |      464 |        - |      226 |      226 |       0.07 | *
    |      476 |        - |      223 |      223 |       0.07 | *
    |      484 |        - |      218 |      218 |       0.07 | *
    |      487 |        - |      215 |      215 |       0.07 | *
    |      490 |        - |      214 |      214 |       0.07 | *
    |      498 |        - |      210 |      210 |       0.07 | *
    |      530 |        - |      205 |      205 |       0.07 | *
    |      533 |        - |      204 |      204 |       0.07 | *
    |      536 |        - |      203 |      203 |       0.07 | *
    |      588 |        - |      202 |      202 |       0.07 | *
    |      592 |        - |      200 |      200 |       0.07 | *
    |      607 |        - |      199 |      199 |       0.07 | *
    |      610 |        - |      198 |      198 |       0.07 | *
    |      632 |        - |      197 |      197 |       0.07 | *
    |      634 |        - |      194 |      194 |       0.08 | *
    |      638 |        - |      193 |      193 |       0.08 | *
    |      640 |        - |      190 |      190 |       0.08 | *
    |      642 |        - |      189 |      189 |       0.08 | *
    |      643 |        - |      188 |      188 |       0.08 | *
    |      664 |        - |      187 |      187 |       0.08 | *
    |      665 |        - |      183 |      183 |       0.08 | *
    |      755 |        - |      182 |      182 |       0.08 | *
    |      756 |        - |      181 |      181 |       0.08 | *
    |      758 |        - |      180 |      180 |       0.08 | *
    |      803 |        - |      178 |      178 |       0.08 | *
    |      805 |        - |      177 |      177 |       0.08 | *
    |      815 |        - |      176 |      176 |       0.08 | *
    |      848 |        - |      175 |      175 |       0.08 | *
    |      853 |        - |      174 |      174 |       0.08 | *
    |      855 |        - |      172 |      172 |       0.08 | *
    |      884 |        - |      171 |      171 |       0.08 | *
    |      902 |        - |      170 |      170 |       0.09 | *
    |     1002 |        - |      169 |      169 |       0.09 | *
    |     1010 |        - |      168 |      168 |       0.09 | *
    |     1013 |        - |      167 |      167 |       0.09 | *
    |     1060 |        - |      166 |      166 |       0.09 | *
    |     1062 |        - |      164 |      164 |       0.09 | *
    |     1071 |        - |      163 |      163 |       0.09 | *
    |     1085 |        - |      161 |      161 |       0.09 | *
    |     1098 |        - |      159 |      159 |       0.09 | *
    |     1123 |        - |      158 |      158 |       0.09 | *
    |     1137 |        - |      157 |      157 |       0.09 | *
    |     1203 |        - |      153 |      153 |       0.09 | *
    |     1299 |        - |      151 |      151 |       0.09 | *
    |     1309 |        - |      150 |      150 |       0.09 | *
    |     1319 |        - |      149 |      149 |       0.09 | *
    |     1364 |        - |      148 |      148 |       0.09 | *
    |     1382 |        - |      146 |      146 |       0.10 | *
    |     1388 |        - |      145 |      145 |       0.10 | *
    |     1426 |        - |      144 |      144 |       0.10 | *
    |     1524 |        - |      143 |      143 |       0.10 | *
    |     1537 |        - |      142 |      142 |       0.10 | *
    |     1729 |        - |      141 |      141 |       0.10 | *
    |     1995 |        - |      140 |      140 |       0.10 | *
    |     1998 |        - |      139 |      139 |       0.10 | *
    |     2007 |        - |      138 |      138 |       0.10 | *
    |     2008 |        - |      137 |      137 |       0.10 | *
    |     2082 |        - |      133 |      133 |       0.10 | *
    |     2101 |        - |      131 |      131 |       0.10 | *
    |     2240 |        - |      129 |      129 |       0.10 | *
    |     2258 |        - |      128 |      128 |       0.10 | *
    |     2263 |        - |      126 |      126 |       0.11 | *
    |     2570 |        - |      125 |      125 |       0.11 | *
    |     2592 |        - |      124 |      124 |       0.11 | *
    |     2606 |        - |      123 |      123 |       0.11 | *
    |     2663 |        - |      122 |      122 |       0.11 | *
    |     2687 |        - |      121 |      121 |       0.11 | *
    |     2854 |        - |      120 |      120 |       0.12 | *
    |     2881 |        - |      117 |      117 |       0.12 | *
    |     3477 |        - |      116 |      116 |       0.12 | *
    |     3524 |        - |      115 |      115 |       0.12 | *
    |     4147 |        - |      114 |      114 |       0.12 | *
    |     4160 |        - |      113 |      113 |       0.12 | *
    |     4185 |        - |      112 |      112 |       0.12 | *
    |     4187 |        - |      111 |      111 |       0.13 | *
    |     4232 |        - |      110 |      110 |       0.13 | *
    |     4235 |        - |      108 |      108 |       0.13 | *
    |     4242 |        - |      107 |      107 |       0.13 | *
    |     4261 |        - |      103 |      103 |       0.13 | *
    |     4263 |        - |      101 |      101 |       0.13 | *
    |     4767 |        - |      100 |      100 |       0.13 | *
    |     4806 |        - |       98 |       98 |       0.13 | *
    |     4946 |        - |       97 |       97 |       0.13 | *
    |     5590 |        - |       95 |       95 |       0.13 | *
    |     5631 |        - |       93 |       93 |       0.14 | *
    |     5839 |        - |       91 |       91 |       0.14 | *
    |     5868 |        - |       90 |       90 |       0.14 | *
    |     6300 |        - |       89 |       89 |       0.14 | *
    |     6720 |        - |       88 |       88 |       0.14 | *
    |     7069 |        - |       87 |       87 |       0.14 | *
    |     7416 |        - |       86 |       86 |       0.14 | *
    |     7696 |        - |       85 |       85 |       0.14 | *
    |     9162 |        - |       84 |       84 |       0.15 | *
    |     9258 |        - |       83 |       83 |       0.15 | *
    |     9732 |        - |       81 |       81 |       0.15 | *
    |     9760 |        - |       79 |       79 |       0.15 | *
    |      11K |        - |       78 |       78 |       0.16 | *
    |      12K |        - |       77 |       77 |       0.16 | *
    |      12K |        - |       76 |       76 |       0.16 | *
    |      12K |        - |       75 |       75 |       0.16 | *
    |      12K |        - |       74 |       74 |       0.16 | *
    |      12K |        - |       73 |       73 |       0.16 | *
    |      15K |        - |       72 |       72 |       0.17 | *
    |      16K |        - |       70 |       70 |       0.17 | *
    |      22K |        - |       69 |       69 |       0.17 | *
    |      22K |        - |       68 |       68 |       0.17 | *
    |      22K |        - |       67 |       67 |       0.17 | *
    |      23K |        - |       66 |       66 |       0.18 | *
    |      23K |        - |       65 |       65 |       0.18 | *
    |      23K |        - |       64 |       64 |       0.18 | *
    |      30K |        - |       63 |       63 |       0.19 | *
    |      31K |        - |       62 |       62 |       0.19 | *
    |      32K |        - |       61 |       61 |       0.19 | *
    |      32K |        - |       60 |       60 |       0.19 | *
    |      32K |        - |       59 |       59 |       0.19 | *
    |      69K |        - |       58 |       58 |       0.24 | *
    |      85K |        - |       57 |       57 |       0.27 | *
    |      96K |        - |       56 |       56 |       0.27 | *
    |      96K |        - |       55 |       55 |       0.27 | *
    |      96K |        - |       54 |       54 |       0.27 | *
    |     116K |        - |       53 |       53 |       0.31 | *
    |     124K |        - |       52 |       52 |       0.33 | *
    |     132K |        - |       51 |       51 |       0.34 | *
    |     305K |        - |       50 |       50 |       0.72 | *
    |     318K |        - |       49 |       49 |       0.75 | *
    |     318K |        - |       48 |       48 |       0.75 | *
    |     334K |        - |       47 |       47 |       0.78 | *
    |     417K |        - |       46 |       46 |       0.88 | *
    |    1991K |        - |       45 |       45 |       2.01 | *
    |    4072K |        - |       44 |       44 |       3.59 | *
    |      11M |        - |       43 |       43 |       9.12 | *
    |     129M |        - |       42 |       42 |      88.58 | *
    |     142M |        - |       41 |       41 |      96.60 | *
    |     384M |        - |       40 |       40 |     247.99 | *
    \--------------------------------------------------------/

Neighborhoods statistics (values in %):

    /----------------------------------------------------------------\
    | Move               | Improvs. | Sideways |  Accepts |  Rejects |
    |--------------------|----------|----------|----------|----------|
    | Shift(mk)          |     143K |     378K |     556K |     245M |
    | Shift              |     5950 |    6328K |    6453K |     240M |
    | ShiftSmart(mk)     |     324K |     775K |    1195K |     245M |
    | ShiftSmart         |      13K |      14M |      14M |     231M |
    | SimpSwap(mk)       |     1315 |     3703 |     5453 |     246M |
    | SimpSwap           |      106 |      16K |      17K |     246M |
    | SimpSwapSmart(mk)  |     3937 |      11K |      17K |     246M |
    | SimpSwapSmart      |      353 |      46K |      50K |     246M |
    | Swap(mk)           |      839 |     1908 |     3015 |     246M |
    | Swap               |       84 |      22K |      23K |     246M |
    | SwapSmart(mk)      |     4625 |      13K |      19K |     246M |
    | SwapSmart          |      380 |     138K |     142K |     246M |
    | Switch(mk)         |      65K |      46M |      46M |     200M |
    | Switch             |     2595 |      69M |      69M |     177M |
    | SwitchSmart(mk)    |     161K |     351K |     550K |     245M |
    | SwitchSmart        |     6576 |    5499K |    5636K |     240M |
    | TaskMove(mk)       |     7042 |      18K |      28K |     246M |
    | TaskMove           |      336 |      59K |      63K |     246M |
    | TaskMoveSmart(mk)  |      24K |      63K |      97K |     246M |
    | TaskMoveSmart      |     1162 |     214K |     230K |     246M |
    | 2-Shift(mk)        |      97K |      13M |      13M |     233M |
    | 2-Shift            |     3909 |      36M |      36M |     210M |
    | 2-ShiftSmart(mk)   |     188K |      11M |      11M |     235M |
    | 2-ShiftSmart       |     7594 |      57M |      57M |     189M |
    \----------------------------------------------------------------/

Best makespan.....: 40
N. of Iterations..: 5900921739
Total runtime.....: 3600.02s
Using Python-MIP package version 1.6.8
Começo a execução
    /-------------------------------------------------------------------------------\
    |    Makespan   |   Free Jobs   | Free Machines |    It. Time   |   Total Time  | 
    |-------------------------------------------------------------------------------|
    \-------------------------------------------------------------------------------/
Terminou a execução
