Instance....: instances/I_100_30_S_1-49_3.txt
Algorithm...: Simulated Annealing (alpha=0.990, saMax=10M, t0=1)
Other params: maxIters=100M, seed=-1, timeLimit=3600.00s

    /--------------------------------------------------------\
    |     Iter |   RDP(%) |       S* |       S' |       Time | 
    |----------|----------|----------|----------|------------|
    |        0 |        - |      613 |      613 |       0.00 | s0
    |        0 |        - |      593 |      593 |       0.00 | *
    |        2 |        - |      558 |      558 |       0.01 | *
    |        3 |        - |      519 |      519 |       0.01 | *
    |        5 |        - |      494 |      494 |       0.01 | *
    |        7 |        - |      489 |      489 |       0.01 | *
    |       24 |        - |      487 |      487 |       0.03 | *
    |       25 |        - |      476 |      476 |       0.03 | *
    |       30 |        - |      473 |      473 |       0.03 | *
    |       32 |        - |      457 |      457 |       0.03 | *
    |       33 |        - |      451 |      451 |       0.03 | *
    |       34 |        - |      442 |      442 |       0.03 | *
    |       37 |        - |      436 |      436 |       0.03 | *
    |       41 |        - |      432 |      432 |       0.03 | *
    |       47 |        - |      419 |      419 |       0.03 | *
    |       50 |        - |      416 |      416 |       0.04 | *
    |       54 |        - |      410 |      410 |       0.04 | *
    |       58 |        - |      408 |      408 |       0.04 | *
    |       60 |        - |      403 |      403 |       0.04 | *
    |       65 |        - |      398 |      398 |       0.04 | *
    |       77 |        - |      397 |      397 |       0.04 | *
    |       92 |        - |      394 |      394 |       0.04 | *
    |       95 |        - |      389 |      389 |       0.04 | *
    |       96 |        - |      384 |      384 |       0.04 | *
    |      101 |        - |      380 |      380 |       0.04 | *
    |      104 |        - |      378 |      378 |       0.04 | *
    |      110 |        - |      374 |      374 |       0.04 | *
    |      112 |        - |      363 |      363 |       0.04 | *
    |      116 |        - |      349 |      349 |       0.04 | *
    |      117 |        - |      348 |      348 |       0.04 | *
    |      122 |        - |      337 |      337 |       0.04 | *
    |      128 |        - |      336 |      336 |       0.05 | *
    |      147 |        - |      332 |      332 |       0.05 | *
    |      148 |        - |      331 |      331 |       0.05 | *
    |      149 |        - |      329 |      329 |       0.05 | *
    |      157 |        - |      326 |      326 |       0.05 | *
    |      162 |        - |      325 |      325 |       0.05 | *
    |      170 |        - |      311 |      311 |       0.05 | *
    |      173 |        - |      308 |      308 |       0.05 | *
    |      179 |        - |      307 |      307 |       0.05 | *
    |      180 |        - |      305 |      305 |       0.05 | *
    |      181 |        - |      304 |      304 |       0.05 | *
    |      192 |        - |      298 |      298 |       0.05 | *
    |      200 |        - |      297 |      297 |       0.05 | *
    |      207 |        - |      294 |      294 |       0.05 | *
    |      208 |        - |      284 |      284 |       0.05 | *
    |      209 |        - |      282 |      282 |       0.05 | *
    |      211 |        - |      280 |      280 |       0.06 | *
    |      216 |        - |      279 |      279 |       0.06 | *
    |      217 |        - |      277 |      277 |       0.06 | *
    |      225 |        - |      276 |      276 |       0.06 | *
    |      231 |        - |      275 |      275 |       0.06 | *
    |      243 |        - |      268 |      268 |       0.06 | *
    |      245 |        - |      264 |      264 |       0.06 | *
    |      247 |        - |      256 |      256 |       0.06 | *
    |      270 |        - |      251 |      251 |       0.06 | *
    |      271 |        - |      247 |      247 |       0.06 | *
    |      275 |        - |      246 |      246 |       0.06 | *
    |      276 |        - |      245 |      245 |       0.06 | *
    |      277 |        - |      232 |      232 |       0.06 | *
    |      279 |        - |      231 |      231 |       0.06 | *
    |      281 |        - |      230 |      230 |       0.06 | *
    |      286 |        - |      229 |      229 |       0.06 | *
    |      287 |        - |      228 |      228 |       0.06 | *
    |      295 |        - |      226 |      226 |       0.06 | *
    |      300 |        - |      221 |      221 |       0.07 | *
    |      314 |        - |      220 |      220 |       0.07 | *
    |      330 |        - |      214 |      214 |       0.07 | *
    |      333 |        - |      212 |      212 |       0.07 | *
    |      335 |        - |      210 |      210 |       0.07 | *
    |      336 |        - |      208 |      208 |       0.07 | *
    |      346 |        - |      207 |      207 |       0.07 | *
    |      357 |        - |      206 |      206 |       0.07 | *
    |      359 |        - |      205 |      205 |       0.07 | *
    |      367 |        - |      201 |      201 |       0.07 | *
    |      379 |        - |      200 |      200 |       0.07 | *
    |      384 |        - |      199 |      199 |       0.07 | *
    |      439 |        - |      198 |      198 |       0.07 | *
    |      451 |        - |      196 |      196 |       0.07 | *
    |      471 |        - |      195 |      195 |       0.08 | *
    |      499 |        - |      192 |      192 |       0.08 | *
    |      500 |        - |      190 |      190 |       0.08 | *
    |      554 |        - |      189 |      189 |       0.08 | *
    |      557 |        - |      188 |      188 |       0.08 | *
    |      574 |        - |      186 |      186 |       0.08 | *
    |      585 |        - |      184 |      184 |       0.08 | *
    |      586 |        - |      183 |      183 |       0.08 | *
    |      588 |        - |      182 |      182 |       0.09 | *
    |      620 |        - |      181 |      181 |       0.09 | *
    |      626 |        - |      180 |      180 |       0.09 | *
    |      633 |        - |      179 |      179 |       0.09 | *
    |      645 |        - |      177 |      177 |       0.09 | *
    |      646 |        - |      175 |      175 |       0.09 | *
    |      648 |        - |      174 |      174 |       0.09 | *
    |      650 |        - |      173 |      173 |       0.09 | *
    |      652 |        - |      172 |      172 |       0.09 | *
    |      656 |        - |      171 |      171 |       0.09 | *
    |      673 |        - |      169 |      169 |       0.09 | *
    |      676 |        - |      168 |      168 |       0.09 | *
    |      691 |        - |      167 |      167 |       0.09 | *
    |      736 |        - |      165 |      165 |       0.10 | *
    |      742 |        - |      164 |      164 |       0.10 | *
    |      768 |        - |      163 |      163 |       0.10 | *
    |      769 |        - |      162 |      162 |       0.10 | *
    |      816 |        - |      161 |      161 |       0.10 | *
    |      862 |        - |      159 |      159 |       0.10 | *
    |      872 |        - |      156 |      156 |       0.10 | *
    |      876 |        - |      154 |      154 |       0.10 | *
    |      905 |        - |      153 |      153 |       0.10 | *
    |      930 |        - |      152 |      152 |       0.10 | *
    |      937 |        - |      151 |      151 |       0.10 | *
    |      938 |        - |      150 |      150 |       0.10 | *
    |      944 |        - |      147 |      147 |       0.10 | *
    |      945 |        - |      145 |      145 |       0.10 | *
    |      953 |        - |      144 |      144 |       0.10 | *
    |      965 |        - |      143 |      143 |       0.10 | *
    |      974 |        - |      141 |      141 |       0.10 | *
    |     1006 |        - |      139 |      139 |       0.11 | *
    |     1012 |        - |      138 |      138 |       0.11 | *
    |     1015 |        - |      137 |      137 |       0.11 | *
    |     1031 |        - |      136 |      136 |       0.11 | *
    |     1036 |        - |      135 |      135 |       0.11 | *
    |     1039 |        - |      134 |      134 |       0.11 | *
    |     1040 |        - |      132 |      132 |       0.11 | *
    |     1059 |        - |      131 |      131 |       0.11 | *
    |     1167 |        - |      130 |      130 |       0.11 | *
    |     1173 |        - |      129 |      129 |       0.11 | *
    |     1206 |        - |      128 |      128 |       0.11 | *
    |     1209 |        - |      127 |      127 |       0.11 | *
    |     1229 |        - |      125 |      125 |       0.11 | *
    |     1248 |        - |      124 |      124 |       0.11 | *
    |     1252 |        - |      123 |      123 |       0.11 | *
    |     1264 |        - |      122 |      122 |       0.12 | *
    |     1275 |        - |      121 |      121 |       0.12 | *
    |     1289 |        - |      120 |      120 |       0.12 | *
    |     1296 |        - |      119 |      119 |       0.12 | *
    |     1306 |        - |      116 |      116 |       0.12 | *
    |     1355 |        - |      115 |      115 |       0.12 | *
    |     1540 |        - |      114 |      114 |       0.12 | *
    |     1542 |        - |      113 |      113 |       0.12 | *
    |     1560 |        - |      112 |      112 |       0.12 | *
    |     1577 |        - |      111 |      111 |       0.12 | *
    |     1617 |        - |      110 |      110 |       0.12 | *
    |     1710 |        - |      108 |      108 |       0.12 | *
    |     1855 |        - |      107 |      107 |       0.12 | *
    |     1957 |        - |      106 |      106 |       0.12 | *
    |     2054 |        - |      105 |      105 |       0.12 | *
    |     2125 |        - |      104 |      104 |       0.12 | *
    |     3141 |        - |      103 |      103 |       0.13 | *
    |     3144 |        - |      102 |      102 |       0.13 | *
    |     3402 |        - |      100 |      100 |       0.13 | *
    |     3552 |        - |       99 |       99 |       0.13 | *
    |     3603 |        - |       98 |       98 |       0.13 | *
    |     3938 |        - |       96 |       96 |       0.13 | *
    |     4005 |        - |       95 |       95 |       0.13 | *
    |     4324 |        - |       94 |       94 |       0.14 | *
    |     4325 |        - |       91 |       91 |       0.14 | *
    |     5056 |        - |       90 |       90 |       0.14 | *
    |     5148 |        - |       89 |       89 |       0.14 | *
    |     5595 |        - |       88 |       88 |       0.14 | *
    |     5734 |        - |       87 |       87 |       0.14 | *
    |     6055 |        - |       86 |       86 |       0.14 | *
    |     6215 |        - |       85 |       85 |       0.14 | *
    |     6220 |        - |       84 |       84 |       0.14 | *
    |     8065 |        - |       83 |       83 |       0.14 | *
    |     8066 |        - |       82 |       82 |       0.15 | *
    |     8073 |        - |       80 |       80 |       0.15 | *
    |     8259 |        - |       79 |       79 |       0.15 | *
    |     8514 |        - |       78 |       78 |       0.15 | *
    |     8586 |        - |       77 |       77 |       0.15 | *
    |     8669 |        - |       76 |       76 |       0.15 | *
    |     9929 |        - |       75 |       75 |       0.15 | *
    |      10K |        - |       74 |       74 |       0.15 | *
    |      10K |        - |       73 |       73 |       0.15 | *
    |      11K |        - |       72 |       72 |       0.15 | *
    |      12K |        - |       71 |       71 |       0.16 | *
    |      15K |        - |       70 |       70 |       0.16 | *
    |      15K |        - |       69 |       69 |       0.16 | *
    |      16K |        - |       68 |       68 |       0.16 | *
    |      22K |        - |       66 |       66 |       0.17 | *
    |      23K |        - |       65 |       65 |       0.18 | *
    |      25K |        - |       64 |       64 |       0.18 | *
    |      26K |        - |       63 |       63 |       0.18 | *
    |      27K |        - |       62 |       62 |       0.18 | *
    |      27K |        - |       61 |       61 |       0.18 | *
    |      28K |        - |       60 |       60 |       0.19 | *
    |      38K |        - |       59 |       59 |       0.20 | *
    |      48K |        - |       58 |       58 |       0.22 | *
    |      62K |        - |       57 |       57 |       0.25 | *
    |      78K |        - |       56 |       56 |       0.27 | *
    |      78K |        - |       55 |       55 |       0.27 | *
    |     130K |        - |       54 |       54 |       0.35 | *
    |     187K |        - |       53 |       53 |       0.47 | *
    |     188K |        - |       52 |       52 |       0.48 | *
    |     199K |        - |       51 |       51 |       0.50 | *
    |     233K |        - |       50 |       50 |       0.58 | *
    |     259K |        - |       49 |       49 |       0.64 | *
    |     264K |        - |       48 |       48 |       0.66 | *
    |     271K |        - |       47 |       47 |       0.67 | *
    |     389K |        - |       46 |       46 |       0.93 | *
    |     464K |        - |       45 |       45 |       1.03 | *
    |     777K |        - |       44 |       44 |       1.43 | *
    |     777K |        - |       43 |       43 |       1.44 | *
    |     817K |        - |       42 |       42 |       1.47 | *
    |    1777K |        - |       41 |       41 |       2.12 | *
    |    8614K |        - |       40 |       40 |       7.68 | *
    |      11M |        - |       39 |       39 |       9.07 | *
    |      22M |        - |       38 |       38 |      15.93 | *
    |     144M |        - |       37 |       37 |      92.11 | *
    |     146M |        - |       36 |       36 |      93.21 | *
    |     700M |        - |       35 |       35 |     435.39 | *
    \--------------------------------------------------------/

Neighborhoods statistics (values in %):

    /----------------------------------------------------------------\
    | Move               | Improvs. | Sideways |  Accepts |  Rejects |
    |--------------------|----------|----------|----------|----------|
    | Shift(mk)          |     195K |    6110K |    6378K |     245M |
    | Shift              |     6604 |      16M |      16M |     236M |
    | ShiftSmart(mk)     |     336K |    6598K |    7055K |     244M |
    | ShiftSmart         |      12K |      21M |      22M |     230M |
    | SimpSwap(mk)       |     1896 |      11K |      14K |     252M |
    | SimpSwap           |      131 |      33K |      35K |     252M |
    | SimpSwapSmart(mk)  |     4044 |      16K |      22K |     252M |
    | SimpSwapSmart      |      282 |      73K |      78K |     252M |
    | Swap(mk)           |     1361 |     7211 |     9028 |     251M |
    | Swap               |       94 |      25K |      26K |     252M |
    | SwapSmart(mk)      |     5286 |      21K |      29K |     252M |
    | SwapSmart          |      349 |      82K |      86K |     251M |
    | Switch(mk)         |      84K |      88M |      88M |     163M |
    | Switch             |     2892 |      87M |      87M |     165M |
    | SwitchSmart(mk)    |     194K |    6070K |    6341K |     245M |
    | SwitchSmart        |     6448 |      16M |      17M |     235M |
    | TaskMove(mk)       |     7758 |      23K |      33K |     252M |
    | TaskMove           |      250 |      73K |      78K |     252M |
    | TaskMoveSmart(mk)  |      21K |      66K |      96K |     252M |
    | TaskMoveSmart      |      848 |     207K |     221K |     251M |
    | 2-Shift(mk)        |     129K |      51M |      51M |     200M |
    | 2-Shift            |     4443 |      54M |      54M |     198M |
    | 2-ShiftSmart(mk)   |     175K |      65M |      65M |     186M |
    | 2-ShiftSmart       |     5990 |      83M |      83M |     169M |
    \----------------------------------------------------------------/

Best makespan.....: 35
N. of Iterations..: 6038074901
Total runtime.....: 3600.02s
Using Python-MIP package version 1.6.8
Começo a execução
    /-------------------------------------------------------------------------------\
    |    Makespan   |   Free Jobs   | Free Machines |    It. Time   |   Total Time  | 
    |-------------------------------------------------------------------------------|
    \-------------------------------------------------------------------------------/
Terminou a execução
