Instance....: instances/I_100_30_S_1-124_9.txt
Algorithm...: Simulated Annealing (alpha=0.990, saMax=10M, t0=1)
Other params: maxIters=100M, seed=-1, timeLimit=3600.00s

    /--------------------------------------------------------\
    |     Iter |   RDP(%) |       S* |       S' |       Time | 
    |----------|----------|----------|----------|------------|
    |        0 |        - |      990 |      990 |       0.00 | s0
    |        0 |        - |      948 |      948 |       0.00 | *
    |        4 |        - |      866 |      866 |       0.02 | *
    |        5 |        - |      757 |      757 |       0.02 | *
    |       13 |        - |      734 |      734 |       0.02 | *
    |       16 |        - |      733 |      733 |       0.02 | *
    |       23 |        - |      715 |      715 |       0.02 | *
    |       24 |        - |      713 |      713 |       0.03 | *
    |       26 |        - |      704 |      704 |       0.03 | *
    |       34 |        - |      691 |      691 |       0.03 | *
    |       36 |        - |      678 |      678 |       0.03 | *
    |       38 |        - |      676 |      676 |       0.03 | *
    |       41 |        - |      670 |      670 |       0.03 | *
    |       43 |        - |      663 |      663 |       0.03 | *
    |       44 |        - |      629 |      629 |       0.03 | *
    |       47 |        - |      622 |      622 |       0.03 | *
    |       54 |        - |      612 |      612 |       0.03 | *
    |       60 |        - |      605 |      605 |       0.03 | *
    |       64 |        - |      582 |      582 |       0.03 | *
    |       76 |        - |      571 |      571 |       0.04 | *
    |       81 |        - |      569 |      569 |       0.04 | *
    |       83 |        - |      550 |      550 |       0.04 | *
    |       86 |        - |      534 |      534 |       0.04 | *
    |      102 |        - |      522 |      522 |       0.04 | *
    |      107 |        - |      519 |      519 |       0.04 | *
    |      109 |        - |      516 |      516 |       0.04 | *
    |      111 |        - |      515 |      515 |       0.04 | *
    |      112 |        - |      512 |      512 |       0.04 | *
    |      115 |        - |      510 |      510 |       0.04 | *
    |      120 |        - |      478 |      478 |       0.04 | *
    |      125 |        - |      476 |      476 |       0.04 | *
    |      134 |        - |      474 |      474 |       0.04 | *
    |      139 |        - |      471 |      471 |       0.04 | *
    |      148 |        - |      462 |      462 |       0.04 | *
    |      150 |        - |      458 |      458 |       0.05 | *
    |      153 |        - |      455 |      455 |       0.05 | *
    |      154 |        - |      446 |      446 |       0.05 | *
    |      167 |        - |      435 |      435 |       0.05 | *
    |      174 |        - |      431 |      431 |       0.05 | *
    |      192 |        - |      424 |      424 |       0.05 | *
    |      194 |        - |      420 |      420 |       0.05 | *
    |      195 |        - |      415 |      415 |       0.05 | *
    |      196 |        - |      409 |      409 |       0.05 | *
    |      201 |        - |      404 |      404 |       0.05 | *
    |      202 |        - |      402 |      402 |       0.05 | *
    |      226 |        - |      396 |      396 |       0.05 | *
    |      227 |        - |      392 |      392 |       0.05 | *
    |      229 |        - |      386 |      386 |       0.05 | *
    |      235 |        - |      378 |      378 |       0.05 | *
    |      240 |        - |      377 |      377 |       0.05 | *
    |      244 |        - |      368 |      368 |       0.06 | *
    |      260 |        - |      360 |      360 |       0.06 | *
    |      261 |        - |      353 |      353 |       0.06 | *
    |      276 |        - |      347 |      347 |       0.06 | *
    |      288 |        - |      342 |      342 |       0.06 | *
    |      291 |        - |      336 |      336 |       0.06 | *
    |      302 |        - |      334 |      334 |       0.06 | *
    |      304 |        - |      332 |      332 |       0.06 | *
    |      307 |        - |      323 |      323 |       0.06 | *
    |      311 |        - |      318 |      318 |       0.06 | *
    |      313 |        - |      316 |      316 |       0.06 | *
    |      351 |        - |      313 |      313 |       0.06 | *
    |      352 |        - |      309 |      309 |       0.06 | *
    |      361 |        - |      307 |      307 |       0.06 | *
    |      362 |        - |      302 |      302 |       0.06 | *
    |      366 |        - |      297 |      297 |       0.06 | *
    |      381 |        - |      295 |      295 |       0.06 | *
    |      392 |        - |      294 |      294 |       0.07 | *
    |      410 |        - |      290 |      290 |       0.07 | *
    |      414 |        - |      286 |      286 |       0.07 | *
    |      417 |        - |      283 |      283 |       0.07 | *
    |      419 |        - |      281 |      281 |       0.07 | *
    |      429 |        - |      280 |      280 |       0.07 | *
    |      432 |        - |      279 |      279 |       0.07 | *
    |      435 |        - |      278 |      278 |       0.07 | *
    |      453 |        - |      277 |      277 |       0.07 | *
    |      468 |        - |      274 |      274 |       0.07 | *
    |      472 |        - |      273 |      273 |       0.07 | *
    |      527 |        - |      271 |      271 |       0.07 | *
    |      539 |        - |      266 |      266 |       0.07 | *
    |      542 |        - |      265 |      265 |       0.07 | *
    |      549 |        - |      257 |      257 |       0.07 | *
    |      563 |        - |      256 |      256 |       0.07 | *
    |      565 |        - |      250 |      250 |       0.07 | *
    |      599 |        - |      243 |      243 |       0.08 | *
    |      616 |        - |      242 |      242 |       0.08 | *
    |      636 |        - |      241 |      241 |       0.08 | *
    |      651 |        - |      240 |      240 |       0.08 | *
    |      664 |        - |      234 |      234 |       0.08 | *
    |      666 |        - |      232 |      232 |       0.08 | *
    |      675 |        - |      230 |      230 |       0.08 | *
    |      692 |        - |      229 |      229 |       0.08 | *
    |      752 |        - |      228 |      228 |       0.08 | *
    |      759 |        - |      226 |      226 |       0.08 | *
    |      769 |        - |      225 |      225 |       0.08 | *
    |      772 |        - |      224 |      224 |       0.08 | *
    |      819 |        - |      221 |      221 |       0.08 | *
    |      962 |        - |      220 |      220 |       0.08 | *
    |      974 |        - |      219 |      219 |       0.08 | *
    |      989 |        - |      218 |      218 |       0.08 | *
    |      991 |        - |      216 |      216 |       0.08 | *
    |      992 |        - |      215 |      215 |       0.09 | *
    |     1000 |        - |      213 |      213 |       0.09 | *
    |     1007 |        - |      207 |      207 |       0.09 | *
    |     1008 |        - |      205 |      205 |       0.09 | *
    |     1102 |        - |      204 |      204 |       0.09 | *
    |     1115 |        - |      200 |      200 |       0.09 | *
    |     1133 |        - |      198 |      198 |       0.09 | *
    |     1141 |        - |      196 |      196 |       0.09 | *
    |     1145 |        - |      195 |      195 |       0.09 | *
    |     1226 |        - |      193 |      193 |       0.09 | *
    |     1261 |        - |      192 |      192 |       0.09 | *
    |     1269 |        - |      191 |      191 |       0.09 | *
    |     1271 |        - |      189 |      189 |       0.09 | *
    |     1295 |        - |      188 |      188 |       0.09 | *
    |     1308 |        - |      187 |      187 |       0.09 | *
    |     1312 |        - |      186 |      186 |       0.09 | *
    |     1318 |        - |      184 |      184 |       0.09 | *
    |     1394 |        - |      180 |      180 |       0.09 | *
    |     1408 |        - |      179 |      179 |       0.10 | *
    |     1473 |        - |      177 |      177 |       0.10 | *
    |     1518 |        - |      176 |      176 |       0.10 | *
    |     1717 |        - |      175 |      175 |       0.10 | *
    |     1930 |        - |      173 |      173 |       0.10 | *
    |     1937 |        - |      172 |      172 |       0.10 | *
    |     2068 |        - |      169 |      169 |       0.10 | *
    |     2132 |        - |      167 |      167 |       0.10 | *
    |     2144 |        - |      162 |      162 |       0.10 | *
    |     2167 |        - |      160 |      160 |       0.10 | *
    |     2195 |        - |      159 |      159 |       0.10 | *
    |     2224 |        - |      156 |      156 |       0.10 | *
    |     2318 |        - |      155 |      155 |       0.11 | *
    |     2355 |        - |      154 |      154 |       0.11 | *
    |     2415 |        - |      153 |      153 |       0.11 | *
    |     2560 |        - |      151 |      151 |       0.11 | *
    |     2610 |        - |      150 |      150 |       0.11 | *
    |     2666 |        - |      148 |      148 |       0.11 | *
    |     2742 |        - |      147 |      147 |       0.11 | *
    |     3458 |        - |      146 |      146 |       0.11 | *
    |     3560 |        - |      143 |      143 |       0.11 | *
    |     3724 |        - |      141 |      141 |       0.12 | *
    |     4018 |        - |      140 |      140 |       0.12 | *
    |     4097 |        - |      139 |      139 |       0.12 | *
    |     4113 |        - |      138 |      138 |       0.12 | *
    |     4140 |        - |      137 |      137 |       0.12 | *
    |     4177 |        - |      136 |      136 |       0.12 | *
    |     4229 |        - |      135 |      135 |       0.12 | *
    |     4322 |        - |      134 |      134 |       0.12 | *
    |     4545 |        - |      133 |      133 |       0.12 | *
    |     5050 |        - |      131 |      131 |       0.12 | *
    |     5063 |        - |      130 |      130 |       0.12 | *
    |     5661 |        - |      129 |      129 |       0.13 | *
    |     5690 |        - |      127 |      127 |       0.13 | *
    |     5743 |        - |      126 |      126 |       0.13 | *
    |     6734 |        - |      125 |      125 |       0.13 | *
    |     7276 |        - |      124 |      124 |       0.13 | *
    |     7569 |        - |      121 |      121 |       0.13 | *
    |     7591 |        - |      120 |      120 |       0.13 | *
    |     7946 |        - |      119 |      119 |       0.13 | *
    |     8480 |        - |      117 |      117 |       0.13 | *
    |     9791 |        - |      116 |      116 |       0.14 | *
    |     9887 |        - |      114 |      114 |       0.14 | *
    |      10K |        - |      112 |      112 |       0.14 | *
    |      10K |        - |      111 |      111 |       0.14 | *
    |      10K |        - |      110 |      110 |       0.14 | *
    |      11K |        - |      109 |      109 |       0.14 | *
    |      11K |        - |      108 |      108 |       0.15 | *
    |      12K |        - |      107 |      107 |       0.15 | *
    |      13K |        - |      106 |      106 |       0.15 | *
    |      14K |        - |      105 |      105 |       0.15 | *
    |      15K |        - |      104 |      104 |       0.16 | *
    |      15K |        - |      102 |      102 |       0.16 | *
    |      15K |        - |      101 |      101 |       0.16 | *
    |      16K |        - |       99 |       99 |       0.16 | *
    |      17K |        - |       98 |       98 |       0.16 | *
    |      17K |        - |       97 |       97 |       0.16 | *
    |      18K |        - |       95 |       95 |       0.16 | *
    |      18K |        - |       94 |       94 |       0.16 | *
    |      30K |        - |       93 |       93 |       0.18 | *
    |      31K |        - |       92 |       92 |       0.18 | *
    |      32K |        - |       91 |       91 |       0.18 | *
    |      33K |        - |       90 |       90 |       0.18 | *
    |      40K |        - |       89 |       89 |       0.19 | *
    |      41K |        - |       88 |       88 |       0.20 | *
    |      44K |        - |       87 |       87 |       0.20 | *
    |      45K |        - |       86 |       86 |       0.20 | *
    |      48K |        - |       85 |       85 |       0.21 | *
    |      48K |        - |       84 |       84 |       0.21 | *
    |      55K |        - |       83 |       83 |       0.21 | *
    |      56K |        - |       82 |       82 |       0.22 | *
    |      58K |        - |       81 |       81 |       0.22 | *
    |      59K |        - |       80 |       80 |       0.22 | *
    |      72K |        - |       79 |       79 |       0.23 | *
    |      74K |        - |       78 |       78 |       0.23 | *
    |      75K |        - |       77 |       77 |       0.24 | *
    |      83K |        - |       76 |       76 |       0.24 | *
    |      84K |        - |       75 |       75 |       0.24 | *
    |      87K |        - |       73 |       73 |       0.25 | *
    |     109K |        - |       72 |       72 |       0.28 | *
    |     112K |        - |       71 |       71 |       0.28 | *
    |     114K |        - |       70 |       70 |       0.29 | *
    |     116K |        - |       69 |       69 |       0.29 | *
    |     117K |        - |       68 |       68 |       0.29 | *
    |     122K |        - |       67 |       67 |       0.30 | *
    |     129K |        - |       66 |       66 |       0.32 | *
    |     131K |        - |       65 |       65 |       0.32 | *
    |     182K |        - |       64 |       64 |       0.41 | *
    |     184K |        - |       63 |       63 |       0.41 | *
    |     185K |        - |       62 |       62 |       0.41 | *
    |     189K |        - |       61 |       61 |       0.42 | *
    |     230K |        - |       60 |       60 |       0.51 | *
    |     256K |        - |       59 |       59 |       0.58 | *
    |     258K |        - |       58 |       58 |       0.59 | *
    |     446K |        - |       57 |       57 |       0.96 | *
    |     519K |        - |       56 |       56 |       1.04 | *
    |     577K |        - |       54 |       54 |       1.09 | *
    |     623K |        - |       53 |       53 |       1.13 | *
    |     698K |        - |       50 |       50 |       1.20 | *
    |    2231K |        - |       49 |       49 |       2.27 | *
    |    2231K |        - |       48 |       48 |       2.27 | *
    |    2739K |        - |       47 |       47 |       2.59 | *
    |    9352K |        - |       46 |       46 |       6.95 | *
    |      26M |        - |       45 |       45 |      17.68 | *
    |     220M |        - |       44 |       44 |     138.65 | *
    |     353M |        - |       43 |       43 |     221.92 | *
    |     355M |        - |       42 |       42 |     223.08 | *
    \--------------------------------------------------------/

Neighborhoods statistics (values in %):

    /----------------------------------------------------------------\
    | Move               | Improvs. | Sideways |  Accepts |  Rejects |
    |--------------------|----------|----------|----------|----------|
    | Shift(mk)          |      66K |      33K |     131K |     236M |
    | Shift              |     2281 |    1651K |    1683K |     235M |
    | ShiftSmart(mk)     |     136K |      70K |     278K |     236M |
    | ShiftSmart         |     4617 |    3360K |    3424K |     232M |
    | SimpSwap(mk)       |      556 |     4726 |     5360 |     236M |
    | SimpSwap           |       38 |      11K |      11K |     236M |
    | SimpSwapSmart(mk)  |     1296 |      14K |      15K |     236M |
    | SimpSwapSmart      |       93 |      27K |      28K |     236M |
    | Swap(mk)           |      432 |     1041 |     1560 |     236M |
    | Swap               |       30 |     6551 |     6948 |     236M |
    | SwapSmart(mk)      |     2103 |     6101 |     8711 |     236M |
    | SwapSmart          |      153 |      30K |      32K |     236M |
    | Switch(mk)         |      13K |      62M |      62M |     174M |
    | Switch             |      438 |      78M |      78M |     158M |
    | SwitchSmart(mk)    |      33K |      21K |      72K |     236M |
    | SwitchSmart        |     1088 |     852K |     869K |     235M |
    | TaskMove(mk)       |     3151 |     9822 |      14K |     236M |
    | TaskMove           |      120 |      88K |      90K |     236M |
    | TaskMoveSmart(mk)  |     9333 |      32K |      45K |     236M |
    | TaskMoveSmart      |      360 |     277K |     283K |     236M |
    | 2-Shift(mk)        |      57K |      24M |      24M |     212M |
    | 2-Shift            |     1900 |      48M |      48M |     188M |
    | 2-ShiftSmart(mk)   |      77K |      44M |      44M |     192M |
    | 2-ShiftSmart       |     2543 |      77M |      77M |     158M |
    \----------------------------------------------------------------/

Best makespan.....: 42
N. of Iterations..: 5664106358
Total runtime.....: 3600.02s
Using Python-MIP package version 1.6.8
Começo a execução
    /-------------------------------------------------------------------------------\
    |    Makespan   |   Free Jobs   | Free Machines |    It. Time   |   Total Time  | 
    |-------------------------------------------------------------------------------|
    \-------------------------------------------------------------------------------/
Terminou a execução
