Instance....: instances/I_100_20_S_1-9_8.txt
Algorithm...: Simulated Annealing (alpha=0.990, saMax=10M, t0=1)
Other params: maxIters=100M, seed=-1, timeLimit=3600.00s

    /--------------------------------------------------------\
    |     Iter |   RDP(%) |       S* |       S' |       Time | 
    |----------|----------|----------|----------|------------|
    |        0 |        - |      476 |      476 |       0.00 | s0
    |        0 |        - |      469 |      469 |       0.00 | *
    |        3 |        - |      467 |      467 |       0.01 | *
    |        7 |        - |      466 |      466 |       0.02 | *
    |        9 |        - |      460 |      460 |       0.02 | *
    |       12 |        - |      444 |      444 |       0.02 | *
    |       15 |        - |      442 |      442 |       0.03 | *
    |       19 |        - |      441 |      441 |       0.03 | *
    |       22 |        - |      434 |      434 |       0.03 | *
    |       27 |        - |      433 |      433 |       0.03 | *
    |       28 |        - |      432 |      432 |       0.03 | *
    |       34 |        - |      430 |      430 |       0.03 | *
    |       35 |        - |      426 |      426 |       0.03 | *
    |       36 |        - |      423 |      423 |       0.03 | *
    |       46 |        - |      388 |      388 |       0.03 | *
    |       50 |        - |      385 |      385 |       0.04 | *
    |       51 |        - |      381 |      381 |       0.04 | *
    |       52 |        - |      379 |      379 |       0.04 | *
    |       54 |        - |      376 |      376 |       0.04 | *
    |       57 |        - |      371 |      371 |       0.04 | *
    |       81 |        - |      369 |      369 |       0.04 | *
    |       85 |        - |      360 |      360 |       0.04 | *
    |       86 |        - |      354 |      354 |       0.04 | *
    |       90 |        - |      351 |      351 |       0.04 | *
    |       91 |        - |      347 |      347 |       0.04 | *
    |       95 |        - |      342 |      342 |       0.04 | *
    |      100 |        - |      336 |      336 |       0.04 | *
    |      104 |        - |      334 |      334 |       0.04 | *
    |      107 |        - |      331 |      331 |       0.04 | *
    |      113 |        - |      330 |      330 |       0.04 | *
    |      131 |        - |      326 |      326 |       0.04 | *
    |      139 |        - |      324 |      324 |       0.05 | *
    |      145 |        - |      321 |      321 |       0.05 | *
    |      148 |        - |      320 |      320 |       0.05 | *
    |      149 |        - |      317 |      317 |       0.05 | *
    |      156 |        - |      316 |      316 |       0.05 | *
    |      167 |        - |      311 |      311 |       0.05 | *
    |      173 |        - |      307 |      307 |       0.05 | *
    |      174 |        - |      305 |      305 |       0.05 | *
    |      176 |        - |      302 |      302 |       0.05 | *
    |      204 |        - |      300 |      300 |       0.05 | *
    |      205 |        - |      288 |      288 |       0.05 | *
    |      216 |        - |      286 |      286 |       0.05 | *
    |      220 |        - |      284 |      284 |       0.05 | *
    |      221 |        - |      283 |      283 |       0.05 | *
    |      222 |        - |      282 |      282 |       0.05 | *
    |      224 |        - |      281 |      281 |       0.05 | *
    |      235 |        - |      277 |      277 |       0.06 | *
    |      238 |        - |      275 |      275 |       0.06 | *
    |      247 |        - |      274 |      274 |       0.06 | *
    |      250 |        - |      273 |      273 |       0.06 | *
    |      253 |        - |      272 |      272 |       0.06 | *
    |      255 |        - |      271 |      271 |       0.06 | *
    |      256 |        - |      268 |      268 |       0.06 | *
    |      260 |        - |      267 |      267 |       0.06 | *
    |      261 |        - |      266 |      266 |       0.06 | *
    |      270 |        - |      265 |      265 |       0.06 | *
    |      271 |        - |      262 |      262 |       0.06 | *
    |      272 |        - |      259 |      259 |       0.06 | *
    |      285 |        - |      257 |      257 |       0.06 | *
    |      292 |        - |      251 |      251 |       0.06 | *
    |      304 |        - |      250 |      250 |       0.06 | *
    |      306 |        - |      249 |      249 |       0.07 | *
    |      311 |        - |      248 |      248 |       0.07 | *
    |      316 |        - |      242 |      242 |       0.07 | *
    |      320 |        - |      241 |      241 |       0.07 | *
    |      322 |        - |      240 |      240 |       0.07 | *
    |      354 |        - |      238 |      238 |       0.07 | *
    |      355 |        - |      237 |      237 |       0.07 | *
    |      359 |        - |      235 |      235 |       0.07 | *
    |      409 |        - |      233 |      233 |       0.07 | *
    |      429 |        - |      232 |      232 |       0.07 | *
    |      436 |        - |      231 |      231 |       0.07 | *
    |      438 |        - |      229 |      229 |       0.07 | *
    |      441 |        - |      228 |      228 |       0.07 | *
    |      452 |        - |      227 |      227 |       0.07 | *
    |      456 |        - |      226 |      226 |       0.07 | *
    |      457 |        - |      223 |      223 |       0.07 | *
    |      467 |        - |      221 |      221 |       0.08 | *
    |      470 |        - |      218 |      218 |       0.08 | *
    |      476 |        - |      217 |      217 |       0.08 | *
    |      485 |        - |      215 |      215 |       0.08 | *
    |      486 |        - |      211 |      211 |       0.08 | *
    |      499 |        - |      207 |      207 |       0.08 | *
    |      509 |        - |      205 |      205 |       0.08 | *
    |      518 |        - |      204 |      204 |       0.08 | *
    |      524 |        - |      201 |      201 |       0.08 | *
    |      526 |        - |      200 |      200 |       0.08 | *
    |      530 |        - |      198 |      198 |       0.08 | *
    |      550 |        - |      197 |      197 |       0.08 | *
    |      581 |        - |      194 |      194 |       0.08 | *
    |      591 |        - |      193 |      193 |       0.08 | *
    |      597 |        - |      192 |      192 |       0.08 | *
    |      602 |        - |      190 |      190 |       0.09 | *
    |      605 |        - |      189 |      189 |       0.09 | *
    |      626 |        - |      186 |      186 |       0.09 | *
    |      635 |        - |      185 |      185 |       0.09 | *
    |      690 |        - |      184 |      184 |       0.09 | *
    |      722 |        - |      182 |      182 |       0.09 | *
    |      750 |        - |      181 |      181 |       0.09 | *
    |      773 |        - |      177 |      177 |       0.09 | *
    |      780 |        - |      175 |      175 |       0.09 | *
    |      795 |        - |      174 |      174 |       0.09 | *
    |      807 |        - |      173 |      173 |       0.09 | *
    |      809 |        - |      172 |      172 |       0.09 | *
    |      821 |        - |      168 |      168 |       0.09 | *
    |      823 |        - |      166 |      166 |       0.09 | *
    |      828 |        - |      165 |      165 |       0.09 | *
    |      860 |        - |      163 |      163 |       0.09 | *
    |      883 |        - |      160 |      160 |       0.09 | *
    |      945 |        - |      159 |      159 |       0.10 | *
    |      973 |        - |      158 |      158 |       0.10 | *
    |     1033 |        - |      156 |      156 |       0.10 | *
    |     1052 |        - |      153 |      153 |       0.10 | *
    |     1058 |        - |      152 |      152 |       0.10 | *
    |     1060 |        - |      150 |      150 |       0.10 | *
    |     1081 |        - |      149 |      149 |       0.10 | *
    |     1091 |        - |      147 |      147 |       0.10 | *
    |     1098 |        - |      145 |      145 |       0.10 | *
    |     1107 |        - |      143 |      143 |       0.10 | *
    |     1114 |        - |      142 |      142 |       0.10 | *
    |     1118 |        - |      140 |      140 |       0.10 | *
    |     1141 |        - |      139 |      139 |       0.10 | *
    |     1143 |        - |      138 |      138 |       0.10 | *
    |     1158 |        - |      136 |      136 |       0.10 | *
    |     1199 |        - |      135 |      135 |       0.10 | *
    |     1203 |        - |      134 |      134 |       0.11 | *
    |     1204 |        - |      133 |      133 |       0.11 | *
    |     1212 |        - |      132 |      132 |       0.11 | *
    |     1213 |        - |      131 |      131 |       0.11 | *
    |     1217 |        - |      130 |      130 |       0.11 | *
    |     1222 |        - |      129 |      129 |       0.11 | *
    |     1236 |        - |      128 |      128 |       0.11 | *
    |     1239 |        - |      127 |      127 |       0.11 | *
    |     1252 |        - |      126 |      126 |       0.11 | *
    |     1253 |        - |      125 |      125 |       0.11 | *
    |     1303 |        - |      124 |      124 |       0.11 | *
    |     1526 |        - |      123 |      123 |       0.11 | *
    |     1655 |        - |      122 |      122 |       0.11 | *
    |     1659 |        - |      121 |      121 |       0.12 | *
    |     1743 |        - |      120 |      120 |       0.12 | *
    |     1789 |        - |      118 |      118 |       0.12 | *
    |     1804 |        - |      117 |      117 |       0.12 | *
    |     1810 |        - |      116 |      116 |       0.12 | *
    |     1818 |        - |      114 |      114 |       0.12 | *
    |     1858 |        - |      112 |      112 |       0.12 | *
    |     1862 |        - |      109 |      109 |       0.12 | *
    |     1870 |        - |      108 |      108 |       0.12 | *
    |     1911 |        - |      107 |      107 |       0.12 | *
    |     1918 |        - |      106 |      106 |       0.12 | *
    |     2035 |        - |      105 |      105 |       0.12 | *
    |     2113 |        - |      104 |      104 |       0.12 | *
    |     2150 |        - |      103 |      103 |       0.12 | *
    |     2251 |        - |      101 |      101 |       0.12 | *
    |     2253 |        - |      100 |      100 |       0.12 | *
    |     2363 |        - |       99 |       99 |       0.12 | *
    |     2373 |        - |       98 |       98 |       0.12 | *
    |     2413 |        - |       97 |       97 |       0.13 | *
    |     2454 |        - |       96 |       96 |       0.13 | *
    |     2541 |        - |       95 |       95 |       0.13 | *
    |     2563 |        - |       94 |       94 |       0.13 | *
    |     2665 |        - |       93 |       93 |       0.13 | *
    |     2698 |        - |       92 |       92 |       0.13 | *
    |     2776 |        - |       91 |       91 |       0.13 | *
    |     2887 |        - |       90 |       90 |       0.13 | *
    |     2926 |        - |       89 |       89 |       0.13 | *
    |     2942 |        - |       88 |       88 |       0.13 | *
    |     2943 |        - |       86 |       86 |       0.13 | *
    |     2944 |        - |       85 |       85 |       0.13 | *
    |     3105 |        - |       84 |       84 |       0.13 | *
    |     3139 |        - |       83 |       83 |       0.13 | *
    |     3195 |        - |       82 |       82 |       0.14 | *
    |     3454 |        - |       81 |       81 |       0.14 | *
    |     3486 |        - |       80 |       80 |       0.14 | *
    |     3495 |        - |       79 |       79 |       0.14 | *
    |     4685 |        - |       78 |       78 |       0.14 | *
    |     5095 |        - |       77 |       77 |       0.14 | *
    |     5158 |        - |       76 |       76 |       0.14 | *
    |     5425 |        - |       75 |       75 |       0.14 | *
    |     5501 |        - |       74 |       74 |       0.14 | *
    |     5520 |        - |       73 |       73 |       0.14 | *
    |     6542 |        - |       72 |       72 |       0.15 | *
    |     7027 |        - |       71 |       71 |       0.15 | *
    |     7434 |        - |       70 |       70 |       0.15 | *
    |     7991 |        - |       69 |       69 |       0.15 | *
    |     8000 |        - |       68 |       68 |       0.15 | *
    |     8034 |        - |       67 |       67 |       0.15 | *
    |     9797 |        - |       66 |       66 |       0.15 | *
    |      11K |        - |       65 |       65 |       0.16 | *
    |      11K |        - |       64 |       64 |       0.16 | *
    |      11K |        - |       63 |       63 |       0.16 | *
    |      12K |        - |       62 |       62 |       0.16 | *
    |      12K |        - |       61 |       61 |       0.16 | *
    |      14K |        - |       60 |       60 |       0.16 | *
    |      14K |        - |       59 |       59 |       0.16 | *
    |      15K |        - |       58 |       58 |       0.17 | *
    |      16K |        - |       57 |       57 |       0.17 | *
    |      18K |        - |       56 |       56 |       0.17 | *
    |      20K |        - |       55 |       55 |       0.18 | *
    |      21K |        - |       54 |       54 |       0.18 | *
    |      23K |        - |       53 |       53 |       0.18 | *
    |      25K |        - |       52 |       52 |       0.18 | *
    |      38K |        - |       51 |       51 |       0.20 | *
    |      38K |        - |       50 |       50 |       0.20 | *
    |      43K |        - |       49 |       49 |       0.21 | *
    |      43K |        - |       48 |       48 |       0.21 | *
    |      47K |        - |       47 |       47 |       0.22 | *
    |     117K |        - |       46 |       46 |       0.35 | *
    |     168K |        - |       45 |       45 |       0.48 | *
    |    2249K |        - |       44 |       44 |       2.14 | *
    |    3499K |        - |       43 |       43 |       2.90 | *
    |      13M |        - |       42 |       42 |       9.01 | *
    |      63M |        - |       41 |       41 |      39.40 | *
    |     309M |        - |       40 |       40 |     187.63 | *
    |     624M |        - |       39 |       39 |     378.46 | *
    \--------------------------------------------------------/

Neighborhoods statistics (values in %):

    /----------------------------------------------------------------\
    | Move               | Improvs. | Sideways |  Accepts |  Rejects |
    |--------------------|----------|----------|----------|----------|
    | Shift(mk)          |    1089K |    4059K |    5828K |     249M |
    | Shift              |      55K |      45M |      46M |     210M |
    | ShiftSmart(mk)     |    2847K |      10M |      15M |     240M |
    | ShiftSmart         |     142K |      91M |      92M |     163M |
    | SimpSwap(mk)       |     4964 |      14K |      22K |     255M |
    | SimpSwap           |      473 |      79K |      84K |     255M |
    | SimpSwapSmart(mk)  |      19K |      58K |      89K |     255M |
    | SimpSwapSmart      |     2114 |     311K |     333K |     255M |
    | Swap(mk)           |     4007 |      10K |      16K |     255M |
    | Swap               |      431 |      64K |      69K |     255M |
    | SwapSmart(mk)      |      13K |      44K |      63K |     255M |
    | SwapSmart          |     1245 |     236K |     247K |     255M |
    | Switch(mk)         |     639K |      59M |      60M |     195M |
    | Switch             |      32K |      82M |      82M |     173M |
    | SwitchSmart(mk)    |    1465K |    6417K |    8620K |     247M |
    | SwitchSmart        |      73K |      55M |      56M |     199M |
    | TaskMove(mk)       |      32K |      77K |     123K |     255M |
    | TaskMove           |     1630 |     155K |     173K |     255M |
    | TaskMoveSmart(mk)  |      76K |     210K |     321K |     255M |
    | TaskMoveSmart      |     4143 |     434K |     477K |     255M |
    | 2-Shift(mk)        |     806K |      23M |      24M |     231M |
    | 2-Shift            |      40K |      50M |      51M |     204M |
    | 2-ShiftSmart(mk)   |    2285K |      48M |      51M |     204M |
    | 2-ShiftSmart       |     114K |      89M |      89M |     166M |
    \----------------------------------------------------------------/

Best makespan.....: 39
N. of Iterations..: 6121633326
Total runtime.....: 3600.03s
Using Python-MIP package version 1.6.8
Começo a execução
    /-------------------------------------------------------------------------------\
    |    Makespan   |   Free Jobs   | Free Machines |    It. Time   |   Total Time  | 
    |-------------------------------------------------------------------------------|
    \-------------------------------------------------------------------------------/
Terminou a execução
