Instance....: instances/I_100_30_S_1-9_7.txt
Algorithm...: Simulated Annealing (alpha=0.990, saMax=10M, t0=1)
Other params: maxIters=100M, seed=-1, timeLimit=3600.00s

    /--------------------------------------------------------\
    |     Iter |   RDP(%) |       S* |       S' |       Time | 
    |----------|----------|----------|----------|------------|
    |        0 |        - |      382 |      382 |       0.00 | s0
    |        0 |        - |      378 |      378 |       0.00 | *
    |        4 |        - |      374 |      374 |       0.02 | *
    |        8 |        - |      372 |      372 |       0.02 | *
    |       14 |        - |      366 |      366 |       0.02 | *
    |       22 |        - |      362 |      362 |       0.02 | *
    |       30 |        - |      346 |      346 |       0.03 | *
    |       37 |        - |      345 |      345 |       0.03 | *
    |       41 |        - |      341 |      341 |       0.03 | *
    |       44 |        - |      337 |      337 |       0.03 | *
    |       45 |        - |      334 |      334 |       0.03 | *
    |       50 |        - |      321 |      321 |       0.03 | *
    |       56 |        - |      316 |      316 |       0.03 | *
    |       57 |        - |      298 |      298 |       0.03 | *
    |       61 |        - |      291 |      291 |       0.03 | *
    |       64 |        - |      290 |      290 |       0.04 | *
    |       75 |        - |      289 |      289 |       0.04 | *
    |       85 |        - |      286 |      286 |       0.04 | *
    |       88 |        - |      276 |      276 |       0.04 | *
    |       95 |        - |      265 |      265 |       0.04 | *
    |       99 |        - |      260 |      260 |       0.04 | *
    |      100 |        - |      258 |      258 |       0.04 | *
    |      101 |        - |      257 |      257 |       0.04 | *
    |      114 |        - |      254 |      254 |       0.04 | *
    |      116 |        - |      252 |      252 |       0.04 | *
    |      120 |        - |      248 |      248 |       0.04 | *
    |      158 |        - |      245 |      245 |       0.04 | *
    |      160 |        - |      243 |      243 |       0.04 | *
    |      162 |        - |      235 |      235 |       0.04 | *
    |      166 |        - |      233 |      233 |       0.05 | *
    |      168 |        - |      230 |      230 |       0.05 | *
    |      171 |        - |      229 |      229 |       0.05 | *
    |      173 |        - |      227 |      227 |       0.05 | *
    |      177 |        - |      225 |      225 |       0.05 | *
    |      193 |        - |      224 |      224 |       0.05 | *
    |      197 |        - |      223 |      223 |       0.05 | *
    |      198 |        - |      219 |      219 |       0.05 | *
    |      199 |        - |      217 |      217 |       0.05 | *
    |      205 |        - |      216 |      216 |       0.05 | *
    |      210 |        - |      213 |      213 |       0.05 | *
    |      211 |        - |      210 |      210 |       0.05 | *
    |      213 |        - |      209 |      209 |       0.06 | *
    |      214 |        - |      207 |      207 |       0.06 | *
    |      232 |        - |      205 |      205 |       0.06 | *
    |      234 |        - |      202 |      202 |       0.06 | *
    |      236 |        - |      201 |      201 |       0.06 | *
    |      260 |        - |      198 |      198 |       0.06 | *
    |      277 |        - |      197 |      197 |       0.06 | *
    |      288 |        - |      196 |      196 |       0.06 | *
    |      291 |        - |      193 |      193 |       0.06 | *
    |      301 |        - |      191 |      191 |       0.07 | *
    |      332 |        - |      184 |      184 |       0.07 | *
    |      340 |        - |      183 |      183 |       0.07 | *
    |      342 |        - |      181 |      181 |       0.07 | *
    |      348 |        - |      177 |      177 |       0.07 | *
    |      352 |        - |      174 |      174 |       0.07 | *
    |      363 |        - |      170 |      170 |       0.07 | *
    |      370 |        - |      167 |      167 |       0.07 | *
    |      374 |        - |      166 |      166 |       0.07 | *
    |      398 |        - |      161 |      161 |       0.07 | *
    |      427 |        - |      159 |      159 |       0.07 | *
    |      451 |        - |      158 |      158 |       0.08 | *
    |      452 |        - |      157 |      157 |       0.08 | *
    |      476 |        - |      156 |      156 |       0.08 | *
    |      521 |        - |      155 |      155 |       0.08 | *
    |      544 |        - |      154 |      154 |       0.08 | *
    |      564 |        - |      153 |      153 |       0.08 | *
    |      573 |        - |      151 |      151 |       0.08 | *
    |      577 |        - |      150 |      150 |       0.08 | *
    |      586 |        - |      148 |      148 |       0.08 | *
    |      617 |        - |      146 |      146 |       0.08 | *
    |      626 |        - |      140 |      140 |       0.08 | *
    |      627 |        - |      139 |      139 |       0.08 | *
    |      628 |        - |      138 |      138 |       0.08 | *
    |      632 |        - |      137 |      137 |       0.09 | *
    |      635 |        - |      136 |      136 |       0.09 | *
    |      654 |        - |      135 |      135 |       0.09 | *
    |      658 |        - |      131 |      131 |       0.09 | *
    |      664 |        - |      130 |      130 |       0.09 | *
    |      669 |        - |      129 |      129 |       0.09 | *
    |      712 |        - |      128 |      128 |       0.09 | *
    |      768 |        - |      127 |      127 |       0.09 | *
    |      781 |        - |      126 |      126 |       0.09 | *
    |      810 |        - |      125 |      125 |       0.09 | *
    |      832 |        - |      124 |      124 |       0.09 | *
    |      835 |        - |      123 |      123 |       0.09 | *
    |      849 |        - |      122 |      122 |       0.09 | *
    |      851 |        - |      120 |      120 |       0.09 | *
    |      896 |        - |      119 |      119 |       0.09 | *
    |      899 |        - |      117 |      117 |       0.10 | *
    |      908 |        - |      116 |      116 |       0.10 | *
    |      935 |        - |      115 |      115 |       0.10 | *
    |      948 |        - |      113 |      113 |       0.10 | *
    |      964 |        - |      112 |      112 |       0.10 | *
    |     1101 |        - |      111 |      111 |       0.10 | *
    |     1141 |        - |      110 |      110 |       0.10 | *
    |     1192 |        - |      109 |      109 |       0.10 | *
    |     1196 |        - |      107 |      107 |       0.10 | *
    |     1216 |        - |      105 |      105 |       0.10 | *
    |     1239 |        - |      104 |      104 |       0.10 | *
    |     1320 |        - |      103 |      103 |       0.10 | *
    |     1338 |        - |      102 |      102 |       0.10 | *
    |     1431 |        - |      100 |      100 |       0.10 | *
    |     1434 |        - |       99 |       99 |       0.10 | *
    |     1481 |        - |       98 |       98 |       0.10 | *
    |     1514 |        - |       97 |       97 |       0.10 | *
    |     1522 |        - |       96 |       96 |       0.10 | *
    |     1606 |        - |       95 |       95 |       0.11 | *
    |     1728 |        - |       94 |       94 |       0.11 | *
    |     1887 |        - |       93 |       93 |       0.11 | *
    |     1963 |        - |       92 |       92 |       0.11 | *
    |     2023 |        - |       91 |       91 |       0.11 | *
    |     2111 |        - |       90 |       90 |       0.11 | *
    |     2134 |        - |       89 |       89 |       0.11 | *
    |     2152 |        - |       88 |       88 |       0.11 | *
    |     2202 |        - |       87 |       87 |       0.11 | *
    |     2208 |        - |       86 |       86 |       0.11 | *
    |     2273 |        - |       84 |       84 |       0.11 | *
    |     2323 |        - |       83 |       83 |       0.11 | *
    |     2353 |        - |       82 |       82 |       0.11 | *
    |     2483 |        - |       81 |       81 |       0.11 | *
    |     2516 |        - |       80 |       80 |       0.11 | *
    |     2570 |        - |       79 |       79 |       0.12 | *
    |     2764 |        - |       78 |       78 |       0.12 | *
    |     2935 |        - |       77 |       77 |       0.12 | *
    |     3094 |        - |       76 |       76 |       0.12 | *
    |     3295 |        - |       75 |       75 |       0.12 | *
    |     3486 |        - |       74 |       74 |       0.12 | *
    |     3847 |        - |       73 |       73 |       0.12 | *
    |     4114 |        - |       72 |       72 |       0.13 | *
    |     4256 |        - |       71 |       71 |       0.13 | *
    |     4278 |        - |       70 |       70 |       0.13 | *
    |     4281 |        - |       69 |       69 |       0.13 | *
    |     4310 |        - |       68 |       68 |       0.13 | *
    |     4322 |        - |       67 |       67 |       0.13 | *
    |     4419 |        - |       66 |       66 |       0.13 | *
    |     4761 |        - |       65 |       65 |       0.13 | *
    |     4816 |        - |       64 |       64 |       0.14 | *
    |     4993 |        - |       63 |       63 |       0.14 | *
    |     5036 |        - |       62 |       62 |       0.14 | *
    |     5049 |        - |       61 |       61 |       0.14 | *
    |     5414 |        - |       60 |       60 |       0.14 | *
    |     5624 |        - |       59 |       59 |       0.14 | *
    |     5659 |        - |       58 |       58 |       0.14 | *
    |     5794 |        - |       57 |       57 |       0.14 | *
    |     5978 |        - |       56 |       56 |       0.14 | *
    |     6256 |        - |       55 |       55 |       0.15 | *
    |     6382 |        - |       54 |       54 |       0.15 | *
    |     6900 |        - |       53 |       53 |       0.15 | *
    |     7019 |        - |       52 |       52 |       0.15 | *
    |     7985 |        - |       51 |       51 |       0.15 | *
    |     8251 |        - |       50 |       50 |       0.15 | *
    |     9790 |        - |       49 |       49 |       0.16 | *
    |      11K |        - |       48 |       48 |       0.16 | *
    |      12K |        - |       47 |       47 |       0.16 | *
    |      12K |        - |       46 |       46 |       0.16 | *
    |      14K |        - |       45 |       45 |       0.17 | *
    |      15K |        - |       44 |       44 |       0.17 | *
    |      15K |        - |       43 |       43 |       0.17 | *
    |      16K |        - |       42 |       42 |       0.17 | *
    |      18K |        - |       41 |       41 |       0.18 | *
    |      22K |        - |       40 |       40 |       0.19 | *
    |      25K |        - |       39 |       39 |       0.19 | *
    |      25K |        - |       38 |       38 |       0.19 | *
    |      31K |        - |       37 |       37 |       0.20 | *
    |      34K |        - |       36 |       36 |       0.21 | *
    |      50K |        - |       35 |       35 |       0.24 | *
    |      57K |        - |       34 |       34 |       0.25 | *
    |      64K |        - |       33 |       33 |       0.27 | *
    |      64K |        - |       32 |       32 |       0.27 | *
    |      93K |        - |       31 |       31 |       0.30 | *
    |      98K |        - |       30 |       30 |       0.31 | *
    |     107K |        - |       29 |       29 |       0.32 | *
    |     818K |        - |       28 |       28 |       1.25 | *
    |    2319K |        - |       27 |       27 |       2.18 | *
    |      13M |        - |       26 |       26 |       9.34 | *
    |     244M |        - |       25 |       25 |     149.21 | *
    |     432M |        - |       24 |       24 |     263.39 | *
    |     882M |        - |       23 |       23 |     538.17 | *
    \--------------------------------------------------------/

Neighborhoods statistics (values in %):

    /----------------------------------------------------------------\
    | Move               | Improvs. | Sideways |  Accepts |  Rejects |
    |--------------------|----------|----------|----------|----------|
    | Shift(mk)          |    1404K |      11M |      14M |     235M |
    | Shift              |      49K |      76M |      77M |     172M |
    | ShiftSmart(mk)     |    2566K |      23M |      26M |     222M |
    | ShiftSmart         |      89K |     107M |     108M |     141M |
    | SimpSwap(mk)       |      11K |      37K |      54K |     249M |
    | SimpSwap           |      795 |     130K |     141K |     249M |
    | SimpSwapSmart(mk)  |      29K |      94K |     138K |     249M |
    | SimpSwapSmart      |     2041 |     322K |     351K |     249M |
    | Swap(mk)           |      10K |      32K |      47K |     249M |
    | Swap               |      675 |     124K |     134K |     249M |
    | SwapSmart(mk)      |      22K |      84K |     116K |     249M |
    | SwapSmart          |     1454 |     272K |     289K |     249M |
    | Switch(mk)         |     787K |      89M |      90M |     159M |
    | Switch             |      28K |     120M |     121M |     129M |
    | SwitchSmart(mk)    |    1545K |      11M |      14M |     235M |
    | SwitchSmart        |      54K |      75M |      76M |     173M |
    | TaskMove(mk)       |      61K |     215K |     301K |     249M |
    | TaskMove           |     2150 |     389K |     420K |     249M |
    | TaskMoveSmart(mk)  |     116K |     497K |     662K |     249M |
    | TaskMoveSmart      |     4056 |     855K |     914K |     248M |
    | 2-Shift(mk)        |    1022K |      59M |      61M |     188M |
    | 2-Shift            |      36K |      98M |      99M |     150M |
    | 2-ShiftSmart(mk)   |    1840K |     106M |     108M |     140M |
    | 2-ShiftSmart       |      64K |     133M |     134M |     116M |
    \----------------------------------------------------------------/

Best makespan.....: 23
N. of Iterations..: 5978787813
Total runtime.....: 3600.02s
Using Python-MIP package version 1.6.8
Começo a execução
    /-------------------------------------------------------------------------------\
    |    Makespan   |   Free Jobs   | Free Machines |    It. Time   |   Total Time  | 
    |-------------------------------------------------------------------------------|
    \-------------------------------------------------------------------------------/
Terminou a execução
