Instance....: instances/I_100_30_S_1-99_1.txt
Algorithm...: Simulated Annealing (alpha=0.990, saMax=10M, t0=1)
Other params: maxIters=100M, seed=-1, timeLimit=3600.00s

    /--------------------------------------------------------\
    |     Iter |   RDP(%) |       S* |       S' |       Time | 
    |----------|----------|----------|----------|------------|
    |        0 |        - |      741 |      741 |       0.00 | s0
    |        0 |        - |      691 |      691 |       0.00 | *
    |        2 |        - |      667 |      667 |       0.01 | *
    |        3 |        - |      643 |      643 |       0.01 | *
    |        5 |        - |      640 |      640 |       0.01 | *
    |        6 |        - |      637 |      637 |       0.01 | *
    |        7 |        - |      633 |      633 |       0.01 | *
    |       11 |        - |      614 |      614 |       0.03 | *
    |       12 |        - |      601 |      601 |       0.03 | *
    |       13 |        - |      595 |      595 |       0.03 | *
    |       25 |        - |      517 |      517 |       0.03 | *
    |       26 |        - |      514 |      514 |       0.03 | *
    |       30 |        - |      511 |      511 |       0.03 | *
    |       36 |        - |      497 |      497 |       0.03 | *
    |       40 |        - |      493 |      493 |       0.03 | *
    |       42 |        - |      492 |      492 |       0.03 | *
    |       43 |        - |      484 |      484 |       0.03 | *
    |       47 |        - |      478 |      478 |       0.04 | *
    |       48 |        - |      477 |      477 |       0.04 | *
    |       51 |        - |      453 |      453 |       0.04 | *
    |       55 |        - |      448 |      448 |       0.04 | *
    |       56 |        - |      447 |      447 |       0.04 | *
    |       62 |        - |      437 |      437 |       0.04 | *
    |       70 |        - |      435 |      435 |       0.04 | *
    |       79 |        - |      430 |      430 |       0.04 | *
    |       97 |        - |      418 |      418 |       0.04 | *
    |      137 |        - |      407 |      407 |       0.04 | *
    |      138 |        - |      402 |      402 |       0.04 | *
    |      149 |        - |      389 |      389 |       0.04 | *
    |      156 |        - |      387 |      387 |       0.04 | *
    |      168 |        - |      383 |      383 |       0.04 | *
    |      185 |        - |      382 |      382 |       0.04 | *
    |      186 |        - |      381 |      381 |       0.05 | *
    |      188 |        - |      380 |      380 |       0.05 | *
    |      193 |        - |      379 |      379 |       0.05 | *
    |      196 |        - |      378 |      378 |       0.05 | *
    |      197 |        - |      357 |      357 |       0.05 | *
    |      206 |        - |      355 |      355 |       0.05 | *
    |      239 |        - |      353 |      353 |       0.05 | *
    |      254 |        - |      352 |      352 |       0.05 | *
    |      256 |        - |      348 |      348 |       0.05 | *
    |      258 |        - |      337 |      337 |       0.05 | *
    |      261 |        - |      329 |      329 |       0.05 | *
    |      287 |        - |      327 |      327 |       0.06 | *
    |      297 |        - |      323 |      323 |       0.06 | *
    |      300 |        - |      321 |      321 |       0.06 | *
    |      304 |        - |      316 |      316 |       0.06 | *
    |      307 |        - |      315 |      315 |       0.06 | *
    |      321 |        - |      313 |      313 |       0.06 | *
    |      339 |        - |      305 |      305 |       0.06 | *
    |      343 |        - |      298 |      298 |       0.06 | *
    |      348 |        - |      297 |      297 |       0.06 | *
    |      349 |        - |      290 |      290 |       0.06 | *
    |      351 |        - |      283 |      283 |       0.06 | *
    |      353 |        - |      282 |      282 |       0.06 | *
    |      354 |        - |      280 |      280 |       0.06 | *
    |      356 |        - |      278 |      278 |       0.06 | *
    |      357 |        - |      268 |      268 |       0.06 | *
    |      393 |        - |      267 |      267 |       0.06 | *
    |      444 |        - |      265 |      265 |       0.06 | *
    |      448 |        - |      264 |      264 |       0.06 | *
    |      572 |        - |      260 |      260 |       0.07 | *
    |      574 |        - |      256 |      256 |       0.07 | *
    |      606 |        - |      253 |      253 |       0.07 | *
    |      618 |        - |      251 |      251 |       0.07 | *
    |      620 |        - |      247 |      247 |       0.07 | *
    |      623 |        - |      242 |      242 |       0.07 | *
    |      647 |        - |      238 |      238 |       0.07 | *
    |      649 |        - |      233 |      233 |       0.07 | *
    |      652 |        - |      232 |      232 |       0.07 | *
    |      656 |        - |      231 |      231 |       0.07 | *
    |      661 |        - |      229 |      229 |       0.07 | *
    |      665 |        - |      227 |      227 |       0.07 | *
    |      672 |        - |      226 |      226 |       0.07 | *
    |      686 |        - |      224 |      224 |       0.07 | *
    |      719 |        - |      223 |      223 |       0.07 | *
    |      763 |        - |      220 |      220 |       0.07 | *
    |      775 |        - |      214 |      214 |       0.08 | *
    |      778 |        - |      213 |      213 |       0.08 | *
    |      801 |        - |      212 |      212 |       0.08 | *
    |      810 |        - |      211 |      211 |       0.08 | *
    |      855 |        - |      210 |      210 |       0.08 | *
    |      868 |        - |      208 |      208 |       0.08 | *
    |      985 |        - |      206 |      206 |       0.08 | *
    |      986 |        - |      201 |      201 |       0.08 | *
    |      990 |        - |      200 |      200 |       0.08 | *
    |     1064 |        - |      199 |      199 |       0.08 | *
    |     1090 |        - |      198 |      198 |       0.08 | *
    |     1111 |        - |      195 |      195 |       0.08 | *
    |     1168 |        - |      193 |      193 |       0.08 | *
    |     1192 |        - |      192 |      192 |       0.08 | *
    |     1213 |        - |      190 |      190 |       0.09 | *
    |     1233 |        - |      189 |      189 |       0.09 | *
    |     1283 |        - |      187 |      187 |       0.09 | *
    |     1352 |        - |      186 |      186 |       0.09 | *
    |     1364 |        - |      184 |      184 |       0.09 | *
    |     1391 |        - |      183 |      183 |       0.09 | *
    |     1440 |        - |      182 |      182 |       0.09 | *
    |     1451 |        - |      180 |      180 |       0.09 | *
    |     1559 |        - |      176 |      176 |       0.09 | *
    |     1563 |        - |      175 |      175 |       0.09 | *
    |     1593 |        - |      174 |      174 |       0.09 | *
    |     1690 |        - |      172 |      172 |       0.09 | *
    |     1696 |        - |      171 |      171 |       0.09 | *
    |     1975 |        - |      170 |      170 |       0.09 | *
    |     2036 |        - |      168 |      168 |       0.09 | *
    |     2041 |        - |      167 |      167 |       0.10 | *
    |     2082 |        - |      166 |      166 |       0.10 | *
    |     2387 |        - |      165 |      165 |       0.10 | *
    |     2465 |        - |      164 |      164 |       0.10 | *
    |     2490 |        - |      163 |      163 |       0.10 | *
    |     2577 |        - |      162 |      162 |       0.10 | *
    |     2588 |        - |      160 |      160 |       0.10 | *
    |     2632 |        - |      158 |      158 |       0.10 | *
    |     2835 |        - |      157 |      157 |       0.10 | *
    |     2990 |        - |      155 |      155 |       0.10 | *
    |     3017 |        - |      154 |      154 |       0.10 | *
    |     3037 |        - |      153 |      153 |       0.11 | *
    |     3074 |        - |      152 |      152 |       0.11 | *
    |     3165 |        - |      151 |      151 |       0.11 | *
    |     3321 |        - |      147 |      147 |       0.11 | *
    |     3399 |        - |      145 |      145 |       0.11 | *
    |     3470 |        - |      144 |      144 |       0.11 | *
    |     3481 |        - |      142 |      142 |       0.11 | *
    |     3598 |        - |      141 |      141 |       0.11 | *
    |     3785 |        - |      140 |      140 |       0.11 | *
    |     4282 |        - |      139 |      139 |       0.12 | *
    |     4291 |        - |      137 |      137 |       0.12 | *
    |     4306 |        - |      136 |      136 |       0.12 | *
    |     4951 |        - |      135 |      135 |       0.12 | *
    |     5119 |        - |      134 |      134 |       0.12 | *
    |     5503 |        - |      133 |      133 |       0.12 | *
    |     5508 |        - |      130 |      130 |       0.12 | *
    |     6032 |        - |      129 |      129 |       0.12 | *
    |     6303 |        - |      128 |      128 |       0.13 | *
    |     6457 |        - |      127 |      127 |       0.13 | *
    |     6893 |        - |      126 |      126 |       0.13 | *
    |     7377 |        - |      124 |      124 |       0.13 | *
    |     7603 |        - |      123 |      123 |       0.13 | *
    |     7736 |        - |      121 |      121 |       0.13 | *
    |     7970 |        - |      120 |      120 |       0.13 | *
    |     8053 |        - |      119 |      119 |       0.13 | *
    |     8236 |        - |      118 |      118 |       0.13 | *
    |     9698 |        - |      116 |      116 |       0.13 | *
    |      10K |        - |      114 |      114 |       0.14 | *
    |      10K |        - |      112 |      112 |       0.14 | *
    |      10K |        - |      111 |      111 |       0.14 | *
    |      11K |        - |      110 |      110 |       0.14 | *
    |      11K |        - |      108 |      108 |       0.14 | *
    |      11K |        - |      106 |      106 |       0.14 | *
    |      11K |        - |      105 |      105 |       0.14 | *
    |      11K |        - |      104 |      104 |       0.14 | *
    |      11K |        - |      103 |      103 |       0.14 | *
    |      11K |        - |      102 |      102 |       0.14 | *
    |      12K |        - |      101 |      101 |       0.15 | *
    |      13K |        - |      100 |      100 |       0.15 | *
    |      13K |        - |       99 |       99 |       0.15 | *
    |      14K |        - |       98 |       98 |       0.15 | *
    |      15K |        - |       97 |       97 |       0.15 | *
    |      16K |        - |       96 |       96 |       0.16 | *
    |      18K |        - |       95 |       95 |       0.16 | *
    |      18K |        - |       94 |       94 |       0.16 | *
    |      21K |        - |       93 |       93 |       0.17 | *
    |      21K |        - |       92 |       92 |       0.17 | *
    |      21K |        - |       90 |       90 |       0.17 | *
    |      21K |        - |       89 |       89 |       0.17 | *
    |      27K |        - |       88 |       88 |       0.18 | *
    |      28K |        - |       87 |       87 |       0.18 | *
    |      38K |        - |       86 |       86 |       0.20 | *
    |      43K |        - |       85 |       85 |       0.21 | *
    |      43K |        - |       84 |       84 |       0.21 | *
    |      46K |        - |       83 |       83 |       0.21 | *
    |      46K |        - |       82 |       82 |       0.21 | *
    |      57K |        - |       81 |       81 |       0.22 | *
    |      57K |        - |       80 |       80 |       0.22 | *
    |      62K |        - |       79 |       79 |       0.23 | *
    |      62K |        - |       78 |       78 |       0.23 | *
    |      63K |        - |       77 |       77 |       0.23 | *
    |      64K |        - |       76 |       76 |       0.23 | *
    |      64K |        - |       75 |       75 |       0.23 | *
    |      67K |        - |       74 |       74 |       0.24 | *
    |      70K |        - |       73 |       73 |       0.24 | *
    |      76K |        - |       72 |       72 |       0.24 | *
    |      90K |        - |       71 |       71 |       0.26 | *
    |      91K |        - |       70 |       70 |       0.26 | *
    |      93K |        - |       69 |       69 |       0.26 | *
    |     100K |        - |       68 |       68 |       0.26 | *
    |     100K |        - |       67 |       67 |       0.26 | *
    |     109K |        - |       66 |       66 |       0.27 | *
    |     111K |        - |       65 |       65 |       0.28 | *
    |     181K |        - |       64 |       64 |       0.41 | *
    |     181K |        - |       63 |       63 |       0.41 | *
    |     202K |        - |       62 |       62 |       0.46 | *
    |     344K |        - |       61 |       61 |       0.74 | *
    |     355K |        - |       60 |       60 |       0.75 | *
    |     368K |        - |       59 |       59 |       0.77 | *
    |     391K |        - |       58 |       58 |       0.79 | *
    |     455K |        - |       57 |       57 |       0.84 | *
    |     458K |        - |       56 |       56 |       0.85 | *
    |     459K |        - |       55 |       55 |       0.85 | *
    |     461K |        - |       54 |       54 |       0.85 | *
    |     503K |        - |       53 |       53 |       0.89 | *
    |     550K |        - |       52 |       52 |       0.95 | *
    |     700K |        - |       51 |       51 |       1.12 | *
    |     930K |        - |       50 |       50 |       1.36 | *
    |    1064K |        - |       49 |       49 |       1.49 | *
    |    1366K |        - |       48 |       48 |       1.72 | *
    |    2105K |        - |       47 |       47 |       2.43 | *
    |    2137K |        - |       46 |       46 |       2.46 | *
    |    2973K |        - |       45 |       45 |       3.35 | *
    |    2991K |        - |       44 |       44 |       3.37 | *
    |    3001K |        - |       43 |       43 |       3.38 | *
    |      47M |        - |       42 |       42 |      32.04 | *
    |     225M |        - |       41 |       41 |     143.41 | *
    |     455M |        - |       40 |       40 |     286.67 | *
    \--------------------------------------------------------/

Neighborhoods statistics (values in %):

    /----------------------------------------------------------------\
    | Move               | Improvs. | Sideways |  Accepts |  Rejects |
    |--------------------|----------|----------|----------|----------|
    | Shift(mk)          |      75K |     128K |     235K |     243M |
    | Shift              |     2495 |      16M |      16M |     227M |
    | ShiftSmart(mk)     |     147K |     217K |     428K |     243M |
    | ShiftSmart         |     5142 |      19M |      19M |     224M |
    | SimpSwap(mk)       |      727 |     1107 |     2001 |     243M |
    | SimpSwap           |       49 |     9249 |     9892 |     243M |
    | SimpSwapSmart(mk)  |     1431 |     2623 |     4437 |     244M |
    | SimpSwapSmart      |      124 |      20K |      21K |     243M |
    | Swap(mk)           |      494 |     1379 |     1998 |     243M |
    | Swap               |       34 |     7730 |     8178 |     244M |
    | SwapSmart(mk)      |     2192 |     7384 |      10K |     243M |
    | SwapSmart          |      140 |      28K |      30K |     243M |
    | Switch(mk)         |      33K |      63M |      63M |     180M |
    | Switch             |     1171 |      85M |      85M |     159M |
    | SwitchSmart(mk)    |      85K |     124K |     265K |     243M |
    | SwitchSmart        |     2854 |      14M |      14M |     229M |
    | TaskMove(mk)       |     4384 |      10K |      16K |     243M |
    | TaskMove           |      139 |      33K |      36K |     244M |
    | TaskMoveSmart(mk)  |      13K |      31K |      49K |     243M |
    | TaskMoveSmart      |      512 |     102K |     111K |     243M |
    | 2-Shift(mk)        |      59K |      23M |      23M |     220M |
    | 2-Shift            |     1912 |      54M |      54M |     190M |
    | 2-ShiftSmart(mk)   |     116K |      25M |      25M |     218M |
    | 2-ShiftSmart       |     4006 |      76M |      76M |     168M |
    \----------------------------------------------------------------/

Best makespan.....: 40
N. of Iterations..: 5840396459
Total runtime.....: 3600.02s
Using Python-MIP package version 1.6.8
Começo a execução
    /-------------------------------------------------------------------------------\
    |    Makespan   |   Free Jobs   | Free Machines |    It. Time   |   Total Time  | 
    |-------------------------------------------------------------------------------|
    \-------------------------------------------------------------------------------/
Terminou a execução
