Instance....: instances/I_100_25_S_1-99_2.txt
Algorithm...: Simulated Annealing (alpha=0.990, saMax=10M, t0=1)
Other params: maxIters=100M, seed=-1, timeLimit=3600.00s

    /--------------------------------------------------------\
    |     Iter |   RDP(%) |       S* |       S' |       Time | 
    |----------|----------|----------|----------|------------|
    |        0 |        - |      930 |      930 |       0.00 | s0
    |        0 |        - |      831 |      831 |       0.00 | *
    |        2 |        - |      825 |      825 |       0.01 | *
    |        4 |        - |      821 |      821 |       0.01 | *
    |        5 |        - |      799 |      799 |       0.01 | *
    |        8 |        - |      792 |      792 |       0.02 | *
    |       13 |        - |      760 |      760 |       0.03 | *
    |       27 |        - |      737 |      737 |       0.03 | *
    |       33 |        - |      712 |      712 |       0.03 | *
    |       34 |        - |      681 |      681 |       0.03 | *
    |       38 |        - |      671 |      671 |       0.03 | *
    |       40 |        - |      643 |      643 |       0.03 | *
    |       42 |        - |      632 |      632 |       0.03 | *
    |       43 |        - |      609 |      609 |       0.03 | *
    |       46 |        - |      601 |      601 |       0.03 | *
    |       50 |        - |      585 |      585 |       0.03 | *
    |       55 |        - |      558 |      558 |       0.04 | *
    |       58 |        - |      555 |      555 |       0.04 | *
    |       59 |        - |      534 |      534 |       0.04 | *
    |       81 |        - |      531 |      531 |       0.04 | *
    |       88 |        - |      521 |      521 |       0.04 | *
    |       90 |        - |      509 |      509 |       0.04 | *
    |       91 |        - |      503 |      503 |       0.04 | *
    |       92 |        - |      499 |      499 |       0.04 | *
    |      102 |        - |      489 |      489 |       0.04 | *
    |      103 |        - |      487 |      487 |       0.04 | *
    |      108 |        - |      477 |      477 |       0.04 | *
    |      113 |        - |      475 |      475 |       0.04 | *
    |      117 |        - |      468 |      468 |       0.04 | *
    |      121 |        - |      456 |      456 |       0.04 | *
    |      122 |        - |      446 |      446 |       0.04 | *
    |      124 |        - |      437 |      437 |       0.04 | *
    |      133 |        - |      429 |      429 |       0.04 | *
    |      134 |        - |      424 |      424 |       0.05 | *
    |      149 |        - |      418 |      418 |       0.05 | *
    |      188 |        - |      412 |      412 |       0.05 | *
    |      189 |        - |      410 |      410 |       0.05 | *
    |      192 |        - |      408 |      408 |       0.05 | *
    |      209 |        - |      405 |      405 |       0.05 | *
    |      212 |        - |      395 |      395 |       0.05 | *
    |      215 |        - |      394 |      394 |       0.05 | *
    |      236 |        - |      390 |      390 |       0.05 | *
    |      237 |        - |      384 |      384 |       0.05 | *
    |      238 |        - |      377 |      377 |       0.05 | *
    |      249 |        - |      368 |      368 |       0.05 | *
    |      255 |        - |      365 |      365 |       0.05 | *
    |      272 |        - |      361 |      361 |       0.05 | *
    |      284 |        - |      360 |      360 |       0.05 | *
    |      311 |        - |      358 |      358 |       0.06 | *
    |      325 |        - |      356 |      356 |       0.06 | *
    |      331 |        - |      350 |      350 |       0.06 | *
    |      345 |        - |      335 |      335 |       0.06 | *
    |      360 |        - |      333 |      333 |       0.06 | *
    |      388 |        - |      331 |      331 |       0.06 | *
    |      389 |        - |      323 |      323 |       0.06 | *
    |      394 |        - |      320 |      320 |       0.06 | *
    |      395 |        - |      317 |      317 |       0.06 | *
    |      474 |        - |      309 |      309 |       0.06 | *
    |      484 |        - |      308 |      308 |       0.06 | *
    |      486 |        - |      304 |      304 |       0.06 | *
    |      489 |        - |      303 |      303 |       0.06 | *
    |      540 |        - |      302 |      302 |       0.06 | *
    |      568 |        - |      301 |      301 |       0.06 | *
    |      576 |        - |      297 |      297 |       0.07 | *
    |      578 |        - |      295 |      295 |       0.07 | *
    |      579 |        - |      294 |      294 |       0.07 | *
    |      588 |        - |      290 |      290 |       0.07 | *
    |      590 |        - |      286 |      286 |       0.07 | *
    |      623 |        - |      285 |      285 |       0.07 | *
    |      675 |        - |      284 |      284 |       0.07 | *
    |      698 |        - |      282 |      282 |       0.07 | *
    |      740 |        - |      277 |      277 |       0.07 | *
    |      756 |        - |      276 |      276 |       0.07 | *
    |      878 |        - |      274 |      274 |       0.07 | *
    |      917 |        - |      271 |      271 |       0.07 | *
    |      921 |        - |      270 |      270 |       0.07 | *
    |      925 |        - |      268 |      268 |       0.07 | *
    |      943 |        - |      264 |      264 |       0.07 | *
    |      947 |        - |      263 |      263 |       0.07 | *
    |      950 |        - |      261 |      261 |       0.07 | *
    |      952 |        - |      256 |      256 |       0.08 | *
    |     1038 |        - |      255 |      255 |       0.08 | *
    |     1047 |        - |      254 |      254 |       0.08 | *
    |     1098 |        - |      252 |      252 |       0.08 | *
    |     1102 |        - |      250 |      250 |       0.08 | *
    |     1105 |        - |      247 |      247 |       0.08 | *
    |     1128 |        - |      245 |      245 |       0.08 | *
    |     1129 |        - |      244 |      244 |       0.08 | *
    |     1138 |        - |      242 |      242 |       0.08 | *
    |     1170 |        - |      241 |      241 |       0.08 | *
    |     1199 |        - |      240 |      240 |       0.08 | *
    |     1236 |        - |      239 |      239 |       0.08 | *
    |     1242 |        - |      234 |      234 |       0.08 | *
    |     1259 |        - |      221 |      221 |       0.08 | *
    |     1292 |        - |      219 |      219 |       0.08 | *
    |     1322 |        - |      218 |      218 |       0.08 | *
    |     1377 |        - |      216 |      216 |       0.08 | *
    |     1383 |        - |      215 |      215 |       0.09 | *
    |     1476 |        - |      214 |      214 |       0.09 | *
    |     1522 |        - |      213 |      213 |       0.09 | *
    |     1530 |        - |      209 |      209 |       0.09 | *
    |     1545 |        - |      208 |      208 |       0.09 | *
    |     1547 |        - |      205 |      205 |       0.09 | *
    |     1655 |        - |      203 |      203 |       0.09 | *
    |     1705 |        - |      202 |      202 |       0.09 | *
    |     1731 |        - |      201 |      201 |       0.09 | *
    |     1929 |        - |      199 |      199 |       0.09 | *
    |     1962 |        - |      198 |      198 |       0.09 | *
    |     1995 |        - |      196 |      196 |       0.10 | *
    |     2020 |        - |      195 |      195 |       0.10 | *
    |     2021 |        - |      192 |      192 |       0.10 | *
    |     2023 |        - |      191 |      191 |       0.10 | *
    |     2037 |        - |      189 |      189 |       0.10 | *
    |     2049 |        - |      183 |      183 |       0.10 | *
    |     2063 |        - |      182 |      182 |       0.10 | *
    |     2319 |        - |      180 |      180 |       0.10 | *
    |     2385 |        - |      179 |      179 |       0.10 | *
    |     2544 |        - |      178 |      178 |       0.10 | *
    |     2550 |        - |      176 |      176 |       0.10 | *
    |     2566 |        - |      174 |      174 |       0.10 | *
    |     2571 |        - |      172 |      172 |       0.10 | *
    |     2689 |        - |      170 |      170 |       0.11 | *
    |     2702 |        - |      169 |      169 |       0.11 | *
    |     2707 |        - |      168 |      168 |       0.11 | *
    |     2711 |        - |      166 |      166 |       0.11 | *
    |     2723 |        - |      164 |      164 |       0.11 | *
    |     3439 |        - |      162 |      162 |       0.11 | *
    |     3649 |        - |      161 |      161 |       0.12 | *
    |     3728 |        - |      160 |      160 |       0.12 | *
    |     3774 |        - |      159 |      159 |       0.12 | *
    |     3925 |        - |      156 |      156 |       0.12 | *
    |     4691 |        - |      155 |      155 |       0.13 | *
    |     4767 |        - |      154 |      154 |       0.13 | *
    |     4774 |        - |      153 |      153 |       0.13 | *
    |     4797 |        - |      152 |      152 |       0.13 | *
    |     4953 |        - |      151 |      151 |       0.13 | *
    |     5214 |        - |      148 |      148 |       0.13 | *
    |     5235 |        - |      146 |      146 |       0.13 | *
    |     5242 |        - |      145 |      145 |       0.13 | *
    |     5668 |        - |      144 |      144 |       0.13 | *
    |     6694 |        - |      143 |      143 |       0.14 | *
    |     7167 |        - |      141 |      141 |       0.14 | *
    |     7233 |        - |      139 |      139 |       0.14 | *
    |     7234 |        - |      138 |      138 |       0.14 | *
    |     7309 |        - |      137 |      137 |       0.14 | *
    |     7311 |        - |      136 |      136 |       0.14 | *
    |     7343 |        - |      135 |      135 |       0.14 | *
    |     8916 |        - |      133 |      133 |       0.15 | *
    |      10K |        - |      132 |      132 |       0.15 | *
    |      10K |        - |      131 |      131 |       0.15 | *
    |      10K |        - |      130 |      130 |       0.15 | *
    |      11K |        - |      129 |      129 |       0.15 | *
    |      11K |        - |      126 |      126 |       0.15 | *
    |      12K |        - |      125 |      125 |       0.16 | *
    |      12K |        - |      124 |      124 |       0.16 | *
    |      14K |        - |      121 |      121 |       0.16 | *
    |      14K |        - |      119 |      119 |       0.16 | *
    |      14K |        - |      118 |      118 |       0.17 | *
    |      14K |        - |      117 |      117 |       0.17 | *
    |      15K |        - |      116 |      116 |       0.17 | *
    |      16K |        - |      115 |      115 |       0.17 | *
    |      16K |        - |      114 |      114 |       0.17 | *
    |      18K |        - |      113 |      113 |       0.18 | *
    |      18K |        - |      112 |      112 |       0.18 | *
    |      18K |        - |      111 |      111 |       0.18 | *
    |      19K |        - |      110 |      110 |       0.18 | *
    |      19K |        - |      109 |      109 |       0.18 | *
    |      19K |        - |      108 |      108 |       0.18 | *
    |      21K |        - |      107 |      107 |       0.19 | *
    |      25K |        - |      106 |      106 |       0.19 | *
    |      26K |        - |      104 |      104 |       0.19 | *
    |      39K |        - |      103 |      103 |       0.22 | *
    |      40K |        - |      102 |      102 |       0.22 | *
    |      47K |        - |      101 |      101 |       0.23 | *
    |      47K |        - |      100 |      100 |       0.23 | *
    |      50K |        - |       99 |       99 |       0.24 | *
    |      51K |        - |       98 |       98 |       0.24 | *
    |      53K |        - |       97 |       97 |       0.25 | *
    |      53K |        - |       96 |       96 |       0.25 | *
    |      59K |        - |       95 |       95 |       0.26 | *
    |      60K |        - |       94 |       94 |       0.26 | *
    |      62K |        - |       93 |       93 |       0.26 | *
    |      64K |        - |       92 |       92 |       0.27 | *
    |      65K |        - |       91 |       91 |       0.27 | *
    |      72K |        - |       90 |       90 |       0.28 | *
    |      78K |        - |       89 |       89 |       0.29 | *
    |      90K |        - |       88 |       88 |       0.29 | *
    |      95K |        - |       87 |       87 |       0.30 | *
    |     101K |        - |       86 |       86 |       0.30 | *
    |     105K |        - |       85 |       85 |       0.31 | *
    |     109K |        - |       84 |       84 |       0.31 | *
    |     121K |        - |       83 |       83 |       0.33 | *
    |     136K |        - |       82 |       82 |       0.35 | *
    |     136K |        - |       81 |       81 |       0.35 | *
    |     136K |        - |       80 |       80 |       0.35 | *
    |     189K |        - |       79 |       79 |       0.47 | *
    |     217K |        - |       78 |       78 |       0.53 | *
    |     260K |        - |       77 |       77 |       0.62 | *
    |     307K |        - |       76 |       76 |       0.72 | *
    |     312K |        - |       75 |       75 |       0.72 | *
    |     331K |        - |       74 |       74 |       0.75 | *
    |     347K |        - |       73 |       73 |       0.77 | *
    |     380K |        - |       71 |       71 |       0.82 | *
    |     380K |        - |       70 |       70 |       0.82 | *
    |     430K |        - |       68 |       68 |       0.88 | *
    |     496K |        - |       67 |       67 |       0.98 | *
    |     541K |        - |       66 |       66 |       1.04 | *
    |    2097K |        - |       65 |       65 |       2.32 | *
    |    2124K |        - |       64 |       64 |       2.33 | *
    |    2148K |        - |       63 |       63 |       2.35 | *
    |      11M |        - |       62 |       62 |      10.17 | *
    |      11M |        - |       61 |       61 |      10.18 | *
    |      12M |        - |       60 |       60 |      10.32 | *
    |      58M |        - |       59 |       59 |      41.13 | *
    |      67M |        - |       58 |       58 |      46.99 | *
    |      96M |        - |       57 |       57 |      65.38 | *
    |     110M |        - |       56 |       56 |      74.36 | *
    |     555M |        - |       55 |       55 |     360.85 | *
    \--------------------------------------------------------/

Neighborhoods statistics (values in %):

    /----------------------------------------------------------------\
    | Move               | Improvs. | Sideways |  Accepts |  Rejects |
    |--------------------|----------|----------|----------|----------|
    | Shift(mk)          |      41K |      57K |     105K |     242M |
    | Shift              |     1656 |    2891K |    2929K |     239M |
    | ShiftSmart(mk)     |      98K |     145K |     263K |     242M |
    | ShiftSmart         |     3973 |    5778K |    5866K |     236M |
    | SimpSwap(mk)       |      435 |      630 |     1172 |     242M |
    | SimpSwap           |       45 |      14K |      15K |     242M |
    | SimpSwapSmart(mk)  |     1338 |     1694 |     3370 |     242M |
    | SimpSwapSmart      |      114 |      38K |      40K |     242M |
    | Swap(mk)           |      222 |      360 |      640 |     242M |
    | Swap               |       14 |      12K |      12K |     242M |
    | SwapSmart(mk)      |     1680 |     2673 |     4895 |     242M |
    | SwapSmart          |      143 |      77K |      79K |     242M |
    | Switch(mk)         |     9982 |      50M |      50M |     192M |
    | Switch             |      408 |      65M |      65M |     177M |
    | SwitchSmart(mk)    |      25K |      58K |      89K |     242M |
    | SwitchSmart        |      949 |     610K |     633K |     241M |
    | TaskMove(mk)       |     2371 |      29K |      32K |     242M |
    | TaskMove           |      100 |      54K |      56K |     242M |
    | TaskMoveSmart(mk)  |     8712 |      90K |     102K |     242M |
    | TaskMoveSmart      |      440 |     229K |     236K |     242M |
    | 2-Shift(mk)        |      30K |      13M |      13M |     228M |
    | 2-Shift            |     1134 |      30M |      30M |     212M |
    | 2-ShiftSmart(mk)   |      56K |      15M |      15M |     227M |
    | 2-ShiftSmart       |     2251 |      47M |      47M |     195M |
    \----------------------------------------------------------------/

Best makespan.....: 55
N. of Iterations..: 5806760092
Total runtime.....: 3600.02s
Using Python-MIP package version 1.6.8
Começo a execução
    /-------------------------------------------------------------------------------\
    |    Makespan   |   Free Jobs   | Free Machines |    It. Time   |   Total Time  | 
    |-------------------------------------------------------------------------------|
    \-------------------------------------------------------------------------------/
Terminou a execução
