Instance....: instances/I_100_15_S_1-9_1.txt
Algorithm...: Simulated Annealing (alpha=0.990, saMax=10M, t0=1)
Other params: maxIters=100M, seed=-1, timeLimit=3600.00s

    /--------------------------------------------------------\
    |     Iter |   RDP(%) |       S* |       S' |       Time | 
    |----------|----------|----------|----------|------------|
    |        0 |        - |      669 |      669 |       0.00 | s0
    |        2 |        - |      659 |      659 |       0.03 | *
    |       24 |        - |      651 |      651 |       0.03 | *
    |       29 |        - |      648 |      648 |       0.03 | *
    |       39 |        - |      646 |      646 |       0.04 | *
    |       45 |        - |      645 |      645 |       0.04 | *
    |       46 |        - |      638 |      638 |       0.04 | *
    |       47 |        - |      627 |      627 |       0.04 | *
    |       48 |        - |      623 |      623 |       0.04 | *
    |       51 |        - |      615 |      615 |       0.05 | *
    |       58 |        - |      613 |      613 |       0.05 | *
    |       63 |        - |      610 |      610 |       0.05 | *
    |       65 |        - |      608 |      608 |       0.05 | *
    |       75 |        - |      604 |      604 |       0.05 | *
    |       78 |        - |      600 |      600 |       0.05 | *
    |       83 |        - |      586 |      586 |       0.05 | *
    |       85 |        - |      578 |      578 |       0.05 | *
    |       87 |        - |      575 |      575 |       0.05 | *
    |       88 |        - |      561 |      561 |       0.06 | *
    |       95 |        - |      559 |      559 |       0.06 | *
    |      101 |        - |      555 |      555 |       0.06 | *
    |      107 |        - |      548 |      548 |       0.06 | *
    |      110 |        - |      545 |      545 |       0.06 | *
    |      115 |        - |      538 |      538 |       0.06 | *
    |      116 |        - |      528 |      528 |       0.06 | *
    |      117 |        - |      527 |      527 |       0.06 | *
    |      121 |        - |      511 |      511 |       0.06 | *
    |      123 |        - |      492 |      492 |       0.06 | *
    |      126 |        - |      491 |      491 |       0.07 | *
    |      127 |        - |      478 |      478 |       0.07 | *
    |      133 |        - |      474 |      474 |       0.07 | *
    |      138 |        - |      472 |      472 |       0.07 | *
    |      142 |        - |      471 |      471 |       0.07 | *
    |      153 |        - |      464 |      464 |       0.07 | *
    |      156 |        - |      463 |      463 |       0.07 | *
    |      162 |        - |      459 |      459 |       0.07 | *
    |      163 |        - |      456 |      456 |       0.07 | *
    |      167 |        - |      447 |      447 |       0.07 | *
    |      170 |        - |      446 |      446 |       0.08 | *
    |      176 |        - |      424 |      424 |       0.08 | *
    |      178 |        - |      421 |      421 |       0.08 | *
    |      180 |        - |      416 |      416 |       0.08 | *
    |      185 |        - |      414 |      414 |       0.08 | *
    |      194 |        - |      408 |      408 |       0.08 | *
    |      196 |        - |      406 |      406 |       0.08 | *
    |      197 |        - |      398 |      398 |       0.08 | *
    |      198 |        - |      393 |      393 |       0.08 | *
    |      200 |        - |      389 |      389 |       0.08 | *
    |      205 |        - |      386 |      386 |       0.09 | *
    |      210 |        - |      385 |      385 |       0.09 | *
    |      215 |        - |      380 |      380 |       0.09 | *
    |      218 |        - |      350 |      350 |       0.09 | *
    |      220 |        - |      339 |      339 |       0.09 | *
    |      232 |        - |      336 |      336 |       0.09 | *
    |      233 |        - |      333 |      333 |       0.09 | *
    |      234 |        - |      329 |      329 |       0.09 | *
    |      270 |        - |      321 |      321 |       0.09 | *
    |      279 |        - |      320 |      320 |       0.09 | *
    |      291 |        - |      314 |      314 |       0.10 | *
    |      299 |        - |      313 |      313 |       0.10 | *
    |      302 |        - |      306 |      306 |       0.10 | *
    |      306 |        - |      302 |      302 |       0.10 | *
    |      307 |        - |      298 |      298 |       0.10 | *
    |      312 |        - |      297 |      297 |       0.10 | *
    |      334 |        - |      296 |      296 |       0.10 | *
    |      351 |        - |      295 |      295 |       0.10 | *
    |      366 |        - |      294 |      294 |       0.10 | *
    |      376 |        - |      291 |      291 |       0.11 | *
    |      416 |        - |      287 |      287 |       0.11 | *
    |      425 |        - |      286 |      286 |       0.11 | *
    |      438 |        - |      285 |      285 |       0.11 | *
    |      446 |        - |      284 |      284 |       0.11 | *
    |      456 |        - |      282 |      282 |       0.11 | *
    |      468 |        - |      281 |      281 |       0.11 | *
    |      479 |        - |      279 |      279 |       0.11 | *
    |      525 |        - |      277 |      277 |       0.11 | *
    |      536 |        - |      275 |      275 |       0.11 | *
    |      568 |        - |      271 |      271 |       0.11 | *
    |      577 |        - |      270 |      270 |       0.12 | *
    |      585 |        - |      268 |      268 |       0.12 | *
    |      592 |        - |      266 |      266 |       0.12 | *
    |      604 |        - |      265 |      265 |       0.12 | *
    |      622 |        - |      264 |      264 |       0.12 | *
    |      684 |        - |      263 |      263 |       0.12 | *
    |      690 |        - |      262 |      262 |       0.12 | *
    |      694 |        - |      258 |      258 |       0.12 | *
    |      698 |        - |      256 |      256 |       0.12 | *
    |      726 |        - |      255 |      255 |       0.13 | *
    |      733 |        - |      251 |      251 |       0.13 | *
    |      735 |        - |      250 |      250 |       0.13 | *
    |      769 |        - |      246 |      246 |       0.13 | *
    |      772 |        - |      245 |      245 |       0.13 | *
    |      805 |        - |      238 |      238 |       0.13 | *
    |      815 |        - |      237 |      237 |       0.13 | *
    |      827 |        - |      234 |      234 |       0.13 | *
    |      833 |        - |      233 |      233 |       0.13 | *
    |      835 |        - |      232 |      232 |       0.13 | *
    |      850 |        - |      231 |      231 |       0.13 | *
    |      862 |        - |      229 |      229 |       0.13 | *
    |      894 |        - |      227 |      227 |       0.14 | *
    |      897 |        - |      226 |      226 |       0.14 | *
    |      917 |        - |      224 |      224 |       0.14 | *
    |      923 |        - |      223 |      223 |       0.14 | *
    |      939 |        - |      222 |      222 |       0.14 | *
    |      942 |        - |      220 |      220 |       0.14 | *
    |      956 |        - |      218 |      218 |       0.14 | *
    |      987 |        - |      216 |      216 |       0.14 | *
    |     1001 |        - |      213 |      213 |       0.14 | *
    |     1010 |        - |      212 |      212 |       0.14 | *
    |     1014 |        - |      211 |      211 |       0.14 | *
    |     1028 |        - |      210 |      210 |       0.15 | *
    |     1043 |        - |      209 |      209 |       0.15 | *
    |     1075 |        - |      208 |      208 |       0.15 | *
    |     1078 |        - |      206 |      206 |       0.15 | *
    |     1104 |        - |      202 |      202 |       0.15 | *
    |     1105 |        - |      201 |      201 |       0.15 | *
    |     1119 |        - |      198 |      198 |       0.15 | *
    |     1128 |        - |      192 |      192 |       0.15 | *
    |     1153 |        - |      189 |      189 |       0.15 | *
    |     1161 |        - |      187 |      187 |       0.15 | *
    |     1182 |        - |      186 |      186 |       0.15 | *
    |     1189 |        - |      185 |      185 |       0.15 | *
    |     1205 |        - |      184 |      184 |       0.16 | *
    |     1228 |        - |      182 |      182 |       0.16 | *
    |     1240 |        - |      180 |      180 |       0.16 | *
    |     1244 |        - |      176 |      176 |       0.16 | *
    |     1253 |        - |      175 |      175 |       0.16 | *
    |     1255 |        - |      174 |      174 |       0.16 | *
    |     1258 |        - |      173 |      173 |       0.16 | *
    |     1306 |        - |      172 |      172 |       0.16 | *
    |     1309 |        - |      171 |      171 |       0.16 | *
    |     1349 |        - |      170 |      170 |       0.17 | *
    |     1356 |        - |      169 |      169 |       0.17 | *
    |     1372 |        - |      168 |      168 |       0.17 | *
    |     1373 |        - |      167 |      167 |       0.17 | *
    |     1397 |        - |      166 |      166 |       0.17 | *
    |     1424 |        - |      164 |      164 |       0.17 | *
    |     1487 |        - |      162 |      162 |       0.17 | *
    |     1509 |        - |      161 |      161 |       0.17 | *
    |     1573 |        - |      158 |      158 |       0.17 | *
    |     1640 |        - |      157 |      157 |       0.17 | *
    |     1729 |        - |      156 |      156 |       0.17 | *
    |     1735 |        - |      155 |      155 |       0.18 | *
    |     1758 |        - |      153 |      153 |       0.18 | *
    |     1771 |        - |      152 |      152 |       0.18 | *
    |     1789 |        - |      151 |      151 |       0.18 | *
    |     1880 |        - |      150 |      150 |       0.18 | *
    |     1947 |        - |      149 |      149 |       0.18 | *
    |     1956 |        - |      148 |      148 |       0.18 | *
    |     1962 |        - |      147 |      147 |       0.18 | *
    |     1969 |        - |      146 |      146 |       0.18 | *
    |     2091 |        - |      145 |      145 |       0.18 | *
    |     2291 |        - |      144 |      144 |       0.18 | *
    |     2295 |        - |      143 |      143 |       0.19 | *
    |     2338 |        - |      142 |      142 |       0.19 | *
    |     2411 |        - |      141 |      141 |       0.19 | *
    |     2484 |        - |      140 |      140 |       0.19 | *
    |     2554 |        - |      139 |      139 |       0.19 | *
    |     2566 |        - |      137 |      137 |       0.19 | *
    |     2585 |        - |      136 |      136 |       0.19 | *
    |     2613 |        - |      133 |      133 |       0.19 | *
    |     2896 |        - |      131 |      131 |       0.19 | *
    |     3095 |        - |      130 |      130 |       0.20 | *
    |     3133 |        - |      129 |      129 |       0.20 | *
    |     3165 |        - |      128 |      128 |       0.20 | *
    |     3183 |        - |      127 |      127 |       0.20 | *
    |     3231 |        - |      126 |      126 |       0.20 | *
    |     3294 |        - |      125 |      125 |       0.20 | *
    |     3674 |        - |      124 |      124 |       0.20 | *
    |     3891 |        - |      123 |      123 |       0.21 | *
    |     4166 |        - |      122 |      122 |       0.21 | *
    |     4387 |        - |      121 |      121 |       0.22 | *
    |     4405 |        - |      120 |      120 |       0.22 | *
    |     4414 |        - |      119 |      119 |       0.22 | *
    |     4664 |        - |      118 |      118 |       0.22 | *
    |     4901 |        - |      117 |      117 |       0.22 | *
    |     4921 |        - |      116 |      116 |       0.22 | *
    |     4960 |        - |      115 |      115 |       0.22 | *
    |     5521 |        - |      114 |      114 |       0.23 | *
    |     5569 |        - |      113 |      113 |       0.23 | *
    |     5579 |        - |      112 |      112 |       0.23 | *
    |     5620 |        - |      110 |      110 |       0.23 | *
    |     5622 |        - |      109 |      109 |       0.23 | *
    |     5716 |        - |      108 |      108 |       0.23 | *
    |     5792 |        - |      107 |      107 |       0.23 | *
    |     5844 |        - |      106 |      106 |       0.23 | *
    |     6094 |        - |      105 |      105 |       0.23 | *
    |     6120 |        - |      104 |      104 |       0.23 | *
    |     6414 |        - |      103 |      103 |       0.24 | *
    |     6423 |        - |      102 |      102 |       0.24 | *
    |     6464 |        - |      101 |      101 |       0.24 | *
    |     6540 |        - |      100 |      100 |       0.24 | *
    |     6546 |        - |       99 |       99 |       0.24 | *
    |     6558 |        - |       98 |       98 |       0.24 | *
    |     6599 |        - |       97 |       97 |       0.24 | *
    |     6715 |        - |       96 |       96 |       0.24 | *
    |     7458 |        - |       95 |       95 |       0.24 | *
    |     7540 |        - |       94 |       94 |       0.24 | *
    |     7572 |        - |       93 |       93 |       0.25 | *
    |     7629 |        - |       92 |       92 |       0.25 | *
    |     7739 |        - |       91 |       91 |       0.25 | *
    |      11K |        - |       90 |       90 |       0.26 | *
    |      12K |        - |       89 |       89 |       0.27 | *
    |      13K |        - |       88 |       88 |       0.27 | *
    |      14K |        - |       87 |       87 |       0.27 | *
    |      14K |        - |       86 |       86 |       0.27 | *
    |      15K |        - |       85 |       85 |       0.28 | *
    |      16K |        - |       84 |       84 |       0.28 | *
    |      16K |        - |       83 |       83 |       0.28 | *
    |      17K |        - |       82 |       82 |       0.28 | *
    |      17K |        - |       81 |       81 |       0.29 | *
    |      18K |        - |       80 |       80 |       0.29 | *
    |      18K |        - |       79 |       79 |       0.29 | *
    |      18K |        - |       78 |       78 |       0.29 | *
    |      21K |        - |       77 |       77 |       0.30 | *
    |      22K |        - |       76 |       76 |       0.30 | *
    |      56K |        - |       75 |       75 |       0.36 | *
    |      56K |        - |       74 |       74 |       0.36 | *
    |      71K |        - |       73 |       73 |       0.39 | *
    |      73K |        - |       72 |       72 |       0.40 | *
    |      73K |        - |       71 |       71 |       0.40 | *
    |      84K |        - |       70 |       70 |       0.42 | *
    |     195K |        - |       69 |       69 |       0.60 | *
    |     221K |        - |       68 |       68 |       0.64 | *
    |     524K |        - |       67 |       67 |       1.28 | *
    |     525K |        - |       66 |       66 |       1.29 | *
    |    1284K |        - |       65 |       65 |       2.22 | *
    |    1329K |        - |       64 |       64 |       2.28 | *
    |      33M |        - |       63 |       63 |      26.01 | *
    |     196M |        - |       62 |       62 |     127.01 | *
    |     318M |        - |       61 |       61 |     202.63 | *
    \--------------------------------------------------------/

Neighborhoods statistics (values in %):

    /----------------------------------------------------------------\
    | Move               | Improvs. | Sideways |  Accepts |  Rejects |
    |--------------------|----------|----------|----------|----------|
    | Shift(mk)          |     833K |    4526K |    5897K |     237M |
    | Shift              |      55K |      30M |      31M |     212M |
    | ShiftSmart(mk)     |    2916K |      19M |      23M |     220M |
    | ShiftSmart         |     195K |      84M |      85M |     158M |
    | SimpSwap(mk)       |     2694 |     5868 |      10K |     243M |
    | SimpSwap           |      376 |      20K |      23K |     243M |
    | SimpSwapSmart(mk)  |      14K |      32K |      55K |     243M |
    | SimpSwapSmart      |     1931 |     100K |     118K |     243M |
    | Swap(mk)           |     1897 |     3877 |     6902 |     243M |
    | Swap               |      244 |      14K |      17K |     243M |
    | SwapSmart(mk)      |     8197 |      18K |      30K |     243M |
    | SwapSmart          |     1037 |      54K |      62K |     243M |
    | Switch(mk)         |     528K |      33M |      34M |     209M |
    | Switch             |      35K |      55M |      56M |     187M |
    | SwitchSmart(mk)    |    1548K |    9792K |      12M |     231M |
    | SwitchSmart        |     103K |      43M |      44M |     199M |
    | TaskMove(mk)       |      22K |      48K |      80K |     243M |
    | TaskMove           |     1473 |      85K |      97K |     243M |
    | TaskMoveSmart(mk)  |      66K |     179K |     273K |     243M |
    | TaskMoveSmart      |     4568 |     297K |     333K |     243M |
    | 2-Shift(mk)        |     539K |    7004K |    7848K |     235M |
    | 2-Shift            |      36K |      27M |      28M |     215M |
    | 2-ShiftSmart(mk)   |    2433K |      19M |      22M |     221M |
    | 2-ShiftSmart       |     161K |      71M |      72M |     171M |
    \----------------------------------------------------------------/

Best makespan.....: 61
N. of Iterations..: 5831137277
Total runtime.....: 3600.02s
Using Python-MIP package version 1.6.8
Começo a execução
    /-------------------------------------------------------------------------------\
    |    Makespan   |   Free Jobs   | Free Machines |    It. Time   |   Total Time  | 
    |-------------------------------------------------------------------------------|
    \-------------------------------------------------------------------------------/
Terminou a execução
