Instance....: instances/I_100_30_S_1-9_2.txt
Algorithm...: Simulated Annealing (alpha=0.990, saMax=10M, t0=1)
Other params: maxIters=100M, seed=-1, timeLimit=3600.00s

    /--------------------------------------------------------\
    |     Iter |   RDP(%) |       S* |       S' |       Time | 
    |----------|----------|----------|----------|------------|
    |        0 |        - |      442 |      442 |       0.00 | s0
    |        1 |        - |      437 |      437 |       0.02 | *
    |        4 |        - |      433 |      433 |       0.02 | *
    |        5 |        - |      420 |      420 |       0.02 | *
    |       15 |        - |      418 |      418 |       0.02 | *
    |       26 |        - |      400 |      400 |       0.03 | *
    |       27 |        - |      389 |      389 |       0.03 | *
    |       28 |        - |      388 |      388 |       0.03 | *
    |       29 |        - |      384 |      384 |       0.03 | *
    |       30 |        - |      383 |      383 |       0.03 | *
    |       35 |        - |      378 |      378 |       0.03 | *
    |       36 |        - |      377 |      377 |       0.04 | *
    |       43 |        - |      370 |      370 |       0.04 | *
    |       46 |        - |      368 |      368 |       0.04 | *
    |       49 |        - |      363 |      363 |       0.04 | *
    |       52 |        - |      359 |      359 |       0.04 | *
    |       65 |        - |      354 |      354 |       0.04 | *
    |       75 |        - |      347 |      347 |       0.04 | *
    |       76 |        - |      333 |      333 |       0.04 | *
    |       81 |        - |      317 |      317 |       0.04 | *
    |       84 |        - |      305 |      305 |       0.04 | *
    |      103 |        - |      304 |      304 |       0.04 | *
    |      112 |        - |      301 |      301 |       0.04 | *
    |      133 |        - |      299 |      299 |       0.04 | *
    |      139 |        - |      291 |      291 |       0.04 | *
    |      140 |        - |      290 |      290 |       0.05 | *
    |      141 |        - |      282 |      282 |       0.05 | *
    |      146 |        - |      281 |      281 |       0.05 | *
    |      157 |        - |      279 |      279 |       0.05 | *
    |      162 |        - |      273 |      273 |       0.05 | *
    |      165 |        - |      267 |      267 |       0.05 | *
    |      168 |        - |      260 |      260 |       0.05 | *
    |      176 |        - |      258 |      258 |       0.05 | *
    |      179 |        - |      257 |      257 |       0.05 | *
    |      186 |        - |      254 |      254 |       0.05 | *
    |      196 |        - |      252 |      252 |       0.05 | *
    |      197 |        - |      250 |      250 |       0.05 | *
    |      204 |        - |      246 |      246 |       0.05 | *
    |      210 |        - |      243 |      243 |       0.05 | *
    |      214 |        - |      241 |      241 |       0.06 | *
    |      215 |        - |      240 |      240 |       0.06 | *
    |      216 |        - |      230 |      230 |       0.06 | *
    |      219 |        - |      229 |      229 |       0.06 | *
    |      222 |        - |      228 |      228 |       0.06 | *
    |      223 |        - |      227 |      227 |       0.06 | *
    |      225 |        - |      224 |      224 |       0.06 | *
    |      227 |        - |      221 |      221 |       0.06 | *
    |      234 |        - |      215 |      215 |       0.06 | *
    |      235 |        - |      213 |      213 |       0.06 | *
    |      247 |        - |      212 |      212 |       0.06 | *
    |      251 |        - |      211 |      211 |       0.06 | *
    |      283 |        - |      198 |      198 |       0.06 | *
    |      285 |        - |      197 |      197 |       0.07 | *
    |      290 |        - |      196 |      196 |       0.07 | *
    |      311 |        - |      195 |      195 |       0.07 | *
    |      313 |        - |      194 |      194 |       0.07 | *
    |      317 |        - |      192 |      192 |       0.07 | *
    |      329 |        - |      190 |      190 |       0.07 | *
    |      333 |        - |      189 |      189 |       0.07 | *
    |      335 |        - |      187 |      187 |       0.07 | *
    |      348 |        - |      186 |      186 |       0.07 | *
    |      353 |        - |      185 |      185 |       0.07 | *
    |      384 |        - |      184 |      184 |       0.07 | *
    |      408 |        - |      183 |      183 |       0.07 | *
    |      415 |        - |      181 |      181 |       0.07 | *
    |      424 |        - |      180 |      180 |       0.07 | *
    |      444 |        - |      179 |      179 |       0.07 | *
    |      458 |        - |      177 |      177 |       0.07 | *
    |      481 |        - |      176 |      176 |       0.07 | *
    |      498 |        - |      174 |      174 |       0.08 | *
    |      516 |        - |      173 |      173 |       0.08 | *
    |      517 |        - |      172 |      172 |       0.08 | *
    |      531 |        - |      170 |      170 |       0.08 | *
    |      545 |        - |      168 |      168 |       0.08 | *
    |      549 |        - |      167 |      167 |       0.08 | *
    |      582 |        - |      164 |      164 |       0.08 | *
    |      584 |        - |      162 |      162 |       0.08 | *
    |      607 |        - |      159 |      159 |       0.08 | *
    |      609 |        - |      157 |      157 |       0.08 | *
    |      636 |        - |      153 |      153 |       0.08 | *
    |      642 |        - |      147 |      147 |       0.08 | *
    |      645 |        - |      143 |      143 |       0.08 | *
    |      646 |        - |      142 |      142 |       0.08 | *
    |      653 |        - |      141 |      141 |       0.08 | *
    |      694 |        - |      140 |      140 |       0.08 | *
    |      706 |        - |      139 |      139 |       0.08 | *
    |      722 |        - |      138 |      138 |       0.09 | *
    |      723 |        - |      137 |      137 |       0.09 | *
    |      740 |        - |      135 |      135 |       0.09 | *
    |      741 |        - |      134 |      134 |       0.09 | *
    |      782 |        - |      133 |      133 |       0.09 | *
    |      816 |        - |      132 |      132 |       0.09 | *
    |      849 |        - |      129 |      129 |       0.09 | *
    |      860 |        - |      127 |      127 |       0.09 | *
    |      862 |        - |      126 |      126 |       0.09 | *
    |      884 |        - |      124 |      124 |       0.09 | *
    |      902 |        - |      121 |      121 |       0.09 | *
    |     1013 |        - |      119 |      119 |       0.09 | *
    |     1062 |        - |      117 |      117 |       0.09 | *
    |     1066 |        - |      116 |      116 |       0.09 | *
    |     1083 |        - |      115 |      115 |       0.09 | *
    |     1085 |        - |      113 |      113 |       0.10 | *
    |     1174 |        - |      112 |      112 |       0.10 | *
    |     1198 |        - |      111 |      111 |       0.10 | *
    |     1232 |        - |      110 |      110 |       0.10 | *
    |     1245 |        - |      109 |      109 |       0.10 | *
    |     1292 |        - |      108 |      108 |       0.10 | *
    |     1324 |        - |      107 |      107 |       0.10 | *
    |     1375 |        - |      106 |      106 |       0.10 | *
    |     1376 |        - |      105 |      105 |       0.10 | *
    |     1389 |        - |      104 |      104 |       0.10 | *
    |     1447 |        - |      103 |      103 |       0.10 | *
    |     1458 |        - |      101 |      101 |       0.10 | *
    |     1502 |        - |      100 |      100 |       0.10 | *
    |     1508 |        - |       99 |       99 |       0.10 | *
    |     1518 |        - |       98 |       98 |       0.11 | *
    |     1580 |        - |       97 |       97 |       0.11 | *
    |     1610 |        - |       96 |       96 |       0.11 | *
    |     1673 |        - |       95 |       95 |       0.11 | *
    |     1678 |        - |       94 |       94 |       0.11 | *
    |     1684 |        - |       93 |       93 |       0.11 | *
    |     1696 |        - |       92 |       92 |       0.11 | *
    |     1707 |        - |       91 |       91 |       0.11 | *
    |     1728 |        - |       90 |       90 |       0.11 | *
    |     1754 |        - |       89 |       89 |       0.11 | *
    |     1798 |        - |       87 |       87 |       0.11 | *
    |     1809 |        - |       86 |       86 |       0.11 | *
    |     1911 |        - |       85 |       85 |       0.12 | *
    |     2035 |        - |       84 |       84 |       0.12 | *
    |     2051 |        - |       83 |       83 |       0.12 | *
    |     2136 |        - |       82 |       82 |       0.12 | *
    |     2171 |        - |       79 |       79 |       0.12 | *
    |     2177 |        - |       78 |       78 |       0.12 | *
    |     2183 |        - |       77 |       77 |       0.12 | *
    |     2188 |        - |       76 |       76 |       0.12 | *
    |     2236 |        - |       75 |       75 |       0.12 | *
    |     2244 |        - |       74 |       74 |       0.12 | *
    |     2396 |        - |       73 |       73 |       0.12 | *
    |     2443 |        - |       72 |       72 |       0.12 | *
    |     2453 |        - |       71 |       71 |       0.12 | *
    |     2507 |        - |       70 |       70 |       0.12 | *
    |     2613 |        - |       69 |       69 |       0.12 | *
    |     2825 |        - |       68 |       68 |       0.13 | *
    |     2842 |        - |       67 |       67 |       0.13 | *
    |     3020 |        - |       66 |       66 |       0.13 | *
    |     3065 |        - |       65 |       65 |       0.13 | *
    |     3081 |        - |       64 |       64 |       0.13 | *
    |     3314 |        - |       63 |       63 |       0.13 | *
    |     3705 |        - |       62 |       62 |       0.13 | *
    |     3895 |        - |       61 |       61 |       0.13 | *
    |     3967 |        - |       60 |       60 |       0.14 | *
    |     4529 |        - |       59 |       59 |       0.14 | *
    |     4659 |        - |       58 |       58 |       0.14 | *
    |     4697 |        - |       57 |       57 |       0.14 | *
    |     4732 |        - |       56 |       56 |       0.14 | *
    |     4743 |        - |       55 |       55 |       0.14 | *
    |     5044 |        - |       54 |       54 |       0.14 | *
    |     5456 |        - |       53 |       53 |       0.14 | *
    |     5854 |        - |       52 |       52 |       0.14 | *
    |     5864 |        - |       51 |       51 |       0.14 | *
    |     5880 |        - |       50 |       50 |       0.14 | *
    |     6134 |        - |       49 |       49 |       0.14 | *
    |     6140 |        - |       48 |       48 |       0.14 | *
    |     6490 |        - |       47 |       47 |       0.15 | *
    |     7536 |        - |       46 |       46 |       0.15 | *
    |     7560 |        - |       45 |       45 |       0.15 | *
    |     8106 |        - |       44 |       44 |       0.15 | *
    |      10K |        - |       43 |       43 |       0.15 | *
    |      11K |        - |       42 |       42 |       0.16 | *
    |      11K |        - |       41 |       41 |       0.16 | *
    |      12K |        - |       40 |       40 |       0.16 | *
    |      12K |        - |       39 |       39 |       0.16 | *
    |      12K |        - |       37 |       37 |       0.16 | *
    |      13K |        - |       36 |       36 |       0.17 | *
    |      14K |        - |       35 |       35 |       0.17 | *
    |      15K |        - |       34 |       34 |       0.17 | *
    |      20K |        - |       33 |       33 |       0.18 | *
    |      29K |        - |       32 |       32 |       0.20 | *
    |      34K |        - |       31 |       31 |       0.21 | *
    |      46K |        - |       30 |       30 |       0.23 | *
    |      46K |        - |       29 |       29 |       0.23 | *
    |      51K |        - |       28 |       28 |       0.24 | *
    |      57K |        - |       27 |       27 |       0.25 | *
    |     181K |        - |       26 |       26 |       0.43 | *
    |     186K |        - |       25 |       25 |       0.44 | *
    |     946K |        - |       24 |       24 |       1.63 | *
    |      13M |        - |       23 |       23 |      10.75 | *
    |     210M |        - |       22 |       22 |     129.66 | *
    |     392M |        - |       21 |       21 |     236.87 | *
    |     614M |        - |       20 |       20 |     367.42 | *
    \--------------------------------------------------------/

Neighborhoods statistics (values in %):

    /----------------------------------------------------------------\
    | Move               | Improvs. | Sideways |  Accepts |  Rejects |
    |--------------------|----------|----------|----------|----------|
    | Shift(mk)          |    1696K |      18M |      21M |     225M |
    | Shift              |      59K |      74M |      75M |     172M |
    | ShiftSmart(mk)     |    2838K |      29M |      33M |     213M |
    | ShiftSmart         |      98K |     112M |     113M |     134M |
    | SimpSwap(mk)       |      10K |      33K |      49K |     246M |
    | SimpSwap           |      702 |     114K |     124K |     246M |
    | SimpSwapSmart(mk)  |      26K |      85K |     126K |     246M |
    | SimpSwapSmart      |     1938 |     290K |     317K |     246M |
    | Swap(mk)           |     9214 |      31K |      45K |     246M |
    | Swap               |      623 |     100K |     110K |     246M |
    | SwapSmart(mk)      |      21K |      79K |     109K |     246M |
    | SwapSmart          |     1301 |     222K |     238K |     246M |
    | Switch(mk)         |     955K |      80M |      81M |     165M |
    | Switch             |      33K |     118M |     119M |     128M |
    | SwitchSmart(mk)    |    1885K |      18M |      21M |     225M |
    | SwitchSmart        |      65K |      70M |      70M |     176M |
    | TaskMove(mk)       |      63K |     256K |     346K |     246M |
    | TaskMove           |     2169 |     372K |     404K |     246M |
    | TaskMoveSmart(mk)  |     123K |     523K |     698K |     246M |
    | TaskMoveSmart      |     4279 |     835K |     896K |     245M |
    | 2-Shift(mk)        |    1155K |      49M |      51M |     195M |
    | 2-Shift            |      40K |     102M |     103M |     143M |
    | 2-ShiftSmart(mk)   |    1780K |      82M |      85M |     161M |
    | 2-ShiftSmart       |      61K |     149M |     150M |      97M |
    \----------------------------------------------------------------/

Best makespan.....: 20
N. of Iterations..: 5911959022
Total runtime.....: 3600.02s
Using Python-MIP package version 1.6.8
Começo a execução
    /-------------------------------------------------------------------------------\
    |    Makespan   |   Free Jobs   | Free Machines |    It. Time   |   Total Time  | 
    |-------------------------------------------------------------------------------|
    \-------------------------------------------------------------------------------/
Terminou a execução
