Instance....: instances/I_100_10_S_1-49_8.txt
Algorithm...: Simulated Annealing (alpha=0.990, saMax=10M, t0=1)
Other params: maxIters=100M, seed=-1, timeLimit=3600.00s

    /--------------------------------------------------------\
    |     Iter |   RDP(%) |       S* |       S' |       Time | 
    |----------|----------|----------|----------|------------|
    |        0 |        - |     1203 |     1203 |       0.00 | s0
    |        3 |        - |     1176 |     1176 |       0.02 | *
    |        5 |        - |     1110 |     1110 |       0.02 | *
    |        9 |        - |     1105 |     1105 |       0.02 | *
    |       16 |        - |     1092 |     1092 |       0.02 | *
    |       19 |        - |     1068 |     1068 |       0.03 | *
    |       24 |        - |      989 |      989 |       0.03 | *
    |       25 |        - |      961 |      961 |       0.03 | *
    |       27 |        - |      960 |      960 |       0.03 | *
    |       37 |        - |      931 |      931 |       0.03 | *
    |       39 |        - |      897 |      897 |       0.03 | *
    |       40 |        - |      886 |      886 |       0.03 | *
    |       41 |        - |      856 |      856 |       0.03 | *
    |       42 |        - |      847 |      847 |       0.04 | *
    |       46 |        - |      843 |      843 |       0.04 | *
    |       48 |        - |      833 |      833 |       0.04 | *
    |       61 |        - |      831 |      831 |       0.04 | *
    |       62 |        - |      826 |      826 |       0.04 | *
    |       65 |        - |      810 |      810 |       0.04 | *
    |       68 |        - |      776 |      776 |       0.04 | *
    |       78 |        - |      775 |      775 |       0.04 | *
    |       82 |        - |      759 |      759 |       0.04 | *
    |       91 |        - |      746 |      746 |       0.04 | *
    |       92 |        - |      742 |      742 |       0.04 | *
    |       93 |        - |      731 |      731 |       0.04 | *
    |       97 |        - |      727 |      727 |       0.04 | *
    |      108 |        - |      695 |      695 |       0.04 | *
    |      116 |        - |      687 |      687 |       0.04 | *
    |      117 |        - |      686 |      686 |       0.05 | *
    |      129 |        - |      666 |      666 |       0.05 | *
    |      132 |        - |      660 |      660 |       0.05 | *
    |      135 |        - |      653 |      653 |       0.05 | *
    |      159 |        - |      650 |      650 |       0.05 | *
    |      161 |        - |      647 |      647 |       0.05 | *
    |      162 |        - |      636 |      636 |       0.05 | *
    |      167 |        - |      629 |      629 |       0.05 | *
    |      175 |        - |      626 |      626 |       0.05 | *
    |      190 |        - |      620 |      620 |       0.05 | *
    |      201 |        - |      614 |      614 |       0.05 | *
    |      204 |        - |      613 |      613 |       0.06 | *
    |      212 |        - |      608 |      608 |       0.06 | *
    |      215 |        - |      606 |      606 |       0.06 | *
    |      222 |        - |      599 |      599 |       0.06 | *
    |      233 |        - |      598 |      598 |       0.06 | *
    |      241 |        - |      589 |      589 |       0.06 | *
    |      245 |        - |      584 |      584 |       0.06 | *
    |      253 |        - |      580 |      580 |       0.06 | *
    |      261 |        - |      577 |      577 |       0.06 | *
    |      267 |        - |      571 |      571 |       0.06 | *
    |      273 |        - |      570 |      570 |       0.06 | *
    |      277 |        - |      568 |      568 |       0.06 | *
    |      278 |        - |      566 |      566 |       0.06 | *
    |      280 |        - |      560 |      560 |       0.06 | *
    |      287 |        - |      550 |      550 |       0.06 | *
    |      288 |        - |      549 |      549 |       0.07 | *
    |      324 |        - |      545 |      545 |       0.07 | *
    |      326 |        - |      544 |      544 |       0.07 | *
    |      327 |        - |      543 |      543 |       0.07 | *
    |      328 |        - |      535 |      535 |       0.07 | *
    |      332 |        - |      533 |      533 |       0.07 | *
    |      333 |        - |      532 |      532 |       0.07 | *
    |      378 |        - |      529 |      529 |       0.07 | *
    |      384 |        - |      520 |      520 |       0.07 | *
    |      389 |        - |      516 |      516 |       0.07 | *
    |      437 |        - |      511 |      511 |       0.07 | *
    |      447 |        - |      508 |      508 |       0.07 | *
    |      466 |        - |      503 |      503 |       0.08 | *
    |      476 |        - |      500 |      500 |       0.08 | *
    |      491 |        - |      497 |      497 |       0.08 | *
    |      492 |        - |      493 |      493 |       0.08 | *
    |      497 |        - |      488 |      488 |       0.08 | *
    |      504 |        - |      483 |      483 |       0.08 | *
    |      511 |        - |      462 |      462 |       0.08 | *
    |      521 |        - |      460 |      460 |       0.08 | *
    |      530 |        - |      459 |      459 |       0.08 | *
    |      538 |        - |      458 |      458 |       0.08 | *
    |      547 |        - |      452 |      452 |       0.08 | *
    |      588 |        - |      450 |      450 |       0.08 | *
    |      594 |        - |      436 |      436 |       0.08 | *
    |      652 |        - |      434 |      434 |       0.08 | *
    |      658 |        - |      430 |      430 |       0.08 | *
    |      692 |        - |      429 |      429 |       0.08 | *
    |      693 |        - |      426 |      426 |       0.08 | *
    |      724 |        - |      424 |      424 |       0.09 | *
    |      746 |        - |      423 |      423 |       0.09 | *
    |      769 |        - |      419 |      419 |       0.09 | *
    |      784 |        - |      414 |      414 |       0.09 | *
    |      788 |        - |      413 |      413 |       0.09 | *
    |      812 |        - |      410 |      410 |       0.09 | *
    |      814 |        - |      407 |      407 |       0.09 | *
    |      836 |        - |      404 |      404 |       0.09 | *
    |      844 |        - |      403 |      403 |       0.09 | *
    |      849 |        - |      402 |      402 |       0.09 | *
    |      855 |        - |      401 |      401 |       0.09 | *
    |      874 |        - |      400 |      400 |       0.09 | *
    |      914 |        - |      399 |      399 |       0.09 | *
    |      918 |        - |      395 |      395 |       0.09 | *
    |      922 |        - |      392 |      392 |       0.09 | *
    |      942 |        - |      391 |      391 |       0.10 | *
    |      944 |        - |      390 |      390 |       0.10 | *
    |      970 |        - |      389 |      389 |       0.10 | *
    |      971 |        - |      388 |      388 |       0.10 | *
    |     1045 |        - |      382 |      382 |       0.10 | *
    |     1059 |        - |      377 |      377 |       0.10 | *
    |     1189 |        - |      376 |      376 |       0.10 | *
    |     1195 |        - |      369 |      369 |       0.10 | *
    |     1200 |        - |      366 |      366 |       0.10 | *
    |     1201 |        - |      365 |      365 |       0.10 | *
    |     1211 |        - |      358 |      358 |       0.10 | *
    |     1213 |        - |      355 |      355 |       0.10 | *
    |     1214 |        - |      354 |      354 |       0.10 | *
    |     1328 |        - |      352 |      352 |       0.10 | *
    |     1364 |        - |      351 |      351 |       0.10 | *
    |     1410 |        - |      350 |      350 |       0.11 | *
    |     1425 |        - |      347 |      347 |       0.11 | *
    |     1433 |        - |      344 |      344 |       0.11 | *
    |     1470 |        - |      342 |      342 |       0.11 | *
    |     1476 |        - |      341 |      341 |       0.11 | *
    |     1529 |        - |      339 |      339 |       0.11 | *
    |     1545 |        - |      338 |      338 |       0.11 | *
    |     1546 |        - |      335 |      335 |       0.11 | *
    |     1573 |        - |      333 |      333 |       0.11 | *
    |     1578 |        - |      329 |      329 |       0.11 | *
    |     1739 |        - |      326 |      326 |       0.11 | *
    |     1743 |        - |      325 |      325 |       0.11 | *
    |     1771 |        - |      320 |      320 |       0.12 | *
    |     1811 |        - |      317 |      317 |       0.12 | *
    |     1837 |        - |      316 |      316 |       0.12 | *
    |     2000 |        - |      315 |      315 |       0.12 | *
    |     2020 |        - |      312 |      312 |       0.12 | *
    |     2186 |        - |      310 |      310 |       0.12 | *
    |     2222 |        - |      309 |      309 |       0.12 | *
    |     2229 |        - |      305 |      305 |       0.12 | *
    |     2265 |        - |      304 |      304 |       0.12 | *
    |     2370 |        - |      303 |      303 |       0.12 | *
    |     2511 |        - |      298 |      298 |       0.13 | *
    |     2512 |        - |      297 |      297 |       0.13 | *
    |     2517 |        - |      294 |      294 |       0.13 | *
    |     2583 |        - |      291 |      291 |       0.13 | *
    |     2584 |        - |      287 |      287 |       0.13 | *
    |     2593 |        - |      284 |      284 |       0.13 | *
    |     2595 |        - |      282 |      282 |       0.13 | *
    |     2826 |        - |      280 |      280 |       0.13 | *
    |     3243 |        - |      279 |      279 |       0.13 | *
    |     3353 |        - |      276 |      276 |       0.13 | *
    |     3432 |        - |      275 |      275 |       0.13 | *
    |     3462 |        - |      274 |      274 |       0.13 | *
    |     3466 |        - |      272 |      272 |       0.13 | *
    |     3598 |        - |      271 |      271 |       0.13 | *
    |     3601 |        - |      270 |      270 |       0.14 | *
    |     3712 |        - |      269 |      269 |       0.14 | *
    |     3966 |        - |      268 |      268 |       0.14 | *
    |     3982 |        - |      266 |      266 |       0.14 | *
    |     4159 |        - |      265 |      265 |       0.14 | *
    |     4269 |        - |      264 |      264 |       0.14 | *
    |     4374 |        - |      262 |      262 |       0.14 | *
    |     4379 |        - |      261 |      261 |       0.14 | *
    |     4397 |        - |      259 |      259 |       0.14 | *
    |     4446 |        - |      258 |      258 |       0.14 | *
    |     4474 |        - |      257 |      257 |       0.14 | *
    |     4497 |        - |      255 |      255 |       0.14 | *
    |     4732 |        - |      253 |      253 |       0.15 | *
    |     4737 |        - |      252 |      252 |       0.15 | *
    |     4804 |        - |      251 |      251 |       0.15 | *
    |     4824 |        - |      250 |      250 |       0.15 | *
    |     4839 |        - |      249 |      249 |       0.15 | *
    |     4859 |        - |      248 |      248 |       0.15 | *
    |     4963 |        - |      247 |      247 |       0.15 | *
    |     5098 |        - |      245 |      245 |       0.15 | *
    |     5226 |        - |      244 |      244 |       0.15 | *
    |     5300 |        - |      243 |      243 |       0.16 | *
    |     5364 |        - |      240 |      240 |       0.16 | *
    |     5395 |        - |      239 |      239 |       0.16 | *
    |     7174 |        - |      238 |      238 |       0.16 | *
    |     7191 |        - |      237 |      237 |       0.16 | *
    |     7266 |        - |      236 |      236 |       0.16 | *
    |     8280 |        - |      234 |      234 |       0.16 | *
    |     8470 |        - |      233 |      233 |       0.17 | *
    |     8686 |        - |      231 |      231 |       0.17 | *
    |     8750 |        - |      230 |      230 |       0.17 | *
    |      11K |        - |      229 |      229 |       0.17 | *
    |      11K |        - |      225 |      225 |       0.17 | *
    |      11K |        - |      224 |      224 |       0.17 | *
    |      11K |        - |      223 |      223 |       0.17 | *
    |      12K |        - |      222 |      222 |       0.18 | *
    |      12K |        - |      221 |      221 |       0.18 | *
    |      12K |        - |      220 |      220 |       0.18 | *
    |      13K |        - |      219 |      219 |       0.18 | *
    |      13K |        - |      218 |      218 |       0.18 | *
    |      13K |        - |      216 |      216 |       0.18 | *
    |      14K |        - |      215 |      215 |       0.18 | *
    |      14K |        - |      212 |      212 |       0.18 | *
    |      14K |        - |      211 |      211 |       0.18 | *
    |      14K |        - |      209 |      209 |       0.19 | *
    |      16K |        - |      207 |      207 |       0.19 | *
    |      17K |        - |      206 |      206 |       0.19 | *
    |      19K |        - |      205 |      205 |       0.19 | *
    |      21K |        - |      204 |      204 |       0.20 | *
    |      21K |        - |      203 |      203 |       0.20 | *
    |      22K |        - |      202 |      202 |       0.20 | *
    |      22K |        - |      201 |      201 |       0.20 | *
    |      23K |        - |      200 |      200 |       0.20 | *
    |      23K |        - |      198 |      198 |       0.20 | *
    |      36K |        - |      197 |      197 |       0.22 | *
    |      38K |        - |      196 |      196 |       0.23 | *
    |      39K |        - |      195 |      195 |       0.23 | *
    |      46K |        - |      194 |      194 |       0.24 | *
    |      47K |        - |      191 |      191 |       0.24 | *
    |      47K |        - |      189 |      189 |       0.24 | *
    |      53K |        - |      188 |      188 |       0.25 | *
    |      56K |        - |      187 |      187 |       0.26 | *
    |      64K |        - |      186 |      186 |       0.27 | *
    |      65K |        - |      185 |      185 |       0.27 | *
    |      66K |        - |      184 |      184 |       0.27 | *
    |      66K |        - |      183 |      183 |       0.27 | *
    |      85K |        - |      182 |      182 |       0.30 | *
    |      88K |        - |      181 |      181 |       0.31 | *
    |      90K |        - |      180 |      180 |       0.31 | *
    |      90K |        - |      178 |      178 |       0.31 | *
    |      90K |        - |      177 |      177 |       0.31 | *
    |      99K |        - |      176 |      176 |       0.32 | *
    |     175K |        - |      175 |      175 |       0.51 | *
    |     352K |        - |      174 |      174 |       0.94 | *
    |     353K |        - |      173 |      173 |       0.94 | *
    |     381K |        - |      172 |      172 |       0.99 | *
    |     386K |        - |      171 |      171 |       1.00 | *
    |     386K |        - |      170 |      170 |       1.00 | *
    |     507K |        - |      169 |      169 |       1.20 | *
    |    1016K |        - |      168 |      168 |       1.72 | *
    |    1037K |        - |      167 |      167 |       1.74 | *
    |    1038K |        - |      166 |      166 |       1.74 | *
    |    1825K |        - |      165 |      165 |       2.39 | *
    |    1946K |        - |      164 |      164 |       2.51 | *
    |    1946K |        - |      163 |      163 |       2.51 | *
    |    5137K |        - |      162 |      162 |       5.26 | *
    |    5230K |        - |      161 |      161 |       5.35 | *
    |    6050K |        - |      160 |      160 |       6.26 | *
    |      97M |        - |      159 |      159 |      66.96 | *
    |      97M |        - |      158 |      158 |      66.96 | *
    |     800M |        - |      157 |      157 |     522.66 | *
    |     801M |        - |      156 |      156 |     523.05 | *
    \--------------------------------------------------------/

Neighborhoods statistics (values in %):

    /----------------------------------------------------------------\
    | Move               | Improvs. | Sideways |  Accepts |  Rejects |
    |--------------------|----------|----------|----------|----------|
    | Shift(mk)          |      38K |    1066K |    1119K |     239M |
    | Shift              |     3697 |    3217K |    3253K |     237M |
    | ShiftSmart(mk)     |     302K |    7607K |    8028K |     232M |
    | ShiftSmart         |      30K |      21M |      21M |     219M |
    | SimpSwap(mk)       |       63 |      175 |      277 |     240M |
    | SimpSwap           |       12 |      605 |      699 |     241M |
    | SimpSwapSmart(mk)  |      797 |     1397 |     2567 |     241M |
    | SimpSwapSmart      |      173 |     5449 |     6457 |     240M |
    | Swap(mk)           |       22 |       34 |       63 |     240M |
    | Swap               |        5 |      137 |      158 |     241M |
    | SwapSmart(mk)      |     1051 |     1860 |     3297 |     240M |
    | SwapSmart          |      208 |     6655 |     7776 |     240M |
    | Switch(mk)         |     9912 |      27M |      27M |     213M |
    | Switch             |     1005 |      25M |      25M |     215M |
    | SwitchSmart(mk)    |      73K |    5673K |    5768K |     235M |
    | SwitchSmart        |     7250 |    5769K |    5836K |     235M |
    | TaskMove(mk)       |      745 |     1337 |     2429 |     240M |
    | TaskMove           |      103 |     3142 |     3738 |     241M |
    | TaskMoveSmart(mk)  |     7039 |      12K |      22K |     240M |
    | TaskMoveSmart      |      769 |      28K |      33K |     240M |
    | 2-Shift(mk)        |      11K |    3637K |    3652K |     237M |
    | 2-Shift            |     1083 |    3908K |    3919K |     237M |
    | 2-ShiftSmart(mk)   |      92K |    8434K |    8547K |     232M |
    | 2-ShiftSmart       |     9159 |      11M |      12M |     229M |
    \----------------------------------------------------------------/

Best makespan.....: 156
N. of Iterations..: 5770981011
Total runtime.....: 3600.02s
Using Python-MIP package version 1.6.8
Começo a execução
    /-------------------------------------------------------------------------------\
    |    Makespan   |   Free Jobs   | Free Machines |    It. Time   |   Total Time  | 
    |-------------------------------------------------------------------------------|
    \-------------------------------------------------------------------------------/
Terminou a execução
