Instance....: instances/I_100_15_S_1-99_9.txt
Algorithm...: Simulated Annealing (alpha=0.990, saMax=10M, t0=1)
Other params: maxIters=100M, seed=-1, timeLimit=3600.00s

    /--------------------------------------------------------\
    |     Iter |   RDP(%) |       S* |       S' |       Time | 
    |----------|----------|----------|----------|------------|
    |        0 |        - |     1286 |     1286 |       0.00 | s0
    |        0 |        - |     1239 |     1239 |       0.00 | *
    |        3 |        - |     1232 |     1232 |       0.01 | *
    |        5 |        - |     1210 |     1210 |       0.01 | *
    |       11 |        - |     1161 |     1161 |       0.02 | *
    |       12 |        - |     1154 |     1154 |       0.02 | *
    |       17 |        - |     1146 |     1146 |       0.03 | *
    |       18 |        - |     1140 |     1140 |       0.03 | *
    |       19 |        - |     1071 |     1071 |       0.03 | *
    |       27 |        - |     1031 |     1031 |       0.03 | *
    |       34 |        - |     1027 |     1027 |       0.03 | *
    |       42 |        - |      970 |      970 |       0.03 | *
    |       52 |        - |      968 |      968 |       0.03 | *
    |       57 |        - |      934 |      934 |       0.03 | *
    |       63 |        - |      914 |      914 |       0.04 | *
    |       72 |        - |      907 |      907 |       0.04 | *
    |       81 |        - |      876 |      876 |       0.04 | *
    |       82 |        - |      871 |      871 |       0.04 | *
    |       84 |        - |      870 |      870 |       0.04 | *
    |       85 |        - |      845 |      845 |       0.04 | *
    |       90 |        - |      812 |      812 |       0.04 | *
    |       91 |        - |      809 |      809 |       0.04 | *
    |      101 |        - |      807 |      807 |       0.04 | *
    |      110 |        - |      774 |      774 |       0.04 | *
    |      112 |        - |      772 |      772 |       0.04 | *
    |      113 |        - |      769 |      769 |       0.04 | *
    |      114 |        - |      766 |      766 |       0.04 | *
    |      115 |        - |      765 |      765 |       0.04 | *
    |      116 |        - |      749 |      749 |       0.04 | *
    |      118 |        - |      735 |      735 |       0.04 | *
    |      119 |        - |      732 |      732 |       0.05 | *
    |      120 |        - |      719 |      719 |       0.05 | *
    |      131 |        - |      711 |      711 |       0.05 | *
    |      139 |        - |      709 |      709 |       0.05 | *
    |      140 |        - |      700 |      700 |       0.05 | *
    |      141 |        - |      696 |      696 |       0.05 | *
    |      147 |        - |      685 |      685 |       0.05 | *
    |      151 |        - |      672 |      672 |       0.05 | *
    |      155 |        - |      662 |      662 |       0.05 | *
    |      160 |        - |      655 |      655 |       0.05 | *
    |      168 |        - |      635 |      635 |       0.05 | *
    |      182 |        - |      621 |      621 |       0.05 | *
    |      188 |        - |      619 |      619 |       0.05 | *
    |      189 |        - |      609 |      609 |       0.06 | *
    |      191 |        - |      589 |      589 |       0.06 | *
    |      200 |        - |      579 |      579 |       0.06 | *
    |      208 |        - |      566 |      566 |       0.06 | *
    |      209 |        - |      561 |      561 |       0.06 | *
    |      211 |        - |      544 |      544 |       0.06 | *
    |      217 |        - |      540 |      540 |       0.06 | *
    |      218 |        - |      537 |      537 |       0.06 | *
    |      220 |        - |      533 |      533 |       0.06 | *
    |      222 |        - |      527 |      527 |       0.06 | *
    |      233 |        - |      517 |      517 |       0.06 | *
    |      236 |        - |      508 |      508 |       0.06 | *
    |      259 |        - |      506 |      506 |       0.06 | *
    |      260 |        - |      505 |      505 |       0.06 | *
    |      265 |        - |      502 |      502 |       0.06 | *
    |      267 |        - |      496 |      496 |       0.06 | *
    |      270 |        - |      492 |      492 |       0.06 | *
    |      290 |        - |      491 |      491 |       0.07 | *
    |      316 |        - |      490 |      490 |       0.07 | *
    |      326 |        - |      489 |      489 |       0.07 | *
    |      337 |        - |      482 |      482 |       0.07 | *
    |      367 |        - |      480 |      480 |       0.07 | *
    |      369 |        - |      473 |      473 |       0.07 | *
    |      370 |        - |      472 |      472 |       0.07 | *
    |      374 |        - |      468 |      468 |       0.07 | *
    |      387 |        - |      458 |      458 |       0.07 | *
    |      402 |        - |      454 |      454 |       0.07 | *
    |      433 |        - |      453 |      453 |       0.07 | *
    |      436 |        - |      451 |      451 |       0.07 | *
    |      439 |        - |      448 |      448 |       0.07 | *
    |      445 |        - |      447 |      447 |       0.07 | *
    |      452 |        - |      445 |      445 |       0.07 | *
    |      481 |        - |      444 |      444 |       0.08 | *
    |      483 |        - |      436 |      436 |       0.08 | *
    |      487 |        - |      434 |      434 |       0.08 | *
    |      497 |        - |      431 |      431 |       0.08 | *
    |      538 |        - |      429 |      429 |       0.08 | *
    |      540 |        - |      428 |      428 |       0.08 | *
    |      555 |        - |      424 |      424 |       0.08 | *
    |      558 |        - |      421 |      421 |       0.08 | *
    |      579 |        - |      419 |      419 |       0.08 | *
    |      587 |        - |      418 |      418 |       0.08 | *
    |      590 |        - |      416 |      416 |       0.08 | *
    |      603 |        - |      414 |      414 |       0.08 | *
    |      616 |        - |      413 |      413 |       0.08 | *
    |      623 |        - |      411 |      411 |       0.08 | *
    |      654 |        - |      409 |      409 |       0.08 | *
    |      728 |        - |      408 |      408 |       0.08 | *
    |      739 |        - |      406 |      406 |       0.08 | *
    |      746 |        - |      404 |      404 |       0.09 | *
    |      747 |        - |      399 |      399 |       0.09 | *
    |      790 |        - |      398 |      398 |       0.09 | *
    |      796 |        - |      393 |      393 |       0.09 | *
    |      818 |        - |      392 |      392 |       0.09 | *
    |      832 |        - |      391 |      391 |       0.09 | *
    |      887 |        - |      389 |      389 |       0.09 | *
    |      897 |        - |      386 |      386 |       0.09 | *
    |      908 |        - |      385 |      385 |       0.09 | *
    |      919 |        - |      381 |      381 |       0.09 | *
    |      922 |        - |      380 |      380 |       0.09 | *
    |      933 |        - |      379 |      379 |       0.09 | *
    |      934 |        - |      378 |      378 |       0.09 | *
    |      951 |        - |      375 |      375 |       0.09 | *
    |      987 |        - |      373 |      373 |       0.09 | *
    |     1030 |        - |      367 |      367 |       0.10 | *
    |     1051 |        - |      364 |      364 |       0.10 | *
    |     1062 |        - |      362 |      362 |       0.10 | *
    |     1100 |        - |      361 |      361 |       0.10 | *
    |     1121 |        - |      357 |      357 |       0.10 | *
    |     1359 |        - |      351 |      351 |       0.10 | *
    |     1362 |        - |      344 |      344 |       0.10 | *
    |     1444 |        - |      337 |      337 |       0.10 | *
    |     1530 |        - |      336 |      336 |       0.10 | *
    |     1593 |        - |      335 |      335 |       0.10 | *
    |     1601 |        - |      328 |      328 |       0.10 | *
    |     1605 |        - |      327 |      327 |       0.10 | *
    |     1615 |        - |      325 |      325 |       0.11 | *
    |     1679 |        - |      323 |      323 |       0.11 | *
    |     1708 |        - |      322 |      322 |       0.11 | *
    |     1746 |        - |      321 |      321 |       0.11 | *
    |     1760 |        - |      319 |      319 |       0.11 | *
    |     1774 |        - |      317 |      317 |       0.11 | *
    |     1776 |        - |      308 |      308 |       0.11 | *
    |     1781 |        - |      304 |      304 |       0.11 | *
    |     1789 |        - |      303 |      303 |       0.11 | *
    |     1807 |        - |      301 |      301 |       0.11 | *
    |     1832 |        - |      300 |      300 |       0.11 | *
    |     1945 |        - |      298 |      298 |       0.11 | *
    |     1959 |        - |      297 |      297 |       0.11 | *
    |     2004 |        - |      296 |      296 |       0.12 | *
    |     2018 |        - |      295 |      295 |       0.12 | *
    |     2072 |        - |      294 |      294 |       0.12 | *
    |     2074 |        - |      292 |      292 |       0.12 | *
    |     2163 |        - |      291 |      291 |       0.12 | *
    |     2260 |        - |      290 |      290 |       0.12 | *
    |     2354 |        - |      287 |      287 |       0.12 | *
    |     2642 |        - |      284 |      284 |       0.12 | *
    |     2651 |        - |      283 |      283 |       0.12 | *
    |     2668 |        - |      282 |      282 |       0.12 | *
    |     2782 |        - |      279 |      279 |       0.12 | *
    |     2794 |        - |      278 |      278 |       0.12 | *
    |     2808 |        - |      276 |      276 |       0.12 | *
    |     2918 |        - |      275 |      275 |       0.13 | *
    |     2920 |        - |      274 |      274 |       0.13 | *
    |     2927 |        - |      272 |      272 |       0.13 | *
    |     2928 |        - |      269 |      269 |       0.13 | *
    |     2961 |        - |      268 |      268 |       0.13 | *
    |     2967 |        - |      267 |      267 |       0.13 | *
    |     3013 |        - |      265 |      265 |       0.13 | *
    |     3099 |        - |      264 |      264 |       0.13 | *
    |     3112 |        - |      263 |      263 |       0.13 | *
    |     3144 |        - |      260 |      260 |       0.13 | *
    |     3281 |        - |      258 |      258 |       0.13 | *
    |     3349 |        - |      257 |      257 |       0.13 | *
    |     3519 |        - |      256 |      256 |       0.14 | *
    |     3625 |        - |      255 |      255 |       0.14 | *
    |     3640 |        - |      253 |      253 |       0.14 | *
    |     3845 |        - |      252 |      252 |       0.14 | *
    |     3875 |        - |      250 |      250 |       0.14 | *
    |     3910 |        - |      246 |      246 |       0.14 | *
    |     3954 |        - |      244 |      244 |       0.14 | *
    |     4314 |        - |      243 |      243 |       0.14 | *
    |     5512 |        - |      240 |      240 |       0.15 | *
    |     5618 |        - |      239 |      239 |       0.15 | *
    |     5714 |        - |      238 |      238 |       0.15 | *
    |     6492 |        - |      236 |      236 |       0.15 | *
    |     6840 |        - |      235 |      235 |       0.15 | *
    |     6850 |        - |      230 |      230 |       0.15 | *
    |     7896 |        - |      229 |      229 |       0.15 | *
    |     7917 |        - |      226 |      226 |       0.16 | *
    |     8444 |        - |      225 |      225 |       0.16 | *
    |     8991 |        - |      224 |      224 |       0.16 | *
    |     9576 |        - |      219 |      219 |       0.16 | *
    |     9641 |        - |      217 |      217 |       0.16 | *
    |      11K |        - |      216 |      216 |       0.17 | *
    |      12K |        - |      214 |      214 |       0.17 | *
    |      13K |        - |      212 |      212 |       0.17 | *
    |      13K |        - |      211 |      211 |       0.17 | *
    |      13K |        - |      210 |      210 |       0.17 | *
    |      13K |        - |      208 |      208 |       0.17 | *
    |      13K |        - |      206 |      206 |       0.17 | *
    |      15K |        - |      205 |      205 |       0.18 | *
    |      15K |        - |      204 |      204 |       0.18 | *
    |      15K |        - |      200 |      200 |       0.18 | *
    |      15K |        - |      199 |      199 |       0.18 | *
    |      15K |        - |      198 |      198 |       0.18 | *
    |      16K |        - |      197 |      197 |       0.18 | *
    |      17K |        - |      195 |      195 |       0.19 | *
    |      17K |        - |      194 |      194 |       0.19 | *
    |      17K |        - |      192 |      192 |       0.19 | *
    |      18K |        - |      190 |      190 |       0.19 | *
    |      18K |        - |      189 |      189 |       0.19 | *
    |      18K |        - |      185 |      185 |       0.19 | *
    |      19K |        - |      184 |      184 |       0.19 | *
    |      19K |        - |      183 |      183 |       0.19 | *
    |      19K |        - |      179 |      179 |       0.20 | *
    |      20K |        - |      178 |      178 |       0.20 | *
    |      20K |        - |      177 |      177 |       0.20 | *
    |      23K |        - |      176 |      176 |       0.21 | *
    |      24K |        - |      174 |      174 |       0.21 | *
    |      25K |        - |      173 |      173 |       0.21 | *
    |      25K |        - |      172 |      172 |       0.21 | *
    |      26K |        - |      170 |      170 |       0.21 | *
    |      27K |        - |      168 |      168 |       0.22 | *
    |      27K |        - |      167 |      167 |       0.22 | *
    |      27K |        - |      166 |      166 |       0.22 | *
    |      30K |        - |      163 |      163 |       0.22 | *
    |      36K |        - |      162 |      162 |       0.23 | *
    |      38K |        - |      161 |      161 |       0.23 | *
    |      39K |        - |      160 |      160 |       0.23 | *
    |      40K |        - |      158 |      158 |       0.24 | *
    |      40K |        - |      157 |      157 |       0.24 | *
    |      54K |        - |      155 |      155 |       0.25 | *
    |      59K |        - |      152 |      152 |       0.26 | *
    |      59K |        - |      150 |      150 |       0.26 | *
    |      59K |        - |      149 |      149 |       0.26 | *
    |      67K |        - |      148 |      148 |       0.28 | *
    |      67K |        - |      147 |      147 |       0.28 | *
    |      70K |        - |      146 |      146 |       0.28 | *
    |      70K |        - |      144 |      144 |       0.28 | *
    |      73K |        - |      142 |      142 |       0.29 | *
    |      81K |        - |      141 |      141 |       0.30 | *
    |      85K |        - |      140 |      140 |       0.30 | *
    |      92K |        - |      139 |      139 |       0.31 | *
    |      93K |        - |      138 |      138 |       0.31 | *
    |      94K |        - |      137 |      137 |       0.32 | *
    |     101K |        - |      136 |      136 |       0.33 | *
    |     178K |        - |      135 |      135 |       0.55 | *
    |     178K |        - |      134 |      134 |       0.55 | *
    |     231K |        - |      133 |      133 |       0.70 | *
    |     251K |        - |      131 |      131 |       0.75 | *
    |     251K |        - |      129 |      129 |       0.75 | *
    |     330K |        - |      128 |      128 |       0.93 | *
    |     430K |        - |      126 |      126 |       1.06 | *
    |     430K |        - |      125 |      125 |       1.06 | *
    |     801K |        - |      124 |      124 |       1.34 | *
    |    1055K |        - |      123 |      123 |       1.55 | *
    |    1199K |        - |      122 |      122 |       1.65 | *
    |    1801K |        - |      121 |      121 |       2.29 | *
    |    1941K |        - |      120 |      120 |       2.46 | *
    |    5308K |        - |      119 |      119 |       5.86 | *
    |    5514K |        - |      118 |      118 |       6.05 | *
    |    5686K |        - |      117 |      117 |       6.22 | *
    |    5878K |        - |      116 |      116 |       6.42 | *
    |    7395K |        - |      114 |      114 |       7.37 | *
    |      44M |        - |      113 |      113 |      30.58 | *
    |      75M |        - |      112 |      112 |      51.02 | *
    |     166M |        - |      111 |      111 |     108.57 | *
    |     166M |        - |      110 |      110 |     108.57 | *
    |     166M |        - |      109 |      109 |     108.58 | *
    |     166M |        - |      108 |      108 |     108.66 | *
    |     166M |        - |      107 |      107 |     108.66 | *
    \--------------------------------------------------------/

Neighborhoods statistics (values in %):

    /----------------------------------------------------------------\
    | Move               | Improvs. | Sideways |  Accepts |  Rejects |
    |--------------------|----------|----------|----------|----------|
    | Shift(mk)          |      16K |      41K |      59K |     247M |
    | Shift              |     1019 |    1590K |    1605K |     246M |
    | ShiftSmart(mk)     |      81K |     177K |     275K |     247M |
    | ShiftSmart         |     5352 |    7556K |    7632K |     240M |
    | SimpSwap(mk)       |      158 |      159 |      373 |     247M |
    | SimpSwap           |       26 |     1535 |     1677 |     247M |
    | SimpSwapSmart(mk)  |      796 |     1001 |     2160 |     247M |
    | SimpSwapSmart      |      114 |     8976 |     9792 |     247M |
    | Swap(mk)           |       38 |       62 |      111 |     247M |
    | Swap               |        5 |      279 |      314 |     247M |
    | SwapSmart(mk)      |      768 |     1529 |     2566 |     247M |
    | SwapSmart          |      105 |     6732 |     7484 |     247M |
    | Switch(mk)         |     6716 |      41M |      41M |     206M |
    | Switch             |      431 |      38M |      38M |     209M |
    | SwitchSmart(mk)    |      35K |     112K |     151K |     247M |
    | SwitchSmart        |     2458 |    2050K |    2085K |     245M |
    | TaskMove(mk)       |      930 |     1094 |     2411 |     247M |
    | TaskMove           |       76 |      14K |      15K |     247M |
    | TaskMoveSmart(mk)  |     5418 |     6695 |      14K |     247M |
    | TaskMoveSmart      |      499 |      92K |      97K |     247M |
    | 2-Shift(mk)        |     7095 |    8145K |    8153K |     239M |
    | 2-Shift            |      501 |    7841K |    7847K |     239M |
    | 2-ShiftSmart(mk)   |      25K |      23M |      23M |     224M |
    | 2-ShiftSmart       |     1628 |      18M |      18M |     229M |
    \----------------------------------------------------------------/

Best makespan.....: 107
N. of Iterations..: 5932869314
Total runtime.....: 3600.02s
Using Python-MIP package version 1.6.8
Começo a execução
    /-------------------------------------------------------------------------------\
    |    Makespan   |   Free Jobs   | Free Machines |    It. Time   |   Total Time  | 
    |-------------------------------------------------------------------------------|
    \-------------------------------------------------------------------------------/
Terminou a execução
