Instance....: instances/I_100_25_S_1-49_2.txt
Algorithm...: Simulated Annealing (alpha=0.990, saMax=10M, t0=1)
Other params: maxIters=100M, seed=-1, timeLimit=3600.00s

    /--------------------------------------------------------\
    |     Iter |   RDP(%) |       S* |       S' |       Time | 
    |----------|----------|----------|----------|------------|
    |        0 |        - |      716 |      716 |       0.00 | s0
    |        5 |        - |      674 |      674 |       0.02 | *
    |        6 |        - |      632 |      632 |       0.02 | *
    |       22 |        - |      626 |      626 |       0.02 | *
    |       23 |        - |      604 |      604 |       0.02 | *
    |       25 |        - |      583 |      583 |       0.02 | *
    |       27 |        - |      561 |      561 |       0.03 | *
    |       32 |        - |      559 |      559 |       0.03 | *
    |       39 |        - |      552 |      552 |       0.03 | *
    |       42 |        - |      523 |      523 |       0.03 | *
    |       44 |        - |      509 |      509 |       0.03 | *
    |       45 |        - |      484 |      484 |       0.03 | *
    |       46 |        - |      475 |      475 |       0.03 | *
    |       47 |        - |      438 |      438 |       0.03 | *
    |       54 |        - |      437 |      437 |       0.03 | *
    |       56 |        - |      436 |      436 |       0.04 | *
    |       65 |        - |      433 |      433 |       0.04 | *
    |       78 |        - |      432 |      432 |       0.04 | *
    |       87 |        - |      430 |      430 |       0.04 | *
    |       93 |        - |      406 |      406 |       0.04 | *
    |       94 |        - |      405 |      405 |       0.04 | *
    |       95 |        - |      404 |      404 |       0.04 | *
    |      101 |        - |      403 |      403 |       0.04 | *
    |      103 |        - |      401 |      401 |       0.04 | *
    |      104 |        - |      384 |      384 |       0.04 | *
    |      106 |        - |      382 |      382 |       0.04 | *
    |      126 |        - |      371 |      371 |       0.04 | *
    |      130 |        - |      368 |      368 |       0.04 | *
    |      137 |        - |      355 |      355 |       0.04 | *
    |      186 |        - |      354 |      354 |       0.04 | *
    |      192 |        - |      342 |      342 |       0.05 | *
    |      205 |        - |      341 |      341 |       0.05 | *
    |      221 |        - |      334 |      334 |       0.05 | *
    |      225 |        - |      332 |      332 |       0.05 | *
    |      226 |        - |      325 |      325 |       0.05 | *
    |      232 |        - |      321 |      321 |       0.05 | *
    |      257 |        - |      319 |      319 |       0.05 | *
    |      258 |        - |      314 |      314 |       0.05 | *
    |      264 |        - |      313 |      313 |       0.05 | *
    |      292 |        - |      304 |      304 |       0.05 | *
    |      294 |        - |      300 |      300 |       0.05 | *
    |      295 |        - |      296 |      296 |       0.05 | *
    |      299 |        - |      294 |      294 |       0.05 | *
    |      305 |        - |      291 |      291 |       0.05 | *
    |      316 |        - |      287 |      287 |       0.06 | *
    |      318 |        - |      275 |      275 |       0.06 | *
    |      355 |        - |      274 |      274 |       0.06 | *
    |      357 |        - |      268 |      268 |       0.06 | *
    |      358 |        - |      260 |      260 |       0.06 | *
    |      360 |        - |      253 |      253 |       0.06 | *
    |      375 |        - |      251 |      251 |       0.06 | *
    |      376 |        - |      250 |      250 |       0.06 | *
    |      388 |        - |      242 |      242 |       0.06 | *
    |      389 |        - |      241 |      241 |       0.06 | *
    |      392 |        - |      237 |      237 |       0.06 | *
    |      393 |        - |      235 |      235 |       0.06 | *
    |      395 |        - |      234 |      234 |       0.06 | *
    |      409 |        - |      232 |      232 |       0.06 | *
    |      417 |        - |      230 |      230 |       0.06 | *
    |      420 |        - |      228 |      228 |       0.06 | *
    |      435 |        - |      226 |      226 |       0.06 | *
    |      465 |        - |      225 |      225 |       0.07 | *
    |      470 |        - |      220 |      220 |       0.07 | *
    |      482 |        - |      218 |      218 |       0.07 | *
    |      483 |        - |      213 |      213 |       0.07 | *
    |      513 |        - |      212 |      212 |       0.07 | *
    |      516 |        - |      211 |      211 |       0.07 | *
    |      559 |        - |      210 |      210 |       0.07 | *
    |      567 |        - |      206 |      206 |       0.07 | *
    |      576 |        - |      204 |      204 |       0.07 | *
    |      584 |        - |      202 |      202 |       0.07 | *
    |      587 |        - |      201 |      201 |       0.07 | *
    |      617 |        - |      200 |      200 |       0.07 | *
    |      619 |        - |      199 |      199 |       0.07 | *
    |      622 |        - |      198 |      198 |       0.07 | *
    |      625 |        - |      196 |      196 |       0.07 | *
    |      626 |        - |      195 |      195 |       0.07 | *
    |      679 |        - |      194 |      194 |       0.08 | *
    |      786 |        - |      193 |      193 |       0.08 | *
    |      789 |        - |      191 |      191 |       0.08 | *
    |      791 |        - |      190 |      190 |       0.08 | *
    |      821 |        - |      189 |      189 |       0.08 | *
    |      833 |        - |      187 |      187 |       0.08 | *
    |      839 |        - |      186 |      186 |       0.08 | *
    |      854 |        - |      183 |      183 |       0.08 | *
    |      928 |        - |      182 |      182 |       0.08 | *
    |      937 |        - |      178 |      178 |       0.08 | *
    |      980 |        - |      175 |      175 |       0.08 | *
    |     1057 |        - |      174 |      174 |       0.08 | *
    |     1062 |        - |      173 |      173 |       0.08 | *
    |     1064 |        - |      171 |      171 |       0.08 | *
    |     1065 |        - |      168 |      168 |       0.08 | *
    |     1142 |        - |      166 |      166 |       0.09 | *
    |     1148 |        - |      165 |      165 |       0.09 | *
    |     1194 |        - |      163 |      163 |       0.09 | *
    |     1247 |        - |      162 |      162 |       0.09 | *
    |     1262 |        - |      160 |      160 |       0.09 | *
    |     1368 |        - |      159 |      159 |       0.09 | *
    |     1392 |        - |      158 |      158 |       0.09 | *
    |     1412 |        - |      156 |      156 |       0.09 | *
    |     1499 |        - |      155 |      155 |       0.09 | *
    |     1522 |        - |      153 |      153 |       0.09 | *
    |     1573 |        - |      152 |      152 |       0.09 | *
    |     1608 |        - |      151 |      151 |       0.09 | *
    |     1692 |        - |      148 |      148 |       0.09 | *
    |     1743 |        - |      147 |      147 |       0.09 | *
    |     1808 |        - |      145 |      145 |       0.09 | *
    |     1810 |        - |      144 |      144 |       0.09 | *
    |     1862 |        - |      143 |      143 |       0.10 | *
    |     1909 |        - |      142 |      142 |       0.10 | *
    |     1952 |        - |      141 |      141 |       0.10 | *
    |     1953 |        - |      140 |      140 |       0.10 | *
    |     1972 |        - |      137 |      137 |       0.10 | *
    |     1999 |        - |      136 |      136 |       0.10 | *
    |     2078 |        - |      133 |      133 |       0.10 | *
    |     2141 |        - |      132 |      132 |       0.10 | *
    |     2547 |        - |      131 |      131 |       0.10 | *
    |     2569 |        - |      130 |      130 |       0.10 | *
    |     2589 |        - |      129 |      129 |       0.10 | *
    |     2746 |        - |      126 |      126 |       0.10 | *
    |     2822 |        - |      125 |      125 |       0.10 | *
    |     3117 |        - |      124 |      124 |       0.11 | *
    |     3306 |        - |      123 |      123 |       0.11 | *
    |     3323 |        - |      122 |      122 |       0.11 | *
    |     4172 |        - |      120 |      120 |       0.11 | *
    |     4265 |        - |      118 |      118 |       0.11 | *
    |     4579 |        - |      117 |      117 |       0.11 | *
    |     4592 |        - |      116 |      116 |       0.11 | *
    |     4600 |        - |      115 |      115 |       0.12 | *
    |     4609 |        - |      113 |      113 |       0.12 | *
    |     4655 |        - |      112 |      112 |       0.12 | *
    |     5319 |        - |      110 |      110 |       0.12 | *
    |     5390 |        - |      109 |      109 |       0.12 | *
    |     5577 |        - |      108 |      108 |       0.12 | *
    |     5604 |        - |      107 |      107 |       0.12 | *
    |     5979 |        - |      106 |      106 |       0.12 | *
    |     6038 |        - |      105 |      105 |       0.12 | *
    |     7016 |        - |      104 |      104 |       0.12 | *
    |     7060 |        - |      103 |      103 |       0.12 | *
    |     7064 |        - |      101 |      101 |       0.12 | *
    |     7092 |        - |      100 |      100 |       0.13 | *
    |     7297 |        - |       99 |       99 |       0.13 | *
    |     7399 |        - |       98 |       98 |       0.13 | *
    |     8111 |        - |       96 |       96 |       0.13 | *
    |     8124 |        - |       94 |       94 |       0.13 | *
    |     8147 |        - |       93 |       93 |       0.13 | *
    |     8551 |        - |       92 |       92 |       0.13 | *
    |     8690 |        - |       91 |       91 |       0.13 | *
    |     8696 |        - |       90 |       90 |       0.13 | *
    |      10K |        - |       89 |       89 |       0.13 | *
    |      10K |        - |       87 |       87 |       0.13 | *
    |      11K |        - |       86 |       86 |       0.13 | *
    |      11K |        - |       85 |       85 |       0.14 | *
    |      12K |        - |       84 |       84 |       0.14 | *
    |      12K |        - |       83 |       83 |       0.14 | *
    |      12K |        - |       82 |       82 |       0.14 | *
    |      12K |        - |       81 |       81 |       0.14 | *
    |      15K |        - |       80 |       80 |       0.14 | *
    |      16K |        - |       78 |       78 |       0.15 | *
    |      16K |        - |       77 |       77 |       0.15 | *
    |      17K |        - |       76 |       76 |       0.15 | *
    |      25K |        - |       75 |       75 |       0.16 | *
    |      26K |        - |       74 |       74 |       0.16 | *
    |      34K |        - |       73 |       73 |       0.17 | *
    |      38K |        - |       72 |       72 |       0.17 | *
    |      39K |        - |       70 |       70 |       0.17 | *
    |      41K |        - |       69 |       69 |       0.17 | *
    |      41K |        - |       68 |       68 |       0.17 | *
    |      47K |        - |       67 |       67 |       0.18 | *
    |      72K |        - |       66 |       66 |       0.20 | *
    |      77K |        - |       65 |       65 |       0.21 | *
    |      78K |        - |       64 |       64 |       0.21 | *
    |      91K |        - |       63 |       63 |       0.22 | *
    |      98K |        - |       62 |       62 |       0.22 | *
    |     118K |        - |       61 |       61 |       0.24 | *
    |     136K |        - |       60 |       60 |       0.25 | *
    |     143K |        - |       59 |       59 |       0.25 | *
    |     146K |        - |       58 |       58 |       0.26 | *
    |     172K |        - |       57 |       57 |       0.29 | *
    |     192K |        - |       56 |       56 |       0.33 | *
    |     262K |        - |       55 |       55 |       0.52 | *
    |     265K |        - |       54 |       54 |       0.52 | *
    |     292K |        - |       53 |       53 |       0.59 | *
    |    1095K |        - |       52 |       52 |       1.51 | *
    |    1099K |        - |       51 |       51 |       1.51 | *
    |    8712K |        - |       50 |       50 |       7.61 | *
    |    8832K |        - |       49 |       49 |       7.74 | *
    |     143M |        - |       48 |       48 |      91.07 | *
    |     143M |        - |       47 |       47 |      91.23 | *
    |     573M |        - |       46 |       46 |     349.30 | *
    |     800M |        - |       45 |       45 |     484.00 | *
    |    6021M |        - |       44 |       44 |    3570.34 | *
    \--------------------------------------------------------/

Neighborhoods statistics (values in %):

    /----------------------------------------------------------------\
    | Move               | Improvs. | Sideways |  Accepts |  Rejects |
    |--------------------|----------|----------|----------|----------|
    | Shift(mk)          |     130K |    1199K |    1367K |     251M |
    | Shift              |     5239 |      13M |      13M |     240M |
    | ShiftSmart(mk)     |     311K |    2310K |    2726K |     250M |
    | ShiftSmart         |      12K |      28M |      28M |     225M |
    | SimpSwap(mk)       |     1226 |     3740 |     5372 |     253M |
    | SimpSwap           |       98 |      32K |      33K |     253M |
    | SimpSwapSmart(mk)  |     3504 |      11K |      16K |     253M |
    | SimpSwapSmart      |      304 |     109K |     112K |     253M |
    | Swap(mk)           |      747 |     3031 |     4000 |     253M |
    | Swap               |       64 |      18K |      19K |     253M |
    | SwapSmart(mk)      |     4496 |      24K |      30K |     253M |
    | SwapSmart          |      402 |     129K |     133K |     253M |
    | Switch(mk)         |      44K |      55M |      55M |     198M |
    | Switch             |     1771 |      69M |      69M |     184M |
    | SwitchSmart(mk)    |     107K |     579K |     711K |     252M |
    | SwitchSmart        |     4248 |    6495K |    6584K |     246M |
    | TaskMove(mk)       |     5556 |      31K |      39K |     253M |
    | TaskMove           |      258 |      64K |      67K |     253M |
    | TaskMoveSmart(mk)  |      19K |     112K |     139K |     253M |
    | TaskMoveSmart      |      900 |     224K |     236K |     253M |
    | 2-Shift(mk)        |      94K |      18M |      18M |     235M |
    | 2-Shift            |     3739 |      38M |      38M |     215M |
    | 2-ShiftSmart(mk)   |     215K |      30M |      31M |     223M |
    | 2-ShiftSmart       |     8767 |      57M |      58M |     195M |
    \----------------------------------------------------------------/

Best makespan.....: 44
N. of Iterations..: 6069615959
Total runtime.....: 3600.02s
Using Python-MIP package version 1.6.8
Começo a execução
    /-------------------------------------------------------------------------------\
    |    Makespan   |   Free Jobs   | Free Machines |    It. Time   |   Total Time  | 
    |-------------------------------------------------------------------------------|
    \-------------------------------------------------------------------------------/
Terminou a execução
