Instance....: instances/I_100_30_S_1-9_10.txt
Algorithm...: Simulated Annealing (alpha=0.990, saMax=10M, t0=1)
Other params: maxIters=100M, seed=-1, timeLimit=3600.00s

    /--------------------------------------------------------\
    |     Iter |   RDP(%) |       S* |       S' |       Time | 
    |----------|----------|----------|----------|------------|
    |        0 |        - |      443 |      443 |       0.00 | s0
    |        4 |        - |      440 |      440 |       0.02 | *
    |        5 |        - |      410 |      410 |       0.02 | *
    |        8 |        - |      409 |      409 |       0.02 | *
    |       11 |        - |      406 |      406 |       0.02 | *
    |       12 |        - |      405 |      405 |       0.03 | *
    |       17 |        - |      385 |      385 |       0.03 | *
    |       21 |        - |      382 |      382 |       0.03 | *
    |       23 |        - |      374 |      374 |       0.03 | *
    |       30 |        - |      361 |      361 |       0.03 | *
    |       38 |        - |      360 |      360 |       0.04 | *
    |       40 |        - |      354 |      354 |       0.04 | *
    |       41 |        - |      351 |      351 |       0.04 | *
    |       42 |        - |      345 |      345 |       0.04 | *
    |       45 |        - |      331 |      331 |       0.04 | *
    |       46 |        - |      321 |      321 |       0.04 | *
    |       47 |        - |      314 |      314 |       0.04 | *
    |       49 |        - |      308 |      308 |       0.04 | *
    |       51 |        - |      303 |      303 |       0.04 | *
    |       54 |        - |      298 |      298 |       0.04 | *
    |       74 |        - |      297 |      297 |       0.04 | *
    |       80 |        - |      295 |      295 |       0.04 | *
    |       86 |        - |      294 |      294 |       0.04 | *
    |       89 |        - |      293 |      293 |       0.04 | *
    |       91 |        - |      291 |      291 |       0.05 | *
    |      100 |        - |      287 |      287 |       0.05 | *
    |      101 |        - |      281 |      281 |       0.05 | *
    |      102 |        - |      278 |      278 |       0.05 | *
    |      105 |        - |      274 |      274 |       0.05 | *
    |      110 |        - |      273 |      273 |       0.05 | *
    |      114 |        - |      272 |      272 |       0.05 | *
    |      116 |        - |      266 |      266 |       0.05 | *
    |      139 |        - |      261 |      261 |       0.05 | *
    |      157 |        - |      252 |      252 |       0.05 | *
    |      161 |        - |      250 |      250 |       0.05 | *
    |      166 |        - |      249 |      249 |       0.05 | *
    |      168 |        - |      246 |      246 |       0.05 | *
    |      172 |        - |      244 |      244 |       0.05 | *
    |      175 |        - |      241 |      241 |       0.06 | *
    |      177 |        - |      240 |      240 |       0.06 | *
    |      180 |        - |      238 |      238 |       0.06 | *
    |      183 |        - |      237 |      237 |       0.06 | *
    |      187 |        - |      234 |      234 |       0.06 | *
    |      189 |        - |      232 |      232 |       0.06 | *
    |      192 |        - |      229 |      229 |       0.06 | *
    |      198 |        - |      228 |      228 |       0.06 | *
    |      208 |        - |      226 |      226 |       0.06 | *
    |      216 |        - |      215 |      215 |       0.06 | *
    |      217 |        - |      211 |      211 |       0.06 | *
    |      218 |        - |      209 |      209 |       0.06 | *
    |      220 |        - |      205 |      205 |       0.07 | *
    |      229 |        - |      201 |      201 |       0.07 | *
    |      234 |        - |      196 |      196 |       0.07 | *
    |      239 |        - |      194 |      194 |       0.07 | *
    |      241 |        - |      193 |      193 |       0.07 | *
    |      244 |        - |      191 |      191 |       0.07 | *
    |      245 |        - |      190 |      190 |       0.07 | *
    |      254 |        - |      189 |      189 |       0.07 | *
    |      257 |        - |      188 |      188 |       0.07 | *
    |      264 |        - |      186 |      186 |       0.07 | *
    |      272 |        - |      184 |      184 |       0.07 | *
    |      293 |        - |      183 |      183 |       0.07 | *
    |      295 |        - |      182 |      182 |       0.07 | *
    |      309 |        - |      181 |      181 |       0.07 | *
    |      311 |        - |      180 |      180 |       0.07 | *
    |      313 |        - |      178 |      178 |       0.08 | *
    |      334 |        - |      176 |      176 |       0.08 | *
    |      349 |        - |      167 |      167 |       0.08 | *
    |      352 |        - |      165 |      165 |       0.08 | *
    |      367 |        - |      164 |      164 |       0.08 | *
    |      376 |        - |      163 |      163 |       0.08 | *
    |      383 |        - |      162 |      162 |       0.08 | *
    |      394 |        - |      160 |      160 |       0.08 | *
    |      395 |        - |      157 |      157 |       0.08 | *
    |      402 |        - |      156 |      156 |       0.08 | *
    |      405 |        - |      155 |      155 |       0.08 | *
    |      406 |        - |      153 |      153 |       0.08 | *
    |      414 |        - |      152 |      152 |       0.08 | *
    |      432 |        - |      149 |      149 |       0.08 | *
    |      444 |        - |      148 |      148 |       0.08 | *
    |      445 |        - |      146 |      146 |       0.08 | *
    |      467 |        - |      145 |      145 |       0.08 | *
    |      469 |        - |      142 |      142 |       0.08 | *
    |      472 |        - |      141 |      141 |       0.09 | *
    |      495 |        - |      139 |      139 |       0.09 | *
    |      536 |        - |      137 |      137 |       0.09 | *
    |      553 |        - |      136 |      136 |       0.09 | *
    |      554 |        - |      135 |      135 |       0.09 | *
    |      569 |        - |      134 |      134 |       0.09 | *
    |      573 |        - |      133 |      133 |       0.09 | *
    |      602 |        - |      132 |      132 |       0.09 | *
    |      606 |        - |      131 |      131 |       0.09 | *
    |      610 |        - |      130 |      130 |       0.09 | *
    |      615 |        - |      129 |      129 |       0.09 | *
    |      674 |        - |      128 |      128 |       0.10 | *
    |      675 |        - |      127 |      127 |       0.10 | *
    |      701 |        - |      123 |      123 |       0.10 | *
    |      780 |        - |      121 |      121 |       0.10 | *
    |      817 |        - |      120 |      120 |       0.10 | *
    |      835 |        - |      119 |      119 |       0.10 | *
    |      857 |        - |      118 |      118 |       0.10 | *
    |      863 |        - |      117 |      117 |       0.10 | *
    |      864 |        - |      116 |      116 |       0.10 | *
    |      866 |        - |      114 |      114 |       0.10 | *
    |      870 |        - |      113 |      113 |       0.10 | *
    |      874 |        - |      112 |      112 |       0.10 | *
    |      925 |        - |      111 |      111 |       0.10 | *
    |      933 |        - |      110 |      110 |       0.10 | *
    |      977 |        - |      109 |      109 |       0.10 | *
    |      996 |        - |      108 |      108 |       0.11 | *
    |     1015 |        - |      107 |      107 |       0.11 | *
    |     1036 |        - |      106 |      106 |       0.11 | *
    |     1049 |        - |      104 |      104 |       0.11 | *
    |     1086 |        - |      103 |      103 |       0.11 | *
    |     1152 |        - |      102 |      102 |       0.11 | *
    |     1185 |        - |      100 |      100 |       0.11 | *
    |     1187 |        - |       99 |       99 |       0.11 | *
    |     1190 |        - |       98 |       98 |       0.11 | *
    |     1216 |        - |       97 |       97 |       0.11 | *
    |     1227 |        - |       95 |       95 |       0.11 | *
    |     1261 |        - |       94 |       94 |       0.11 | *
    |     1263 |        - |       93 |       93 |       0.11 | *
    |     1287 |        - |       92 |       92 |       0.11 | *
    |     1292 |        - |       91 |       91 |       0.12 | *
    |     1365 |        - |       90 |       90 |       0.12 | *
    |     1385 |        - |       89 |       89 |       0.12 | *
    |     1400 |        - |       88 |       88 |       0.12 | *
    |     1405 |        - |       86 |       86 |       0.12 | *
    |     1489 |        - |       85 |       85 |       0.12 | *
    |     1494 |        - |       84 |       84 |       0.12 | *
    |     1503 |        - |       83 |       83 |       0.12 | *
    |     1507 |        - |       82 |       82 |       0.12 | *
    |     1561 |        - |       81 |       81 |       0.12 | *
    |     1621 |        - |       80 |       80 |       0.12 | *
    |     1627 |        - |       79 |       79 |       0.13 | *
    |     1697 |        - |       78 |       78 |       0.13 | *
    |     1805 |        - |       77 |       77 |       0.13 | *
    |     1934 |        - |       76 |       76 |       0.13 | *
    |     2313 |        - |       75 |       75 |       0.13 | *
    |     2318 |        - |       74 |       74 |       0.13 | *
    |     2370 |        - |       71 |       71 |       0.13 | *
    |     2379 |        - |       70 |       70 |       0.13 | *
    |     2451 |        - |       69 |       69 |       0.13 | *
    |     2738 |        - |       68 |       68 |       0.13 | *
    |     2768 |        - |       66 |       66 |       0.13 | *
    |     2922 |        - |       65 |       65 |       0.14 | *
    |     2974 |        - |       64 |       64 |       0.14 | *
    |     3526 |        - |       63 |       63 |       0.14 | *
    |     3775 |        - |       62 |       62 |       0.14 | *
    |     3778 |        - |       61 |       61 |       0.15 | *
    |     3940 |        - |       60 |       60 |       0.15 | *
    |     4042 |        - |       59 |       59 |       0.15 | *
    |     4177 |        - |       58 |       58 |       0.15 | *
    |     4185 |        - |       57 |       57 |       0.15 | *
    |     4384 |        - |       56 |       56 |       0.15 | *
    |     4400 |        - |       55 |       55 |       0.15 | *
    |     4522 |        - |       54 |       54 |       0.15 | *
    |     4912 |        - |       53 |       53 |       0.15 | *
    |     5006 |        - |       52 |       52 |       0.16 | *
    |     5250 |        - |       51 |       51 |       0.16 | *
    |     5286 |        - |       50 |       50 |       0.16 | *
    |     5287 |        - |       49 |       49 |       0.16 | *
    |     5864 |        - |       48 |       48 |       0.16 | *
    |     6158 |        - |       47 |       47 |       0.17 | *
    |     6241 |        - |       46 |       46 |       0.17 | *
    |     6470 |        - |       45 |       45 |       0.17 | *
    |     6518 |        - |       44 |       44 |       0.17 | *
    |     7571 |        - |       43 |       43 |       0.17 | *
    |     8879 |        - |       42 |       42 |       0.18 | *
    |     9154 |        - |       41 |       41 |       0.18 | *
    |     9216 |        - |       40 |       40 |       0.18 | *
    |     9327 |        - |       39 |       39 |       0.18 | *
    |      10K |        - |       38 |       38 |       0.18 | *
    |      12K |        - |       37 |       37 |       0.19 | *
    |      12K |        - |       36 |       36 |       0.19 | *
    |      12K |        - |       35 |       35 |       0.19 | *
    |      15K |        - |       34 |       34 |       0.19 | *
    |      16K |        - |       33 |       33 |       0.20 | *
    |      26K |        - |       32 |       32 |       0.22 | *
    |      55K |        - |       31 |       31 |       0.27 | *
    |      60K |        - |       30 |       30 |       0.28 | *
    |      74K |        - |       29 |       29 |       0.31 | *
    |      98K |        - |       28 |       28 |       0.34 | *
    |     227K |        - |       27 |       27 |       0.58 | *
    |     232K |        - |       26 |       26 |       0.59 | *
    |    6999K |        - |       25 |       25 |       6.95 | *
    |    9032K |        - |       24 |       24 |       8.80 | *
    |     234M |        - |       23 |       23 |     147.09 | *
    |     371M |        - |       22 |       22 |     230.28 | *
    |     764M |        - |       21 |       21 |     471.35 | *
    |    1082M |        - |       20 |       20 |     669.37 | *
    \--------------------------------------------------------/

Neighborhoods statistics (values in %):

    /----------------------------------------------------------------\
    | Move               | Improvs. | Sideways |  Accepts |  Rejects |
    |--------------------|----------|----------|----------|----------|
    | Shift(mk)          |    1546K |    6751K |    9210K |     233M |
    | Shift              |      53K |      53M |      54M |     189M |
    | ShiftSmart(mk)     |    2903K |      12M |      17M |     226M |
    | ShiftSmart         |     100K |      81M |      82M |     161M |
    | SimpSwap(mk)       |      12K |      66K |      85K |     243M |
    | SimpSwap           |      808 |     147K |     159K |     243M |
    | SimpSwapSmart(mk)  |      30K |     149K |     196K |     243M |
    | SimpSwapSmart      |     2099 |     352K |     381K |     243M |
    | Swap(mk)           |      11K |      41K |      58K |     243M |
    | Swap               |      767 |     114K |     125K |     243M |
    | SwapSmart(mk)      |      23K |     129K |     163K |     243M |
    | SwapSmart          |     1556 |     260K |     277K |     243M |
    | Switch(mk)         |     892K |      68M |      70M |     173M |
    | Switch             |      31K |     107M |     108M |     135M |
    | SwitchSmart(mk)    |    1764K |      10M |      13M |     230M |
    | SwitchSmart        |      61K |      54M |      55M |     189M |
    | TaskMove(mk)       |      67K |     195K |     292K |     243M |
    | TaskMove           |     2350 |     350K |     382K |     243M |
    | TaskMoveSmart(mk)  |     130K |     395K |     584K |     242M |
    | TaskMoveSmart      |     4431 |     774K |     836K |     242M |
    | 2-Shift(mk)        |    1138K |      31M |      32M |     210M |
    | 2-Shift            |      40K |      85M |      86M |     157M |
    | 2-ShiftSmart(mk)   |    2038K |      51M |      54M |     189M |
    | 2-ShiftSmart       |      70K |     130M |     131M |     112M |
    \----------------------------------------------------------------/

Best makespan.....: 20
N. of Iterations..: 5831492885
Total runtime.....: 3600.02s
Using Python-MIP package version 1.6.8
Começo a execução
    /-------------------------------------------------------------------------------\
    |    Makespan   |   Free Jobs   | Free Machines |    It. Time   |   Total Time  | 
    |-------------------------------------------------------------------------------|
    \-------------------------------------------------------------------------------/
Terminou a execução
