Instance....: instances/I_150_25_S_1-99_2.txt
Algorithm...: Simulated Annealing (alpha=0.990, saMax=10M, t0=1)
Other params: maxIters=100M, seed=-1, timeLimit=3600.00s

    /--------------------------------------------------------\
    |     Iter |   RDP(%) |       S* |       S' |       Time | 
    |----------|----------|----------|----------|------------|
    |        0 |        - |     1649 |     1649 |       0.01 | s0
    |        0 |        - |     1597 |     1597 |       0.01 | *
    |        6 |        - |     1519 |     1519 |       0.01 | *
    |        8 |        - |     1416 |     1416 |       0.01 | *
    |       13 |        - |     1263 |     1263 |       0.01 | *
    |       14 |        - |     1261 |     1261 |       0.01 | *
    |       15 |        - |     1169 |     1169 |       0.02 | *
    |       21 |        - |     1050 |     1050 |       0.02 | *
    |       22 |        - |     1021 |     1021 |       0.02 | *
    |       23 |        - |     1003 |     1003 |       0.02 | *
    |       26 |        - |      995 |      995 |       0.04 | *
    |       27 |        - |      976 |      976 |       0.05 | *
    |       28 |        - |      972 |      972 |       0.05 | *
    |       29 |        - |      961 |      961 |       0.05 | *
    |       36 |        - |      924 |      924 |       0.05 | *
    |       43 |        - |      911 |      911 |       0.05 | *
    |       47 |        - |      888 |      888 |       0.05 | *
    |       49 |        - |      859 |      859 |       0.05 | *
    |       76 |        - |      854 |      854 |       0.05 | *
    |       80 |        - |      849 |      849 |       0.06 | *
    |       81 |        - |      847 |      847 |       0.06 | *
    |       82 |        - |      845 |      845 |       0.06 | *
    |       84 |        - |      833 |      833 |       0.06 | *
    |       86 |        - |      812 |      812 |       0.06 | *
    |       90 |        - |      796 |      796 |       0.06 | *
    |       93 |        - |      794 |      794 |       0.06 | *
    |       95 |        - |      787 |      787 |       0.06 | *
    |       96 |        - |      778 |      778 |       0.06 | *
    |       97 |        - |      767 |      767 |       0.06 | *
    |       99 |        - |      765 |      765 |       0.06 | *
    |      100 |        - |      750 |      750 |       0.06 | *
    |      101 |        - |      743 |      743 |       0.07 | *
    |      105 |        - |      723 |      723 |       0.07 | *
    |      108 |        - |      713 |      713 |       0.07 | *
    |      110 |        - |      712 |      712 |       0.07 | *
    |      112 |        - |      700 |      700 |       0.07 | *
    |      116 |        - |      696 |      696 |       0.07 | *
    |      140 |        - |      691 |      691 |       0.07 | *
    |      148 |        - |      688 |      688 |       0.07 | *
    |      150 |        - |      678 |      678 |       0.07 | *
    |      156 |        - |      677 |      677 |       0.07 | *
    |      160 |        - |      675 |      675 |       0.08 | *
    |      164 |        - |      670 |      670 |       0.08 | *
    |      179 |        - |      669 |      669 |       0.08 | *
    |      180 |        - |      647 |      647 |       0.08 | *
    |      181 |        - |      642 |      642 |       0.08 | *
    |      185 |        - |      629 |      629 |       0.08 | *
    |      187 |        - |      620 |      620 |       0.08 | *
    |      189 |        - |      618 |      618 |       0.08 | *
    |      197 |        - |      610 |      610 |       0.08 | *
    |      199 |        - |      600 |      600 |       0.08 | *
    |      209 |        - |      599 |      599 |       0.08 | *
    |      216 |        - |      595 |      595 |       0.09 | *
    |      227 |        - |      591 |      591 |       0.09 | *
    |      231 |        - |      582 |      582 |       0.09 | *
    |      234 |        - |      575 |      575 |       0.09 | *
    |      238 |        - |      563 |      563 |       0.09 | *
    |      246 |        - |      561 |      561 |       0.09 | *
    |      259 |        - |      559 |      559 |       0.09 | *
    |      263 |        - |      556 |      556 |       0.09 | *
    |      265 |        - |      554 |      554 |       0.09 | *
    |      281 |        - |      553 |      553 |       0.09 | *
    |      291 |        - |      535 |      535 |       0.09 | *
    |      313 |        - |      534 |      534 |       0.09 | *
    |      342 |        - |      525 |      525 |       0.10 | *
    |      345 |        - |      512 |      512 |       0.10 | *
    |      368 |        - |      500 |      500 |       0.10 | *
    |      387 |        - |      498 |      498 |       0.10 | *
    |      398 |        - |      490 |      490 |       0.10 | *
    |      411 |        - |      485 |      485 |       0.10 | *
    |      417 |        - |      477 |      477 |       0.10 | *
    |      429 |        - |      458 |      458 |       0.10 | *
    |      432 |        - |      457 |      457 |       0.10 | *
    |      438 |        - |      453 |      453 |       0.10 | *
    |      468 |        - |      451 |      451 |       0.10 | *
    |      499 |        - |      449 |      449 |       0.11 | *
    |      502 |        - |      446 |      446 |       0.11 | *
    |      504 |        - |      444 |      444 |       0.11 | *
    |      507 |        - |      443 |      443 |       0.11 | *
    |      511 |        - |      442 |      442 |       0.11 | *
    |      520 |        - |      440 |      440 |       0.11 | *
    |      535 |        - |      439 |      439 |       0.11 | *
    |      557 |        - |      438 |      438 |       0.11 | *
    |      564 |        - |      437 |      437 |       0.11 | *
    |      582 |        - |      430 |      430 |       0.11 | *
    |      591 |        - |      429 |      429 |       0.11 | *
    |      592 |        - |      423 |      423 |       0.11 | *
    |      602 |        - |      415 |      415 |       0.11 | *
    |      605 |        - |      412 |      412 |       0.12 | *
    |      621 |        - |      411 |      411 |       0.12 | *
    |      624 |        - |      409 |      409 |       0.12 | *
    |      625 |        - |      406 |      406 |       0.12 | *
    |      630 |        - |      402 |      402 |       0.12 | *
    |      632 |        - |      399 |      399 |       0.12 | *
    |      641 |        - |      398 |      398 |       0.12 | *
    |      643 |        - |      391 |      391 |       0.12 | *
    |      684 |        - |      387 |      387 |       0.12 | *
    |      695 |        - |      384 |      384 |       0.12 | *
    |      707 |        - |      383 |      383 |       0.12 | *
    |      714 |        - |      382 |      382 |       0.12 | *
    |      725 |        - |      380 |      380 |       0.13 | *
    |      757 |        - |      377 |      377 |       0.13 | *
    |      762 |        - |      374 |      374 |       0.13 | *
    |      773 |        - |      372 |      372 |       0.13 | *
    |      809 |        - |      370 |      370 |       0.13 | *
    |      820 |        - |      368 |      368 |       0.13 | *
    |      824 |        - |      367 |      367 |       0.13 | *
    |      832 |        - |      366 |      366 |       0.13 | *
    |      849 |        - |      365 |      365 |       0.13 | *
    |      852 |        - |      362 |      362 |       0.13 | *
    |      892 |        - |      357 |      357 |       0.14 | *
    |      901 |        - |      356 |      356 |       0.14 | *
    |      938 |        - |      353 |      353 |       0.14 | *
    |      952 |        - |      351 |      351 |       0.14 | *
    |      983 |        - |      350 |      350 |       0.14 | *
    |     1041 |        - |      349 |      349 |       0.14 | *
    |     1052 |        - |      347 |      347 |       0.14 | *
    |     1059 |        - |      344 |      344 |       0.14 | *
    |     1077 |        - |      341 |      341 |       0.14 | *
    |     1079 |        - |      340 |      340 |       0.14 | *
    |     1112 |        - |      339 |      339 |       0.15 | *
    |     1123 |        - |      338 |      338 |       0.15 | *
    |     1151 |        - |      336 |      336 |       0.15 | *
    |     1168 |        - |      334 |      334 |       0.15 | *
    |     1175 |        - |      332 |      332 |       0.15 | *
    |     1203 |        - |      330 |      330 |       0.15 | *
    |     1212 |        - |      328 |      328 |       0.15 | *
    |     1220 |        - |      327 |      327 |       0.15 | *
    |     1223 |        - |      324 |      324 |       0.15 | *
    |     1277 |        - |      322 |      322 |       0.16 | *
    |     1362 |        - |      320 |      320 |       0.16 | *
    |     1397 |        - |      319 |      319 |       0.16 | *
    |     1400 |        - |      318 |      318 |       0.16 | *
    |     1401 |        - |      317 |      317 |       0.16 | *
    |     1412 |        - |      310 |      310 |       0.16 | *
    |     1421 |        - |      307 |      307 |       0.16 | *
    |     1439 |        - |      306 |      306 |       0.16 | *
    |     1496 |        - |      305 |      305 |       0.17 | *
    |     1671 |        - |      304 |      304 |       0.17 | *
    |     1713 |        - |      303 |      303 |       0.17 | *
    |     1726 |        - |      302 |      302 |       0.17 | *
    |     1727 |        - |      301 |      301 |       0.17 | *
    |     1742 |        - |      300 |      300 |       0.17 | *
    |     1834 |        - |      299 |      299 |       0.17 | *
    |     1837 |        - |      298 |      298 |       0.17 | *
    |     1842 |        - |      297 |      297 |       0.18 | *
    |     1881 |        - |      296 |      296 |       0.18 | *
    |     1893 |        - |      294 |      294 |       0.18 | *
    |     1912 |        - |      293 |      293 |       0.18 | *
    |     2026 |        - |      292 |      292 |       0.18 | *
    |     2028 |        - |      289 |      289 |       0.18 | *
    |     2055 |        - |      287 |      287 |       0.18 | *
    |     2292 |        - |      286 |      286 |       0.18 | *
    |     2301 |        - |      285 |      285 |       0.19 | *
    |     2305 |        - |      284 |      284 |       0.19 | *
    |     2384 |        - |      282 |      282 |       0.19 | *
    |     2500 |        - |      281 |      281 |       0.19 | *
    |     2622 |        - |      280 |      280 |       0.19 | *
    |     2668 |        - |      279 |      279 |       0.19 | *
    |     2693 |        - |      277 |      277 |       0.19 | *
    |     2926 |        - |      276 |      276 |       0.20 | *
    |     3008 |        - |      274 |      274 |       0.20 | *
    |     3059 |        - |      273 |      273 |       0.20 | *
    |     3089 |        - |      271 |      271 |       0.20 | *
    |     3189 |        - |      270 |      270 |       0.20 | *
    |     3216 |        - |      269 |      269 |       0.20 | *
    |     3289 |        - |      268 |      268 |       0.20 | *
    |     3619 |        - |      267 |      267 |       0.21 | *
    |     3656 |        - |      266 |      266 |       0.21 | *
    |     3788 |        - |      265 |      265 |       0.21 | *
    |     3818 |        - |      264 |      264 |       0.21 | *
    |     3819 |        - |      263 |      263 |       0.21 | *
    |     3837 |        - |      262 |      262 |       0.21 | *
    |     3922 |        - |      258 |      258 |       0.22 | *
    |     3945 |        - |      257 |      257 |       0.22 | *
    |     3987 |        - |      256 |      256 |       0.22 | *
    |     4021 |        - |      255 |      255 |       0.22 | *
    |     4116 |        - |      254 |      254 |       0.22 | *
    |     4133 |        - |      252 |      252 |       0.22 | *
    |     4152 |        - |      250 |      250 |       0.22 | *
    |     4162 |        - |      249 |      249 |       0.22 | *
    |     4182 |        - |      248 |      248 |       0.22 | *
    |     4349 |        - |      247 |      247 |       0.22 | *
    |     4432 |        - |      245 |      245 |       0.23 | *
    |     4570 |        - |      242 |      242 |       0.23 | *
    |     4594 |        - |      241 |      241 |       0.23 | *
    |     4599 |        - |      240 |      240 |       0.23 | *
    |     4628 |        - |      239 |      239 |       0.23 | *
    |     4687 |        - |      238 |      238 |       0.23 | *
    |     4792 |        - |      236 |      236 |       0.23 | *
    |     4795 |        - |      233 |      233 |       0.23 | *
    |     4831 |        - |      232 |      232 |       0.23 | *
    |     4892 |        - |      231 |      231 |       0.23 | *
    |     4952 |        - |      229 |      229 |       0.23 | *
    |     4966 |        - |      225 |      225 |       0.24 | *
    |     5004 |        - |      223 |      223 |       0.24 | *
    |     5083 |        - |      222 |      222 |       0.24 | *
    |     5119 |        - |      221 |      221 |       0.24 | *
    |     5183 |        - |      220 |      220 |       0.24 | *
    |     5189 |        - |      219 |      219 |       0.24 | *
    |     5378 |        - |      218 |      218 |       0.24 | *
    |     5479 |        - |      217 |      217 |       0.24 | *
    |     5481 |        - |      216 |      216 |       0.24 | *
    |     5496 |        - |      215 |      215 |       0.24 | *
    |     5752 |        - |      214 |      214 |       0.25 | *
    |     5881 |        - |      213 |      213 |       0.25 | *
    |     6305 |        - |      211 |      211 |       0.25 | *
    |     6672 |        - |      210 |      210 |       0.25 | *
    |     7232 |        - |      209 |      209 |       0.25 | *
    |     7411 |        - |      208 |      208 |       0.26 | *
    |     7836 |        - |      206 |      206 |       0.26 | *
    |     9585 |        - |      203 |      203 |       0.27 | *
    |     9776 |        - |      202 |      202 |       0.27 | *
    |     9929 |        - |      201 |      201 |       0.27 | *
    |      10K |        - |      200 |      200 |       0.27 | *
    |      10K |        - |      199 |      199 |       0.28 | *
    |      10K |        - |      198 |      198 |       0.28 | *
    |      10K |        - |      197 |      197 |       0.28 | *
    |      11K |        - |      195 |      195 |       0.28 | *
    |      11K |        - |      194 |      194 |       0.28 | *
    |      11K |        - |      193 |      193 |       0.28 | *
    |      11K |        - |      192 |      192 |       0.28 | *
    |      11K |        - |      191 |      191 |       0.28 | *
    |      11K |        - |      190 |      190 |       0.29 | *
    |      11K |        - |      189 |      189 |       0.29 | *
    |      11K |        - |      188 |      188 |       0.29 | *
    |      12K |        - |      186 |      186 |       0.29 | *
    |      12K |        - |      185 |      185 |       0.29 | *
    |      13K |        - |      184 |      184 |       0.29 | *
    |      13K |        - |      183 |      183 |       0.29 | *
    |      13K |        - |      181 |      181 |       0.29 | *
    |      13K |        - |      179 |      179 |       0.30 | *
    |      14K |        - |      178 |      178 |       0.30 | *
    |      14K |        - |      176 |      176 |       0.30 | *
    |      19K |        - |      175 |      175 |       0.32 | *
    |      19K |        - |      174 |      174 |       0.32 | *
    |      19K |        - |      173 |      173 |       0.32 | *
    |      19K |        - |      172 |      172 |       0.32 | *
    |      21K |        - |      171 |      171 |       0.32 | *
    |      21K |        - |      170 |      170 |       0.32 | *
    |      21K |        - |      169 |      169 |       0.32 | *
    |      25K |        - |      168 |      168 |       0.33 | *
    |      28K |        - |      166 |      166 |       0.34 | *
    |      28K |        - |      165 |      165 |       0.34 | *
    |      30K |        - |      164 |      164 |       0.34 | *
    |      30K |        - |      163 |      163 |       0.34 | *
    |      33K |        - |      162 |      162 |       0.35 | *
    |      33K |        - |      161 |      161 |       0.35 | *
    |      33K |        - |      160 |      160 |       0.36 | *
    |      35K |        - |      158 |      158 |       0.36 | *
    |      36K |        - |      157 |      157 |       0.37 | *
    |      40K |        - |      156 |      156 |       0.38 | *
    |      40K |        - |      154 |      154 |       0.38 | *
    |      40K |        - |      153 |      153 |       0.38 | *
    |      41K |        - |      152 |      152 |       0.38 | *
    |      41K |        - |      151 |      151 |       0.38 | *
    |      50K |        - |      150 |      150 |       0.41 | *
    |      52K |        - |      149 |      149 |       0.41 | *
    |      52K |        - |      148 |      148 |       0.41 | *
    |      52K |        - |      147 |      147 |       0.41 | *
    |      54K |        - |      146 |      146 |       0.42 | *
    |      54K |        - |      145 |      145 |       0.42 | *
    |      60K |        - |      144 |      144 |       0.44 | *
    |      60K |        - |      143 |      143 |       0.44 | *
    |      60K |        - |      142 |      142 |       0.44 | *
    |      62K |        - |      140 |      140 |       0.45 | *
    |      62K |        - |      137 |      137 |       0.45 | *
    |      66K |        - |      136 |      136 |       0.46 | *
    |      89K |        - |      135 |      135 |       0.55 | *
    |      93K |        - |      134 |      134 |       0.56 | *
    |     106K |        - |      133 |      133 |       0.61 | *
    |     108K |        - |      132 |      132 |       0.62 | *
    |     109K |        - |      131 |      131 |       0.63 | *
    |     109K |        - |      130 |      130 |       0.63 | *
    |     111K |        - |      129 |      129 |       0.64 | *
    |     112K |        - |      128 |      128 |       0.64 | *
    |     123K |        - |      127 |      127 |       0.69 | *
    |     123K |        - |      126 |      126 |       0.69 | *
    |     123K |        - |      125 |      125 |       0.69 | *
    |     128K |        - |      124 |      124 |       0.71 | *
    |     128K |        - |      123 |      123 |       0.71 | *
    |     145K |        - |      122 |      122 |       0.77 | *
    |     151K |        - |      121 |      121 |       0.79 | *
    |     168K |        - |      120 |      120 |       0.85 | *
    |     178K |        - |      119 |      119 |       0.89 | *
    |     191K |        - |      118 |      118 |       0.94 | *
    |     204K |        - |      117 |      117 |       0.99 | *
    |     211K |        - |      116 |      116 |       1.03 | *
    |     214K |        - |      115 |      115 |       1.05 | *
    |     217K |        - |      114 |      114 |       1.06 | *
    |     247K |        - |      113 |      113 |       1.15 | *
    |     257K |        - |      112 |      112 |       1.17 | *
    |     269K |        - |      111 |      111 |       1.19 | *
    |     277K |        - |      110 |      110 |       1.20 | *
    |     443K |        - |      109 |      109 |       1.40 | *
    |     443K |        - |      108 |      108 |       1.40 | *
    |     444K |        - |      107 |      107 |       1.41 | *
    |     448K |        - |      106 |      106 |       1.41 | *
    |     459K |        - |      105 |      105 |       1.43 | *
    |     463K |        - |      104 |      104 |       1.43 | *
    |     467K |        - |      103 |      103 |       1.44 | *
    |     471K |        - |      101 |      101 |       1.44 | *
    |     893K |        - |      100 |      100 |       1.80 | *
    |    1569K |        - |       99 |       99 |       2.47 | *
    |    1583K |        - |       98 |       98 |       2.50 | *
    |    1662K |        - |       97 |       97 |       2.63 | *
    |    1775K |        - |       96 |       96 |       2.80 | *
    |    1977K |        - |       95 |       95 |       3.13 | *
    |    2734K |        - |       94 |       94 |       4.03 | *
    |    2873K |        - |       93 |       93 |       4.18 | *
    |    2989K |        - |       92 |       92 |       4.28 | *
    |    3397K |        - |       91 |       91 |       4.57 | *
    |    4590K |        - |       90 |       90 |       6.00 | *
    |    4590K |        - |       89 |       89 |       6.00 | *
    |    4595K |        - |       88 |       88 |       6.00 | *
    |    5125K |        - |       87 |       87 |       6.44 | *
    |      10M |        - |       86 |       86 |       9.76 | *
    |      11M |        - |       85 |       85 |      10.04 | *
    |      11M |        - |       84 |       84 |      10.14 | *
    |      23M |        - |       83 |       83 |      18.08 | *
    |      32M |        - |       82 |       82 |      24.45 | *
    |      33M |        - |       81 |       81 |      24.48 | *
    |      33M |        - |       80 |       80 |      24.50 | *
    |      42M |        - |       79 |       79 |      30.52 | *
    |      42M |        - |       78 |       78 |      30.83 | *
    |     464M |        - |       77 |       77 |     305.48 | *
    |     504M |        - |       76 |       76 |     331.31 | *
    \--------------------------------------------------------/

Neighborhoods statistics (values in %):

    /----------------------------------------------------------------\
    | Move               | Improvs. | Sideways |  Accepts |  Rejects |
    |--------------------|----------|----------|----------|----------|
    | Shift(mk)          |      22K |      84K |     113K |     236M |
    | Shift              |      870 |    1724K |    1742K |     235M |
    | ShiftSmart(mk)     |      96K |     377K |     502K |     236M |
    | ShiftSmart         |     3856 |    8029K |    8103K |     228M |
    | SimpSwap(mk)       |      173 |      347 |      558 |     236M |
    | SimpSwap           |       13 |     1837 |     2010 |     237M |
    | SimpSwapSmart(mk)  |      820 |     1809 |     2895 |     237M |
    | SimpSwapSmart      |       65 |     9270 |      10K |     236M |
    | Swap(mk)           |       44 |      103 |      155 |     236M |
    | Swap               |        5 |      678 |      734 |     237M |
    | SwapSmart(mk)      |      844 |     2338 |     3459 |     236M |
    | SwapSmart          |       75 |      13K |      14K |     236M |
    | Switch(mk)         |     6904 |      39M |      39M |     197M |
    | Switch             |      256 |      41M |      41M |     195M |
    | SwitchSmart(mk)    |      35K |      29K |      80K |     237M |
    | SwitchSmart        |     1343 |     956K |     977K |     235M |
    | TaskMove(mk)       |     1479 |     6321 |     8324 |     236M |
    | TaskMove           |       65 |      26K |      27K |     237M |
    | TaskMoveSmart(mk)  |     8336 |      35K |      47K |     236M |
    | TaskMoveSmart      |      445 |     137K |     143K |     236M |
    | 2-Shift(mk)        |      11K |    7953K |    7967K |     228M |
    | 2-Shift            |      486 |      10M |      10M |     227M |
    | 2-ShiftSmart(mk)   |      48K |      21M |      21M |     215M |
    | 2-ShiftSmart       |     1801 |      16M |      16M |     221M |
    \----------------------------------------------------------------/

Best makespan.....: 76
N. of Iterations..: 5675352944
Total runtime.....: 3600.02s
Using Python-MIP package version 1.6.8
Começo a execução
    /-------------------------------------------------------------------------------\
    |    Makespan   |   Free Jobs   | Free Machines |    It. Time   |   Total Time  | 
    |-------------------------------------------------------------------------------|
    \-------------------------------------------------------------------------------/
Terminou a execução
