Instance....: instances/I_150_30_S_1-9_7.txt
Algorithm...: Simulated Annealing (alpha=0.990, saMax=10M, t0=1)
Other params: maxIters=100M, seed=-1, timeLimit=3600.00s

    /--------------------------------------------------------\
    |     Iter |   RDP(%) |       S* |       S' |       Time | 
    |----------|----------|----------|----------|------------|
    |        0 |        - |      650 |      650 |       0.00 | s0
    |        0 |        - |      605 |      605 |       0.01 | *
    |        3 |        - |      596 |      596 |       0.01 | *
    |       11 |        - |      571 |      571 |       0.01 | *
    |       12 |        - |      568 |      568 |       0.01 | *
    |       15 |        - |      565 |      565 |       0.03 | *
    |       17 |        - |      564 |      564 |       0.03 | *
    |       20 |        - |      551 |      551 |       0.03 | *
    |       25 |        - |      537 |      537 |       0.03 | *
    |       29 |        - |      535 |      535 |       0.03 | *
    |       51 |        - |      534 |      534 |       0.04 | *
    |       55 |        - |      529 |      529 |       0.04 | *
    |       57 |        - |      526 |      526 |       0.04 | *
    |       58 |        - |      524 |      524 |       0.04 | *
    |       59 |        - |      519 |      519 |       0.04 | *
    |       64 |        - |      508 |      508 |       0.04 | *
    |       66 |        - |      505 |      505 |       0.04 | *
    |       69 |        - |      496 |      496 |       0.04 | *
    |       70 |        - |      490 |      490 |       0.04 | *
    |       72 |        - |      484 |      484 |       0.04 | *
    |       77 |        - |      483 |      483 |       0.04 | *
    |       82 |        - |      475 |      475 |       0.04 | *
    |       93 |        - |      474 |      474 |       0.04 | *
    |       94 |        - |      470 |      470 |       0.05 | *
    |       96 |        - |      466 |      466 |       0.05 | *
    |      101 |        - |      460 |      460 |       0.05 | *
    |      107 |        - |      456 |      456 |       0.05 | *
    |      108 |        - |      451 |      451 |       0.05 | *
    |      110 |        - |      450 |      450 |       0.05 | *
    |      111 |        - |      447 |      447 |       0.05 | *
    |      113 |        - |      446 |      446 |       0.05 | *
    |      114 |        - |      444 |      444 |       0.05 | *
    |      118 |        - |      443 |      443 |       0.05 | *
    |      123 |        - |      441 |      441 |       0.05 | *
    |      125 |        - |      434 |      434 |       0.05 | *
    |      127 |        - |      424 |      424 |       0.05 | *
    |      134 |        - |      423 |      423 |       0.05 | *
    |      135 |        - |      415 |      415 |       0.05 | *
    |      137 |        - |      412 |      412 |       0.05 | *
    |      143 |        - |      411 |      411 |       0.06 | *
    |      146 |        - |      406 |      406 |       0.06 | *
    |      149 |        - |      404 |      404 |       0.06 | *
    |      150 |        - |      402 |      402 |       0.06 | *
    |      166 |        - |      399 |      399 |       0.06 | *
    |      169 |        - |      398 |      398 |       0.06 | *
    |      182 |        - |      396 |      396 |       0.06 | *
    |      187 |        - |      395 |      395 |       0.06 | *
    |      188 |        - |      390 |      390 |       0.06 | *
    |      189 |        - |      386 |      386 |       0.06 | *
    |      193 |        - |      385 |      385 |       0.06 | *
    |      195 |        - |      379 |      379 |       0.06 | *
    |      196 |        - |      375 |      375 |       0.06 | *
    |      197 |        - |      368 |      368 |       0.06 | *
    |      198 |        - |      366 |      366 |       0.06 | *
    |      200 |        - |      362 |      362 |       0.07 | *
    |      202 |        - |      360 |      360 |       0.07 | *
    |      203 |        - |      352 |      352 |       0.07 | *
    |      211 |        - |      350 |      350 |       0.07 | *
    |      214 |        - |      348 |      348 |       0.07 | *
    |      216 |        - |      347 |      347 |       0.07 | *
    |      218 |        - |      346 |      346 |       0.07 | *
    |      219 |        - |      341 |      341 |       0.07 | *
    |      225 |        - |      336 |      336 |       0.07 | *
    |      228 |        - |      335 |      335 |       0.07 | *
    |      243 |        - |      333 |      333 |       0.07 | *
    |      258 |        - |      332 |      332 |       0.07 | *
    |      261 |        - |      330 |      330 |       0.07 | *
    |      262 |        - |      328 |      328 |       0.07 | *
    |      263 |        - |      326 |      326 |       0.07 | *
    |      273 |        - |      325 |      325 |       0.07 | *
    |      274 |        - |      322 |      322 |       0.08 | *
    |      275 |        - |      320 |      320 |       0.08 | *
    |      276 |        - |      319 |      319 |       0.08 | *
    |      277 |        - |      316 |      316 |       0.08 | *
    |      294 |        - |      315 |      315 |       0.08 | *
    |      314 |        - |      314 |      314 |       0.08 | *
    |      316 |        - |      311 |      311 |       0.08 | *
    |      320 |        - |      307 |      307 |       0.08 | *
    |      321 |        - |      298 |      298 |       0.08 | *
    |      324 |        - |      297 |      297 |       0.08 | *
    |      328 |        - |      294 |      294 |       0.08 | *
    |      329 |        - |      292 |      292 |       0.08 | *
    |      337 |        - |      290 |      290 |       0.08 | *
    |      343 |        - |      289 |      289 |       0.08 | *
    |      345 |        - |      283 |      283 |       0.08 | *
    |      347 |        - |      281 |      281 |       0.08 | *
    |      352 |        - |      280 |      280 |       0.08 | *
    |      356 |        - |      275 |      275 |       0.09 | *
    |      375 |        - |      273 |      273 |       0.09 | *
    |      407 |        - |      272 |      272 |       0.09 | *
    |      410 |        - |      268 |      268 |       0.09 | *
    |      418 |        - |      265 |      265 |       0.09 | *
    |      422 |        - |      264 |      264 |       0.09 | *
    |      424 |        - |      263 |      263 |       0.09 | *
    |      437 |        - |      262 |      262 |       0.09 | *
    |      446 |        - |      260 |      260 |       0.09 | *
    |      450 |        - |      259 |      259 |       0.09 | *
    |      452 |        - |      257 |      257 |       0.09 | *
    |      469 |        - |      252 |      252 |       0.09 | *
    |      481 |        - |      249 |      249 |       0.09 | *
    |      484 |        - |      248 |      248 |       0.09 | *
    |      486 |        - |      246 |      246 |       0.09 | *
    |      491 |        - |      245 |      245 |       0.09 | *
    |      497 |        - |      244 |      244 |       0.09 | *
    |      505 |        - |      238 |      238 |       0.10 | *
    |      517 |        - |      236 |      236 |       0.10 | *
    |      533 |        - |      235 |      235 |       0.10 | *
    |      539 |        - |      232 |      232 |       0.10 | *
    |      541 |        - |      230 |      230 |       0.10 | *
    |      552 |        - |      229 |      229 |       0.10 | *
    |      554 |        - |      228 |      228 |       0.10 | *
    |      563 |        - |      227 |      227 |       0.10 | *
    |      577 |        - |      226 |      226 |       0.10 | *
    |      586 |        - |      225 |      225 |       0.10 | *
    |      587 |        - |      223 |      223 |       0.10 | *
    |      593 |        - |      222 |      222 |       0.10 | *
    |      600 |        - |      221 |      221 |       0.10 | *
    |      623 |        - |      219 |      219 |       0.10 | *
    |      640 |        - |      218 |      218 |       0.10 | *
    |      660 |        - |      217 |      217 |       0.10 | *
    |      726 |        - |      216 |      216 |       0.10 | *
    |      729 |        - |      215 |      215 |       0.11 | *
    |      749 |        - |      214 |      214 |       0.11 | *
    |      750 |        - |      213 |      213 |       0.11 | *
    |      764 |        - |      212 |      212 |       0.11 | *
    |      772 |        - |      211 |      211 |       0.11 | *
    |      774 |        - |      210 |      210 |       0.11 | *
    |      776 |        - |      209 |      209 |       0.11 | *
    |      801 |        - |      207 |      207 |       0.11 | *
    |      811 |        - |      206 |      206 |       0.11 | *
    |      826 |        - |      204 |      204 |       0.11 | *
    |      827 |        - |      203 |      203 |       0.11 | *
    |      828 |        - |      202 |      202 |       0.11 | *
    |      833 |        - |      199 |      199 |       0.12 | *
    |      842 |        - |      198 |      198 |       0.12 | *
    |      872 |        - |      197 |      197 |       0.12 | *
    |      877 |        - |      196 |      196 |       0.12 | *
    |      880 |        - |      195 |      195 |       0.12 | *
    |      888 |        - |      194 |      194 |       0.12 | *
    |      893 |        - |      193 |      193 |       0.12 | *
    |      928 |        - |      191 |      191 |       0.12 | *
    |      932 |        - |      189 |      189 |       0.12 | *
    |      941 |        - |      187 |      187 |       0.12 | *
    |      947 |        - |      186 |      186 |       0.12 | *
    |      952 |        - |      185 |      185 |       0.12 | *
    |      954 |        - |      184 |      184 |       0.12 | *
    |      955 |        - |      183 |      183 |       0.12 | *
    |      957 |        - |      182 |      182 |       0.12 | *
    |      972 |        - |      180 |      180 |       0.12 | *
    |      982 |        - |      179 |      179 |       0.13 | *
    |     1024 |        - |      177 |      177 |       0.13 | *
    |     1041 |        - |      176 |      176 |       0.13 | *
    |     1042 |        - |      175 |      175 |       0.13 | *
    |     1063 |        - |      174 |      174 |       0.13 | *
    |     1069 |        - |      173 |      173 |       0.13 | *
    |     1085 |        - |      172 |      172 |       0.13 | *
    |     1139 |        - |      171 |      171 |       0.13 | *
    |     1156 |        - |      170 |      170 |       0.13 | *
    |     1174 |        - |      169 |      169 |       0.14 | *
    |     1215 |        - |      168 |      168 |       0.14 | *
    |     1222 |        - |      167 |      167 |       0.14 | *
    |     1264 |        - |      166 |      166 |       0.14 | *
    |     1306 |        - |      165 |      165 |       0.14 | *
    |     1318 |        - |      164 |      164 |       0.14 | *
    |     1320 |        - |      163 |      163 |       0.14 | *
    |     1321 |        - |      162 |      162 |       0.14 | *
    |     1360 |        - |      161 |      161 |       0.14 | *
    |     1362 |        - |      160 |      160 |       0.14 | *
    |     1363 |        - |      159 |      159 |       0.14 | *
    |     1364 |        - |      158 |      158 |       0.14 | *
    |     1372 |        - |      157 |      157 |       0.15 | *
    |     1415 |        - |      156 |      156 |       0.15 | *
    |     1438 |        - |      155 |      155 |       0.15 | *
    |     1471 |        - |      154 |      154 |       0.15 | *
    |     1522 |        - |      153 |      153 |       0.15 | *
    |     1553 |        - |      152 |      152 |       0.15 | *
    |     1557 |        - |      151 |      151 |       0.15 | *
    |     1575 |        - |      150 |      150 |       0.15 | *
    |     1661 |        - |      149 |      149 |       0.15 | *
    |     1689 |        - |      148 |      148 |       0.15 | *
    |     1693 |        - |      147 |      147 |       0.15 | *
    |     1830 |        - |      146 |      146 |       0.15 | *
    |     1850 |        - |      144 |      144 |       0.15 | *
    |     1861 |        - |      143 |      143 |       0.16 | *
    |     1911 |        - |      142 |      142 |       0.16 | *
    |     1935 |        - |      141 |      141 |       0.16 | *
    |     1948 |        - |      139 |      139 |       0.16 | *
    |     1955 |        - |      138 |      138 |       0.16 | *
    |     1960 |        - |      137 |      137 |       0.16 | *
    |     1962 |        - |      136 |      136 |       0.16 | *
    |     1965 |        - |      135 |      135 |       0.16 | *
    |     1989 |        - |      134 |      134 |       0.16 | *
    |     2003 |        - |      132 |      132 |       0.16 | *
    |     2005 |        - |      131 |      131 |       0.16 | *
    |     2011 |        - |      130 |      130 |       0.16 | *
    |     2018 |        - |      128 |      128 |       0.16 | *
    |     2048 |        - |      127 |      127 |       0.16 | *
    |     2188 |        - |      126 |      126 |       0.16 | *
    |     2218 |        - |      125 |      125 |       0.17 | *
    |     2223 |        - |      124 |      124 |       0.17 | *
    |     2226 |        - |      123 |      123 |       0.17 | *
    |     2237 |        - |      122 |      122 |       0.17 | *
    |     2283 |        - |      121 |      121 |       0.17 | *
    |     2376 |        - |      120 |      120 |       0.17 | *
    |     2452 |        - |      118 |      118 |       0.17 | *
    |     2486 |        - |      117 |      117 |       0.17 | *
    |     2526 |        - |      116 |      116 |       0.17 | *
    |     2764 |        - |      114 |      114 |       0.17 | *
    |     2779 |        - |      113 |      113 |       0.17 | *
    |     2837 |        - |      112 |      112 |       0.17 | *
    |     2860 |        - |      111 |      111 |       0.18 | *
    |     2867 |        - |      110 |      110 |       0.18 | *
    |     3130 |        - |      109 |      109 |       0.18 | *
    |     3149 |        - |      108 |      108 |       0.18 | *
    |     3328 |        - |      107 |      107 |       0.18 | *
    |     3421 |        - |      106 |      106 |       0.18 | *
    |     3618 |        - |      105 |      105 |       0.18 | *
    |     3687 |        - |      104 |      104 |       0.18 | *
    |     3769 |        - |      103 |      103 |       0.18 | *
    |     4199 |        - |      102 |      102 |       0.19 | *
    |     4237 |        - |      101 |      101 |       0.19 | *
    |     4257 |        - |      100 |      100 |       0.19 | *
    |     4285 |        - |       99 |       99 |       0.19 | *
    |     4372 |        - |       98 |       98 |       0.19 | *
    |     4730 |        - |       97 |       97 |       0.19 | *
    |     4765 |        - |       96 |       96 |       0.19 | *
    |     4995 |        - |       95 |       95 |       0.19 | *
    |     5302 |        - |       94 |       94 |       0.19 | *
    |     5321 |        - |       93 |       93 |       0.19 | *
    |     5425 |        - |       92 |       92 |       0.19 | *
    |     5468 |        - |       91 |       91 |       0.20 | *
    |     5518 |        - |       90 |       90 |       0.20 | *
    |     5733 |        - |       89 |       89 |       0.20 | *
    |     5765 |        - |       88 |       88 |       0.20 | *
    |     5851 |        - |       87 |       87 |       0.20 | *
    |     6053 |        - |       86 |       86 |       0.20 | *
    |     6100 |        - |       85 |       85 |       0.20 | *
    |     6223 |        - |       84 |       84 |       0.20 | *
    |     6435 |        - |       83 |       83 |       0.20 | *
    |     6531 |        - |       82 |       82 |       0.20 | *
    |     6848 |        - |       81 |       81 |       0.20 | *
    |     7048 |        - |       80 |       80 |       0.21 | *
    |     7082 |        - |       79 |       79 |       0.21 | *
    |     7130 |        - |       78 |       78 |       0.21 | *
    |     8368 |        - |       77 |       77 |       0.21 | *
    |     9031 |        - |       76 |       76 |       0.21 | *
    |     9417 |        - |       75 |       75 |       0.21 | *
    |      10K |        - |       74 |       74 |       0.22 | *
    |      11K |        - |       73 |       73 |       0.22 | *
    |      11K |        - |       72 |       72 |       0.22 | *
    |      11K |        - |       71 |       71 |       0.22 | *
    |      11K |        - |       70 |       70 |       0.22 | *
    |      11K |        - |       69 |       69 |       0.22 | *
    |      12K |        - |       68 |       68 |       0.23 | *
    |      12K |        - |       67 |       67 |       0.23 | *
    |      12K |        - |       66 |       66 |       0.23 | *
    |      12K |        - |       65 |       65 |       0.23 | *
    |      12K |        - |       64 |       64 |       0.23 | *
    |      12K |        - |       63 |       63 |       0.23 | *
    |      13K |        - |       62 |       62 |       0.23 | *
    |      13K |        - |       61 |       61 |       0.23 | *
    |      14K |        - |       60 |       60 |       0.23 | *
    |      15K |        - |       59 |       59 |       0.24 | *
    |      15K |        - |       58 |       58 |       0.24 | *
    |      17K |        - |       57 |       57 |       0.24 | *
    |      20K |        - |       56 |       56 |       0.25 | *
    |      20K |        - |       55 |       55 |       0.25 | *
    |      33K |        - |       54 |       54 |       0.27 | *
    |      33K |        - |       53 |       53 |       0.27 | *
    |      33K |        - |       52 |       52 |       0.28 | *
    |      37K |        - |       51 |       51 |       0.28 | *
    |      38K |        - |       50 |       50 |       0.29 | *
    |      41K |        - |       49 |       49 |       0.29 | *
    |      42K |        - |       48 |       48 |       0.29 | *
    |      63K |        - |       47 |       47 |       0.32 | *
    |      84K |        - |       46 |       46 |       0.33 | *
    |      85K |        - |       45 |       45 |       0.33 | *
    |     174K |        - |       44 |       44 |       0.54 | *
    |     179K |        - |       43 |       43 |       0.56 | *
    |     202K |        - |       42 |       42 |       0.63 | *
    |     788K |        - |       41 |       41 |       1.37 | *
    |     790K |        - |       40 |       40 |       1.37 | *
    |      15M |        - |       39 |       39 |      11.44 | *
    |      15M |        - |       38 |       38 |      11.44 | *
    |     122M |        - |       37 |       37 |      79.67 | *
    |     184M |        - |       36 |       36 |     118.95 | *
    |     278M |        - |       35 |       35 |     179.17 | *
    |     375M |        - |       34 |       34 |     240.88 | *
    |     656M |        - |       33 |       33 |     421.24 | *
    |     740M |        - |       32 |       32 |     475.52 | *
    |    1712M |        - |       31 |       31 |    1102.09 | *
    \--------------------------------------------------------/

Neighborhoods statistics (values in %):

    /----------------------------------------------------------------\
    | Move               | Improvs. | Sideways |  Accepts |  Rejects |
    |--------------------|----------|----------|----------|----------|
    | Shift(mk)          |    1074K |    6577K |    8303K |     225M |
    | Shift              |      36K |      30M |      31M |     202M |
    | ShiftSmart(mk)     |    2853K |      20M |      24M |     209M |
    | ShiftSmart         |      95K |      65M |      66M |     167M |
    | SimpSwap(mk)       |     7459 |      21K |      33K |     233M |
    | SimpSwap           |      522 |      73K |      81K |     233M |
    | SimpSwapSmart(mk)  |      28K |      83K |     128K |     233M |
    | SimpSwapSmart      |     2044 |     280K |     310K |     233M |
    | Swap(mk)           |     5925 |      16K |      25K |     233M |
    | Swap               |      389 |      54K |      60K |     233M |
    | SwapSmart(mk)      |      18K |      60K |      87K |     233M |
    | SwapSmart          |     1217 |     165K |     180K |     233M |
    | Switch(mk)         |     665K |      54M |      55M |     178M |
    | Switch             |      22K |      67M |      67M |     166M |
    | SwitchSmart(mk)    |    1582K |    8800K |      11M |     222M |
    | SwitchSmart        |      52K |      36M |      37M |     197M |
    | TaskMove(mk)       |      48K |     131K |     202K |     233M |
    | TaskMove           |     1629 |     211K |     236K |     233M |
    | TaskMoveSmart(mk)  |     116K |     344K |     513K |     233M |
    | TaskMoveSmart      |     3949 |     557K |     614K |     232M |
    | 2-Shift(mk)        |     781K |      21M |      22M |     211M |
    | 2-Shift            |      26K |      38M |      38M |     195M |
    | 2-ShiftSmart(mk)   |    2409K |      50M |      53M |     180M |
    | 2-ShiftSmart       |      80K |      71M |      71M |     162M |
    \----------------------------------------------------------------/

Best makespan.....: 31
N. of Iterations..: 5595431239
Total runtime.....: 3600.02s
Using Python-MIP package version 1.6.8
Começo a execução
    /-------------------------------------------------------------------------------\
    |    Makespan   |   Free Jobs   | Free Machines |    It. Time   |   Total Time  | 
    |-------------------------------------------------------------------------------|
    \-------------------------------------------------------------------------------/
Terminou a execução
