Instance....: instances/I_150_15_S_1-99_9.txt
Algorithm...: Simulated Annealing (alpha=0.990, saMax=10M, t0=1)
Other params: maxIters=100M, seed=-1, timeLimit=3600.00s

    /--------------------------------------------------------\
    |     Iter |   RDP(%) |       S* |       S' |       Time | 
    |----------|----------|----------|----------|------------|
    |        0 |        - |     1856 |     1856 |       0.00 | s0
    |        0 |        - |     1744 |     1744 |       0.00 | *
    |        5 |        - |     1652 |     1652 |       0.02 | *
    |       12 |        - |     1532 |     1532 |       0.02 | *
    |       13 |        - |     1461 |     1461 |       0.02 | *
    |       18 |        - |     1456 |     1456 |       0.02 | *
    |       19 |        - |     1403 |     1403 |       0.02 | *
    |       21 |        - |     1385 |     1385 |       0.03 | *
    |       24 |        - |     1381 |     1381 |       0.03 | *
    |       25 |        - |     1355 |     1355 |       0.03 | *
    |       26 |        - |     1345 |     1345 |       0.03 | *
    |       29 |        - |     1327 |     1327 |       0.03 | *
    |       30 |        - |     1323 |     1323 |       0.03 | *
    |       31 |        - |     1306 |     1306 |       0.03 | *
    |       36 |        - |     1273 |     1273 |       0.03 | *
    |       40 |        - |     1268 |     1268 |       0.03 | *
    |       47 |        - |     1251 |     1251 |       0.03 | *
    |       51 |        - |     1171 |     1171 |       0.03 | *
    |       59 |        - |     1167 |     1167 |       0.03 | *
    |       63 |        - |     1164 |     1164 |       0.04 | *
    |       64 |        - |     1133 |     1133 |       0.04 | *
    |       67 |        - |     1130 |     1130 |       0.04 | *
    |       75 |        - |     1111 |     1111 |       0.04 | *
    |       82 |        - |     1107 |     1107 |       0.04 | *
    |       88 |        - |     1104 |     1104 |       0.04 | *
    |       90 |        - |     1103 |     1103 |       0.04 | *
    |       91 |        - |     1096 |     1096 |       0.04 | *
    |       93 |        - |     1069 |     1069 |       0.04 | *
    |       94 |        - |     1056 |     1056 |       0.04 | *
    |      115 |        - |     1054 |     1054 |       0.04 | *
    |      130 |        - |     1047 |     1047 |       0.04 | *
    |      134 |        - |     1038 |     1038 |       0.04 | *
    |      135 |        - |     1033 |     1033 |       0.04 | *
    |      136 |        - |     1030 |     1030 |       0.04 | *
    |      139 |        - |     1029 |     1029 |       0.05 | *
    |      143 |        - |     1028 |     1028 |       0.05 | *
    |      150 |        - |     1009 |     1009 |       0.05 | *
    |      152 |        - |     1000 |     1000 |       0.05 | *
    |      161 |        - |      972 |      972 |       0.05 | *
    |      166 |        - |      952 |      952 |       0.05 | *
    |      174 |        - |      940 |      940 |       0.05 | *
    |      187 |        - |      925 |      925 |       0.05 | *
    |      195 |        - |      910 |      910 |       0.05 | *
    |      198 |        - |      901 |      901 |       0.05 | *
    |      206 |        - |      895 |      895 |       0.05 | *
    |      212 |        - |      894 |      894 |       0.05 | *
    |      219 |        - |      890 |      890 |       0.05 | *
    |      225 |        - |      883 |      883 |       0.05 | *
    |      245 |        - |      876 |      876 |       0.05 | *
    |      246 |        - |      867 |      867 |       0.06 | *
    |      247 |        - |      859 |      859 |       0.06 | *
    |      248 |        - |      842 |      842 |       0.06 | *
    |      270 |        - |      834 |      834 |       0.06 | *
    |      282 |        - |      828 |      828 |       0.06 | *
    |      284 |        - |      827 |      827 |       0.06 | *
    |      295 |        - |      818 |      818 |       0.06 | *
    |      311 |        - |      811 |      811 |       0.06 | *
    |      312 |        - |      810 |      810 |       0.06 | *
    |      314 |        - |      803 |      803 |       0.06 | *
    |      339 |        - |      791 |      791 |       0.06 | *
    |      347 |        - |      786 |      786 |       0.06 | *
    |      352 |        - |      779 |      779 |       0.06 | *
    |      383 |        - |      768 |      768 |       0.06 | *
    |      389 |        - |      764 |      764 |       0.06 | *
    |      428 |        - |      747 |      747 |       0.06 | *
    |      440 |        - |      735 |      735 |       0.06 | *
    |      498 |        - |      733 |      733 |       0.07 | *
    |      534 |        - |      727 |      727 |       0.07 | *
    |      537 |        - |      717 |      717 |       0.07 | *
    |      538 |        - |      712 |      712 |       0.07 | *
    |      539 |        - |      709 |      709 |       0.07 | *
    |      543 |        - |      705 |      705 |       0.07 | *
    |      544 |        - |      704 |      704 |       0.07 | *
    |      546 |        - |      695 |      695 |       0.07 | *
    |      559 |        - |      692 |      692 |       0.07 | *
    |      562 |        - |      688 |      688 |       0.07 | *
    |      577 |        - |      682 |      682 |       0.07 | *
    |      582 |        - |      680 |      680 |       0.07 | *
    |      584 |        - |      679 |      679 |       0.07 | *
    |      628 |        - |      675 |      675 |       0.07 | *
    |      641 |        - |      665 |      665 |       0.07 | *
    |      660 |        - |      662 |      662 |       0.07 | *
    |      669 |        - |      661 |      661 |       0.07 | *
    |      671 |        - |      656 |      656 |       0.07 | *
    |      674 |        - |      654 |      654 |       0.08 | *
    |      730 |        - |      649 |      649 |       0.08 | *
    |      736 |        - |      644 |      644 |       0.08 | *
    |      755 |        - |      641 |      641 |       0.08 | *
    |      785 |        - |      636 |      636 |       0.08 | *
    |      792 |        - |      629 |      629 |       0.08 | *
    |      794 |        - |      628 |      628 |       0.08 | *
    |      805 |        - |      625 |      625 |       0.08 | *
    |      810 |        - |      624 |      624 |       0.08 | *
    |      868 |        - |      609 |      609 |       0.08 | *
    |      870 |        - |      608 |      608 |       0.08 | *
    |      899 |        - |      606 |      606 |       0.08 | *
    |      909 |        - |      598 |      598 |       0.08 | *
    |      911 |        - |      595 |      595 |       0.08 | *
    |      915 |        - |      588 |      588 |       0.08 | *
    |      926 |        - |      586 |      586 |       0.09 | *
    |      931 |        - |      585 |      585 |       0.09 | *
    |      956 |        - |      581 |      581 |       0.09 | *
    |      967 |        - |      580 |      580 |       0.09 | *
    |     1020 |        - |      576 |      576 |       0.09 | *
    |     1032 |        - |      575 |      575 |       0.09 | *
    |     1072 |        - |      571 |      571 |       0.09 | *
    |     1074 |        - |      570 |      570 |       0.09 | *
    |     1143 |        - |      564 |      564 |       0.09 | *
    |     1169 |        - |      559 |      559 |       0.09 | *
    |     1176 |        - |      558 |      558 |       0.09 | *
    |     1188 |        - |      556 |      556 |       0.09 | *
    |     1190 |        - |      554 |      554 |       0.09 | *
    |     1248 |        - |      550 |      550 |       0.09 | *
    |     1259 |        - |      549 |      549 |       0.10 | *
    |     1285 |        - |      547 |      547 |       0.10 | *
    |     1355 |        - |      545 |      545 |       0.10 | *
    |     1380 |        - |      544 |      544 |       0.10 | *
    |     1398 |        - |      543 |      543 |       0.10 | *
    |     1420 |        - |      542 |      542 |       0.10 | *
    |     1425 |        - |      539 |      539 |       0.10 | *
    |     1449 |        - |      536 |      536 |       0.10 | *
    |     1486 |        - |      535 |      535 |       0.10 | *
    |     1503 |        - |      532 |      532 |       0.11 | *
    |     1528 |        - |      531 |      531 |       0.11 | *
    |     1535 |        - |      530 |      530 |       0.11 | *
    |     1570 |        - |      527 |      527 |       0.11 | *
    |     1577 |        - |      525 |      525 |       0.11 | *
    |     1610 |        - |      523 |      523 |       0.11 | *
    |     1621 |        - |      522 |      522 |       0.11 | *
    |     1623 |        - |      521 |      521 |       0.11 | *
    |     1625 |        - |      520 |      520 |       0.11 | *
    |     1630 |        - |      517 |      517 |       0.12 | *
    |     1649 |        - |      515 |      515 |       0.12 | *
    |     1660 |        - |      514 |      514 |       0.12 | *
    |     1672 |        - |      512 |      512 |       0.12 | *
    |     1680 |        - |      510 |      510 |       0.12 | *
    |     1685 |        - |      504 |      504 |       0.12 | *
    |     1768 |        - |      503 |      503 |       0.12 | *
    |     1849 |        - |      502 |      502 |       0.12 | *
    |     2040 |        - |      498 |      498 |       0.12 | *
    |     2044 |        - |      493 |      493 |       0.12 | *
    |     2055 |        - |      492 |      492 |       0.12 | *
    |     2064 |        - |      491 |      491 |       0.12 | *
    |     2266 |        - |      489 |      489 |       0.13 | *
    |     2268 |        - |      488 |      488 |       0.13 | *
    |     2272 |        - |      486 |      486 |       0.13 | *
    |     2288 |        - |      485 |      485 |       0.13 | *
    |     2289 |        - |      479 |      479 |       0.13 | *
    |     2292 |        - |      478 |      478 |       0.13 | *
    |     2295 |        - |      477 |      477 |       0.13 | *
    |     2310 |        - |      474 |      474 |       0.13 | *
    |     2313 |        - |      472 |      472 |       0.13 | *
    |     2337 |        - |      470 |      470 |       0.13 | *
    |     2347 |        - |      466 |      466 |       0.13 | *
    |     2399 |        - |      464 |      464 |       0.13 | *
    |     2406 |        - |      463 |      463 |       0.13 | *
    |     2410 |        - |      460 |      460 |       0.13 | *
    |     2418 |        - |      458 |      458 |       0.13 | *
    |     2424 |        - |      456 |      456 |       0.13 | *
    |     2473 |        - |      455 |      455 |       0.13 | *
    |     2688 |        - |      452 |      452 |       0.13 | *
    |     2699 |        - |      450 |      450 |       0.14 | *
    |     2707 |        - |      448 |      448 |       0.14 | *
    |     2787 |        - |      446 |      446 |       0.14 | *
    |     2813 |        - |      445 |      445 |       0.14 | *
    |     2903 |        - |      443 |      443 |       0.14 | *
    |     2971 |        - |      442 |      442 |       0.14 | *
    |     2988 |        - |      441 |      441 |       0.14 | *
    |     2991 |        - |      437 |      437 |       0.14 | *
    |     2997 |        - |      434 |      434 |       0.14 | *
    |     3010 |        - |      432 |      432 |       0.15 | *
    |     3309 |        - |      430 |      430 |       0.15 | *
    |     3438 |        - |      429 |      429 |       0.15 | *
    |     3449 |        - |      428 |      428 |       0.15 | *
    |     3461 |        - |      426 |      426 |       0.15 | *
    |     3488 |        - |      423 |      423 |       0.15 | *
    |     3495 |        - |      422 |      422 |       0.15 | *
    |     3530 |        - |      419 |      419 |       0.15 | *
    |     3550 |        - |      415 |      415 |       0.15 | *
    |     3699 |        - |      414 |      414 |       0.15 | *
    |     3721 |        - |      413 |      413 |       0.15 | *
    |     3742 |        - |      412 |      412 |       0.15 | *
    |     3762 |        - |      411 |      411 |       0.15 | *
    |     3774 |        - |      407 |      407 |       0.15 | *
    |     3878 |        - |      405 |      405 |       0.15 | *
    |     3985 |        - |      404 |      404 |       0.15 | *
    |     3987 |        - |      403 |      403 |       0.15 | *
    |     3996 |        - |      400 |      400 |       0.16 | *
    |     4025 |        - |      398 |      398 |       0.16 | *
    |     4035 |        - |      396 |      396 |       0.16 | *
    |     4072 |        - |      394 |      394 |       0.16 | *
    |     4259 |        - |      391 |      391 |       0.16 | *
    |     4279 |        - |      390 |      390 |       0.16 | *
    |     4423 |        - |      389 |      389 |       0.16 | *
    |     4522 |        - |      388 |      388 |       0.16 | *
    |     4622 |        - |      387 |      387 |       0.16 | *
    |     4785 |        - |      386 |      386 |       0.16 | *
    |     6425 |        - |      385 |      385 |       0.17 | *
    |     6500 |        - |      384 |      384 |       0.17 | *
    |     6608 |        - |      380 |      380 |       0.17 | *
    |     7425 |        - |      378 |      378 |       0.17 | *
    |     7450 |        - |      377 |      377 |       0.17 | *
    |     7458 |        - |      376 |      376 |       0.17 | *
    |     7595 |        - |      374 |      374 |       0.17 | *
    |     7645 |        - |      373 |      373 |       0.18 | *
    |     7884 |        - |      369 |      369 |       0.18 | *
    |     7896 |        - |      368 |      368 |       0.18 | *
    |     7913 |        - |      366 |      366 |       0.18 | *
    |     7944 |        - |      365 |      365 |       0.18 | *
    |     7994 |        - |      363 |      363 |       0.18 | *
    |     8014 |        - |      356 |      356 |       0.18 | *
    |     8151 |        - |      355 |      355 |       0.18 | *
    |     8164 |        - |      353 |      353 |       0.18 | *
    |     8371 |        - |      352 |      352 |       0.18 | *
    |     8372 |        - |      351 |      351 |       0.18 | *
    |     8606 |        - |      350 |      350 |       0.18 | *
    |     8651 |        - |      348 |      348 |       0.18 | *
    |     8674 |        - |      347 |      347 |       0.18 | *
    |     8951 |        - |      342 |      342 |       0.19 | *
    |     9009 |        - |      341 |      341 |       0.19 | *
    |     9617 |        - |      340 |      340 |       0.19 | *
    |     9737 |        - |      339 |      339 |       0.19 | *
    |     9826 |        - |      337 |      337 |       0.19 | *
    |      10K |        - |      336 |      336 |       0.19 | *
    |      10K |        - |      330 |      330 |       0.19 | *
    |      11K |        - |      329 |      329 |       0.19 | *
    |      11K |        - |      328 |      328 |       0.20 | *
    |      11K |        - |      327 |      327 |       0.20 | *
    |      12K |        - |      325 |      325 |       0.20 | *
    |      12K |        - |      324 |      324 |       0.20 | *
    |      13K |        - |      321 |      321 |       0.20 | *
    |      13K |        - |      320 |      320 |       0.20 | *
    |      13K |        - |      319 |      319 |       0.20 | *
    |      13K |        - |      317 |      317 |       0.21 | *
    |      13K |        - |      316 |      316 |       0.21 | *
    |      13K |        - |      315 |      315 |       0.21 | *
    |      14K |        - |      314 |      314 |       0.21 | *
    |      15K |        - |      312 |      312 |       0.21 | *
    |      15K |        - |      311 |      311 |       0.21 | *
    |      15K |        - |      310 |      310 |       0.21 | *
    |      16K |        - |      308 |      308 |       0.22 | *
    |      16K |        - |      305 |      305 |       0.22 | *
    |      18K |        - |      304 |      304 |       0.22 | *
    |      18K |        - |      303 |      303 |       0.22 | *
    |      18K |        - |      302 |      302 |       0.22 | *
    |      19K |        - |      301 |      301 |       0.23 | *
    |      19K |        - |      300 |      300 |       0.23 | *
    |      19K |        - |      299 |      299 |       0.23 | *
    |      19K |        - |      298 |      298 |       0.23 | *
    |      21K |        - |      297 |      297 |       0.23 | *
    |      21K |        - |      296 |      296 |       0.23 | *
    |      22K |        - |      295 |      295 |       0.24 | *
    |      22K |        - |      294 |      294 |       0.24 | *
    |      22K |        - |      293 |      293 |       0.24 | *
    |      22K |        - |      290 |      290 |       0.24 | *
    |      23K |        - |      289 |      289 |       0.24 | *
    |      23K |        - |      288 |      288 |       0.24 | *
    |      23K |        - |      287 |      287 |       0.24 | *
    |      23K |        - |      286 |      286 |       0.24 | *
    |      23K |        - |      285 |      285 |       0.24 | *
    |      24K |        - |      284 |      284 |       0.25 | *
    |      24K |        - |      283 |      283 |       0.25 | *
    |      24K |        - |      281 |      281 |       0.25 | *
    |      25K |        - |      280 |      280 |       0.25 | *
    |      25K |        - |      277 |      277 |       0.25 | *
    |      25K |        - |      276 |      276 |       0.25 | *
    |      25K |        - |      275 |      275 |       0.25 | *
    |      26K |        - |      274 |      274 |       0.25 | *
    |      26K |        - |      273 |      273 |       0.26 | *
    |      27K |        - |      270 |      270 |       0.26 | *
    |      28K |        - |      268 |      268 |       0.26 | *
    |      29K |        - |      266 |      266 |       0.26 | *
    |      30K |        - |      265 |      265 |       0.27 | *
    |      30K |        - |      263 |      263 |       0.27 | *
    |      30K |        - |      262 |      262 |       0.27 | *
    |      30K |        - |      260 |      260 |       0.27 | *
    |      30K |        - |      259 |      259 |       0.27 | *
    |      30K |        - |      257 |      257 |       0.27 | *
    |      32K |        - |      256 |      256 |       0.27 | *
    |      34K |        - |      254 |      254 |       0.28 | *
    |      34K |        - |      252 |      252 |       0.28 | *
    |      35K |        - |      251 |      251 |       0.28 | *
    |      36K |        - |      249 |      249 |       0.28 | *
    |      38K |        - |      248 |      248 |       0.29 | *
    |      39K |        - |      247 |      247 |       0.29 | *
    |      40K |        - |      246 |      246 |       0.29 | *
    |      44K |        - |      245 |      245 |       0.30 | *
    |      46K |        - |      244 |      244 |       0.31 | *
    |      46K |        - |      243 |      243 |       0.31 | *
    |      46K |        - |      241 |      241 |       0.31 | *
    |      47K |        - |      240 |      240 |       0.31 | *
    |      47K |        - |      239 |      239 |       0.31 | *
    |      48K |        - |      238 |      238 |       0.32 | *
    |      50K |        - |      237 |      237 |       0.32 | *
    |      50K |        - |      236 |      236 |       0.32 | *
    |      51K |        - |      234 |      234 |       0.32 | *
    |      51K |        - |      233 |      233 |       0.32 | *
    |      51K |        - |      232 |      232 |       0.32 | *
    |      51K |        - |      231 |      231 |       0.32 | *
    |      57K |        - |      230 |      230 |       0.34 | *
    |      60K |        - |      229 |      229 |       0.35 | *
    |      63K |        - |      228 |      228 |       0.36 | *
    |      67K |        - |      227 |      227 |       0.37 | *
    |      67K |        - |      226 |      226 |       0.37 | *
    |      68K |        - |      223 |      223 |       0.38 | *
    |      82K |        - |      221 |      221 |       0.41 | *
    |      83K |        - |      220 |      220 |       0.42 | *
    |      89K |        - |      219 |      219 |       0.43 | *
    |      90K |        - |      218 |      218 |       0.44 | *
    |      90K |        - |      216 |      216 |       0.44 | *
    |      90K |        - |      215 |      215 |       0.44 | *
    |      90K |        - |      214 |      214 |       0.44 | *
    |      90K |        - |      213 |      213 |       0.44 | *
    |      90K |        - |      212 |      212 |       0.44 | *
    |      94K |        - |      211 |      211 |       0.45 | *
    |     103K |        - |      210 |      210 |       0.47 | *
    |     105K |        - |      209 |      209 |       0.48 | *
    |     125K |        - |      208 |      208 |       0.53 | *
    |     140K |        - |      206 |      206 |       0.57 | *
    |     166K |        - |      205 |      205 |       0.66 | *
    |     170K |        - |      204 |      204 |       0.67 | *
    |     171K |        - |      203 |      203 |       0.67 | *
    |     178K |        - |      202 |      202 |       0.69 | *
    |     188K |        - |      201 |      201 |       0.72 | *
    |     193K |        - |      200 |      200 |       0.74 | *
    |     194K |        - |      199 |      199 |       0.74 | *
    |     195K |        - |      198 |      198 |       0.74 | *
    |     206K |        - |      196 |      196 |       0.78 | *
    |     206K |        - |      195 |      195 |       0.78 | *
    |     238K |        - |      194 |      194 |       0.84 | *
    |     238K |        - |      193 |      193 |       0.85 | *
    |     254K |        - |      192 |      192 |       0.88 | *
    |     287K |        - |      191 |      191 |       0.94 | *
    |     295K |        - |      190 |      190 |       0.95 | *
    |     303K |        - |      188 |      188 |       0.96 | *
    |     337K |        - |      187 |      187 |       1.00 | *
    |     343K |        - |      186 |      186 |       1.01 | *
    |     379K |        - |      185 |      185 |       1.04 | *
    |     429K |        - |      184 |      184 |       1.09 | *
    |     555K |        - |      183 |      183 |       1.21 | *
    |     572K |        - |      182 |      182 |       1.23 | *
    |     576K |        - |      181 |      181 |       1.23 | *
    |     663K |        - |      180 |      180 |       1.32 | *
    |    1047K |        - |      179 |      179 |       1.65 | *
    |    1054K |        - |      177 |      177 |       1.66 | *
    |    1054K |        - |      176 |      176 |       1.66 | *
    |    1055K |        - |      175 |      175 |       1.66 | *
    |    1066K |        - |      174 |      174 |       1.67 | *
    |    1345K |        - |      173 |      173 |       1.87 | *
    |    1362K |        - |      172 |      172 |       1.89 | *
    |    1459K |        - |      171 |      171 |       1.96 | *
    |    1520K |        - |      170 |      170 |       2.00 | *
    |    3148K |        - |      169 |      169 |       3.59 | *
    |    3286K |        - |      168 |      168 |       3.74 | *
    |    4195K |        - |      167 |      167 |       4.38 | *
    |    4196K |        - |      166 |      166 |       4.38 | *
    |    4306K |        - |      165 |      165 |       4.46 | *
    |    4306K |        - |      164 |      164 |       4.46 | *
    |    4560K |        - |      163 |      163 |       4.63 | *
    |    4570K |        - |      162 |      162 |       4.64 | *
    |    4570K |        - |      161 |      161 |       4.64 | *
    |    4685K |        - |      160 |      160 |       4.72 | *
    |    4937K |        - |      159 |      159 |       4.93 | *
    |    5207K |        - |      158 |      158 |       5.19 | *
    |    7125K |        - |      157 |      157 |       6.90 | *
    |    7475K |        - |      156 |      156 |       7.43 | *
    |      17M |        - |      155 |      155 |      14.47 | *
    |      17M |        - |      154 |      154 |      14.48 | *
    |      38M |        - |      153 |      153 |      29.25 | *
    |      78M |        - |      152 |      152 |      56.34 | *
    |      78M |        - |      151 |      151 |      56.59 | *
    |      79M |        - |      150 |      150 |      56.77 | *
    |      94M |        - |      149 |      149 |      67.13 | *
    |     162M |        - |      148 |      148 |     113.04 | *
    |     235M |        - |      147 |      147 |     163.03 | *
    |     263M |        - |      146 |      146 |     182.26 | *
    |     270M |        - |      145 |      145 |     187.03 | *
    \--------------------------------------------------------/

Neighborhoods statistics (values in %):

    /----------------------------------------------------------------\
    | Move               | Improvs. | Sideways |  Accepts |  Rejects |
    |--------------------|----------|----------|----------|----------|
    | Shift(mk)          |      17K |      22K |      45K |     225M |
    | Shift              |     1123 |     923K |     937K |     224M |
    | ShiftSmart(mk)     |     140K |     170K |     370K |     224M |
    | ShiftSmart         |     9424 |    5879K |    5977K |     219M |
    | SimpSwap(mk)       |      101 |      168 |      389 |     225M |
    | SimpSwap           |       13 |     1408 |     1466 |     225M |
    | SimpSwapSmart(mk)  |      869 |     1402 |     3104 |     225M |
    | SimpSwapSmart      |      110 |      11K |      12K |     225M |
    | Swap(mk)           |       15 |       15 |       36 |     225M |
    | Swap               |        0 |      240 |      250 |     225M |
    | SwapSmart(mk)      |      533 |      704 |     1490 |     225M |
    | SwapSmart          |       64 |      10K |      10K |     225M |
    | Switch(mk)         |     4193 |      22M |      22M |     203M |
    | Switch             |      266 |      23M |      23M |     201M |
    | SwitchSmart(mk)    |      35K |      26K |      76K |     225M |
    | SwitchSmart        |     2302 |    1556K |    1582K |     223M |
    | TaskMove(mk)       |      465 |     1588 |     2204 |     225M |
    | TaskMove           |       39 |     7742 |     8085 |     225M |
    | TaskMoveSmart(mk)  |     4381 |      16K |      22K |     225M |
    | TaskMoveSmart      |      430 |      67K |      71K |     225M |
    | 2-Shift(mk)        |     4332 |    2450K |    2456K |     222M |
    | 2-Shift            |      302 |    3044K |    3048K |     222M |
    | 2-ShiftSmart(mk)   |      25K |    2734K |    2763K |     222M |
    | 2-ShiftSmart       |     1656 |    6199K |    6216K |     218M |
    \----------------------------------------------------------------/

Best makespan.....: 145
N. of Iterations..: 5394659951
Total runtime.....: 3600.02s
Using Python-MIP package version 1.6.8
Começo a execução
    /-------------------------------------------------------------------------------\
    |    Makespan   |   Free Jobs   | Free Machines |    It. Time   |   Total Time  | 
    |-------------------------------------------------------------------------------|
    \-------------------------------------------------------------------------------/
Terminou a execução
