Instance....: instances/I_150_15_S_1-99_2.txt
Algorithm...: Simulated Annealing (alpha=0.990, saMax=10M, t0=1)
Other params: maxIters=100M, seed=-1, timeLimit=3600.00s

    /--------------------------------------------------------\
    |     Iter |   RDP(%) |       S* |       S' |       Time | 
    |----------|----------|----------|----------|------------|
    |        0 |        - |     1661 |     1661 |       0.00 | s0
    |        0 |        - |     1615 |     1615 |       0.01 | *
    |        6 |        - |     1542 |     1542 |       0.02 | *
    |        7 |        - |     1503 |     1503 |       0.02 | *
    |        9 |        - |     1485 |     1485 |       0.02 | *
    |       10 |        - |     1468 |     1468 |       0.03 | *
    |       14 |        - |     1427 |     1427 |       0.03 | *
    |       18 |        - |     1408 |     1408 |       0.03 | *
    |       20 |        - |     1396 |     1396 |       0.03 | *
    |       22 |        - |     1372 |     1372 |       0.03 | *
    |       23 |        - |     1313 |     1313 |       0.03 | *
    |       26 |        - |     1278 |     1278 |       0.04 | *
    |       28 |        - |     1263 |     1263 |       0.04 | *
    |       30 |        - |     1260 |     1260 |       0.04 | *
    |       33 |        - |     1229 |     1229 |       0.04 | *
    |       36 |        - |     1225 |     1225 |       0.04 | *
    |       42 |        - |     1214 |     1214 |       0.04 | *
    |       63 |        - |     1213 |     1213 |       0.04 | *
    |       70 |        - |     1206 |     1206 |       0.04 | *
    |       71 |        - |     1179 |     1179 |       0.04 | *
    |       73 |        - |     1174 |     1174 |       0.04 | *
    |       85 |        - |     1138 |     1138 |       0.04 | *
    |       86 |        - |     1128 |     1128 |       0.05 | *
    |       91 |        - |     1106 |     1106 |       0.05 | *
    |       95 |        - |     1079 |     1079 |       0.05 | *
    |      100 |        - |     1077 |     1077 |       0.05 | *
    |      101 |        - |     1070 |     1070 |       0.05 | *
    |      102 |        - |     1067 |     1067 |       0.05 | *
    |      110 |        - |     1053 |     1053 |       0.05 | *
    |      119 |        - |     1047 |     1047 |       0.05 | *
    |      123 |        - |     1038 |     1038 |       0.05 | *
    |      124 |        - |     1033 |     1033 |       0.05 | *
    |      130 |        - |     1031 |     1031 |       0.05 | *
    |      137 |        - |     1028 |     1028 |       0.05 | *
    |      144 |        - |     1000 |     1000 |       0.05 | *
    |      145 |        - |      993 |      993 |       0.05 | *
    |      156 |        - |      986 |      986 |       0.05 | *
    |      160 |        - |      975 |      975 |       0.06 | *
    |      171 |        - |      966 |      966 |       0.06 | *
    |      178 |        - |      964 |      964 |       0.06 | *
    |      180 |        - |      959 |      959 |       0.06 | *
    |      182 |        - |      951 |      951 |       0.06 | *
    |      192 |        - |      932 |      932 |       0.06 | *
    |      203 |        - |      929 |      929 |       0.06 | *
    |      206 |        - |      920 |      920 |       0.06 | *
    |      214 |        - |      901 |      901 |       0.06 | *
    |      220 |        - |      893 |      893 |       0.06 | *
    |      241 |        - |      892 |      892 |       0.06 | *
    |      248 |        - |      886 |      886 |       0.06 | *
    |      257 |        - |      863 |      863 |       0.07 | *
    |      261 |        - |      857 |      857 |       0.07 | *
    |      275 |        - |      850 |      850 |       0.07 | *
    |      279 |        - |      846 |      846 |       0.07 | *
    |      281 |        - |      844 |      844 |       0.07 | *
    |      284 |        - |      842 |      842 |       0.07 | *
    |      307 |        - |      835 |      835 |       0.07 | *
    |      309 |        - |      834 |      834 |       0.07 | *
    |      324 |        - |      825 |      825 |       0.07 | *
    |      337 |        - |      823 |      823 |       0.07 | *
    |      345 |        - |      812 |      812 |       0.07 | *
    |      374 |        - |      801 |      801 |       0.07 | *
    |      388 |        - |      800 |      800 |       0.07 | *
    |      399 |        - |      793 |      793 |       0.07 | *
    |      400 |        - |      787 |      787 |       0.07 | *
    |      406 |        - |      782 |      782 |       0.07 | *
    |      407 |        - |      781 |      781 |       0.08 | *
    |      420 |        - |      779 |      779 |       0.08 | *
    |      422 |        - |      774 |      774 |       0.08 | *
    |      426 |        - |      768 |      768 |       0.08 | *
    |      432 |        - |      767 |      767 |       0.08 | *
    |      436 |        - |      761 |      761 |       0.08 | *
    |      442 |        - |      760 |      760 |       0.08 | *
    |      445 |        - |      754 |      754 |       0.08 | *
    |      468 |        - |      749 |      749 |       0.08 | *
    |      488 |        - |      748 |      748 |       0.08 | *
    |      489 |        - |      743 |      743 |       0.08 | *
    |      491 |        - |      737 |      737 |       0.08 | *
    |      504 |        - |      727 |      727 |       0.08 | *
    |      508 |        - |      724 |      724 |       0.08 | *
    |      512 |        - |      722 |      722 |       0.08 | *
    |      533 |        - |      720 |      720 |       0.08 | *
    |      549 |        - |      717 |      717 |       0.08 | *
    |      563 |        - |      710 |      710 |       0.09 | *
    |      566 |        - |      705 |      705 |       0.09 | *
    |      567 |        - |      702 |      702 |       0.09 | *
    |      571 |        - |      698 |      698 |       0.09 | *
    |      586 |        - |      697 |      697 |       0.09 | *
    |      597 |        - |      691 |      691 |       0.09 | *
    |      598 |        - |      689 |      689 |       0.09 | *
    |      612 |        - |      680 |      680 |       0.09 | *
    |      617 |        - |      677 |      677 |       0.09 | *
    |      633 |        - |      674 |      674 |       0.09 | *
    |      635 |        - |      672 |      672 |       0.09 | *
    |      640 |        - |      670 |      670 |       0.09 | *
    |      658 |        - |      666 |      666 |       0.09 | *
    |      683 |        - |      665 |      665 |       0.09 | *
    |      684 |        - |      663 |      663 |       0.09 | *
    |      685 |        - |      662 |      662 |       0.09 | *
    |      692 |        - |      660 |      660 |       0.10 | *
    |      703 |        - |      648 |      648 |       0.10 | *
    |      705 |        - |      635 |      635 |       0.10 | *
    |      709 |        - |      629 |      629 |       0.10 | *
    |      751 |        - |      626 |      626 |       0.10 | *
    |      831 |        - |      618 |      618 |       0.10 | *
    |      867 |        - |      615 |      615 |       0.10 | *
    |      885 |        - |      614 |      614 |       0.10 | *
    |      890 |        - |      611 |      611 |       0.10 | *
    |      898 |        - |      607 |      607 |       0.10 | *
    |      919 |        - |      606 |      606 |       0.10 | *
    |      927 |        - |      600 |      600 |       0.10 | *
    |      955 |        - |      592 |      592 |       0.10 | *
    |      990 |        - |      591 |      591 |       0.10 | *
    |     1014 |        - |      589 |      589 |       0.10 | *
    |     1019 |        - |      587 |      587 |       0.10 | *
    |     1034 |        - |      580 |      580 |       0.10 | *
    |     1057 |        - |      577 |      577 |       0.10 | *
    |     1099 |        - |      573 |      573 |       0.11 | *
    |     1114 |        - |      569 |      569 |       0.11 | *
    |     1122 |        - |      567 |      567 |       0.11 | *
    |     1183 |        - |      566 |      566 |       0.11 | *
    |     1187 |        - |      564 |      564 |       0.11 | *
    |     1191 |        - |      561 |      561 |       0.11 | *
    |     1210 |        - |      560 |      560 |       0.11 | *
    |     1263 |        - |      553 |      553 |       0.11 | *
    |     1289 |        - |      550 |      550 |       0.11 | *
    |     1291 |        - |      545 |      545 |       0.11 | *
    |     1307 |        - |      544 |      544 |       0.11 | *
    |     1319 |        - |      543 |      543 |       0.11 | *
    |     1339 |        - |      542 |      542 |       0.11 | *
    |     1340 |        - |      537 |      537 |       0.11 | *
    |     1363 |        - |      522 |      522 |       0.11 | *
    |     1370 |        - |      519 |      519 |       0.12 | *
    |     1389 |        - |      516 |      516 |       0.12 | *
    |     1391 |        - |      514 |      514 |       0.12 | *
    |     1394 |        - |      511 |      511 |       0.12 | *
    |     1399 |        - |      501 |      501 |       0.12 | *
    |     1431 |        - |      499 |      499 |       0.12 | *
    |     1434 |        - |      497 |      497 |       0.12 | *
    |     1480 |        - |      496 |      496 |       0.12 | *
    |     1487 |        - |      493 |      493 |       0.12 | *
    |     1488 |        - |      491 |      491 |       0.12 | *
    |     1510 |        - |      485 |      485 |       0.12 | *
    |     1519 |        - |      483 |      483 |       0.12 | *
    |     1536 |        - |      481 |      481 |       0.12 | *
    |     1559 |        - |      480 |      480 |       0.12 | *
    |     1563 |        - |      477 |      477 |       0.12 | *
    |     1679 |        - |      476 |      476 |       0.12 | *
    |     1747 |        - |      475 |      475 |       0.12 | *
    |     1758 |        - |      474 |      474 |       0.12 | *
    |     2010 |        - |      473 |      473 |       0.13 | *
    |     2129 |        - |      472 |      472 |       0.13 | *
    |     2160 |        - |      471 |      471 |       0.13 | *
    |     2233 |        - |      466 |      466 |       0.13 | *
    |     2271 |        - |      464 |      464 |       0.13 | *
    |     2302 |        - |      460 |      460 |       0.13 | *
    |     2313 |        - |      459 |      459 |       0.13 | *
    |     2367 |        - |      456 |      456 |       0.13 | *
    |     2383 |        - |      455 |      455 |       0.13 | *
    |     2389 |        - |      454 |      454 |       0.13 | *
    |     2399 |        - |      452 |      452 |       0.13 | *
    |     2417 |        - |      451 |      451 |       0.13 | *
    |     2427 |        - |      450 |      450 |       0.13 | *
    |     2469 |        - |      447 |      447 |       0.13 | *
    |     2470 |        - |      446 |      446 |       0.13 | *
    |     2483 |        - |      445 |      445 |       0.13 | *
    |     2508 |        - |      442 |      442 |       0.13 | *
    |     2623 |        - |      439 |      439 |       0.14 | *
    |     2699 |        - |      434 |      434 |       0.14 | *
    |     2706 |        - |      430 |      430 |       0.14 | *
    |     2895 |        - |      429 |      429 |       0.14 | *
    |     2905 |        - |      428 |      428 |       0.14 | *
    |     2937 |        - |      427 |      427 |       0.14 | *
    |     2944 |        - |      426 |      426 |       0.14 | *
    |     3005 |        - |      425 |      425 |       0.14 | *
    |     3027 |        - |      423 |      423 |       0.14 | *
    |     3122 |        - |      422 |      422 |       0.14 | *
    |     3431 |        - |      421 |      421 |       0.14 | *
    |     3444 |        - |      419 |      419 |       0.14 | *
    |     3463 |        - |      418 |      418 |       0.14 | *
    |     3525 |        - |      417 |      417 |       0.14 | *
    |     3526 |        - |      416 |      416 |       0.14 | *
    |     3542 |        - |      415 |      415 |       0.15 | *
    |     3609 |        - |      412 |      412 |       0.15 | *
    |     3623 |        - |      408 |      408 |       0.15 | *
    |     3636 |        - |      399 |      399 |       0.15 | *
    |     3640 |        - |      398 |      398 |       0.15 | *
    |     3695 |        - |      397 |      397 |       0.15 | *
    |     3747 |        - |      395 |      395 |       0.15 | *
    |     3777 |        - |      394 |      394 |       0.15 | *
    |     3904 |        - |      393 |      393 |       0.15 | *
    |     3920 |        - |      392 |      392 |       0.15 | *
    |     3931 |        - |      390 |      390 |       0.15 | *
    |     3935 |        - |      389 |      389 |       0.15 | *
    |     4183 |        - |      388 |      388 |       0.15 | *
    |     4223 |        - |      386 |      386 |       0.15 | *
    |     4390 |        - |      384 |      384 |       0.16 | *
    |     4477 |        - |      383 |      383 |       0.16 | *
    |     4680 |        - |      380 |      380 |       0.16 | *
    |     4708 |        - |      377 |      377 |       0.16 | *
    |     4847 |        - |      375 |      375 |       0.16 | *
    |     4851 |        - |      374 |      374 |       0.16 | *
    |     4917 |        - |      373 |      373 |       0.16 | *
    |     4942 |        - |      372 |      372 |       0.16 | *
    |     5003 |        - |      371 |      371 |       0.16 | *
    |     5010 |        - |      368 |      368 |       0.16 | *
    |     5095 |        - |      367 |      367 |       0.16 | *
    |     5098 |        - |      365 |      365 |       0.16 | *
    |     5287 |        - |      362 |      362 |       0.17 | *
    |     5582 |        - |      360 |      360 |       0.17 | *
    |     5591 |        - |      359 |      359 |       0.17 | *
    |     5616 |        - |      356 |      356 |       0.17 | *
    |     5751 |        - |      355 |      355 |       0.17 | *
    |     5754 |        - |      353 |      353 |       0.17 | *
    |     6044 |        - |      352 |      352 |       0.17 | *
    |     6219 |        - |      351 |      351 |       0.17 | *
    |     6777 |        - |      349 |      349 |       0.17 | *
    |     6836 |        - |      348 |      348 |       0.17 | *
    |     7195 |        - |      347 |      347 |       0.18 | *
    |     7315 |        - |      342 |      342 |       0.18 | *
    |     7360 |        - |      341 |      341 |       0.18 | *
    |     7429 |        - |      337 |      337 |       0.18 | *
    |     9027 |        - |      336 |      336 |       0.18 | *
    |     9090 |        - |      335 |      335 |       0.18 | *
    |     9149 |        - |      329 |      329 |       0.18 | *
    |     9203 |        - |      328 |      328 |       0.18 | *
    |      11K |        - |      326 |      326 |       0.19 | *
    |      11K |        - |      325 |      325 |       0.19 | *
    |      11K |        - |      324 |      324 |       0.19 | *
    |      11K |        - |      323 |      323 |       0.19 | *
    |      14K |        - |      321 |      321 |       0.20 | *
    |      14K |        - |      319 |      319 |       0.20 | *
    |      15K |        - |      318 |      318 |       0.20 | *
    |      15K |        - |      316 |      316 |       0.20 | *
    |      15K |        - |      315 |      315 |       0.20 | *
    |      16K |        - |      314 |      314 |       0.21 | *
    |      17K |        - |      311 |      311 |       0.21 | *
    |      17K |        - |      310 |      310 |       0.21 | *
    |      18K |        - |      309 |      309 |       0.21 | *
    |      18K |        - |      308 |      308 |       0.21 | *
    |      19K |        - |      307 |      307 |       0.21 | *
    |      19K |        - |      305 |      305 |       0.21 | *
    |      19K |        - |      304 |      304 |       0.21 | *
    |      19K |        - |      303 |      303 |       0.22 | *
    |      20K |        - |      301 |      301 |       0.22 | *
    |      20K |        - |      300 |      300 |       0.22 | *
    |      20K |        - |      299 |      299 |       0.22 | *
    |      20K |        - |      298 |      298 |       0.22 | *
    |      23K |        - |      297 |      297 |       0.22 | *
    |      23K |        - |      294 |      294 |       0.22 | *
    |      25K |        - |      293 |      293 |       0.23 | *
    |      25K |        - |      292 |      292 |       0.23 | *
    |      25K |        - |      291 |      291 |       0.23 | *
    |      25K |        - |      289 |      289 |       0.23 | *
    |      25K |        - |      288 |      288 |       0.23 | *
    |      26K |        - |      286 |      286 |       0.23 | *
    |      26K |        - |      285 |      285 |       0.24 | *
    |      27K |        - |      283 |      283 |       0.24 | *
    |      27K |        - |      282 |      282 |       0.24 | *
    |      28K |        - |      281 |      281 |       0.24 | *
    |      28K |        - |      280 |      280 |       0.24 | *
    |      31K |        - |      279 |      279 |       0.25 | *
    |      33K |        - |      278 |      278 |       0.25 | *
    |      35K |        - |      277 |      277 |       0.26 | *
    |      35K |        - |      276 |      276 |       0.26 | *
    |      35K |        - |      275 |      275 |       0.26 | *
    |      35K |        - |      273 |      273 |       0.26 | *
    |      35K |        - |      270 |      270 |       0.26 | *
    |      36K |        - |      269 |      269 |       0.26 | *
    |      40K |        - |      267 |      267 |       0.27 | *
    |      42K |        - |      266 |      266 |       0.28 | *
    |      42K |        - |      265 |      265 |       0.28 | *
    |      42K |        - |      264 |      264 |       0.28 | *
    |      42K |        - |      262 |      262 |       0.28 | *
    |      43K |        - |      261 |      261 |       0.28 | *
    |      43K |        - |      260 |      260 |       0.28 | *
    |      43K |        - |      259 |      259 |       0.28 | *
    |      43K |        - |      258 |      258 |       0.28 | *
    |      48K |        - |      255 |      255 |       0.30 | *
    |      50K |        - |      254 |      254 |       0.30 | *
    |      50K |        - |      252 |      252 |       0.30 | *
    |      50K |        - |      250 |      250 |       0.30 | *
    |      52K |        - |      249 |      249 |       0.31 | *
    |      66K |        - |      248 |      248 |       0.35 | *
    |      67K |        - |      247 |      247 |       0.35 | *
    |      68K |        - |      246 |      246 |       0.35 | *
    |      69K |        - |      245 |      245 |       0.36 | *
    |      74K |        - |      244 |      244 |       0.37 | *
    |      75K |        - |      243 |      243 |       0.37 | *
    |      75K |        - |      242 |      242 |       0.38 | *
    |      86K |        - |      241 |      241 |       0.40 | *
    |      86K |        - |      238 |      238 |       0.40 | *
    |      86K |        - |      237 |      237 |       0.40 | *
    |      89K |        - |      236 |      236 |       0.41 | *
    |      89K |        - |      235 |      235 |       0.41 | *
    |      89K |        - |      234 |      234 |       0.41 | *
    |      92K |        - |      233 |      233 |       0.41 | *
    |     110K |        - |      232 |      232 |       0.45 | *
    |     113K |        - |      231 |      231 |       0.45 | *
    |     114K |        - |      230 |      230 |       0.45 | *
    |     116K |        - |      229 |      229 |       0.46 | *
    |     120K |        - |      228 |      228 |       0.47 | *
    |     121K |        - |      227 |      227 |       0.47 | *
    |     121K |        - |      226 |      226 |       0.48 | *
    |     123K |        - |      225 |      225 |       0.49 | *
    |     127K |        - |      224 |      224 |       0.51 | *
    |     127K |        - |      223 |      223 |       0.51 | *
    |     128K |        - |      222 |      222 |       0.51 | *
    |     138K |        - |      221 |      221 |       0.54 | *
    |     138K |        - |      220 |      220 |       0.54 | *
    |     140K |        - |      219 |      219 |       0.55 | *
    |     141K |        - |      218 |      218 |       0.55 | *
    |     141K |        - |      217 |      217 |       0.55 | *
    |     148K |        - |      215 |      215 |       0.58 | *
    |     165K |        - |      214 |      214 |       0.63 | *
    |     169K |        - |      212 |      212 |       0.65 | *
    |     170K |        - |      211 |      211 |       0.65 | *
    |     179K |        - |      210 |      210 |       0.68 | *
    |     203K |        - |      209 |      209 |       0.75 | *
    |     209K |        - |      208 |      208 |       0.77 | *
    |     219K |        - |      207 |      207 |       0.79 | *
    |     222K |        - |      206 |      206 |       0.80 | *
    |     222K |        - |      202 |      202 |       0.80 | *
    |     229K |        - |      201 |      201 |       0.82 | *
    |     273K |        - |      200 |      200 |       0.89 | *
    |     277K |        - |      199 |      199 |       0.89 | *
    |     279K |        - |      198 |      198 |       0.89 | *
    |     293K |        - |      197 |      197 |       0.91 | *
    |     296K |        - |      196 |      196 |       0.91 | *
    |     302K |        - |      194 |      194 |       0.92 | *
    |     304K |        - |      193 |      193 |       0.92 | *
    |     309K |        - |      192 |      192 |       0.93 | *
    |     310K |        - |      191 |      191 |       0.93 | *
    |     310K |        - |      190 |      190 |       0.93 | *
    |     312K |        - |      189 |      189 |       0.93 | *
    |     314K |        - |      188 |      188 |       0.94 | *
    |     317K |        - |      187 |      187 |       0.94 | *
    |     327K |        - |      186 |      186 |       0.95 | *
    |     327K |        - |      185 |      185 |       0.95 | *
    |     374K |        - |      184 |      184 |       1.00 | *
    |     401K |        - |      183 |      183 |       1.02 | *
    |     406K |        - |      182 |      182 |       1.03 | *
    |     406K |        - |      181 |      181 |       1.03 | *
    |     425K |        - |      180 |      180 |       1.04 | *
    |     430K |        - |      179 |      179 |       1.05 | *
    |     480K |        - |      178 |      178 |       1.08 | *
    |     538K |        - |      177 |      177 |       1.12 | *
    |     539K |        - |      176 |      176 |       1.13 | *
    |     562K |        - |      175 |      175 |       1.14 | *
    |     609K |        - |      173 |      173 |       1.18 | *
    |     626K |        - |      172 |      172 |       1.20 | *
    |     627K |        - |      171 |      171 |       1.20 | *
    |     688K |        - |      170 |      170 |       1.25 | *
    |     750K |        - |      169 |      169 |       1.30 | *
    |    1048K |        - |      168 |      168 |       1.53 | *
    |    1051K |        - |      167 |      167 |       1.54 | *
    |    1234K |        - |      166 |      166 |       1.67 | *
    |    2158K |        - |      165 |      165 |       2.48 | *
    |    3831K |        - |      164 |      164 |       4.13 | *
    |    3992K |        - |      163 |      163 |       4.24 | *
    |    3993K |        - |      162 |      162 |       4.24 | *
    |    3994K |        - |      161 |      161 |       4.24 | *
    |    3994K |        - |      160 |      160 |       4.24 | *
    |    4006K |        - |      159 |      159 |       4.25 | *
    |    4007K |        - |      158 |      158 |       4.25 | *
    |    4009K |        - |      157 |      157 |       4.25 | *
    |    8834K |        - |      156 |      156 |       8.01 | *
    |      21M |        - |      155 |      155 |      16.54 | *
    |      21M |        - |      154 |      154 |      16.59 | *
    |      42M |        - |      153 |      153 |      30.31 | *
    |      44M |        - |      152 |      152 |      32.25 | *
    |      49M |        - |      151 |      151 |      35.17 | *
    |      67M |        - |      150 |      150 |      47.76 | *
    |      67M |        - |      149 |      149 |      47.77 | *
    |      72M |        - |      148 |      148 |      50.96 | *
    |      73M |        - |      147 |      147 |      51.34 | *
    |      73M |        - |      146 |      146 |      51.49 | *
    |     185M |        - |      145 |      145 |     127.11 | *
    |     348M |        - |      144 |      144 |     237.45 | *
    |     604M |        - |      143 |      143 |     410.83 | *
    |     641M |        - |      142 |      142 |     436.33 | *
    |     654M |        - |      140 |      140 |     444.51 | *
    \--------------------------------------------------------/

Neighborhoods statistics (values in %):

    /----------------------------------------------------------------\
    | Move               | Improvs. | Sideways |  Accepts |  Rejects |
    |--------------------|----------|----------|----------|----------|
    | Shift(mk)          |     9539 |     161K |     173K |     227M |
    | Shift              |      634 |     607K |     616K |     227M |
    | ShiftSmart(mk)     |      80K |    1289K |    1391K |     226M |
    | ShiftSmart         |     5194 |    5164K |    5229K |     222M |
    | SimpSwap(mk)       |       55 |       40 |      114 |     227M |
    | SimpSwap           |        4 |      397 |      445 |     228M |
    | SimpSwapSmart(mk)  |      365 |      460 |      955 |     228M |
    | SimpSwapSmart      |       50 |     3682 |     4058 |     227M |
    | Swap(mk)           |        8 |        7 |       19 |     227M |
    | Swap               |        0 |       56 |       64 |     228M |
    | SwapSmart(mk)      |      343 |      556 |     1003 |     227M |
    | SwapSmart          |       56 |     3094 |     3431 |     227M |
    | Switch(mk)         |     2276 |      31M |      31M |     197M |
    | Switch             |      147 |      24M |      24M |     204M |
    | SwitchSmart(mk)    |      19K |      50K |      74K |     228M |
    | SwitchSmart        |     1270 |     471K |     487K |     227M |
    | TaskMove(mk)       |      515 |      703 |     1389 |     227M |
    | TaskMove           |       57 |     3092 |     3449 |     228M |
    | TaskMoveSmart(mk)  |     4407 |     6949 |      13K |     227M |
    | TaskMoveSmart      |      450 |      28K |      31K |     227M |
    | 2-Shift(mk)        |     2725 |    4922K |    4926K |     222M |
    | 2-Shift            |      186 |    2992K |    2994K |     225M |
    | 2-ShiftSmart(mk)   |      21K |    1159K |    1184K |     226M |
    | 2-ShiftSmart       |     1415 |    4307K |    4322K |     223M |
    \----------------------------------------------------------------/

Best makespan.....: 140
N. of Iterations..: 5459698401
Total runtime.....: 3600.03s
Using Python-MIP package version 1.6.8
Começo a execução
    /-------------------------------------------------------------------------------\
    |    Makespan   |   Free Jobs   | Free Machines |    It. Time   |   Total Time  | 
    |-------------------------------------------------------------------------------|
    \-------------------------------------------------------------------------------/
Terminou a execução
