Instance....: instances/I_150_15_S_1-49_5.txt
Algorithm...: Simulated Annealing (alpha=0.990, saMax=10M, t0=1)
Other params: maxIters=100M, seed=-1, timeLimit=3600.00s

    /--------------------------------------------------------\
    |     Iter |   RDP(%) |       S* |       S' |       Time | 
    |----------|----------|----------|----------|------------|
    |        0 |        - |     1346 |     1346 |       0.00 | s0
    |        0 |        - |     1305 |     1305 |       0.00 | *
    |        3 |        - |     1235 |     1235 |       0.02 | *
    |        4 |        - |     1209 |     1209 |       0.02 | *
    |        8 |        - |     1183 |     1183 |       0.02 | *
    |       13 |        - |     1163 |     1163 |       0.03 | *
    |       21 |        - |     1050 |     1050 |       0.03 | *
    |       22 |        - |     1045 |     1045 |       0.03 | *
    |       24 |        - |     1031 |     1031 |       0.03 | *
    |       25 |        - |     1009 |     1009 |       0.03 | *
    |       26 |        - |      993 |      993 |       0.03 | *
    |       28 |        - |      991 |      991 |       0.03 | *
    |       30 |        - |      986 |      986 |       0.03 | *
    |       32 |        - |      974 |      974 |       0.03 | *
    |       36 |        - |      950 |      950 |       0.03 | *
    |       39 |        - |      918 |      918 |       0.04 | *
    |       42 |        - |      914 |      914 |       0.04 | *
    |       44 |        - |      913 |      913 |       0.04 | *
    |       53 |        - |      900 |      900 |       0.04 | *
    |       61 |        - |      887 |      887 |       0.04 | *
    |       62 |        - |      867 |      867 |       0.04 | *
    |       70 |        - |      850 |      850 |       0.04 | *
    |       71 |        - |      831 |      831 |       0.04 | *
    |       74 |        - |      828 |      828 |       0.04 | *
    |       79 |        - |      826 |      826 |       0.04 | *
    |       80 |        - |      809 |      809 |       0.04 | *
    |       83 |        - |      808 |      808 |       0.04 | *
    |       85 |        - |      802 |      802 |       0.04 | *
    |       87 |        - |      794 |      794 |       0.04 | *
    |       89 |        - |      793 |      793 |       0.04 | *
    |       90 |        - |      779 |      779 |       0.05 | *
    |       93 |        - |      773 |      773 |       0.05 | *
    |       95 |        - |      764 |      764 |       0.05 | *
    |       97 |        - |      759 |      759 |       0.05 | *
    |       98 |        - |      758 |      758 |       0.05 | *
    |       99 |        - |      752 |      752 |       0.05 | *
    |      101 |        - |      743 |      743 |       0.05 | *
    |      102 |        - |      732 |      732 |       0.05 | *
    |      105 |        - |      726 |      726 |       0.05 | *
    |      107 |        - |      719 |      719 |       0.05 | *
    |      109 |        - |      713 |      713 |       0.05 | *
    |      113 |        - |      701 |      701 |       0.05 | *
    |      130 |        - |      699 |      699 |       0.05 | *
    |      137 |        - |      697 |      697 |       0.05 | *
    |      140 |        - |      696 |      696 |       0.05 | *
    |      150 |        - |      695 |      695 |       0.06 | *
    |      153 |        - |      683 |      683 |       0.06 | *
    |      155 |        - |      666 |      666 |       0.06 | *
    |      157 |        - |      664 |      664 |       0.06 | *
    |      162 |        - |      662 |      662 |       0.06 | *
    |      177 |        - |      659 |      659 |       0.06 | *
    |      184 |        - |      656 |      656 |       0.06 | *
    |      187 |        - |      654 |      654 |       0.06 | *
    |      198 |        - |      651 |      651 |       0.06 | *
    |      213 |        - |      648 |      648 |       0.06 | *
    |      216 |        - |      637 |      637 |       0.06 | *
    |      219 |        - |      634 |      634 |       0.06 | *
    |      225 |        - |      632 |      632 |       0.06 | *
    |      317 |        - |      630 |      630 |       0.06 | *
    |      319 |        - |      627 |      627 |       0.06 | *
    |      320 |        - |      626 |      626 |       0.06 | *
    |      321 |        - |      625 |      625 |       0.06 | *
    |      327 |        - |      621 |      621 |       0.07 | *
    |      339 |        - |      615 |      615 |       0.07 | *
    |      345 |        - |      613 |      613 |       0.07 | *
    |      362 |        - |      612 |      612 |       0.07 | *
    |      365 |        - |      611 |      611 |       0.07 | *
    |      368 |        - |      599 |      599 |       0.07 | *
    |      382 |        - |      588 |      588 |       0.07 | *
    |      389 |        - |      578 |      578 |       0.07 | *
    |      400 |        - |      565 |      565 |       0.07 | *
    |      423 |        - |      561 |      561 |       0.07 | *
    |      424 |        - |      558 |      558 |       0.07 | *
    |      427 |        - |      549 |      549 |       0.07 | *
    |      430 |        - |      540 |      540 |       0.07 | *
    |      453 |        - |      539 |      539 |       0.07 | *
    |      456 |        - |      538 |      538 |       0.07 | *
    |      458 |        - |      532 |      532 |       0.07 | *
    |      464 |        - |      531 |      531 |       0.07 | *
    |      465 |        - |      529 |      529 |       0.07 | *
    |      477 |        - |      522 |      522 |       0.08 | *
    |      479 |        - |      517 |      517 |       0.08 | *
    |      487 |        - |      515 |      515 |       0.08 | *
    |      494 |        - |      506 |      506 |       0.08 | *
    |      497 |        - |      504 |      504 |       0.08 | *
    |      588 |        - |      501 |      501 |       0.08 | *
    |      597 |        - |      499 |      499 |       0.08 | *
    |      609 |        - |      496 |      496 |       0.08 | *
    |      614 |        - |      491 |      491 |       0.08 | *
    |      623 |        - |      489 |      489 |       0.08 | *
    |      629 |        - |      487 |      487 |       0.08 | *
    |      632 |        - |      486 |      486 |       0.08 | *
    |      633 |        - |      484 |      484 |       0.08 | *
    |      642 |        - |      481 |      481 |       0.08 | *
    |      643 |        - |      480 |      480 |       0.08 | *
    |      647 |        - |      477 |      477 |       0.08 | *
    |      652 |        - |      476 |      476 |       0.08 | *
    |      666 |        - |      471 |      471 |       0.08 | *
    |      675 |        - |      467 |      467 |       0.08 | *
    |      676 |        - |      463 |      463 |       0.08 | *
    |      680 |        - |      462 |      462 |       0.09 | *
    |      681 |        - |      461 |      461 |       0.09 | *
    |      764 |        - |      460 |      460 |       0.09 | *
    |      807 |        - |      456 |      456 |       0.09 | *
    |      830 |        - |      455 |      455 |       0.09 | *
    |      833 |        - |      449 |      449 |       0.09 | *
    |      854 |        - |      446 |      446 |       0.09 | *
    |      868 |        - |      444 |      444 |       0.09 | *
    |      886 |        - |      440 |      440 |       0.09 | *
    |      897 |        - |      436 |      436 |       0.09 | *
    |      903 |        - |      434 |      434 |       0.09 | *
    |      910 |        - |      430 |      430 |       0.10 | *
    |      919 |        - |      426 |      426 |       0.10 | *
    |      921 |        - |      425 |      425 |       0.10 | *
    |      946 |        - |      424 |      424 |       0.10 | *
    |     1022 |        - |      422 |      422 |       0.10 | *
    |     1027 |        - |      421 |      421 |       0.10 | *
    |     1066 |        - |      418 |      418 |       0.10 | *
    |     1069 |        - |      417 |      417 |       0.10 | *
    |     1085 |        - |      416 |      416 |       0.10 | *
    |     1106 |        - |      414 |      414 |       0.10 | *
    |     1109 |        - |      411 |      411 |       0.10 | *
    |     1116 |        - |      408 |      408 |       0.10 | *
    |     1172 |        - |      407 |      407 |       0.10 | *
    |     1181 |        - |      406 |      406 |       0.10 | *
    |     1198 |        - |      399 |      399 |       0.10 | *
    |     1203 |        - |      396 |      396 |       0.11 | *
    |     1255 |        - |      394 |      394 |       0.11 | *
    |     1264 |        - |      393 |      393 |       0.11 | *
    |     1280 |        - |      392 |      392 |       0.11 | *
    |     1298 |        - |      391 |      391 |       0.11 | *
    |     1301 |        - |      390 |      390 |       0.11 | *
    |     1316 |        - |      387 |      387 |       0.11 | *
    |     1336 |        - |      386 |      386 |       0.11 | *
    |     1370 |        - |      384 |      384 |       0.11 | *
    |     1397 |        - |      381 |      381 |       0.11 | *
    |     1407 |        - |      378 |      378 |       0.11 | *
    |     1424 |        - |      377 |      377 |       0.12 | *
    |     1431 |        - |      374 |      374 |       0.12 | *
    |     1446 |        - |      373 |      373 |       0.12 | *
    |     1496 |        - |      366 |      366 |       0.12 | *
    |     1507 |        - |      364 |      364 |       0.12 | *
    |     1508 |        - |      363 |      363 |       0.12 | *
    |     1569 |        - |      362 |      362 |       0.12 | *
    |     1570 |        - |      360 |      360 |       0.12 | *
    |     1617 |        - |      355 |      355 |       0.12 | *
    |     1856 |        - |      352 |      352 |       0.12 | *
    |     1917 |        - |      349 |      349 |       0.12 | *
    |     1923 |        - |      348 |      348 |       0.12 | *
    |     1930 |        - |      345 |      345 |       0.12 | *
    |     1954 |        - |      344 |      344 |       0.13 | *
    |     2032 |        - |      342 |      342 |       0.13 | *
    |     2091 |        - |      338 |      338 |       0.13 | *
    |     2321 |        - |      337 |      337 |       0.13 | *
    |     2336 |        - |      335 |      335 |       0.13 | *
    |     2339 |        - |      334 |      334 |       0.13 | *
    |     2342 |        - |      333 |      333 |       0.13 | *
    |     2359 |        - |      329 |      329 |       0.13 | *
    |     2467 |        - |      320 |      320 |       0.13 | *
    |     2482 |        - |      317 |      317 |       0.13 | *
    |     2505 |        - |      316 |      316 |       0.13 | *
    |     2793 |        - |      307 |      307 |       0.13 | *
    |     2806 |        - |      306 |      306 |       0.13 | *
    |     2939 |        - |      305 |      305 |       0.14 | *
    |     2948 |        - |      304 |      304 |       0.14 | *
    |     3026 |        - |      303 |      303 |       0.14 | *
    |     3039 |        - |      301 |      301 |       0.14 | *
    |     3173 |        - |      298 |      298 |       0.14 | *
    |     3203 |        - |      297 |      297 |       0.14 | *
    |     3246 |        - |      296 |      296 |       0.14 | *
    |     3317 |        - |      294 |      294 |       0.14 | *
    |     3488 |        - |      292 |      292 |       0.14 | *
    |     3547 |        - |      290 |      290 |       0.14 | *
    |     3590 |        - |      289 |      289 |       0.14 | *
    |     3603 |        - |      287 |      287 |       0.14 | *
    |     3634 |        - |      286 |      286 |       0.14 | *
    |     3668 |        - |      285 |      285 |       0.14 | *
    |     3851 |        - |      283 |      283 |       0.14 | *
    |     3853 |        - |      282 |      282 |       0.14 | *
    |     3863 |        - |      277 |      277 |       0.14 | *
    |     3902 |        - |      276 |      276 |       0.15 | *
    |     3915 |        - |      274 |      274 |       0.15 | *
    |     3944 |        - |      273 |      273 |       0.15 | *
    |     4016 |        - |      272 |      272 |       0.15 | *
    |     4017 |        - |      271 |      271 |       0.15 | *
    |     4214 |        - |      270 |      270 |       0.15 | *
    |     4297 |        - |      269 |      269 |       0.15 | *
    |     4365 |        - |      266 |      266 |       0.15 | *
    |     4410 |        - |      264 |      264 |       0.15 | *
    |     4579 |        - |      262 |      262 |       0.15 | *
    |     4581 |        - |      261 |      261 |       0.15 | *
    |     4586 |        - |      260 |      260 |       0.15 | *
    |     4645 |        - |      258 |      258 |       0.15 | *
    |     4753 |        - |      255 |      255 |       0.15 | *
    |     4774 |        - |      254 |      254 |       0.15 | *
    |     4795 |        - |      253 |      253 |       0.15 | *
    |     4881 |        - |      252 |      252 |       0.15 | *
    |     4946 |        - |      251 |      251 |       0.15 | *
    |     5030 |        - |      249 |      249 |       0.15 | *
    |     5142 |        - |      248 |      248 |       0.15 | *
    |     5260 |        - |      247 |      247 |       0.15 | *
    |     5467 |        - |      246 |      246 |       0.16 | *
    |     5544 |        - |      245 |      245 |       0.16 | *
    |     5908 |        - |      244 |      244 |       0.16 | *
    |     5938 |        - |      243 |      243 |       0.16 | *
    |     5941 |        - |      242 |      242 |       0.16 | *
    |     5998 |        - |      241 |      241 |       0.16 | *
    |     6223 |        - |      240 |      240 |       0.16 | *
    |     6245 |        - |      239 |      239 |       0.16 | *
    |     6647 |        - |      238 |      238 |       0.16 | *
    |     6693 |        - |      237 |      237 |       0.16 | *
    |     6862 |        - |      236 |      236 |       0.16 | *
    |     6895 |        - |      235 |      235 |       0.16 | *
    |     7432 |        - |      234 |      234 |       0.16 | *
    |     8041 |        - |      233 |      233 |       0.16 | *
    |     8076 |        - |      232 |      232 |       0.17 | *
    |     8150 |        - |      231 |      231 |       0.17 | *
    |     8330 |        - |      229 |      229 |       0.17 | *
    |     8580 |        - |      227 |      227 |       0.17 | *
    |     8627 |        - |      226 |      226 |       0.17 | *
    |     8659 |        - |      224 |      224 |       0.17 | *
    |     8799 |        - |      222 |      222 |       0.17 | *
    |     9094 |        - |      221 |      221 |       0.17 | *
    |     9105 |        - |      220 |      220 |       0.17 | *
    |     9291 |        - |      219 |      219 |       0.17 | *
    |     9296 |        - |      217 |      217 |       0.17 | *
    |     9882 |        - |      216 |      216 |       0.17 | *
    |     9891 |        - |      215 |      215 |       0.17 | *
    |      10K |        - |      214 |      214 |       0.17 | *
    |      10K |        - |      212 |      212 |       0.17 | *
    |      11K |        - |      211 |      211 |       0.18 | *
    |      14K |        - |      210 |      210 |       0.18 | *
    |      14K |        - |      209 |      209 |       0.18 | *
    |      14K |        - |      208 |      208 |       0.19 | *
    |      15K |        - |      207 |      207 |       0.19 | *
    |      15K |        - |      206 |      206 |       0.19 | *
    |      15K |        - |      205 |      205 |       0.19 | *
    |      16K |        - |      204 |      204 |       0.19 | *
    |      16K |        - |      203 |      203 |       0.19 | *
    |      16K |        - |      202 |      202 |       0.19 | *
    |      16K |        - |      201 |      201 |       0.19 | *
    |      16K |        - |      200 |      200 |       0.20 | *
    |      19K |        - |      199 |      199 |       0.20 | *
    |      20K |        - |      198 |      198 |       0.20 | *
    |      20K |        - |      197 |      197 |       0.20 | *
    |      20K |        - |      196 |      196 |       0.21 | *
    |      20K |        - |      195 |      195 |       0.21 | *
    |      20K |        - |      194 |      194 |       0.21 | *
    |      20K |        - |      193 |      193 |       0.21 | *
    |      20K |        - |      192 |      192 |       0.21 | *
    |      20K |        - |      190 |      190 |       0.21 | *
    |      21K |        - |      189 |      189 |       0.21 | *
    |      22K |        - |      188 |      188 |       0.21 | *
    |      23K |        - |      187 |      187 |       0.22 | *
    |      24K |        - |      186 |      186 |       0.22 | *
    |      26K |        - |      185 |      185 |       0.23 | *
    |      28K |        - |      184 |      184 |       0.23 | *
    |      28K |        - |      183 |      183 |       0.23 | *
    |      28K |        - |      182 |      182 |       0.23 | *
    |      28K |        - |      181 |      181 |       0.23 | *
    |      29K |        - |      180 |      180 |       0.24 | *
    |      32K |        - |      179 |      179 |       0.24 | *
    |      34K |        - |      178 |      178 |       0.25 | *
    |      34K |        - |      177 |      177 |       0.25 | *
    |      39K |        - |      176 |      176 |       0.26 | *
    |      39K |        - |      175 |      175 |       0.26 | *
    |      39K |        - |      174 |      174 |       0.26 | *
    |      40K |        - |      173 |      173 |       0.26 | *
    |      41K |        - |      172 |      172 |       0.27 | *
    |      41K |        - |      171 |      171 |       0.27 | *
    |      44K |        - |      170 |      170 |       0.27 | *
    |      45K |        - |      169 |      169 |       0.28 | *
    |      49K |        - |      168 |      168 |       0.29 | *
    |      66K |        - |      167 |      167 |       0.33 | *
    |      91K |        - |      166 |      166 |       0.38 | *
    |      91K |        - |      165 |      165 |       0.38 | *
    |      91K |        - |      164 |      164 |       0.38 | *
    |      93K |        - |      163 |      163 |       0.38 | *
    |      93K |        - |      162 |      162 |       0.39 | *
    |      93K |        - |      161 |      161 |       0.39 | *
    |      93K |        - |      160 |      160 |       0.39 | *
    |      93K |        - |      159 |      159 |       0.39 | *
    |      97K |        - |      158 |      158 |       0.40 | *
    |     100K |        - |      156 |      156 |       0.41 | *
    |     100K |        - |      155 |      155 |       0.42 | *
    |     108K |        - |      154 |      154 |       0.43 | *
    |     108K |        - |      152 |      152 |       0.43 | *
    |     108K |        - |      151 |      151 |       0.44 | *
    |     108K |        - |      150 |      150 |       0.44 | *
    |     115K |        - |      149 |      149 |       0.46 | *
    |     145K |        - |      148 |      148 |       0.58 | *
    |     148K |        - |      147 |      147 |       0.59 | *
    |     173K |        - |      146 |      146 |       0.69 | *
    |     217K |        - |      145 |      145 |       0.84 | *
    |     238K |        - |      144 |      144 |       0.89 | *
    |     504K |        - |      143 |      143 |       1.26 | *
    |     508K |        - |      142 |      142 |       1.27 | *
    |     601K |        - |      141 |      141 |       1.34 | *
    |     601K |        - |      140 |      140 |       1.34 | *
    |     636K |        - |      139 |      139 |       1.37 | *
    |     652K |        - |      138 |      138 |       1.39 | *
    |     673K |        - |      137 |      137 |       1.41 | *
    |     674K |        - |      136 |      136 |       1.41 | *
    |     686K |        - |      135 |      135 |       1.42 | *
    |     707K |        - |      134 |      134 |       1.45 | *
    |     719K |        - |      133 |      133 |       1.46 | *
    |     729K |        - |      132 |      132 |       1.47 | *
    |     731K |        - |      131 |      131 |       1.47 | *
    |     748K |        - |      130 |      130 |       1.49 | *
    |      10M |        - |      129 |      129 |       8.78 | *
    |      28M |        - |      128 |      128 |      21.39 | *
    |      33M |        - |      127 |      127 |      24.42 | *
    |      33M |        - |      126 |      126 |      24.44 | *
    |      49M |        - |      125 |      125 |      35.40 | *
    |     119M |        - |      124 |      124 |      84.51 | *
    |     250M |        - |      123 |      123 |     175.31 | *
    |     250M |        - |      122 |      122 |     175.31 | *
    |     251M |        - |      121 |      121 |     175.35 | *
    |     635M |        - |      120 |      120 |     441.76 | *
    |     849M |        - |      119 |      119 |     589.19 | *
    \--------------------------------------------------------/

Neighborhoods statistics (values in %):

    /----------------------------------------------------------------\
    | Move               | Improvs. | Sideways |  Accepts |  Rejects |
    |--------------------|----------|----------|----------|----------|
    | Shift(mk)          |      40K |      94K |     149K |     224M |
    | Shift              |     2737 |    1207K |    1243K |     223M |
    | ShiftSmart(mk)     |     308K |     745K |    1170K |     223M |
    | ShiftSmart         |      21K |    8893K |    9108K |     215M |
    | SimpSwap(mk)       |      134 |      290 |      470 |     224M |
    | SimpSwap           |       16 |     1217 |     1387 |     224M |
    | SimpSwapSmart(mk)  |     1141 |     2791 |     4493 |     225M |
    | SimpSwapSmart      |      144 |      11K |      13K |     224M |
    | Swap(mk)           |       33 |       80 |      124 |     224M |
    | Swap               |        5 |      253 |      281 |     225M |
    | SwapSmart(mk)      |     1104 |     4541 |     6176 |     224M |
    | SwapSmart          |      138 |      11K |      12K |     224M |
    | Switch(mk)         |      15K |      24M |      24M |     200M |
    | Switch             |      984 |      24M |      24M |     200M |
    | SwitchSmart(mk)    |     111K |     197K |     346K |     224M |
    | SwitchSmart        |     7450 |    3373K |    3459K |     221M |
    | TaskMove(mk)       |     1399 |     3020 |     5078 |     224M |
    | TaskMove           |       93 |     8963 |     9877 |     225M |
    | TaskMoveSmart(mk)  |      11K |      25K |      42K |     224M |
    | TaskMoveSmart      |      893 |      80K |      88K |     224M |
    | 2-Shift(mk)        |      11K |    3037K |    3053K |     221M |
    | 2-Shift            |      736 |    3304K |    3314K |     221M |
    | 2-ShiftSmart(mk)   |      96K |    4057K |    4174K |     220M |
    | 2-ShiftSmart       |     6352 |    9639K |    9701K |     215M |
    \----------------------------------------------------------------/

Best makespan.....: 119
N. of Iterations..: 5385916452
Total runtime.....: 3600.01s
Using Python-MIP package version 1.6.8
Começo a execução
    /-------------------------------------------------------------------------------\
    |    Makespan   |   Free Jobs   | Free Machines |    It. Time   |   Total Time  | 
    |-------------------------------------------------------------------------------|
    \-------------------------------------------------------------------------------/
Terminou a execução
