Instance....: instances/I_150_25_S_1-9_5.txt
Algorithm...: Simulated Annealing (alpha=0.990, saMax=10M, t0=1)
Other params: maxIters=100M, seed=-1, timeLimit=3600.00s

    /--------------------------------------------------------\
    |     Iter |   RDP(%) |       S* |       S' |       Time | 
    |----------|----------|----------|----------|------------|
    |        0 |        - |      804 |      804 |       0.00 | s0
    |        0 |        - |      792 |      792 |       0.01 | *
    |        6 |        - |      739 |      739 |       0.01 | *
    |        8 |        - |      705 |      705 |       0.01 | *
    |       13 |        - |      690 |      690 |       0.01 | *
    |       14 |        - |      678 |      678 |       0.01 | *
    |       15 |        - |      676 |      676 |       0.01 | *
    |       21 |        - |      621 |      621 |       0.02 | *
    |       22 |        - |      620 |      620 |       0.02 | *
    |       26 |        - |      601 |      601 |       0.03 | *
    |       27 |        - |      599 |      599 |       0.03 | *
    |       28 |        - |      585 |      585 |       0.04 | *
    |       30 |        - |      583 |      583 |       0.04 | *
    |       33 |        - |      578 |      578 |       0.04 | *
    |       35 |        - |      573 |      573 |       0.04 | *
    |       38 |        - |      571 |      571 |       0.04 | *
    |       49 |        - |      560 |      560 |       0.04 | *
    |       58 |        - |      550 |      550 |       0.04 | *
    |       60 |        - |      548 |      548 |       0.04 | *
    |       65 |        - |      542 |      542 |       0.04 | *
    |       68 |        - |      539 |      539 |       0.04 | *
    |       70 |        - |      532 |      532 |       0.04 | *
    |       72 |        - |      526 |      526 |       0.04 | *
    |       79 |        - |      501 |      501 |       0.05 | *
    |       83 |        - |      479 |      479 |       0.05 | *
    |       84 |        - |      468 |      468 |       0.05 | *
    |       85 |        - |      462 |      462 |       0.05 | *
    |       88 |        - |      460 |      460 |       0.05 | *
    |       94 |        - |      456 |      456 |       0.05 | *
    |       97 |        - |      450 |      450 |       0.05 | *
    |      103 |        - |      444 |      444 |       0.05 | *
    |      111 |        - |      443 |      443 |       0.05 | *
    |      113 |        - |      439 |      439 |       0.05 | *
    |      114 |        - |      430 |      430 |       0.05 | *
    |      115 |        - |      429 |      429 |       0.05 | *
    |      117 |        - |      425 |      425 |       0.05 | *
    |      123 |        - |      418 |      418 |       0.05 | *
    |      133 |        - |      411 |      411 |       0.06 | *
    |      135 |        - |      410 |      410 |       0.06 | *
    |      137 |        - |      404 |      404 |       0.06 | *
    |      145 |        - |      400 |      400 |       0.06 | *
    |      148 |        - |      393 |      393 |       0.06 | *
    |      151 |        - |      383 |      383 |       0.06 | *
    |      168 |        - |      380 |      380 |       0.06 | *
    |      173 |        - |      378 |      378 |       0.06 | *
    |      186 |        - |      376 |      376 |       0.06 | *
    |      187 |        - |      374 |      374 |       0.06 | *
    |      195 |        - |      370 |      370 |       0.07 | *
    |      215 |        - |      369 |      369 |       0.07 | *
    |      232 |        - |      366 |      366 |       0.07 | *
    |      248 |        - |      365 |      365 |       0.07 | *
    |      253 |        - |      363 |      363 |       0.07 | *
    |      255 |        - |      362 |      362 |       0.07 | *
    |      259 |        - |      361 |      361 |       0.07 | *
    |      273 |        - |      359 |      359 |       0.07 | *
    |      284 |        - |      356 |      356 |       0.07 | *
    |      285 |        - |      354 |      354 |       0.07 | *
    |      288 |        - |      353 |      353 |       0.07 | *
    |      289 |        - |      349 |      349 |       0.08 | *
    |      290 |        - |      340 |      340 |       0.08 | *
    |      305 |        - |      336 |      336 |       0.08 | *
    |      312 |        - |      333 |      333 |       0.08 | *
    |      320 |        - |      332 |      332 |       0.08 | *
    |      323 |        - |      330 |      330 |       0.08 | *
    |      324 |        - |      328 |      328 |       0.08 | *
    |      334 |        - |      323 |      323 |       0.08 | *
    |      336 |        - |      321 |      321 |       0.08 | *
    |      344 |        - |      320 |      320 |       0.08 | *
    |      348 |        - |      316 |      316 |       0.08 | *
    |      358 |        - |      315 |      315 |       0.08 | *
    |      380 |        - |      312 |      312 |       0.09 | *
    |      383 |        - |      308 |      308 |       0.09 | *
    |      390 |        - |      301 |      301 |       0.09 | *
    |      391 |        - |      294 |      294 |       0.09 | *
    |      394 |        - |      292 |      292 |       0.09 | *
    |      399 |        - |      291 |      291 |       0.09 | *
    |      402 |        - |      289 |      289 |       0.09 | *
    |      414 |        - |      287 |      287 |       0.09 | *
    |      421 |        - |      286 |      286 |       0.09 | *
    |      433 |        - |      284 |      284 |       0.09 | *
    |      443 |        - |      283 |      283 |       0.10 | *
    |      458 |        - |      279 |      279 |       0.10 | *
    |      460 |        - |      277 |      277 |       0.10 | *
    |      476 |        - |      275 |      275 |       0.10 | *
    |      488 |        - |      272 |      272 |       0.10 | *
    |      499 |        - |      266 |      266 |       0.10 | *
    |      540 |        - |      264 |      264 |       0.10 | *
    |      557 |        - |      263 |      263 |       0.10 | *
    |      560 |        - |      262 |      262 |       0.10 | *
    |      566 |        - |      261 |      261 |       0.10 | *
    |      582 |        - |      260 |      260 |       0.10 | *
    |      590 |        - |      259 |      259 |       0.10 | *
    |      594 |        - |      252 |      252 |       0.10 | *
    |      617 |        - |      250 |      250 |       0.11 | *
    |      619 |        - |      249 |      249 |       0.11 | *
    |      620 |        - |      248 |      248 |       0.11 | *
    |      636 |        - |      244 |      244 |       0.11 | *
    |      641 |        - |      239 |      239 |       0.11 | *
    |      677 |        - |      237 |      237 |       0.11 | *
    |      678 |        - |      236 |      236 |       0.11 | *
    |      685 |        - |      235 |      235 |       0.11 | *
    |      698 |        - |      234 |      234 |       0.11 | *
    |      701 |        - |      233 |      233 |       0.11 | *
    |      702 |        - |      232 |      232 |       0.11 | *
    |      712 |        - |      231 |      231 |       0.11 | *
    |      721 |        - |      230 |      230 |       0.11 | *
    |      722 |        - |      228 |      228 |       0.11 | *
    |      746 |        - |      226 |      226 |       0.11 | *
    |      752 |        - |      225 |      225 |       0.11 | *
    |      778 |        - |      224 |      224 |       0.11 | *
    |      808 |        - |      223 |      223 |       0.11 | *
    |      842 |        - |      221 |      221 |       0.11 | *
    |      851 |        - |      219 |      219 |       0.12 | *
    |      854 |        - |      218 |      218 |       0.12 | *
    |      872 |        - |      217 |      217 |       0.12 | *
    |      873 |        - |      216 |      216 |       0.12 | *
    |      888 |        - |      215 |      215 |       0.12 | *
    |      895 |        - |      213 |      213 |       0.12 | *
    |      906 |        - |      212 |      212 |       0.12 | *
    |      908 |        - |      211 |      211 |       0.12 | *
    |      913 |        - |      208 |      208 |       0.12 | *
    |      929 |        - |      207 |      207 |       0.12 | *
    |      932 |        - |      205 |      205 |       0.12 | *
    |      964 |        - |      202 |      202 |       0.12 | *
    |      994 |        - |      200 |      200 |       0.12 | *
    |     1016 |        - |      199 |      199 |       0.12 | *
    |     1021 |        - |      197 |      197 |       0.12 | *
    |     1029 |        - |      196 |      196 |       0.12 | *
    |     1035 |        - |      195 |      195 |       0.13 | *
    |     1042 |        - |      194 |      194 |       0.13 | *
    |     1046 |        - |      193 |      193 |       0.13 | *
    |     1050 |        - |      192 |      192 |       0.13 | *
    |     1053 |        - |      189 |      189 |       0.13 | *
    |     1066 |        - |      188 |      188 |       0.13 | *
    |     1158 |        - |      186 |      186 |       0.13 | *
    |     1169 |        - |      185 |      185 |       0.13 | *
    |     1171 |        - |      183 |      183 |       0.13 | *
    |     1212 |        - |      182 |      182 |       0.13 | *
    |     1217 |        - |      180 |      180 |       0.13 | *
    |     1220 |        - |      179 |      179 |       0.13 | *
    |     1233 |        - |      178 |      178 |       0.13 | *
    |     1292 |        - |      177 |      177 |       0.13 | *
    |     1294 |        - |      175 |      175 |       0.13 | *
    |     1342 |        - |      174 |      174 |       0.13 | *
    |     1347 |        - |      173 |      173 |       0.13 | *
    |     1348 |        - |      172 |      172 |       0.13 | *
    |     1365 |        - |      171 |      171 |       0.13 | *
    |     1392 |        - |      170 |      170 |       0.13 | *
    |     1428 |        - |      169 |      169 |       0.13 | *
    |     1440 |        - |      167 |      167 |       0.14 | *
    |     1485 |        - |      166 |      166 |       0.14 | *
    |     1500 |        - |      165 |      165 |       0.14 | *
    |     1583 |        - |      163 |      163 |       0.14 | *
    |     1605 |        - |      162 |      162 |       0.14 | *
    |     1632 |        - |      161 |      161 |       0.14 | *
    |     1645 |        - |      160 |      160 |       0.14 | *
    |     1657 |        - |      159 |      159 |       0.14 | *
    |     1737 |        - |      158 |      158 |       0.14 | *
    |     1771 |        - |      156 |      156 |       0.14 | *
    |     1812 |        - |      155 |      155 |       0.14 | *
    |     1869 |        - |      154 |      154 |       0.14 | *
    |     1968 |        - |      153 |      153 |       0.14 | *
    |     1989 |        - |      152 |      152 |       0.14 | *
    |     2003 |        - |      151 |      151 |       0.14 | *
    |     2029 |        - |      150 |      150 |       0.14 | *
    |     2036 |        - |      149 |      149 |       0.14 | *
    |     2048 |        - |      148 |      148 |       0.14 | *
    |     2155 |        - |      147 |      147 |       0.15 | *
    |     2170 |        - |      146 |      146 |       0.15 | *
    |     2207 |        - |      145 |      145 |       0.15 | *
    |     2225 |        - |      144 |      144 |       0.15 | *
    |     2235 |        - |      143 |      143 |       0.15 | *
    |     2258 |        - |      142 |      142 |       0.15 | *
    |     2330 |        - |      141 |      141 |       0.15 | *
    |     2420 |        - |      140 |      140 |       0.15 | *
    |     2460 |        - |      139 |      139 |       0.15 | *
    |     2532 |        - |      138 |      138 |       0.15 | *
    |     2645 |        - |      137 |      137 |       0.15 | *
    |     2660 |        - |      136 |      136 |       0.15 | *
    |     2663 |        - |      135 |      135 |       0.15 | *
    |     2735 |        - |      134 |      134 |       0.15 | *
    |     2763 |        - |      133 |      133 |       0.15 | *
    |     2795 |        - |      132 |      132 |       0.15 | *
    |     2807 |        - |      131 |      131 |       0.15 | *
    |     3022 |        - |      130 |      130 |       0.15 | *
    |     3126 |        - |      129 |      129 |       0.16 | *
    |     3139 |        - |      128 |      128 |       0.16 | *
    |     3149 |        - |      127 |      127 |       0.16 | *
    |     3237 |        - |      126 |      126 |       0.16 | *
    |     3324 |        - |      125 |      125 |       0.16 | *
    |     3331 |        - |      124 |      124 |       0.16 | *
    |     3357 |        - |      123 |      123 |       0.16 | *
    |     3417 |        - |      122 |      122 |       0.16 | *
    |     3424 |        - |      121 |      121 |       0.16 | *
    |     3439 |        - |      120 |      120 |       0.16 | *
    |     3450 |        - |      119 |      119 |       0.16 | *
    |     3658 |        - |      118 |      118 |       0.16 | *
    |     3975 |        - |      117 |      117 |       0.16 | *
    |     4048 |        - |      116 |      116 |       0.16 | *
    |     4255 |        - |      115 |      115 |       0.16 | *
    |     4528 |        - |      114 |      114 |       0.16 | *
    |     4779 |        - |      113 |      113 |       0.17 | *
    |     4989 |        - |      112 |      112 |       0.17 | *
    |     5152 |        - |      111 |      111 |       0.17 | *
    |     5244 |        - |      110 |      110 |       0.17 | *
    |     5335 |        - |      109 |      109 |       0.17 | *
    |     5403 |        - |      108 |      108 |       0.17 | *
    |     5556 |        - |      107 |      107 |       0.17 | *
    |     5611 |        - |      106 |      106 |       0.17 | *
    |     5630 |        - |      105 |      105 |       0.17 | *
    |     5730 |        - |      104 |      104 |       0.17 | *
    |     5825 |        - |      103 |      103 |       0.17 | *
    |     5912 |        - |      102 |      102 |       0.17 | *
    |     6166 |        - |      101 |      101 |       0.17 | *
    |     6690 |        - |      100 |      100 |       0.17 | *
    |     6814 |        - |       99 |       99 |       0.17 | *
    |     6853 |        - |       98 |       98 |       0.18 | *
    |     6856 |        - |       97 |       97 |       0.18 | *
    |     7090 |        - |       96 |       96 |       0.18 | *
    |     7409 |        - |       95 |       95 |       0.18 | *
    |     7571 |        - |       94 |       94 |       0.18 | *
    |     7900 |        - |       93 |       93 |       0.18 | *
    |     8175 |        - |       92 |       92 |       0.18 | *
    |     8226 |        - |       91 |       91 |       0.18 | *
    |     9352 |        - |       90 |       90 |       0.18 | *
    |     9414 |        - |       89 |       89 |       0.18 | *
    |      10K |        - |       88 |       88 |       0.19 | *
    |      10K |        - |       87 |       87 |       0.19 | *
    |      10K |        - |       86 |       86 |       0.19 | *
    |      10K |        - |       85 |       85 |       0.19 | *
    |      10K |        - |       84 |       84 |       0.19 | *
    |      11K |        - |       83 |       83 |       0.19 | *
    |      11K |        - |       82 |       82 |       0.19 | *
    |      11K |        - |       81 |       81 |       0.19 | *
    |      12K |        - |       80 |       80 |       0.19 | *
    |      12K |        - |       79 |       79 |       0.19 | *
    |      15K |        - |       78 |       78 |       0.20 | *
    |      16K |        - |       77 |       77 |       0.20 | *
    |      18K |        - |       76 |       76 |       0.20 | *
    |      18K |        - |       75 |       75 |       0.20 | *
    |      19K |        - |       74 |       74 |       0.21 | *
    |      21K |        - |       73 |       73 |       0.21 | *
    |      22K |        - |       72 |       72 |       0.21 | *
    |      23K |        - |       71 |       71 |       0.21 | *
    |      23K |        - |       70 |       70 |       0.21 | *
    |      23K |        - |       69 |       69 |       0.21 | *
    |      24K |        - |       68 |       68 |       0.22 | *
    |      24K |        - |       67 |       67 |       0.22 | *
    |      28K |        - |       66 |       66 |       0.22 | *
    |      30K |        - |       65 |       65 |       0.22 | *
    |      32K |        - |       64 |       64 |       0.23 | *
    |      35K |        - |       63 |       63 |       0.23 | *
    |      36K |        - |       62 |       62 |       0.23 | *
    |      42K |        - |       61 |       61 |       0.24 | *
    |      42K |        - |       60 |       60 |       0.25 | *
    |      51K |        - |       59 |       59 |       0.26 | *
    |      56K |        - |       58 |       58 |       0.28 | *
    |     143K |        - |       57 |       57 |       0.46 | *
    |     262K |        - |       56 |       56 |       0.76 | *
    |     268K |        - |       55 |       55 |       0.77 | *
    |     387K |        - |       54 |       54 |       0.95 | *
    |     643K |        - |       53 |       53 |       1.30 | *
    |    3839K |        - |       52 |       52 |       3.48 | *
    |    3992K |        - |       51 |       51 |       3.59 | *
    |      20M |        - |       50 |       50 |      16.02 | *
    |      94M |        - |       49 |       49 |      64.97 | *
    |     185M |        - |       48 |       48 |     123.14 | *
    |     246M |        - |       47 |       47 |     162.17 | *
    |     334M |        - |       46 |       46 |     218.34 | *
    |     430M |        - |       45 |       45 |     279.61 | *
    |     625M |        - |       44 |       44 |     405.19 | *
    |     653M |        - |       43 |       43 |     423.21 | *
    |    1049M |        - |       42 |       42 |     678.07 | *
    |    5300M |        - |       41 |       41 |    3428.38 | *
    \--------------------------------------------------------/

Neighborhoods statistics (values in %):

    /----------------------------------------------------------------\
    | Move               | Improvs. | Sideways |  Accepts |  Rejects |
    |--------------------|----------|----------|----------|----------|
    | Shift(mk)          |     937K |    8080K |    9614K |     222M |
    | Shift              |      38K |      29M |      30M |     202M |
    | ShiftSmart(mk)     |    2947K |      28M |      32M |     200M |
    | ShiftSmart         |     118K |      74M |      75M |     157M |
    | SimpSwap(mk)       |     6254 |      17K |      28K |     232M |
    | SimpSwap           |      520 |      57K |      65K |     232M |
    | SimpSwapSmart(mk)  |      30K |      84K |     132K |     232M |
    | SimpSwapSmart      |     2502 |     263K |     296K |     232M |
    | Swap(mk)           |     4793 |      13K |      20K |     232M |
    | Swap               |      367 |      44K |      50K |     232M |
    | SwapSmart(mk)      |      19K |      54K |      81K |     232M |
    | SwapSmart          |     1476 |     149K |     165K |     232M |
    | Switch(mk)         |     585K |      45M |      46M |     186M |
    | Switch             |      23K |      58M |      58M |     174M |
    | SwitchSmart(mk)    |    1555K |      13M |      15M |     217M |
    | SwitchSmart        |      62K |      39M |      40M |     192M |
    | TaskMove(mk)       |      42K |     106K |     169K |     232M |
    | TaskMove           |     1696 |     177K |     200K |     232M |
    | TaskMoveSmart(mk)  |     114K |     338K |     505K |     231M |
    | TaskMoveSmart      |     4801 |     547K |     605K |     231M |
    | 2-Shift(mk)        |     640K |      14M |      15M |     217M |
    | 2-Shift            |      26K |      29M |      30M |     202M |
    | 2-ShiftSmart(mk)   |    2515K |      30M |      33M |     199M |
    | 2-ShiftSmart       |     101K |      61M |      62M |     170M |
    \----------------------------------------------------------------/

Best makespan.....: 41
N. of Iterations..: 5567529189
Total runtime.....: 3600.02s
Using Python-MIP package version 1.6.8
Começo a execução
    /-------------------------------------------------------------------------------\
    |    Makespan   |   Free Jobs   | Free Machines |    It. Time   |   Total Time  | 
    |-------------------------------------------------------------------------------|
    \-------------------------------------------------------------------------------/
Terminou a execução
