Instance....: instances/I_150_15_S_1-99_5.txt
Algorithm...: Simulated Annealing (alpha=0.990, saMax=10M, t0=1)
Other params: maxIters=100M, seed=-1, timeLimit=3600.00s

    /--------------------------------------------------------\
    |     Iter |   RDP(%) |       S* |       S' |       Time | 
    |----------|----------|----------|----------|------------|
    |        0 |        - |     1731 |     1731 |       0.00 | s0
    |        0 |        - |     1671 |     1671 |       0.00 | *
    |        5 |        - |     1619 |     1619 |       0.01 | *
    |        6 |        - |     1524 |     1524 |       0.01 | *
    |        8 |        - |     1515 |     1515 |       0.02 | *
    |        9 |        - |     1489 |     1489 |       0.03 | *
    |       10 |        - |     1473 |     1473 |       0.03 | *
    |       18 |        - |     1420 |     1420 |       0.03 | *
    |       28 |        - |     1364 |     1364 |       0.03 | *
    |       29 |        - |     1349 |     1349 |       0.03 | *
    |       30 |        - |     1318 |     1318 |       0.03 | *
    |       32 |        - |     1279 |     1279 |       0.03 | *
    |       34 |        - |     1273 |     1273 |       0.03 | *
    |       35 |        - |     1272 |     1272 |       0.03 | *
    |       41 |        - |     1233 |     1233 |       0.04 | *
    |       42 |        - |     1217 |     1217 |       0.04 | *
    |       46 |        - |     1204 |     1204 |       0.04 | *
    |       48 |        - |     1192 |     1192 |       0.04 | *
    |       55 |        - |     1108 |     1108 |       0.04 | *
    |       62 |        - |     1090 |     1090 |       0.04 | *
    |       64 |        - |     1083 |     1083 |       0.04 | *
    |       65 |        - |     1077 |     1077 |       0.04 | *
    |       73 |        - |     1069 |     1069 |       0.04 | *
    |       75 |        - |     1062 |     1062 |       0.04 | *
    |       77 |        - |     1053 |     1053 |       0.04 | *
    |       78 |        - |     1030 |     1030 |       0.04 | *
    |       81 |        - |     1000 |     1000 |       0.05 | *
    |       85 |        - |      987 |      987 |       0.05 | *
    |       86 |        - |      982 |      982 |       0.05 | *
    |       91 |        - |      958 |      958 |       0.05 | *
    |       94 |        - |      956 |      956 |       0.05 | *
    |       99 |        - |      939 |      939 |       0.05 | *
    |      103 |        - |      938 |      938 |       0.05 | *
    |      106 |        - |      936 |      936 |       0.05 | *
    |      110 |        - |      932 |      932 |       0.05 | *
    |      111 |        - |      922 |      922 |       0.05 | *
    |      113 |        - |      921 |      921 |       0.06 | *
    |      125 |        - |      900 |      900 |       0.06 | *
    |      134 |        - |      896 |      896 |       0.06 | *
    |      135 |        - |      893 |      893 |       0.06 | *
    |      138 |        - |      890 |      890 |       0.06 | *
    |      141 |        - |      887 |      887 |       0.06 | *
    |      153 |        - |      883 |      883 |       0.06 | *
    |      155 |        - |      874 |      874 |       0.06 | *
    |      158 |        - |      872 |      872 |       0.06 | *
    |      164 |        - |      849 |      849 |       0.06 | *
    |      166 |        - |      846 |      846 |       0.06 | *
    |      184 |        - |      840 |      840 |       0.06 | *
    |      193 |        - |      825 |      825 |       0.06 | *
    |      196 |        - |      819 |      819 |       0.06 | *
    |      198 |        - |      817 |      817 |       0.06 | *
    |      199 |        - |      806 |      806 |       0.07 | *
    |      202 |        - |      805 |      805 |       0.07 | *
    |      215 |        - |      804 |      804 |       0.07 | *
    |      246 |        - |      800 |      800 |       0.07 | *
    |      262 |        - |      796 |      796 |       0.07 | *
    |      278 |        - |      781 |      781 |       0.07 | *
    |      281 |        - |      780 |      780 |       0.07 | *
    |      298 |        - |      776 |      776 |       0.07 | *
    |      303 |        - |      769 |      769 |       0.07 | *
    |      330 |        - |      758 |      758 |       0.07 | *
    |      341 |        - |      756 |      756 |       0.07 | *
    |      345 |        - |      752 |      752 |       0.07 | *
    |      357 |        - |      743 |      743 |       0.07 | *
    |      360 |        - |      737 |      737 |       0.07 | *
    |      368 |        - |      735 |      735 |       0.07 | *
    |      369 |        - |      729 |      729 |       0.08 | *
    |      374 |        - |      724 |      724 |       0.08 | *
    |      382 |        - |      721 |      721 |       0.08 | *
    |      394 |        - |      717 |      717 |       0.08 | *
    |      457 |        - |      716 |      716 |       0.08 | *
    |      496 |        - |      709 |      709 |       0.08 | *
    |      529 |        - |      705 |      705 |       0.08 | *
    |      534 |        - |      701 |      701 |       0.08 | *
    |      537 |        - |      694 |      694 |       0.08 | *
    |      541 |        - |      693 |      693 |       0.08 | *
    |      544 |        - |      692 |      692 |       0.08 | *
    |      546 |        - |      689 |      689 |       0.08 | *
    |      576 |        - |      685 |      685 |       0.08 | *
    |      581 |        - |      683 |      683 |       0.08 | *
    |      593 |        - |      678 |      678 |       0.08 | *
    |      594 |        - |      676 |      676 |       0.08 | *
    |      595 |        - |      672 |      672 |       0.09 | *
    |      596 |        - |      667 |      667 |       0.09 | *
    |      610 |        - |      664 |      664 |       0.09 | *
    |      611 |        - |      655 |      655 |       0.09 | *
    |      622 |        - |      652 |      652 |       0.09 | *
    |      632 |        - |      650 |      650 |       0.09 | *
    |      644 |        - |      646 |      646 |       0.09 | *
    |      648 |        - |      640 |      640 |       0.09 | *
    |      659 |        - |      635 |      635 |       0.09 | *
    |      660 |        - |      631 |      631 |       0.09 | *
    |      677 |        - |      630 |      630 |       0.09 | *
    |      679 |        - |      626 |      626 |       0.09 | *
    |      680 |        - |      625 |      625 |       0.09 | *
    |      689 |        - |      622 |      622 |       0.09 | *
    |      695 |        - |      618 |      618 |       0.09 | *
    |      702 |        - |      617 |      617 |       0.10 | *
    |      714 |        - |      614 |      614 |       0.10 | *
    |      730 |        - |      609 |      609 |       0.10 | *
    |      731 |        - |      608 |      608 |       0.10 | *
    |      737 |        - |      606 |      606 |       0.10 | *
    |      794 |        - |      604 |      604 |       0.10 | *
    |      804 |        - |      601 |      601 |       0.10 | *
    |      809 |        - |      598 |      598 |       0.10 | *
    |      824 |        - |      597 |      597 |       0.10 | *
    |      831 |        - |      595 |      595 |       0.10 | *
    |      836 |        - |      593 |      593 |       0.10 | *
    |      843 |        - |      592 |      592 |       0.10 | *
    |      849 |        - |      585 |      585 |       0.10 | *
    |      858 |        - |      583 |      583 |       0.11 | *
    |      864 |        - |      574 |      574 |       0.11 | *
    |      867 |        - |      571 |      571 |       0.11 | *
    |      888 |        - |      569 |      569 |       0.11 | *
    |      898 |        - |      567 |      567 |       0.11 | *
    |      904 |        - |      566 |      566 |       0.11 | *
    |      919 |        - |      563 |      563 |       0.11 | *
    |      923 |        - |      561 |      561 |       0.11 | *
    |      929 |        - |      560 |      560 |       0.11 | *
    |      946 |        - |      556 |      556 |       0.11 | *
    |      953 |        - |      555 |      555 |       0.11 | *
    |      998 |        - |      553 |      553 |       0.11 | *
    |     1001 |        - |      552 |      552 |       0.11 | *
    |     1040 |        - |      551 |      551 |       0.11 | *
    |     1054 |        - |      549 |      549 |       0.11 | *
    |     1065 |        - |      548 |      548 |       0.11 | *
    |     1084 |        - |      545 |      545 |       0.12 | *
    |     1176 |        - |      542 |      542 |       0.12 | *
    |     1197 |        - |      540 |      540 |       0.12 | *
    |     1218 |        - |      539 |      539 |       0.12 | *
    |     1259 |        - |      534 |      534 |       0.12 | *
    |     1269 |        - |      530 |      530 |       0.12 | *
    |     1283 |        - |      527 |      527 |       0.12 | *
    |     1306 |        - |      523 |      523 |       0.12 | *
    |     1312 |        - |      522 |      522 |       0.12 | *
    |     1463 |        - |      521 |      521 |       0.12 | *
    |     1537 |        - |      520 |      520 |       0.13 | *
    |     1596 |        - |      519 |      519 |       0.13 | *
    |     1607 |        - |      514 |      514 |       0.13 | *
    |     1671 |        - |      512 |      512 |       0.13 | *
    |     1733 |        - |      508 |      508 |       0.13 | *
    |     1778 |        - |      502 |      502 |       0.13 | *
    |     1820 |        - |      501 |      501 |       0.13 | *
    |     1824 |        - |      499 |      499 |       0.13 | *
    |     1830 |        - |      498 |      498 |       0.13 | *
    |     1837 |        - |      496 |      496 |       0.13 | *
    |     1857 |        - |      494 |      494 |       0.13 | *
    |     2007 |        - |      492 |      492 |       0.13 | *
    |     2022 |        - |      488 |      488 |       0.14 | *
    |     2278 |        - |      485 |      485 |       0.14 | *
    |     2294 |        - |      478 |      478 |       0.14 | *
    |     2341 |        - |      477 |      477 |       0.14 | *
    |     2509 |        - |      474 |      474 |       0.14 | *
    |     2552 |        - |      471 |      471 |       0.14 | *
    |     2557 |        - |      469 |      469 |       0.14 | *
    |     2558 |        - |      468 |      468 |       0.14 | *
    |     2682 |        - |      467 |      467 |       0.14 | *
    |     2690 |        - |      466 |      466 |       0.14 | *
    |     2721 |        - |      464 |      464 |       0.15 | *
    |     2773 |        - |      459 |      459 |       0.15 | *
    |     2784 |        - |      458 |      458 |       0.15 | *
    |     2915 |        - |      457 |      457 |       0.15 | *
    |     2926 |        - |      451 |      451 |       0.15 | *
    |     2929 |        - |      450 |      450 |       0.15 | *
    |     3111 |        - |      449 |      449 |       0.15 | *
    |     3127 |        - |      448 |      448 |       0.15 | *
    |     3204 |        - |      447 |      447 |       0.15 | *
    |     3356 |        - |      445 |      445 |       0.15 | *
    |     3361 |        - |      444 |      444 |       0.16 | *
    |     3420 |        - |      442 |      442 |       0.16 | *
    |     3819 |        - |      441 |      441 |       0.16 | *
    |     3942 |        - |      438 |      438 |       0.16 | *
    |     3950 |        - |      437 |      437 |       0.16 | *
    |     3964 |        - |      436 |      436 |       0.16 | *
    |     3969 |        - |      435 |      435 |       0.16 | *
    |     4018 |        - |      434 |      434 |       0.16 | *
    |     4063 |        - |      431 |      431 |       0.16 | *
    |     4067 |        - |      429 |      429 |       0.16 | *
    |     4089 |        - |      426 |      426 |       0.16 | *
    |     4099 |        - |      425 |      425 |       0.16 | *
    |     4155 |        - |      421 |      421 |       0.16 | *
    |     4212 |        - |      419 |      419 |       0.17 | *
    |     4223 |        - |      414 |      414 |       0.17 | *
    |     4413 |        - |      412 |      412 |       0.17 | *
    |     4444 |        - |      411 |      411 |       0.17 | *
    |     4721 |        - |      409 |      409 |       0.17 | *
    |     4901 |        - |      408 |      408 |       0.17 | *
    |     4904 |        - |      407 |      407 |       0.17 | *
    |     5117 |        - |      406 |      406 |       0.17 | *
    |     5654 |        - |      405 |      405 |       0.17 | *
    |     5682 |        - |      402 |      402 |       0.18 | *
    |     5703 |        - |      401 |      401 |       0.18 | *
    |     6034 |        - |      400 |      400 |       0.18 | *
    |     6204 |        - |      399 |      399 |       0.18 | *
    |     6209 |        - |      394 |      394 |       0.18 | *
    |     6215 |        - |      393 |      393 |       0.18 | *
    |     6225 |        - |      392 |      392 |       0.18 | *
    |     6288 |        - |      390 |      390 |       0.18 | *
    |     6560 |        - |      387 |      387 |       0.18 | *
    |     6641 |        - |      386 |      386 |       0.18 | *
    |     6898 |        - |      385 |      385 |       0.18 | *
    |     6903 |        - |      384 |      384 |       0.18 | *
    |     7199 |        - |      382 |      382 |       0.19 | *
    |     7631 |        - |      379 |      379 |       0.19 | *
    |     7749 |        - |      378 |      378 |       0.19 | *
    |     7844 |        - |      377 |      377 |       0.19 | *
    |     8273 |        - |      374 |      374 |       0.19 | *
    |     8288 |        - |      372 |      372 |       0.19 | *
    |     8316 |        - |      371 |      371 |       0.19 | *
    |     8436 |        - |      370 |      370 |       0.19 | *
    |     8490 |        - |      369 |      369 |       0.19 | *
    |     8518 |        - |      368 |      368 |       0.19 | *
    |     8559 |        - |      367 |      367 |       0.20 | *
    |     8568 |        - |      365 |      365 |       0.20 | *
    |     8672 |        - |      362 |      362 |       0.20 | *
    |     8782 |        - |      361 |      361 |       0.20 | *
    |     8859 |        - |      360 |      360 |       0.20 | *
    |     8917 |        - |      358 |      358 |       0.20 | *
    |     9055 |        - |      356 |      356 |       0.20 | *
    |     9239 |        - |      355 |      355 |       0.20 | *
    |     9247 |        - |      354 |      354 |       0.20 | *
    |     9312 |        - |      353 |      353 |       0.20 | *
    |     9357 |        - |      352 |      352 |       0.20 | *
    |     9417 |        - |      351 |      351 |       0.20 | *
    |      10K |        - |      347 |      347 |       0.21 | *
    |      10K |        - |      345 |      345 |       0.21 | *
    |      11K |        - |      344 |      344 |       0.21 | *
    |      11K |        - |      343 |      343 |       0.21 | *
    |      11K |        - |      341 |      341 |       0.21 | *
    |      11K |        - |      337 |      337 |       0.21 | *
    |      11K |        - |      335 |      335 |       0.21 | *
    |      11K |        - |      334 |      334 |       0.21 | *
    |      11K |        - |      333 |      333 |       0.21 | *
    |      11K |        - |      331 |      331 |       0.21 | *
    |      11K |        - |      330 |      330 |       0.21 | *
    |      12K |        - |      329 |      329 |       0.21 | *
    |      12K |        - |      327 |      327 |       0.21 | *
    |      13K |        - |      326 |      326 |       0.22 | *
    |      13K |        - |      324 |      324 |       0.22 | *
    |      13K |        - |      323 |      323 |       0.22 | *
    |      13K |        - |      321 |      321 |       0.22 | *
    |      14K |        - |      320 |      320 |       0.22 | *
    |      14K |        - |      317 |      317 |       0.22 | *
    |      15K |        - |      315 |      315 |       0.22 | *
    |      15K |        - |      313 |      313 |       0.23 | *
    |      19K |        - |      312 |      312 |       0.23 | *
    |      20K |        - |      311 |      311 |       0.24 | *
    |      20K |        - |      309 |      309 |       0.24 | *
    |      20K |        - |      308 |      308 |       0.24 | *
    |      20K |        - |      307 |      307 |       0.24 | *
    |      21K |        - |      306 |      306 |       0.24 | *
    |      21K |        - |      305 |      305 |       0.24 | *
    |      21K |        - |      304 |      304 |       0.24 | *
    |      21K |        - |      303 |      303 |       0.24 | *
    |      21K |        - |      301 |      301 |       0.24 | *
    |      21K |        - |      300 |      300 |       0.24 | *
    |      23K |        - |      299 |      299 |       0.25 | *
    |      23K |        - |      298 |      298 |       0.25 | *
    |      24K |        - |      296 |      296 |       0.25 | *
    |      25K |        - |      294 |      294 |       0.25 | *
    |      25K |        - |      293 |      293 |       0.25 | *
    |      25K |        - |      292 |      292 |       0.25 | *
    |      26K |        - |      289 |      289 |       0.25 | *
    |      26K |        - |      288 |      288 |       0.25 | *
    |      27K |        - |      287 |      287 |       0.26 | *
    |      27K |        - |      286 |      286 |       0.26 | *
    |      28K |        - |      284 |      284 |       0.26 | *
    |      29K |        - |      282 |      282 |       0.26 | *
    |      29K |        - |      281 |      281 |       0.26 | *
    |      29K |        - |      280 |      280 |       0.26 | *
    |      29K |        - |      279 |      279 |       0.26 | *
    |      32K |        - |      278 |      278 |       0.27 | *
    |      32K |        - |      277 |      277 |       0.27 | *
    |      36K |        - |      276 |      276 |       0.28 | *
    |      36K |        - |      275 |      275 |       0.28 | *
    |      36K |        - |      274 |      274 |       0.28 | *
    |      36K |        - |      271 |      271 |       0.28 | *
    |      36K |        - |      270 |      270 |       0.28 | *
    |      36K |        - |      269 |      269 |       0.28 | *
    |      37K |        - |      268 |      268 |       0.28 | *
    |      38K |        - |      267 |      267 |       0.28 | *
    |      38K |        - |      266 |      266 |       0.28 | *
    |      38K |        - |      265 |      265 |       0.28 | *
    |      40K |        - |      262 |      262 |       0.28 | *
    |      40K |        - |      260 |      260 |       0.29 | *
    |      43K |        - |      257 |      257 |       0.29 | *
    |      43K |        - |      256 |      256 |       0.29 | *
    |      45K |        - |      255 |      255 |       0.30 | *
    |      50K |        - |      253 |      253 |       0.31 | *
    |      52K |        - |      252 |      252 |       0.31 | *
    |      53K |        - |      251 |      251 |       0.32 | *
    |      55K |        - |      250 |      250 |       0.32 | *
    |      57K |        - |      249 |      249 |       0.32 | *
    |      57K |        - |      248 |      248 |       0.33 | *
    |      57K |        - |      246 |      246 |       0.33 | *
    |      57K |        - |      243 |      243 |       0.33 | *
    |      57K |        - |      242 |      242 |       0.33 | *
    |      60K |        - |      241 |      241 |       0.34 | *
    |      60K |        - |      240 |      240 |       0.34 | *
    |      71K |        - |      239 |      239 |       0.36 | *
    |      71K |        - |      238 |      238 |       0.36 | *
    |      74K |        - |      237 |      237 |       0.37 | *
    |      75K |        - |      235 |      235 |       0.37 | *
    |      76K |        - |      234 |      234 |       0.38 | *
    |      76K |        - |      232 |      232 |       0.38 | *
    |      77K |        - |      231 |      231 |       0.38 | *
    |      77K |        - |      230 |      230 |       0.38 | *
    |      77K |        - |      229 |      229 |       0.38 | *
    |      77K |        - |      227 |      227 |       0.39 | *
    |      91K |        - |      226 |      226 |       0.43 | *
    |     111K |        - |      225 |      225 |       0.49 | *
    |     113K |        - |      224 |      224 |       0.50 | *
    |     113K |        - |      223 |      223 |       0.50 | *
    |     114K |        - |      222 |      222 |       0.50 | *
    |     115K |        - |      220 |      220 |       0.51 | *
    |     117K |        - |      219 |      219 |       0.51 | *
    |     123K |        - |      218 |      218 |       0.53 | *
    |     124K |        - |      217 |      217 |       0.54 | *
    |     124K |        - |      215 |      215 |       0.54 | *
    |     129K |        - |      214 |      214 |       0.55 | *
    |     164K |        - |      213 |      213 |       0.67 | *
    |     176K |        - |      212 |      212 |       0.71 | *
    |     187K |        - |      211 |      211 |       0.74 | *
    |     188K |        - |      210 |      210 |       0.76 | *
    |     201K |        - |      209 |      209 |       0.82 | *
    |     201K |        - |      208 |      208 |       0.82 | *
    |     202K |        - |      207 |      207 |       0.83 | *
    |     211K |        - |      206 |      206 |       0.86 | *
    |     224K |        - |      205 |      205 |       0.90 | *
    |     229K |        - |      204 |      204 |       0.91 | *
    |     236K |        - |      203 |      203 |       0.93 | *
    |     240K |        - |      202 |      202 |       0.94 | *
    |     262K |        - |      201 |      201 |       1.00 | *
    |     285K |        - |      200 |      200 |       1.05 | *
    |     287K |        - |      199 |      199 |       1.06 | *
    |     288K |        - |      198 |      198 |       1.06 | *
    |     289K |        - |      197 |      197 |       1.07 | *
    |     290K |        - |      196 |      196 |       1.07 | *
    |     298K |        - |      195 |      195 |       1.08 | *
    |     299K |        - |      194 |      194 |       1.09 | *
    |     322K |        - |      193 |      193 |       1.14 | *
    |     323K |        - |      192 |      192 |       1.14 | *
    |     325K |        - |      191 |      191 |       1.14 | *
    |     542K |        - |      190 |      190 |       1.53 | *
    |     544K |        - |      189 |      189 |       1.53 | *
    |     547K |        - |      188 |      188 |       1.55 | *
    |     559K |        - |      187 |      187 |       1.58 | *
    |     602K |        - |      186 |      186 |       1.66 | *
    |     640K |        - |      185 |      185 |       1.72 | *
    |     660K |        - |      184 |      184 |       1.76 | *
    |     810K |        - |      183 |      183 |       1.98 | *
    |     811K |        - |      182 |      182 |       1.98 | *
    |     885K |        - |      181 |      181 |       2.06 | *
    |     886K |        - |      180 |      180 |       2.06 | *
    |     934K |        - |      179 |      179 |       2.11 | *
    |     934K |        - |      178 |      178 |       2.11 | *
    |     945K |        - |      177 |      177 |       2.12 | *
    |     956K |        - |      176 |      176 |       2.14 | *
    |    1280K |        - |      175 |      175 |       2.39 | *
    |    1281K |        - |      173 |      173 |       2.39 | *
    |    2694K |        - |      172 |      172 |       3.53 | *
    |    2984K |        - |      171 |      171 |       3.88 | *
    |    3071K |        - |      170 |      170 |       3.98 | *
    |    3075K |        - |      168 |      168 |       3.99 | *
    |    3516K |        - |      167 |      167 |       4.35 | *
    |    3516K |        - |      166 |      166 |       4.36 | *
    |    3517K |        - |      165 |      165 |       4.36 | *
    |    3517K |        - |      164 |      164 |       4.36 | *
    |    4247K |        - |      163 |      163 |       5.01 | *
    |    5606K |        - |      162 |      162 |       6.12 | *
    |    5641K |        - |      161 |      161 |       6.17 | *
    |      29M |        - |      160 |      160 |      25.97 | *
    |      30M |        - |      159 |      159 |      26.46 | *
    |      38M |        - |      158 |      158 |      31.60 | *
    |      68M |        - |      157 |      157 |      53.14 | *
    |      72M |        - |      156 |      156 |      55.46 | *
    |      72M |        - |      155 |      155 |      55.56 | *
    |     195M |        - |      154 |      154 |     141.38 | *
    |     197M |        - |      153 |      153 |     142.45 | *
    |     198M |        - |      152 |      152 |     143.36 | *
    |     930M |        - |      151 |      151 |     649.92 | *
    |     939M |        - |      150 |      150 |     656.30 | *
    \--------------------------------------------------------/

Neighborhoods statistics (values in %):

    /----------------------------------------------------------------\
    | Move               | Improvs. | Sideways |  Accepts |  Rejects |
    |--------------------|----------|----------|----------|----------|
    | Shift(mk)          |     9534 |      16K |      28K |     223M |
    | Shift              |      620 |     386K |     395K |     223M |
    | ShiftSmart(mk)     |      78K |     128K |     225K |     223M |
    | ShiftSmart         |     5275 |    2813K |    2883K |     220M |
    | SimpSwap(mk)       |       57 |      107 |      197 |     223M |
    | SimpSwap           |        8 |      378 |      425 |     223M |
    | SimpSwapSmart(mk)  |      532 |     1098 |     1877 |     223M |
    | SimpSwapSmart      |       60 |     3411 |     3826 |     223M |
    | Swap(mk)           |        7 |       14 |       22 |     223M |
    | Swap               |        3 |       56 |       64 |     223M |
    | SwapSmart(mk)      |      325 |      593 |     1049 |     223M |
    | SwapSmart          |       44 |     2624 |     2922 |     223M |
    | Switch(mk)         |     1394 |      21M |      21M |     202M |
    | Switch             |       80 |      23M |      23M |     200M |
    | SwitchSmart(mk)    |      11K |      30K |      44K |     223M |
    | SwitchSmart        |      806 |     366K |     377K |     222M |
    | TaskMove(mk)       |      426 |      574 |     1127 |     223M |
    | TaskMove           |       36 |     2720 |     3018 |     223M |
    | TaskMoveSmart(mk)  |     3670 |     4955 |     9912 |     223M |
    | TaskMoveSmart      |      326 |      25K |      28K |     223M |
    | 2-Shift(mk)        |     2784 |    2190K |    2194K |     221M |
    | 2-Shift            |      180 |    2858K |    2860K |     220M |
    | 2-ShiftSmart(mk)   |      17K |    2898K |    2918K |     220M |
    | 2-ShiftSmart       |     1120 |    5102K |    5114K |     218M |
    \----------------------------------------------------------------/

Best makespan.....: 150
N. of Iterations..: 5349283730
Total runtime.....: 3600.01s
Using Python-MIP package version 1.6.8
Começo a execução
    /-------------------------------------------------------------------------------\
    |    Makespan   |   Free Jobs   | Free Machines |    It. Time   |   Total Time  | 
    |-------------------------------------------------------------------------------|
    \-------------------------------------------------------------------------------/
Terminou a execução
