Instance....: instances/I_200_30_S_1-99_10.txt
Algorithm...: Simulated Annealing (alpha=0.990, saMax=10M, t0=1)
Other params: maxIters=100M, seed=-1, timeLimit=3600.00s

    /--------------------------------------------------------\
    |     Iter |   RDP(%) |       S* |       S' |       Time | 
    |----------|----------|----------|----------|------------|
    |        0 |        - |     1354 |     1354 |       0.00 | s0
    |        1 |        - |     1253 |     1253 |       0.01 | *
    |        2 |        - |     1206 |     1206 |       0.01 | *
    |        4 |        - |     1133 |     1133 |       0.02 | *
    |        5 |        - |     1118 |     1118 |       0.02 | *
    |        8 |        - |     1098 |     1098 |       0.03 | *
    |       24 |        - |     1095 |     1095 |       0.03 | *
    |       37 |        - |     1085 |     1085 |       0.03 | *
    |       40 |        - |     1045 |     1045 |       0.03 | *
    |       44 |        - |      994 |      994 |       0.03 | *
    |       45 |        - |      990 |      990 |       0.03 | *
    |       48 |        - |      988 |      988 |       0.03 | *
    |       51 |        - |      948 |      948 |       0.03 | *
    |       53 |        - |      933 |      933 |       0.04 | *
    |       54 |        - |      929 |      929 |       0.04 | *
    |       61 |        - |      927 |      927 |       0.04 | *
    |       62 |        - |      915 |      915 |       0.04 | *
    |       63 |        - |      892 |      892 |       0.04 | *
    |       66 |        - |      883 |      883 |       0.04 | *
    |       67 |        - |      881 |      881 |       0.04 | *
    |       71 |        - |      865 |      865 |       0.04 | *
    |       73 |        - |      841 |      841 |       0.04 | *
    |       74 |        - |      818 |      818 |       0.04 | *
    |       76 |        - |      802 |      802 |       0.04 | *
    |       77 |        - |      797 |      797 |       0.04 | *
    |       79 |        - |      776 |      776 |       0.04 | *
    |       85 |        - |      750 |      750 |       0.04 | *
    |       91 |        - |      742 |      742 |       0.04 | *
    |       92 |        - |      732 |      732 |       0.04 | *
    |       96 |        - |      720 |      720 |       0.05 | *
    |      115 |        - |      717 |      717 |       0.05 | *
    |      116 |        - |      716 |      716 |       0.05 | *
    |      123 |        - |      714 |      714 |       0.05 | *
    |      127 |        - |      713 |      713 |       0.05 | *
    |      130 |        - |      712 |      712 |       0.05 | *
    |      131 |        - |      710 |      710 |       0.05 | *
    |      133 |        - |      703 |      703 |       0.05 | *
    |      140 |        - |      697 |      697 |       0.05 | *
    |      142 |        - |      689 |      689 |       0.05 | *
    |      144 |        - |      683 |      683 |       0.05 | *
    |      150 |        - |      681 |      681 |       0.05 | *
    |      174 |        - |      680 |      680 |       0.05 | *
    |      175 |        - |      679 |      679 |       0.06 | *
    |      178 |        - |      671 |      671 |       0.06 | *
    |      179 |        - |      655 |      655 |       0.06 | *
    |      181 |        - |      652 |      652 |       0.06 | *
    |      195 |        - |      648 |      648 |       0.06 | *
    |      196 |        - |      641 |      641 |       0.06 | *
    |      198 |        - |      636 |      636 |       0.06 | *
    |      213 |        - |      626 |      626 |       0.06 | *
    |      216 |        - |      617 |      617 |       0.06 | *
    |      225 |        - |      616 |      616 |       0.06 | *
    |      226 |        - |      615 |      615 |       0.06 | *
    |      227 |        - |      612 |      612 |       0.06 | *
    |      232 |        - |      610 |      610 |       0.06 | *
    |      248 |        - |      608 |      608 |       0.06 | *
    |      250 |        - |      603 |      603 |       0.06 | *
    |      284 |        - |      601 |      601 |       0.06 | *
    |      290 |        - |      597 |      597 |       0.07 | *
    |      304 |        - |      594 |      594 |       0.07 | *
    |      306 |        - |      593 |      593 |       0.07 | *
    |      311 |        - |      591 |      591 |       0.07 | *
    |      315 |        - |      590 |      590 |       0.07 | *
    |      317 |        - |      585 |      585 |       0.07 | *
    |      324 |        - |      583 |      583 |       0.07 | *
    |      326 |        - |      582 |      582 |       0.07 | *
    |      327 |        - |      576 |      576 |       0.07 | *
    |      329 |        - |      575 |      575 |       0.07 | *
    |      331 |        - |      558 |      558 |       0.07 | *
    |      332 |        - |      556 |      556 |       0.07 | *
    |      335 |        - |      553 |      553 |       0.07 | *
    |      349 |        - |      551 |      551 |       0.07 | *
    |      357 |        - |      550 |      550 |       0.07 | *
    |      358 |        - |      542 |      542 |       0.07 | *
    |      381 |        - |      541 |      541 |       0.08 | *
    |      382 |        - |      540 |      540 |       0.08 | *
    |      385 |        - |      536 |      536 |       0.08 | *
    |      389 |        - |      534 |      534 |       0.08 | *
    |      392 |        - |      530 |      530 |       0.08 | *
    |      398 |        - |      526 |      526 |       0.08 | *
    |      409 |        - |      525 |      525 |       0.08 | *
    |      411 |        - |      520 |      520 |       0.08 | *
    |      451 |        - |      519 |      519 |       0.08 | *
    |      484 |        - |      509 |      509 |       0.08 | *
    |      485 |        - |      507 |      507 |       0.08 | *
    |      493 |        - |      506 |      506 |       0.08 | *
    |      505 |        - |      499 |      499 |       0.08 | *
    |      528 |        - |      498 |      498 |       0.08 | *
    |      589 |        - |      496 |      496 |       0.09 | *
    |      618 |        - |      489 |      489 |       0.09 | *
    |      619 |        - |      488 |      488 |       0.09 | *
    |      643 |        - |      487 |      487 |       0.09 | *
    |      667 |        - |      486 |      486 |       0.09 | *
    |      677 |        - |      485 |      485 |       0.09 | *
    |      715 |        - |      484 |      484 |       0.09 | *
    |      730 |        - |      481 |      481 |       0.09 | *
    |      734 |        - |      479 |      479 |       0.09 | *
    |      735 |        - |      476 |      476 |       0.09 | *
    |      739 |        - |      474 |      474 |       0.09 | *
    |      751 |        - |      472 |      472 |       0.09 | *
    |      760 |        - |      471 |      471 |       0.09 | *
    |      761 |        - |      469 |      469 |       0.09 | *
    |      772 |        - |      467 |      467 |       0.09 | *
    |      776 |        - |      465 |      465 |       0.09 | *
    |      785 |        - |      463 |      463 |       0.09 | *
    |      805 |        - |      462 |      462 |       0.09 | *
    |      808 |        - |      461 |      461 |       0.09 | *
    |      812 |        - |      460 |      460 |       0.10 | *
    |      816 |        - |      459 |      459 |       0.10 | *
    |      819 |        - |      458 |      458 |       0.10 | *
    |      850 |        - |      454 |      454 |       0.10 | *
    |      860 |        - |      453 |      453 |       0.10 | *
    |      890 |        - |      452 |      452 |       0.10 | *
    |      895 |        - |      444 |      444 |       0.10 | *
    |      958 |        - |      440 |      440 |       0.10 | *
    |      978 |        - |      439 |      439 |       0.10 | *
    |      980 |        - |      438 |      438 |       0.10 | *
    |      986 |        - |      437 |      437 |       0.10 | *
    |     1011 |        - |      432 |      432 |       0.10 | *
    |     1015 |        - |      431 |      431 |       0.10 | *
    |     1021 |        - |      429 |      429 |       0.10 | *
    |     1030 |        - |      420 |      420 |       0.10 | *
    |     1045 |        - |      419 |      419 |       0.10 | *
    |     1088 |        - |      415 |      415 |       0.10 | *
    |     1306 |        - |      414 |      414 |       0.11 | *
    |     1315 |        - |      413 |      413 |       0.11 | *
    |     1326 |        - |      412 |      412 |       0.11 | *
    |     1345 |        - |      411 |      411 |       0.11 | *
    |     1348 |        - |      409 |      409 |       0.11 | *
    |     1365 |        - |      406 |      406 |       0.11 | *
    |     1376 |        - |      405 |      405 |       0.11 | *
    |     1387 |        - |      404 |      404 |       0.11 | *
    |     1442 |        - |      402 |      402 |       0.11 | *
    |     1451 |        - |      401 |      401 |       0.11 | *
    |     1520 |        - |      400 |      400 |       0.11 | *
    |     1521 |        - |      398 |      398 |       0.11 | *
    |     1526 |        - |      396 |      396 |       0.11 | *
    |     1533 |        - |      395 |      395 |       0.11 | *
    |     1537 |        - |      393 |      393 |       0.11 | *
    |     1559 |        - |      389 |      389 |       0.11 | *
    |     1573 |        - |      387 |      387 |       0.12 | *
    |     1601 |        - |      386 |      386 |       0.12 | *
    |     1603 |        - |      385 |      385 |       0.12 | *
    |     1607 |        - |      383 |      383 |       0.12 | *
    |     1610 |        - |      379 |      379 |       0.12 | *
    |     1618 |        - |      377 |      377 |       0.12 | *
    |     1687 |        - |      376 |      376 |       0.12 | *
    |     1718 |        - |      371 |      371 |       0.12 | *
    |     1738 |        - |      370 |      370 |       0.12 | *
    |     1753 |        - |      369 |      369 |       0.12 | *
    |     1764 |        - |      368 |      368 |       0.12 | *
    |     1776 |        - |      367 |      367 |       0.12 | *
    |     1790 |        - |      365 |      365 |       0.12 | *
    |     1881 |        - |      364 |      364 |       0.12 | *
    |     1910 |        - |      363 |      363 |       0.12 | *
    |     1915 |        - |      362 |      362 |       0.12 | *
    |     1944 |        - |      361 |      361 |       0.12 | *
    |     1962 |        - |      360 |      360 |       0.12 | *
    |     1993 |        - |      357 |      357 |       0.13 | *
    |     2032 |        - |      356 |      356 |       0.13 | *
    |     2038 |        - |      355 |      355 |       0.13 | *
    |     2056 |        - |      354 |      354 |       0.13 | *
    |     2075 |        - |      353 |      353 |       0.13 | *
    |     2097 |        - |      351 |      351 |       0.13 | *
    |     2173 |        - |      349 |      349 |       0.13 | *
    |     2174 |        - |      347 |      347 |       0.13 | *
    |     2182 |        - |      344 |      344 |       0.13 | *
    |     2219 |        - |      342 |      342 |       0.13 | *
    |     2409 |        - |      341 |      341 |       0.13 | *
    |     2421 |        - |      340 |      340 |       0.13 | *
    |     2543 |        - |      339 |      339 |       0.13 | *
    |     2661 |        - |      337 |      337 |       0.13 | *
    |     2671 |        - |      333 |      333 |       0.13 | *
    |     2686 |        - |      332 |      332 |       0.13 | *
    |     2719 |        - |      329 |      329 |       0.13 | *
    |     2721 |        - |      328 |      328 |       0.13 | *
    |     2835 |        - |      327 |      327 |       0.14 | *
    |     2840 |        - |      326 |      326 |       0.14 | *
    |     3211 |        - |      325 |      325 |       0.14 | *
    |     3253 |        - |      324 |      324 |       0.14 | *
    |     3267 |        - |      322 |      322 |       0.14 | *
    |     3359 |        - |      321 |      321 |       0.14 | *
    |     3364 |        - |      319 |      319 |       0.14 | *
    |     3411 |        - |      318 |      318 |       0.14 | *
    |     3464 |        - |      317 |      317 |       0.14 | *
    |     3468 |        - |      316 |      316 |       0.14 | *
    |     3475 |        - |      315 |      315 |       0.14 | *
    |     3490 |        - |      314 |      314 |       0.14 | *
    |     3525 |        - |      313 |      313 |       0.15 | *
    |     3546 |        - |      312 |      312 |       0.15 | *
    |     3587 |        - |      311 |      311 |       0.15 | *
    |     3826 |        - |      310 |      310 |       0.15 | *
    |     3941 |        - |      309 |      309 |       0.15 | *
    |     3951 |        - |      307 |      307 |       0.15 | *
    |     4034 |        - |      306 |      306 |       0.15 | *
    |     4060 |        - |      305 |      305 |       0.15 | *
    |     4086 |        - |      304 |      304 |       0.15 | *
    |     4089 |        - |      303 |      303 |       0.15 | *
    |     4362 |        - |      302 |      302 |       0.16 | *
    |     4462 |        - |      300 |      300 |       0.16 | *
    |     4491 |        - |      299 |      299 |       0.16 | *
    |     4495 |        - |      298 |      298 |       0.16 | *
    |     4523 |        - |      296 |      296 |       0.16 | *
    |     4597 |        - |      295 |      295 |       0.16 | *
    |     4598 |        - |      294 |      294 |       0.16 | *
    |     4603 |        - |      293 |      293 |       0.16 | *
    |     4681 |        - |      291 |      291 |       0.16 | *
    |     4789 |        - |      290 |      290 |       0.16 | *
    |     4837 |        - |      289 |      289 |       0.16 | *
    |     4992 |        - |      287 |      287 |       0.16 | *
    |     5027 |        - |      285 |      285 |       0.16 | *
    |     5337 |        - |      284 |      284 |       0.17 | *
    |     5628 |        - |      283 |      283 |       0.17 | *
    |     5702 |        - |      281 |      281 |       0.17 | *
    |     5784 |        - |      280 |      280 |       0.17 | *
    |     5872 |        - |      279 |      279 |       0.17 | *
    |     5903 |        - |      278 |      278 |       0.17 | *
    |     5946 |        - |      277 |      277 |       0.17 | *
    |     6034 |        - |      275 |      275 |       0.17 | *
    |     6071 |        - |      274 |      274 |       0.17 | *
    |     6084 |        - |      273 |      273 |       0.17 | *
    |     6115 |        - |      271 |      271 |       0.17 | *
    |     6187 |        - |      269 |      269 |       0.18 | *
    |     6239 |        - |      268 |      268 |       0.18 | *
    |     6252 |        - |      267 |      267 |       0.18 | *
    |     6364 |        - |      266 |      266 |       0.18 | *
    |     6377 |        - |      264 |      264 |       0.18 | *
    |     6533 |        - |      263 |      263 |       0.18 | *
    |     6709 |        - |      262 |      262 |       0.18 | *
    |     6810 |        - |      261 |      261 |       0.18 | *
    |     6815 |        - |      260 |      260 |       0.18 | *
    |     6956 |        - |      259 |      259 |       0.18 | *
    |     7042 |        - |      258 |      258 |       0.18 | *
    |     7106 |        - |      257 |      257 |       0.18 | *
    |     7118 |        - |      255 |      255 |       0.18 | *
    |     7172 |        - |      254 |      254 |       0.19 | *
    |     7374 |        - |      253 |      253 |       0.19 | *
    |     7416 |        - |      252 |      252 |       0.19 | *
    |     7443 |        - |      251 |      251 |       0.19 | *
    |     7453 |        - |      250 |      250 |       0.19 | *
    |     7507 |        - |      248 |      248 |       0.19 | *
    |     7524 |        - |      247 |      247 |       0.19 | *
    |     7755 |        - |      244 |      244 |       0.19 | *
    |     7878 |        - |      240 |      240 |       0.19 | *
    |     7992 |        - |      239 |      239 |       0.19 | *
    |     8101 |        - |      237 |      237 |       0.19 | *
    |     8301 |        - |      233 |      233 |       0.20 | *
    |     8305 |        - |      232 |      232 |       0.20 | *
    |     8439 |        - |      231 |      231 |       0.20 | *
    |     8598 |        - |      230 |      230 |       0.20 | *
    |     8823 |        - |      229 |      229 |       0.20 | *
    |     9553 |        - |      228 |      228 |       0.20 | *
    |     9803 |        - |      227 |      227 |       0.20 | *
    |      10K |        - |      225 |      225 |       0.20 | *
    |      10K |        - |      224 |      224 |       0.20 | *
    |      10K |        - |      222 |      222 |       0.21 | *
    |      11K |        - |      221 |      221 |       0.21 | *
    |      11K |        - |      220 |      220 |       0.21 | *
    |      11K |        - |      219 |      219 |       0.21 | *
    |      12K |        - |      216 |      216 |       0.21 | *
    |      12K |        - |      215 |      215 |       0.21 | *
    |      12K |        - |      214 |      214 |       0.21 | *
    |      12K |        - |      213 |      213 |       0.21 | *
    |      12K |        - |      212 |      212 |       0.21 | *
    |      12K |        - |      211 |      211 |       0.22 | *
    |      13K |        - |      210 |      210 |       0.22 | *
    |      13K |        - |      209 |      209 |       0.22 | *
    |      13K |        - |      208 |      208 |       0.22 | *
    |      14K |        - |      207 |      207 |       0.22 | *
    |      14K |        - |      206 |      206 |       0.22 | *
    |      14K |        - |      205 |      205 |       0.22 | *
    |      14K |        - |      203 |      203 |       0.22 | *
    |      14K |        - |      201 |      201 |       0.22 | *
    |      16K |        - |      200 |      200 |       0.23 | *
    |      16K |        - |      199 |      199 |       0.23 | *
    |      16K |        - |      198 |      198 |       0.23 | *
    |      17K |        - |      197 |      197 |       0.23 | *
    |      17K |        - |      196 |      196 |       0.23 | *
    |      17K |        - |      195 |      195 |       0.23 | *
    |      17K |        - |      194 |      194 |       0.23 | *
    |      17K |        - |      193 |      193 |       0.24 | *
    |      17K |        - |      192 |      192 |       0.24 | *
    |      20K |        - |      191 |      191 |       0.24 | *
    |      22K |        - |      190 |      190 |       0.25 | *
    |      24K |        - |      189 |      189 |       0.25 | *
    |      24K |        - |      188 |      188 |       0.25 | *
    |      24K |        - |      187 |      187 |       0.25 | *
    |      25K |        - |      185 |      185 |       0.26 | *
    |      26K |        - |      184 |      184 |       0.26 | *
    |      26K |        - |      183 |      183 |       0.26 | *
    |      27K |        - |      182 |      182 |       0.26 | *
    |      27K |        - |      181 |      181 |       0.26 | *
    |      27K |        - |      180 |      180 |       0.26 | *
    |      27K |        - |      179 |      179 |       0.26 | *
    |      29K |        - |      177 |      177 |       0.27 | *
    |      30K |        - |      176 |      176 |       0.27 | *
    |      30K |        - |      175 |      175 |       0.27 | *
    |      30K |        - |      174 |      174 |       0.27 | *
    |      30K |        - |      173 |      173 |       0.27 | *
    |      30K |        - |      172 |      172 |       0.27 | *
    |      30K |        - |      171 |      171 |       0.27 | *
    |      34K |        - |      170 |      170 |       0.28 | *
    |      37K |        - |      169 |      169 |       0.28 | *
    |      37K |        - |      168 |      168 |       0.28 | *
    |      38K |        - |      167 |      167 |       0.28 | *
    |      41K |        - |      166 |      166 |       0.29 | *
    |      45K |        - |      165 |      165 |       0.29 | *
    |      50K |        - |      164 |      164 |       0.30 | *
    |      50K |        - |      163 |      163 |       0.30 | *
    |      52K |        - |      162 |      162 |       0.30 | *
    |      54K |        - |      161 |      161 |       0.31 | *
    |      54K |        - |      160 |      160 |       0.31 | *
    |      56K |        - |      159 |      159 |       0.31 | *
    |      57K |        - |      158 |      158 |       0.32 | *
    |      59K |        - |      157 |      157 |       0.32 | *
    |      60K |        - |      156 |      156 |       0.32 | *
    |      61K |        - |      155 |      155 |       0.33 | *
    |      61K |        - |      154 |      154 |       0.33 | *
    |      61K |        - |      153 |      153 |       0.33 | *
    |      64K |        - |      152 |      152 |       0.34 | *
    |      64K |        - |      151 |      151 |       0.34 | *
    |      64K |        - |      150 |      150 |       0.34 | *
    |      65K |        - |      147 |      147 |       0.34 | *
    |      66K |        - |      146 |      146 |       0.34 | *
    |      66K |        - |      145 |      145 |       0.34 | *
    |      69K |        - |      144 |      144 |       0.35 | *
    |      71K |        - |      143 |      143 |       0.36 | *
    |      74K |        - |      141 |      141 |       0.36 | *
    |      84K |        - |      140 |      140 |       0.38 | *
    |      86K |        - |      139 |      139 |       0.38 | *
    |      88K |        - |      138 |      138 |       0.39 | *
    |      90K |        - |      137 |      137 |       0.39 | *
    |      90K |        - |      136 |      136 |       0.39 | *
    |      99K |        - |      135 |      135 |       0.41 | *
    |     110K |        - |      134 |      134 |       0.43 | *
    |     118K |        - |      133 |      133 |       0.45 | *
    |     121K |        - |      132 |      132 |       0.45 | *
    |     122K |        - |      131 |      131 |       0.45 | *
    |     125K |        - |      130 |      130 |       0.46 | *
    |     126K |        - |      129 |      129 |       0.46 | *
    |     137K |        - |      128 |      128 |       0.48 | *
    |     137K |        - |      127 |      127 |       0.48 | *
    |     139K |        - |      126 |      126 |       0.48 | *
    |     167K |        - |      125 |      125 |       0.56 | *
    |     167K |        - |      124 |      124 |       0.56 | *
    |     199K |        - |      123 |      123 |       0.66 | *
    |     205K |        - |      122 |      122 |       0.69 | *
    |     239K |        - |      121 |      121 |       0.80 | *
    |     253K |        - |      120 |      120 |       0.83 | *
    |     254K |        - |      119 |      119 |       0.84 | *
    |     267K |        - |      118 |      118 |       0.87 | *
    |     269K |        - |      117 |      117 |       0.88 | *
    |     299K |        - |      116 |      116 |       0.95 | *
    |     320K |        - |      115 |      115 |       1.00 | *
    |     419K |        - |      114 |      114 |       1.13 | *
    |     429K |        - |      113 |      113 |       1.14 | *
    |     429K |        - |      112 |      112 |       1.14 | *
    |     440K |        - |      110 |      110 |       1.15 | *
    |     454K |        - |      109 |      109 |       1.17 | *
    |     463K |        - |      108 |      108 |       1.18 | *
    |     493K |        - |      107 |      107 |       1.21 | *
    |     503K |        - |      106 |      106 |       1.23 | *
    |     524K |        - |      105 |      105 |       1.25 | *
    |     566K |        - |      104 |      104 |       1.30 | *
    |     784K |        - |      103 |      103 |       1.52 | *
    |     957K |        - |      102 |      102 |       1.64 | *
    |    1096K |        - |      101 |      101 |       1.77 | *
    |    1105K |        - |      100 |      100 |       1.78 | *
    |    1191K |        - |       99 |       99 |       1.90 | *
    |    1343K |        - |       98 |       98 |       2.11 | *
    |    1368K |        - |       97 |       97 |       2.14 | *
    |    1383K |        - |       96 |       96 |       2.15 | *
    |    1385K |        - |       95 |       95 |       2.15 | *
    |    1400K |        - |       94 |       94 |       2.17 | *
    |    1467K |        - |       93 |       93 |       2.23 | *
    |    1483K |        - |       92 |       92 |       2.24 | *
    |    1946K |        - |       91 |       91 |       2.57 | *
    |    2033K |        - |       90 |       90 |       2.63 | *
    |    2126K |        - |       89 |       89 |       2.69 | *
    |    2315K |        - |       88 |       88 |       2.83 | *
    |    2371K |        - |       87 |       87 |       2.87 | *
    |    2813K |        - |       86 |       86 |       3.17 | *
    |    3206K |        - |       85 |       85 |       3.45 | *
    |    3219K |        - |       84 |       84 |       3.46 | *
    |      10M |        - |       83 |       83 |      10.38 | *
    |      10M |        - |       82 |       82 |      10.43 | *
    |      12M |        - |       81 |       81 |      11.72 | *
    |      12M |        - |       80 |       80 |      11.79 | *
    |      13M |        - |       79 |       79 |      12.53 | *
    |      19M |        - |       78 |       78 |      17.39 | *
    |     171M |        - |       77 |       77 |     125.90 | *
    |     276M |        - |       76 |       76 |     199.68 | *
    |     284M |        - |       75 |       75 |     205.31 | *
    |     292M |        - |       74 |       74 |     210.77 | *
    |     296M |        - |       73 |       73 |     213.70 | *
    |     460M |        - |       72 |       72 |     329.71 | *
    |     513M |        - |       71 |       71 |     367.06 | *
    |     644M |        - |       70 |       70 |     458.96 | *
    |     653M |        - |       69 |       69 |     465.17 | *
    \--------------------------------------------------------/

Neighborhoods statistics (values in %):

    /----------------------------------------------------------------\
    | Move               | Improvs. | Sideways |  Accepts |  Rejects |
    |--------------------|----------|----------|----------|----------|
    | Shift(mk)          |      23K |      54K |      85K |     219M |
    | Shift              |      760 |    1045K |    1064K |     219M |
    | ShiftSmart(mk)     |     119K |     258K |     420K |     219M |
    | ShiftSmart         |     3804 |    4607K |    4691K |     215M |
    | SimpSwap(mk)       |      157 |      388 |      607 |     219M |
    | SimpSwap           |       11 |     1783 |     1939 |     220M |
    | SimpSwapSmart(mk)  |      812 |     2110 |     3231 |     220M |
    | SimpSwapSmart      |       43 |     9716 |      10K |     220M |
    | Swap(mk)           |       34 |      125 |      170 |     219M |
    | Swap               |        0 |      608 |      640 |     220M |
    | SwapSmart(mk)      |      848 |     2477 |     3668 |     220M |
    | SwapSmart          |       52 |     9578 |      10K |     219M |
    | Switch(mk)         |     7155 |      41M |      41M |     178M |
    | Switch             |      227 |      35M |      35M |     185M |
    | SwitchSmart(mk)    |      36K |      83K |     135K |     220M |
    | SwitchSmart        |     1193 |     617K |     640K |     219M |
    | TaskMove(mk)       |     1637 |     3530 |     5793 |     219M |
    | TaskMove           |       70 |      11K |      12K |     220M |
    | TaskMoveSmart(mk)  |     9217 |      21K |      34K |     220M |
    | TaskMoveSmart      |      328 |      63K |      69K |     219M |
    | 2-Shift(mk)        |      11K |    9735K |    9749K |     210M |
    | 2-Shift            |      334 |    7357K |    7366K |     212M |
    | 2-ShiftSmart(mk)   |      42K |    2496K |    2547K |     217M |
    | 2-ShiftSmart       |     1399 |      12M |      12M |     207M |
    \----------------------------------------------------------------/

Best makespan.....: 69
N. of Iterations..: 5270093069
Total runtime.....: 3600.02s
Using Python-MIP package version 1.6.8
Começo a execução
    /-------------------------------------------------------------------------------\
    |    Makespan   |   Free Jobs   | Free Machines |    It. Time   |   Total Time  | 
    |-------------------------------------------------------------------------------|
    \-------------------------------------------------------------------------------/
Terminou a execução
