Instance....: instances/I_200_30_S_1-99_6.txt
Algorithm...: Simulated Annealing (alpha=0.990, saMax=10M, t0=1)
Other params: maxIters=100M, seed=-1, timeLimit=3600.00s

    /--------------------------------------------------------\
    |     Iter |   RDP(%) |       S* |       S' |       Time | 
    |----------|----------|----------|----------|------------|
    |        0 |        - |     1214 |     1214 |       0.00 | s0
    |        1 |        - |     1168 |     1168 |       0.01 | *
    |        2 |        - |     1102 |     1102 |       0.01 | *
    |        3 |        - |     1076 |     1076 |       0.01 | *
    |        4 |        - |     1061 |     1061 |       0.01 | *
    |        7 |        - |     1024 |     1024 |       0.01 | *
    |        9 |        - |     1008 |     1008 |       0.02 | *
    |       10 |        - |     1007 |     1007 |       0.02 | *
    |       11 |        - |      992 |      992 |       0.02 | *
    |       15 |        - |      967 |      967 |       0.04 | *
    |       18 |        - |      950 |      950 |       0.04 | *
    |       20 |        - |      937 |      937 |       0.05 | *
    |       22 |        - |      921 |      921 |       0.05 | *
    |       30 |        - |      893 |      893 |       0.05 | *
    |       36 |        - |      885 |      885 |       0.05 | *
    |       37 |        - |      880 |      880 |       0.05 | *
    |       40 |        - |      873 |      873 |       0.05 | *
    |       41 |        - |      869 |      869 |       0.05 | *
    |       43 |        - |      868 |      868 |       0.05 | *
    |       44 |        - |      861 |      861 |       0.05 | *
    |       50 |        - |      859 |      859 |       0.05 | *
    |       51 |        - |      855 |      855 |       0.06 | *
    |       57 |        - |      838 |      838 |       0.06 | *
    |       62 |        - |      828 |      828 |       0.06 | *
    |       63 |        - |      827 |      827 |       0.06 | *
    |       73 |        - |      808 |      808 |       0.06 | *
    |       74 |        - |      802 |      802 |       0.06 | *
    |       76 |        - |      793 |      793 |       0.06 | *
    |       77 |        - |      768 |      768 |       0.06 | *
    |       80 |        - |      766 |      766 |       0.06 | *
    |       84 |        - |      758 |      758 |       0.06 | *
    |       85 |        - |      747 |      747 |       0.07 | *
    |       88 |        - |      746 |      746 |       0.07 | *
    |       90 |        - |      740 |      740 |       0.07 | *
    |       98 |        - |      736 |      736 |       0.07 | *
    |       99 |        - |      735 |      735 |       0.07 | *
    |      100 |        - |      728 |      728 |       0.07 | *
    |      122 |        - |      713 |      713 |       0.07 | *
    |      128 |        - |      710 |      710 |       0.07 | *
    |      129 |        - |      708 |      708 |       0.07 | *
    |      130 |        - |      704 |      704 |       0.07 | *
    |      137 |        - |      687 |      687 |       0.08 | *
    |      140 |        - |      679 |      679 |       0.08 | *
    |      146 |        - |      677 |      677 |       0.08 | *
    |      149 |        - |      672 |      672 |       0.08 | *
    |      153 |        - |      671 |      671 |       0.08 | *
    |      172 |        - |      669 |      669 |       0.08 | *
    |      174 |        - |      665 |      665 |       0.08 | *
    |      177 |        - |      664 |      664 |       0.08 | *
    |      185 |        - |      661 |      661 |       0.08 | *
    |      186 |        - |      655 |      655 |       0.08 | *
    |      191 |        - |      653 |      653 |       0.08 | *
    |      194 |        - |      648 |      648 |       0.09 | *
    |      197 |        - |      646 |      646 |       0.09 | *
    |      198 |        - |      642 |      642 |       0.09 | *
    |      212 |        - |      641 |      641 |       0.09 | *
    |      220 |        - |      639 |      639 |       0.09 | *
    |      222 |        - |      638 |      638 |       0.09 | *
    |      229 |        - |      634 |      634 |       0.09 | *
    |      234 |        - |      630 |      630 |       0.09 | *
    |      238 |        - |      614 |      614 |       0.09 | *
    |      262 |        - |      611 |      611 |       0.09 | *
    |      283 |        - |      605 |      605 |       0.10 | *
    |      285 |        - |      599 |      599 |       0.10 | *
    |      287 |        - |      591 |      591 |       0.10 | *
    |      302 |        - |      590 |      590 |       0.10 | *
    |      304 |        - |      576 |      576 |       0.10 | *
    |      307 |        - |      572 |      572 |       0.10 | *
    |      310 |        - |      566 |      566 |       0.10 | *
    |      322 |        - |      565 |      565 |       0.10 | *
    |      327 |        - |      561 |      561 |       0.10 | *
    |      329 |        - |      558 |      558 |       0.10 | *
    |      330 |        - |      556 |      556 |       0.10 | *
    |      338 |        - |      552 |      552 |       0.10 | *
    |      339 |        - |      548 |      548 |       0.11 | *
    |      340 |        - |      545 |      545 |       0.11 | *
    |      349 |        - |      543 |      543 |       0.11 | *
    |      354 |        - |      533 |      533 |       0.11 | *
    |      372 |        - |      529 |      529 |       0.11 | *
    |      384 |        - |      525 |      525 |       0.11 | *
    |      400 |        - |      523 |      523 |       0.11 | *
    |      401 |        - |      519 |      519 |       0.11 | *
    |      402 |        - |      515 |      515 |       0.11 | *
    |      405 |        - |      511 |      511 |       0.11 | *
    |      414 |        - |      510 |      510 |       0.11 | *
    |      420 |        - |      509 |      509 |       0.12 | *
    |      421 |        - |      508 |      508 |       0.12 | *
    |      441 |        - |      504 |      504 |       0.12 | *
    |      473 |        - |      502 |      502 |       0.12 | *
    |      476 |        - |      499 |      499 |       0.12 | *
    |      482 |        - |      489 |      489 |       0.12 | *
    |      493 |        - |      485 |      485 |       0.12 | *
    |      497 |        - |      476 |      476 |       0.12 | *
    |      515 |        - |      474 |      474 |       0.12 | *
    |      621 |        - |      469 |      469 |       0.13 | *
    |      626 |        - |      468 |      468 |       0.13 | *
    |      655 |        - |      466 |      466 |       0.13 | *
    |      687 |        - |      465 |      465 |       0.13 | *
    |      693 |        - |      464 |      464 |       0.13 | *
    |      695 |        - |      462 |      462 |       0.13 | *
    |      706 |        - |      460 |      460 |       0.13 | *
    |      768 |        - |      459 |      459 |       0.13 | *
    |      774 |        - |      458 |      458 |       0.13 | *
    |      801 |        - |      457 |      457 |       0.14 | *
    |      805 |        - |      454 |      454 |       0.14 | *
    |      815 |        - |      453 |      453 |       0.14 | *
    |      816 |        - |      452 |      452 |       0.14 | *
    |      819 |        - |      450 |      450 |       0.14 | *
    |      826 |        - |      449 |      449 |       0.14 | *
    |      828 |        - |      445 |      445 |       0.14 | *
    |      852 |        - |      443 |      443 |       0.14 | *
    |      878 |        - |      442 |      442 |       0.14 | *
    |      894 |        - |      441 |      441 |       0.14 | *
    |      904 |        - |      436 |      436 |       0.14 | *
    |      910 |        - |      435 |      435 |       0.14 | *
    |      913 |        - |      434 |      434 |       0.14 | *
    |      915 |        - |      432 |      432 |       0.14 | *
    |      916 |        - |      429 |      429 |       0.14 | *
    |      922 |        - |      427 |      427 |       0.15 | *
    |      931 |        - |      426 |      426 |       0.15 | *
    |      932 |        - |      422 |      422 |       0.15 | *
    |      946 |        - |      421 |      421 |       0.15 | *
    |      959 |        - |      419 |      419 |       0.15 | *
    |      993 |        - |      417 |      417 |       0.15 | *
    |      999 |        - |      416 |      416 |       0.15 | *
    |     1001 |        - |      413 |      413 |       0.15 | *
    |     1021 |        - |      412 |      412 |       0.16 | *
    |     1028 |        - |      411 |      411 |       0.16 | *
    |     1057 |        - |      409 |      409 |       0.16 | *
    |     1144 |        - |      408 |      408 |       0.16 | *
    |     1156 |        - |      407 |      407 |       0.16 | *
    |     1174 |        - |      406 |      406 |       0.16 | *
    |     1211 |        - |      405 |      405 |       0.16 | *
    |     1220 |        - |      402 |      402 |       0.16 | *
    |     1221 |        - |      400 |      400 |       0.16 | *
    |     1228 |        - |      398 |      398 |       0.16 | *
    |     1230 |        - |      397 |      397 |       0.16 | *
    |     1235 |        - |      396 |      396 |       0.16 | *
    |     1275 |        - |      390 |      390 |       0.16 | *
    |     1320 |        - |      389 |      389 |       0.17 | *
    |     1323 |        - |      388 |      388 |       0.17 | *
    |     1387 |        - |      385 |      385 |       0.17 | *
    |     1393 |        - |      384 |      384 |       0.17 | *
    |     1417 |        - |      380 |      380 |       0.17 | *
    |     1536 |        - |      379 |      379 |       0.17 | *
    |     1569 |        - |      378 |      378 |       0.17 | *
    |     1601 |        - |      377 |      377 |       0.17 | *
    |     1604 |        - |      376 |      376 |       0.17 | *
    |     1608 |        - |      375 |      375 |       0.17 | *
    |     1649 |        - |      374 |      374 |       0.17 | *
    |     1657 |        - |      373 |      373 |       0.17 | *
    |     1676 |        - |      372 |      372 |       0.18 | *
    |     1727 |        - |      367 |      367 |       0.18 | *
    |     1766 |        - |      364 |      364 |       0.18 | *
    |     1881 |        - |      363 |      363 |       0.18 | *
    |     1955 |        - |      361 |      361 |       0.18 | *
    |     1987 |        - |      355 |      355 |       0.18 | *
    |     2022 |        - |      354 |      354 |       0.18 | *
    |     2080 |        - |      353 |      353 |       0.18 | *
    |     2086 |        - |      351 |      351 |       0.18 | *
    |     2129 |        - |      350 |      350 |       0.18 | *
    |     2142 |        - |      348 |      348 |       0.18 | *
    |     2146 |        - |      347 |      347 |       0.19 | *
    |     2174 |        - |      345 |      345 |       0.19 | *
    |     2208 |        - |      344 |      344 |       0.19 | *
    |     2250 |        - |      343 |      343 |       0.19 | *
    |     2417 |        - |      342 |      342 |       0.19 | *
    |     2454 |        - |      341 |      341 |       0.19 | *
    |     2528 |        - |      340 |      340 |       0.19 | *
    |     2540 |        - |      339 |      339 |       0.19 | *
    |     2583 |        - |      338 |      338 |       0.19 | *
    |     2614 |        - |      337 |      337 |       0.19 | *
    |     2823 |        - |      334 |      334 |       0.19 | *
    |     2948 |        - |      333 |      333 |       0.20 | *
    |     2957 |        - |      332 |      332 |       0.20 | *
    |     2958 |        - |      329 |      329 |       0.20 | *
    |     2981 |        - |      328 |      328 |       0.20 | *
    |     3062 |        - |      326 |      326 |       0.20 | *
    |     3153 |        - |      325 |      325 |       0.20 | *
    |     3237 |        - |      323 |      323 |       0.20 | *
    |     3349 |        - |      322 |      322 |       0.20 | *
    |     3443 |        - |      320 |      320 |       0.20 | *
    |     3446 |        - |      318 |      318 |       0.20 | *
    |     3493 |        - |      317 |      317 |       0.21 | *
    |     3498 |        - |      316 |      316 |       0.21 | *
    |     3517 |        - |      315 |      315 |       0.21 | *
    |     3576 |        - |      314 |      314 |       0.21 | *
    |     3633 |        - |      313 |      313 |       0.21 | *
    |     3647 |        - |      312 |      312 |       0.21 | *
    |     3819 |        - |      311 |      311 |       0.21 | *
    |     3848 |        - |      309 |      309 |       0.21 | *
    |     3853 |        - |      308 |      308 |       0.21 | *
    |     4288 |        - |      307 |      307 |       0.21 | *
    |     4308 |        - |      306 |      306 |       0.21 | *
    |     4322 |        - |      305 |      305 |       0.21 | *
    |     4345 |        - |      304 |      304 |       0.22 | *
    |     4386 |        - |      303 |      303 |       0.22 | *
    |     4496 |        - |      302 |      302 |       0.22 | *
    |     4514 |        - |      300 |      300 |       0.22 | *
    |     4544 |        - |      299 |      299 |       0.22 | *
    |     4603 |        - |      298 |      298 |       0.22 | *
    |     4636 |        - |      296 |      296 |       0.22 | *
    |     4642 |        - |      295 |      295 |       0.22 | *
    |     4808 |        - |      293 |      293 |       0.22 | *
    |     4814 |        - |      292 |      292 |       0.22 | *
    |     4903 |        - |      291 |      291 |       0.22 | *
    |     4942 |        - |      290 |      290 |       0.23 | *
    |     4953 |        - |      289 |      289 |       0.23 | *
    |     5097 |        - |      288 |      288 |       0.23 | *
    |     5197 |        - |      287 |      287 |       0.23 | *
    |     5264 |        - |      286 |      286 |       0.23 | *
    |     5305 |        - |      285 |      285 |       0.23 | *
    |     5308 |        - |      284 |      284 |       0.23 | *
    |     5333 |        - |      282 |      282 |       0.23 | *
    |     5421 |        - |      281 |      281 |       0.24 | *
    |     5426 |        - |      279 |      279 |       0.24 | *
    |     5430 |        - |      278 |      278 |       0.24 | *
    |     5507 |        - |      277 |      277 |       0.24 | *
    |     5630 |        - |      276 |      276 |       0.24 | *
    |     5827 |        - |      274 |      274 |       0.24 | *
    |     5857 |        - |      273 |      273 |       0.24 | *
    |     5907 |        - |      270 |      270 |       0.24 | *
    |     6032 |        - |      269 |      269 |       0.24 | *
    |     6033 |        - |      268 |      268 |       0.25 | *
    |     6070 |        - |      267 |      267 |       0.25 | *
    |     6083 |        - |      263 |      263 |       0.25 | *
    |     6310 |        - |      261 |      261 |       0.25 | *
    |     6363 |        - |      260 |      260 |       0.25 | *
    |     6639 |        - |      259 |      259 |       0.25 | *
    |     6641 |        - |      258 |      258 |       0.25 | *
    |     6682 |        - |      257 |      257 |       0.25 | *
    |     6705 |        - |      256 |      256 |       0.25 | *
    |     6782 |        - |      255 |      255 |       0.25 | *
    |     6788 |        - |      254 |      254 |       0.25 | *
    |     7114 |        - |      252 |      252 |       0.25 | *
    |     7185 |        - |      251 |      251 |       0.25 | *
    |     7378 |        - |      250 |      250 |       0.26 | *
    |     7391 |        - |      249 |      249 |       0.26 | *
    |     7643 |        - |      248 |      248 |       0.26 | *
    |     7778 |        - |      247 |      247 |       0.26 | *
    |     8018 |        - |      243 |      243 |       0.26 | *
    |     8056 |        - |      242 |      242 |       0.26 | *
    |     8255 |        - |      241 |      241 |       0.26 | *
    |     8683 |        - |      239 |      239 |       0.26 | *
    |      10K |        - |      238 |      238 |       0.27 | *
    |      10K |        - |      237 |      237 |       0.27 | *
    |      11K |        - |      235 |      235 |       0.27 | *
    |      11K |        - |      234 |      234 |       0.27 | *
    |      12K |        - |      233 |      233 |       0.28 | *
    |      12K |        - |      232 |      232 |       0.28 | *
    |      13K |        - |      231 |      231 |       0.28 | *
    |      13K |        - |      228 |      228 |       0.28 | *
    |      13K |        - |      226 |      226 |       0.29 | *
    |      13K |        - |      225 |      225 |       0.29 | *
    |      14K |        - |      224 |      224 |       0.29 | *
    |      15K |        - |      222 |      222 |       0.30 | *
    |      16K |        - |      221 |      221 |       0.30 | *
    |      16K |        - |      220 |      220 |       0.30 | *
    |      16K |        - |      219 |      219 |       0.31 | *
    |      16K |        - |      217 |      217 |       0.31 | *
    |      16K |        - |      216 |      216 |       0.31 | *
    |      16K |        - |      215 |      215 |       0.31 | *
    |      16K |        - |      214 |      214 |       0.31 | *
    |      17K |        - |      213 |      213 |       0.31 | *
    |      17K |        - |      212 |      212 |       0.31 | *
    |      17K |        - |      211 |      211 |       0.31 | *
    |      18K |        - |      210 |      210 |       0.32 | *
    |      18K |        - |      207 |      207 |       0.32 | *
    |      20K |        - |      206 |      206 |       0.32 | *
    |      20K |        - |      204 |      204 |       0.32 | *
    |      22K |        - |      203 |      203 |       0.33 | *
    |      22K |        - |      202 |      202 |       0.33 | *
    |      22K |        - |      199 |      199 |       0.33 | *
    |      23K |        - |      198 |      198 |       0.33 | *
    |      23K |        - |      197 |      197 |       0.33 | *
    |      23K |        - |      196 |      196 |       0.33 | *
    |      25K |        - |      195 |      195 |       0.34 | *
    |      25K |        - |      194 |      194 |       0.34 | *
    |      27K |        - |      193 |      193 |       0.34 | *
    |      27K |        - |      192 |      192 |       0.34 | *
    |      27K |        - |      190 |      190 |       0.34 | *
    |      28K |        - |      189 |      189 |       0.35 | *
    |      28K |        - |      188 |      188 |       0.35 | *
    |      30K |        - |      187 |      187 |       0.35 | *
    |      30K |        - |      186 |      186 |       0.35 | *
    |      31K |        - |      185 |      185 |       0.36 | *
    |      31K |        - |      184 |      184 |       0.36 | *
    |      31K |        - |      183 |      183 |       0.36 | *
    |      31K |        - |      182 |      182 |       0.36 | *
    |      32K |        - |      181 |      181 |       0.36 | *
    |      32K |        - |      180 |      180 |       0.36 | *
    |      33K |        - |      179 |      179 |       0.36 | *
    |      33K |        - |      178 |      178 |       0.36 | *
    |      33K |        - |      177 |      177 |       0.37 | *
    |      34K |        - |      176 |      176 |       0.37 | *
    |      35K |        - |      175 |      175 |       0.37 | *
    |      37K |        - |      174 |      174 |       0.37 | *
    |      37K |        - |      172 |      172 |       0.38 | *
    |      37K |        - |      170 |      170 |       0.38 | *
    |      42K |        - |      169 |      169 |       0.39 | *
    |      42K |        - |      167 |      167 |       0.39 | *
    |      51K |        - |      165 |      165 |       0.41 | *
    |      51K |        - |      164 |      164 |       0.41 | *
    |      51K |        - |      163 |      163 |       0.41 | *
    |      51K |        - |      162 |      162 |       0.41 | *
    |      53K |        - |      161 |      161 |       0.42 | *
    |      56K |        - |      160 |      160 |       0.42 | *
    |      56K |        - |      159 |      159 |       0.42 | *
    |      60K |        - |      158 |      158 |       0.43 | *
    |      61K |        - |      157 |      157 |       0.48 | *
    |      61K |        - |      156 |      156 |       0.48 | *
    |      61K |        - |      154 |      154 |       0.48 | *
    |      64K |        - |      153 |      153 |       0.49 | *
    |      67K |        - |      152 |      152 |       0.50 | *
    |      71K |        - |      151 |      151 |       0.52 | *
    |      72K |        - |      150 |      150 |       0.53 | *
    |      72K |        - |      149 |      149 |       0.53 | *
    |      72K |        - |      148 |      148 |       0.53 | *
    |      77K |        - |      147 |      147 |       0.55 | *
    |      79K |        - |      146 |      146 |       0.56 | *
    |     135K |        - |      145 |      145 |       0.78 | *
    |     140K |        - |      144 |      144 |       0.80 | *
    |     140K |        - |      143 |      143 |       0.80 | *
    |     140K |        - |      142 |      142 |       0.80 | *
    |     154K |        - |      141 |      141 |       0.86 | *
    |     168K |        - |      140 |      140 |       0.91 | *
    |     173K |        - |      139 |      139 |       0.93 | *
    |     191K |        - |      138 |      138 |       1.00 | *
    |     196K |        - |      137 |      137 |       1.01 | *
    |     202K |        - |      136 |      136 |       1.03 | *
    |     218K |        - |      135 |      135 |       1.07 | *
    |     221K |        - |      134 |      134 |       1.08 | *
    |     224K |        - |      133 |      133 |       1.10 | *
    |     245K |        - |      132 |      132 |       1.16 | *
    |     247K |        - |      131 |      131 |       1.18 | *
    |     248K |        - |      130 |      130 |       1.18 | *
    |     277K |        - |      129 |      129 |       1.25 | *
    |     292K |        - |      128 |      128 |       1.29 | *
    |     295K |        - |      127 |      127 |       1.30 | *
    |     295K |        - |      126 |      126 |       1.30 | *
    |     323K |        - |      125 |      125 |       1.36 | *
    |     324K |        - |      124 |      124 |       1.36 | *
    |     331K |        - |      123 |      123 |       1.38 | *
    |     357K |        - |      122 |      122 |       1.43 | *
    |     365K |        - |      121 |      121 |       1.44 | *
    |     367K |        - |      120 |      120 |       1.45 | *
    |     416K |        - |      119 |      119 |       1.61 | *
    |     423K |        - |      118 |      118 |       1.64 | *
    |     428K |        - |      117 |      117 |       1.65 | *
    |     472K |        - |      116 |      116 |       1.72 | *
    |     525K |        - |      115 |      115 |       1.80 | *
    |     582K |        - |      114 |      114 |       1.86 | *
    |     605K |        - |      113 |      113 |       1.88 | *
    |     605K |        - |      112 |      112 |       1.88 | *
    |     707K |        - |      111 |      111 |       1.98 | *
    |     740K |        - |      110 |      110 |       2.01 | *
    |     778K |        - |      109 |      109 |       2.04 | *
    |     788K |        - |      108 |      108 |       2.05 | *
    |     812K |        - |      107 |      107 |       2.06 | *
    |     869K |        - |      106 |      106 |       2.11 | *
    |     905K |        - |      105 |      105 |       2.14 | *
    |    1075K |        - |      104 |      104 |       2.27 | *
    |    1088K |        - |      103 |      103 |       2.28 | *
    |    1246K |        - |      102 |      102 |       2.42 | *
    |    1251K |        - |      101 |      101 |       2.42 | *
    |    1257K |        - |      100 |      100 |       2.43 | *
    |    3243K |        - |       99 |       99 |       3.87 | *
    |    3349K |        - |       98 |       98 |       3.98 | *
    |    3352K |        - |       97 |       97 |       3.98 | *
    |    3353K |        - |       96 |       96 |       3.98 | *
    |    3541K |        - |       95 |       95 |       4.17 | *
    |    3558K |        - |       94 |       94 |       4.18 | *
    |    3713K |        - |       93 |       93 |       4.34 | *
    |    5045K |        - |       92 |       92 |       5.56 | *
    |    5066K |        - |       91 |       91 |       5.58 | *
    |    5833K |        - |       90 |       90 |       6.12 | *
    |    5959K |        - |       89 |       89 |       6.21 | *
    |    8803K |        - |       88 |       88 |       8.70 | *
    |      10M |        - |       87 |       87 |       9.90 | *
    |      11M |        - |       86 |       86 |      10.21 | *
    |      11M |        - |       85 |       85 |      10.30 | *
    |      13M |        - |       84 |       84 |      12.64 | *
    |      30M |        - |       83 |       83 |      27.73 | *
    |      30M |        - |       82 |       82 |      28.12 | *
    |      31M |        - |       81 |       81 |      28.67 | *
    |     276M |        - |       80 |       80 |     200.76 | *
    |     276M |        - |       79 |       79 |     200.81 | *
    |     277M |        - |       78 |       78 |     201.36 | *
    |     288M |        - |       77 |       77 |     208.86 | *
    |     295M |        - |       76 |       76 |     213.76 | *
    |     763M |        - |       75 |       75 |     540.49 | *
    |     877M |        - |       74 |       74 |     620.07 | *
    |    1049M |        - |       73 |       73 |     740.74 | *
    \--------------------------------------------------------/

Neighborhoods statistics (values in %):

    /----------------------------------------------------------------\
    | Move               | Improvs. | Sideways |  Accepts |  Rejects |
    |--------------------|----------|----------|----------|----------|
    | Shift(mk)          |      25K |      39K |      76K |     218M |
    | Shift              |      801 |     928K |     944K |     218M |
    | ShiftSmart(mk)     |     137K |     204K |     411K |     218M |
    | ShiftSmart         |     4505 |    4344K |    4420K |     214M |
    | SimpSwap(mk)       |      139 |      277 |      460 |     219M |
    | SimpSwap           |        8 |     1455 |     1595 |     219M |
    | SimpSwapSmart(mk)  |      800 |     1254 |     2320 |     219M |
    | SimpSwapSmart      |       51 |     7647 |     8408 |     219M |
    | Swap(mk)           |       47 |      221 |      279 |     219M |
    | Swap               |        5 |      835 |      874 |     219M |
    | SwapSmart(mk)      |      813 |     6050 |     7158 |     219M |
    | SwapSmart          |       64 |      13K |      14K |     219M |
    | Switch(mk)         |     5123 |      34M |      34M |     185M |
    | Switch             |      159 |      35M |      35M |     184M |
    | SwitchSmart(mk)    |      26K |      34K |      66K |     219M |
    | SwitchSmart        |      843 |     956K |     977K |     218M |
    | TaskMove(mk)       |     1391 |     3023 |     4926 |     219M |
    | TaskMove           |       57 |      14K |      15K |     219M |
    | TaskMoveSmart(mk)  |     8044 |      19K |      30K |     219M |
    | TaskMoveSmart      |      306 |      83K |      89K |     218M |
    | 2-Shift(mk)        |      11K |    6388K |    6402K |     212M |
    | 2-Shift            |      344 |    7462K |    7469K |     211M |
    | 2-ShiftSmart(mk)   |      42K |    1843K |    1898K |     217M |
    | 2-ShiftSmart       |     1417 |      12M |      12M |     207M |
    \----------------------------------------------------------------/

Best makespan.....: 73
N. of Iterations..: 5247825882
Total runtime.....: 3600.02s
Using Python-MIP package version 1.6.8
Começo a execução
    /-------------------------------------------------------------------------------\
    |    Makespan   |   Free Jobs   | Free Machines |    It. Time   |   Total Time  | 
    |-------------------------------------------------------------------------------|
    \-------------------------------------------------------------------------------/
Terminou a execução
