Instance....: instances/I_200_10_S_1-9_6.txt
Algorithm...: Simulated Annealing (alpha=0.990, saMax=10M, t0=1)
Other params: maxIters=100M, seed=-1, timeLimit=3600.00s

    /--------------------------------------------------------\
    |     Iter |   RDP(%) |       S* |       S' |       Time | 
    |----------|----------|----------|----------|------------|
    |        0 |        - |     1580 |     1580 |       0.00 | s0
    |        0 |        - |     1571 |     1571 |       0.00 | *
    |        1 |        - |     1513 |     1513 |       0.01 | *
    |        2 |        - |     1508 |     1508 |       0.01 | *
    |        3 |        - |     1493 |     1493 |       0.01 | *
    |        5 |        - |     1472 |     1472 |       0.03 | *
    |        7 |        - |     1437 |     1437 |       0.03 | *
    |        9 |        - |     1377 |     1377 |       0.03 | *
    |       15 |        - |     1317 |     1317 |       0.03 | *
    |       21 |        - |     1260 |     1260 |       0.03 | *
    |       24 |        - |     1253 |     1253 |       0.04 | *
    |       39 |        - |     1231 |     1231 |       0.04 | *
    |       40 |        - |     1225 |     1225 |       0.04 | *
    |       43 |        - |     1211 |     1211 |       0.04 | *
    |       46 |        - |     1202 |     1202 |       0.04 | *
    |       47 |        - |     1197 |     1197 |       0.04 | *
    |       48 |        - |     1196 |     1196 |       0.04 | *
    |       55 |        - |     1194 |     1194 |       0.04 | *
    |       60 |        - |     1162 |     1162 |       0.04 | *
    |       63 |        - |     1160 |     1160 |       0.04 | *
    |       66 |        - |     1145 |     1145 |       0.04 | *
    |       69 |        - |     1144 |     1144 |       0.04 | *
    |       70 |        - |     1132 |     1132 |       0.04 | *
    |       71 |        - |     1128 |     1128 |       0.04 | *
    |       73 |        - |     1127 |     1127 |       0.05 | *
    |       74 |        - |     1125 |     1125 |       0.05 | *
    |       77 |        - |     1124 |     1124 |       0.05 | *
    |       78 |        - |     1120 |     1120 |       0.05 | *
    |       83 |        - |     1117 |     1117 |       0.05 | *
    |       94 |        - |     1114 |     1114 |       0.05 | *
    |      101 |        - |     1099 |     1099 |       0.05 | *
    |      107 |        - |     1098 |     1098 |       0.05 | *
    |      109 |        - |     1096 |     1096 |       0.05 | *
    |      111 |        - |     1095 |     1095 |       0.05 | *
    |      113 |        - |     1093 |     1093 |       0.05 | *
    |      120 |        - |     1087 |     1087 |       0.05 | *
    |      127 |        - |     1084 |     1084 |       0.05 | *
    |      128 |        - |     1079 |     1079 |       0.05 | *
    |      130 |        - |     1077 |     1077 |       0.05 | *
    |      137 |        - |     1071 |     1071 |       0.05 | *
    |      145 |        - |     1069 |     1069 |       0.06 | *
    |      147 |        - |     1059 |     1059 |       0.06 | *
    |      150 |        - |     1057 |     1057 |       0.06 | *
    |      152 |        - |     1056 |     1056 |       0.06 | *
    |      153 |        - |     1055 |     1055 |       0.06 | *
    |      154 |        - |     1054 |     1054 |       0.06 | *
    |      160 |        - |     1048 |     1048 |       0.06 | *
    |      163 |        - |     1042 |     1042 |       0.06 | *
    |      165 |        - |     1041 |     1041 |       0.06 | *
    |      166 |        - |     1034 |     1034 |       0.06 | *
    |      169 |        - |     1029 |     1029 |       0.06 | *
    |      170 |        - |     1027 |     1027 |       0.07 | *
    |      176 |        - |     1023 |     1023 |       0.07 | *
    |      178 |        - |     1020 |     1020 |       0.07 | *
    |      186 |        - |     1018 |     1018 |       0.07 | *
    |      188 |        - |     1011 |     1011 |       0.07 | *
    |      211 |        - |     1006 |     1006 |       0.07 | *
    |      214 |        - |     1003 |     1003 |       0.07 | *
    |      229 |        - |     1002 |     1002 |       0.07 | *
    |      230 |        - |      999 |      999 |       0.07 | *
    |      236 |        - |      990 |      990 |       0.07 | *
    |      241 |        - |      988 |      988 |       0.07 | *
    |      242 |        - |      985 |      985 |       0.07 | *
    |      255 |        - |      963 |      963 |       0.07 | *
    |      258 |        - |      961 |      961 |       0.07 | *
    |      262 |        - |      955 |      955 |       0.07 | *
    |      265 |        - |      948 |      948 |       0.07 | *
    |      266 |        - |      945 |      945 |       0.07 | *
    |      269 |        - |      942 |      942 |       0.07 | *
    |      274 |        - |      938 |      938 |       0.08 | *
    |      277 |        - |      926 |      926 |       0.08 | *
    |      282 |        - |      925 |      925 |       0.08 | *
    |      283 |        - |      924 |      924 |       0.08 | *
    |      289 |        - |      922 |      922 |       0.08 | *
    |      298 |        - |      921 |      921 |       0.08 | *
    |      301 |        - |      920 |      920 |       0.08 | *
    |      305 |        - |      919 |      919 |       0.08 | *
    |      306 |        - |      918 |      918 |       0.08 | *
    |      310 |        - |      917 |      917 |       0.08 | *
    |      340 |        - |      916 |      916 |       0.08 | *
    |      344 |        - |      914 |      914 |       0.08 | *
    |      354 |        - |      912 |      912 |       0.08 | *
    |      355 |        - |      909 |      909 |       0.08 | *
    |      386 |        - |      906 |      906 |       0.08 | *
    |      403 |        - |      904 |      904 |       0.08 | *
    |      404 |        - |      903 |      903 |       0.08 | *
    |      434 |        - |      901 |      901 |       0.08 | *
    |      445 |        - |      891 |      891 |       0.08 | *
    |      452 |        - |      884 |      884 |       0.09 | *
    |      466 |        - |      869 |      869 |       0.09 | *
    |      473 |        - |      868 |      868 |       0.09 | *
    |      474 |        - |      866 |      866 |       0.09 | *
    |      489 |        - |      864 |      864 |       0.09 | *
    |      497 |        - |      863 |      863 |       0.09 | *
    |      504 |        - |      861 |      861 |       0.09 | *
    |      507 |        - |      859 |      859 |       0.09 | *
    |      511 |        - |      858 |      858 |       0.09 | *
    |      531 |        - |      857 |      857 |       0.09 | *
    |      533 |        - |      856 |      856 |       0.09 | *
    |      543 |        - |      855 |      855 |       0.09 | *
    |      559 |        - |      851 |      851 |       0.09 | *
    |      561 |        - |      849 |      849 |       0.10 | *
    |      565 |        - |      844 |      844 |       0.10 | *
    |      566 |        - |      842 |      842 |       0.10 | *
    |      572 |        - |      837 |      837 |       0.10 | *
    |      583 |        - |      833 |      833 |       0.10 | *
    |      586 |        - |      832 |      832 |       0.10 | *
    |      588 |        - |      830 |      830 |       0.10 | *
    |      594 |        - |      827 |      827 |       0.10 | *
    |      597 |        - |      825 |      825 |       0.10 | *
    |      609 |        - |      823 |      823 |       0.10 | *
    |      610 |        - |      817 |      817 |       0.10 | *
    |      613 |        - |      816 |      816 |       0.10 | *
    |      617 |        - |      814 |      814 |       0.10 | *
    |      618 |        - |      813 |      813 |       0.10 | *
    |      622 |        - |      811 |      811 |       0.10 | *
    |      623 |        - |      808 |      808 |       0.10 | *
    |      626 |        - |      807 |      807 |       0.10 | *
    |      640 |        - |      806 |      806 |       0.10 | *
    |      642 |        - |      805 |      805 |       0.11 | *
    |      647 |        - |      800 |      800 |       0.11 | *
    |      653 |        - |      798 |      798 |       0.11 | *
    |      654 |        - |      797 |      797 |       0.11 | *
    |      688 |        - |      794 |      794 |       0.11 | *
    |      700 |        - |      792 |      792 |       0.11 | *
    |      707 |        - |      790 |      790 |       0.11 | *
    |      708 |        - |      789 |      789 |       0.11 | *
    |      718 |        - |      783 |      783 |       0.11 | *
    |      727 |        - |      782 |      782 |       0.11 | *
    |      763 |        - |      781 |      781 |       0.11 | *
    |      774 |        - |      778 |      778 |       0.11 | *
    |      775 |        - |      777 |      777 |       0.11 | *
    |      777 |        - |      776 |      776 |       0.11 | *
    |      779 |        - |      772 |      772 |       0.11 | *
    |      789 |        - |      766 |      766 |       0.12 | *
    |      793 |        - |      764 |      764 |       0.12 | *
    |      799 |        - |      754 |      754 |       0.12 | *
    |      803 |        - |      752 |      752 |       0.12 | *
    |      811 |        - |      750 |      750 |       0.12 | *
    |      839 |        - |      749 |      749 |       0.12 | *
    |      849 |        - |      744 |      744 |       0.12 | *
    |      850 |        - |      743 |      743 |       0.12 | *
    |      861 |        - |      742 |      742 |       0.12 | *
    |      875 |        - |      741 |      741 |       0.12 | *
    |      881 |        - |      738 |      738 |       0.12 | *
    |      890 |        - |      737 |      737 |       0.12 | *
    |      904 |        - |      730 |      730 |       0.12 | *
    |      913 |        - |      727 |      727 |       0.12 | *
    |      918 |        - |      726 |      726 |       0.12 | *
    |      959 |        - |      725 |      725 |       0.12 | *
    |      973 |        - |      724 |      724 |       0.12 | *
    |      975 |        - |      723 |      723 |       0.12 | *
    |      982 |        - |      722 |      722 |       0.12 | *
    |      987 |        - |      721 |      721 |       0.12 | *
    |     1012 |        - |      718 |      718 |       0.13 | *
    |     1013 |        - |      717 |      717 |       0.13 | *
    |     1017 |        - |      715 |      715 |       0.13 | *
    |     1025 |        - |      714 |      714 |       0.13 | *
    |     1026 |        - |      713 |      713 |       0.13 | *
    |     1028 |        - |      712 |      712 |       0.13 | *
    |     1035 |        - |      711 |      711 |       0.13 | *
    |     1047 |        - |      709 |      709 |       0.13 | *
    |     1049 |        - |      708 |      708 |       0.13 | *
    |     1050 |        - |      704 |      704 |       0.13 | *
    |     1054 |        - |      702 |      702 |       0.13 | *
    |     1057 |        - |      701 |      701 |       0.13 | *
    |     1073 |        - |      700 |      700 |       0.13 | *
    |     1083 |        - |      699 |      699 |       0.13 | *
    |     1098 |        - |      694 |      694 |       0.13 | *
    |     1108 |        - |      692 |      692 |       0.13 | *
    |     1132 |        - |      691 |      691 |       0.13 | *
    |     1135 |        - |      689 |      689 |       0.13 | *
    |     1139 |        - |      688 |      688 |       0.13 | *
    |     1151 |        - |      687 |      687 |       0.14 | *
    |     1153 |        - |      686 |      686 |       0.14 | *
    |     1157 |        - |      684 |      684 |       0.14 | *
    |     1169 |        - |      683 |      683 |       0.14 | *
    |     1194 |        - |      681 |      681 |       0.14 | *
    |     1197 |        - |      680 |      680 |       0.14 | *
    |     1213 |        - |      679 |      679 |       0.14 | *
    |     1233 |        - |      674 |      674 |       0.14 | *
    |     1234 |        - |      665 |      665 |       0.14 | *
    |     1237 |        - |      662 |      662 |       0.14 | *
    |     1247 |        - |      661 |      661 |       0.14 | *
    |     1253 |        - |      658 |      658 |       0.14 | *
    |     1256 |        - |      656 |      656 |       0.14 | *
    |     1265 |        - |      653 |      653 |       0.14 | *
    |     1266 |        - |      647 |      647 |       0.14 | *
    |     1274 |        - |      646 |      646 |       0.14 | *
    |     1276 |        - |      643 |      643 |       0.14 | *
    |     1278 |        - |      642 |      642 |       0.14 | *
    |     1288 |        - |      640 |      640 |       0.14 | *
    |     1299 |        - |      639 |      639 |       0.14 | *
    |     1323 |        - |      638 |      638 |       0.15 | *
    |     1331 |        - |      634 |      634 |       0.15 | *
    |     1332 |        - |      633 |      633 |       0.15 | *
    |     1338 |        - |      632 |      632 |       0.15 | *
    |     1342 |        - |      631 |      631 |       0.15 | *
    |     1354 |        - |      628 |      628 |       0.15 | *
    |     1370 |        - |      627 |      627 |       0.15 | *
    |     1381 |        - |      626 |      626 |       0.15 | *
    |     1394 |        - |      623 |      623 |       0.15 | *
    |     1418 |        - |      622 |      622 |       0.15 | *
    |     1433 |        - |      621 |      621 |       0.15 | *
    |     1436 |        - |      618 |      618 |       0.15 | *
    |     1440 |        - |      617 |      617 |       0.15 | *
    |     1441 |        - |      616 |      616 |       0.15 | *
    |     1518 |        - |      611 |      611 |       0.15 | *
    |     1550 |        - |      610 |      610 |       0.15 | *
    |     1559 |        - |      609 |      609 |       0.15 | *
    |     1584 |        - |      605 |      605 |       0.15 | *
    |     1585 |        - |      603 |      603 |       0.15 | *
    |     1586 |        - |      602 |      602 |       0.15 | *
    |     1589 |        - |      601 |      601 |       0.15 | *
    |     1618 |        - |      590 |      590 |       0.15 | *
    |     1642 |        - |      581 |      581 |       0.15 | *
    |     1657 |        - |      580 |      580 |       0.15 | *
    |     1662 |        - |      576 |      576 |       0.15 | *
    |     1664 |        - |      573 |      573 |       0.16 | *
    |     1671 |        - |      572 |      572 |       0.16 | *
    |     1672 |        - |      569 |      569 |       0.16 | *
    |     1673 |        - |      567 |      567 |       0.16 | *
    |     1677 |        - |      566 |      566 |       0.16 | *
    |     1696 |        - |      561 |      561 |       0.16 | *
    |     1703 |        - |      560 |      560 |       0.16 | *
    |     1705 |        - |      558 |      558 |       0.16 | *
    |     1757 |        - |      557 |      557 |       0.16 | *
    |     1772 |        - |      555 |      555 |       0.16 | *
    |     1784 |        - |      554 |      554 |       0.16 | *
    |     1791 |        - |      552 |      552 |       0.16 | *
    |     1821 |        - |      548 |      548 |       0.16 | *
    |     1830 |        - |      546 |      546 |       0.16 | *
    |     1834 |        - |      544 |      544 |       0.16 | *
    |     1835 |        - |      542 |      542 |       0.16 | *
    |     1843 |        - |      541 |      541 |       0.16 | *
    |     1859 |        - |      540 |      540 |       0.16 | *
    |     1868 |        - |      531 |      531 |       0.16 | *
    |     1873 |        - |      530 |      530 |       0.16 | *
    |     1894 |        - |      529 |      529 |       0.16 | *
    |     1924 |        - |      528 |      528 |       0.17 | *
    |     1934 |        - |      525 |      525 |       0.17 | *
    |     1945 |        - |      524 |      524 |       0.17 | *
    |     1949 |        - |      523 |      523 |       0.17 | *
    |     1969 |        - |      515 |      515 |       0.17 | *
    |     1970 |        - |      512 |      512 |       0.17 | *
    |     1976 |        - |      511 |      511 |       0.17 | *
    |     1984 |        - |      510 |      510 |       0.17 | *
    |     1989 |        - |      509 |      509 |       0.17 | *
    |     2000 |        - |      507 |      507 |       0.17 | *
    |     2012 |        - |      506 |      506 |       0.17 | *
    |     2021 |        - |      504 |      504 |       0.17 | *
    |     2023 |        - |      503 |      503 |       0.17 | *
    |     2053 |        - |      502 |      502 |       0.17 | *
    |     2054 |        - |      501 |      501 |       0.17 | *
    |     2100 |        - |      498 |      498 |       0.17 | *
    |     2125 |        - |      496 |      496 |       0.17 | *
    |     2130 |        - |      495 |      495 |       0.17 | *
    |     2169 |        - |      494 |      494 |       0.17 | *
    |     2170 |        - |      493 |      493 |       0.17 | *
    |     2173 |        - |      492 |      492 |       0.17 | *
    |     2213 |        - |      490 |      490 |       0.17 | *
    |     2230 |        - |      487 |      487 |       0.17 | *
    |     2231 |        - |      486 |      486 |       0.18 | *
    |     2232 |        - |      480 |      480 |       0.18 | *
    |     2247 |        - |      479 |      479 |       0.18 | *
    |     2264 |        - |      477 |      477 |       0.18 | *
    |     2279 |        - |      475 |      475 |       0.18 | *
    |     2292 |        - |      473 |      473 |       0.18 | *
    |     2297 |        - |      472 |      472 |       0.18 | *
    |     2363 |        - |      471 |      471 |       0.18 | *
    |     2374 |        - |      470 |      470 |       0.18 | *
    |     2386 |        - |      469 |      469 |       0.18 | *
    |     2413 |        - |      468 |      468 |       0.18 | *
    |     2485 |        - |      467 |      467 |       0.18 | *
    |     2491 |        - |      466 |      466 |       0.18 | *
    |     2497 |        - |      465 |      465 |       0.18 | *
    |     2503 |        - |      464 |      464 |       0.18 | *
    |     2508 |        - |      463 |      463 |       0.18 | *
    |     2511 |        - |      462 |      462 |       0.18 | *
    |     2519 |        - |      460 |      460 |       0.18 | *
    |     2530 |        - |      459 |      459 |       0.18 | *
    |     2564 |        - |      458 |      458 |       0.18 | *
    |     2565 |        - |      457 |      457 |       0.19 | *
    |     2615 |        - |      454 |      454 |       0.19 | *
    |     2648 |        - |      453 |      453 |       0.19 | *
    |     2656 |        - |      452 |      452 |       0.19 | *
    |     2658 |        - |      451 |      451 |       0.19 | *
    |     2669 |        - |      450 |      450 |       0.19 | *
    |     2681 |        - |      449 |      449 |       0.19 | *
    |     2769 |        - |      448 |      448 |       0.19 | *
    |     2777 |        - |      447 |      447 |       0.19 | *
    |     2781 |        - |      446 |      446 |       0.19 | *
    |     2783 |        - |      444 |      444 |       0.19 | *
    |     2814 |        - |      443 |      443 |       0.19 | *
    |     2835 |        - |      442 |      442 |       0.19 | *
    |     2890 |        - |      441 |      441 |       0.19 | *
    |     2902 |        - |      439 |      439 |       0.20 | *
    |     2917 |        - |      438 |      438 |       0.20 | *
    |     2921 |        - |      437 |      437 |       0.20 | *
    |     2931 |        - |      436 |      436 |       0.20 | *
    |     2948 |        - |      435 |      435 |       0.20 | *
    |     3015 |        - |      434 |      434 |       0.20 | *
    |     3038 |        - |      433 |      433 |       0.20 | *
    |     3065 |        - |      431 |      431 |       0.20 | *
    |     3082 |        - |      429 |      429 |       0.20 | *
    |     3121 |        - |      426 |      426 |       0.20 | *
    |     3165 |        - |      423 |      423 |       0.20 | *
    |     3168 |        - |      422 |      422 |       0.20 | *
    |     3210 |        - |      421 |      421 |       0.20 | *
    |     3215 |        - |      420 |      420 |       0.20 | *
    |     3609 |        - |      419 |      419 |       0.21 | *
    |     3690 |        - |      418 |      418 |       0.21 | *
    |     3696 |        - |      417 |      417 |       0.21 | *
    |     3699 |        - |      416 |      416 |       0.21 | *
    |     3711 |        - |      413 |      413 |       0.21 | *
    |     3713 |        - |      412 |      412 |       0.21 | *
    |     3717 |        - |      410 |      410 |       0.21 | *
    |     3721 |        - |      409 |      409 |       0.21 | *
    |     3744 |        - |      408 |      408 |       0.21 | *
    |     3798 |        - |      407 |      407 |       0.21 | *
    |     3821 |        - |      406 |      406 |       0.21 | *
    |     3864 |        - |      404 |      404 |       0.21 | *
    |     3865 |        - |      403 |      403 |       0.21 | *
    |     3871 |        - |      401 |      401 |       0.21 | *
    |     3993 |        - |      400 |      400 |       0.21 | *
    |     3997 |        - |      399 |      399 |       0.21 | *
    |     4003 |        - |      397 |      397 |       0.21 | *
    |     4018 |        - |      396 |      396 |       0.21 | *
    |     4056 |        - |      395 |      395 |       0.21 | *
    |     4064 |        - |      394 |      394 |       0.22 | *
    |     4122 |        - |      391 |      391 |       0.22 | *
    |     4133 |        - |      390 |      390 |       0.22 | *
    |     4134 |        - |      389 |      389 |       0.22 | *
    |     4154 |        - |      388 |      388 |       0.22 | *
    |     4183 |        - |      387 |      387 |       0.22 | *
    |     4189 |        - |      386 |      386 |       0.22 | *
    |     4194 |        - |      385 |      385 |       0.22 | *
    |     4272 |        - |      383 |      383 |       0.22 | *
    |     4315 |        - |      381 |      381 |       0.22 | *
    |     4358 |        - |      380 |      380 |       0.22 | *
    |     4666 |        - |      379 |      379 |       0.22 | *
    |     4715 |        - |      378 |      378 |       0.22 | *
    |     4734 |        - |      377 |      377 |       0.22 | *
    |     4744 |        - |      376 |      376 |       0.22 | *
    |     4746 |        - |      375 |      375 |       0.22 | *
    |     4764 |        - |      373 |      373 |       0.23 | *
    |     4864 |        - |      372 |      372 |       0.23 | *
    |     4917 |        - |      370 |      370 |       0.23 | *
    |     4934 |        - |      369 |      369 |       0.23 | *
    |     4946 |        - |      368 |      368 |       0.23 | *
    |     4955 |        - |      366 |      366 |       0.23 | *
    |     4981 |        - |      364 |      364 |       0.23 | *
    |     4993 |        - |      363 |      363 |       0.23 | *
    |     5005 |        - |      362 |      362 |       0.23 | *
    |     5010 |        - |      361 |      361 |       0.23 | *
    |     5027 |        - |      360 |      360 |       0.23 | *
    |     5040 |        - |      359 |      359 |       0.23 | *
    |     5064 |        - |      358 |      358 |       0.23 | *
    |     5429 |        - |      357 |      357 |       0.23 | *
    |     5481 |        - |      356 |      356 |       0.23 | *
    |     5497 |        - |      355 |      355 |       0.23 | *
    |     5534 |        - |      354 |      354 |       0.23 | *
    |     5581 |        - |      353 |      353 |       0.24 | *
    |     5603 |        - |      352 |      352 |       0.24 | *
    |     5625 |        - |      350 |      350 |       0.24 | *
    |     5651 |        - |      349 |      349 |       0.24 | *
    |     5678 |        - |      347 |      347 |       0.24 | *
    |     5695 |        - |      345 |      345 |       0.24 | *
    |     5747 |        - |      344 |      344 |       0.24 | *
    |     5774 |        - |      343 |      343 |       0.24 | *
    |     5813 |        - |      342 |      342 |       0.24 | *
    |     5884 |        - |      341 |      341 |       0.24 | *
    |     5899 |        - |      340 |      340 |       0.24 | *
    |     5912 |        - |      339 |      339 |       0.24 | *
    |     5957 |        - |      338 |      338 |       0.24 | *
    |     6057 |        - |      337 |      337 |       0.24 | *
    |     6059 |        - |      336 |      336 |       0.24 | *
    |     6068 |        - |      335 |      335 |       0.24 | *
    |     6182 |        - |      334 |      334 |       0.24 | *
    |     6195 |        - |      333 |      333 |       0.25 | *
    |     6205 |        - |      332 |      332 |       0.25 | *
    |     6237 |        - |      331 |      331 |       0.25 | *
    |     6326 |        - |      330 |      330 |       0.25 | *
    |     6370 |        - |      329 |      329 |       0.25 | *
    |     6875 |        - |      327 |      327 |       0.25 | *
    |     6893 |        - |      326 |      326 |       0.25 | *
    |     7050 |        - |      325 |      325 |       0.25 | *
    |     7067 |        - |      324 |      324 |       0.25 | *
    |     7106 |        - |      323 |      323 |       0.25 | *
    |     7520 |        - |      322 |      322 |       0.25 | *
    |     7575 |        - |      321 |      321 |       0.25 | *
    |     7576 |        - |      320 |      320 |       0.25 | *
    |     7861 |        - |      318 |      318 |       0.26 | *
    |     7920 |        - |      317 |      317 |       0.26 | *
    |     7963 |        - |      316 |      316 |       0.26 | *
    |     8114 |        - |      315 |      315 |       0.26 | *
    |     8187 |        - |      314 |      314 |       0.26 | *
    |     8333 |        - |      313 |      313 |       0.26 | *
    |     8457 |        - |      312 |      312 |       0.26 | *
    |     8509 |        - |      311 |      311 |       0.26 | *
    |     8662 |        - |      310 |      310 |       0.26 | *
    |     9365 |        - |      309 |      309 |       0.26 | *
    |     9409 |        - |      308 |      308 |       0.26 | *
    |     9555 |        - |      307 |      307 |       0.27 | *
    |     9590 |        - |      306 |      306 |       0.27 | *
    |     9610 |        - |      305 |      305 |       0.27 | *
    |     9723 |        - |      304 |      304 |       0.27 | *
    |     9749 |        - |      302 |      302 |       0.27 | *
    |     9755 |        - |      301 |      301 |       0.27 | *
    |     9803 |        - |      300 |      300 |       0.27 | *
    |     9940 |        - |      299 |      299 |       0.27 | *
    |      10K |        - |      298 |      298 |       0.27 | *
    |      10K |        - |      296 |      296 |       0.27 | *
    |      10K |        - |      295 |      295 |       0.27 | *
    |      10K |        - |      294 |      294 |       0.27 | *
    |      11K |        - |      293 |      293 |       0.28 | *
    |      11K |        - |      292 |      292 |       0.28 | *
    |      11K |        - |      291 |      291 |       0.28 | *
    |      11K |        - |      290 |      290 |       0.28 | *
    |      11K |        - |      289 |      289 |       0.28 | *
    |      11K |        - |      288 |      288 |       0.28 | *
    |      12K |        - |      287 |      287 |       0.28 | *
    |      12K |        - |      286 |      286 |       0.28 | *
    |      12K |        - |      285 |      285 |       0.28 | *
    |      12K |        - |      284 |      284 |       0.28 | *
    |      13K |        - |      283 |      283 |       0.28 | *
    |      13K |        - |      282 |      282 |       0.29 | *
    |      14K |        - |      281 |      281 |       0.29 | *
    |      14K |        - |      280 |      280 |       0.29 | *
    |      14K |        - |      279 |      279 |       0.29 | *
    |      14K |        - |      278 |      278 |       0.29 | *
    |      16K |        - |      277 |      277 |       0.30 | *
    |      16K |        - |      276 |      276 |       0.30 | *
    |      16K |        - |      275 |      275 |       0.30 | *
    |      16K |        - |      274 |      274 |       0.30 | *
    |      16K |        - |      273 |      273 |       0.30 | *
    |      17K |        - |      272 |      272 |       0.30 | *
    |      17K |        - |      271 |      271 |       0.30 | *
    |      17K |        - |      270 |      270 |       0.30 | *
    |      17K |        - |      269 |      269 |       0.31 | *
    |      17K |        - |      268 |      268 |       0.31 | *
    |      17K |        - |      267 |      267 |       0.31 | *
    |      18K |        - |      266 |      266 |       0.31 | *
    |      18K |        - |      265 |      265 |       0.31 | *
    |      19K |        - |      264 |      264 |       0.31 | *
    |      19K |        - |      263 |      263 |       0.31 | *
    |      19K |        - |      262 |      262 |       0.31 | *
    |      19K |        - |      261 |      261 |       0.31 | *
    |      20K |        - |      260 |      260 |       0.32 | *
    |      24K |        - |      259 |      259 |       0.33 | *
    |      25K |        - |      258 |      258 |       0.33 | *
    |      25K |        - |      257 |      257 |       0.33 | *
    |      25K |        - |      256 |      256 |       0.33 | *
    |      33K |        - |      255 |      255 |       0.35 | *
    |      34K |        - |      254 |      254 |       0.36 | *
    |      34K |        - |      253 |      253 |       0.36 | *
    |      34K |        - |      252 |      252 |       0.36 | *
    |      39K |        - |      251 |      251 |       0.37 | *
    |      39K |        - |      250 |      250 |       0.37 | *
    |      49K |        - |      249 |      249 |       0.40 | *
    |      56K |        - |      248 |      248 |       0.43 | *
    |      56K |        - |      247 |      247 |       0.43 | *
    |      57K |        - |      246 |      246 |       0.43 | *
    |      57K |        - |      245 |      245 |       0.43 | *
    |      97K |        - |      244 |      244 |       0.54 | *
    |     133K |        - |      243 |      243 |       0.65 | *
    |     135K |        - |      242 |      242 |       0.66 | *
    |     199K |        - |      241 |      241 |       0.95 | *
    |     199K |        - |      240 |      240 |       0.95 | *
    |     487K |        - |      239 |      239 |       1.43 | *
    |     561K |        - |      238 |      238 |       1.53 | *
    |    1282K |        - |      237 |      237 |       2.17 | *
    |    1589K |        - |      236 |      236 |       2.41 | *
    |    1750K |        - |      235 |      235 |       2.54 | *
    |    2388K |        - |      234 |      234 |       3.25 | *
    |    2404K |        - |      233 |      233 |       3.28 | *
    |    8137K |        - |      232 |      232 |       9.00 | *
    |      59M |        - |      231 |      231 |      49.67 | *
    |      68M |        - |      230 |      230 |      57.09 | *
    |      68M |        - |      229 |      229 |      57.10 | *
    |     168M |        - |      228 |      228 |     137.02 | *
    |     239M |        - |      227 |      227 |     193.02 | *
    |     255M |        - |      226 |      226 |     205.92 | *
    |     301M |        - |      225 |      225 |     242.94 | *
    |     423M |        - |      224 |      224 |     340.39 | *
    |     509M |        - |      223 |      223 |     409.28 | *
    |     616M |        - |      222 |      222 |     495.15 | *
    |     619M |        - |      221 |      221 |     496.95 | *
    |     783M |        - |      220 |      220 |     627.57 | *
    |     978M |        - |      219 |      219 |     781.87 | *
    |    1127M |        - |      218 |      218 |     899.21 | *
    |    1381M |        - |      217 |      217 |    1098.55 | *
    \--------------------------------------------------------/

Neighborhoods statistics (values in %):

    /----------------------------------------------------------------\
    | Move               | Improvs. | Sideways |  Accepts |  Rejects |
    |--------------------|----------|----------|----------|----------|
    | Shift(mk)          |     327K |    1844K |    2470K |     188M |
    | Shift              |      33K |    7263K |    7823K |     183M |
    | ShiftSmart(mk)     |    2970K |      20M |      24M |     166M |
    | ShiftSmart         |     297K |      43M |      44M |     146M |
    | SimpSwap(mk)       |      832 |     1579 |     3135 |     191M |
    | SimpSwap           |      152 |     6068 |     7734 |     191M |
    | SimpSwapSmart(mk)  |      13K |      25K |      49K |     191M |
    | SimpSwapSmart      |     2610 |      86K |     108K |     191M |
    | Swap(mk)           |      328 |      646 |     1313 |     191M |
    | Swap               |       56 |     2577 |     3373 |     191M |
    | SwapSmart(mk)      |     5389 |      11K |      20K |     191M |
    | SwapSmart          |     1149 |      32K |      38K |     191M |
    | Switch(mk)         |     174K |      10M |      11M |     180M |
    | Switch             |      17K |      13M |      13M |     177M |
    | SwitchSmart(mk)    |    1570K |    7935K |      10M |     181M |
    | SwitchSmart        |     157K |      21M |      22M |     168M |
    | TaskMove(mk)       |     8457 |      14K |      28K |     191M |
    | TaskMove           |      795 |      24K |      30K |     191M |
    | TaskMoveSmart(mk)  |      54K |      98K |     182K |     190M |
    | TaskMoveSmart      |     5680 |     158K |     193K |     190M |
    | 2-Shift(mk)        |      93K |     879K |    1044K |     190M |
    | 2-Shift            |     9347 |    2340K |    2523K |     188M |
    | 2-ShiftSmart(mk)   |    2329K |      10M |      13M |     177M |
    | 2-ShiftSmart       |     232K |      24M |      25M |     166M |
    \----------------------------------------------------------------/

Best makespan.....: 217
N. of Iterations..: 4576669345
Total runtime.....: 3600.02s
Using Python-MIP package version 1.6.8
Começo a execução
    /-------------------------------------------------------------------------------\
    |    Makespan   |   Free Jobs   | Free Machines |    It. Time   |   Total Time  | 
    |-------------------------------------------------------------------------------|
    \-------------------------------------------------------------------------------/
Terminou a execução
