Instance....: instances/I_200_20_S_1-99_5.txt
Algorithm...: Simulated Annealing (alpha=0.990, saMax=10M, t0=1)
Other params: maxIters=100M, seed=-1, timeLimit=3600.00s

    /--------------------------------------------------------\
    |     Iter |   RDP(%) |       S* |       S' |       Time | 
    |----------|----------|----------|----------|------------|
    |        0 |        - |     1564 |     1564 |       0.00 | s0
    |        1 |        - |     1526 |     1526 |       0.00 | *
    |        2 |        - |     1458 |     1458 |       0.01 | *
    |        3 |        - |     1412 |     1412 |       0.01 | *
    |        4 |        - |     1384 |     1384 |       0.01 | *
    |        7 |        - |     1383 |     1383 |       0.01 | *
    |        9 |        - |     1380 |     1380 |       0.01 | *
    |       10 |        - |     1313 |     1313 |       0.01 | *
    |       11 |        - |     1290 |     1290 |       0.01 | *
    |       13 |        - |     1280 |     1280 |       0.01 | *
    |       15 |        - |     1247 |     1247 |       0.02 | *
    |       16 |        - |     1227 |     1227 |       0.02 | *
    |       18 |        - |     1184 |     1184 |       0.02 | *
    |       21 |        - |     1132 |     1132 |       0.02 | *
    |       23 |        - |     1128 |     1128 |       0.02 | *
    |       25 |        - |     1102 |     1102 |       0.03 | *
    |       30 |        - |     1101 |     1101 |       0.04 | *
    |       42 |        - |     1088 |     1088 |       0.04 | *
    |       49 |        - |     1077 |     1077 |       0.04 | *
    |       51 |        - |     1074 |     1074 |       0.04 | *
    |       53 |        - |     1068 |     1068 |       0.04 | *
    |       54 |        - |     1050 |     1050 |       0.04 | *
    |       59 |        - |     1045 |     1045 |       0.04 | *
    |       64 |        - |     1028 |     1028 |       0.04 | *
    |       66 |        - |     1024 |     1024 |       0.04 | *
    |       71 |        - |     1015 |     1015 |       0.04 | *
    |       79 |        - |     1013 |     1013 |       0.04 | *
    |       80 |        - |     1000 |     1000 |       0.04 | *
    |       83 |        - |      988 |      988 |       0.04 | *
    |       92 |        - |      978 |      978 |       0.04 | *
    |       99 |        - |      960 |      960 |       0.04 | *
    |      103 |        - |      952 |      952 |       0.05 | *
    |      120 |        - |      936 |      936 |       0.05 | *
    |      129 |        - |      919 |      919 |       0.05 | *
    |      133 |        - |      918 |      918 |       0.05 | *
    |      142 |        - |      917 |      917 |       0.05 | *
    |      144 |        - |      905 |      905 |       0.05 | *
    |      146 |        - |      874 |      874 |       0.05 | *
    |      148 |        - |      868 |      868 |       0.05 | *
    |      177 |        - |      861 |      861 |       0.05 | *
    |      181 |        - |      858 |      858 |       0.05 | *
    |      182 |        - |      857 |      857 |       0.05 | *
    |      185 |        - |      843 |      843 |       0.05 | *
    |      194 |        - |      839 |      839 |       0.05 | *
    |      197 |        - |      837 |      837 |       0.05 | *
    |      203 |        - |      836 |      836 |       0.05 | *
    |      211 |        - |      834 |      834 |       0.05 | *
    |      223 |        - |      833 |      833 |       0.06 | *
    |      232 |        - |      830 |      830 |       0.06 | *
    |      235 |        - |      823 |      823 |       0.06 | *
    |      239 |        - |      806 |      806 |       0.06 | *
    |      251 |        - |      803 |      803 |       0.06 | *
    |      253 |        - |      801 |      801 |       0.06 | *
    |      260 |        - |      793 |      793 |       0.06 | *
    |      265 |        - |      785 |      785 |       0.06 | *
    |      274 |        - |      784 |      784 |       0.06 | *
    |      286 |        - |      780 |      780 |       0.06 | *
    |      316 |        - |      775 |      775 |       0.06 | *
    |      352 |        - |      770 |      770 |       0.06 | *
    |      357 |        - |      768 |      768 |       0.06 | *
    |      358 |        - |      767 |      767 |       0.06 | *
    |      377 |        - |      762 |      762 |       0.06 | *
    |      384 |        - |      753 |      753 |       0.06 | *
    |      387 |        - |      752 |      752 |       0.06 | *
    |      391 |        - |      750 |      750 |       0.07 | *
    |      393 |        - |      745 |      745 |       0.07 | *
    |      395 |        - |      743 |      743 |       0.07 | *
    |      396 |        - |      742 |      742 |       0.07 | *
    |      399 |        - |      741 |      741 |       0.07 | *
    |      404 |        - |      734 |      734 |       0.07 | *
    |      427 |        - |      731 |      731 |       0.07 | *
    |      451 |        - |      727 |      727 |       0.07 | *
    |      464 |        - |      724 |      724 |       0.07 | *
    |      470 |        - |      718 |      718 |       0.07 | *
    |      477 |        - |      717 |      717 |       0.07 | *
    |      478 |        - |      716 |      716 |       0.07 | *
    |      482 |        - |      714 |      714 |       0.07 | *
    |      483 |        - |      706 |      706 |       0.07 | *
    |      495 |        - |      698 |      698 |       0.07 | *
    |      496 |        - |      695 |      695 |       0.07 | *
    |      515 |        - |      694 |      694 |       0.07 | *
    |      516 |        - |      690 |      690 |       0.07 | *
    |      526 |        - |      687 |      687 |       0.08 | *
    |      531 |        - |      686 |      686 |       0.08 | *
    |      540 |        - |      684 |      684 |       0.08 | *
    |      549 |        - |      683 |      683 |       0.08 | *
    |      552 |        - |      681 |      681 |       0.08 | *
    |      557 |        - |      680 |      680 |       0.08 | *
    |      584 |        - |      679 |      679 |       0.08 | *
    |      589 |        - |      676 |      676 |       0.08 | *
    |      594 |        - |      669 |      669 |       0.08 | *
    |      604 |        - |      668 |      668 |       0.08 | *
    |      626 |        - |      661 |      661 |       0.08 | *
    |      628 |        - |      656 |      656 |       0.08 | *
    |      640 |        - |      648 |      648 |       0.08 | *
    |      667 |        - |      645 |      645 |       0.09 | *
    |      686 |        - |      642 |      642 |       0.09 | *
    |      706 |        - |      640 |      640 |       0.09 | *
    |      805 |        - |      637 |      637 |       0.09 | *
    |      807 |        - |      636 |      636 |       0.09 | *
    |      810 |        - |      635 |      635 |       0.09 | *
    |      813 |        - |      631 |      631 |       0.09 | *
    |      835 |        - |      617 |      617 |       0.09 | *
    |      845 |        - |      616 |      616 |       0.09 | *
    |      859 |        - |      614 |      614 |       0.09 | *
    |      907 |        - |      611 |      611 |       0.09 | *
    |      938 |        - |      610 |      610 |       0.09 | *
    |      959 |        - |      607 |      607 |       0.10 | *
    |      984 |        - |      605 |      605 |       0.10 | *
    |      998 |        - |      604 |      604 |       0.10 | *
    |     1012 |        - |      602 |      602 |       0.10 | *
    |     1016 |        - |      601 |      601 |       0.10 | *
    |     1075 |        - |      599 |      599 |       0.10 | *
    |     1117 |        - |      596 |      596 |       0.10 | *
    |     1143 |        - |      595 |      595 |       0.10 | *
    |     1146 |        - |      593 |      593 |       0.10 | *
    |     1178 |        - |      592 |      592 |       0.10 | *
    |     1182 |        - |      589 |      589 |       0.10 | *
    |     1223 |        - |      587 |      587 |       0.10 | *
    |     1225 |        - |      585 |      585 |       0.10 | *
    |     1231 |        - |      581 |      581 |       0.10 | *
    |     1255 |        - |      580 |      580 |       0.10 | *
    |     1350 |        - |      579 |      579 |       0.10 | *
    |     1355 |        - |      578 |      578 |       0.11 | *
    |     1383 |        - |      571 |      571 |       0.11 | *
    |     1394 |        - |      568 |      568 |       0.11 | *
    |     1436 |        - |      566 |      566 |       0.11 | *
    |     1453 |        - |      565 |      565 |       0.11 | *
    |     1457 |        - |      562 |      562 |       0.11 | *
    |     1458 |        - |      560 |      560 |       0.11 | *
    |     1469 |        - |      559 |      559 |       0.11 | *
    |     1475 |        - |      557 |      557 |       0.11 | *
    |     1547 |        - |      556 |      556 |       0.11 | *
    |     1564 |        - |      552 |      552 |       0.11 | *
    |     1571 |        - |      549 |      549 |       0.12 | *
    |     1598 |        - |      548 |      548 |       0.12 | *
    |     1614 |        - |      545 |      545 |       0.12 | *
    |     1781 |        - |      542 |      542 |       0.12 | *
    |     1810 |        - |      540 |      540 |       0.12 | *
    |     1819 |        - |      537 |      537 |       0.12 | *
    |     1828 |        - |      534 |      534 |       0.12 | *
    |     1840 |        - |      533 |      533 |       0.12 | *
    |     1899 |        - |      530 |      530 |       0.12 | *
    |     1914 |        - |      529 |      529 |       0.12 | *
    |     2012 |        - |      528 |      528 |       0.12 | *
    |     2017 |        - |      522 |      522 |       0.12 | *
    |     2020 |        - |      519 |      519 |       0.12 | *
    |     2082 |        - |      518 |      518 |       0.13 | *
    |     2085 |        - |      517 |      517 |       0.13 | *
    |     2088 |        - |      514 |      514 |       0.13 | *
    |     2103 |        - |      513 |      513 |       0.13 | *
    |     2135 |        - |      512 |      512 |       0.13 | *
    |     2137 |        - |      511 |      511 |       0.13 | *
    |     2212 |        - |      510 |      510 |       0.13 | *
    |     2236 |        - |      509 |      509 |       0.13 | *
    |     2245 |        - |      507 |      507 |       0.13 | *
    |     2273 |        - |      505 |      505 |       0.13 | *
    |     2290 |        - |      503 |      503 |       0.13 | *
    |     2303 |        - |      500 |      500 |       0.13 | *
    |     2365 |        - |      498 |      498 |       0.13 | *
    |     2409 |        - |      496 |      496 |       0.13 | *
    |     2426 |        - |      493 |      493 |       0.14 | *
    |     2444 |        - |      492 |      492 |       0.14 | *
    |     2480 |        - |      491 |      491 |       0.14 | *
    |     2546 |        - |      490 |      490 |       0.14 | *
    |     2668 |        - |      489 |      489 |       0.14 | *
    |     2686 |        - |      483 |      483 |       0.14 | *
    |     2687 |        - |      481 |      481 |       0.14 | *
    |     2714 |        - |      479 |      479 |       0.14 | *
    |     2726 |        - |      477 |      477 |       0.14 | *
    |     2759 |        - |      476 |      476 |       0.14 | *
    |     2766 |        - |      475 |      475 |       0.14 | *
    |     2771 |        - |      474 |      474 |       0.14 | *
    |     2801 |        - |      472 |      472 |       0.14 | *
    |     2824 |        - |      471 |      471 |       0.15 | *
    |     2859 |        - |      467 |      467 |       0.15 | *
    |     2973 |        - |      466 |      466 |       0.15 | *
    |     3000 |        - |      464 |      464 |       0.15 | *
    |     3004 |        - |      463 |      463 |       0.15 | *
    |     3021 |        - |      460 |      460 |       0.15 | *
    |     3104 |        - |      457 |      457 |       0.15 | *
    |     3108 |        - |      454 |      454 |       0.15 | *
    |     3305 |        - |      453 |      453 |       0.15 | *
    |     3313 |        - |      451 |      451 |       0.15 | *
    |     3322 |        - |      448 |      448 |       0.16 | *
    |     3336 |        - |      447 |      447 |       0.16 | *
    |     3381 |        - |      446 |      446 |       0.16 | *
    |     3391 |        - |      445 |      445 |       0.16 | *
    |     3480 |        - |      444 |      444 |       0.16 | *
    |     3482 |        - |      443 |      443 |       0.16 | *
    |     3486 |        - |      442 |      442 |       0.16 | *
    |     3551 |        - |      441 |      441 |       0.16 | *
    |     3630 |        - |      438 |      438 |       0.16 | *
    |     3736 |        - |      437 |      437 |       0.16 | *
    |     3753 |        - |      436 |      436 |       0.16 | *
    |     3762 |        - |      434 |      434 |       0.16 | *
    |     3796 |        - |      433 |      433 |       0.16 | *
    |     3797 |        - |      432 |      432 |       0.16 | *
    |     3801 |        - |      429 |      429 |       0.16 | *
    |     3834 |        - |      427 |      427 |       0.17 | *
    |     3960 |        - |      426 |      426 |       0.17 | *
    |     3973 |        - |      425 |      425 |       0.17 | *
    |     3974 |        - |      423 |      423 |       0.17 | *
    |     4136 |        - |      422 |      422 |       0.17 | *
    |     4223 |        - |      421 |      421 |       0.17 | *
    |     4300 |        - |      419 |      419 |       0.17 | *
    |     4305 |        - |      415 |      415 |       0.17 | *
    |     4454 |        - |      414 |      414 |       0.17 | *
    |     4783 |        - |      413 |      413 |       0.17 | *
    |     4798 |        - |      411 |      411 |       0.17 | *
    |     4867 |        - |      410 |      410 |       0.17 | *
    |     4911 |        - |      409 |      409 |       0.17 | *
    |     4912 |        - |      408 |      408 |       0.17 | *
    |     4962 |        - |      406 |      406 |       0.18 | *
    |     4963 |        - |      405 |      405 |       0.18 | *
    |     5148 |        - |      403 |      403 |       0.18 | *
    |     5200 |        - |      402 |      402 |       0.18 | *
    |     5215 |        - |      400 |      400 |       0.18 | *
    |     5353 |        - |      399 |      399 |       0.18 | *
    |     5379 |        - |      398 |      398 |       0.18 | *
    |     5539 |        - |      397 |      397 |       0.18 | *
    |     5598 |        - |      396 |      396 |       0.18 | *
    |     5633 |        - |      394 |      394 |       0.18 | *
    |     5733 |        - |      391 |      391 |       0.18 | *
    |     6035 |        - |      389 |      389 |       0.18 | *
    |     6136 |        - |      385 |      385 |       0.19 | *
    |     6259 |        - |      384 |      384 |       0.19 | *
    |     6406 |        - |      383 |      383 |       0.19 | *
    |     6473 |        - |      382 |      382 |       0.19 | *
    |     6527 |        - |      381 |      381 |       0.19 | *
    |     6537 |        - |      379 |      379 |       0.19 | *
    |     6627 |        - |      378 |      378 |       0.19 | *
    |     6882 |        - |      374 |      374 |       0.19 | *
    |     7087 |        - |      373 |      373 |       0.19 | *
    |     7146 |        - |      372 |      372 |       0.19 | *
    |     7170 |        - |      371 |      371 |       0.19 | *
    |     7406 |        - |      368 |      368 |       0.19 | *
    |     7427 |        - |      367 |      367 |       0.20 | *
    |     7495 |        - |      364 |      364 |       0.20 | *
    |     7498 |        - |      362 |      362 |       0.20 | *
    |     7524 |        - |      360 |      360 |       0.20 | *
    |     7602 |        - |      359 |      359 |       0.20 | *
    |     8224 |        - |      358 |      358 |       0.20 | *
    |     8756 |        - |      356 |      356 |       0.20 | *
    |     8793 |        - |      354 |      354 |       0.20 | *
    |     8994 |        - |      353 |      353 |       0.20 | *
    |     9019 |        - |      351 |      351 |       0.20 | *
    |     9407 |        - |      350 |      350 |       0.20 | *
    |     9416 |        - |      347 |      347 |       0.21 | *
    |     9444 |        - |      345 |      345 |       0.21 | *
    |     9554 |        - |      344 |      344 |       0.21 | *
    |     9671 |        - |      341 |      341 |       0.21 | *
    |     9733 |        - |      340 |      340 |       0.21 | *
    |     9748 |        - |      339 |      339 |       0.21 | *
    |     9759 |        - |      336 |      336 |       0.21 | *
    |     9870 |        - |      331 |      331 |       0.21 | *
    |      10K |        - |      330 |      330 |       0.21 | *
    |      10K |        - |      327 |      327 |       0.21 | *
    |      11K |        - |      326 |      326 |       0.21 | *
    |      11K |        - |      325 |      325 |       0.21 | *
    |      11K |        - |      324 |      324 |       0.22 | *
    |      11K |        - |      323 |      323 |       0.22 | *
    |      11K |        - |      322 |      322 |       0.22 | *
    |      11K |        - |      321 |      321 |       0.22 | *
    |      11K |        - |      320 |      320 |       0.22 | *
    |      11K |        - |      319 |      319 |       0.22 | *
    |      11K |        - |      318 |      318 |       0.22 | *
    |      12K |        - |      317 |      317 |       0.22 | *
    |      12K |        - |      316 |      316 |       0.22 | *
    |      13K |        - |      313 |      313 |       0.22 | *
    |      13K |        - |      311 |      311 |       0.22 | *
    |      13K |        - |      309 |      309 |       0.22 | *
    |      13K |        - |      308 |      308 |       0.22 | *
    |      13K |        - |      307 |      307 |       0.22 | *
    |      13K |        - |      306 |      306 |       0.22 | *
    |      13K |        - |      304 |      304 |       0.22 | *
    |      13K |        - |      302 |      302 |       0.23 | *
    |      14K |        - |      299 |      299 |       0.23 | *
    |      14K |        - |      298 |      298 |       0.23 | *
    |      14K |        - |      297 |      297 |       0.23 | *
    |      14K |        - |      295 |      295 |       0.23 | *
    |      14K |        - |      292 |      292 |       0.23 | *
    |      15K |        - |      291 |      291 |       0.23 | *
    |      15K |        - |      289 |      289 |       0.23 | *
    |      16K |        - |      288 |      288 |       0.23 | *
    |      17K |        - |      287 |      287 |       0.23 | *
    |      17K |        - |      286 |      286 |       0.23 | *
    |      17K |        - |      285 |      285 |       0.23 | *
    |      17K |        - |      283 |      283 |       0.23 | *
    |      18K |        - |      282 |      282 |       0.24 | *
    |      19K |        - |      281 |      281 |       0.24 | *
    |      19K |        - |      280 |      280 |       0.24 | *
    |      20K |        - |      279 |      279 |       0.24 | *
    |      20K |        - |      277 |      277 |       0.24 | *
    |      20K |        - |      273 |      273 |       0.24 | *
    |      20K |        - |      272 |      272 |       0.24 | *
    |      21K |        - |      271 |      271 |       0.24 | *
    |      21K |        - |      269 |      269 |       0.24 | *
    |      21K |        - |      268 |      268 |       0.24 | *
    |      21K |        - |      266 |      266 |       0.24 | *
    |      21K |        - |      265 |      265 |       0.24 | *
    |      21K |        - |      264 |      264 |       0.24 | *
    |      21K |        - |      263 |      263 |       0.24 | *
    |      23K |        - |      262 |      262 |       0.25 | *
    |      24K |        - |      261 |      261 |       0.25 | *
    |      24K |        - |      260 |      260 |       0.25 | *
    |      24K |        - |      258 |      258 |       0.25 | *
    |      24K |        - |      257 |      257 |       0.25 | *
    |      25K |        - |      256 |      256 |       0.25 | *
    |      25K |        - |      255 |      255 |       0.25 | *
    |      25K |        - |      254 |      254 |       0.25 | *
    |      25K |        - |      253 |      253 |       0.25 | *
    |      25K |        - |      252 |      252 |       0.25 | *
    |      25K |        - |      251 |      251 |       0.25 | *
    |      25K |        - |      250 |      250 |       0.25 | *
    |      26K |        - |      249 |      249 |       0.26 | *
    |      29K |        - |      248 |      248 |       0.26 | *
    |      30K |        - |      246 |      246 |       0.26 | *
    |      31K |        - |      245 |      245 |       0.26 | *
    |      31K |        - |      244 |      244 |       0.27 | *
    |      31K |        - |      243 |      243 |       0.27 | *
    |      33K |        - |      242 |      242 |       0.27 | *
    |      35K |        - |      241 |      241 |       0.27 | *
    |      35K |        - |      240 |      240 |       0.27 | *
    |      35K |        - |      239 |      239 |       0.27 | *
    |      36K |        - |      238 |      238 |       0.27 | *
    |      39K |        - |      237 |      237 |       0.28 | *
    |      39K |        - |      236 |      236 |       0.28 | *
    |      41K |        - |      235 |      235 |       0.28 | *
    |      44K |        - |      234 |      234 |       0.29 | *
    |      46K |        - |      233 |      233 |       0.29 | *
    |      49K |        - |      232 |      232 |       0.29 | *
    |      59K |        - |      231 |      231 |       0.30 | *
    |      62K |        - |      230 |      230 |       0.31 | *
    |      62K |        - |      229 |      229 |       0.31 | *
    |      62K |        - |      228 |      228 |       0.31 | *
    |      67K |        - |      226 |      226 |       0.31 | *
    |      67K |        - |      225 |      225 |       0.32 | *
    |      68K |        - |      224 |      224 |       0.32 | *
    |      71K |        - |      223 |      223 |       0.32 | *
    |      71K |        - |      222 |      222 |       0.32 | *
    |      76K |        - |      221 |      221 |       0.33 | *
    |      76K |        - |      220 |      220 |       0.33 | *
    |      84K |        - |      219 |      219 |       0.34 | *
    |      87K |        - |      218 |      218 |       0.34 | *
    |      92K |        - |      217 |      217 |       0.35 | *
    |      92K |        - |      216 |      216 |       0.35 | *
    |      97K |        - |      215 |      215 |       0.36 | *
    |     107K |        - |      211 |      211 |       0.39 | *
    |     107K |        - |      210 |      210 |       0.39 | *
    |     158K |        - |      208 |      208 |       0.58 | *
    |     159K |        - |      206 |      206 |       0.58 | *
    |     160K |        - |      205 |      205 |       0.59 | *
    |     164K |        - |      204 |      204 |       0.61 | *
    |     164K |        - |      203 |      203 |       0.61 | *
    |     168K |        - |      202 |      202 |       0.63 | *
    |     200K |        - |      201 |      201 |       0.77 | *
    |     205K |        - |      200 |      200 |       0.79 | *
    |     207K |        - |      199 |      199 |       0.80 | *
    |     207K |        - |      198 |      198 |       0.80 | *
    |     207K |        - |      196 |      196 |       0.81 | *
    |     221K |        - |      195 |      195 |       0.86 | *
    |     223K |        - |      194 |      194 |       0.86 | *
    |     226K |        - |      193 |      193 |       0.87 | *
    |     237K |        - |      192 |      192 |       0.91 | *
    |     240K |        - |      191 |      191 |       0.92 | *
    |     240K |        - |      190 |      190 |       0.92 | *
    |     243K |        - |      189 |      189 |       0.93 | *
    |     268K |        - |      188 |      188 |       0.99 | *
    |     440K |        - |      187 |      187 |       1.25 | *
    |     518K |        - |      185 |      185 |       1.31 | *
    |     519K |        - |      184 |      184 |       1.31 | *
    |     519K |        - |      183 |      183 |       1.31 | *
    |     538K |        - |      182 |      182 |       1.32 | *
    |     548K |        - |      181 |      181 |       1.33 | *
    |     558K |        - |      180 |      180 |       1.34 | *
    |     567K |        - |      179 |      179 |       1.34 | *
    |     589K |        - |      178 |      178 |       1.36 | *
    |     591K |        - |      177 |      177 |       1.36 | *
    |     604K |        - |      176 |      176 |       1.38 | *
    |     605K |        - |      175 |      175 |       1.38 | *
    |     626K |        - |      174 |      174 |       1.40 | *
    |     716K |        - |      173 |      173 |       1.48 | *
    |     772K |        - |      172 |      172 |       1.53 | *
    |     774K |        - |      171 |      171 |       1.53 | *
    |     979K |        - |      170 |      170 |       1.71 | *
    |    1068K |        - |      169 |      169 |       1.80 | *
    |    1068K |        - |      168 |      168 |       1.80 | *
    |    1075K |        - |      167 |      167 |       1.80 | *
    |    1291K |        - |      166 |      166 |       1.98 | *
    |    1373K |        - |      165 |      165 |       2.03 | *
    |    1468K |        - |      164 |      164 |       2.10 | *
    |    1471K |        - |      163 |      163 |       2.11 | *
    |    1598K |        - |      162 |      162 |       2.20 | *
    |    1748K |        - |      161 |      161 |       2.30 | *
    |    1987K |        - |      159 |      159 |       2.47 | *
    |    2009K |        - |      158 |      158 |       2.49 | *
    |    2125K |        - |      157 |      157 |       2.57 | *
    |    2736K |        - |      156 |      156 |       3.00 | *
    |    2761K |        - |      155 |      155 |       3.02 | *
    |    3461K |        - |      154 |      154 |       3.63 | *
    |    3753K |        - |      153 |      153 |       4.00 | *
    |    3756K |        - |      152 |      152 |       4.01 | *
    |    3759K |        - |      151 |      151 |       4.01 | *
    |    4427K |        - |      150 |      150 |       4.65 | *
    |    5206K |        - |      149 |      149 |       5.21 | *
    |    5552K |        - |      147 |      147 |       5.46 | *
    |    5584K |        - |      146 |      146 |       5.48 | *
    |      10M |        - |      144 |      144 |       9.66 | *
    |      63M |        - |      143 |      143 |      51.76 | *
    |      69M |        - |      142 |      142 |      55.80 | *
    |     115M |        - |      141 |      141 |      89.41 | *
    |     144M |        - |      140 |      140 |     110.22 | *
    |     172M |        - |      139 |      139 |     130.44 | *
    |     248M |        - |      138 |      138 |     184.57 | *
    |     250M |        - |      137 |      137 |     186.29 | *
    |     250M |        - |      136 |      136 |     186.30 | *
    |     250M |        - |      135 |      135 |     186.31 | *
    |     549M |        - |      134 |      134 |     400.54 | *
    |     550M |        - |      133 |      133 |     401.21 | *
    |     694M |        - |      132 |      132 |     504.85 | *
    |     930M |        - |      131 |      131 |     671.73 | *
    |     995M |        - |      130 |      130 |     718.20 | *
    \--------------------------------------------------------/

Neighborhoods statistics (values in %):

    /----------------------------------------------------------------\
    | Move               | Improvs. | Sideways |  Accepts |  Rejects |
    |--------------------|----------|----------|----------|----------|
    | Shift(mk)          |      11K |      26K |      40K |     214M |
    | Shift              |      560 |     634K |     644K |     213M |
    | ShiftSmart(mk)     |      89K |     213K |     328K |     213M |
    | ShiftSmart         |     4358 |    5527K |    5596K |     208M |
    | SimpSwap(mk)       |       87 |       86 |      189 |     214M |
    | SimpSwap           |        9 |     2241 |     2318 |     214M |
    | SimpSwapSmart(mk)  |      602 |      858 |     1641 |     214M |
    | SimpSwapSmart      |       53 |      24K |      24K |     214M |
    | Swap(mk)           |       13 |       19 |       37 |     214M |
    | Swap               |        0 |      179 |      185 |     214M |
    | SwapSmart(mk)      |      539 |     1000 |     1770 |     214M |
    | SwapSmart          |       57 |     9337 |     9800 |     214M |
    | Switch(mk)         |     2906 |      25M |      25M |     188M |
    | Switch             |      150 |      22M |      22M |     192M |
    | SwitchSmart(mk)    |      23K |     122K |     153K |     214M |
    | SwitchSmart        |     1165 |    1104K |    1123K |     212M |
    | TaskMove(mk)       |      617 |     1219 |     2074 |     214M |
    | TaskMove           |       43 |     5424 |     5885 |     214M |
    | TaskMoveSmart(mk)  |     5968 |      11K |      19K |     214M |
    | TaskMoveSmart      |      387 |      52K |      56K |     214M |
    | 2-Shift(mk)        |     2845 |    3478K |    3482K |     210M |
    | 2-Shift            |      146 |    2796K |    2798K |     211M |
    | 2-ShiftSmart(mk)   |      22K |    4177K |    4204K |     210M |
    | 2-ShiftSmart       |     1077 |    5739K |    5753K |     208M |
    \----------------------------------------------------------------/

Best makespan.....: 130
N. of Iterations..: 5128989567
Total runtime.....: 3600.01s
Using Python-MIP package version 1.6.8
Começo a execução
    /-------------------------------------------------------------------------------\
    |    Makespan   |   Free Jobs   | Free Machines |    It. Time   |   Total Time  | 
    |-------------------------------------------------------------------------------|
    \-------------------------------------------------------------------------------/
Terminou a execução
