Instance....: instances/I_200_20_S_1-99_2.txt
Algorithm...: Simulated Annealing (alpha=0.990, saMax=10M, t0=1)
Other params: maxIters=100M, seed=-1, timeLimit=3600.00s

    /--------------------------------------------------------\
    |     Iter |   RDP(%) |       S* |       S' |       Time | 
    |----------|----------|----------|----------|------------|
    |        0 |        - |     1445 |     1445 |       0.00 | s0
    |        1 |        - |     1431 |     1431 |       0.00 | *
    |        2 |        - |     1416 |     1416 |       0.01 | *
    |        3 |        - |     1348 |     1348 |       0.01 | *
    |        4 |        - |     1338 |     1338 |       0.01 | *
    |        8 |        - |     1323 |     1323 |       0.03 | *
    |       10 |        - |     1277 |     1277 |       0.03 | *
    |       12 |        - |     1255 |     1255 |       0.03 | *
    |       14 |        - |     1240 |     1240 |       0.03 | *
    |       15 |        - |     1217 |     1217 |       0.03 | *
    |       16 |        - |     1212 |     1212 |       0.03 | *
    |       17 |        - |     1184 |     1184 |       0.04 | *
    |       21 |        - |     1165 |     1165 |       0.04 | *
    |       27 |        - |     1145 |     1145 |       0.04 | *
    |       30 |        - |     1144 |     1144 |       0.04 | *
    |       40 |        - |     1105 |     1105 |       0.04 | *
    |       41 |        - |     1078 |     1078 |       0.04 | *
    |       44 |        - |     1070 |     1070 |       0.04 | *
    |       47 |        - |     1061 |     1061 |       0.04 | *
    |       48 |        - |     1047 |     1047 |       0.04 | *
    |       49 |        - |     1041 |     1041 |       0.04 | *
    |       51 |        - |     1032 |     1032 |       0.05 | *
    |       55 |        - |     1028 |     1028 |       0.05 | *
    |       66 |        - |      988 |      988 |       0.05 | *
    |       72 |        - |      979 |      979 |       0.05 | *
    |       77 |        - |      977 |      977 |       0.05 | *
    |       78 |        - |      962 |      962 |       0.05 | *
    |       79 |        - |      959 |      959 |       0.05 | *
    |       89 |        - |      957 |      957 |       0.05 | *
    |       93 |        - |      955 |      955 |       0.05 | *
    |       96 |        - |      954 |      954 |       0.05 | *
    |       98 |        - |      927 |      927 |       0.06 | *
    |       99 |        - |      916 |      916 |       0.06 | *
    |      101 |        - |      914 |      914 |       0.06 | *
    |      112 |        - |      908 |      908 |       0.06 | *
    |      118 |        - |      905 |      905 |       0.06 | *
    |      121 |        - |      902 |      902 |       0.06 | *
    |      132 |        - |      889 |      889 |       0.06 | *
    |      134 |        - |      885 |      885 |       0.06 | *
    |      135 |        - |      868 |      868 |       0.06 | *
    |      136 |        - |      866 |      866 |       0.06 | *
    |      144 |        - |      855 |      855 |       0.07 | *
    |      146 |        - |      848 |      848 |       0.07 | *
    |      154 |        - |      846 |      846 |       0.07 | *
    |      156 |        - |      837 |      837 |       0.07 | *
    |      160 |        - |      827 |      827 |       0.07 | *
    |      175 |        - |      825 |      825 |       0.07 | *
    |      181 |        - |      824 |      824 |       0.07 | *
    |      182 |        - |      821 |      821 |       0.07 | *
    |      189 |        - |      820 |      820 |       0.07 | *
    |      192 |        - |      815 |      815 |       0.07 | *
    |      195 |        - |      812 |      812 |       0.07 | *
    |      197 |        - |      809 |      809 |       0.08 | *
    |      202 |        - |      804 |      804 |       0.08 | *
    |      203 |        - |      798 |      798 |       0.08 | *
    |      206 |        - |      796 |      796 |       0.08 | *
    |      207 |        - |      778 |      778 |       0.08 | *
    |      208 |        - |      774 |      774 |       0.08 | *
    |      209 |        - |      770 |      770 |       0.08 | *
    |      219 |        - |      769 |      769 |       0.08 | *
    |      222 |        - |      754 |      754 |       0.08 | *
    |      237 |        - |      748 |      748 |       0.08 | *
    |      240 |        - |      744 |      744 |       0.08 | *
    |      241 |        - |      738 |      738 |       0.08 | *
    |      256 |        - |      736 |      736 |       0.08 | *
    |      258 |        - |      735 |      735 |       0.08 | *
    |      269 |        - |      731 |      731 |       0.09 | *
    |      271 |        - |      727 |      727 |       0.09 | *
    |      272 |        - |      726 |      726 |       0.09 | *
    |      282 |        - |      723 |      723 |       0.09 | *
    |      324 |        - |      720 |      720 |       0.09 | *
    |      337 |        - |      718 |      718 |       0.09 | *
    |      378 |        - |      717 |      717 |       0.09 | *
    |      381 |        - |      712 |      712 |       0.09 | *
    |      398 |        - |      710 |      710 |       0.09 | *
    |      400 |        - |      709 |      709 |       0.09 | *
    |      401 |        - |      707 |      707 |       0.09 | *
    |      405 |        - |      706 |      706 |       0.09 | *
    |      410 |        - |      705 |      705 |       0.09 | *
    |      413 |        - |      703 |      703 |       0.09 | *
    |      423 |        - |      702 |      702 |       0.09 | *
    |      424 |        - |      701 |      701 |       0.09 | *
    |      425 |        - |      700 |      700 |       0.09 | *
    |      440 |        - |      692 |      692 |       0.09 | *
    |      462 |        - |      690 |      690 |       0.10 | *
    |      481 |        - |      689 |      689 |       0.10 | *
    |      482 |        - |      684 |      684 |       0.10 | *
    |      506 |        - |      682 |      682 |       0.10 | *
    |      507 |        - |      681 |      681 |       0.10 | *
    |      512 |        - |      680 |      680 |       0.10 | *
    |      517 |        - |      675 |      675 |       0.10 | *
    |      540 |        - |      670 |      670 |       0.10 | *
    |      545 |        - |      669 |      669 |       0.10 | *
    |      547 |        - |      667 |      667 |       0.10 | *
    |      562 |        - |      664 |      664 |       0.10 | *
    |      592 |        - |      663 |      663 |       0.10 | *
    |      594 |        - |      659 |      659 |       0.10 | *
    |      621 |        - |      656 |      656 |       0.10 | *
    |      622 |        - |      655 |      655 |       0.10 | *
    |      630 |        - |      653 |      653 |       0.10 | *
    |      646 |        - |      650 |      650 |       0.10 | *
    |      660 |        - |      645 |      645 |       0.10 | *
    |      661 |        - |      642 |      642 |       0.11 | *
    |      663 |        - |      640 |      640 |       0.11 | *
    |      683 |        - |      637 |      637 |       0.11 | *
    |      701 |        - |      636 |      636 |       0.11 | *
    |      716 |        - |      635 |      635 |       0.11 | *
    |      720 |        - |      631 |      631 |       0.11 | *
    |      761 |        - |      625 |      625 |       0.11 | *
    |      811 |        - |      619 |      619 |       0.11 | *
    |      821 |        - |      616 |      616 |       0.11 | *
    |      823 |        - |      615 |      615 |       0.11 | *
    |      831 |        - |      614 |      614 |       0.11 | *
    |      835 |        - |      612 |      612 |       0.11 | *
    |      870 |        - |      609 |      609 |       0.11 | *
    |      939 |        - |      604 |      604 |       0.11 | *
    |      971 |        - |      602 |      602 |       0.11 | *
    |      978 |        - |      599 |      599 |       0.11 | *
    |      986 |        - |      596 |      596 |       0.12 | *
    |     1025 |        - |      595 |      595 |       0.12 | *
    |     1028 |        - |      594 |      594 |       0.12 | *
    |     1043 |        - |      591 |      591 |       0.12 | *
    |     1058 |        - |      590 |      590 |       0.12 | *
    |     1083 |        - |      588 |      588 |       0.12 | *
    |     1102 |        - |      586 |      586 |       0.12 | *
    |     1160 |        - |      582 |      582 |       0.12 | *
    |     1182 |        - |      581 |      581 |       0.12 | *
    |     1188 |        - |      574 |      574 |       0.12 | *
    |     1197 |        - |      572 |      572 |       0.12 | *
    |     1203 |        - |      571 |      571 |       0.12 | *
    |     1204 |        - |      567 |      567 |       0.12 | *
    |     1224 |        - |      565 |      565 |       0.13 | *
    |     1225 |        - |      564 |      564 |       0.13 | *
    |     1228 |        - |      562 |      562 |       0.13 | *
    |     1233 |        - |      561 |      561 |       0.13 | *
    |     1259 |        - |      556 |      556 |       0.13 | *
    |     1260 |        - |      554 |      554 |       0.13 | *
    |     1277 |        - |      552 |      552 |       0.13 | *
    |     1296 |        - |      548 |      548 |       0.13 | *
    |     1357 |        - |      546 |      546 |       0.13 | *
    |     1397 |        - |      545 |      545 |       0.13 | *
    |     1401 |        - |      544 |      544 |       0.13 | *
    |     1404 |        - |      540 |      540 |       0.13 | *
    |     1408 |        - |      539 |      539 |       0.13 | *
    |     1412 |        - |      536 |      536 |       0.13 | *
    |     1452 |        - |      534 |      534 |       0.13 | *
    |     1456 |        - |      533 |      533 |       0.14 | *
    |     1470 |        - |      531 |      531 |       0.14 | *
    |     1508 |        - |      530 |      530 |       0.14 | *
    |     1511 |        - |      529 |      529 |       0.14 | *
    |     1579 |        - |      524 |      524 |       0.14 | *
    |     1594 |        - |      523 |      523 |       0.14 | *
    |     1666 |        - |      522 |      522 |       0.14 | *
    |     1732 |        - |      521 |      521 |       0.14 | *
    |     1753 |        - |      520 |      520 |       0.14 | *
    |     1800 |        - |      518 |      518 |       0.14 | *
    |     1814 |        - |      517 |      517 |       0.14 | *
    |     1818 |        - |      516 |      516 |       0.14 | *
    |     1827 |        - |      515 |      515 |       0.15 | *
    |     1833 |        - |      514 |      514 |       0.15 | *
    |     1864 |        - |      512 |      512 |       0.15 | *
    |     1913 |        - |      510 |      510 |       0.15 | *
    |     1953 |        - |      508 |      508 |       0.15 | *
    |     1985 |        - |      506 |      506 |       0.15 | *
    |     2037 |        - |      503 |      503 |       0.15 | *
    |     2085 |        - |      501 |      501 |       0.15 | *
    |     2112 |        - |      498 |      498 |       0.15 | *
    |     2114 |        - |      497 |      497 |       0.15 | *
    |     2116 |        - |      496 |      496 |       0.15 | *
    |     2162 |        - |      492 |      492 |       0.15 | *
    |     2177 |        - |      491 |      491 |       0.15 | *
    |     2227 |        - |      486 |      486 |       0.15 | *
    |     2262 |        - |      485 |      485 |       0.15 | *
    |     2265 |        - |      479 |      479 |       0.15 | *
    |     2383 |        - |      478 |      478 |       0.16 | *
    |     2538 |        - |      474 |      474 |       0.16 | *
    |     2609 |        - |      472 |      472 |       0.16 | *
    |     2700 |        - |      471 |      471 |       0.16 | *
    |     2715 |        - |      467 |      467 |       0.16 | *
    |     2735 |        - |      465 |      465 |       0.16 | *
    |     2766 |        - |      462 |      462 |       0.16 | *
    |     2767 |        - |      461 |      461 |       0.16 | *
    |     2816 |        - |      457 |      457 |       0.16 | *
    |     2834 |        - |      456 |      456 |       0.16 | *
    |     2863 |        - |      454 |      454 |       0.16 | *
    |     2876 |        - |      453 |      453 |       0.16 | *
    |     2922 |        - |      452 |      452 |       0.16 | *
    |     3078 |        - |      447 |      447 |       0.16 | *
    |     3084 |        - |      442 |      442 |       0.16 | *
    |     3129 |        - |      439 |      439 |       0.16 | *
    |     3189 |        - |      438 |      438 |       0.16 | *
    |     3197 |        - |      437 |      437 |       0.17 | *
    |     3204 |        - |      436 |      436 |       0.17 | *
    |     3223 |        - |      434 |      434 |       0.17 | *
    |     3254 |        - |      432 |      432 |       0.17 | *
    |     3449 |        - |      431 |      431 |       0.17 | *
    |     3483 |        - |      430 |      430 |       0.17 | *
    |     3495 |        - |      428 |      428 |       0.17 | *
    |     3710 |        - |      426 |      426 |       0.17 | *
    |     3844 |        - |      425 |      425 |       0.17 | *
    |     3861 |        - |      423 |      423 |       0.17 | *
    |     4007 |        - |      421 |      421 |       0.17 | *
    |     4052 |        - |      420 |      420 |       0.17 | *
    |     4122 |        - |      419 |      419 |       0.17 | *
    |     4223 |        - |      417 |      417 |       0.17 | *
    |     4377 |        - |      415 |      415 |       0.17 | *
    |     4476 |        - |      413 |      413 |       0.18 | *
    |     4482 |        - |      412 |      412 |       0.18 | *
    |     4581 |        - |      410 |      410 |       0.18 | *
    |     4598 |        - |      409 |      409 |       0.18 | *
    |     4618 |        - |      408 |      408 |       0.18 | *
    |     4634 |        - |      407 |      407 |       0.18 | *
    |     4683 |        - |      403 |      403 |       0.18 | *
    |     4753 |        - |      402 |      402 |       0.18 | *
    |     5184 |        - |      401 |      401 |       0.18 | *
    |     5287 |        - |      400 |      400 |       0.18 | *
    |     5328 |        - |      398 |      398 |       0.18 | *
    |     5595 |        - |      395 |      395 |       0.18 | *
    |     5842 |        - |      394 |      394 |       0.19 | *
    |     5929 |        - |      392 |      392 |       0.19 | *
    |     6057 |        - |      390 |      390 |       0.19 | *
    |     6487 |        - |      389 |      389 |       0.19 | *
    |     6499 |        - |      388 |      388 |       0.19 | *
    |     6647 |        - |      386 |      386 |       0.19 | *
    |     6793 |        - |      385 |      385 |       0.19 | *
    |     6854 |        - |      384 |      384 |       0.19 | *
    |     6907 |        - |      382 |      382 |       0.19 | *
    |     6929 |        - |      381 |      381 |       0.19 | *
    |     6961 |        - |      379 |      379 |       0.19 | *
    |     7469 |        - |      378 |      378 |       0.20 | *
    |     7590 |        - |      377 |      377 |       0.20 | *
    |     7781 |        - |      374 |      374 |       0.20 | *
    |     7836 |        - |      372 |      372 |       0.20 | *
    |     7838 |        - |      370 |      370 |       0.20 | *
    |     8132 |        - |      369 |      369 |       0.20 | *
    |     8142 |        - |      368 |      368 |       0.20 | *
    |     9221 |        - |      367 |      367 |       0.20 | *
    |     9293 |        - |      365 |      365 |       0.20 | *
    |     9313 |        - |      364 |      364 |       0.20 | *
    |     9320 |        - |      363 |      363 |       0.20 | *
    |     9351 |        - |      362 |      362 |       0.20 | *
    |     9765 |        - |      361 |      361 |       0.21 | *
    |     9772 |        - |      359 |      359 |       0.21 | *
    |     9826 |        - |      357 |      357 |       0.21 | *
    |      10K |        - |      356 |      356 |       0.21 | *
    |      10K |        - |      355 |      355 |       0.21 | *
    |      10K |        - |      354 |      354 |       0.21 | *
    |      10K |        - |      353 |      353 |       0.21 | *
    |      10K |        - |      352 |      352 |       0.21 | *
    |      10K |        - |      351 |      351 |       0.21 | *
    |      10K |        - |      350 |      350 |       0.21 | *
    |      10K |        - |      348 |      348 |       0.21 | *
    |      11K |        - |      344 |      344 |       0.21 | *
    |      11K |        - |      343 |      343 |       0.22 | *
    |      11K |        - |      341 |      341 |       0.22 | *
    |      12K |        - |      340 |      340 |       0.22 | *
    |      12K |        - |      338 |      338 |       0.22 | *
    |      12K |        - |      337 |      337 |       0.22 | *
    |      12K |        - |      336 |      336 |       0.22 | *
    |      13K |        - |      335 |      335 |       0.22 | *
    |      13K |        - |      334 |      334 |       0.22 | *
    |      13K |        - |      333 |      333 |       0.22 | *
    |      13K |        - |      332 |      332 |       0.22 | *
    |      14K |        - |      331 |      331 |       0.22 | *
    |      14K |        - |      330 |      330 |       0.22 | *
    |      14K |        - |      328 |      328 |       0.22 | *
    |      14K |        - |      327 |      327 |       0.22 | *
    |      14K |        - |      326 |      326 |       0.23 | *
    |      14K |        - |      323 |      323 |       0.23 | *
    |      14K |        - |      322 |      322 |       0.23 | *
    |      15K |        - |      321 |      321 |       0.23 | *
    |      15K |        - |      320 |      320 |       0.23 | *
    |      15K |        - |      319 |      319 |       0.23 | *
    |      15K |        - |      318 |      318 |       0.23 | *
    |      15K |        - |      317 |      317 |       0.23 | *
    |      16K |        - |      316 |      316 |       0.23 | *
    |      16K |        - |      315 |      315 |       0.23 | *
    |      16K |        - |      314 |      314 |       0.23 | *
    |      16K |        - |      312 |      312 |       0.23 | *
    |      16K |        - |      311 |      311 |       0.23 | *
    |      17K |        - |      310 |      310 |       0.23 | *
    |      17K |        - |      309 |      309 |       0.23 | *
    |      17K |        - |      308 |      308 |       0.23 | *
    |      17K |        - |      307 |      307 |       0.23 | *
    |      18K |        - |      306 |      306 |       0.24 | *
    |      18K |        - |      305 |      305 |       0.24 | *
    |      18K |        - |      304 |      304 |       0.24 | *
    |      18K |        - |      303 |      303 |       0.24 | *
    |      18K |        - |      302 |      302 |       0.24 | *
    |      18K |        - |      301 |      301 |       0.24 | *
    |      19K |        - |      300 |      300 |       0.24 | *
    |      22K |        - |      299 |      299 |       0.24 | *
    |      22K |        - |      298 |      298 |       0.24 | *
    |      22K |        - |      297 |      297 |       0.25 | *
    |      22K |        - |      296 |      296 |       0.25 | *
    |      23K |        - |      294 |      294 |       0.25 | *
    |      23K |        - |      293 |      293 |       0.25 | *
    |      23K |        - |      291 |      291 |       0.25 | *
    |      23K |        - |      290 |      290 |       0.25 | *
    |      25K |        - |      289 |      289 |       0.26 | *
    |      25K |        - |      288 |      288 |       0.26 | *
    |      26K |        - |      287 |      287 |       0.26 | *
    |      26K |        - |      286 |      286 |       0.26 | *
    |      26K |        - |      283 |      283 |       0.26 | *
    |      28K |        - |      281 |      281 |       0.26 | *
    |      28K |        - |      280 |      280 |       0.26 | *
    |      30K |        - |      279 |      279 |       0.27 | *
    |      33K |        - |      278 |      278 |       0.28 | *
    |      35K |        - |      277 |      277 |       0.28 | *
    |      36K |        - |      275 |      275 |       0.28 | *
    |      36K |        - |      274 |      274 |       0.28 | *
    |      36K |        - |      273 |      273 |       0.29 | *
    |      37K |        - |      272 |      272 |       0.29 | *
    |      37K |        - |      271 |      271 |       0.29 | *
    |      37K |        - |      270 |      270 |       0.29 | *
    |      41K |        - |      269 |      269 |       0.30 | *
    |      42K |        - |      268 |      268 |       0.30 | *
    |      43K |        - |      267 |      267 |       0.30 | *
    |      43K |        - |      266 |      266 |       0.31 | *
    |      43K |        - |      264 |      264 |       0.31 | *
    |      44K |        - |      263 |      263 |       0.31 | *
    |      44K |        - |      262 |      262 |       0.31 | *
    |      44K |        - |      261 |      261 |       0.31 | *
    |      45K |        - |      259 |      259 |       0.31 | *
    |      47K |        - |      258 |      258 |       0.32 | *
    |      47K |        - |      257 |      257 |       0.32 | *
    |      53K |        - |      255 |      255 |       0.33 | *
    |      54K |        - |      254 |      254 |       0.33 | *
    |      54K |        - |      253 |      253 |       0.33 | *
    |      55K |        - |      252 |      252 |       0.34 | *
    |      56K |        - |      251 |      251 |       0.34 | *
    |      59K |        - |      250 |      250 |       0.35 | *
    |      59K |        - |      249 |      249 |       0.35 | *
    |      64K |        - |      248 |      248 |       0.35 | *
    |      66K |        - |      247 |      247 |       0.36 | *
    |      66K |        - |      246 |      246 |       0.36 | *
    |      69K |        - |      245 |      245 |       0.36 | *
    |      70K |        - |      243 |      243 |       0.36 | *
    |      70K |        - |      242 |      242 |       0.36 | *
    |      75K |        - |      241 |      241 |       0.38 | *
    |      77K |        - |      240 |      240 |       0.38 | *
    |      78K |        - |      239 |      239 |       0.38 | *
    |      78K |        - |      238 |      238 |       0.38 | *
    |      86K |        - |      237 |      237 |       0.40 | *
    |      88K |        - |      236 |      236 |       0.40 | *
    |      95K |        - |      235 |      235 |       0.41 | *
    |      95K |        - |      234 |      234 |       0.41 | *
    |     103K |        - |      233 |      233 |       0.43 | *
    |     108K |        - |      232 |      232 |       0.44 | *
    |     110K |        - |      231 |      231 |       0.45 | *
    |     128K |        - |      230 |      230 |       0.50 | *
    |     140K |        - |      229 |      229 |       0.53 | *
    |     141K |        - |      228 |      228 |       0.54 | *
    |     143K |        - |      226 |      226 |       0.54 | *
    |     144K |        - |      225 |      225 |       0.55 | *
    |     150K |        - |      223 |      223 |       0.57 | *
    |     150K |        - |      222 |      222 |       0.57 | *
    |     157K |        - |      221 |      221 |       0.59 | *
    |     158K |        - |      219 |      219 |       0.59 | *
    |     161K |        - |      218 |      218 |       0.61 | *
    |     162K |        - |      217 |      217 |       0.61 | *
    |     168K |        - |      216 |      216 |       0.63 | *
    |     169K |        - |      215 |      215 |       0.64 | *
    |     172K |        - |      214 |      214 |       0.65 | *
    |     173K |        - |      213 |      213 |       0.65 | *
    |     173K |        - |      212 |      212 |       0.65 | *
    |     175K |        - |      211 |      211 |       0.66 | *
    |     177K |        - |      210 |      210 |       0.67 | *
    |     178K |        - |      209 |      209 |       0.67 | *
    |     187K |        - |      208 |      208 |       0.70 | *
    |     267K |        - |      207 |      207 |       0.92 | *
    |     295K |        - |      206 |      206 |       0.98 | *
    |     336K |        - |      205 |      205 |       1.04 | *
    |     337K |        - |      204 |      204 |       1.04 | *
    |     340K |        - |      203 |      203 |       1.04 | *
    |     341K |        - |      202 |      202 |       1.05 | *
    |     341K |        - |      201 |      201 |       1.05 | *
    |     359K |        - |      200 |      200 |       1.08 | *
    |     393K |        - |      199 |      199 |       1.12 | *
    |     403K |        - |      198 |      198 |       1.13 | *
    |     404K |        - |      197 |      197 |       1.14 | *
    |     428K |        - |      196 |      196 |       1.17 | *
    |     442K |        - |      195 |      195 |       1.18 | *
    |     448K |        - |      193 |      193 |       1.19 | *
    |     450K |        - |      192 |      192 |       1.19 | *
    |     453K |        - |      191 |      191 |       1.20 | *
    |     454K |        - |      190 |      190 |       1.20 | *
    |     455K |        - |      189 |      189 |       1.20 | *
    |     468K |        - |      188 |      188 |       1.22 | *
    |     480K |        - |      187 |      187 |       1.23 | *
    |     486K |        - |      186 |      186 |       1.24 | *
    |     495K |        - |      185 |      185 |       1.25 | *
    |     498K |        - |      184 |      184 |       1.25 | *
    |     515K |        - |      183 |      183 |       1.27 | *
    |     529K |        - |      182 |      182 |       1.28 | *
    |     561K |        - |      181 |      181 |       1.32 | *
    |     578K |        - |      180 |      180 |       1.34 | *
    |     594K |        - |      179 |      179 |       1.37 | *
    |     596K |        - |      178 |      178 |       1.37 | *
    |     598K |        - |      177 |      177 |       1.38 | *
    |     598K |        - |      176 |      176 |       1.38 | *
    |     619K |        - |      175 |      175 |       1.42 | *
    |     710K |        - |      174 |      174 |       1.53 | *
    |     795K |        - |      172 |      172 |       1.59 | *
    |     817K |        - |      171 |      171 |       1.61 | *
    |     905K |        - |      170 |      170 |       1.67 | *
    |     907K |        - |      169 |      169 |       1.67 | *
    |     912K |        - |      168 |      168 |       1.67 | *
    |    1077K |        - |      167 |      167 |       1.80 | *
    |    1092K |        - |      166 |      166 |       1.81 | *
    |    1157K |        - |      165 |      165 |       1.85 | *
    |    1161K |        - |      164 |      164 |       1.86 | *
    |    1879K |        - |      163 |      163 |       2.40 | *
    |    1898K |        - |      162 |      162 |       2.41 | *
    |    2235K |        - |      161 |      161 |       2.67 | *
    |    2272K |        - |      160 |      160 |       2.69 | *
    |    2278K |        - |      159 |      159 |       2.70 | *
    |    2285K |        - |      158 |      158 |       2.71 | *
    |    2314K |        - |      157 |      157 |       2.73 | *
    |    2503K |        - |      156 |      156 |       2.89 | *
    |    4086K |        - |      155 |      155 |       4.54 | *
    |    4091K |        - |      154 |      154 |       4.54 | *
    |    4098K |        - |      153 |      153 |       4.55 | *
    |    5300K |        - |      152 |      152 |       5.45 | *
    |    6563K |        - |      151 |      151 |       6.81 | *
    |    6685K |        - |      150 |      150 |       6.91 | *
    |    7014K |        - |      149 |      149 |       7.15 | *
    |    7090K |        - |      148 |      148 |       7.21 | *
    |    7098K |        - |      146 |      146 |       7.21 | *
    |    7268K |        - |      145 |      145 |       7.33 | *
    |      11M |        - |      144 |      144 |      10.23 | *
    |      12M |        - |      143 |      143 |      10.59 | *
    |      12M |        - |      142 |      142 |      10.60 | *
    |      12M |        - |      141 |      141 |      10.65 | *
    |      15M |        - |      140 |      140 |      12.74 | *
    |     277M |        - |      139 |      139 |     203.59 | *
    |     279M |        - |      138 |      138 |     204.80 | *
    |     279M |        - |      137 |      137 |     204.83 | *
    |     280M |        - |      136 |      136 |     205.63 | *
    |     280M |        - |      135 |      135 |     205.64 | *
    |     518M |        - |      134 |      134 |     379.92 | *
    |     518M |        - |      133 |      133 |     379.96 | *
    |     518M |        - |      132 |      132 |     379.96 | *
    |     990M |        - |      131 |      131 |     726.05 | *
    |    1368M |        - |      130 |      130 |     999.57 | *
    |    1455M |        - |      129 |      129 |    1062.46 | *
    \--------------------------------------------------------/

Neighborhoods statistics (values in %):

    /----------------------------------------------------------------\
    | Move               | Improvs. | Sideways |  Accepts |  Rejects |
    |--------------------|----------|----------|----------|----------|
    | Shift(mk)          |      13K |      27K |      44K |     214M |
    | Shift              |      694 |     556K |     568K |     214M |
    | ShiftSmart(mk)     |     106K |     203K |     339K |     214M |
    | ShiftSmart         |     5225 |    4654K |    4739K |     210M |
    | SimpSwap(mk)       |       61 |      100 |      182 |     214M |
    | SimpSwap           |        6 |     4212 |     4281 |     215M |
    | SimpSwapSmart(mk)  |      583 |      810 |     1576 |     215M |
    | SimpSwapSmart      |       61 |      45K |      46K |     214M |
    | Swap(mk)           |       22 |       25 |       48 |     214M |
    | Swap               |        3 |      285 |      295 |     215M |
    | SwapSmart(mk)      |      562 |     1231 |     1994 |     214M |
    | SwapSmart          |       46 |      17K |      18K |     214M |
    | Switch(mk)         |     3034 |      25M |      25M |     189M |
    | Switch             |      174 |      23M |      23M |     192M |
    | SwitchSmart(mk)    |      23K |      42K |      72K |     215M |
    | SwitchSmart        |     1168 |     633K |     652K |     214M |
    | TaskMove(mk)       |      673 |     2215 |     3141 |     214M |
    | TaskMove           |       38 |     8891 |     9344 |     215M |
    | TaskMoveSmart(mk)  |     5838 |      16K |      24K |     214M |
    | TaskMoveSmart      |      347 |      91K |      95K |     214M |
    | 2-Shift(mk)        |     3785 |    3433K |    3437K |     211M |
    | 2-Shift            |      212 |    3091K |    3095K |     211M |
    | 2-ShiftSmart(mk)   |      24K |    1315K |    1344K |     213M |
    | 2-ShiftSmart       |     1222 |    5298K |    5314K |     209M |
    \----------------------------------------------------------------/

Best makespan.....: 129
N. of Iterations..: 5148059854
Total runtime.....: 3600.01s
Using Python-MIP package version 1.6.8
Começo a execução
    /-------------------------------------------------------------------------------\
    |    Makespan   |   Free Jobs   | Free Machines |    It. Time   |   Total Time  | 
    |-------------------------------------------------------------------------------|
    \-------------------------------------------------------------------------------/
Terminou a execução
