Instance....: instances/I_200_15_S_1-124_10.txt
Algorithm...: Simulated Annealing (alpha=0.990, saMax=10M, t0=1)
Other params: maxIters=100M, seed=-1, timeLimit=3600.00s

    /--------------------------------------------------------\
    |     Iter |   RDP(%) |       S* |       S' |       Time | 
    |----------|----------|----------|----------|------------|
    |        0 |        - |     2527 |     2527 |       0.00 | s0
    |        1 |        - |     2432 |     2432 |       0.01 | *
    |        2 |        - |     2246 |     2246 |       0.01 | *
    |        4 |        - |     2142 |     2142 |       0.02 | *
    |        5 |        - |     2059 |     2059 |       0.02 | *
    |        6 |        - |     1977 |     1977 |       0.03 | *
    |        7 |        - |     1882 |     1882 |       0.03 | *
    |        8 |        - |     1871 |     1871 |       0.03 | *
    |       10 |        - |     1805 |     1805 |       0.03 | *
    |       12 |        - |     1704 |     1704 |       0.03 | *
    |       14 |        - |     1657 |     1657 |       0.03 | *
    |       15 |        - |     1617 |     1617 |       0.04 | *
    |       17 |        - |     1552 |     1552 |       0.04 | *
    |       19 |        - |     1551 |     1551 |       0.04 | *
    |       20 |        - |     1540 |     1540 |       0.04 | *
    |       26 |        - |     1521 |     1521 |       0.04 | *
    |       35 |        - |     1508 |     1508 |       0.04 | *
    |       39 |        - |     1496 |     1496 |       0.04 | *
    |       40 |        - |     1490 |     1490 |       0.04 | *
    |       44 |        - |     1470 |     1470 |       0.04 | *
    |       46 |        - |     1453 |     1453 |       0.04 | *
    |       47 |        - |     1449 |     1449 |       0.04 | *
    |       49 |        - |     1438 |     1438 |       0.04 | *
    |       50 |        - |     1431 |     1431 |       0.04 | *
    |       57 |        - |     1429 |     1429 |       0.05 | *
    |       69 |        - |     1426 |     1426 |       0.05 | *
    |       73 |        - |     1404 |     1404 |       0.05 | *
    |       82 |        - |     1400 |     1400 |       0.05 | *
    |       83 |        - |     1390 |     1390 |       0.05 | *
    |       85 |        - |     1386 |     1386 |       0.05 | *
    |       86 |        - |     1376 |     1376 |       0.05 | *
    |       88 |        - |     1355 |     1355 |       0.05 | *
    |       89 |        - |     1347 |     1347 |       0.05 | *
    |       90 |        - |     1315 |     1315 |       0.05 | *
    |      100 |        - |     1313 |     1313 |       0.05 | *
    |      105 |        - |     1310 |     1310 |       0.05 | *
    |      113 |        - |     1308 |     1308 |       0.05 | *
    |      129 |        - |     1300 |     1300 |       0.06 | *
    |      137 |        - |     1276 |     1276 |       0.06 | *
    |      139 |        - |     1253 |     1253 |       0.06 | *
    |      147 |        - |     1252 |     1252 |       0.06 | *
    |      149 |        - |     1251 |     1251 |       0.06 | *
    |      154 |        - |     1241 |     1241 |       0.06 | *
    |      156 |        - |     1236 |     1236 |       0.06 | *
    |      158 |        - |     1224 |     1224 |       0.06 | *
    |      165 |        - |     1219 |     1219 |       0.06 | *
    |      168 |        - |     1208 |     1208 |       0.06 | *
    |      169 |        - |     1189 |     1189 |       0.06 | *
    |      170 |        - |     1181 |     1181 |       0.06 | *
    |      171 |        - |     1173 |     1173 |       0.06 | *
    |      178 |        - |     1170 |     1170 |       0.06 | *
    |      179 |        - |     1162 |     1162 |       0.06 | *
    |      189 |        - |     1142 |     1142 |       0.06 | *
    |      197 |        - |     1130 |     1130 |       0.07 | *
    |      198 |        - |     1121 |     1121 |       0.07 | *
    |      202 |        - |     1095 |     1095 |       0.07 | *
    |      204 |        - |     1085 |     1085 |       0.07 | *
    |      218 |        - |     1078 |     1078 |       0.07 | *
    |      224 |        - |     1066 |     1066 |       0.07 | *
    |      233 |        - |     1062 |     1062 |       0.07 | *
    |      242 |        - |     1061 |     1061 |       0.07 | *
    |      243 |        - |     1056 |     1056 |       0.07 | *
    |      244 |        - |     1055 |     1055 |       0.07 | *
    |      250 |        - |     1053 |     1053 |       0.07 | *
    |      252 |        - |     1052 |     1052 |       0.07 | *
    |      264 |        - |     1048 |     1048 |       0.07 | *
    |      275 |        - |     1047 |     1047 |       0.07 | *
    |      279 |        - |     1043 |     1043 |       0.07 | *
    |      281 |        - |     1042 |     1042 |       0.07 | *
    |      284 |        - |     1041 |     1041 |       0.08 | *
    |      285 |        - |     1038 |     1038 |       0.08 | *
    |      294 |        - |     1033 |     1033 |       0.08 | *
    |      302 |        - |     1018 |     1018 |       0.08 | *
    |      305 |        - |     1011 |     1011 |       0.08 | *
    |      306 |        - |     1009 |     1009 |       0.08 | *
    |      308 |        - |     1007 |     1007 |       0.08 | *
    |      365 |        - |      993 |      993 |       0.08 | *
    |      373 |        - |      989 |      989 |       0.08 | *
    |      390 |        - |      967 |      967 |       0.08 | *
    |      395 |        - |      961 |      961 |       0.08 | *
    |      462 |        - |      960 |      960 |       0.08 | *
    |      463 |        - |      955 |      955 |       0.08 | *
    |      482 |        - |      954 |      954 |       0.08 | *
    |      488 |        - |      948 |      948 |       0.08 | *
    |      498 |        - |      946 |      946 |       0.08 | *
    |      499 |        - |      943 |      943 |       0.09 | *
    |      503 |        - |      941 |      941 |       0.09 | *
    |      505 |        - |      931 |      931 |       0.09 | *
    |      511 |        - |      922 |      922 |       0.09 | *
    |      535 |        - |      921 |      921 |       0.09 | *
    |      554 |        - |      919 |      919 |       0.09 | *
    |      593 |        - |      913 |      913 |       0.09 | *
    |      596 |        - |      910 |      910 |       0.09 | *
    |      601 |        - |      909 |      909 |       0.09 | *
    |      618 |        - |      906 |      906 |       0.09 | *
    |      661 |        - |      900 |      900 |       0.09 | *
    |      666 |        - |      899 |      899 |       0.09 | *
    |      670 |        - |      895 |      895 |       0.09 | *
    |      722 |        - |      893 |      893 |       0.09 | *
    |      734 |        - |      890 |      890 |       0.09 | *
    |      789 |        - |      888 |      888 |       0.09 | *
    |      801 |        - |      883 |      883 |       0.10 | *
    |      813 |        - |      882 |      882 |       0.10 | *
    |      863 |        - |      880 |      880 |       0.10 | *
    |      888 |        - |      876 |      876 |       0.10 | *
    |      890 |        - |      866 |      866 |       0.10 | *
    |      898 |        - |      863 |      863 |       0.10 | *
    |      936 |        - |      862 |      862 |       0.10 | *
    |      948 |        - |      856 |      856 |       0.10 | *
    |      974 |        - |      848 |      848 |       0.10 | *
    |     1097 |        - |      843 |      843 |       0.10 | *
    |     1147 |        - |      837 |      837 |       0.10 | *
    |     1149 |        - |      835 |      835 |       0.10 | *
    |     1192 |        - |      834 |      834 |       0.10 | *
    |     1194 |        - |      833 |      833 |       0.10 | *
    |     1209 |        - |      828 |      828 |       0.11 | *
    |     1224 |        - |      826 |      826 |       0.11 | *
    |     1225 |        - |      825 |      825 |       0.11 | *
    |     1234 |        - |      824 |      824 |       0.11 | *
    |     1331 |        - |      821 |      821 |       0.11 | *
    |     1363 |        - |      807 |      807 |       0.11 | *
    |     1376 |        - |      802 |      802 |       0.11 | *
    |     1377 |        - |      801 |      801 |       0.11 | *
    |     1383 |        - |      796 |      796 |       0.11 | *
    |     1386 |        - |      793 |      793 |       0.11 | *
    |     1439 |        - |      791 |      791 |       0.11 | *
    |     1511 |        - |      787 |      787 |       0.11 | *
    |     1521 |        - |      786 |      786 |       0.12 | *
    |     1538 |        - |      785 |      785 |       0.12 | *
    |     1551 |        - |      779 |      779 |       0.12 | *
    |     1556 |        - |      777 |      777 |       0.12 | *
    |     1608 |        - |      775 |      775 |       0.12 | *
    |     1612 |        - |      773 |      773 |       0.12 | *
    |     1624 |        - |      770 |      770 |       0.12 | *
    |     1625 |        - |      760 |      760 |       0.12 | *
    |     1704 |        - |      758 |      758 |       0.12 | *
    |     1708 |        - |      753 |      753 |       0.12 | *
    |     1762 |        - |      748 |      748 |       0.12 | *
    |     1857 |        - |      747 |      747 |       0.12 | *
    |     1858 |        - |      746 |      746 |       0.12 | *
    |     1879 |        - |      744 |      744 |       0.12 | *
    |     1887 |        - |      742 |      742 |       0.12 | *
    |     1897 |        - |      740 |      740 |       0.12 | *
    |     1899 |        - |      738 |      738 |       0.12 | *
    |     1918 |        - |      737 |      737 |       0.12 | *
    |     2132 |        - |      736 |      736 |       0.13 | *
    |     2154 |        - |      734 |      734 |       0.13 | *
    |     2169 |        - |      731 |      731 |       0.13 | *
    |     2187 |        - |      728 |      728 |       0.13 | *
    |     2241 |        - |      724 |      724 |       0.13 | *
    |     2320 |        - |      721 |      721 |       0.13 | *
    |     2347 |        - |      720 |      720 |       0.13 | *
    |     2536 |        - |      719 |      719 |       0.13 | *
    |     2557 |        - |      716 |      716 |       0.13 | *
    |     2562 |        - |      704 |      704 |       0.13 | *
    |     2571 |        - |      703 |      703 |       0.13 | *
    |     2577 |        - |      699 |      699 |       0.13 | *
    |     2582 |        - |      698 |      698 |       0.13 | *
    |     2633 |        - |      696 |      696 |       0.13 | *
    |     2659 |        - |      694 |      694 |       0.13 | *
    |     2663 |        - |      693 |      693 |       0.13 | *
    |     2762 |        - |      692 |      692 |       0.13 | *
    |     2766 |        - |      690 |      690 |       0.14 | *
    |     2885 |        - |      689 |      689 |       0.14 | *
    |     2938 |        - |      682 |      682 |       0.14 | *
    |     3170 |        - |      681 |      681 |       0.14 | *
    |     3475 |        - |      679 |      679 |       0.14 | *
    |     3492 |        - |      678 |      678 |       0.14 | *
    |     3499 |        - |      677 |      677 |       0.14 | *
    |     3532 |        - |      676 |      676 |       0.14 | *
    |     3616 |        - |      675 |      675 |       0.14 | *
    |     3635 |        - |      673 |      673 |       0.14 | *
    |     3651 |        - |      672 |      672 |       0.14 | *
    |     3665 |        - |      670 |      670 |       0.14 | *
    |     3709 |        - |      669 |      669 |       0.14 | *
    |     3716 |        - |      668 |      668 |       0.14 | *
    |     3723 |        - |      665 |      665 |       0.14 | *
    |     3731 |        - |      664 |      664 |       0.14 | *
    |     3761 |        - |      661 |      661 |       0.14 | *
    |     3965 |        - |      657 |      657 |       0.15 | *
    |     4019 |        - |      656 |      656 |       0.15 | *
    |     4029 |        - |      653 |      653 |       0.15 | *
    |     4144 |        - |      652 |      652 |       0.15 | *
    |     4206 |        - |      651 |      651 |       0.15 | *
    |     4236 |        - |      649 |      649 |       0.15 | *
    |     4367 |        - |      648 |      648 |       0.15 | *
    |     4387 |        - |      647 |      647 |       0.15 | *
    |     4480 |        - |      642 |      642 |       0.15 | *
    |     4704 |        - |      639 |      639 |       0.15 | *
    |     4900 |        - |      638 |      638 |       0.15 | *
    |     5188 |        - |      637 |      637 |       0.16 | *
    |     5189 |        - |      634 |      634 |       0.16 | *
    |     5331 |        - |      632 |      632 |       0.16 | *
    |     5501 |        - |      631 |      631 |       0.16 | *
    |     5644 |        - |      630 |      630 |       0.16 | *
    |     5710 |        - |      628 |      628 |       0.16 | *
    |     5931 |        - |      627 |      627 |       0.16 | *
    |     5965 |        - |      625 |      625 |       0.16 | *
    |     5980 |        - |      622 |      622 |       0.16 | *
    |     6091 |        - |      619 |      619 |       0.16 | *
    |     6109 |        - |      616 |      616 |       0.16 | *
    |     6219 |        - |      612 |      612 |       0.17 | *
    |     6502 |        - |      610 |      610 |       0.17 | *
    |     6778 |        - |      609 |      609 |       0.17 | *
    |     6942 |        - |      606 |      606 |       0.17 | *
    |     6948 |        - |      604 |      604 |       0.17 | *
    |     7061 |        - |      603 |      603 |       0.17 | *
    |     7140 |        - |      601 |      601 |       0.17 | *
    |     7152 |        - |      599 |      599 |       0.17 | *
    |     7159 |        - |      598 |      598 |       0.17 | *
    |     7169 |        - |      597 |      597 |       0.17 | *
    |     7486 |        - |      596 |      596 |       0.17 | *
    |     7513 |        - |      595 |      595 |       0.18 | *
    |     7544 |        - |      592 |      592 |       0.18 | *
    |     7608 |        - |      591 |      591 |       0.18 | *
    |     7614 |        - |      590 |      590 |       0.18 | *
    |     7664 |        - |      588 |      588 |       0.18 | *
    |     7673 |        - |      587 |      587 |       0.18 | *
    |     7675 |        - |      586 |      586 |       0.18 | *
    |     7714 |        - |      585 |      585 |       0.18 | *
    |     7723 |        - |      584 |      584 |       0.18 | *
    |     7953 |        - |      583 |      583 |       0.18 | *
    |     7966 |        - |      582 |      582 |       0.18 | *
    |     8026 |        - |      581 |      581 |       0.18 | *
    |     8029 |        - |      579 |      579 |       0.18 | *
    |     8089 |        - |      578 |      578 |       0.18 | *
    |     8135 |        - |      577 |      577 |       0.18 | *
    |     8239 |        - |      576 |      576 |       0.18 | *
    |     8298 |        - |      575 |      575 |       0.19 | *
    |     8307 |        - |      574 |      574 |       0.19 | *
    |     8404 |        - |      573 |      573 |       0.19 | *
    |     8736 |        - |      571 |      571 |       0.19 | *
    |     8739 |        - |      566 |      566 |       0.19 | *
    |     8751 |        - |      565 |      565 |       0.19 | *
    |     8752 |        - |      563 |      563 |       0.19 | *
    |     8837 |        - |      562 |      562 |       0.19 | *
    |     8879 |        - |      561 |      561 |       0.19 | *
    |     9082 |        - |      560 |      560 |       0.19 | *
    |     9159 |        - |      559 |      559 |       0.19 | *
    |     9187 |        - |      558 |      558 |       0.20 | *
    |     9233 |        - |      557 |      557 |       0.20 | *
    |     9288 |        - |      556 |      556 |       0.20 | *
    |     9580 |        - |      554 |      554 |       0.20 | *
    |     9608 |        - |      551 |      551 |       0.20 | *
    |     9761 |        - |      550 |      550 |       0.20 | *
    |     9989 |        - |      549 |      549 |       0.20 | *
    |      10K |        - |      545 |      545 |       0.20 | *
    |      10K |        - |      544 |      544 |       0.20 | *
    |      10K |        - |      543 |      543 |       0.20 | *
    |      10K |        - |      537 |      537 |       0.20 | *
    |      10K |        - |      536 |      536 |       0.20 | *
    |      10K |        - |      535 |      535 |       0.21 | *
    |      10K |        - |      534 |      534 |       0.21 | *
    |      10K |        - |      533 |      533 |       0.21 | *
    |      10K |        - |      532 |      532 |       0.21 | *
    |      11K |        - |      529 |      529 |       0.21 | *
    |      11K |        - |      527 |      527 |       0.21 | *
    |      11K |        - |      523 |      523 |       0.21 | *
    |      11K |        - |      522 |      522 |       0.21 | *
    |      11K |        - |      516 |      516 |       0.21 | *
    |      11K |        - |      515 |      515 |       0.21 | *
    |      11K |        - |      513 |      513 |       0.21 | *
    |      11K |        - |      512 |      512 |       0.21 | *
    |      11K |        - |      511 |      511 |       0.21 | *
    |      11K |        - |      510 |      510 |       0.22 | *
    |      11K |        - |      508 |      508 |       0.22 | *
    |      11K |        - |      507 |      507 |       0.22 | *
    |      11K |        - |      506 |      506 |       0.22 | *
    |      11K |        - |      503 |      503 |       0.22 | *
    |      11K |        - |      502 |      502 |       0.22 | *
    |      11K |        - |      500 |      500 |       0.22 | *
    |      11K |        - |      498 |      498 |       0.22 | *
    |      12K |        - |      496 |      496 |       0.22 | *
    |      12K |        - |      492 |      492 |       0.22 | *
    |      12K |        - |      490 |      490 |       0.22 | *
    |      12K |        - |      488 |      488 |       0.22 | *
    |      12K |        - |      485 |      485 |       0.22 | *
    |      13K |        - |      484 |      484 |       0.23 | *
    |      13K |        - |      482 |      482 |       0.23 | *
    |      13K |        - |      480 |      480 |       0.23 | *
    |      13K |        - |      479 |      479 |       0.23 | *
    |      14K |        - |      478 |      478 |       0.23 | *
    |      14K |        - |      477 |      477 |       0.23 | *
    |      14K |        - |      476 |      476 |       0.23 | *
    |      15K |        - |      475 |      475 |       0.24 | *
    |      16K |        - |      469 |      469 |       0.24 | *
    |      16K |        - |      467 |      467 |       0.24 | *
    |      16K |        - |      466 |      466 |       0.24 | *
    |      16K |        - |      465 |      465 |       0.24 | *
    |      16K |        - |      462 |      462 |       0.24 | *
    |      16K |        - |      461 |      461 |       0.24 | *
    |      17K |        - |      460 |      460 |       0.24 | *
    |      17K |        - |      459 |      459 |       0.24 | *
    |      17K |        - |      458 |      458 |       0.24 | *
    |      17K |        - |      457 |      457 |       0.25 | *
    |      17K |        - |      455 |      455 |       0.25 | *
    |      17K |        - |      454 |      454 |       0.25 | *
    |      18K |        - |      453 |      453 |       0.25 | *
    |      18K |        - |      451 |      451 |       0.25 | *
    |      18K |        - |      449 |      449 |       0.25 | *
    |      18K |        - |      445 |      445 |       0.25 | *
    |      20K |        - |      444 |      444 |       0.26 | *
    |      20K |        - |      443 |      443 |       0.26 | *
    |      20K |        - |      442 |      442 |       0.26 | *
    |      21K |        - |      441 |      441 |       0.26 | *
    |      21K |        - |      439 |      439 |       0.26 | *
    |      21K |        - |      438 |      438 |       0.26 | *
    |      21K |        - |      433 |      433 |       0.26 | *
    |      21K |        - |      432 |      432 |       0.27 | *
    |      22K |        - |      431 |      431 |       0.27 | *
    |      22K |        - |      428 |      428 |       0.27 | *
    |      22K |        - |      426 |      426 |       0.27 | *
    |      23K |        - |      424 |      424 |       0.27 | *
    |      23K |        - |      419 |      419 |       0.27 | *
    |      24K |        - |      418 |      418 |       0.28 | *
    |      24K |        - |      416 |      416 |       0.28 | *
    |      24K |        - |      415 |      415 |       0.28 | *
    |      24K |        - |      414 |      414 |       0.28 | *
    |      24K |        - |      413 |      413 |       0.28 | *
    |      24K |        - |      412 |      412 |       0.28 | *
    |      24K |        - |      411 |      411 |       0.28 | *
    |      25K |        - |      410 |      410 |       0.28 | *
    |      25K |        - |      406 |      406 |       0.28 | *
    |      25K |        - |      401 |      401 |       0.28 | *
    |      25K |        - |      400 |      400 |       0.28 | *
    |      27K |        - |      399 |      399 |       0.29 | *
    |      29K |        - |      397 |      397 |       0.29 | *
    |      31K |        - |      394 |      394 |       0.30 | *
    |      31K |        - |      393 |      393 |       0.30 | *
    |      31K |        - |      391 |      391 |       0.30 | *
    |      31K |        - |      390 |      390 |       0.30 | *
    |      31K |        - |      387 |      387 |       0.30 | *
    |      31K |        - |      385 |      385 |       0.30 | *
    |      32K |        - |      384 |      384 |       0.31 | *
    |      32K |        - |      383 |      383 |       0.31 | *
    |      32K |        - |      381 |      381 |       0.31 | *
    |      32K |        - |      380 |      380 |       0.31 | *
    |      33K |        - |      379 |      379 |       0.31 | *
    |      33K |        - |      378 |      378 |       0.31 | *
    |      34K |        - |      377 |      377 |       0.31 | *
    |      34K |        - |      376 |      376 |       0.32 | *
    |      38K |        - |      374 |      374 |       0.33 | *
    |      38K |        - |      373 |      373 |       0.33 | *
    |      38K |        - |      372 |      372 |       0.33 | *
    |      39K |        - |      371 |      371 |       0.33 | *
    |      41K |        - |      369 |      369 |       0.33 | *
    |      41K |        - |      367 |      367 |       0.34 | *
    |      41K |        - |      366 |      366 |       0.34 | *
    |      45K |        - |      365 |      365 |       0.35 | *
    |      47K |        - |      363 |      363 |       0.35 | *
    |      47K |        - |      362 |      362 |       0.35 | *
    |      48K |        - |      361 |      361 |       0.36 | *
    |      49K |        - |      360 |      360 |       0.36 | *
    |      51K |        - |      359 |      359 |       0.37 | *
    |      51K |        - |      358 |      358 |       0.37 | *
    |      52K |        - |      357 |      357 |       0.37 | *
    |      52K |        - |      356 |      356 |       0.37 | *
    |      52K |        - |      354 |      354 |       0.37 | *
    |      55K |        - |      353 |      353 |       0.38 | *
    |      55K |        - |      352 |      352 |       0.38 | *
    |      55K |        - |      350 |      350 |       0.38 | *
    |      56K |        - |      349 |      349 |       0.39 | *
    |      56K |        - |      348 |      348 |       0.39 | *
    |      56K |        - |      347 |      347 |       0.39 | *
    |      57K |        - |      345 |      345 |       0.39 | *
    |      57K |        - |      341 |      341 |       0.39 | *
    |      58K |        - |      340 |      340 |       0.40 | *
    |      60K |        - |      339 |      339 |       0.40 | *
    |      64K |        - |      337 |      337 |       0.41 | *
    |      65K |        - |      335 |      335 |       0.41 | *
    |      65K |        - |      334 |      334 |       0.42 | *
    |      66K |        - |      333 |      333 |       0.42 | *
    |      71K |        - |      330 |      330 |       0.43 | *
    |      83K |        - |      329 |      329 |       0.46 | *
    |      85K |        - |      328 |      328 |       0.46 | *
    |      86K |        - |      326 |      326 |       0.47 | *
    |      89K |        - |      324 |      324 |       0.48 | *
    |      91K |        - |      323 |      323 |       0.48 | *
    |      91K |        - |      322 |      322 |       0.48 | *
    |      99K |        - |      321 |      321 |       0.51 | *
    |     101K |        - |      319 |      319 |       0.51 | *
    |     102K |        - |      318 |      318 |       0.52 | *
    |     107K |        - |      316 |      316 |       0.53 | *
    |     107K |        - |      315 |      315 |       0.53 | *
    |     108K |        - |      313 |      313 |       0.54 | *
    |     113K |        - |      312 |      312 |       0.55 | *
    |     113K |        - |      311 |      311 |       0.55 | *
    |     113K |        - |      308 |      308 |       0.56 | *
    |     120K |        - |      307 |      307 |       0.57 | *
    |     124K |        - |      306 |      306 |       0.59 | *
    |     124K |        - |      305 |      305 |       0.59 | *
    |     136K |        - |      304 |      304 |       0.63 | *
    |     137K |        - |      302 |      302 |       0.63 | *
    |     138K |        - |      300 |      300 |       0.63 | *
    |     141K |        - |      299 |      299 |       0.64 | *
    |     143K |        - |      298 |      298 |       0.65 | *
    |     144K |        - |      297 |      297 |       0.65 | *
    |     145K |        - |      296 |      296 |       0.66 | *
    |     145K |        - |      294 |      294 |       0.66 | *
    |     186K |        - |      293 |      293 |       0.80 | *
    |     210K |        - |      292 |      292 |       0.87 | *
    |     253K |        - |      291 |      291 |       0.97 | *
    |     254K |        - |      290 |      290 |       0.97 | *
    |     254K |        - |      289 |      289 |       0.97 | *
    |     264K |        - |      288 |      288 |       1.00 | *
    |     265K |        - |      287 |      287 |       1.00 | *
    |     265K |        - |      286 |      286 |       1.00 | *
    |     265K |        - |      285 |      285 |       1.00 | *
    |     271K |        - |      282 |      282 |       1.01 | *
    |     274K |        - |      281 |      281 |       1.01 | *
    |     276K |        - |      280 |      280 |       1.02 | *
    |     276K |        - |      279 |      279 |       1.02 | *
    |     283K |        - |      278 |      278 |       1.03 | *
    |     296K |        - |      277 |      277 |       1.05 | *
    |     344K |        - |      276 |      276 |       1.11 | *
    |     345K |        - |      275 |      275 |       1.11 | *
    |     348K |        - |      274 |      274 |       1.12 | *
    |     355K |        - |      273 |      273 |       1.13 | *
    |     396K |        - |      272 |      272 |       1.18 | *
    |     396K |        - |      270 |      270 |       1.19 | *
    |     396K |        - |      269 |      269 |       1.19 | *
    |     396K |        - |      268 |      268 |       1.19 | *
    |     397K |        - |      267 |      267 |       1.19 | *
    |     419K |        - |      266 |      266 |       1.23 | *
    |     433K |        - |      265 |      265 |       1.26 | *
    |     470K |        - |      264 |      264 |       1.34 | *
    |     471K |        - |      263 |      263 |       1.34 | *
    |     471K |        - |      262 |      262 |       1.34 | *
    |     502K |        - |      261 |      261 |       1.38 | *
    |     502K |        - |      260 |      260 |       1.38 | *
    |     557K |        - |      258 |      258 |       1.46 | *
    |     656K |        - |      257 |      257 |       1.60 | *
    |     658K |        - |      256 |      256 |       1.60 | *
    |     671K |        - |      254 |      254 |       1.63 | *
    |     685K |        - |      253 |      253 |       1.65 | *
    |     686K |        - |      252 |      252 |       1.65 | *
    |     686K |        - |      251 |      251 |       1.65 | *
    |     796K |        - |      250 |      250 |       1.79 | *
    |     840K |        - |      249 |      249 |       1.83 | *
    |    1002K |        - |      248 |      248 |       1.95 | *
    |    1111K |        - |      247 |      247 |       2.03 | *
    |    1696K |        - |      246 |      246 |       2.48 | *
    |    1708K |        - |      244 |      244 |       2.49 | *
    |    1713K |        - |      243 |      243 |       2.50 | *
    |    1727K |        - |      242 |      242 |       2.51 | *
    |    1728K |        - |      241 |      241 |       2.51 | *
    |    1821K |        - |      240 |      240 |       2.58 | *
    |    1822K |        - |      239 |      239 |       2.58 | *
    |    1961K |        - |      238 |      238 |       2.68 | *
    |    2030K |        - |      237 |      237 |       2.74 | *
    |    2181K |        - |      236 |      236 |       2.85 | *
    |    2594K |        - |      235 |      235 |       3.16 | *
    |    2851K |        - |      234 |      234 |       3.35 | *
    |    2860K |        - |      233 |      233 |       3.36 | *
    |    2948K |        - |      232 |      232 |       3.43 | *
    |    2949K |        - |      231 |      231 |       3.43 | *
    |    3239K |        - |      230 |      230 |       3.65 | *
    |    3244K |        - |      229 |      229 |       3.65 | *
    |    3245K |        - |      228 |      228 |       3.65 | *
    |    3309K |        - |      227 |      227 |       3.70 | *
    |    3924K |        - |      226 |      226 |       4.16 | *
    |    4066K |        - |      225 |      225 |       4.26 | *
    |    4177K |        - |      224 |      224 |       4.34 | *
    |    4685K |        - |      223 |      223 |       4.74 | *
    |    4880K |        - |      222 |      222 |       4.89 | *
    |    5339K |        - |      221 |      221 |       5.24 | *
    |    5355K |        - |      220 |      220 |       5.25 | *
    |    5355K |        - |      219 |      219 |       5.25 | *
    |    5360K |        - |      218 |      218 |       5.25 | *
    |    5964K |        - |      217 |      217 |       5.69 | *
    |    6425K |        - |      216 |      216 |       6.04 | *
    |      11M |        - |      214 |      214 |       9.80 | *
    |      11M |        - |      213 |      213 |       9.80 | *
    |      12M |        - |      212 |      212 |       9.93 | *
    |      19M |        - |      211 |      211 |      15.54 | *
    |      19M |        - |      210 |      210 |      15.55 | *
    |      20M |        - |      209 |      209 |      16.49 | *
    |      49M |        - |      208 |      208 |      37.81 | *
    |      49M |        - |      207 |      207 |      38.25 | *
    |      80M |        - |      206 |      206 |      60.93 | *
    |      83M |        - |      205 |      205 |      63.24 | *
    |      84M |        - |      204 |      204 |      64.18 | *
    |      86M |        - |      203 |      203 |      65.81 | *
    |      96M |        - |      202 |      202 |      73.04 | *
    |     102M |        - |      201 |      201 |      77.67 | *
    |     106M |        - |      200 |      200 |      80.55 | *
    |     106M |        - |      199 |      199 |      80.56 | *
    |     106M |        - |      198 |      198 |      80.56 | *
    |     204M |        - |      197 |      197 |     154.57 | *
    |     211M |        - |      196 |      196 |     159.29 | *
    |     293M |        - |      195 |      195 |     221.38 | *
    |     557M |        - |      194 |      194 |     421.02 | *
    |    2035M |        - |      193 |      193 |    1493.40 | *
    \--------------------------------------------------------/

Neighborhoods statistics (values in %):

    /----------------------------------------------------------------\
    | Move               | Improvs. | Sideways |  Accepts |  Rejects |
    |--------------------|----------|----------|----------|----------|
    | Shift(mk)          |     7253 |      13K |      23K |     213M |
    | Shift              |      474 |     456K |     461K |     213M |
    | ShiftSmart(mk)     |      94K |     147K |     281K |     212M |
    | ShiftSmart         |     6290 |    5017K |    5081K |     208M |
    | SimpSwap(mk)       |       15 |       27 |       44 |     213M |
    | SimpSwap           |        3 |      186 |      213 |     213M |
    | SimpSwapSmart(mk)  |      212 |      336 |      602 |     213M |
    | SimpSwapSmart      |       35 |     2149 |     2337 |     213M |
    | Swap(mk)           |        4 |        3 |        7 |     213M |
    | Swap               |        2 |       31 |       36 |     213M |
    | SwapSmart(mk)      |      246 |      432 |      788 |     213M |
    | SwapSmart          |       26 |     3498 |     3690 |     213M |
    | Switch(mk)         |     1560 |      18M |      18M |     195M |
    | Switch             |      105 |      17M |      17M |     196M |
    | SwitchSmart(mk)    |      19K |      70K |      97K |     213M |
    | SwitchSmart        |     1305 |    1966K |    1981K |     211M |
    | TaskMove(mk)       |      241 |      444 |      754 |     213M |
    | TaskMove           |       28 |     2340 |     2534 |     213M |
    | TaskMoveSmart(mk)  |     2805 |     5803 |     9747 |     213M |
    | TaskMoveSmart      |      284 |      26K |      28K |     213M |
    | 2-Shift(mk)        |     1325 |    1748K |    1750K |     211M |
    | 2-Shift            |       85 |    1584K |    1585K |     211M |
    | 2-ShiftSmart(mk)   |      10K |    2001K |    2013K |     211M |
    | 2-ShiftSmart       |      671 |    2592K |    2600K |     210M |
    \----------------------------------------------------------------/

Best makespan.....: 193
N. of Iterations..: 5107451871
Total runtime.....: 3600.01s
Using Python-MIP package version 1.6.8
Começo a execução
    /-------------------------------------------------------------------------------\
    |    Makespan   |   Free Jobs   | Free Machines |    It. Time   |   Total Time  | 
    |-------------------------------------------------------------------------------|
    \-------------------------------------------------------------------------------/
Terminou a execução
