Instance....: instances/I_200_30_S_1-9_6.txt
Algorithm...: Simulated Annealing (alpha=0.990, saMax=10M, t0=1)
Other params: maxIters=100M, seed=-1, timeLimit=3600.00s

    /--------------------------------------------------------\
    |     Iter |   RDP(%) |       S* |       S' |       Time | 
    |----------|----------|----------|----------|------------|
    |        0 |        - |      749 |      749 |       0.00 | s0
    |        1 |        - |      741 |      741 |       0.01 | *
    |        2 |        - |      732 |      732 |       0.01 | *
    |        5 |        - |      727 |      727 |       0.02 | *
    |        6 |        - |      726 |      726 |       0.02 | *
    |        7 |        - |      693 |      693 |       0.03 | *
    |        9 |        - |      681 |      681 |       0.03 | *
    |       10 |        - |      677 |      677 |       0.03 | *
    |       13 |        - |      656 |      656 |       0.03 | *
    |       15 |        - |      626 |      626 |       0.03 | *
    |       21 |        - |      625 |      625 |       0.04 | *
    |       29 |        - |      624 |      624 |       0.04 | *
    |       49 |        - |      620 |      620 |       0.04 | *
    |       51 |        - |      616 |      616 |       0.04 | *
    |       53 |        - |      614 |      614 |       0.04 | *
    |       55 |        - |      604 |      604 |       0.04 | *
    |       56 |        - |      594 |      594 |       0.04 | *
    |       59 |        - |      591 |      591 |       0.04 | *
    |       63 |        - |      585 |      585 |       0.04 | *
    |       64 |        - |      584 |      584 |       0.04 | *
    |       65 |        - |      578 |      578 |       0.04 | *
    |       69 |        - |      557 |      557 |       0.04 | *
    |       74 |        - |      552 |      552 |       0.04 | *
    |       76 |        - |      549 |      549 |       0.05 | *
    |       77 |        - |      546 |      546 |       0.05 | *
    |       80 |        - |      545 |      545 |       0.05 | *
    |       87 |        - |      531 |      531 |       0.05 | *
    |       93 |        - |      528 |      528 |       0.05 | *
    |       94 |        - |      512 |      512 |       0.05 | *
    |       99 |        - |      510 |      510 |       0.05 | *
    |      105 |        - |      504 |      504 |       0.05 | *
    |      115 |        - |      500 |      500 |       0.05 | *
    |      122 |        - |      498 |      498 |       0.05 | *
    |      124 |        - |      486 |      486 |       0.05 | *
    |      125 |        - |      485 |      485 |       0.05 | *
    |      126 |        - |      484 |      484 |       0.05 | *
    |      135 |        - |      478 |      478 |       0.05 | *
    |      144 |        - |      469 |      469 |       0.06 | *
    |      146 |        - |      465 |      465 |       0.06 | *
    |      152 |        - |      462 |      462 |       0.06 | *
    |      157 |        - |      461 |      461 |       0.06 | *
    |      158 |        - |      460 |      460 |       0.06 | *
    |      159 |        - |      456 |      456 |       0.06 | *
    |      161 |        - |      452 |      452 |       0.06 | *
    |      162 |        - |      448 |      448 |       0.06 | *
    |      169 |        - |      444 |      444 |       0.06 | *
    |      171 |        - |      442 |      442 |       0.06 | *
    |      174 |        - |      441 |      441 |       0.06 | *
    |      176 |        - |      440 |      440 |       0.06 | *
    |      182 |        - |      439 |      439 |       0.06 | *
    |      184 |        - |      437 |      437 |       0.06 | *
    |      204 |        - |      432 |      432 |       0.06 | *
    |      205 |        - |      431 |      431 |       0.07 | *
    |      220 |        - |      428 |      428 |       0.07 | *
    |      223 |        - |      427 |      427 |       0.07 | *
    |      227 |        - |      423 |      423 |       0.07 | *
    |      229 |        - |      422 |      422 |       0.07 | *
    |      249 |        - |      421 |      421 |       0.07 | *
    |      261 |        - |      419 |      419 |       0.07 | *
    |      263 |        - |      412 |      412 |       0.07 | *
    |      266 |        - |      411 |      411 |       0.07 | *
    |      267 |        - |      410 |      410 |       0.07 | *
    |      270 |        - |      409 |      409 |       0.07 | *
    |      271 |        - |      408 |      408 |       0.07 | *
    |      287 |        - |      406 |      406 |       0.07 | *
    |      292 |        - |      405 |      405 |       0.07 | *
    |      302 |        - |      403 |      403 |       0.07 | *
    |      307 |        - |      399 |      399 |       0.08 | *
    |      314 |        - |      398 |      398 |       0.08 | *
    |      316 |        - |      396 |      396 |       0.08 | *
    |      320 |        - |      395 |      395 |       0.08 | *
    |      326 |        - |      394 |      394 |       0.08 | *
    |      340 |        - |      388 |      388 |       0.08 | *
    |      341 |        - |      385 |      385 |       0.08 | *
    |      342 |        - |      381 |      381 |       0.08 | *
    |      348 |        - |      380 |      380 |       0.08 | *
    |      353 |        - |      378 |      378 |       0.08 | *
    |      365 |        - |      375 |      375 |       0.08 | *
    |      420 |        - |      374 |      374 |       0.08 | *
    |      421 |        - |      373 |      373 |       0.08 | *
    |      423 |        - |      369 |      369 |       0.08 | *
    |      431 |        - |      368 |      368 |       0.08 | *
    |      433 |        - |      367 |      367 |       0.08 | *
    |      444 |        - |      366 |      366 |       0.08 | *
    |      453 |        - |      364 |      364 |       0.09 | *
    |      454 |        - |      363 |      363 |       0.09 | *
    |      462 |        - |      358 |      358 |       0.09 | *
    |      472 |        - |      356 |      356 |       0.09 | *
    |      475 |        - |      352 |      352 |       0.09 | *
    |      528 |        - |      347 |      347 |       0.09 | *
    |      549 |        - |      342 |      342 |       0.09 | *
    |      553 |        - |      341 |      341 |       0.09 | *
    |      565 |        - |      337 |      337 |       0.09 | *
    |      568 |        - |      336 |      336 |       0.09 | *
    |      574 |        - |      333 |      333 |       0.09 | *
    |      576 |        - |      330 |      330 |       0.09 | *
    |      590 |        - |      329 |      329 |       0.09 | *
    |      609 |        - |      327 |      327 |       0.09 | *
    |      616 |        - |      325 |      325 |       0.09 | *
    |      619 |        - |      323 |      323 |       0.09 | *
    |      622 |        - |      321 |      321 |       0.09 | *
    |      632 |        - |      318 |      318 |       0.09 | *
    |      652 |        - |      316 |      316 |       0.10 | *
    |      661 |        - |      315 |      315 |       0.10 | *
    |      664 |        - |      314 |      314 |       0.10 | *
    |      668 |        - |      313 |      313 |       0.10 | *
    |      670 |        - |      311 |      311 |       0.10 | *
    |      677 |        - |      309 |      309 |       0.10 | *
    |      687 |        - |      308 |      308 |       0.10 | *
    |      690 |        - |      307 |      307 |       0.10 | *
    |      701 |        - |      303 |      303 |       0.10 | *
    |      705 |        - |      300 |      300 |       0.10 | *
    |      706 |        - |      299 |      299 |       0.10 | *
    |      713 |        - |      298 |      298 |       0.10 | *
    |      727 |        - |      297 |      297 |       0.10 | *
    |      737 |        - |      296 |      296 |       0.10 | *
    |      738 |        - |      295 |      295 |       0.10 | *
    |      740 |        - |      293 |      293 |       0.10 | *
    |      753 |        - |      292 |      292 |       0.10 | *
    |      758 |        - |      288 |      288 |       0.10 | *
    |      764 |        - |      285 |      285 |       0.10 | *
    |      770 |        - |      282 |      282 |       0.11 | *
    |      787 |        - |      281 |      281 |       0.11 | *
    |      838 |        - |      280 |      280 |       0.11 | *
    |      854 |        - |      279 |      279 |       0.11 | *
    |      855 |        - |      277 |      277 |       0.11 | *
    |      857 |        - |      276 |      276 |       0.11 | *
    |      862 |        - |      273 |      273 |       0.11 | *
    |      885 |        - |      271 |      271 |       0.11 | *
    |      894 |        - |      269 |      269 |       0.11 | *
    |      927 |        - |      268 |      268 |       0.11 | *
    |      946 |        - |      267 |      267 |       0.11 | *
    |      950 |        - |      265 |      265 |       0.11 | *
    |      951 |        - |      263 |      263 |       0.11 | *
    |      968 |        - |      259 |      259 |       0.11 | *
    |      972 |        - |      256 |      256 |       0.11 | *
    |      985 |        - |      254 |      254 |       0.12 | *
    |     1007 |        - |      253 |      253 |       0.12 | *
    |     1021 |        - |      252 |      252 |       0.12 | *
    |     1030 |        - |      251 |      251 |       0.12 | *
    |     1041 |        - |      250 |      250 |       0.12 | *
    |     1042 |        - |      249 |      249 |       0.12 | *
    |     1043 |        - |      248 |      248 |       0.12 | *
    |     1159 |        - |      247 |      247 |       0.12 | *
    |     1189 |        - |      246 |      246 |       0.12 | *
    |     1190 |        - |      245 |      245 |       0.12 | *
    |     1202 |        - |      244 |      244 |       0.12 | *
    |     1227 |        - |      243 |      243 |       0.12 | *
    |     1245 |        - |      241 |      241 |       0.12 | *
    |     1251 |        - |      240 |      240 |       0.12 | *
    |     1261 |        - |      239 |      239 |       0.12 | *
    |     1292 |        - |      238 |      238 |       0.12 | *
    |     1305 |        - |      237 |      237 |       0.12 | *
    |     1308 |        - |      236 |      236 |       0.12 | *
    |     1317 |        - |      235 |      235 |       0.12 | *
    |     1334 |        - |      234 |      234 |       0.12 | *
    |     1338 |        - |      233 |      233 |       0.12 | *
    |     1360 |        - |      232 |      232 |       0.13 | *
    |     1391 |        - |      231 |      231 |       0.13 | *
    |     1397 |        - |      230 |      230 |       0.13 | *
    |     1411 |        - |      229 |      229 |       0.13 | *
    |     1422 |        - |      227 |      227 |       0.13 | *
    |     1431 |        - |      226 |      226 |       0.13 | *
    |     1436 |        - |      225 |      225 |       0.13 | *
    |     1479 |        - |      224 |      224 |       0.13 | *
    |     1546 |        - |      223 |      223 |       0.13 | *
    |     1588 |        - |      222 |      222 |       0.13 | *
    |     1619 |        - |      221 |      221 |       0.13 | *
    |     1640 |        - |      220 |      220 |       0.13 | *
    |     1641 |        - |      219 |      219 |       0.13 | *
    |     1666 |        - |      218 |      218 |       0.13 | *
    |     1667 |        - |      217 |      217 |       0.13 | *
    |     1684 |        - |      216 |      216 |       0.13 | *
    |     1691 |        - |      214 |      214 |       0.13 | *
    |     1709 |        - |      213 |      213 |       0.13 | *
    |     1710 |        - |      212 |      212 |       0.14 | *
    |     1729 |        - |      211 |      211 |       0.14 | *
    |     1753 |        - |      210 |      210 |       0.14 | *
    |     1772 |        - |      209 |      209 |       0.14 | *
    |     1777 |        - |      208 |      208 |       0.14 | *
    |     1793 |        - |      207 |      207 |       0.14 | *
    |     1828 |        - |      206 |      206 |       0.14 | *
    |     1857 |        - |      205 |      205 |       0.14 | *
    |     1907 |        - |      204 |      204 |       0.14 | *
    |     1949 |        - |      203 |      203 |       0.14 | *
    |     1950 |        - |      202 |      202 |       0.14 | *
    |     1966 |        - |      201 |      201 |       0.14 | *
    |     1981 |        - |      200 |      200 |       0.14 | *
    |     1982 |        - |      199 |      199 |       0.14 | *
    |     1983 |        - |      198 |      198 |       0.14 | *
    |     2001 |        - |      197 |      197 |       0.15 | *
    |     2037 |        - |      196 |      196 |       0.15 | *
    |     2065 |        - |      195 |      195 |       0.15 | *
    |     2069 |        - |      194 |      194 |       0.15 | *
    |     2070 |        - |      193 |      193 |       0.15 | *
    |     2087 |        - |      192 |      192 |       0.15 | *
    |     2123 |        - |      191 |      191 |       0.15 | *
    |     2158 |        - |      190 |      190 |       0.15 | *
    |     2187 |        - |      189 |      189 |       0.15 | *
    |     2190 |        - |      188 |      188 |       0.15 | *
    |     2209 |        - |      187 |      187 |       0.15 | *
    |     2219 |        - |      186 |      186 |       0.15 | *
    |     2233 |        - |      185 |      185 |       0.15 | *
    |     2257 |        - |      184 |      184 |       0.15 | *
    |     2280 |        - |      183 |      183 |       0.15 | *
    |     2290 |        - |      182 |      182 |       0.15 | *
    |     2302 |        - |      181 |      181 |       0.15 | *
    |     2321 |        - |      180 |      180 |       0.16 | *
    |     2400 |        - |      179 |      179 |       0.16 | *
    |     2402 |        - |      178 |      178 |       0.16 | *
    |     2461 |        - |      177 |      177 |       0.16 | *
    |     2505 |        - |      176 |      176 |       0.16 | *
    |     2605 |        - |      175 |      175 |       0.16 | *
    |     2607 |        - |      174 |      174 |       0.16 | *
    |     2613 |        - |      173 |      173 |       0.16 | *
    |     2617 |        - |      172 |      172 |       0.16 | *
    |     2618 |        - |      170 |      170 |       0.16 | *
    |     2759 |        - |      169 |      169 |       0.16 | *
    |     2783 |        - |      166 |      166 |       0.16 | *
    |     2825 |        - |      165 |      165 |       0.16 | *
    |     2830 |        - |      164 |      164 |       0.16 | *
    |     2842 |        - |      163 |      163 |       0.17 | *
    |     2848 |        - |      162 |      162 |       0.17 | *
    |     2870 |        - |      161 |      161 |       0.17 | *
    |     2888 |        - |      160 |      160 |       0.17 | *
    |     3000 |        - |      159 |      159 |       0.17 | *
    |     3044 |        - |      158 |      158 |       0.17 | *
    |     3085 |        - |      156 |      156 |       0.17 | *
    |     3152 |        - |      155 |      155 |       0.17 | *
    |     3184 |        - |      154 |      154 |       0.17 | *
    |     3215 |        - |      153 |      153 |       0.17 | *
    |     3267 |        - |      152 |      152 |       0.17 | *
    |     3280 |        - |      151 |      151 |       0.17 | *
    |     3283 |        - |      150 |      150 |       0.17 | *
    |     3377 |        - |      149 |      149 |       0.18 | *
    |     3462 |        - |      148 |      148 |       0.18 | *
    |     3514 |        - |      147 |      147 |       0.18 | *
    |     3777 |        - |      146 |      146 |       0.18 | *
    |     3809 |        - |      145 |      145 |       0.18 | *
    |     3991 |        - |      144 |      144 |       0.18 | *
    |     4071 |        - |      143 |      143 |       0.18 | *
    |     4198 |        - |      142 |      142 |       0.18 | *
    |     4258 |        - |      141 |      141 |       0.18 | *
    |     4292 |        - |      140 |      140 |       0.18 | *
    |     4337 |        - |      139 |      139 |       0.18 | *
    |     4369 |        - |      138 |      138 |       0.18 | *
    |     4511 |        - |      137 |      137 |       0.19 | *
    |     4621 |        - |      136 |      136 |       0.19 | *
    |     4667 |        - |      135 |      135 |       0.19 | *
    |     4695 |        - |      134 |      134 |       0.19 | *
    |     4720 |        - |      133 |      133 |       0.19 | *
    |     4892 |        - |      132 |      132 |       0.19 | *
    |     5153 |        - |      131 |      131 |       0.19 | *
    |     5191 |        - |      130 |      130 |       0.19 | *
    |     5350 |        - |      129 |      129 |       0.19 | *
    |     5478 |        - |      128 |      128 |       0.19 | *
    |     5555 |        - |      127 |      127 |       0.19 | *
    |     5941 |        - |      126 |      126 |       0.20 | *
    |     5948 |        - |      125 |      125 |       0.20 | *
    |     6160 |        - |      124 |      124 |       0.20 | *
    |     6172 |        - |      123 |      123 |       0.20 | *
    |     6194 |        - |      122 |      122 |       0.20 | *
    |     6253 |        - |      121 |      121 |       0.20 | *
    |     6336 |        - |      120 |      120 |       0.20 | *
    |     7346 |        - |      119 |      119 |       0.20 | *
    |     7417 |        - |      118 |      118 |       0.20 | *
    |     7443 |        - |      117 |      117 |       0.21 | *
    |     7591 |        - |      116 |      116 |       0.21 | *
    |     7764 |        - |      115 |      115 |       0.21 | *
    |     8068 |        - |      114 |      114 |       0.21 | *
    |     8211 |        - |      113 |      113 |       0.21 | *
    |     8214 |        - |      112 |      112 |       0.21 | *
    |     8233 |        - |      111 |      111 |       0.21 | *
    |     8249 |        - |      110 |      110 |       0.21 | *
    |     8572 |        - |      109 |      109 |       0.21 | *
    |     8602 |        - |      108 |      108 |       0.21 | *
    |     8621 |        - |      107 |      107 |       0.21 | *
    |     8676 |        - |      106 |      106 |       0.22 | *
    |     8908 |        - |      105 |      105 |       0.22 | *
    |     9543 |        - |      104 |      104 |       0.22 | *
    |     9597 |        - |      103 |      103 |       0.22 | *
    |     9694 |        - |      102 |      102 |       0.22 | *
    |      10K |        - |      101 |      101 |       0.22 | *
    |      10K |        - |      100 |      100 |       0.22 | *
    |      11K |        - |       99 |       99 |       0.23 | *
    |      11K |        - |       98 |       98 |       0.23 | *
    |      11K |        - |       97 |       97 |       0.23 | *
    |      12K |        - |       96 |       96 |       0.23 | *
    |      12K |        - |       95 |       95 |       0.23 | *
    |      12K |        - |       94 |       94 |       0.23 | *
    |      13K |        - |       93 |       93 |       0.23 | *
    |      13K |        - |       92 |       92 |       0.23 | *
    |      13K |        - |       91 |       91 |       0.23 | *
    |      13K |        - |       90 |       90 |       0.23 | *
    |      14K |        - |       89 |       89 |       0.23 | *
    |      14K |        - |       88 |       88 |       0.24 | *
    |      14K |        - |       87 |       87 |       0.24 | *
    |      14K |        - |       86 |       86 |       0.24 | *
    |      15K |        - |       85 |       85 |       0.24 | *
    |      16K |        - |       84 |       84 |       0.24 | *
    |      16K |        - |       83 |       83 |       0.24 | *
    |      17K |        - |       82 |       82 |       0.24 | *
    |      19K |        - |       81 |       81 |       0.24 | *
    |      19K |        - |       80 |       80 |       0.24 | *
    |      19K |        - |       79 |       79 |       0.25 | *
    |      19K |        - |       78 |       78 |       0.25 | *
    |      20K |        - |       77 |       77 |       0.25 | *
    |      21K |        - |       76 |       76 |       0.25 | *
    |      21K |        - |       75 |       75 |       0.25 | *
    |      22K |        - |       74 |       74 |       0.25 | *
    |      23K |        - |       73 |       73 |       0.25 | *
    |      27K |        - |       72 |       72 |       0.26 | *
    |      28K |        - |       71 |       71 |       0.26 | *
    |      39K |        - |       70 |       70 |       0.27 | *
    |      39K |        - |       69 |       69 |       0.27 | *
    |      43K |        - |       68 |       68 |       0.28 | *
    |      43K |        - |       67 |       67 |       0.28 | *
    |      46K |        - |       66 |       66 |       0.28 | *
    |      46K |        - |       65 |       65 |       0.28 | *
    |      47K |        - |       64 |       64 |       0.28 | *
    |      69K |        - |       63 |       63 |       0.32 | *
    |      74K |        - |       62 |       62 |       0.33 | *
    |      91K |        - |       61 |       61 |       0.36 | *
    |      92K |        - |       60 |       60 |       0.36 | *
    |      93K |        - |       59 |       59 |       0.37 | *
    |     214K |        - |       58 |       58 |       0.68 | *
    |     218K |        - |       57 |       57 |       0.69 | *
    |     510K |        - |       56 |       56 |       1.14 | *
    |     769K |        - |       55 |       55 |       1.42 | *
    |    1264K |        - |       54 |       54 |       1.80 | *
    |      17M |        - |       53 |       53 |      15.35 | *
    |      17M |        - |       52 |       52 |      15.98 | *
    |     129M |        - |       51 |       51 |      96.68 | *
    |     177M |        - |       50 |       50 |     130.70 | *
    |     259M |        - |       49 |       49 |     188.08 | *
    |     337M |        - |       48 |       48 |     243.62 | *
    |     443M |        - |       47 |       47 |     317.97 | *
    |     538M |        - |       46 |       46 |     385.00 | *
    |     546M |        - |       45 |       45 |     390.81 | *
    |     801M |        - |       44 |       44 |     569.76 | *
    |    1038M |        - |       43 |       43 |     735.56 | *
    |    1264M |        - |       42 |       42 |     892.94 | *
    |    2682M |        - |       41 |       41 |    1885.73 | *
    \--------------------------------------------------------/

Neighborhoods statistics (values in %):

    /----------------------------------------------------------------\
    | Move               | Improvs. | Sideways |  Accepts |  Rejects |
    |--------------------|----------|----------|----------|----------|
    | Shift(mk)          |     839K |    4424K |    5810K |     210M |
    | Shift              |      28K |      22M |      23M |     193M |
    | ShiftSmart(mk)     |    2916K |      17M |      21M |     195M |
    | ShiftSmart         |      97K |      61M |      62M |     153M |
    | SimpSwap(mk)       |     5443 |      16K |      25K |     216M |
    | SimpSwap           |      393 |      52K |      59K |     216M |
    | SimpSwapSmart(mk)  |      30K |      88K |     137K |     216M |
    | SimpSwapSmart      |     2013 |     269K |     304K |     215M |
    | Swap(mk)           |     3989 |      11K |      17K |     216M |
    | Swap               |      264 |      37K |      43K |     216M |
    | SwapSmart(mk)      |      17K |      50K |      76K |     216M |
    | SwapSmart          |     1157 |     142K |     156K |     215M |
    | Switch(mk)         |     530K |      31M |      32M |     184M |
    | Switch             |      17K |      47M |      47M |     168M |
    | SwitchSmart(mk)    |    1568K |    7236K |    9574K |     206M |
    | SwitchSmart        |      52K |      32M |      33M |     183M |
    | TaskMove(mk)       |      42K |     107K |     170K |     215M |
    | TaskMove           |     1369 |     163K |     185K |     216M |
    | TaskMoveSmart(mk)  |     121K |     343K |     520K |     215M |
    | TaskMoveSmart      |     4302 |     516K |     575K |     215M |
    | 2-Shift(mk)        |     543K |    7583K |    8438K |     207M |
    | 2-Shift            |      18K |      21M |      22M |     194M |
    | 2-ShiftSmart(mk)   |    2500K |      19M |      23M |     193M |
    | 2-ShiftSmart       |      83K |      51M |      52M |     164M |
    \----------------------------------------------------------------/

Best makespan.....: 41
N. of Iterations..: 5178109459
Total runtime.....: 3600.02s
Using Python-MIP package version 1.6.8
Começo a execução
    /-------------------------------------------------------------------------------\
    |    Makespan   |   Free Jobs   | Free Machines |    It. Time   |   Total Time  | 
    |-------------------------------------------------------------------------------|
    \-------------------------------------------------------------------------------/
Terminou a execução
