Instance....: instances/I_200_20_S_1-49_9.txt
Algorithm...: Simulated Annealing (alpha=0.990, saMax=10M, t0=1)
Other params: maxIters=100M, seed=-1, timeLimit=3600.00s

    /--------------------------------------------------------\
    |     Iter |   RDP(%) |       S* |       S' |       Time | 
    |----------|----------|----------|----------|------------|
    |        0 |        - |     1175 |     1175 |       0.00 | s0
    |        3 |        - |     1148 |     1148 |       0.02 | *
    |        4 |        - |     1112 |     1112 |       0.02 | *
    |        7 |        - |     1074 |     1074 |       0.02 | *
    |        8 |        - |     1072 |     1072 |       0.02 | *
    |        9 |        - |     1064 |     1064 |       0.02 | *
    |       13 |        - |     1039 |     1039 |       0.03 | *
    |       27 |        - |     1005 |     1005 |       0.03 | *
    |       35 |        - |      976 |      976 |       0.03 | *
    |       39 |        - |      973 |      973 |       0.03 | *
    |       46 |        - |      950 |      950 |       0.03 | *
    |       48 |        - |      942 |      942 |       0.03 | *
    |       67 |        - |      931 |      931 |       0.04 | *
    |       68 |        - |      923 |      923 |       0.04 | *
    |       69 |        - |      919 |      919 |       0.04 | *
    |       70 |        - |      899 |      899 |       0.04 | *
    |       72 |        - |      890 |      890 |       0.04 | *
    |       73 |        - |      888 |      888 |       0.04 | *
    |       74 |        - |      878 |      878 |       0.04 | *
    |       77 |        - |      875 |      875 |       0.04 | *
    |       80 |        - |      848 |      848 |       0.04 | *
    |       88 |        - |      845 |      845 |       0.04 | *
    |       90 |        - |      840 |      840 |       0.04 | *
    |       91 |        - |      833 |      833 |       0.04 | *
    |      106 |        - |      815 |      815 |       0.04 | *
    |      107 |        - |      811 |      811 |       0.05 | *
    |      118 |        - |      801 |      801 |       0.05 | *
    |      123 |        - |      799 |      799 |       0.05 | *
    |      124 |        - |      792 |      792 |       0.05 | *
    |      128 |        - |      786 |      786 |       0.05 | *
    |      136 |        - |      784 |      784 |       0.05 | *
    |      139 |        - |      767 |      767 |       0.05 | *
    |      144 |        - |      766 |      766 |       0.05 | *
    |      154 |        - |      754 |      754 |       0.05 | *
    |      164 |        - |      748 |      748 |       0.05 | *
    |      170 |        - |      738 |      738 |       0.05 | *
    |      171 |        - |      731 |      731 |       0.05 | *
    |      173 |        - |      722 |      722 |       0.05 | *
    |      174 |        - |      719 |      719 |       0.05 | *
    |      175 |        - |      716 |      716 |       0.06 | *
    |      176 |        - |      711 |      711 |       0.06 | *
    |      180 |        - |      709 |      709 |       0.06 | *
    |      191 |        - |      694 |      694 |       0.06 | *
    |      194 |        - |      693 |      693 |       0.06 | *
    |      196 |        - |      692 |      692 |       0.06 | *
    |      208 |        - |      691 |      691 |       0.06 | *
    |      220 |        - |      689 |      689 |       0.06 | *
    |      222 |        - |      685 |      685 |       0.06 | *
    |      224 |        - |      679 |      679 |       0.06 | *
    |      226 |        - |      675 |      675 |       0.06 | *
    |      231 |        - |      672 |      672 |       0.06 | *
    |      233 |        - |      669 |      669 |       0.06 | *
    |      243 |        - |      667 |      667 |       0.06 | *
    |      260 |        - |      666 |      666 |       0.06 | *
    |      264 |        - |      647 |      647 |       0.07 | *
    |      274 |        - |      646 |      646 |       0.07 | *
    |      279 |        - |      643 |      643 |       0.07 | *
    |      280 |        - |      641 |      641 |       0.07 | *
    |      284 |        - |      637 |      637 |       0.07 | *
    |      288 |        - |      632 |      632 |       0.07 | *
    |      291 |        - |      619 |      619 |       0.07 | *
    |      300 |        - |      618 |      618 |       0.07 | *
    |      320 |        - |      616 |      616 |       0.07 | *
    |      322 |        - |      613 |      613 |       0.07 | *
    |      347 |        - |      612 |      612 |       0.07 | *
    |      362 |        - |      611 |      611 |       0.07 | *
    |      367 |        - |      608 |      608 |       0.07 | *
    |      375 |        - |      607 |      607 |       0.07 | *
    |      378 |        - |      597 |      597 |       0.08 | *
    |      381 |        - |      595 |      595 |       0.08 | *
    |      382 |        - |      594 |      594 |       0.08 | *
    |      383 |        - |      593 |      593 |       0.08 | *
    |      390 |        - |      592 |      592 |       0.08 | *
    |      392 |        - |      584 |      584 |       0.08 | *
    |      402 |        - |      582 |      582 |       0.08 | *
    |      414 |        - |      581 |      581 |       0.08 | *
    |      416 |        - |      580 |      580 |       0.08 | *
    |      426 |        - |      578 |      578 |       0.08 | *
    |      444 |        - |      575 |      575 |       0.08 | *
    |      445 |        - |      567 |      567 |       0.08 | *
    |      460 |        - |      565 |      565 |       0.08 | *
    |      478 |        - |      563 |      563 |       0.08 | *
    |      482 |        - |      559 |      559 |       0.08 | *
    |      483 |        - |      555 |      555 |       0.08 | *
    |      498 |        - |      554 |      554 |       0.08 | *
    |      504 |        - |      552 |      552 |       0.09 | *
    |      547 |        - |      551 |      551 |       0.09 | *
    |      556 |        - |      550 |      550 |       0.09 | *
    |      586 |        - |      549 |      549 |       0.09 | *
    |      593 |        - |      543 |      543 |       0.09 | *
    |      624 |        - |      531 |      531 |       0.09 | *
    |      644 |        - |      521 |      521 |       0.09 | *
    |      646 |        - |      518 |      518 |       0.09 | *
    |      648 |        - |      511 |      511 |       0.09 | *
    |      654 |        - |      510 |      510 |       0.09 | *
    |      655 |        - |      509 |      509 |       0.09 | *
    |      661 |        - |      508 |      508 |       0.09 | *
    |      690 |        - |      507 |      507 |       0.09 | *
    |      693 |        - |      505 |      505 |       0.09 | *
    |      705 |        - |      504 |      504 |       0.09 | *
    |      712 |        - |      503 |      503 |       0.09 | *
    |      728 |        - |      502 |      502 |       0.09 | *
    |      745 |        - |      501 |      501 |       0.09 | *
    |      748 |        - |      500 |      500 |       0.10 | *
    |      756 |        - |      496 |      496 |       0.10 | *
    |      772 |        - |      495 |      495 |       0.10 | *
    |      782 |        - |      492 |      492 |       0.10 | *
    |      797 |        - |      491 |      491 |       0.10 | *
    |      810 |        - |      489 |      489 |       0.10 | *
    |      818 |        - |      488 |      488 |       0.10 | *
    |      820 |        - |      487 |      487 |       0.10 | *
    |      855 |        - |      486 |      486 |       0.10 | *
    |      871 |        - |      484 |      484 |       0.10 | *
    |      887 |        - |      480 |      480 |       0.10 | *
    |      900 |        - |      477 |      477 |       0.10 | *
    |      903 |        - |      476 |      476 |       0.10 | *
    |      917 |        - |      470 |      470 |       0.10 | *
    |      918 |        - |      469 |      469 |       0.10 | *
    |      920 |        - |      467 |      467 |       0.10 | *
    |      937 |        - |      463 |      463 |       0.10 | *
    |      940 |        - |      460 |      460 |       0.10 | *
    |      949 |        - |      458 |      458 |       0.11 | *
    |      956 |        - |      453 |      453 |       0.11 | *
    |      973 |        - |      450 |      450 |       0.11 | *
    |      979 |        - |      445 |      445 |       0.11 | *
    |      984 |        - |      444 |      444 |       0.11 | *
    |     1060 |        - |      441 |      441 |       0.11 | *
    |     1090 |        - |      438 |      438 |       0.11 | *
    |     1097 |        - |      437 |      437 |       0.11 | *
    |     1099 |        - |      436 |      436 |       0.11 | *
    |     1103 |        - |      434 |      434 |       0.11 | *
    |     1108 |        - |      433 |      433 |       0.11 | *
    |     1117 |        - |      432 |      432 |       0.11 | *
    |     1261 |        - |      430 |      430 |       0.11 | *
    |     1282 |        - |      428 |      428 |       0.11 | *
    |     1324 |        - |      425 |      425 |       0.11 | *
    |     1329 |        - |      424 |      424 |       0.11 | *
    |     1333 |        - |      423 |      423 |       0.12 | *
    |     1337 |        - |      422 |      422 |       0.12 | *
    |     1343 |        - |      420 |      420 |       0.12 | *
    |     1398 |        - |      418 |      418 |       0.12 | *
    |     1403 |        - |      415 |      415 |       0.12 | *
    |     1414 |        - |      413 |      413 |       0.12 | *
    |     1427 |        - |      406 |      406 |       0.12 | *
    |     1444 |        - |      405 |      405 |       0.12 | *
    |     1454 |        - |      404 |      404 |       0.12 | *
    |     1489 |        - |      403 |      403 |       0.12 | *
    |     1510 |        - |      402 |      402 |       0.12 | *
    |     1513 |        - |      401 |      401 |       0.12 | *
    |     1528 |        - |      400 |      400 |       0.12 | *
    |     1570 |        - |      398 |      398 |       0.12 | *
    |     1580 |        - |      397 |      397 |       0.12 | *
    |     1592 |        - |      396 |      396 |       0.12 | *
    |     1659 |        - |      395 |      395 |       0.13 | *
    |     1695 |        - |      394 |      394 |       0.13 | *
    |     1701 |        - |      392 |      392 |       0.13 | *
    |     1757 |        - |      391 |      391 |       0.13 | *
    |     1763 |        - |      389 |      389 |       0.13 | *
    |     1776 |        - |      388 |      388 |       0.13 | *
    |     1803 |        - |      385 |      385 |       0.13 | *
    |     1807 |        - |      384 |      384 |       0.13 | *
    |     1853 |        - |      383 |      383 |       0.13 | *
    |     1860 |        - |      382 |      382 |       0.13 | *
    |     1863 |        - |      381 |      381 |       0.13 | *
    |     1864 |        - |      380 |      380 |       0.13 | *
    |     1884 |        - |      379 |      379 |       0.14 | *
    |     1891 |        - |      377 |      377 |       0.14 | *
    |     1952 |        - |      376 |      376 |       0.14 | *
    |     1953 |        - |      375 |      375 |       0.14 | *
    |     1965 |        - |      374 |      374 |       0.14 | *
    |     1968 |        - |      372 |      372 |       0.14 | *
    |     1977 |        - |      371 |      371 |       0.14 | *
    |     1978 |        - |      370 |      370 |       0.14 | *
    |     1979 |        - |      367 |      367 |       0.14 | *
    |     1987 |        - |      366 |      366 |       0.14 | *
    |     2002 |        - |      365 |      365 |       0.14 | *
    |     2040 |        - |      362 |      362 |       0.14 | *
    |     2046 |        - |      359 |      359 |       0.14 | *
    |     2052 |        - |      357 |      357 |       0.14 | *
    |     2062 |        - |      354 |      354 |       0.14 | *
    |     2124 |        - |      353 |      353 |       0.15 | *
    |     2129 |        - |      350 |      350 |       0.15 | *
    |     2180 |        - |      349 |      349 |       0.15 | *
    |     2279 |        - |      348 |      348 |       0.15 | *
    |     2288 |        - |      346 |      346 |       0.15 | *
    |     2411 |        - |      345 |      345 |       0.15 | *
    |     2430 |        - |      344 |      344 |       0.15 | *
    |     2432 |        - |      342 |      342 |       0.15 | *
    |     2433 |        - |      339 |      339 |       0.15 | *
    |     2543 |        - |      338 |      338 |       0.15 | *
    |     2545 |        - |      337 |      337 |       0.15 | *
    |     2557 |        - |      334 |      334 |       0.15 | *
    |     2618 |        - |      333 |      333 |       0.15 | *
    |     2624 |        - |      332 |      332 |       0.15 | *
    |     2674 |        - |      331 |      331 |       0.16 | *
    |     2719 |        - |      329 |      329 |       0.16 | *
    |     2844 |        - |      328 |      328 |       0.16 | *
    |     2875 |        - |      326 |      326 |       0.16 | *
    |     2925 |        - |      325 |      325 |       0.16 | *
    |     2933 |        - |      324 |      324 |       0.16 | *
    |     2977 |        - |      322 |      322 |       0.16 | *
    |     3207 |        - |      320 |      320 |       0.16 | *
    |     3213 |        - |      319 |      319 |       0.16 | *
    |     3352 |        - |      318 |      318 |       0.16 | *
    |     3425 |        - |      317 |      317 |       0.16 | *
    |     3469 |        - |      315 |      315 |       0.17 | *
    |     3489 |        - |      313 |      313 |       0.17 | *
    |     3508 |        - |      311 |      311 |       0.17 | *
    |     3606 |        - |      310 |      310 |       0.17 | *
    |     3631 |        - |      308 |      308 |       0.17 | *
    |     3709 |        - |      307 |      307 |       0.17 | *
    |     3754 |        - |      306 |      306 |       0.17 | *
    |     3834 |        - |      304 |      304 |       0.17 | *
    |     3998 |        - |      302 |      302 |       0.17 | *
    |     4115 |        - |      301 |      301 |       0.17 | *
    |     4343 |        - |      300 |      300 |       0.17 | *
    |     4360 |        - |      298 |      298 |       0.17 | *
    |     4398 |        - |      297 |      297 |       0.17 | *
    |     4429 |        - |      296 |      296 |       0.18 | *
    |     4445 |        - |      294 |      294 |       0.18 | *
    |     4452 |        - |      293 |      293 |       0.18 | *
    |     4456 |        - |      292 |      292 |       0.18 | *
    |     5143 |        - |      291 |      291 |       0.18 | *
    |     5484 |        - |      289 |      289 |       0.18 | *
    |     5505 |        - |      288 |      288 |       0.18 | *
    |     5554 |        - |      287 |      287 |       0.18 | *
    |     5682 |        - |      286 |      286 |       0.18 | *
    |     5940 |        - |      285 |      285 |       0.18 | *
    |     6268 |        - |      283 |      283 |       0.19 | *
    |     6286 |        - |      282 |      282 |       0.19 | *
    |     6288 |        - |      281 |      281 |       0.19 | *
    |     6436 |        - |      280 |      280 |       0.19 | *
    |     6440 |        - |      278 |      278 |       0.19 | *
    |     6512 |        - |      276 |      276 |       0.19 | *
    |     6531 |        - |      275 |      275 |       0.19 | *
    |     6642 |        - |      273 |      273 |       0.19 | *
    |     6684 |        - |      270 |      270 |       0.19 | *
    |     6686 |        - |      269 |      269 |       0.19 | *
    |     6716 |        - |      268 |      268 |       0.19 | *
    |     6840 |        - |      267 |      267 |       0.19 | *
    |     6906 |        - |      266 |      266 |       0.19 | *
    |     7021 |        - |      265 |      265 |       0.19 | *
    |     7226 |        - |      264 |      264 |       0.20 | *
    |     7310 |        - |      263 |      263 |       0.20 | *
    |     7380 |        - |      262 |      262 |       0.20 | *
    |     7498 |        - |      261 |      261 |       0.20 | *
    |     7556 |        - |      260 |      260 |       0.20 | *
    |     8229 |        - |      259 |      259 |       0.20 | *
    |     8246 |        - |      256 |      256 |       0.20 | *
    |     8284 |        - |      255 |      255 |       0.20 | *
    |     8371 |        - |      253 |      253 |       0.20 | *
    |     8526 |        - |      252 |      252 |       0.20 | *
    |     8870 |        - |      251 |      251 |       0.21 | *
    |     8934 |        - |      250 |      250 |       0.21 | *
    |     9137 |        - |      249 |      249 |       0.21 | *
    |     9695 |        - |      248 |      248 |       0.21 | *
    |     9733 |        - |      246 |      246 |       0.21 | *
    |     9774 |        - |      245 |      245 |       0.21 | *
    |     9820 |        - |      244 |      244 |       0.21 | *
    |     9933 |        - |      243 |      243 |       0.21 | *
    |     9935 |        - |      242 |      242 |       0.21 | *
    |     9987 |        - |      241 |      241 |       0.21 | *
    |     9999 |        - |      239 |      239 |       0.21 | *
    |      10K |        - |      238 |      238 |       0.22 | *
    |      10K |        - |      237 |      237 |       0.22 | *
    |      11K |        - |      236 |      236 |       0.22 | *
    |      11K |        - |      235 |      235 |       0.22 | *
    |      11K |        - |      233 |      233 |       0.22 | *
    |      12K |        - |      232 |      232 |       0.22 | *
    |      12K |        - |      231 |      231 |       0.22 | *
    |      13K |        - |      230 |      230 |       0.23 | *
    |      13K |        - |      228 |      228 |       0.23 | *
    |      13K |        - |      227 |      227 |       0.23 | *
    |      13K |        - |      226 |      226 |       0.23 | *
    |      13K |        - |      225 |      225 |       0.23 | *
    |      13K |        - |      223 |      223 |       0.23 | *
    |      13K |        - |      222 |      222 |       0.23 | *
    |      15K |        - |      221 |      221 |       0.23 | *
    |      15K |        - |      220 |      220 |       0.23 | *
    |      15K |        - |      219 |      219 |       0.24 | *
    |      15K |        - |      218 |      218 |       0.24 | *
    |      17K |        - |      217 |      217 |       0.24 | *
    |      17K |        - |      216 |      216 |       0.24 | *
    |      17K |        - |      215 |      215 |       0.24 | *
    |      17K |        - |      214 |      214 |       0.24 | *
    |      18K |        - |      213 |      213 |       0.25 | *
    |      19K |        - |      212 |      212 |       0.25 | *
    |      19K |        - |      211 |      211 |       0.25 | *
    |      20K |        - |      210 |      210 |       0.25 | *
    |      20K |        - |      208 |      208 |       0.25 | *
    |      21K |        - |      207 |      207 |       0.26 | *
    |      22K |        - |      205 |      205 |       0.26 | *
    |      22K |        - |      204 |      204 |       0.26 | *
    |      22K |        - |      203 |      203 |       0.26 | *
    |      23K |        - |      202 |      202 |       0.26 | *
    |      23K |        - |      201 |      201 |       0.26 | *
    |      23K |        - |      200 |      200 |       0.26 | *
    |      23K |        - |      199 |      199 |       0.26 | *
    |      23K |        - |      198 |      198 |       0.26 | *
    |      23K |        - |      197 |      197 |       0.26 | *
    |      23K |        - |      196 |      196 |       0.27 | *
    |      23K |        - |      195 |      195 |       0.27 | *
    |      23K |        - |      193 |      193 |       0.27 | *
    |      24K |        - |      192 |      192 |       0.27 | *
    |      24K |        - |      191 |      191 |       0.27 | *
    |      24K |        - |      190 |      190 |       0.27 | *
    |      24K |        - |      189 |      189 |       0.27 | *
    |      24K |        - |      188 |      188 |       0.27 | *
    |      25K |        - |      187 |      187 |       0.27 | *
    |      25K |        - |      186 |      186 |       0.27 | *
    |      25K |        - |      185 |      185 |       0.28 | *
    |      26K |        - |      184 |      184 |       0.28 | *
    |      26K |        - |      183 |      183 |       0.28 | *
    |      27K |        - |      182 |      182 |       0.28 | *
    |      27K |        - |      181 |      181 |       0.28 | *
    |      32K |        - |      180 |      180 |       0.30 | *
    |      32K |        - |      179 |      179 |       0.30 | *
    |      33K |        - |      178 |      178 |       0.30 | *
    |      33K |        - |      177 |      177 |       0.30 | *
    |      33K |        - |      176 |      176 |       0.30 | *
    |      35K |        - |      175 |      175 |       0.31 | *
    |      38K |        - |      174 |      174 |       0.31 | *
    |      39K |        - |      172 |      172 |       0.32 | *
    |      39K |        - |      171 |      171 |       0.32 | *
    |      42K |        - |      170 |      170 |       0.33 | *
    |      42K |        - |      169 |      169 |       0.33 | *
    |      42K |        - |      168 |      168 |       0.33 | *
    |      44K |        - |      167 |      167 |       0.33 | *
    |      45K |        - |      165 |      165 |       0.34 | *
    |      47K |        - |      164 |      164 |       0.34 | *
    |      51K |        - |      163 |      163 |       0.36 | *
    |      52K |        - |      162 |      162 |       0.36 | *
    |      53K |        - |      161 |      161 |       0.36 | *
    |      53K |        - |      160 |      160 |       0.36 | *
    |      54K |        - |      159 |      159 |       0.36 | *
    |      54K |        - |      158 |      158 |       0.37 | *
    |      67K |        - |      157 |      157 |       0.40 | *
    |      72K |        - |      156 |      156 |       0.42 | *
    |      73K |        - |      155 |      155 |       0.42 | *
    |      75K |        - |      154 |      154 |       0.42 | *
    |      78K |        - |      153 |      153 |       0.43 | *
    |      82K |        - |      152 |      152 |       0.44 | *
    |      82K |        - |      151 |      151 |       0.44 | *
    |      92K |        - |      150 |      150 |       0.45 | *
    |      93K |        - |      149 |      149 |       0.46 | *
    |     106K |        - |      148 |      148 |       0.49 | *
    |     111K |        - |      147 |      147 |       0.51 | *
    |     111K |        - |      146 |      146 |       0.51 | *
    |     111K |        - |      145 |      145 |       0.51 | *
    |     112K |        - |      144 |      144 |       0.52 | *
    |     115K |        - |      143 |      143 |       0.53 | *
    |     115K |        - |      142 |      142 |       0.53 | *
    |     115K |        - |      141 |      141 |       0.53 | *
    |     123K |        - |      140 |      140 |       0.56 | *
    |     126K |        - |      139 |      139 |       0.57 | *
    |     133K |        - |      138 |      138 |       0.60 | *
    |     151K |        - |      137 |      137 |       0.67 | *
    |     151K |        - |      136 |      136 |       0.67 | *
    |     154K |        - |      135 |      135 |       0.68 | *
    |     154K |        - |      134 |      134 |       0.68 | *
    |     213K |        - |      133 |      133 |       0.86 | *
    |     215K |        - |      132 |      132 |       0.86 | *
    |     235K |        - |      131 |      131 |       0.91 | *
    |     235K |        - |      130 |      130 |       0.91 | *
    |     238K |        - |      129 |      129 |       0.91 | *
    |     238K |        - |      128 |      128 |       0.91 | *
    |     238K |        - |      127 |      127 |       0.92 | *
    |     334K |        - |      126 |      126 |       1.07 | *
    |     336K |        - |      125 |      125 |       1.07 | *
    |     494K |        - |      124 |      124 |       1.27 | *
    |     500K |        - |      123 |      123 |       1.28 | *
    |     806K |        - |      122 |      122 |       1.51 | *
    |     806K |        - |      121 |      121 |       1.51 | *
    |     810K |        - |      120 |      120 |       1.51 | *
    |     933K |        - |      119 |      119 |       1.60 | *
    |    1025K |        - |      118 |      118 |       1.66 | *
    |    1031K |        - |      117 |      117 |       1.67 | *
    |    1099K |        - |      116 |      116 |       1.72 | *
    |    1286K |        - |      115 |      115 |       1.85 | *
    |    1300K |        - |      114 |      114 |       1.87 | *
    |    1427K |        - |      113 |      113 |       1.96 | *
    |    1428K |        - |      112 |      112 |       1.96 | *
    |    1438K |        - |      111 |      111 |       1.96 | *
    |      31M |        - |      110 |      110 |      26.00 | *
    |     120M |        - |      109 |      109 |      89.33 | *
    |     130M |        - |      108 |      108 |      96.41 | *
    |     190M |        - |      107 |      107 |     139.38 | *
    |     196M |        - |      106 |      106 |     143.86 | *
    |     305M |        - |      105 |      105 |     220.65 | *
    |     307M |        - |      104 |      104 |     222.01 | *
    |     377M |        - |      103 |      103 |     271.67 | *
    |     377M |        - |      102 |      102 |     271.75 | *
    |     576M |        - |      101 |      101 |     411.82 | *
    |     583M |        - |      100 |      100 |     417.03 | *
    |     911M |        - |       99 |       99 |     648.72 | *
    |     989M |        - |       98 |       98 |     703.99 | *
    |    1020M |        - |       97 |       97 |     725.86 | *
    |    1621M |        - |       96 |       96 |    1149.98 | *
    \--------------------------------------------------------/

Neighborhoods statistics (values in %):

    /----------------------------------------------------------------\
    | Move               | Improvs. | Sideways |  Accepts |  Rejects |
    |--------------------|----------|----------|----------|----------|
    | Shift(mk)          |      46K |     383K |     446K |     213M |
    | Shift              |     2225 |    1277K |    1317K |     212M |
    | ShiftSmart(mk)     |     359K |    2939K |    3430K |     210M |
    | ShiftSmart         |      18K |    9031K |    9267K |     204M |
    | SimpSwap(mk)       |      187 |      539 |      821 |     213M |
    | SimpSwap           |       20 |     1907 |     2107 |     214M |
    | SimpSwapSmart(mk)  |     1572 |     4370 |     6814 |     214M |
    | SimpSwapSmart      |      176 |      16K |      18K |     214M |
    | Swap(mk)           |       50 |      118 |      179 |     213M |
    | Swap               |        3 |      448 |      499 |     214M |
    | SwapSmart(mk)      |     1599 |     5319 |     7679 |     214M |
    | SwapSmart          |      220 |      15K |      17K |     213M |
    | Switch(mk)         |      14K |      20M |      20M |     194M |
    | Switch             |      689 |      22M |      22M |     191M |
    | SwitchSmart(mk)    |     102K |     216K |     349K |     213M |
    | SwitchSmart        |     5035 |    1987K |    2064K |     211M |
    | TaskMove(mk)       |     2217 |     5107 |     8338 |     213M |
    | TaskMove           |      115 |      14K |      16K |     214M |
    | TaskMoveSmart(mk)  |      17K |      43K |      68K |     213M |
    | TaskMoveSmart      |     1083 |     126K |     138K |     213M |
    | 2-Shift(mk)        |      13K |    2182K |    2200K |     211M |
    | 2-Shift            |      639 |    3067K |    3079K |     211M |
    | 2-ShiftSmart(mk)   |     118K |    6294K |    6441K |     207M |
    | 2-ShiftSmart       |     5763 |    7173K |    7244K |     206M |
    \----------------------------------------------------------------/

Best makespan.....: 96
N. of Iterations..: 5125873852
Total runtime.....: 3600.01s
Using Python-MIP package version 1.6.8
Começo a execução
    /-------------------------------------------------------------------------------\
    |    Makespan   |   Free Jobs   | Free Machines |    It. Time   |   Total Time  | 
    |-------------------------------------------------------------------------------|
    \-------------------------------------------------------------------------------/
Terminou a execução
