Instance....: instances/I_200_20_S_1-99_1.txt
Algorithm...: Simulated Annealing (alpha=0.990, saMax=10M, t0=1)
Other params: maxIters=100M, seed=-1, timeLimit=3600.00s

    /--------------------------------------------------------\
    |     Iter |   RDP(%) |       S* |       S' |       Time | 
    |----------|----------|----------|----------|------------|
    |        0 |        - |     1611 |     1611 |       0.00 | s0
    |        1 |        - |     1555 |     1555 |       0.00 | *
    |        2 |        - |     1440 |     1440 |       0.01 | *
    |        3 |        - |     1416 |     1416 |       0.01 | *
    |        4 |        - |     1375 |     1375 |       0.01 | *
    |        7 |        - |     1358 |     1358 |       0.01 | *
    |        9 |        - |     1311 |     1311 |       0.01 | *
    |       10 |        - |     1303 |     1303 |       0.01 | *
    |       11 |        - |     1279 |     1279 |       0.01 | *
    |       13 |        - |     1266 |     1266 |       0.01 | *
    |       15 |        - |     1261 |     1261 |       0.01 | *
    |       16 |        - |     1239 |     1239 |       0.02 | *
    |       18 |        - |     1195 |     1195 |       0.02 | *
    |       20 |        - |     1185 |     1185 |       0.04 | *
    |       24 |        - |     1163 |     1163 |       0.04 | *
    |       26 |        - |     1157 |     1157 |       0.04 | *
    |       27 |        - |     1149 |     1149 |       0.04 | *
    |       29 |        - |     1143 |     1143 |       0.05 | *
    |       30 |        - |     1123 |     1123 |       0.05 | *
    |       31 |        - |     1095 |     1095 |       0.05 | *
    |       39 |        - |     1090 |     1090 |       0.05 | *
    |       43 |        - |     1045 |     1045 |       0.05 | *
    |       48 |        - |     1043 |     1043 |       0.05 | *
    |       50 |        - |     1041 |     1041 |       0.05 | *
    |       53 |        - |     1030 |     1030 |       0.05 | *
    |       54 |        - |     1029 |     1029 |       0.05 | *
    |       66 |        - |     1024 |     1024 |       0.05 | *
    |       67 |        - |     1014 |     1014 |       0.06 | *
    |       73 |        - |     1007 |     1007 |       0.06 | *
    |       75 |        - |      989 |      989 |       0.06 | *
    |       77 |        - |      972 |      972 |       0.06 | *
    |       78 |        - |      964 |      964 |       0.06 | *
    |       79 |        - |      952 |      952 |       0.06 | *
    |       81 |        - |      951 |      951 |       0.06 | *
    |       82 |        - |      924 |      924 |       0.06 | *
    |       85 |        - |      921 |      921 |       0.06 | *
    |       94 |        - |      903 |      903 |       0.06 | *
    |       95 |        - |      896 |      896 |       0.07 | *
    |      114 |        - |      886 |      886 |       0.07 | *
    |      160 |        - |      882 |      882 |       0.07 | *
    |      162 |        - |      879 |      879 |       0.07 | *
    |      170 |        - |      876 |      876 |       0.07 | *
    |      177 |        - |      865 |      865 |       0.07 | *
    |      183 |        - |      855 |      855 |       0.07 | *
    |      186 |        - |      848 |      848 |       0.07 | *
    |      187 |        - |      827 |      827 |       0.07 | *
    |      189 |        - |      825 |      825 |       0.08 | *
    |      192 |        - |      821 |      821 |       0.08 | *
    |      193 |        - |      818 |      818 |       0.08 | *
    |      194 |        - |      815 |      815 |       0.08 | *
    |      200 |        - |      810 |      810 |       0.08 | *
    |      201 |        - |      795 |      795 |       0.08 | *
    |      210 |        - |      786 |      786 |       0.08 | *
    |      230 |        - |      783 |      783 |       0.08 | *
    |      243 |        - |      772 |      772 |       0.08 | *
    |      268 |        - |      771 |      771 |       0.08 | *
    |      287 |        - |      765 |      765 |       0.08 | *
    |      291 |        - |      764 |      764 |       0.09 | *
    |      292 |        - |      753 |      753 |       0.09 | *
    |      306 |        - |      751 |      751 |       0.09 | *
    |      317 |        - |      747 |      747 |       0.09 | *
    |      351 |        - |      745 |      745 |       0.09 | *
    |      352 |        - |      732 |      732 |       0.09 | *
    |      356 |        - |      722 |      722 |       0.09 | *
    |      362 |        - |      721 |      721 |       0.09 | *
    |      367 |        - |      720 |      720 |       0.09 | *
    |      409 |        - |      718 |      718 |       0.09 | *
    |      414 |        - |      714 |      714 |       0.10 | *
    |      438 |        - |      709 |      709 |       0.10 | *
    |      461 |        - |      695 |      695 |       0.10 | *
    |      467 |        - |      694 |      694 |       0.10 | *
    |      551 |        - |      679 |      679 |       0.10 | *
    |      558 |        - |      668 |      668 |       0.10 | *
    |      615 |        - |      666 |      666 |       0.10 | *
    |      638 |        - |      665 |      665 |       0.10 | *
    |      641 |        - |      661 |      661 |       0.10 | *
    |      665 |        - |      657 |      657 |       0.10 | *
    |      669 |        - |      656 |      656 |       0.11 | *
    |      672 |        - |      655 |      655 |       0.11 | *
    |      690 |        - |      654 |      654 |       0.11 | *
    |      697 |        - |      652 |      652 |       0.11 | *
    |      704 |        - |      650 |      650 |       0.11 | *
    |      726 |        - |      648 |      648 |       0.11 | *
    |      781 |        - |      647 |      647 |       0.11 | *
    |      785 |        - |      646 |      646 |       0.11 | *
    |      787 |        - |      645 |      645 |       0.11 | *
    |      788 |        - |      642 |      642 |       0.11 | *
    |      800 |        - |      641 |      641 |       0.11 | *
    |      821 |        - |      640 |      640 |       0.12 | *
    |      841 |        - |      636 |      636 |       0.12 | *
    |      844 |        - |      630 |      630 |       0.12 | *
    |      849 |        - |      627 |      627 |       0.12 | *
    |      854 |        - |      624 |      624 |       0.12 | *
    |      856 |        - |      622 |      622 |       0.12 | *
    |      860 |        - |      621 |      621 |       0.12 | *
    |      861 |        - |      617 |      617 |       0.12 | *
    |      877 |        - |      614 |      614 |       0.12 | *
    |      898 |        - |      613 |      613 |       0.12 | *
    |      976 |        - |      612 |      612 |       0.12 | *
    |      992 |        - |      609 |      609 |       0.13 | *
    |     1022 |        - |      606 |      606 |       0.13 | *
    |     1025 |        - |      605 |      605 |       0.13 | *
    |     1035 |        - |      604 |      604 |       0.13 | *
    |     1037 |        - |      601 |      601 |       0.13 | *
    |     1053 |        - |      600 |      600 |       0.13 | *
    |     1054 |        - |      598 |      598 |       0.13 | *
    |     1057 |        - |      596 |      596 |       0.13 | *
    |     1066 |        - |      595 |      595 |       0.13 | *
    |     1070 |        - |      593 |      593 |       0.13 | *
    |     1121 |        - |      592 |      592 |       0.13 | *
    |     1175 |        - |      591 |      591 |       0.13 | *
    |     1177 |        - |      588 |      588 |       0.14 | *
    |     1205 |        - |      586 |      586 |       0.14 | *
    |     1278 |        - |      584 |      584 |       0.14 | *
    |     1303 |        - |      583 |      583 |       0.14 | *
    |     1306 |        - |      582 |      582 |       0.14 | *
    |     1311 |        - |      580 |      580 |       0.14 | *
    |     1499 |        - |      578 |      578 |       0.14 | *
    |     1511 |        - |      576 |      576 |       0.14 | *
    |     1565 |        - |      572 |      572 |       0.14 | *
    |     1569 |        - |      570 |      570 |       0.14 | *
    |     1570 |        - |      567 |      567 |       0.14 | *
    |     1575 |        - |      566 |      566 |       0.15 | *
    |     1576 |        - |      562 |      562 |       0.15 | *
    |     1602 |        - |      560 |      560 |       0.15 | *
    |     1616 |        - |      559 |      559 |       0.15 | *
    |     1635 |        - |      557 |      557 |       0.15 | *
    |     1638 |        - |      556 |      556 |       0.15 | *
    |     1639 |        - |      552 |      552 |       0.15 | *
    |     1640 |        - |      547 |      547 |       0.15 | *
    |     1646 |        - |      545 |      545 |       0.15 | *
    |     1654 |        - |      544 |      544 |       0.15 | *
    |     1663 |        - |      542 |      542 |       0.15 | *
    |     1668 |        - |      539 |      539 |       0.15 | *
    |     1673 |        - |      538 |      538 |       0.16 | *
    |     1790 |        - |      537 |      537 |       0.16 | *
    |     1946 |        - |      536 |      536 |       0.16 | *
    |     1974 |        - |      534 |      534 |       0.16 | *
    |     2036 |        - |      533 |      533 |       0.16 | *
    |     2038 |        - |      532 |      532 |       0.16 | *
    |     2047 |        - |      530 |      530 |       0.16 | *
    |     2048 |        - |      529 |      529 |       0.16 | *
    |     2080 |        - |      527 |      527 |       0.16 | *
    |     2096 |        - |      525 |      525 |       0.16 | *
    |     2114 |        - |      523 |      523 |       0.16 | *
    |     2123 |        - |      522 |      522 |       0.16 | *
    |     2125 |        - |      521 |      521 |       0.17 | *
    |     2145 |        - |      515 |      515 |       0.17 | *
    |     2222 |        - |      513 |      513 |       0.17 | *
    |     2223 |        - |      510 |      510 |       0.17 | *
    |     2227 |        - |      509 |      509 |       0.17 | *
    |     2238 |        - |      508 |      508 |       0.17 | *
    |     2242 |        - |      507 |      507 |       0.17 | *
    |     2251 |        - |      505 |      505 |       0.17 | *
    |     2259 |        - |      503 |      503 |       0.17 | *
    |     2453 |        - |      497 |      497 |       0.17 | *
    |     2477 |        - |      496 |      496 |       0.17 | *
    |     2621 |        - |      493 |      493 |       0.17 | *
    |     2627 |        - |      492 |      492 |       0.18 | *
    |     2636 |        - |      491 |      491 |       0.18 | *
    |     2671 |        - |      490 |      490 |       0.18 | *
    |     2678 |        - |      480 |      480 |       0.18 | *
    |     2680 |        - |      479 |      479 |       0.18 | *
    |     2719 |        - |      477 |      477 |       0.18 | *
    |     2796 |        - |      475 |      475 |       0.18 | *
    |     2823 |        - |      473 |      473 |       0.18 | *
    |     2833 |        - |      472 |      472 |       0.18 | *
    |     2850 |        - |      470 |      470 |       0.18 | *
    |     2853 |        - |      469 |      469 |       0.18 | *
    |     2889 |        - |      468 |      468 |       0.18 | *
    |     2981 |        - |      467 |      467 |       0.18 | *
    |     2984 |        - |      466 |      466 |       0.19 | *
    |     2988 |        - |      462 |      462 |       0.19 | *
    |     3001 |        - |      460 |      460 |       0.19 | *
    |     3159 |        - |      458 |      458 |       0.19 | *
    |     3160 |        - |      457 |      457 |       0.19 | *
    |     3228 |        - |      453 |      453 |       0.19 | *
    |     3501 |        - |      452 |      452 |       0.19 | *
    |     3513 |        - |      451 |      451 |       0.19 | *
    |     3615 |        - |      450 |      450 |       0.19 | *
    |     3693 |        - |      448 |      448 |       0.19 | *
    |     3699 |        - |      447 |      447 |       0.19 | *
    |     3728 |        - |      444 |      444 |       0.19 | *
    |     3736 |        - |      442 |      442 |       0.20 | *
    |     3750 |        - |      440 |      440 |       0.20 | *
    |     3793 |        - |      439 |      439 |       0.20 | *
    |     3863 |        - |      438 |      438 |       0.20 | *
    |     4023 |        - |      437 |      437 |       0.20 | *
    |     4049 |        - |      436 |      436 |       0.20 | *
    |     4051 |        - |      434 |      434 |       0.20 | *
    |     4076 |        - |      433 |      433 |       0.20 | *
    |     4169 |        - |      428 |      428 |       0.20 | *
    |     4207 |        - |      427 |      427 |       0.20 | *
    |     4319 |        - |      426 |      426 |       0.20 | *
    |     4538 |        - |      425 |      425 |       0.20 | *
    |     4613 |        - |      424 |      424 |       0.20 | *
    |     4717 |        - |      423 |      423 |       0.21 | *
    |     4826 |        - |      421 |      421 |       0.21 | *
    |     4833 |        - |      420 |      420 |       0.21 | *
    |     4853 |        - |      419 |      419 |       0.21 | *
    |     5291 |        - |      417 |      417 |       0.21 | *
    |     5292 |        - |      416 |      416 |       0.21 | *
    |     5297 |        - |      415 |      415 |       0.21 | *
    |     5330 |        - |      414 |      414 |       0.21 | *
    |     5383 |        - |      413 |      413 |       0.21 | *
    |     5464 |        - |      411 |      411 |       0.21 | *
    |     5528 |        - |      410 |      410 |       0.21 | *
    |     5558 |        - |      409 |      409 |       0.21 | *
    |     5722 |        - |      407 |      407 |       0.21 | *
    |     5738 |        - |      404 |      404 |       0.22 | *
    |     6193 |        - |      402 |      402 |       0.22 | *
    |     6219 |        - |      399 |      399 |       0.22 | *
    |     6225 |        - |      397 |      397 |       0.22 | *
    |     6252 |        - |      396 |      396 |       0.22 | *
    |     6256 |        - |      395 |      395 |       0.22 | *
    |     6257 |        - |      394 |      394 |       0.22 | *
    |     6352 |        - |      389 |      389 |       0.22 | *
    |     6451 |        - |      388 |      388 |       0.22 | *
    |     6468 |        - |      387 |      387 |       0.22 | *
    |     6475 |        - |      385 |      385 |       0.22 | *
    |     6534 |        - |      380 |      380 |       0.22 | *
    |     6678 |        - |      378 |      378 |       0.22 | *
    |     6786 |        - |      377 |      377 |       0.22 | *
    |     6790 |        - |      375 |      375 |       0.23 | *
    |     6804 |        - |      372 |      372 |       0.23 | *
    |     6915 |        - |      371 |      371 |       0.23 | *
    |     7061 |        - |      368 |      368 |       0.23 | *
    |     7082 |        - |      365 |      365 |       0.23 | *
    |     7097 |        - |      363 |      363 |       0.23 | *
    |     7225 |        - |      362 |      362 |       0.23 | *
    |     7253 |        - |      361 |      361 |       0.23 | *
    |     7270 |        - |      358 |      358 |       0.23 | *
    |     7316 |        - |      355 |      355 |       0.23 | *
    |     7335 |        - |      352 |      352 |       0.23 | *
    |     7357 |        - |      351 |      351 |       0.23 | *
    |     7441 |        - |      349 |      349 |       0.23 | *
    |     7496 |        - |      348 |      348 |       0.23 | *
    |     7517 |        - |      347 |      347 |       0.23 | *
    |     7557 |        - |      344 |      344 |       0.23 | *
    |     7677 |        - |      342 |      342 |       0.23 | *
    |     7734 |        - |      340 |      340 |       0.24 | *
    |     8513 |        - |      337 |      337 |       0.24 | *
    |     8651 |        - |      336 |      336 |       0.24 | *
    |     8652 |        - |      335 |      335 |       0.24 | *
    |     8749 |        - |      334 |      334 |       0.24 | *
    |     9127 |        - |      333 |      333 |       0.24 | *
    |     9134 |        - |      332 |      332 |       0.24 | *
    |     9194 |        - |      331 |      331 |       0.24 | *
    |     9199 |        - |      330 |      330 |       0.24 | *
    |     9756 |        - |      329 |      329 |       0.25 | *
    |     9806 |        - |      328 |      328 |       0.25 | *
    |     9874 |        - |      326 |      326 |       0.25 | *
    |      10K |        - |      325 |      325 |       0.25 | *
    |      10K |        - |      324 |      324 |       0.25 | *
    |      10K |        - |      323 |      323 |       0.25 | *
    |      11K |        - |      322 |      322 |       0.25 | *
    |      12K |        - |      320 |      320 |       0.25 | *
    |      12K |        - |      318 |      318 |       0.26 | *
    |      12K |        - |      315 |      315 |       0.26 | *
    |      12K |        - |      313 |      313 |       0.26 | *
    |      12K |        - |      312 |      312 |       0.26 | *
    |      12K |        - |      311 |      311 |       0.26 | *
    |      13K |        - |      310 |      310 |       0.26 | *
    |      13K |        - |      309 |      309 |       0.26 | *
    |      13K |        - |      307 |      307 |       0.26 | *
    |      14K |        - |      306 |      306 |       0.26 | *
    |      14K |        - |      305 |      305 |       0.27 | *
    |      14K |        - |      303 |      303 |       0.27 | *
    |      14K |        - |      301 |      301 |       0.27 | *
    |      14K |        - |      300 |      300 |       0.27 | *
    |      14K |        - |      299 |      299 |       0.27 | *
    |      16K |        - |      298 |      298 |       0.27 | *
    |      16K |        - |      296 |      296 |       0.27 | *
    |      16K |        - |      295 |      295 |       0.27 | *
    |      16K |        - |      294 |      294 |       0.27 | *
    |      16K |        - |      293 |      293 |       0.27 | *
    |      16K |        - |      292 |      292 |       0.27 | *
    |      16K |        - |      291 |      291 |       0.27 | *
    |      17K |        - |      289 |      289 |       0.28 | *
    |      17K |        - |      287 |      287 |       0.28 | *
    |      17K |        - |      286 |      286 |       0.28 | *
    |      17K |        - |      285 |      285 |       0.28 | *
    |      18K |        - |      283 |      283 |       0.28 | *
    |      18K |        - |      280 |      280 |       0.28 | *
    |      18K |        - |      277 |      277 |       0.28 | *
    |      19K |        - |      276 |      276 |       0.28 | *
    |      19K |        - |      275 |      275 |       0.29 | *
    |      23K |        - |      274 |      274 |       0.29 | *
    |      23K |        - |      273 |      273 |       0.30 | *
    |      23K |        - |      272 |      272 |       0.30 | *
    |      23K |        - |      271 |      271 |       0.30 | *
    |      23K |        - |      269 |      269 |       0.30 | *
    |      24K |        - |      267 |      267 |       0.30 | *
    |      25K |        - |      265 |      265 |       0.30 | *
    |      25K |        - |      264 |      264 |       0.30 | *
    |      25K |        - |      261 |      261 |       0.31 | *
    |      25K |        - |      260 |      260 |       0.31 | *
    |      27K |        - |      259 |      259 |       0.31 | *
    |      27K |        - |      258 |      258 |       0.31 | *
    |      27K |        - |      257 |      257 |       0.31 | *
    |      28K |        - |      256 |      256 |       0.31 | *
    |      28K |        - |      255 |      255 |       0.32 | *
    |      29K |        - |      253 |      253 |       0.32 | *
    |      29K |        - |      252 |      252 |       0.32 | *
    |      30K |        - |      251 |      251 |       0.32 | *
    |      30K |        - |      250 |      250 |       0.32 | *
    |      30K |        - |      249 |      249 |       0.32 | *
    |      31K |        - |      247 |      247 |       0.32 | *
    |      31K |        - |      246 |      246 |       0.32 | *
    |      33K |        - |      245 |      245 |       0.33 | *
    |      33K |        - |      244 |      244 |       0.33 | *
    |      34K |        - |      242 |      242 |       0.33 | *
    |      34K |        - |      241 |      241 |       0.33 | *
    |      34K |        - |      240 |      240 |       0.33 | *
    |      34K |        - |      239 |      239 |       0.33 | *
    |      34K |        - |      238 |      238 |       0.33 | *
    |      38K |        - |      237 |      237 |       0.34 | *
    |      39K |        - |      236 |      236 |       0.34 | *
    |      40K |        - |      235 |      235 |       0.34 | *
    |      40K |        - |      233 |      233 |       0.34 | *
    |      40K |        - |      232 |      232 |       0.34 | *
    |      42K |        - |      231 |      231 |       0.35 | *
    |      44K |        - |      230 |      230 |       0.35 | *
    |      44K |        - |      229 |      229 |       0.35 | *
    |      45K |        - |      228 |      228 |       0.35 | *
    |      51K |        - |      227 |      227 |       0.36 | *
    |      51K |        - |      226 |      226 |       0.36 | *
    |      51K |        - |      225 |      225 |       0.36 | *
    |      52K |        - |      224 |      224 |       0.36 | *
    |      52K |        - |      222 |      222 |       0.36 | *
    |      52K |        - |      221 |      221 |       0.36 | *
    |      53K |        - |      220 |      220 |       0.36 | *
    |      54K |        - |      219 |      219 |       0.37 | *
    |      55K |        - |      218 |      218 |       0.37 | *
    |      55K |        - |      217 |      217 |       0.37 | *
    |      55K |        - |      216 |      216 |       0.37 | *
    |      56K |        - |      214 |      214 |       0.38 | *
    |      67K |        - |      213 |      213 |       0.41 | *
    |      69K |        - |      212 |      212 |       0.41 | *
    |      73K |        - |      211 |      211 |       0.43 | *
    |      76K |        - |      210 |      210 |       0.43 | *
    |      86K |        - |      209 |      209 |       0.45 | *
    |      90K |        - |      208 |      208 |       0.46 | *
    |      90K |        - |      207 |      207 |       0.47 | *
    |      92K |        - |      206 |      206 |       0.47 | *
    |      92K |        - |      204 |      204 |       0.47 | *
    |     101K |        - |      203 |      203 |       0.49 | *
    |     102K |        - |      202 |      202 |       0.50 | *
    |     114K |        - |      201 |      201 |       0.53 | *
    |     116K |        - |      200 |      200 |       0.54 | *
    |     121K |        - |      199 |      199 |       0.55 | *
    |     138K |        - |      198 |      198 |       0.60 | *
    |     153K |        - |      197 |      197 |       0.65 | *
    |     160K |        - |      196 |      196 |       0.67 | *
    |     164K |        - |      195 |      195 |       0.69 | *
    |     166K |        - |      194 |      194 |       0.70 | *
    |     166K |        - |      193 |      193 |       0.70 | *
    |     167K |        - |      192 |      192 |       0.70 | *
    |     167K |        - |      191 |      191 |       0.70 | *
    |     167K |        - |      190 |      190 |       0.70 | *
    |     174K |        - |      189 |      189 |       0.72 | *
    |     302K |        - |      188 |      188 |       1.05 | *
    |     305K |        - |      187 |      187 |       1.05 | *
    |     305K |        - |      186 |      186 |       1.05 | *
    |     328K |        - |      185 |      185 |       1.09 | *
    |     346K |        - |      184 |      184 |       1.12 | *
    |     348K |        - |      183 |      183 |       1.12 | *
    |     400K |        - |      182 |      182 |       1.21 | *
    |     400K |        - |      180 |      180 |       1.21 | *
    |     417K |        - |      178 |      178 |       1.22 | *
    |     431K |        - |      177 |      177 |       1.24 | *
    |     432K |        - |      176 |      176 |       1.24 | *
    |     440K |        - |      175 |      175 |       1.25 | *
    |     535K |        - |      174 |      174 |       1.35 | *
    |     535K |        - |      173 |      173 |       1.35 | *
    |     535K |        - |      172 |      172 |       1.35 | *
    |     552K |        - |      171 |      171 |       1.37 | *
    |     558K |        - |      170 |      170 |       1.38 | *
    |     680K |        - |      169 |      169 |       1.50 | *
    |     699K |        - |      168 |      168 |       1.51 | *
    |     700K |        - |      167 |      167 |       1.51 | *
    |     717K |        - |      166 |      166 |       1.53 | *
    |     729K |        - |      165 |      165 |       1.54 | *
    |     821K |        - |      164 |      164 |       1.64 | *
    |    1271K |        - |      163 |      163 |       1.99 | *
    |    1280K |        - |      162 |      162 |       1.99 | *
    |    1472K |        - |      161 |      161 |       2.13 | *
    |    1515K |        - |      160 |      160 |       2.17 | *
    |    1707K |        - |      159 |      159 |       2.32 | *
    |    1714K |        - |      158 |      158 |       2.33 | *
    |    1715K |        - |      157 |      157 |       2.33 | *
    |    1720K |        - |      156 |      156 |       2.33 | *
    |    1720K |        - |      155 |      155 |       2.33 | *
    |    1789K |        - |      154 |      154 |       2.41 | *
    |    2233K |        - |      153 |      153 |       2.84 | *
    |    2252K |        - |      152 |      152 |       2.85 | *
    |    2272K |        - |      151 |      151 |       2.87 | *
    |    2281K |        - |      150 |      150 |       2.88 | *
    |    2515K |        - |      149 |      149 |       3.18 | *
    |    2532K |        - |      148 |      148 |       3.20 | *
    |    2548K |        - |      147 |      147 |       3.22 | *
    |    2630K |        - |      146 |      146 |       3.33 | *
    |    2661K |        - |      145 |      145 |       3.37 | *
    |    2681K |        - |      144 |      144 |       3.39 | *
    |    2686K |        - |      143 |      143 |       3.40 | *
    |    4586K |        - |      141 |      141 |       4.89 | *
    |    4855K |        - |      140 |      140 |       5.08 | *
    |    4923K |        - |      139 |      139 |       5.14 | *
    |    4938K |        - |      138 |      138 |       5.16 | *
    |      14M |        - |      137 |      137 |      12.88 | *
    |      15M |        - |      136 |      136 |      13.21 | *
    |      15M |        - |      135 |      135 |      13.45 | *
    |      15M |        - |      134 |      134 |      13.61 | *
    |      67M |        - |      133 |      133 |      50.88 | *
    |      67M |        - |      132 |      132 |      51.23 | *
    |     105M |        - |      131 |      131 |      78.20 | *
    |     112M |        - |      130 |      130 |      82.99 | *
    |     112M |        - |      129 |      129 |      82.99 | *
    |     359M |        - |      127 |      127 |     260.46 | *
    |     360M |        - |      126 |      126 |     260.67 | *
    |     400M |        - |      125 |      125 |     288.95 | *
    |     491M |        - |      124 |      124 |     352.78 | *
    |     549M |        - |      123 |      123 |     394.45 | *
    \--------------------------------------------------------/

Neighborhoods statistics (values in %):

    /----------------------------------------------------------------\
    | Move               | Improvs. | Sideways |  Accepts |  Rejects |
    |--------------------|----------|----------|----------|----------|
    | Shift(mk)          |      12K |      62K |      78K |     211M |
    | Shift              |      632 |    1050K |    1060K |     211M |
    | ShiftSmart(mk)     |     100K |     579K |     718K |     211M |
    | ShiftSmart         |     5032 |    7732K |    7802K |     204M |
    | SimpSwap(mk)       |      105 |      113 |      240 |     211M |
    | SimpSwap           |        9 |      514 |      611 |     212M |
    | SimpSwapSmart(mk)  |      850 |      978 |     1998 |     212M |
    | SimpSwapSmart      |      120 |     4798 |     5953 |     211M |
    | Swap(mk)           |       11 |       15 |       26 |     211M |
    | Swap               |        0 |      114 |      125 |     212M |
    | SwapSmart(mk)      |      544 |      883 |     1609 |     211M |
    | SwapSmart          |       60 |     7179 |     7689 |     211M |
    | Switch(mk)         |     2771 |      22M |      22M |     189M |
    | Switch             |      147 |      23M |      23M |     189M |
    | SwitchSmart(mk)    |      23K |      23K |      52K |     212M |
    | SwitchSmart        |     1160 |    3771K |    3790K |     208M |
    | TaskMove(mk)       |      768 |     4204 |     5274 |     211M |
    | TaskMove           |       47 |      15K |      15K |     212M |
    | TaskMoveSmart(mk)  |     6696 |      47K |      56K |     211M |
    | TaskMoveSmart      |      512 |     138K |     142K |     211M |
    | 2-Shift(mk)        |     3239 |    2749K |    2753K |     209M |
    | 2-Shift            |      172 |    3042K |    3044K |     209M |
    | 2-ShiftSmart(mk)   |      22K |    2302K |    2328K |     209M |
    | 2-ShiftSmart       |     1090 |    5754K |    5768K |     206M |
    \----------------------------------------------------------------/

Best makespan.....: 123
N. of Iterations..: 5076026539
Total runtime.....: 3600.01s
Using Python-MIP package version 1.6.8
Começo a execução
    /-------------------------------------------------------------------------------\
    |    Makespan   |   Free Jobs   | Free Machines |    It. Time   |   Total Time  | 
    |-------------------------------------------------------------------------------|
    \-------------------------------------------------------------------------------/
Terminou a execução
