Instance....: instances/I_200_15_S_1-9_3.txt
Algorithm...: Simulated Annealing (alpha=0.990, saMax=10M, t0=1)
Other params: maxIters=100M, seed=-1, timeLimit=3600.00s

    /--------------------------------------------------------\
    |     Iter |   RDP(%) |       S* |       S' |       Time | 
    |----------|----------|----------|----------|------------|
    |        0 |        - |     1262 |     1262 |       0.00 | s0
    |        1 |        - |     1240 |     1240 |       0.00 | *
    |        2 |        - |     1229 |     1229 |       0.01 | *
    |        4 |        - |     1218 |     1218 |       0.02 | *
    |        5 |        - |     1195 |     1195 |       0.02 | *
    |        8 |        - |     1156 |     1156 |       0.03 | *
    |        9 |        - |     1148 |     1148 |       0.03 | *
    |       10 |        - |     1125 |     1125 |       0.03 | *
    |       12 |        - |     1061 |     1061 |       0.03 | *
    |       15 |        - |     1051 |     1051 |       0.03 | *
    |       18 |        - |     1046 |     1046 |       0.03 | *
    |       19 |        - |     1042 |     1042 |       0.03 | *
    |       28 |        - |     1027 |     1027 |       0.03 | *
    |       34 |        - |     1022 |     1022 |       0.03 | *
    |       43 |        - |      963 |      963 |       0.04 | *
    |       50 |        - |      962 |      962 |       0.04 | *
    |       53 |        - |      960 |      960 |       0.04 | *
    |       55 |        - |      951 |      951 |       0.04 | *
    |       60 |        - |      942 |      942 |       0.04 | *
    |       68 |        - |      930 |      930 |       0.04 | *
    |       70 |        - |      925 |      925 |       0.04 | *
    |       76 |        - |      907 |      907 |       0.04 | *
    |       78 |        - |      905 |      905 |       0.04 | *
    |       79 |        - |      898 |      898 |       0.04 | *
    |       84 |        - |      891 |      891 |       0.04 | *
    |       87 |        - |      890 |      890 |       0.04 | *
    |       89 |        - |      887 |      887 |       0.04 | *
    |       93 |        - |      885 |      885 |       0.04 | *
    |       97 |        - |      882 |      882 |       0.04 | *
    |      104 |        - |      874 |      874 |       0.05 | *
    |      109 |        - |      861 |      861 |       0.05 | *
    |      115 |        - |      858 |      858 |       0.05 | *
    |      128 |        - |      853 |      853 |       0.05 | *
    |      133 |        - |      839 |      839 |       0.05 | *
    |      135 |        - |      834 |      834 |       0.05 | *
    |      138 |        - |      831 |      831 |       0.05 | *
    |      139 |        - |      829 |      829 |       0.05 | *
    |      141 |        - |      820 |      820 |       0.05 | *
    |      143 |        - |      818 |      818 |       0.05 | *
    |      146 |        - |      806 |      806 |       0.05 | *
    |      165 |        - |      786 |      786 |       0.05 | *
    |      169 |        - |      784 |      784 |       0.05 | *
    |      170 |        - |      773 |      773 |       0.05 | *
    |      171 |        - |      769 |      769 |       0.06 | *
    |      173 |        - |      768 |      768 |       0.06 | *
    |      179 |        - |      766 |      766 |       0.06 | *
    |      182 |        - |      764 |      764 |       0.06 | *
    |      183 |        - |      757 |      757 |       0.06 | *
    |      184 |        - |      750 |      750 |       0.06 | *
    |      186 |        - |      748 |      748 |       0.06 | *
    |      187 |        - |      745 |      745 |       0.06 | *
    |      192 |        - |      737 |      737 |       0.06 | *
    |      193 |        - |      736 |      736 |       0.06 | *
    |      197 |        - |      735 |      735 |       0.06 | *
    |      198 |        - |      734 |      734 |       0.06 | *
    |      200 |        - |      719 |      719 |       0.06 | *
    |      202 |        - |      708 |      708 |       0.06 | *
    |      205 |        - |      705 |      705 |       0.06 | *
    |      207 |        - |      696 |      696 |       0.06 | *
    |      215 |        - |      694 |      694 |       0.06 | *
    |      236 |        - |      692 |      692 |       0.06 | *
    |      237 |        - |      690 |      690 |       0.07 | *
    |      239 |        - |      689 |      689 |       0.07 | *
    |      241 |        - |      686 |      686 |       0.07 | *
    |      243 |        - |      685 |      685 |       0.07 | *
    |      247 |        - |      683 |      683 |       0.07 | *
    |      248 |        - |      682 |      682 |       0.07 | *
    |      255 |        - |      678 |      678 |       0.07 | *
    |      261 |        - |      671 |      671 |       0.07 | *
    |      269 |        - |      668 |      668 |       0.07 | *
    |      270 |        - |      664 |      664 |       0.07 | *
    |      274 |        - |      661 |      661 |       0.07 | *
    |      279 |        - |      660 |      660 |       0.07 | *
    |      282 |        - |      651 |      651 |       0.07 | *
    |      291 |        - |      646 |      646 |       0.07 | *
    |      303 |        - |      639 |      639 |       0.07 | *
    |      315 |        - |      636 |      636 |       0.07 | *
    |      317 |        - |      634 |      634 |       0.07 | *
    |      319 |        - |      631 |      631 |       0.07 | *
    |      322 |        - |      629 |      629 |       0.07 | *
    |      327 |        - |      626 |      626 |       0.08 | *
    |      331 |        - |      621 |      621 |       0.08 | *
    |      336 |        - |      620 |      620 |       0.08 | *
    |      338 |        - |      616 |      616 |       0.08 | *
    |      339 |        - |      614 |      614 |       0.08 | *
    |      344 |        - |      613 |      613 |       0.08 | *
    |      345 |        - |      612 |      612 |       0.08 | *
    |      347 |        - |      611 |      611 |       0.08 | *
    |      356 |        - |      610 |      610 |       0.08 | *
    |      399 |        - |      609 |      609 |       0.08 | *
    |      405 |        - |      606 |      606 |       0.08 | *
    |      417 |        - |      603 |      603 |       0.08 | *
    |      420 |        - |      601 |      601 |       0.08 | *
    |      426 |        - |      598 |      598 |       0.08 | *
    |      428 |        - |      597 |      597 |       0.08 | *
    |      431 |        - |      594 |      594 |       0.08 | *
    |      441 |        - |      593 |      593 |       0.08 | *
    |      443 |        - |      591 |      591 |       0.08 | *
    |      448 |        - |      586 |      586 |       0.08 | *
    |      450 |        - |      585 |      585 |       0.09 | *
    |      470 |        - |      578 |      578 |       0.09 | *
    |      472 |        - |      573 |      573 |       0.09 | *
    |      486 |        - |      567 |      567 |       0.09 | *
    |      492 |        - |      566 |      566 |       0.09 | *
    |      496 |        - |      564 |      564 |       0.09 | *
    |      497 |        - |      562 |      562 |       0.09 | *
    |      500 |        - |      560 |      560 |       0.09 | *
    |      510 |        - |      559 |      559 |       0.09 | *
    |      520 |        - |      557 |      557 |       0.09 | *
    |      528 |        - |      550 |      550 |       0.09 | *
    |      566 |        - |      545 |      545 |       0.09 | *
    |      568 |        - |      542 |      542 |       0.09 | *
    |      604 |        - |      537 |      537 |       0.09 | *
    |      610 |        - |      536 |      536 |       0.09 | *
    |      616 |        - |      532 |      532 |       0.09 | *
    |      625 |        - |      529 |      529 |       0.10 | *
    |      647 |        - |      527 |      527 |       0.10 | *
    |      651 |        - |      523 |      523 |       0.10 | *
    |      652 |        - |      522 |      522 |       0.10 | *
    |      653 |        - |      521 |      521 |       0.10 | *
    |      656 |        - |      520 |      520 |       0.10 | *
    |      662 |        - |      517 |      517 |       0.10 | *
    |      667 |        - |      516 |      516 |       0.10 | *
    |      675 |        - |      515 |      515 |       0.10 | *
    |      685 |        - |      512 |      512 |       0.10 | *
    |      700 |        - |      511 |      511 |       0.10 | *
    |      709 |        - |      507 |      507 |       0.10 | *
    |      721 |        - |      506 |      506 |       0.10 | *
    |      730 |        - |      505 |      505 |       0.11 | *
    |      788 |        - |      503 |      503 |       0.11 | *
    |      789 |        - |      501 |      501 |       0.11 | *
    |      798 |        - |      500 |      500 |       0.11 | *
    |      811 |        - |      496 |      496 |       0.11 | *
    |      817 |        - |      495 |      495 |       0.11 | *
    |      822 |        - |      492 |      492 |       0.11 | *
    |      831 |        - |      490 |      490 |       0.11 | *
    |      834 |        - |      489 |      489 |       0.11 | *
    |      848 |        - |      487 |      487 |       0.11 | *
    |      852 |        - |      485 |      485 |       0.11 | *
    |      855 |        - |      484 |      484 |       0.11 | *
    |      857 |        - |      482 |      482 |       0.11 | *
    |      864 |        - |      481 |      481 |       0.11 | *
    |      866 |        - |      480 |      480 |       0.12 | *
    |      874 |        - |      477 |      477 |       0.12 | *
    |      875 |        - |      475 |      475 |       0.12 | *
    |      880 |        - |      473 |      473 |       0.12 | *
    |      882 |        - |      472 |      472 |       0.12 | *
    |      894 |        - |      471 |      471 |       0.12 | *
    |      911 |        - |      468 |      468 |       0.12 | *
    |      922 |        - |      462 |      462 |       0.12 | *
    |      925 |        - |      458 |      458 |       0.12 | *
    |      935 |        - |      452 |      452 |       0.12 | *
    |      938 |        - |      451 |      451 |       0.12 | *
    |      948 |        - |      450 |      450 |       0.12 | *
    |      959 |        - |      447 |      447 |       0.12 | *
    |      966 |        - |      446 |      446 |       0.12 | *
    |      968 |        - |      441 |      441 |       0.12 | *
    |      973 |        - |      440 |      440 |       0.12 | *
    |      982 |        - |      438 |      438 |       0.13 | *
    |      988 |        - |      435 |      435 |       0.13 | *
    |     1005 |        - |      433 |      433 |       0.13 | *
    |     1016 |        - |      432 |      432 |       0.13 | *
    |     1017 |        - |      431 |      431 |       0.13 | *
    |     1027 |        - |      430 |      430 |       0.13 | *
    |     1029 |        - |      429 |      429 |       0.13 | *
    |     1038 |        - |      428 |      428 |       0.13 | *
    |     1045 |        - |      427 |      427 |       0.13 | *
    |     1058 |        - |      426 |      426 |       0.13 | *
    |     1072 |        - |      425 |      425 |       0.13 | *
    |     1082 |        - |      424 |      424 |       0.13 | *
    |     1138 |        - |      419 |      419 |       0.13 | *
    |     1143 |        - |      418 |      418 |       0.13 | *
    |     1155 |        - |      417 |      417 |       0.13 | *
    |     1161 |        - |      416 |      416 |       0.14 | *
    |     1162 |        - |      414 |      414 |       0.14 | *
    |     1178 |        - |      413 |      413 |       0.14 | *
    |     1182 |        - |      412 |      412 |       0.14 | *
    |     1191 |        - |      410 |      410 |       0.14 | *
    |     1208 |        - |      409 |      409 |       0.14 | *
    |     1222 |        - |      407 |      407 |       0.14 | *
    |     1238 |        - |      406 |      406 |       0.14 | *
    |     1247 |        - |      405 |      405 |       0.14 | *
    |     1253 |        - |      404 |      404 |       0.14 | *
    |     1258 |        - |      403 |      403 |       0.14 | *
    |     1261 |        - |      401 |      401 |       0.14 | *
    |     1301 |        - |      400 |      400 |       0.14 | *
    |     1306 |        - |      398 |      398 |       0.14 | *
    |     1329 |        - |      397 |      397 |       0.14 | *
    |     1348 |        - |      396 |      396 |       0.14 | *
    |     1377 |        - |      393 |      393 |       0.15 | *
    |     1382 |        - |      392 |      392 |       0.15 | *
    |     1388 |        - |      391 |      391 |       0.15 | *
    |     1393 |        - |      389 |      389 |       0.15 | *
    |     1401 |        - |      386 |      386 |       0.15 | *
    |     1411 |        - |      383 |      383 |       0.15 | *
    |     1427 |        - |      381 |      381 |       0.15 | *
    |     1436 |        - |      378 |      378 |       0.15 | *
    |     1442 |        - |      377 |      377 |       0.15 | *
    |     1446 |        - |      376 |      376 |       0.15 | *
    |     1455 |        - |      374 |      374 |       0.15 | *
    |     1466 |        - |      370 |      370 |       0.15 | *
    |     1468 |        - |      367 |      367 |       0.15 | *
    |     1493 |        - |      366 |      366 |       0.15 | *
    |     1505 |        - |      365 |      365 |       0.15 | *
    |     1511 |        - |      364 |      364 |       0.15 | *
    |     1519 |        - |      363 |      363 |       0.15 | *
    |     1545 |        - |      361 |      361 |       0.16 | *
    |     1565 |        - |      359 |      359 |       0.16 | *
    |     1575 |        - |      358 |      358 |       0.16 | *
    |     1578 |        - |      357 |      357 |       0.16 | *
    |     1584 |        - |      356 |      356 |       0.16 | *
    |     1586 |        - |      354 |      354 |       0.16 | *
    |     1615 |        - |      352 |      352 |       0.16 | *
    |     1631 |        - |      351 |      351 |       0.16 | *
    |     1671 |        - |      350 |      350 |       0.16 | *
    |     1680 |        - |      349 |      349 |       0.16 | *
    |     1685 |        - |      348 |      348 |       0.16 | *
    |     1751 |        - |      347 |      347 |       0.16 | *
    |     1764 |        - |      345 |      345 |       0.16 | *
    |     1790 |        - |      344 |      344 |       0.16 | *
    |     1793 |        - |      343 |      343 |       0.16 | *
    |     1796 |        - |      341 |      341 |       0.16 | *
    |     1801 |        - |      339 |      339 |       0.17 | *
    |     1809 |        - |      338 |      338 |       0.17 | *
    |     1855 |        - |      337 |      337 |       0.17 | *
    |     1876 |        - |      336 |      336 |       0.17 | *
    |     2017 |        - |      335 |      335 |       0.17 | *
    |     2023 |        - |      334 |      334 |       0.17 | *
    |     2041 |        - |      333 |      333 |       0.17 | *
    |     2053 |        - |      331 |      331 |       0.17 | *
    |     2072 |        - |      330 |      330 |       0.17 | *
    |     2083 |        - |      329 |      329 |       0.17 | *
    |     2084 |        - |      328 |      328 |       0.17 | *
    |     2107 |        - |      326 |      326 |       0.17 | *
    |     2132 |        - |      324 |      324 |       0.17 | *
    |     2137 |        - |      323 |      323 |       0.17 | *
    |     2146 |        - |      322 |      322 |       0.17 | *
    |     2154 |        - |      320 |      320 |       0.18 | *
    |     2164 |        - |      319 |      319 |       0.18 | *
    |     2167 |        - |      318 |      318 |       0.18 | *
    |     2196 |        - |      317 |      317 |       0.18 | *
    |     2206 |        - |      316 |      316 |       0.18 | *
    |     2210 |        - |      315 |      315 |       0.18 | *
    |     2222 |        - |      314 |      314 |       0.18 | *
    |     2243 |        - |      313 |      313 |       0.18 | *
    |     2362 |        - |      312 |      312 |       0.18 | *
    |     2373 |        - |      311 |      311 |       0.18 | *
    |     2395 |        - |      308 |      308 |       0.18 | *
    |     2399 |        - |      307 |      307 |       0.18 | *
    |     2462 |        - |      306 |      306 |       0.18 | *
    |     2499 |        - |      305 |      305 |       0.18 | *
    |     2516 |        - |      304 |      304 |       0.18 | *
    |     2529 |        - |      303 |      303 |       0.18 | *
    |     2546 |        - |      302 |      302 |       0.18 | *
    |     2591 |        - |      301 |      301 |       0.18 | *
    |     2611 |        - |      300 |      300 |       0.18 | *
    |     2614 |        - |      297 |      297 |       0.18 | *
    |     2617 |        - |      296 |      296 |       0.19 | *
    |     2630 |        - |      295 |      295 |       0.19 | *
    |     2632 |        - |      294 |      294 |       0.19 | *
    |     2717 |        - |      293 |      293 |       0.19 | *
    |     2725 |        - |      292 |      292 |       0.19 | *
    |     2778 |        - |      291 |      291 |       0.19 | *
    |     2786 |        - |      289 |      289 |       0.19 | *
    |     2824 |        - |      287 |      287 |       0.19 | *
    |     2883 |        - |      286 |      286 |       0.19 | *
    |     2911 |        - |      285 |      285 |       0.19 | *
    |     2935 |        - |      284 |      284 |       0.19 | *
    |     2954 |        - |      283 |      283 |       0.19 | *
    |     2958 |        - |      282 |      282 |       0.19 | *
    |     2966 |        - |      280 |      280 |       0.19 | *
    |     2970 |        - |      279 |      279 |       0.19 | *
    |     2982 |        - |      278 |      278 |       0.19 | *
    |     2993 |        - |      277 |      277 |       0.19 | *
    |     3035 |        - |      276 |      276 |       0.19 | *
    |     3104 |        - |      275 |      275 |       0.19 | *
    |     3114 |        - |      274 |      274 |       0.19 | *
    |     3132 |        - |      273 |      273 |       0.19 | *
    |     3154 |        - |      272 |      272 |       0.20 | *
    |     3187 |        - |      271 |      271 |       0.20 | *
    |     3217 |        - |      270 |      270 |       0.20 | *
    |     3234 |        - |      269 |      269 |       0.20 | *
    |     3336 |        - |      268 |      268 |       0.20 | *
    |     3361 |        - |      267 |      267 |       0.20 | *
    |     3582 |        - |      265 |      265 |       0.20 | *
    |     3635 |        - |      264 |      264 |       0.20 | *
    |     3734 |        - |      262 |      262 |       0.20 | *
    |     3749 |        - |      261 |      261 |       0.20 | *
    |     3754 |        - |      260 |      260 |       0.20 | *
    |     3759 |        - |      259 |      259 |       0.20 | *
    |     3809 |        - |      258 |      258 |       0.20 | *
    |     3872 |        - |      257 |      257 |       0.20 | *
    |     3923 |        - |      256 |      256 |       0.20 | *
    |     4045 |        - |      255 |      255 |       0.20 | *
    |     4170 |        - |      254 |      254 |       0.20 | *
    |     4179 |        - |      253 |      253 |       0.20 | *
    |     4188 |        - |      252 |      252 |       0.20 | *
    |     4200 |        - |      251 |      251 |       0.20 | *
    |     4213 |        - |      250 |      250 |       0.20 | *
    |     4309 |        - |      249 |      249 |       0.20 | *
    |     4376 |        - |      248 |      248 |       0.21 | *
    |     4561 |        - |      247 |      247 |       0.21 | *
    |     4564 |        - |      246 |      246 |       0.21 | *
    |     4565 |        - |      245 |      245 |       0.21 | *
    |     4597 |        - |      244 |      244 |       0.21 | *
    |     4599 |        - |      243 |      243 |       0.21 | *
    |     4601 |        - |      242 |      242 |       0.21 | *
    |     4606 |        - |      241 |      241 |       0.21 | *
    |     4659 |        - |      240 |      240 |       0.21 | *
    |     4669 |        - |      239 |      239 |       0.21 | *
    |     4691 |        - |      238 |      238 |       0.21 | *
    |     4700 |        - |      237 |      237 |       0.21 | *
    |     4775 |        - |      236 |      236 |       0.21 | *
    |     5006 |        - |      235 |      235 |       0.21 | *
    |     5131 |        - |      234 |      234 |       0.21 | *
    |     5151 |        - |      233 |      233 |       0.21 | *
    |     5244 |        - |      232 |      232 |       0.21 | *
    |     5273 |        - |      231 |      231 |       0.21 | *
    |     5322 |        - |      230 |      230 |       0.21 | *
    |     5434 |        - |      229 |      229 |       0.21 | *
    |     5453 |        - |      228 |      228 |       0.21 | *
    |     5470 |        - |      227 |      227 |       0.21 | *
    |     5488 |        - |      226 |      226 |       0.21 | *
    |     5503 |        - |      225 |      225 |       0.21 | *
    |     5607 |        - |      224 |      224 |       0.21 | *
    |     5631 |        - |      223 |      223 |       0.21 | *
    |     5818 |        - |      222 |      222 |       0.22 | *
    |     5834 |        - |      221 |      221 |       0.22 | *
    |     5855 |        - |      220 |      220 |       0.22 | *
    |     5957 |        - |      219 |      219 |       0.22 | *
    |     5974 |        - |      218 |      218 |       0.22 | *
    |     6083 |        - |      217 |      217 |       0.22 | *
    |     6098 |        - |      216 |      216 |       0.22 | *
    |     6211 |        - |      215 |      215 |       0.22 | *
    |     6222 |        - |      213 |      213 |       0.22 | *
    |     6310 |        - |      212 |      212 |       0.22 | *
    |     6437 |        - |      211 |      211 |       0.22 | *
    |     6489 |        - |      210 |      210 |       0.22 | *
    |     6510 |        - |      209 |      209 |       0.22 | *
    |     6532 |        - |      208 |      208 |       0.22 | *
    |     6587 |        - |      207 |      207 |       0.22 | *
    |     6621 |        - |      206 |      206 |       0.22 | *
    |     6644 |        - |      205 |      205 |       0.22 | *
    |     6679 |        - |      203 |      203 |       0.22 | *
    |     6826 |        - |      202 |      202 |       0.22 | *
    |     6875 |        - |      201 |      201 |       0.22 | *
    |     6885 |        - |      200 |      200 |       0.22 | *
    |     7234 |        - |      199 |      199 |       0.22 | *
    |     7346 |        - |      198 |      198 |       0.22 | *
    |     7391 |        - |      197 |      197 |       0.22 | *
    |     7404 |        - |      196 |      196 |       0.22 | *
    |     7452 |        - |      195 |      195 |       0.22 | *
    |     7473 |        - |      194 |      194 |       0.23 | *
    |     7531 |        - |      193 |      193 |       0.23 | *
    |     7577 |        - |      192 |      192 |       0.23 | *
    |     7641 |        - |      190 |      190 |       0.23 | *
    |     7844 |        - |      189 |      189 |       0.23 | *
    |     7967 |        - |      188 |      188 |       0.23 | *
    |     8038 |        - |      187 |      187 |       0.23 | *
    |     8137 |        - |      186 |      186 |       0.23 | *
    |     8141 |        - |      185 |      185 |       0.23 | *
    |     8428 |        - |      184 |      184 |       0.23 | *
    |     8470 |        - |      183 |      183 |       0.23 | *
    |     8521 |        - |      182 |      182 |       0.23 | *
    |     8547 |        - |      181 |      181 |       0.23 | *
    |     8773 |        - |      180 |      180 |       0.23 | *
    |     8850 |        - |      179 |      179 |       0.23 | *
    |     8978 |        - |      178 |      178 |       0.23 | *
    |     8989 |        - |      177 |      177 |       0.23 | *
    |     9112 |        - |      176 |      176 |       0.23 | *
    |     9456 |        - |      175 |      175 |       0.23 | *
    |     9502 |        - |      174 |      174 |       0.23 | *
    |     9605 |        - |      173 |      173 |       0.23 | *
    |     9751 |        - |      172 |      172 |       0.24 | *
    |      10K |        - |      171 |      171 |       0.24 | *
    |      11K |        - |      169 |      169 |       0.24 | *
    |      11K |        - |      168 |      168 |       0.24 | *
    |      12K |        - |      167 |      167 |       0.24 | *
    |      12K |        - |      166 |      166 |       0.24 | *
    |      12K |        - |      165 |      165 |       0.24 | *
    |      12K |        - |      164 |      164 |       0.24 | *
    |      12K |        - |      163 |      163 |       0.25 | *
    |      12K |        - |      162 |      162 |       0.25 | *
    |      13K |        - |      161 |      161 |       0.25 | *
    |      14K |        - |      160 |      160 |       0.25 | *
    |      14K |        - |      159 |      159 |       0.25 | *
    |      16K |        - |      158 |      158 |       0.26 | *
    |      18K |        - |      157 |      157 |       0.26 | *
    |      18K |        - |      156 |      156 |       0.26 | *
    |      21K |        - |      155 |      155 |       0.26 | *
    |      22K |        - |      154 |      154 |       0.27 | *
    |      24K |        - |      153 |      153 |       0.27 | *
    |      25K |        - |      152 |      152 |       0.27 | *
    |      25K |        - |      151 |      151 |       0.28 | *
    |      25K |        - |      150 |      150 |       0.28 | *
    |      25K |        - |      149 |      149 |       0.28 | *
    |      28K |        - |      148 |      148 |       0.28 | *
    |      35K |        - |      147 |      147 |       0.30 | *
    |      35K |        - |      146 |      146 |       0.30 | *
    |      35K |        - |      145 |      145 |       0.30 | *
    |      35K |        - |      144 |      144 |       0.30 | *
    |      37K |        - |      143 |      143 |       0.30 | *
    |      37K |        - |      142 |      142 |       0.30 | *
    |      37K |        - |      141 |      141 |       0.30 | *
    |      43K |        - |      140 |      140 |       0.32 | *
    |      43K |        - |      139 |      139 |       0.32 | *
    |      44K |        - |      138 |      138 |       0.32 | *
    |      46K |        - |      137 |      137 |       0.33 | *
    |      47K |        - |      136 |      136 |       0.33 | *
    |      47K |        - |      135 |      135 |       0.33 | *
    |     117K |        - |      134 |      134 |       0.62 | *
    |     121K |        - |      133 |      133 |       0.65 | *
    |     122K |        - |      132 |      132 |       0.65 | *
    |     178K |        - |      131 |      131 |       0.91 | *
    |     178K |        - |      130 |      130 |       0.92 | *
    |     181K |        - |      129 |      129 |       0.93 | *
    |     295K |        - |      128 |      128 |       1.18 | *
    |     304K |        - |      127 |      127 |       1.19 | *
    |     305K |        - |      126 |      126 |       1.19 | *
    |     526K |        - |      125 |      125 |       1.45 | *
    |     667K |        - |      124 |      124 |       1.63 | *
    |     684K |        - |      123 |      123 |       1.65 | *
    |    1123K |        - |      122 |      122 |       2.02 | *
    |    2698K |        - |      121 |      121 |       3.51 | *
    |    4087K |        - |      120 |      120 |       4.73 | *
    |    4087K |        - |      119 |      119 |       4.73 | *
    |    4106K |        - |      118 |      118 |       4.74 | *
    |      57M |        - |      117 |      117 |      46.28 | *
    |      57M |        - |      116 |      116 |      46.28 | *
    |     161M |        - |      115 |      115 |     122.17 | *
    |     275M |        - |      114 |      114 |     205.75 | *
    |     286M |        - |      113 |      113 |     214.30 | *
    |     399M |        - |      112 |      112 |     296.93 | *
    |     584M |        - |      111 |      111 |     431.97 | *
    |     698M |        - |      110 |      110 |     516.08 | *
    |     867M |        - |      109 |      109 |     638.25 | *
    |     976M |        - |      108 |      108 |     717.17 | *
    |    1233M |        - |      107 |      107 |     902.34 | *
    \--------------------------------------------------------/

Neighborhoods statistics (values in %):

    /----------------------------------------------------------------\
    | Move               | Improvs. | Sideways |  Accepts |  Rejects |
    |--------------------|----------|----------|----------|----------|
    | Shift(mk)          |     479K |    2859K |    3720K |     207M |
    | Shift              |      32K |      12M |      12M |     199M |
    | ShiftSmart(mk)     |    3017K |      20M |      25M |     186M |
    | ShiftSmart         |     201K |      52M |      53M |     157M |
    | SimpSwap(mk)       |     1635 |     4031 |     7133 |     211M |
    | SimpSwap           |      231 |      14K |      17K |     211M |
    | SimpSwapSmart(mk)  |      18K |      47K |      79K |     211M |
    | SimpSwapSmart      |     2373 |     148K |     175K |     211M |
    | Swap(mk)           |      865 |     1953 |     3564 |     211M |
    | Swap               |      123 |     7607 |     9266 |     211M |
    | SwapSmart(mk)      |     7996 |      22K |      35K |     211M |
    | SwapSmart          |     1066 |      59K |      68K |     211M |
    | Switch(mk)         |     279K |      18M |      18M |     193M |
    | Switch             |      18K |      22M |      22M |     189M |
    | SwitchSmart(mk)    |    1602K |    6989K |    9396K |     202M |
    | SwitchSmart        |     106K |      25M |      26M |     184M |
    | TaskMove(mk)       |      19K |      41K |      72K |     211M |
    | TaskMove           |     1257 |      65K |      78K |     211M |
    | TaskMoveSmart(mk)  |      87K |     213K |     347K |     210M |
    | TaskMoveSmart      |     6132 |     328K |     379K |     210M |
    | 2-Shift(mk)        |     195K |    2277K |    2600K |     208M |
    | 2-Shift            |      13K |    5401K |    5700K |     205M |
    | 2-ShiftSmart(mk)   |    2505K |      13M |      17M |     194M |
    | 2-ShiftSmart       |     167K |      31M |      32M |     178M |
    \----------------------------------------------------------------/

Best makespan.....: 107
N. of Iterations..: 5058886194
Total runtime.....: 3600.01s
Using Python-MIP package version 1.6.8
Começo a execução
    /-------------------------------------------------------------------------------\
    |    Makespan   |   Free Jobs   | Free Machines |    It. Time   |   Total Time  | 
    |-------------------------------------------------------------------------------|
    \-------------------------------------------------------------------------------/
Terminou a execução
