Instance....: instances/I_200_10_S_1-49_2.txt
Algorithm...: Simulated Annealing (alpha=0.990, saMax=10M, t0=1)
Other params: maxIters=100M, seed=-1, timeLimit=3600.00s

    /--------------------------------------------------------\
    |     Iter |   RDP(%) |       S* |       S' |       Time | 
    |----------|----------|----------|----------|------------|
    |        0 |        - |     1975 |     1975 |       0.01 | s0
    |        2 |        - |     1972 |     1972 |       0.02 | *
    |        6 |        - |     1917 |     1917 |       0.02 | *
    |        7 |        - |     1882 |     1882 |       0.03 | *
    |        8 |        - |     1826 |     1826 |       0.03 | *
    |       10 |        - |     1808 |     1808 |       0.03 | *
    |       12 |        - |     1740 |     1740 |       0.03 | *
    |       13 |        - |     1679 |     1679 |       0.03 | *
    |       14 |        - |     1671 |     1671 |       0.03 | *
    |       15 |        - |     1630 |     1630 |       0.03 | *
    |       18 |        - |     1626 |     1626 |       0.03 | *
    |       24 |        - |     1569 |     1569 |       0.03 | *
    |       40 |        - |     1559 |     1559 |       0.04 | *
    |       41 |        - |     1555 |     1555 |       0.04 | *
    |       48 |        - |     1553 |     1553 |       0.04 | *
    |       51 |        - |     1541 |     1541 |       0.04 | *
    |       56 |        - |     1524 |     1524 |       0.04 | *
    |       57 |        - |     1520 |     1520 |       0.04 | *
    |       58 |        - |     1503 |     1503 |       0.04 | *
    |       60 |        - |     1488 |     1488 |       0.04 | *
    |       61 |        - |     1421 |     1421 |       0.04 | *
    |       62 |        - |     1418 |     1418 |       0.04 | *
    |       63 |        - |     1410 |     1410 |       0.04 | *
    |       66 |        - |     1383 |     1383 |       0.05 | *
    |       67 |        - |     1368 |     1368 |       0.05 | *
    |       75 |        - |     1336 |     1336 |       0.05 | *
    |       76 |        - |     1317 |     1317 |       0.05 | *
    |       77 |        - |     1316 |     1316 |       0.05 | *
    |       82 |        - |     1315 |     1315 |       0.05 | *
    |       84 |        - |     1300 |     1300 |       0.05 | *
    |       86 |        - |     1297 |     1297 |       0.05 | *
    |       91 |        - |     1295 |     1295 |       0.05 | *
    |       93 |        - |     1283 |     1283 |       0.05 | *
    |       94 |        - |     1280 |     1280 |       0.05 | *
    |       96 |        - |     1276 |     1276 |       0.05 | *
    |       98 |        - |     1260 |     1260 |       0.05 | *
    |      101 |        - |     1252 |     1252 |       0.05 | *
    |      102 |        - |     1249 |     1249 |       0.05 | *
    |      106 |        - |     1234 |     1234 |       0.06 | *
    |      110 |        - |     1227 |     1227 |       0.06 | *
    |      120 |        - |     1222 |     1222 |       0.06 | *
    |      122 |        - |     1213 |     1213 |       0.06 | *
    |      132 |        - |     1211 |     1211 |       0.06 | *
    |      141 |        - |     1204 |     1204 |       0.06 | *
    |      145 |        - |     1202 |     1202 |       0.06 | *
    |      148 |        - |     1189 |     1189 |       0.06 | *
    |      150 |        - |     1186 |     1186 |       0.06 | *
    |      155 |        - |     1176 |     1176 |       0.06 | *
    |      157 |        - |     1169 |     1169 |       0.06 | *
    |      173 |        - |     1168 |     1168 |       0.06 | *
    |      181 |        - |     1158 |     1158 |       0.06 | *
    |      188 |        - |     1157 |     1157 |       0.06 | *
    |      189 |        - |     1152 |     1152 |       0.06 | *
    |      194 |        - |     1150 |     1150 |       0.07 | *
    |      198 |        - |     1144 |     1144 |       0.07 | *
    |      199 |        - |     1142 |     1142 |       0.07 | *
    |      202 |        - |     1130 |     1130 |       0.07 | *
    |      207 |        - |     1129 |     1129 |       0.07 | *
    |      230 |        - |     1126 |     1126 |       0.07 | *
    |      234 |        - |     1122 |     1122 |       0.07 | *
    |      237 |        - |     1121 |     1121 |       0.07 | *
    |      246 |        - |     1117 |     1117 |       0.07 | *
    |      247 |        - |     1108 |     1108 |       0.07 | *
    |      255 |        - |     1103 |     1103 |       0.07 | *
    |      263 |        - |     1100 |     1100 |       0.07 | *
    |      266 |        - |     1096 |     1096 |       0.08 | *
    |      285 |        - |     1090 |     1090 |       0.08 | *
    |      304 |        - |     1083 |     1083 |       0.08 | *
    |      306 |        - |     1081 |     1081 |       0.08 | *
    |      318 |        - |     1078 |     1078 |       0.08 | *
    |      319 |        - |     1072 |     1072 |       0.08 | *
    |      320 |        - |     1062 |     1062 |       0.08 | *
    |      321 |        - |     1058 |     1058 |       0.08 | *
    |      349 |        - |     1054 |     1054 |       0.08 | *
    |      361 |        - |     1050 |     1050 |       0.08 | *
    |      364 |        - |     1049 |     1049 |       0.08 | *
    |      377 |        - |     1048 |     1048 |       0.09 | *
    |      379 |        - |     1047 |     1047 |       0.09 | *
    |      382 |        - |     1039 |     1039 |       0.09 | *
    |      385 |        - |     1028 |     1028 |       0.09 | *
    |      388 |        - |     1024 |     1024 |       0.09 | *
    |      403 |        - |     1023 |     1023 |       0.09 | *
    |      405 |        - |     1014 |     1014 |       0.09 | *
    |      425 |        - |     1009 |     1009 |       0.09 | *
    |      438 |        - |     1007 |     1007 |       0.09 | *
    |      456 |        - |     1005 |     1005 |       0.09 | *
    |      465 |        - |     1003 |     1003 |       0.09 | *
    |      466 |        - |     1000 |     1000 |       0.10 | *
    |      470 |        - |      994 |      994 |       0.10 | *
    |      471 |        - |      992 |      992 |       0.10 | *
    |      476 |        - |      989 |      989 |       0.10 | *
    |      496 |        - |      987 |      987 |       0.10 | *
    |      506 |        - |      977 |      977 |       0.10 | *
    |      512 |        - |      967 |      967 |       0.10 | *
    |      514 |        - |      965 |      965 |       0.10 | *
    |      525 |        - |      964 |      964 |       0.10 | *
    |      532 |        - |      963 |      963 |       0.10 | *
    |      559 |        - |      960 |      960 |       0.11 | *
    |      561 |        - |      959 |      959 |       0.11 | *
    |      570 |        - |      952 |      952 |       0.11 | *
    |      579 |        - |      949 |      949 |       0.11 | *
    |      612 |        - |      946 |      946 |       0.11 | *
    |      632 |        - |      943 |      943 |       0.11 | *
    |      640 |        - |      941 |      941 |       0.11 | *
    |      649 |        - |      940 |      940 |       0.11 | *
    |      650 |        - |      939 |      939 |       0.11 | *
    |      654 |        - |      930 |      930 |       0.11 | *
    |      657 |        - |      929 |      929 |       0.11 | *
    |      674 |        - |      922 |      922 |       0.12 | *
    |      677 |        - |      921 |      921 |       0.12 | *
    |      696 |        - |      914 |      914 |       0.12 | *
    |      723 |        - |      910 |      910 |       0.12 | *
    |      733 |        - |      909 |      909 |       0.12 | *
    |      742 |        - |      907 |      907 |       0.12 | *
    |      757 |        - |      906 |      906 |       0.12 | *
    |      761 |        - |      904 |      904 |       0.12 | *
    |      765 |        - |      897 |      897 |       0.12 | *
    |      766 |        - |      893 |      893 |       0.12 | *
    |      767 |        - |      889 |      889 |       0.12 | *
    |      772 |        - |      886 |      886 |       0.12 | *
    |      793 |        - |      880 |      880 |       0.13 | *
    |      827 |        - |      869 |      869 |       0.13 | *
    |      838 |        - |      868 |      868 |       0.13 | *
    |      846 |        - |      866 |      866 |       0.13 | *
    |      879 |        - |      865 |      865 |       0.13 | *
    |      892 |        - |      864 |      864 |       0.13 | *
    |      898 |        - |      863 |      863 |       0.13 | *
    |      906 |        - |      859 |      859 |       0.13 | *
    |      908 |        - |      853 |      853 |       0.13 | *
    |      914 |        - |      852 |      852 |       0.13 | *
    |      928 |        - |      850 |      850 |       0.13 | *
    |      933 |        - |      848 |      848 |       0.14 | *
    |      940 |        - |      843 |      843 |       0.14 | *
    |      951 |        - |      840 |      840 |       0.14 | *
    |      962 |        - |      839 |      839 |       0.14 | *
    |      978 |        - |      838 |      838 |       0.14 | *
    |     1006 |        - |      837 |      837 |       0.14 | *
    |     1023 |        - |      836 |      836 |       0.14 | *
    |     1051 |        - |      835 |      835 |       0.14 | *
    |     1096 |        - |      834 |      834 |       0.14 | *
    |     1110 |        - |      832 |      832 |       0.14 | *
    |     1179 |        - |      828 |      828 |       0.14 | *
    |     1193 |        - |      820 |      820 |       0.14 | *
    |     1225 |        - |      817 |      817 |       0.15 | *
    |     1239 |        - |      811 |      811 |       0.15 | *
    |     1251 |        - |      809 |      809 |       0.15 | *
    |     1258 |        - |      806 |      806 |       0.15 | *
    |     1285 |        - |      804 |      804 |       0.15 | *
    |     1306 |        - |      802 |      802 |       0.15 | *
    |     1345 |        - |      800 |      800 |       0.15 | *
    |     1353 |        - |      792 |      792 |       0.15 | *
    |     1354 |        - |      790 |      790 |       0.15 | *
    |     1367 |        - |      789 |      789 |       0.15 | *
    |     1392 |        - |      788 |      788 |       0.15 | *
    |     1400 |        - |      787 |      787 |       0.15 | *
    |     1494 |        - |      786 |      786 |       0.16 | *
    |     1498 |        - |      781 |      781 |       0.16 | *
    |     1540 |        - |      778 |      778 |       0.16 | *
    |     1563 |        - |      765 |      765 |       0.16 | *
    |     1583 |        - |      764 |      764 |       0.16 | *
    |     1625 |        - |      761 |      761 |       0.16 | *
    |     1636 |        - |      760 |      760 |       0.16 | *
    |     1645 |        - |      757 |      757 |       0.16 | *
    |     1668 |        - |      756 |      756 |       0.16 | *
    |     1695 |        - |      755 |      755 |       0.16 | *
    |     1726 |        - |      754 |      754 |       0.16 | *
    |     1751 |        - |      753 |      753 |       0.16 | *
    |     1752 |        - |      752 |      752 |       0.17 | *
    |     1780 |        - |      751 |      751 |       0.17 | *
    |     1793 |        - |      747 |      747 |       0.17 | *
    |     1882 |        - |      746 |      746 |       0.17 | *
    |     1948 |        - |      743 |      743 |       0.17 | *
    |     1969 |        - |      741 |      741 |       0.17 | *
    |     1979 |        - |      739 |      739 |       0.17 | *
    |     1987 |        - |      738 |      738 |       0.17 | *
    |     1995 |        - |      735 |      735 |       0.17 | *
    |     2026 |        - |      734 |      734 |       0.17 | *
    |     2045 |        - |      733 |      733 |       0.17 | *
    |     2052 |        - |      731 |      731 |       0.17 | *
    |     2066 |        - |      730 |      730 |       0.17 | *
    |     2103 |        - |      727 |      727 |       0.17 | *
    |     2156 |        - |      726 |      726 |       0.17 | *
    |     2175 |        - |      716 |      716 |       0.17 | *
    |     2208 |        - |      715 |      715 |       0.18 | *
    |     2214 |        - |      711 |      711 |       0.18 | *
    |     2228 |        - |      710 |      710 |       0.18 | *
    |     2250 |        - |      708 |      708 |       0.18 | *
    |     2341 |        - |      707 |      707 |       0.18 | *
    |     2345 |        - |      703 |      703 |       0.18 | *
    |     2366 |        - |      701 |      701 |       0.18 | *
    |     2403 |        - |      691 |      691 |       0.18 | *
    |     2462 |        - |      690 |      690 |       0.18 | *
    |     2486 |        - |      689 |      689 |       0.18 | *
    |     2500 |        - |      684 |      684 |       0.18 | *
    |     2547 |        - |      683 |      683 |       0.18 | *
    |     2594 |        - |      682 |      682 |       0.18 | *
    |     2595 |        - |      677 |      677 |       0.18 | *
    |     2599 |        - |      676 |      676 |       0.18 | *
    |     2605 |        - |      675 |      675 |       0.18 | *
    |     2620 |        - |      674 |      674 |       0.18 | *
    |     2627 |        - |      673 |      673 |       0.18 | *
    |     2693 |        - |      672 |      672 |       0.18 | *
    |     2710 |        - |      669 |      669 |       0.18 | *
    |     2821 |        - |      668 |      668 |       0.18 | *
    |     2842 |        - |      667 |      667 |       0.18 | *
    |     2862 |        - |      666 |      666 |       0.18 | *
    |     2896 |        - |      664 |      664 |       0.18 | *
    |     2899 |        - |      663 |      663 |       0.19 | *
    |     2904 |        - |      660 |      660 |       0.19 | *
    |     3083 |        - |      659 |      659 |       0.19 | *
    |     3124 |        - |      658 |      658 |       0.19 | *
    |     3262 |        - |      657 |      657 |       0.19 | *
    |     3280 |        - |      655 |      655 |       0.19 | *
    |     3307 |        - |      654 |      654 |       0.19 | *
    |     3336 |        - |      651 |      651 |       0.19 | *
    |     3371 |        - |      650 |      650 |       0.19 | *
    |     3556 |        - |      649 |      649 |       0.19 | *
    |     3696 |        - |      648 |      648 |       0.19 | *
    |     3710 |        - |      647 |      647 |       0.19 | *
    |     3746 |        - |      646 |      646 |       0.20 | *
    |     3770 |        - |      645 |      645 |       0.20 | *
    |     3775 |        - |      642 |      642 |       0.20 | *
    |     3812 |        - |      641 |      641 |       0.20 | *
    |     3817 |        - |      640 |      640 |       0.20 | *
    |     3896 |        - |      639 |      639 |       0.20 | *
    |     3967 |        - |      637 |      637 |       0.20 | *
    |     4028 |        - |      635 |      635 |       0.20 | *
    |     4040 |        - |      634 |      634 |       0.20 | *
    |     4115 |        - |      631 |      631 |       0.20 | *
    |     4117 |        - |      627 |      627 |       0.20 | *
    |     4125 |        - |      625 |      625 |       0.20 | *
    |     4144 |        - |      620 |      620 |       0.20 | *
    |     4148 |        - |      619 |      619 |       0.20 | *
    |     4173 |        - |      614 |      614 |       0.20 | *
    |     4185 |        - |      613 |      613 |       0.20 | *
    |     4350 |        - |      612 |      612 |       0.21 | *
    |     4362 |        - |      608 |      608 |       0.21 | *
    |     4450 |        - |      607 |      607 |       0.21 | *
    |     4461 |        - |      605 |      605 |       0.21 | *
    |     4525 |        - |      603 |      603 |       0.21 | *
    |     4532 |        - |      601 |      601 |       0.21 | *
    |     4533 |        - |      600 |      600 |       0.21 | *
    |     4582 |        - |      599 |      599 |       0.21 | *
    |     4604 |        - |      597 |      597 |       0.21 | *
    |     4628 |        - |      596 |      596 |       0.21 | *
    |     4646 |        - |      595 |      595 |       0.21 | *
    |     4858 |        - |      593 |      593 |       0.21 | *
    |     4883 |        - |      592 |      592 |       0.21 | *
    |     4914 |        - |      591 |      591 |       0.21 | *
    |     4916 |        - |      588 |      588 |       0.22 | *
    |     5010 |        - |      587 |      587 |       0.22 | *
    |     5139 |        - |      580 |      580 |       0.22 | *
    |     5196 |        - |      579 |      579 |       0.22 | *
    |     5255 |        - |      578 |      578 |       0.22 | *
    |     5301 |        - |      574 |      574 |       0.22 | *
    |     5306 |        - |      573 |      573 |       0.22 | *
    |     5352 |        - |      572 |      572 |       0.22 | *
    |     5509 |        - |      571 |      571 |       0.22 | *
    |     5541 |        - |      570 |      570 |       0.22 | *
    |     5677 |        - |      567 |      567 |       0.22 | *
    |     5803 |        - |      565 |      565 |       0.22 | *
    |     5843 |        - |      564 |      564 |       0.22 | *
    |     5868 |        - |      560 |      560 |       0.23 | *
    |     5872 |        - |      558 |      558 |       0.23 | *
    |     5874 |        - |      556 |      556 |       0.23 | *
    |     5894 |        - |      555 |      555 |       0.23 | *
    |     5979 |        - |      553 |      553 |       0.23 | *
    |     6024 |        - |      552 |      552 |       0.23 | *
    |     6032 |        - |      550 |      550 |       0.23 | *
    |     6045 |        - |      548 |      548 |       0.23 | *
    |     6107 |        - |      547 |      547 |       0.23 | *
    |     6213 |        - |      546 |      546 |       0.23 | *
    |     6325 |        - |      545 |      545 |       0.23 | *
    |     6340 |        - |      544 |      544 |       0.23 | *
    |     6376 |        - |      540 |      540 |       0.24 | *
    |     6434 |        - |      539 |      539 |       0.24 | *
    |     6542 |        - |      538 |      538 |       0.24 | *
    |     6748 |        - |      536 |      536 |       0.24 | *
    |     6755 |        - |      534 |      534 |       0.24 | *
    |     6796 |        - |      533 |      533 |       0.24 | *
    |     6806 |        - |      531 |      531 |       0.24 | *
    |     6823 |        - |      530 |      530 |       0.24 | *
    |     6827 |        - |      526 |      526 |       0.24 | *
    |     6835 |        - |      525 |      525 |       0.24 | *
    |     6848 |        - |      524 |      524 |       0.24 | *
    |     6947 |        - |      523 |      523 |       0.24 | *
    |     6990 |        - |      518 |      518 |       0.25 | *
    |     6998 |        - |      509 |      509 |       0.25 | *
    |     7062 |        - |      508 |      508 |       0.25 | *
    |     7081 |        - |      507 |      507 |       0.25 | *
    |     7194 |        - |      505 |      505 |       0.25 | *
    |     7206 |        - |      503 |      503 |       0.25 | *
    |     7405 |        - |      500 |      500 |       0.25 | *
    |     7529 |        - |      499 |      499 |       0.25 | *
    |     7543 |        - |      497 |      497 |       0.25 | *
    |     7565 |        - |      496 |      496 |       0.25 | *
    |     7579 |        - |      495 |      495 |       0.25 | *
    |     7746 |        - |      494 |      494 |       0.26 | *
    |     7748 |        - |      493 |      493 |       0.26 | *
    |     7801 |        - |      492 |      492 |       0.26 | *
    |     7982 |        - |      491 |      491 |       0.26 | *
    |     8031 |        - |      490 |      490 |       0.26 | *
    |     8082 |        - |      489 |      489 |       0.26 | *
    |     8134 |        - |      486 |      486 |       0.26 | *
    |     8146 |        - |      485 |      485 |       0.26 | *
    |     8176 |        - |      481 |      481 |       0.26 | *
    |     8725 |        - |      479 |      479 |       0.27 | *
    |     9026 |        - |      478 |      478 |       0.27 | *
    |     9063 |        - |      477 |      477 |       0.27 | *
    |     9080 |        - |      476 |      476 |       0.27 | *
    |     9188 |        - |      475 |      475 |       0.27 | *
    |     9321 |        - |      474 |      474 |       0.27 | *
    |     9347 |        - |      472 |      472 |       0.27 | *
    |     9354 |        - |      470 |      470 |       0.27 | *
    |     9679 |        - |      469 |      469 |       0.27 | *
    |     9744 |        - |      467 |      467 |       0.27 | *
    |     9751 |        - |      465 |      465 |       0.27 | *
    |     9795 |        - |      463 |      463 |       0.27 | *
    |     9928 |        - |      461 |      461 |       0.27 | *
    |     9937 |        - |      459 |      459 |       0.27 | *
    |     9946 |        - |      456 |      456 |       0.27 | *
    |      10K |        - |      455 |      455 |       0.28 | *
    |      10K |        - |      454 |      454 |       0.28 | *
    |      10K |        - |      453 |      453 |       0.28 | *
    |      10K |        - |      451 |      451 |       0.28 | *
    |      11K |        - |      450 |      450 |       0.28 | *
    |      11K |        - |      447 |      447 |       0.28 | *
    |      12K |        - |      444 |      444 |       0.28 | *
    |      12K |        - |      443 |      443 |       0.29 | *
    |      13K |        - |      442 |      442 |       0.29 | *
    |      13K |        - |      441 |      441 |       0.29 | *
    |      13K |        - |      440 |      440 |       0.29 | *
    |      13K |        - |      438 |      438 |       0.29 | *
    |      13K |        - |      437 |      437 |       0.29 | *
    |      13K |        - |      434 |      434 |       0.30 | *
    |      14K |        - |      433 |      433 |       0.30 | *
    |      14K |        - |      432 |      432 |       0.30 | *
    |      14K |        - |      430 |      430 |       0.30 | *
    |      14K |        - |      429 |      429 |       0.30 | *
    |      14K |        - |      427 |      427 |       0.30 | *
    |      14K |        - |      426 |      426 |       0.30 | *
    |      14K |        - |      425 |      425 |       0.30 | *
    |      14K |        - |      424 |      424 |       0.30 | *
    |      15K |        - |      423 |      423 |       0.31 | *
    |      15K |        - |      420 |      420 |       0.31 | *
    |      15K |        - |      419 |      419 |       0.31 | *
    |      17K |        - |      418 |      418 |       0.32 | *
    |      18K |        - |      417 |      417 |       0.32 | *
    |      18K |        - |      416 |      416 |       0.32 | *
    |      18K |        - |      415 |      415 |       0.32 | *
    |      20K |        - |      414 |      414 |       0.33 | *
    |      20K |        - |      413 |      413 |       0.33 | *
    |      21K |        - |      412 |      412 |       0.33 | *
    |      22K |        - |      410 |      410 |       0.34 | *
    |      22K |        - |      409 |      409 |       0.34 | *
    |      25K |        - |      408 |      408 |       0.35 | *
    |      25K |        - |      407 |      407 |       0.35 | *
    |      25K |        - |      404 |      404 |       0.35 | *
    |      27K |        - |      403 |      403 |       0.36 | *
    |      27K |        - |      399 |      399 |       0.36 | *
    |      29K |        - |      398 |      398 |       0.37 | *
    |      29K |        - |      397 |      397 |       0.37 | *
    |      30K |        - |      396 |      396 |       0.37 | *
    |      30K |        - |      394 |      394 |       0.37 | *
    |      30K |        - |      393 |      393 |       0.38 | *
    |      31K |        - |      392 |      392 |       0.38 | *
    |      33K |        - |      391 |      391 |       0.39 | *
    |      33K |        - |      390 |      390 |       0.39 | *
    |      34K |        - |      389 |      389 |       0.39 | *
    |      35K |        - |      388 |      388 |       0.40 | *
    |      35K |        - |      387 |      387 |       0.40 | *
    |      35K |        - |      386 |      386 |       0.40 | *
    |      35K |        - |      385 |      385 |       0.40 | *
    |      52K |        - |      384 |      384 |       0.49 | *
    |      54K |        - |      383 |      383 |       0.50 | *
    |      54K |        - |      382 |      382 |       0.51 | *
    |      55K |        - |      381 |      381 |       0.51 | *
    |      56K |        - |      380 |      380 |       0.52 | *
    |      63K |        - |      379 |      379 |       0.55 | *
    |      63K |        - |      377 |      377 |       0.55 | *
    |      63K |        - |      376 |      376 |       0.55 | *
    |      67K |        - |      375 |      375 |       0.58 | *
    |      67K |        - |      373 |      373 |       0.58 | *
    |      68K |        - |      372 |      372 |       0.58 | *
    |      74K |        - |      371 |      371 |       0.61 | *
    |      74K |        - |      370 |      370 |       0.61 | *
    |      75K |        - |      368 |      368 |       0.61 | *
    |      76K |        - |      367 |      367 |       0.62 | *
    |      76K |        - |      366 |      366 |       0.62 | *
    |      76K |        - |      365 |      365 |       0.62 | *
    |      78K |        - |      364 |      364 |       0.63 | *
    |      85K |        - |      363 |      363 |       0.68 | *
    |      89K |        - |      362 |      362 |       0.70 | *
    |      90K |        - |      361 |      361 |       0.71 | *
    |      91K |        - |      360 |      360 |       0.71 | *
    |      91K |        - |      359 |      359 |       0.71 | *
    |      92K |        - |      358 |      358 |       0.71 | *
    |      92K |        - |      357 |      357 |       0.71 | *
    |      92K |        - |      356 |      356 |       0.71 | *
    |      92K |        - |      355 |      355 |       0.72 | *
    |      92K |        - |      354 |      354 |       0.72 | *
    |      98K |        - |      353 |      353 |       0.76 | *
    |      99K |        - |      352 |      352 |       0.76 | *
    |      99K |        - |      351 |      351 |       0.76 | *
    |     100K |        - |      350 |      350 |       0.77 | *
    |     100K |        - |      349 |      349 |       0.77 | *
    |     100K |        - |      348 |      348 |       0.77 | *
    |     105K |        - |      347 |      347 |       0.80 | *
    |     105K |        - |      346 |      346 |       0.80 | *
    |     126K |        - |      345 |      345 |       0.90 | *
    |     129K |        - |      344 |      344 |       0.91 | *
    |     131K |        - |      342 |      342 |       0.92 | *
    |     141K |        - |      340 |      340 |       0.96 | *
    |     142K |        - |      338 |      338 |       0.97 | *
    |     146K |        - |      337 |      337 |       0.99 | *
    |     194K |        - |      336 |      336 |       1.17 | *
    |     197K |        - |      335 |      335 |       1.18 | *
    |     200K |        - |      334 |      334 |       1.18 | *
    |     201K |        - |      333 |      333 |       1.18 | *
    |     210K |        - |      332 |      332 |       1.19 | *
    |     219K |        - |      330 |      330 |       1.20 | *
    |     233K |        - |      328 |      328 |       1.22 | *
    |     234K |        - |      327 |      327 |       1.22 | *
    |     246K |        - |      326 |      326 |       1.24 | *
    |     246K |        - |      325 |      325 |       1.24 | *
    |     251K |        - |      324 |      324 |       1.25 | *
    |     255K |        - |      323 |      323 |       1.26 | *
    |     255K |        - |      322 |      322 |       1.26 | *
    |     338K |        - |      321 |      321 |       1.40 | *
    |     348K |        - |      320 |      320 |       1.42 | *
    |     378K |        - |      319 |      319 |       1.46 | *
    |     392K |        - |      318 |      318 |       1.48 | *
    |     392K |        - |      317 |      317 |       1.49 | *
    |     394K |        - |      316 |      316 |       1.49 | *
    |     467K |        - |      315 |      315 |       1.62 | *
    |     467K |        - |      314 |      314 |       1.62 | *
    |     633K |        - |      313 |      313 |       1.87 | *
    |     633K |        - |      312 |      312 |       1.87 | *
    |     633K |        - |      311 |      311 |       1.87 | *
    |    1051K |        - |      310 |      310 |       2.21 | *
    |    1063K |        - |      309 |      309 |       2.22 | *
    |    1093K |        - |      308 |      308 |       2.24 | *
    |    1105K |        - |      307 |      307 |       2.25 | *
    |    1140K |        - |      306 |      306 |       2.29 | *
    |    1147K |        - |      305 |      305 |       2.29 | *
    |    1291K |        - |      304 |      304 |       2.44 | *
    |    1371K |        - |      303 |      303 |       2.51 | *
    |    1455K |        - |      302 |      302 |       2.60 | *
    |    1455K |        - |      301 |      301 |       2.60 | *
    |    1559K |        - |      300 |      300 |       2.76 | *
    |    1588K |        - |      299 |      299 |       2.81 | *
    |    3011K |        - |      298 |      298 |       4.58 | *
    |    3241K |        - |      297 |      297 |       4.79 | *
    |    3259K |        - |      296 |      296 |       4.80 | *
    |    7564K |        - |      295 |      295 |       9.46 | *
    |      16M |        - |      294 |      294 |      16.88 | *
    |      16M |        - |      293 |      293 |      16.89 | *
    |      16M |        - |      292 |      292 |      16.89 | *
    |      30M |        - |      291 |      291 |      28.46 | *
    |      44M |        - |      290 |      290 |      40.01 | *
    |      47M |        - |      289 |      289 |      42.25 | *
    |      80M |        - |      288 |      288 |      68.96 | *
    |     156M |        - |      287 |      287 |     130.27 | *
    |     156M |        - |      286 |      286 |     130.28 | *
    |     156M |        - |      285 |      285 |     130.30 | *
    |     156M |        - |      284 |      284 |     130.37 | *
    |     240M |        - |      283 |      283 |     197.69 | *
    |     240M |        - |      282 |      282 |     197.72 | *
    |     256M |        - |      281 |      281 |     210.29 | *
    |     513M |        - |      280 |      280 |     417.83 | *
    |     514M |        - |      279 |      279 |     418.69 | *
    |     765M |        - |      278 |      278 |     620.53 | *
    \--------------------------------------------------------/

Neighborhoods statistics (values in %):

    /----------------------------------------------------------------\
    | Move               | Improvs. | Sideways |  Accepts |  Rejects |
    |--------------------|----------|----------|----------|----------|
    | Shift(mk)          |      18K |      94K |     120K |     188M |
    | Shift              |     1873 |     396K |     414K |     188M |
    | ShiftSmart(mk)     |     302K |    1876K |    2303K |     186M |
    | ShiftSmart         |      30K |    5650K |    5860K |     182M |
    | SimpSwap(mk)       |       39 |       72 |      132 |     188M |
    | SimpSwap           |        8 |      236 |      287 |     188M |
    | SimpSwapSmart(mk)  |      695 |     1323 |     2388 |     188M |
    | SimpSwapSmart      |      129 |     4405 |     5231 |     188M |
    | Swap(mk)           |        2 |        5 |        9 |     188M |
    | Swap               |        1 |       31 |       36 |     188M |
    | SwapSmart(mk)      |      448 |      827 |     1489 |     188M |
    | SwapSmart          |       94 |     2957 |     3510 |     188M |
    | Switch(mk)         |     5242 |    8783K |    8791K |     179M |
    | Switch             |      558 |    9742K |    9746K |     178M |
    | SwitchSmart(mk)    |      82K |     333K |     449K |     188M |
    | SwitchSmart        |     8194 |    1648K |    1713K |     186M |
    | TaskMove(mk)       |      410 |      782 |     1442 |     188M |
    | TaskMove           |       52 |     1680 |     2006 |     188M |
    | TaskMoveSmart(mk)  |     7174 |      13K |      23K |     188M |
    | TaskMoveSmart      |      852 |      27K |      32K |     188M |
    | 2-Shift(mk)        |     2430 |     448K |     451K |     187M |
    | 2-Shift            |      211 |     583K |     586K |     187M |
    | 2-ShiftSmart(mk)   |      63K |     814K |     892K |     187M |
    | 2-ShiftSmart       |     6130 |    2010K |    2053K |     186M |
    \----------------------------------------------------------------/

Best makespan.....: 278
N. of Iterations..: 4510781827
Total runtime.....: 3600.02s
Using Python-MIP package version 1.6.8
Começo a execução
    /-------------------------------------------------------------------------------\
    |    Makespan   |   Free Jobs   | Free Machines |    It. Time   |   Total Time  | 
    |-------------------------------------------------------------------------------|
    \-------------------------------------------------------------------------------/
Terminou a execução
