Instance....: instances/I_250_10_S_1-49_2.txt
Algorithm...: Simulated Annealing (alpha=0.990, saMax=10M, t0=1)
Other params: maxIters=100M, seed=-1, timeLimit=3600.00s

    /--------------------------------------------------------\
    |     Iter |   RDP(%) |       S* |       S' |       Time | 
    |----------|----------|----------|----------|------------|
    |        0 |        - |     2339 |     2339 |       0.00 | s0
    |        6 |        - |     2306 |     2306 |       0.03 | *
    |       18 |        - |     2252 |     2252 |       0.03 | *
    |       22 |        - |     2238 |     2238 |       0.03 | *
    |       23 |        - |     2195 |     2195 |       0.03 | *
    |       27 |        - |     2161 |     2161 |       0.03 | *
    |       34 |        - |     2140 |     2140 |       0.03 | *
    |       38 |        - |     2095 |     2095 |       0.03 | *
    |       40 |        - |     2085 |     2085 |       0.03 | *
    |       41 |        - |     2084 |     2084 |       0.04 | *
    |       43 |        - |     2044 |     2044 |       0.04 | *
    |       45 |        - |     2032 |     2032 |       0.04 | *
    |       53 |        - |     2029 |     2029 |       0.04 | *
    |       54 |        - |     2022 |     2022 |       0.04 | *
    |       69 |        - |     2014 |     2014 |       0.04 | *
    |       70 |        - |     1988 |     1988 |       0.04 | *
    |       71 |        - |     1980 |     1980 |       0.04 | *
    |       79 |        - |     1973 |     1973 |       0.04 | *
    |       80 |        - |     1947 |     1947 |       0.04 | *
    |       93 |        - |     1934 |     1934 |       0.04 | *
    |       95 |        - |     1916 |     1916 |       0.04 | *
    |       96 |        - |     1908 |     1908 |       0.04 | *
    |       97 |        - |     1901 |     1901 |       0.04 | *
    |      100 |        - |     1883 |     1883 |       0.05 | *
    |      102 |        - |     1880 |     1880 |       0.05 | *
    |      106 |        - |     1876 |     1876 |       0.05 | *
    |      109 |        - |     1862 |     1862 |       0.05 | *
    |      111 |        - |     1833 |     1833 |       0.05 | *
    |      120 |        - |     1831 |     1831 |       0.05 | *
    |      125 |        - |     1817 |     1817 |       0.05 | *
    |      147 |        - |     1776 |     1776 |       0.05 | *
    |      154 |        - |     1754 |     1754 |       0.05 | *
    |      156 |        - |     1743 |     1743 |       0.05 | *
    |      161 |        - |     1720 |     1720 |       0.05 | *
    |      163 |        - |     1716 |     1716 |       0.05 | *
    |      167 |        - |     1711 |     1711 |       0.05 | *
    |      168 |        - |     1708 |     1708 |       0.05 | *
    |      172 |        - |     1701 |     1701 |       0.06 | *
    |      173 |        - |     1694 |     1694 |       0.06 | *
    |      181 |        - |     1686 |     1686 |       0.06 | *
    |      189 |        - |     1685 |     1685 |       0.06 | *
    |      190 |        - |     1649 |     1649 |       0.06 | *
    |      195 |        - |     1639 |     1639 |       0.06 | *
    |      202 |        - |     1630 |     1630 |       0.06 | *
    |      204 |        - |     1628 |     1628 |       0.06 | *
    |      205 |        - |     1625 |     1625 |       0.06 | *
    |      206 |        - |     1622 |     1622 |       0.06 | *
    |      208 |        - |     1601 |     1601 |       0.06 | *
    |      210 |        - |     1590 |     1590 |       0.06 | *
    |      216 |        - |     1589 |     1589 |       0.07 | *
    |      227 |        - |     1588 |     1588 |       0.07 | *
    |      228 |        - |     1581 |     1581 |       0.07 | *
    |      231 |        - |     1579 |     1579 |       0.07 | *
    |      232 |        - |     1572 |     1572 |       0.07 | *
    |      233 |        - |     1568 |     1568 |       0.07 | *
    |      234 |        - |     1558 |     1558 |       0.07 | *
    |      241 |        - |     1548 |     1548 |       0.07 | *
    |      244 |        - |     1528 |     1528 |       0.07 | *
    |      251 |        - |     1523 |     1523 |       0.07 | *
    |      258 |        - |     1522 |     1522 |       0.07 | *
    |      269 |        - |     1514 |     1514 |       0.07 | *
    |      273 |        - |     1505 |     1505 |       0.07 | *
    |      276 |        - |     1500 |     1500 |       0.07 | *
    |      277 |        - |     1490 |     1490 |       0.07 | *
    |      285 |        - |     1481 |     1481 |       0.08 | *
    |      293 |        - |     1479 |     1479 |       0.08 | *
    |      294 |        - |     1474 |     1474 |       0.08 | *
    |      297 |        - |     1471 |     1471 |       0.08 | *
    |      302 |        - |     1459 |     1459 |       0.08 | *
    |      306 |        - |     1454 |     1454 |       0.08 | *
    |      307 |        - |     1453 |     1453 |       0.08 | *
    |      321 |        - |     1438 |     1438 |       0.08 | *
    |      325 |        - |     1435 |     1435 |       0.08 | *
    |      329 |        - |     1423 |     1423 |       0.08 | *
    |      330 |        - |     1415 |     1415 |       0.08 | *
    |      332 |        - |     1400 |     1400 |       0.08 | *
    |      333 |        - |     1386 |     1386 |       0.08 | *
    |      334 |        - |     1379 |     1379 |       0.08 | *
    |      346 |        - |     1376 |     1376 |       0.08 | *
    |      350 |        - |     1373 |     1373 |       0.08 | *
    |      351 |        - |     1372 |     1372 |       0.09 | *
    |      365 |        - |     1362 |     1362 |       0.09 | *
    |      368 |        - |     1359 |     1359 |       0.09 | *
    |      369 |        - |     1357 |     1357 |       0.09 | *
    |      377 |        - |     1352 |     1352 |       0.09 | *
    |      386 |        - |     1347 |     1347 |       0.09 | *
    |      391 |        - |     1343 |     1343 |       0.09 | *
    |      393 |        - |     1340 |     1340 |       0.09 | *
    |      394 |        - |     1338 |     1338 |       0.09 | *
    |      396 |        - |     1333 |     1333 |       0.09 | *
    |      399 |        - |     1329 |     1329 |       0.09 | *
    |      401 |        - |     1327 |     1327 |       0.09 | *
    |      403 |        - |     1318 |     1318 |       0.09 | *
    |      424 |        - |     1317 |     1317 |       0.09 | *
    |      456 |        - |     1309 |     1309 |       0.09 | *
    |      460 |        - |     1301 |     1301 |       0.09 | *
    |      461 |        - |     1300 |     1300 |       0.09 | *
    |      468 |        - |     1298 |     1298 |       0.09 | *
    |      469 |        - |     1294 |     1294 |       0.09 | *
    |      472 |        - |     1267 |     1267 |       0.10 | *
    |      516 |        - |     1261 |     1261 |       0.10 | *
    |      518 |        - |     1257 |     1257 |       0.10 | *
    |      519 |        - |     1256 |     1256 |       0.10 | *
    |      521 |        - |     1253 |     1253 |       0.10 | *
    |      525 |        - |     1250 |     1250 |       0.10 | *
    |      530 |        - |     1249 |     1249 |       0.10 | *
    |      531 |        - |     1240 |     1240 |       0.10 | *
    |      556 |        - |     1239 |     1239 |       0.10 | *
    |      564 |        - |     1237 |     1237 |       0.10 | *
    |      568 |        - |     1234 |     1234 |       0.10 | *
    |      581 |        - |     1230 |     1230 |       0.10 | *
    |      626 |        - |     1221 |     1221 |       0.11 | *
    |      642 |        - |     1215 |     1215 |       0.11 | *
    |      644 |        - |     1214 |     1214 |       0.11 | *
    |      651 |        - |     1212 |     1212 |       0.11 | *
    |      655 |        - |     1208 |     1208 |       0.11 | *
    |      659 |        - |     1199 |     1199 |       0.11 | *
    |      671 |        - |     1198 |     1198 |       0.11 | *
    |      692 |        - |     1190 |     1190 |       0.11 | *
    |      709 |        - |     1183 |     1183 |       0.11 | *
    |      712 |        - |     1181 |     1181 |       0.11 | *
    |      714 |        - |     1178 |     1178 |       0.11 | *
    |      721 |        - |     1177 |     1177 |       0.11 | *
    |      731 |        - |     1175 |     1175 |       0.11 | *
    |      757 |        - |     1164 |     1164 |       0.11 | *
    |      760 |        - |     1155 |     1155 |       0.11 | *
    |      787 |        - |     1144 |     1144 |       0.11 | *
    |      790 |        - |     1143 |     1143 |       0.11 | *
    |      793 |        - |     1135 |     1135 |       0.12 | *
    |      795 |        - |     1125 |     1125 |       0.12 | *
    |      806 |        - |     1124 |     1124 |       0.12 | *
    |      810 |        - |     1120 |     1120 |       0.12 | *
    |      817 |        - |     1116 |     1116 |       0.12 | *
    |      824 |        - |     1113 |     1113 |       0.12 | *
    |      837 |        - |     1110 |     1110 |       0.12 | *
    |      859 |        - |     1098 |     1098 |       0.12 | *
    |      870 |        - |     1095 |     1095 |       0.12 | *
    |      872 |        - |     1093 |     1093 |       0.12 | *
    |      881 |        - |     1090 |     1090 |       0.12 | *
    |      887 |        - |     1089 |     1089 |       0.12 | *
    |      895 |        - |     1087 |     1087 |       0.12 | *
    |      896 |        - |     1082 |     1082 |       0.13 | *
    |      908 |        - |     1080 |     1080 |       0.13 | *
    |      913 |        - |     1076 |     1076 |       0.13 | *
    |      927 |        - |     1073 |     1073 |       0.13 | *
    |      929 |        - |     1072 |     1072 |       0.13 | *
    |      932 |        - |     1070 |     1070 |       0.13 | *
    |      934 |        - |     1067 |     1067 |       0.13 | *
    |      939 |        - |     1065 |     1065 |       0.13 | *
    |      960 |        - |     1063 |     1063 |       0.13 | *
    |      965 |        - |     1056 |     1056 |       0.13 | *
    |      967 |        - |     1053 |     1053 |       0.13 | *
    |      997 |        - |     1052 |     1052 |       0.13 | *
    |     1001 |        - |     1051 |     1051 |       0.13 | *
    |     1034 |        - |     1044 |     1044 |       0.14 | *
    |     1042 |        - |     1043 |     1043 |       0.14 | *
    |     1047 |        - |     1037 |     1037 |       0.14 | *
    |     1071 |        - |     1035 |     1035 |       0.14 | *
    |     1077 |        - |     1030 |     1030 |       0.14 | *
    |     1093 |        - |     1025 |     1025 |       0.14 | *
    |     1094 |        - |     1024 |     1024 |       0.14 | *
    |     1108 |        - |     1023 |     1023 |       0.14 | *
    |     1119 |        - |     1019 |     1019 |       0.14 | *
    |     1144 |        - |     1015 |     1015 |       0.14 | *
    |     1157 |        - |     1013 |     1013 |       0.14 | *
    |     1167 |        - |     1012 |     1012 |       0.14 | *
    |     1174 |        - |     1010 |     1010 |       0.14 | *
    |     1185 |        - |     1007 |     1007 |       0.14 | *
    |     1186 |        - |      997 |      997 |       0.15 | *
    |     1191 |        - |      992 |      992 |       0.15 | *
    |     1204 |        - |      991 |      991 |       0.15 | *
    |     1220 |        - |      986 |      986 |       0.15 | *
    |     1225 |        - |      978 |      978 |       0.15 | *
    |     1232 |        - |      975 |      975 |       0.15 | *
    |     1263 |        - |      974 |      974 |       0.15 | *
    |     1265 |        - |      970 |      970 |       0.15 | *
    |     1280 |        - |      969 |      969 |       0.15 | *
    |     1326 |        - |      967 |      967 |       0.15 | *
    |     1331 |        - |      965 |      965 |       0.15 | *
    |     1337 |        - |      952 |      952 |       0.15 | *
    |     1340 |        - |      941 |      941 |       0.15 | *
    |     1351 |        - |      939 |      939 |       0.15 | *
    |     1363 |        - |      938 |      938 |       0.15 | *
    |     1372 |        - |      937 |      937 |       0.16 | *
    |     1378 |        - |      933 |      933 |       0.16 | *
    |     1402 |        - |      931 |      931 |       0.16 | *
    |     1405 |        - |      929 |      929 |       0.16 | *
    |     1443 |        - |      928 |      928 |       0.16 | *
    |     1471 |        - |      927 |      927 |       0.16 | *
    |     1475 |        - |      913 |      913 |       0.16 | *
    |     1499 |        - |      910 |      910 |       0.16 | *
    |     1505 |        - |      907 |      907 |       0.16 | *
    |     1507 |        - |      905 |      905 |       0.16 | *
    |     1511 |        - |      900 |      900 |       0.16 | *
    |     1519 |        - |      899 |      899 |       0.16 | *
    |     1534 |        - |      896 |      896 |       0.16 | *
    |     1544 |        - |      895 |      895 |       0.16 | *
    |     1548 |        - |      891 |      891 |       0.16 | *
    |     1550 |        - |      889 |      889 |       0.17 | *
    |     1564 |        - |      883 |      883 |       0.17 | *
    |     1565 |        - |      880 |      880 |       0.17 | *
    |     1570 |        - |      878 |      878 |       0.17 | *
    |     1580 |        - |      870 |      870 |       0.17 | *
    |     1606 |        - |      867 |      867 |       0.17 | *
    |     1611 |        - |      866 |      866 |       0.17 | *
    |     1633 |        - |      864 |      864 |       0.17 | *
    |     1636 |        - |      863 |      863 |       0.17 | *
    |     1646 |        - |      857 |      857 |       0.17 | *
    |     1654 |        - |      856 |      856 |       0.17 | *
    |     1666 |        - |      854 |      854 |       0.17 | *
    |     1740 |        - |      852 |      852 |       0.17 | *
    |     1744 |        - |      851 |      851 |       0.17 | *
    |     1752 |        - |      850 |      850 |       0.17 | *
    |     1768 |        - |      848 |      848 |       0.17 | *
    |     1786 |        - |      847 |      847 |       0.18 | *
    |     1788 |        - |      842 |      842 |       0.18 | *
    |     1813 |        - |      841 |      841 |       0.18 | *
    |     1827 |        - |      837 |      837 |       0.18 | *
    |     1860 |        - |      835 |      835 |       0.18 | *
    |     1878 |        - |      834 |      834 |       0.18 | *
    |     1889 |        - |      832 |      832 |       0.18 | *
    |     1901 |        - |      829 |      829 |       0.18 | *
    |     1904 |        - |      826 |      826 |       0.18 | *
    |     1916 |        - |      823 |      823 |       0.18 | *
    |     1932 |        - |      822 |      822 |       0.18 | *
    |     1996 |        - |      821 |      821 |       0.18 | *
    |     2001 |        - |      820 |      820 |       0.18 | *
    |     2015 |        - |      819 |      819 |       0.18 | *
    |     2022 |        - |      815 |      815 |       0.18 | *
    |     2036 |        - |      814 |      814 |       0.18 | *
    |     2043 |        - |      813 |      813 |       0.18 | *
    |     2084 |        - |      812 |      812 |       0.19 | *
    |     2116 |        - |      811 |      811 |       0.19 | *
    |     2159 |        - |      810 |      810 |       0.19 | *
    |     2176 |        - |      807 |      807 |       0.19 | *
    |     2193 |        - |      806 |      806 |       0.19 | *
    |     2219 |        - |      805 |      805 |       0.19 | *
    |     2224 |        - |      804 |      804 |       0.19 | *
    |     2235 |        - |      802 |      802 |       0.19 | *
    |     2271 |        - |      799 |      799 |       0.19 | *
    |     2287 |        - |      798 |      798 |       0.19 | *
    |     2291 |        - |      795 |      795 |       0.19 | *
    |     2366 |        - |      793 |      793 |       0.19 | *
    |     2379 |        - |      792 |      792 |       0.19 | *
    |     2505 |        - |      791 |      791 |       0.19 | *
    |     2526 |        - |      789 |      789 |       0.19 | *
    |     2530 |        - |      788 |      788 |       0.20 | *
    |     2539 |        - |      784 |      784 |       0.20 | *
    |     2583 |        - |      783 |      783 |       0.20 | *
    |     2600 |        - |      782 |      782 |       0.20 | *
    |     2610 |        - |      780 |      780 |       0.20 | *
    |     2630 |        - |      779 |      779 |       0.20 | *
    |     2708 |        - |      775 |      775 |       0.20 | *
    |     2710 |        - |      773 |      773 |       0.20 | *
    |     2759 |        - |      770 |      770 |       0.20 | *
    |     2763 |        - |      768 |      768 |       0.20 | *
    |     2797 |        - |      767 |      767 |       0.20 | *
    |     2803 |        - |      766 |      766 |       0.20 | *
    |     2820 |        - |      763 |      763 |       0.20 | *
    |     2834 |        - |      761 |      761 |       0.20 | *
    |     2875 |        - |      759 |      759 |       0.20 | *
    |     2883 |        - |      756 |      756 |       0.20 | *
    |     2889 |        - |      755 |      755 |       0.21 | *
    |     2908 |        - |      754 |      754 |       0.21 | *
    |     2922 |        - |      746 |      746 |       0.21 | *
    |     2927 |        - |      745 |      745 |       0.21 | *
    |     2946 |        - |      743 |      743 |       0.21 | *
    |     2991 |        - |      742 |      742 |       0.21 | *
    |     3001 |        - |      736 |      736 |       0.21 | *
    |     3040 |        - |      735 |      735 |       0.21 | *
    |     3248 |        - |      732 |      732 |       0.21 | *
    |     3278 |        - |      731 |      731 |       0.21 | *
    |     3288 |        - |      726 |      726 |       0.21 | *
    |     3366 |        - |      724 |      724 |       0.21 | *
    |     3396 |        - |      722 |      722 |       0.22 | *
    |     3406 |        - |      721 |      721 |       0.22 | *
    |     3530 |        - |      719 |      719 |       0.22 | *
    |     3602 |        - |      718 |      718 |       0.22 | *
    |     3763 |        - |      715 |      715 |       0.22 | *
    |     3770 |        - |      714 |      714 |       0.22 | *
    |     3781 |        - |      712 |      712 |       0.22 | *
    |     3796 |        - |      711 |      711 |       0.22 | *
    |     3797 |        - |      710 |      710 |       0.22 | *
    |     3804 |        - |      708 |      708 |       0.22 | *
    |     3820 |        - |      704 |      704 |       0.22 | *
    |     3881 |        - |      699 |      699 |       0.22 | *
    |     3885 |        - |      698 |      698 |       0.22 | *
    |     3975 |        - |      697 |      697 |       0.22 | *
    |     3980 |        - |      695 |      695 |       0.22 | *
    |     4014 |        - |      694 |      694 |       0.23 | *
    |     4057 |        - |      693 |      693 |       0.23 | *
    |     4101 |        - |      689 |      689 |       0.23 | *
    |     4112 |        - |      688 |      688 |       0.23 | *
    |     4179 |        - |      684 |      684 |       0.23 | *
    |     4227 |        - |      680 |      680 |       0.23 | *
    |     4243 |        - |      679 |      679 |       0.23 | *
    |     4291 |        - |      673 |      673 |       0.23 | *
    |     4401 |        - |      672 |      672 |       0.23 | *
    |     4430 |        - |      670 |      670 |       0.23 | *
    |     4469 |        - |      665 |      665 |       0.23 | *
    |     4492 |        - |      664 |      664 |       0.23 | *
    |     4525 |        - |      663 |      663 |       0.23 | *
    |     4556 |        - |      659 |      659 |       0.23 | *
    |     4598 |        - |      658 |      658 |       0.23 | *
    |     4617 |        - |      657 |      657 |       0.23 | *
    |     4667 |        - |      655 |      655 |       0.23 | *
    |     4687 |        - |      653 |      653 |       0.24 | *
    |     4688 |        - |      652 |      652 |       0.24 | *
    |     4699 |        - |      651 |      651 |       0.24 | *
    |     4716 |        - |      650 |      650 |       0.24 | *
    |     4720 |        - |      646 |      646 |       0.24 | *
    |     4729 |        - |      645 |      645 |       0.24 | *
    |     4732 |        - |      643 |      643 |       0.24 | *
    |     4813 |        - |      641 |      641 |       0.24 | *
    |     4840 |        - |      639 |      639 |       0.24 | *
    |     5371 |        - |      638 |      638 |       0.24 | *
    |     5386 |        - |      637 |      637 |       0.24 | *
    |     5458 |        - |      636 |      636 |       0.25 | *
    |     5514 |        - |      635 |      635 |       0.25 | *
    |     5558 |        - |      634 |      634 |       0.25 | *
    |     5579 |        - |      633 |      633 |       0.25 | *
    |     6069 |        - |      632 |      632 |       0.25 | *
    |     6085 |        - |      627 |      627 |       0.25 | *
    |     6087 |        - |      626 |      626 |       0.25 | *
    |     6088 |        - |      623 |      623 |       0.25 | *
    |     6147 |        - |      621 |      621 |       0.25 | *
    |     6187 |        - |      620 |      620 |       0.25 | *
    |     6235 |        - |      618 |      618 |       0.25 | *
    |     6242 |        - |      617 |      617 |       0.25 | *
    |     6288 |        - |      613 |      613 |       0.25 | *
    |     6290 |        - |      611 |      611 |       0.25 | *
    |     6301 |        - |      609 |      609 |       0.25 | *
    |     6403 |        - |      607 |      607 |       0.25 | *
    |     6412 |        - |      604 |      604 |       0.25 | *
    |     6958 |        - |      603 |      603 |       0.26 | *
    |     6989 |        - |      602 |      602 |       0.26 | *
    |     7201 |        - |      598 |      598 |       0.26 | *
    |     7342 |        - |      596 |      596 |       0.26 | *
    |     7365 |        - |      594 |      594 |       0.26 | *
    |     7450 |        - |      593 |      593 |       0.26 | *
    |     7520 |        - |      591 |      591 |       0.26 | *
    |     7639 |        - |      590 |      590 |       0.26 | *
    |     7686 |        - |      587 |      587 |       0.26 | *
    |     7766 |        - |      586 |      586 |       0.26 | *
    |     8033 |        - |      585 |      585 |       0.26 | *
    |     8260 |        - |      584 |      584 |       0.26 | *
    |     8294 |        - |      583 |      583 |       0.26 | *
    |     8358 |        - |      582 |      582 |       0.27 | *
    |     8788 |        - |      581 |      581 |       0.27 | *
    |     8985 |        - |      580 |      580 |       0.27 | *
    |     9031 |        - |      579 |      579 |       0.27 | *
    |     9340 |        - |      578 |      578 |       0.27 | *
    |     9708 |        - |      573 |      573 |       0.27 | *
    |     9760 |        - |      572 |      572 |       0.27 | *
    |     9782 |        - |      571 |      571 |       0.27 | *
    |      10K |        - |      569 |      569 |       0.27 | *
    |      10K |        - |      568 |      568 |       0.27 | *
    |      10K |        - |      566 |      566 |       0.27 | *
    |      11K |        - |      565 |      565 |       0.28 | *
    |      11K |        - |      563 |      563 |       0.28 | *
    |      11K |        - |      562 |      562 |       0.28 | *
    |      11K |        - |      561 |      561 |       0.28 | *
    |      12K |        - |      559 |      559 |       0.28 | *
    |      12K |        - |      558 |      558 |       0.28 | *
    |      12K |        - |      557 |      557 |       0.28 | *
    |      12K |        - |      556 |      556 |       0.28 | *
    |      12K |        - |      555 |      555 |       0.28 | *
    |      12K |        - |      554 |      554 |       0.29 | *
    |      12K |        - |      552 |      552 |       0.29 | *
    |      12K |        - |      550 |      550 |       0.29 | *
    |      13K |        - |      548 |      548 |       0.29 | *
    |      13K |        - |      546 |      546 |       0.29 | *
    |      13K |        - |      545 |      545 |       0.29 | *
    |      13K |        - |      544 |      544 |       0.29 | *
    |      14K |        - |      542 |      542 |       0.30 | *
    |      14K |        - |      541 |      541 |       0.30 | *
    |      14K |        - |      540 |      540 |       0.30 | *
    |      15K |        - |      537 |      537 |       0.30 | *
    |      15K |        - |      536 |      536 |       0.30 | *
    |      15K |        - |      535 |      535 |       0.30 | *
    |      15K |        - |      533 |      533 |       0.30 | *
    |      15K |        - |      529 |      529 |       0.31 | *
    |      16K |        - |      528 |      528 |       0.31 | *
    |      16K |        - |      527 |      527 |       0.31 | *
    |      17K |        - |      526 |      526 |       0.31 | *
    |      17K |        - |      524 |      524 |       0.31 | *
    |      17K |        - |      523 |      523 |       0.31 | *
    |      18K |        - |      521 |      521 |       0.31 | *
    |      18K |        - |      519 |      519 |       0.31 | *
    |      18K |        - |      518 |      518 |       0.32 | *
    |      20K |        - |      517 |      517 |       0.32 | *
    |      21K |        - |      516 |      516 |       0.32 | *
    |      21K |        - |      515 |      515 |       0.32 | *
    |      21K |        - |      514 |      514 |       0.32 | *
    |      22K |        - |      513 |      513 |       0.33 | *
    |      22K |        - |      512 |      512 |       0.33 | *
    |      22K |        - |      511 |      511 |       0.33 | *
    |      23K |        - |      507 |      507 |       0.33 | *
    |      23K |        - |      505 |      505 |       0.33 | *
    |      24K |        - |      504 |      504 |       0.33 | *
    |      24K |        - |      503 |      503 |       0.33 | *
    |      27K |        - |      500 |      500 |       0.34 | *
    |      27K |        - |      499 |      499 |       0.34 | *
    |      27K |        - |      498 |      498 |       0.34 | *
    |      27K |        - |      497 |      497 |       0.34 | *
    |      27K |        - |      496 |      496 |       0.34 | *
    |      28K |        - |      495 |      495 |       0.34 | *
    |      28K |        - |      494 |      494 |       0.34 | *
    |      28K |        - |      493 |      493 |       0.35 | *
    |      28K |        - |      492 |      492 |       0.35 | *
    |      29K |        - |      491 |      491 |       0.35 | *
    |      29K |        - |      490 |      490 |       0.35 | *
    |      29K |        - |      489 |      489 |       0.35 | *
    |      29K |        - |      488 |      488 |       0.35 | *
    |      29K |        - |      486 |      486 |       0.35 | *
    |      30K |        - |      485 |      485 |       0.35 | *
    |      40K |        - |      483 |      483 |       0.37 | *
    |      42K |        - |      482 |      482 |       0.38 | *
    |      43K |        - |      481 |      481 |       0.38 | *
    |      43K |        - |      480 |      480 |       0.38 | *
    |      43K |        - |      478 |      478 |       0.38 | *
    |      43K |        - |      477 |      477 |       0.38 | *
    |      45K |        - |      476 |      476 |       0.39 | *
    |      45K |        - |      475 |      475 |       0.39 | *
    |      45K |        - |      474 |      474 |       0.39 | *
    |      45K |        - |      473 |      473 |       0.39 | *
    |      46K |        - |      472 |      472 |       0.39 | *
    |      46K |        - |      471 |      471 |       0.39 | *
    |      46K |        - |      470 |      470 |       0.39 | *
    |      46K |        - |      469 |      469 |       0.39 | *
    |      46K |        - |      468 |      468 |       0.39 | *
    |      46K |        - |      467 |      467 |       0.39 | *
    |      47K |        - |      466 |      466 |       0.39 | *
    |      47K |        - |      465 |      465 |       0.40 | *
    |      47K |        - |      464 |      464 |       0.40 | *
    |      47K |        - |      463 |      463 |       0.40 | *
    |      50K |        - |      462 |      462 |       0.42 | *
    |      51K |        - |      459 |      459 |       0.42 | *
    |      52K |        - |      458 |      458 |       0.42 | *
    |      52K |        - |      456 |      456 |       0.42 | *
    |      52K |        - |      455 |      455 |       0.42 | *
    |      52K |        - |      452 |      452 |       0.43 | *
    |      53K |        - |      451 |      451 |       0.43 | *
    |      54K |        - |      450 |      450 |       0.44 | *
    |      55K |        - |      447 |      447 |       0.44 | *
    |      55K |        - |      446 |      446 |       0.44 | *
    |      56K |        - |      445 |      445 |       0.45 | *
    |      56K |        - |      444 |      444 |       0.45 | *
    |      57K |        - |      443 |      443 |       0.45 | *
    |      59K |        - |      442 |      442 |       0.47 | *
    |      60K |        - |      441 |      441 |       0.47 | *
    |      60K |        - |      440 |      440 |       0.47 | *
    |      60K |        - |      439 |      439 |       0.47 | *
    |      60K |        - |      438 |      438 |       0.48 | *
    |      60K |        - |      437 |      437 |       0.48 | *
    |      60K |        - |      433 |      433 |       0.48 | *
    |      61K |        - |      432 |      432 |       0.48 | *
    |      66K |        - |      430 |      430 |       0.52 | *
    |      66K |        - |      429 |      429 |       0.52 | *
    |      83K |        - |      428 |      428 |       0.65 | *
    |      85K |        - |      427 |      427 |       0.66 | *
    |      85K |        - |      426 |      426 |       0.66 | *
    |      88K |        - |      425 |      425 |       0.69 | *
    |      88K |        - |      424 |      424 |       0.69 | *
    |      89K |        - |      422 |      422 |       0.70 | *
    |      97K |        - |      421 |      421 |       0.78 | *
    |      98K |        - |      420 |      420 |       0.79 | *
    |      98K |        - |      419 |      419 |       0.79 | *
    |      99K |        - |      418 |      418 |       0.79 | *
    |      99K |        - |      417 |      417 |       0.80 | *
    |     105K |        - |      415 |      415 |       0.84 | *
    |     105K |        - |      414 |      414 |       0.84 | *
    |     105K |        - |      413 |      413 |       0.84 | *
    |     108K |        - |      412 |      412 |       0.86 | *
    |     109K |        - |      411 |      411 |       0.88 | *
    |     118K |        - |      410 |      410 |       0.93 | *
    |     118K |        - |      409 |      409 |       0.93 | *
    |     118K |        - |      408 |      408 |       0.93 | *
    |     120K |        - |      407 |      407 |       0.95 | *
    |     120K |        - |      406 |      406 |       0.95 | *
    |     137K |        - |      405 |      405 |       1.03 | *
    |     144K |        - |      404 |      404 |       1.06 | *
    |     146K |        - |      403 |      403 |       1.07 | *
    |     148K |        - |      402 |      402 |       1.08 | *
    |     177K |        - |      401 |      401 |       1.21 | *
    |     180K |        - |      400 |      400 |       1.23 | *
    |     209K |        - |      398 |      398 |       1.32 | *
    |     212K |        - |      397 |      397 |       1.33 | *
    |     214K |        - |      396 |      396 |       1.33 | *
    |     214K |        - |      395 |      395 |       1.34 | *
    |     219K |        - |      394 |      394 |       1.34 | *
    |     219K |        - |      393 |      393 |       1.35 | *
    |     222K |        - |      392 |      392 |       1.35 | *
    |     234K |        - |      391 |      391 |       1.37 | *
    |     268K |        - |      390 |      390 |       1.44 | *
    |     269K |        - |      389 |      389 |       1.45 | *
    |     269K |        - |      388 |      388 |       1.45 | *
    |     289K |        - |      387 |      387 |       1.51 | *
    |     297K |        - |      386 |      386 |       1.52 | *
    |     332K |        - |      384 |      384 |       1.58 | *
    |     332K |        - |      383 |      383 |       1.58 | *
    |     346K |        - |      382 |      382 |       1.61 | *
    |     347K |        - |      381 |      381 |       1.61 | *
    |     348K |        - |      380 |      380 |       1.61 | *
    |     354K |        - |      379 |      379 |       1.62 | *
    |     354K |        - |      378 |      378 |       1.62 | *
    |     561K |        - |      377 |      377 |       1.85 | *
    |     755K |        - |      376 |      376 |       2.02 | *
    |     767K |        - |      375 |      375 |       2.03 | *
    |     768K |        - |      374 |      374 |       2.03 | *
    |     768K |        - |      373 |      373 |       2.03 | *
    |     769K |        - |      372 |      372 |       2.03 | *
    |     926K |        - |      371 |      371 |       2.19 | *
    |     932K |        - |      370 |      370 |       2.20 | *
    |     941K |        - |      369 |      369 |       2.22 | *
    |    3154K |        - |      368 |      368 |       4.85 | *
    |    3160K |        - |      367 |      367 |       4.85 | *
    |    3167K |        - |      366 |      366 |       4.86 | *
    |    3173K |        - |      365 |      365 |       4.87 | *
    |    3326K |        - |      364 |      364 |       5.06 | *
    |    3480K |        - |      362 |      362 |       5.25 | *
    |    4783K |        - |      361 |      361 |       6.44 | *
    |    7862K |        - |      360 |      360 |       9.91 | *
    |    7863K |        - |      359 |      359 |       9.91 | *
    |    8112K |        - |      358 |      358 |      10.20 | *
    |    8521K |        - |      357 |      357 |      10.57 | *
    |      20M |        - |      356 |      356 |      22.42 | *
    |      27M |        - |      355 |      355 |      28.38 | *
    |      36M |        - |      354 |      354 |      36.35 | *
    |      36M |        - |      353 |      353 |      36.35 | *
    |      64M |        - |      352 |      352 |      60.95 | *
    |      84M |        - |      351 |      351 |      78.63 | *
    |      93M |        - |      350 |      350 |      86.31 | *
    |      93M |        - |      349 |      349 |      86.44 | *
    |     141M |        - |      348 |      348 |     128.68 | *
    |     141M |        - |      347 |      347 |     128.68 | *
    |     141M |        - |      346 |      346 |     128.78 | *
    |     141M |        - |      345 |      345 |     128.78 | *
    |     234M |        - |      344 |      344 |     209.54 | *
    |     282M |        - |      343 |      343 |     251.28 | *
    |     282M |        - |      342 |      342 |     251.34 | *
    |     282M |        - |      341 |      341 |     251.35 | *
    |     282M |        - |      340 |      340 |     251.37 | *
    |     546M |        - |      339 |      339 |     482.18 | *
    |     761M |        - |      338 |      338 |     669.39 | *
    |     769M |        - |      337 |      337 |     676.32 | *
    |     852M |        - |      336 |      336 |     747.36 | *
    \--------------------------------------------------------/

Neighborhoods statistics (values in %):

    /----------------------------------------------------------------\
    | Move               | Improvs. | Sideways |  Accepts |  Rejects |
    |--------------------|----------|----------|----------|----------|
    | Shift(mk)          |      16K |      79K |     103K |     173M |
    | Shift              |     1585 |     341K |     356K |     173M |
    | ShiftSmart(mk)     |     330K |    1850K |    2319K |     171M |
    | ShiftSmart         |      33K |    6408K |    6630K |     166M |
    | SimpSwap(mk)       |       33 |       63 |      103 |     173M |
    | SimpSwap           |        4 |      161 |      188 |     173M |
    | SimpSwapSmart(mk)  |      566 |     1171 |     2108 |     173M |
    | SimpSwapSmart      |      119 |     3598 |     4292 |     173M |
    | Swap(mk)           |        8 |        3 |       12 |     173M |
    | Swap               |        2 |       22 |       25 |     173M |
    | SwapSmart(mk)      |      507 |      974 |     1726 |     173M |
    | SwapSmart          |       83 |     2716 |     3236 |     173M |
    | Switch(mk)         |     3786 |    6744K |    6749K |     166M |
    | Switch             |      360 |    7102K |    7105K |     166M |
    | SwitchSmart(mk)    |      79K |     189K |     299K |     173M |
    | SwitchSmart        |     7831 |    1309K |    1370K |     172M |
    | TaskMove(mk)       |      389 |      703 |     1283 |     173M |
    | TaskMove           |       41 |     1392 |     1672 |     173M |
    | TaskMoveSmart(mk)  |     7686 |      14K |      25K |     173M |
    | TaskMoveSmart      |      853 |      28K |      33K |     173M |
    | 2-Shift(mk)        |     1629 |     282K |     284K |     173M |
    | 2-Shift            |      158 |     337K |     338K |     173M |
    | 2-ShiftSmart(mk)   |      64K |     812K |     892K |     172M |
    | 2-ShiftSmart       |     6239 |    1491K |    1533K |     172M |
    \----------------------------------------------------------------/

Best makespan.....: 336
N. of Iterations..: 4154146512
Total runtime.....: 3600.01s
Using Python-MIP package version 1.6.8
Começo a execução
    /-------------------------------------------------------------------------------\
    |    Makespan   |   Free Jobs   | Free Machines |    It. Time   |   Total Time  | 
    |-------------------------------------------------------------------------------|
    \-------------------------------------------------------------------------------/
Terminou a execução
