Instance....: instances/I_250_15_S_1-49_8.txt
Algorithm...: Simulated Annealing (alpha=0.990, saMax=10M, t0=1)
Other params: maxIters=100M, seed=-1, timeLimit=3600.00s

    /--------------------------------------------------------\
    |     Iter |   RDP(%) |       S* |       S' |       Time | 
    |----------|----------|----------|----------|------------|
    |        0 |        - |     1961 |     1961 |       0.00 | s0
    |        3 |        - |     1946 |     1946 |       0.01 | *
    |        6 |        - |     1916 |     1916 |       0.02 | *
    |        8 |        - |     1849 |     1849 |       0.02 | *
    |       10 |        - |     1790 |     1790 |       0.02 | *
    |       12 |        - |     1732 |     1732 |       0.03 | *
    |       20 |        - |     1707 |     1707 |       0.03 | *
    |       27 |        - |     1673 |     1673 |       0.03 | *
    |       28 |        - |     1631 |     1631 |       0.03 | *
    |       29 |        - |     1611 |     1611 |       0.03 | *
    |       30 |        - |     1608 |     1608 |       0.04 | *
    |       31 |        - |     1600 |     1600 |       0.04 | *
    |       33 |        - |     1578 |     1578 |       0.04 | *
    |       38 |        - |     1575 |     1575 |       0.04 | *
    |       44 |        - |     1498 |     1498 |       0.04 | *
    |       46 |        - |     1490 |     1490 |       0.04 | *
    |       47 |        - |     1454 |     1454 |       0.04 | *
    |       49 |        - |     1428 |     1428 |       0.04 | *
    |       54 |        - |     1426 |     1426 |       0.04 | *
    |       56 |        - |     1415 |     1415 |       0.04 | *
    |       60 |        - |     1403 |     1403 |       0.04 | *
    |       62 |        - |     1400 |     1400 |       0.04 | *
    |       64 |        - |     1395 |     1395 |       0.04 | *
    |       65 |        - |     1385 |     1385 |       0.05 | *
    |       67 |        - |     1375 |     1375 |       0.05 | *
    |       72 |        - |     1342 |     1342 |       0.05 | *
    |       73 |        - |     1331 |     1331 |       0.05 | *
    |       76 |        - |     1319 |     1319 |       0.05 | *
    |       79 |        - |     1317 |     1317 |       0.05 | *
    |       83 |        - |     1312 |     1312 |       0.05 | *
    |       86 |        - |     1305 |     1305 |       0.05 | *
    |       87 |        - |     1293 |     1293 |       0.05 | *
    |       88 |        - |     1290 |     1290 |       0.05 | *
    |       90 |        - |     1279 |     1279 |       0.05 | *
    |       94 |        - |     1278 |     1278 |       0.05 | *
    |      100 |        - |     1271 |     1271 |       0.05 | *
    |      101 |        - |     1270 |     1270 |       0.05 | *
    |      112 |        - |     1268 |     1268 |       0.06 | *
    |      115 |        - |     1257 |     1257 |       0.06 | *
    |      123 |        - |     1248 |     1248 |       0.06 | *
    |      128 |        - |     1244 |     1244 |       0.06 | *
    |      131 |        - |     1237 |     1237 |       0.06 | *
    |      135 |        - |     1226 |     1226 |       0.06 | *
    |      140 |        - |     1224 |     1224 |       0.06 | *
    |      150 |        - |     1223 |     1223 |       0.06 | *
    |      159 |        - |     1221 |     1221 |       0.06 | *
    |      162 |        - |     1218 |     1218 |       0.06 | *
    |      177 |        - |     1217 |     1217 |       0.06 | *
    |      179 |        - |     1215 |     1215 |       0.06 | *
    |      181 |        - |     1205 |     1205 |       0.06 | *
    |      184 |        - |     1170 |     1170 |       0.06 | *
    |      190 |        - |     1166 |     1166 |       0.06 | *
    |      192 |        - |     1161 |     1161 |       0.07 | *
    |      202 |        - |     1151 |     1151 |       0.07 | *
    |      204 |        - |     1150 |     1150 |       0.07 | *
    |      205 |        - |     1148 |     1148 |       0.07 | *
    |      206 |        - |     1137 |     1137 |       0.07 | *
    |      207 |        - |     1134 |     1134 |       0.07 | *
    |      213 |        - |     1130 |     1130 |       0.07 | *
    |      222 |        - |     1124 |     1124 |       0.07 | *
    |      226 |        - |     1110 |     1110 |       0.07 | *
    |      232 |        - |     1107 |     1107 |       0.07 | *
    |      241 |        - |     1102 |     1102 |       0.07 | *
    |      255 |        - |     1093 |     1093 |       0.07 | *
    |      262 |        - |     1092 |     1092 |       0.07 | *
    |      277 |        - |     1090 |     1090 |       0.07 | *
    |      293 |        - |     1087 |     1087 |       0.07 | *
    |      309 |        - |     1077 |     1077 |       0.07 | *
    |      314 |        - |     1076 |     1076 |       0.08 | *
    |      315 |        - |     1074 |     1074 |       0.08 | *
    |      316 |        - |     1071 |     1071 |       0.08 | *
    |      343 |        - |     1065 |     1065 |       0.08 | *
    |      346 |        - |     1054 |     1054 |       0.08 | *
    |      357 |        - |     1035 |     1035 |       0.08 | *
    |      364 |        - |     1033 |     1033 |       0.08 | *
    |      369 |        - |     1030 |     1030 |       0.08 | *
    |      376 |        - |     1029 |     1029 |       0.08 | *
    |      382 |        - |     1026 |     1026 |       0.08 | *
    |      384 |        - |     1025 |     1025 |       0.08 | *
    |      398 |        - |     1015 |     1015 |       0.08 | *
    |      406 |        - |     1014 |     1014 |       0.08 | *
    |      424 |        - |     1011 |     1011 |       0.08 | *
    |      433 |        - |     1003 |     1003 |       0.08 | *
    |      437 |        - |      997 |      997 |       0.08 | *
    |      449 |        - |      995 |      995 |       0.08 | *
    |      454 |        - |      994 |      994 |       0.08 | *
    |      455 |        - |      993 |      993 |       0.08 | *
    |      457 |        - |      992 |      992 |       0.08 | *
    |      462 |        - |      987 |      987 |       0.09 | *
    |      465 |        - |      985 |      985 |       0.09 | *
    |      476 |        - |      984 |      984 |       0.09 | *
    |      478 |        - |      981 |      981 |       0.09 | *
    |      487 |        - |      979 |      979 |       0.09 | *
    |      495 |        - |      968 |      968 |       0.09 | *
    |      497 |        - |      966 |      966 |       0.09 | *
    |      502 |        - |      965 |      965 |       0.09 | *
    |      507 |        - |      961 |      961 |       0.09 | *
    |      524 |        - |      959 |      959 |       0.09 | *
    |      533 |        - |      954 |      954 |       0.09 | *
    |      564 |        - |      953 |      953 |       0.09 | *
    |      589 |        - |      952 |      952 |       0.09 | *
    |      590 |        - |      949 |      949 |       0.09 | *
    |      602 |        - |      946 |      946 |       0.09 | *
    |      607 |        - |      940 |      940 |       0.09 | *
    |      608 |        - |      935 |      935 |       0.10 | *
    |      611 |        - |      933 |      933 |       0.10 | *
    |      613 |        - |      932 |      932 |       0.10 | *
    |      649 |        - |      931 |      931 |       0.10 | *
    |      650 |        - |      923 |      923 |       0.10 | *
    |      662 |        - |      921 |      921 |       0.10 | *
    |      679 |        - |      916 |      916 |       0.10 | *
    |      691 |        - |      913 |      913 |       0.10 | *
    |      737 |        - |      912 |      912 |       0.10 | *
    |      752 |        - |      911 |      911 |       0.10 | *
    |      764 |        - |      906 |      906 |       0.10 | *
    |      770 |        - |      903 |      903 |       0.10 | *
    |      771 |        - |      898 |      898 |       0.10 | *
    |      782 |        - |      897 |      897 |       0.10 | *
    |      787 |        - |      896 |      896 |       0.11 | *
    |      789 |        - |      894 |      894 |       0.11 | *
    |      794 |        - |      884 |      884 |       0.11 | *
    |      795 |        - |      883 |      883 |       0.11 | *
    |      805 |        - |      881 |      881 |       0.11 | *
    |      806 |        - |      880 |      880 |       0.11 | *
    |      808 |        - |      877 |      877 |       0.11 | *
    |      830 |        - |      876 |      876 |       0.11 | *
    |      841 |        - |      872 |      872 |       0.11 | *
    |      879 |        - |      866 |      866 |       0.12 | *
    |      883 |        - |      865 |      865 |       0.12 | *
    |      884 |        - |      864 |      864 |       0.12 | *
    |      886 |        - |      861 |      861 |       0.12 | *
    |      904 |        - |      857 |      857 |       0.12 | *
    |      914 |        - |      854 |      854 |       0.12 | *
    |      919 |        - |      852 |      852 |       0.12 | *
    |      926 |        - |      849 |      849 |       0.12 | *
    |      939 |        - |      844 |      844 |       0.12 | *
    |      943 |        - |      843 |      843 |       0.12 | *
    |      968 |        - |      841 |      841 |       0.13 | *
    |      973 |        - |      835 |      835 |       0.13 | *
    |      975 |        - |      829 |      829 |       0.13 | *
    |      983 |        - |      827 |      827 |       0.13 | *
    |      989 |        - |      824 |      824 |       0.13 | *
    |     1032 |        - |      823 |      823 |       0.13 | *
    |     1034 |        - |      822 |      822 |       0.13 | *
    |     1040 |        - |      819 |      819 |       0.13 | *
    |     1044 |        - |      814 |      814 |       0.13 | *
    |     1057 |        - |      812 |      812 |       0.13 | *
    |     1069 |        - |      811 |      811 |       0.13 | *
    |     1072 |        - |      809 |      809 |       0.13 | *
    |     1085 |        - |      808 |      808 |       0.14 | *
    |     1093 |        - |      807 |      807 |       0.14 | *
    |     1103 |        - |      806 |      806 |       0.14 | *
    |     1111 |        - |      805 |      805 |       0.14 | *
    |     1113 |        - |      804 |      804 |       0.14 | *
    |     1133 |        - |      803 |      803 |       0.14 | *
    |     1148 |        - |      798 |      798 |       0.14 | *
    |     1149 |        - |      796 |      796 |       0.14 | *
    |     1153 |        - |      795 |      795 |       0.14 | *
    |     1154 |        - |      792 |      792 |       0.14 | *
    |     1158 |        - |      788 |      788 |       0.14 | *
    |     1182 |        - |      787 |      787 |       0.14 | *
    |     1185 |        - |      785 |      785 |       0.14 | *
    |     1193 |        - |      781 |      781 |       0.14 | *
    |     1197 |        - |      780 |      780 |       0.14 | *
    |     1205 |        - |      779 |      779 |       0.15 | *
    |     1210 |        - |      778 |      778 |       0.15 | *
    |     1216 |        - |      777 |      777 |       0.15 | *
    |     1224 |        - |      773 |      773 |       0.15 | *
    |     1228 |        - |      768 |      768 |       0.15 | *
    |     1232 |        - |      767 |      767 |       0.15 | *
    |     1235 |        - |      766 |      766 |       0.15 | *
    |     1249 |        - |      764 |      764 |       0.15 | *
    |     1288 |        - |      762 |      762 |       0.15 | *
    |     1310 |        - |      760 |      760 |       0.15 | *
    |     1319 |        - |      759 |      759 |       0.15 | *
    |     1324 |        - |      758 |      758 |       0.15 | *
    |     1422 |        - |      753 |      753 |       0.15 | *
    |     1433 |        - |      751 |      751 |       0.15 | *
    |     1441 |        - |      749 |      749 |       0.15 | *
    |     1491 |        - |      747 |      747 |       0.16 | *
    |     1495 |        - |      745 |      745 |       0.16 | *
    |     1501 |        - |      743 |      743 |       0.16 | *
    |     1559 |        - |      741 |      741 |       0.16 | *
    |     1569 |        - |      739 |      739 |       0.16 | *
    |     1573 |        - |      738 |      738 |       0.16 | *
    |     1597 |        - |      737 |      737 |       0.16 | *
    |     1607 |        - |      736 |      736 |       0.16 | *
    |     1615 |        - |      735 |      735 |       0.16 | *
    |     1631 |        - |      731 |      731 |       0.16 | *
    |     1645 |        - |      726 |      726 |       0.16 | *
    |     1657 |        - |      723 |      723 |       0.16 | *
    |     1658 |        - |      719 |      719 |       0.16 | *
    |     1662 |        - |      717 |      717 |       0.16 | *
    |     1678 |        - |      715 |      715 |       0.16 | *
    |     1705 |        - |      714 |      714 |       0.16 | *
    |     1725 |        - |      712 |      712 |       0.16 | *
    |     1735 |        - |      708 |      708 |       0.17 | *
    |     1743 |        - |      707 |      707 |       0.17 | *
    |     1745 |        - |      706 |      706 |       0.17 | *
    |     1758 |        - |      704 |      704 |       0.17 | *
    |     1763 |        - |      703 |      703 |       0.17 | *
    |     1768 |        - |      701 |      701 |       0.17 | *
    |     1770 |        - |      695 |      695 |       0.17 | *
    |     1826 |        - |      694 |      694 |       0.17 | *
    |     1833 |        - |      692 |      692 |       0.17 | *
    |     1837 |        - |      691 |      691 |       0.17 | *
    |     1865 |        - |      689 |      689 |       0.17 | *
    |     1871 |        - |      687 |      687 |       0.17 | *
    |     1875 |        - |      685 |      685 |       0.17 | *
    |     1877 |        - |      681 |      681 |       0.17 | *
    |     1882 |        - |      680 |      680 |       0.17 | *
    |     1928 |        - |      678 |      678 |       0.17 | *
    |     1952 |        - |      674 |      674 |       0.17 | *
    |     2024 |        - |      673 |      673 |       0.17 | *
    |     2058 |        - |      672 |      672 |       0.17 | *
    |     2073 |        - |      670 |      670 |       0.18 | *
    |     2136 |        - |      669 |      669 |       0.18 | *
    |     2145 |        - |      668 |      668 |       0.18 | *
    |     2146 |        - |      667 |      667 |       0.18 | *
    |     2150 |        - |      665 |      665 |       0.18 | *
    |     2152 |        - |      663 |      663 |       0.18 | *
    |     2166 |        - |      660 |      660 |       0.18 | *
    |     2172 |        - |      657 |      657 |       0.18 | *
    |     2184 |        - |      654 |      654 |       0.18 | *
    |     2198 |        - |      647 |      647 |       0.18 | *
    |     2209 |        - |      645 |      645 |       0.18 | *
    |     2228 |        - |      644 |      644 |       0.18 | *
    |     2244 |        - |      642 |      642 |       0.18 | *
    |     2265 |        - |      641 |      641 |       0.18 | *
    |     2276 |        - |      639 |      639 |       0.18 | *
    |     2306 |        - |      632 |      632 |       0.18 | *
    |     2308 |        - |      631 |      631 |       0.18 | *
    |     2319 |        - |      630 |      630 |       0.18 | *
    |     2379 |        - |      627 |      627 |       0.18 | *
    |     2413 |        - |      626 |      626 |       0.18 | *
    |     2431 |        - |      625 |      625 |       0.18 | *
    |     2466 |        - |      624 |      624 |       0.18 | *
    |     2475 |        - |      622 |      622 |       0.18 | *
    |     2485 |        - |      621 |      621 |       0.18 | *
    |     2493 |        - |      619 |      619 |       0.18 | *
    |     2611 |        - |      618 |      618 |       0.19 | *
    |     2612 |        - |      616 |      616 |       0.19 | *
    |     2619 |        - |      614 |      614 |       0.19 | *
    |     2649 |        - |      612 |      612 |       0.19 | *
    |     2693 |        - |      611 |      611 |       0.19 | *
    |     2696 |        - |      608 |      608 |       0.19 | *
    |     2721 |        - |      605 |      605 |       0.19 | *
    |     2781 |        - |      602 |      602 |       0.19 | *
    |     2810 |        - |      601 |      601 |       0.19 | *
    |     2821 |        - |      600 |      600 |       0.19 | *
    |     2900 |        - |      599 |      599 |       0.19 | *
    |     2905 |        - |      597 |      597 |       0.19 | *
    |     2925 |        - |      596 |      596 |       0.19 | *
    |     2982 |        - |      595 |      595 |       0.19 | *
    |     3002 |        - |      592 |      592 |       0.19 | *
    |     3050 |        - |      591 |      591 |       0.19 | *
    |     3073 |        - |      590 |      590 |       0.20 | *
    |     3090 |        - |      589 |      589 |       0.20 | *
    |     3255 |        - |      588 |      588 |       0.20 | *
    |     3280 |        - |      587 |      587 |       0.20 | *
    |     3294 |        - |      586 |      586 |       0.20 | *
    |     3295 |        - |      585 |      585 |       0.20 | *
    |     3308 |        - |      584 |      584 |       0.20 | *
    |     3347 |        - |      583 |      583 |       0.20 | *
    |     3409 |        - |      581 |      581 |       0.20 | *
    |     3425 |        - |      580 |      580 |       0.20 | *
    |     3503 |        - |      579 |      579 |       0.20 | *
    |     3602 |        - |      576 |      576 |       0.20 | *
    |     3613 |        - |      575 |      575 |       0.20 | *
    |     3631 |        - |      573 |      573 |       0.20 | *
    |     3670 |        - |      568 |      568 |       0.20 | *
    |     3709 |        - |      567 |      567 |       0.20 | *
    |     3741 |        - |      566 |      566 |       0.20 | *
    |     3743 |        - |      565 |      565 |       0.20 | *
    |     3749 |        - |      564 |      564 |       0.20 | *
    |     3787 |        - |      560 |      560 |       0.20 | *
    |     3805 |        - |      559 |      559 |       0.20 | *
    |     3823 |        - |      558 |      558 |       0.21 | *
    |     3839 |        - |      557 |      557 |       0.21 | *
    |     3860 |        - |      555 |      555 |       0.21 | *
    |     3863 |        - |      553 |      553 |       0.21 | *
    |     3872 |        - |      552 |      552 |       0.21 | *
    |     3957 |        - |      551 |      551 |       0.21 | *
    |     3993 |        - |      550 |      550 |       0.21 | *
    |     4005 |        - |      548 |      548 |       0.21 | *
    |     4055 |        - |      546 |      546 |       0.21 | *
    |     4094 |        - |      543 |      543 |       0.21 | *
    |     4099 |        - |      542 |      542 |       0.21 | *
    |     4121 |        - |      541 |      541 |       0.22 | *
    |     4159 |        - |      539 |      539 |       0.22 | *
    |     4205 |        - |      538 |      538 |       0.22 | *
    |     4225 |        - |      536 |      536 |       0.22 | *
    |     4335 |        - |      532 |      532 |       0.22 | *
    |     4398 |        - |      529 |      529 |       0.22 | *
    |     4415 |        - |      528 |      528 |       0.22 | *
    |     4443 |        - |      520 |      520 |       0.22 | *
    |     4468 |        - |      519 |      519 |       0.22 | *
    |     4473 |        - |      517 |      517 |       0.22 | *
    |     4492 |        - |      516 |      516 |       0.22 | *
    |     4495 |        - |      515 |      515 |       0.22 | *
    |     4556 |        - |      514 |      514 |       0.22 | *
    |     4572 |        - |      513 |      513 |       0.22 | *
    |     4776 |        - |      512 |      512 |       0.23 | *
    |     4794 |        - |      509 |      509 |       0.23 | *
    |     4847 |        - |      507 |      507 |       0.23 | *
    |     5105 |        - |      506 |      506 |       0.23 | *
    |     5123 |        - |      505 |      505 |       0.23 | *
    |     5184 |        - |      504 |      504 |       0.23 | *
    |     5227 |        - |      501 |      501 |       0.23 | *
    |     5337 |        - |      500 |      500 |       0.23 | *
    |     5381 |        - |      499 |      499 |       0.23 | *
    |     5436 |        - |      498 |      498 |       0.23 | *
    |     5511 |        - |      494 |      494 |       0.23 | *
    |     5598 |        - |      492 |      492 |       0.23 | *
    |     5605 |        - |      491 |      491 |       0.23 | *
    |     5629 |        - |      490 |      490 |       0.23 | *
    |     5639 |        - |      489 |      489 |       0.24 | *
    |     5660 |        - |      488 |      488 |       0.24 | *
    |     5669 |        - |      485 |      485 |       0.24 | *
    |     5693 |        - |      484 |      484 |       0.24 | *
    |     5710 |        - |      483 |      483 |       0.24 | *
    |     5731 |        - |      481 |      481 |       0.24 | *
    |     5797 |        - |      480 |      480 |       0.24 | *
    |     5818 |        - |      479 |      479 |       0.24 | *
    |     5848 |        - |      478 |      478 |       0.24 | *
    |     5857 |        - |      474 |      474 |       0.24 | *
    |     5883 |        - |      470 |      470 |       0.24 | *
    |     5913 |        - |      469 |      469 |       0.24 | *
    |     5990 |        - |      464 |      464 |       0.24 | *
    |     6236 |        - |      463 |      463 |       0.24 | *
    |     6527 |        - |      462 |      462 |       0.24 | *
    |     6620 |        - |      459 |      459 |       0.25 | *
    |     6652 |        - |      458 |      458 |       0.25 | *
    |     6661 |        - |      456 |      456 |       0.25 | *
    |     6826 |        - |      455 |      455 |       0.25 | *
    |     6844 |        - |      454 |      454 |       0.25 | *
    |     6879 |        - |      453 |      453 |       0.25 | *
    |     6893 |        - |      452 |      452 |       0.25 | *
    |     6952 |        - |      449 |      449 |       0.25 | *
    |     7188 |        - |      446 |      446 |       0.25 | *
    |     7217 |        - |      445 |      445 |       0.25 | *
    |     7270 |        - |      444 |      444 |       0.25 | *
    |     7365 |        - |      443 |      443 |       0.25 | *
    |     7589 |        - |      442 |      442 |       0.25 | *
    |     7678 |        - |      441 |      441 |       0.26 | *
    |     7805 |        - |      440 |      440 |       0.26 | *
    |     7984 |        - |      439 |      439 |       0.26 | *
    |     8018 |        - |      438 |      438 |       0.26 | *
    |     8131 |        - |      437 |      437 |       0.26 | *
    |     8304 |        - |      435 |      435 |       0.26 | *
    |     8592 |        - |      434 |      434 |       0.26 | *
    |     8594 |        - |      433 |      433 |       0.26 | *
    |     8615 |        - |      431 |      431 |       0.26 | *
    |     8694 |        - |      430 |      430 |       0.26 | *
    |     8699 |        - |      428 |      428 |       0.26 | *
    |     8751 |        - |      427 |      427 |       0.27 | *
    |     8784 |        - |      425 |      425 |       0.27 | *
    |     8934 |        - |      423 |      423 |       0.27 | *
    |     9550 |        - |      421 |      421 |       0.27 | *
    |     9551 |        - |      419 |      419 |       0.27 | *
    |     9559 |        - |      418 |      418 |       0.27 | *
    |     9856 |        - |      417 |      417 |       0.27 | *
    |     9860 |        - |      416 |      416 |       0.27 | *
    |     9882 |        - |      415 |      415 |       0.27 | *
    |     9884 |        - |      414 |      414 |       0.27 | *
    |      10K |        - |      413 |      413 |       0.28 | *
    |      10K |        - |      411 |      411 |       0.28 | *
    |      11K |        - |      409 |      409 |       0.28 | *
    |      11K |        - |      408 |      408 |       0.28 | *
    |      11K |        - |      407 |      407 |       0.28 | *
    |      11K |        - |      405 |      405 |       0.28 | *
    |      11K |        - |      403 |      403 |       0.28 | *
    |      11K |        - |      402 |      402 |       0.28 | *
    |      11K |        - |      401 |      401 |       0.29 | *
    |      11K |        - |      400 |      400 |       0.29 | *
    |      12K |        - |      399 |      399 |       0.29 | *
    |      12K |        - |      398 |      398 |       0.29 | *
    |      12K |        - |      397 |      397 |       0.29 | *
    |      12K |        - |      395 |      395 |       0.29 | *
    |      12K |        - |      394 |      394 |       0.29 | *
    |      12K |        - |      393 |      393 |       0.29 | *
    |      12K |        - |      392 |      392 |       0.29 | *
    |      12K |        - |      391 |      391 |       0.29 | *
    |      12K |        - |      390 |      390 |       0.29 | *
    |      12K |        - |      389 |      389 |       0.29 | *
    |      13K |        - |      388 |      388 |       0.30 | *
    |      13K |        - |      387 |      387 |       0.30 | *
    |      13K |        - |      386 |      386 |       0.30 | *
    |      13K |        - |      385 |      385 |       0.30 | *
    |      13K |        - |      384 |      384 |       0.30 | *
    |      14K |        - |      382 |      382 |       0.30 | *
    |      14K |        - |      381 |      381 |       0.30 | *
    |      14K |        - |      380 |      380 |       0.30 | *
    |      14K |        - |      379 |      379 |       0.30 | *
    |      14K |        - |      378 |      378 |       0.30 | *
    |      14K |        - |      376 |      376 |       0.30 | *
    |      15K |        - |      375 |      375 |       0.31 | *
    |      15K |        - |      372 |      372 |       0.31 | *
    |      15K |        - |      370 |      370 |       0.31 | *
    |      15K |        - |      369 |      369 |       0.31 | *
    |      16K |        - |      368 |      368 |       0.31 | *
    |      16K |        - |      367 |      367 |       0.31 | *
    |      16K |        - |      366 |      366 |       0.31 | *
    |      16K |        - |      365 |      365 |       0.31 | *
    |      16K |        - |      364 |      364 |       0.31 | *
    |      16K |        - |      363 |      363 |       0.31 | *
    |      17K |        - |      362 |      362 |       0.32 | *
    |      17K |        - |      361 |      361 |       0.32 | *
    |      17K |        - |      360 |      360 |       0.32 | *
    |      17K |        - |      359 |      359 |       0.32 | *
    |      17K |        - |      358 |      358 |       0.32 | *
    |      17K |        - |      357 |      357 |       0.32 | *
    |      17K |        - |      356 |      356 |       0.32 | *
    |      18K |        - |      355 |      355 |       0.32 | *
    |      19K |        - |      354 |      354 |       0.33 | *
    |      19K |        - |      353 |      353 |       0.33 | *
    |      19K |        - |      352 |      352 |       0.33 | *
    |      19K |        - |      351 |      351 |       0.33 | *
    |      19K |        - |      349 |      349 |       0.33 | *
    |      19K |        - |      348 |      348 |       0.33 | *
    |      19K |        - |      347 |      347 |       0.33 | *
    |      20K |        - |      346 |      346 |       0.33 | *
    |      20K |        - |      345 |      345 |       0.33 | *
    |      20K |        - |      344 |      344 |       0.33 | *
    |      20K |        - |      342 |      342 |       0.33 | *
    |      20K |        - |      341 |      341 |       0.34 | *
    |      20K |        - |      340 |      340 |       0.34 | *
    |      20K |        - |      336 |      336 |       0.34 | *
    |      21K |        - |      335 |      335 |       0.34 | *
    |      21K |        - |      334 |      334 |       0.34 | *
    |      21K |        - |      333 |      333 |       0.34 | *
    |      21K |        - |      332 |      332 |       0.34 | *
    |      21K |        - |      331 |      331 |       0.34 | *
    |      21K |        - |      327 |      327 |       0.34 | *
    |      21K |        - |      326 |      326 |       0.34 | *
    |      21K |        - |      325 |      325 |       0.34 | *
    |      22K |        - |      321 |      321 |       0.35 | *
    |      22K |        - |      320 |      320 |       0.35 | *
    |      22K |        - |      319 |      319 |       0.35 | *
    |      22K |        - |      318 |      318 |       0.35 | *
    |      24K |        - |      317 |      317 |       0.35 | *
    |      24K |        - |      316 |      316 |       0.36 | *
    |      27K |        - |      314 |      314 |       0.36 | *
    |      28K |        - |      313 |      313 |       0.37 | *
    |      28K |        - |      312 |      312 |       0.37 | *
    |      28K |        - |      311 |      311 |       0.37 | *
    |      28K |        - |      310 |      310 |       0.37 | *
    |      28K |        - |      309 |      309 |       0.37 | *
    |      31K |        - |      308 |      308 |       0.38 | *
    |      31K |        - |      307 |      307 |       0.38 | *
    |      31K |        - |      306 |      306 |       0.38 | *
    |      32K |        - |      305 |      305 |       0.38 | *
    |      32K |        - |      303 |      303 |       0.38 | *
    |      33K |        - |      302 |      302 |       0.39 | *
    |      33K |        - |      301 |      301 |       0.39 | *
    |      34K |        - |      298 |      298 |       0.39 | *
    |      34K |        - |      297 |      297 |       0.39 | *
    |      35K |        - |      296 |      296 |       0.40 | *
    |      35K |        - |      295 |      295 |       0.40 | *
    |      35K |        - |      294 |      294 |       0.40 | *
    |      35K |        - |      293 |      293 |       0.40 | *
    |      36K |        - |      292 |      292 |       0.40 | *
    |      36K |        - |      291 |      291 |       0.40 | *
    |      37K |        - |      290 |      290 |       0.41 | *
    |      37K |        - |      289 |      289 |       0.41 | *
    |      38K |        - |      287 |      287 |       0.41 | *
    |      46K |        - |      286 |      286 |       0.43 | *
    |      46K |        - |      285 |      285 |       0.43 | *
    |      47K |        - |      284 |      284 |       0.44 | *
    |      47K |        - |      283 |      283 |       0.44 | *
    |      48K |        - |      282 |      282 |       0.44 | *
    |      50K |        - |      281 |      281 |       0.44 | *
    |      50K |        - |      280 |      280 |       0.44 | *
    |      50K |        - |      279 |      279 |       0.45 | *
    |      55K |        - |      278 |      278 |       0.46 | *
    |      56K |        - |      277 |      277 |       0.46 | *
    |      56K |        - |      276 |      276 |       0.46 | *
    |      56K |        - |      275 |      275 |       0.46 | *
    |      58K |        - |      274 |      274 |       0.47 | *
    |      59K |        - |      273 |      273 |       0.47 | *
    |      64K |        - |      272 |      272 |       0.48 | *
    |      77K |        - |      271 |      271 |       0.50 | *
    |      89K |        - |      270 |      270 |       0.52 | *
    |      89K |        - |      269 |      269 |       0.52 | *
    |      90K |        - |      267 |      267 |       0.52 | *
    |      90K |        - |      266 |      266 |       0.52 | *
    |      90K |        - |      265 |      265 |       0.52 | *
    |      97K |        - |      264 |      264 |       0.54 | *
    |      99K |        - |      262 |      262 |       0.55 | *
    |     107K |        - |      261 |      261 |       0.57 | *
    |     108K |        - |      260 |      260 |       0.57 | *
    |     111K |        - |      259 |      259 |       0.58 | *
    |     111K |        - |      258 |      258 |       0.58 | *
    |     112K |        - |      257 |      257 |       0.59 | *
    |     112K |        - |      256 |      256 |       0.59 | *
    |     112K |        - |      255 |      255 |       0.59 | *
    |     114K |        - |      253 |      253 |       0.59 | *
    |     115K |        - |      252 |      252 |       0.60 | *
    |     118K |        - |      250 |      250 |       0.61 | *
    |     118K |        - |      249 |      249 |       0.61 | *
    |     133K |        - |      248 |      248 |       0.65 | *
    |     133K |        - |      247 |      247 |       0.65 | *
    |     134K |        - |      246 |      246 |       0.66 | *
    |     134K |        - |      245 |      245 |       0.66 | *
    |     136K |        - |      244 |      244 |       0.66 | *
    |     137K |        - |      243 |      243 |       0.67 | *
    |     138K |        - |      241 |      241 |       0.67 | *
    |     139K |        - |      240 |      240 |       0.67 | *
    |     151K |        - |      239 |      239 |       0.71 | *
    |     152K |        - |      238 |      238 |       0.71 | *
    |     197K |        - |      236 |      236 |       0.90 | *
    |     203K |        - |      235 |      235 |       0.93 | *
    |     204K |        - |      234 |      234 |       0.93 | *
    |     227K |        - |      233 |      233 |       1.04 | *
    |     228K |        - |      232 |      232 |       1.04 | *
    |     231K |        - |      231 |      231 |       1.06 | *
    |     232K |        - |      230 |      230 |       1.06 | *
    |     232K |        - |      229 |      229 |       1.06 | *
    |     234K |        - |      228 |      228 |       1.07 | *
    |     234K |        - |      227 |      227 |       1.07 | *
    |     236K |        - |      226 |      226 |       1.08 | *
    |     237K |        - |      225 |      225 |       1.08 | *
    |     257K |        - |      223 |      223 |       1.15 | *
    |     257K |        - |      222 |      222 |       1.16 | *
    |     265K |        - |      221 |      221 |       1.18 | *
    |     265K |        - |      220 |      220 |       1.18 | *
    |     277K |        - |      219 |      219 |       1.23 | *
    |     290K |        - |      218 |      218 |       1.26 | *
    |     298K |        - |      217 |      217 |       1.28 | *
    |     299K |        - |      216 |      216 |       1.29 | *
    |     316K |        - |      215 |      215 |       1.33 | *
    |     388K |        - |      214 |      214 |       1.53 | *
    |     388K |        - |      213 |      213 |       1.53 | *
    |     388K |        - |      212 |      212 |       1.53 | *
    |     459K |        - |      211 |      211 |       1.69 | *
    |     521K |        - |      210 |      210 |       1.84 | *
    |     564K |        - |      209 |      209 |       1.95 | *
    |     572K |        - |      208 |      208 |       1.97 | *
    |     630K |        - |      207 |      207 |       2.09 | *
    |     910K |        - |      206 |      206 |       2.40 | *
    |     911K |        - |      205 |      205 |       2.40 | *
    |     912K |        - |      204 |      204 |       2.40 | *
    |     912K |        - |      203 |      203 |       2.40 | *
    |     912K |        - |      202 |      202 |       2.40 | *
    |    1256K |        - |      201 |      201 |       2.74 | *
    |    1257K |        - |      200 |      200 |       2.74 | *
    |    3363K |        - |      199 |      199 |       4.95 | *
    |    3558K |        - |      198 |      198 |       5.17 | *
    |    4912K |        - |      197 |      197 |       6.38 | *
    |      17M |        - |      196 |      196 |      19.06 | *
    |      18M |        - |      195 |      195 |      20.88 | *
    |      26M |        - |      194 |      194 |      27.49 | *
    |      42M |        - |      193 |      193 |      40.63 | *
    |      42M |        - |      192 |      192 |      40.63 | *
    |      44M |        - |      191 |      191 |      42.11 | *
    |      44M |        - |      190 |      190 |      42.27 | *
    |      44M |        - |      189 |      189 |      42.27 | *
    |     179M |        - |      188 |      188 |     152.62 | *
    |     179M |        - |      187 |      187 |     152.98 | *
    |     179M |        - |      186 |      186 |     152.99 | *
    |     241M |        - |      185 |      185 |     203.13 | *
    |     270M |        - |      184 |      184 |     226.90 | *
    |     285M |        - |      183 |      183 |     239.05 | *
    |     285M |        - |      182 |      182 |     239.05 | *
    |     286M |        - |      181 |      181 |     240.25 | *
    |     490M |        - |      180 |      180 |     405.97 | *
    |     724M |        - |      179 |      179 |     595.64 | *
    |     826M |        - |      178 |      178 |     678.89 | *
    |     832M |        - |      177 |      177 |     683.65 | *
    |     833M |        - |      176 |      176 |     684.54 | *
    |    1366M |        - |      175 |      175 |    1114.03 | *
    |    1461M |        - |      174 |      174 |    1191.21 | *
    |    3015M |        - |      173 |      173 |    2416.80 | *
    \--------------------------------------------------------/

Neighborhoods statistics (values in %):

    /----------------------------------------------------------------\
    | Move               | Improvs. | Sideways |  Accepts |  Rejects |
    |--------------------|----------|----------|----------|----------|
    | Shift(mk)          |      24K |      70K |     104K |     191M |
    | Shift              |     1668 |     859K |     883K |     191M |
    | ShiftSmart(mk)     |     325K |     972K |    1419K |     190M |
    | ShiftSmart         |      22K |    8842K |    9058K |     182M |
    | SimpSwap(mk)       |       88 |      208 |      332 |     191M |
    | SimpSwap           |        8 |      661 |      758 |     192M |
    | SimpSwapSmart(mk)  |      962 |     3131 |     4602 |     192M |
    | SimpSwapSmart      |      119 |     9569 |      11K |     191M |
    | Swap(mk)           |       24 |       24 |       50 |     191M |
    | Swap               |        2 |      124 |      131 |     192M |
    | SwapSmart(mk)      |      824 |     2102 |     3363 |     191M |
    | SwapSmart          |      119 |     9168 |      10K |     191M |
    | Switch(mk)         |     7142 |      13M |      14M |     178M |
    | Switch             |      450 |      12M |      12M |     179M |
    | SwitchSmart(mk)    |      90K |     284K |     403K |     191M |
    | SwitchSmart        |     5907 |    1533K |    1603K |     190M |
    | TaskMove(mk)       |      982 |     2123 |     3563 |     191M |
    | TaskMove           |       75 |     5149 |     5818 |     192M |
    | TaskMoveSmart(mk)  |      12K |      28K |      46K |     191M |
    | TaskMoveSmart      |      949 |      71K |      80K |     191M |
    | 2-Shift(mk)        |     4285 |    1075K |    1080K |     190M |
    | 2-Shift            |      293 |    1057K |    1061K |     191M |
    | 2-ShiftSmart(mk)   |      84K |    1826K |    1931K |     190M |
    | 2-ShiftSmart       |     5658 |    3067K |    3120K |     188M |
    \----------------------------------------------------------------/

Best makespan.....: 173
N. of Iterations..: 4596394839
Total runtime.....: 3600.02s
Using Python-MIP package version 1.6.8
Começo a execução
    /-------------------------------------------------------------------------------\
    |    Makespan   |   Free Jobs   | Free Machines |    It. Time   |   Total Time  | 
    |-------------------------------------------------------------------------------|
    \-------------------------------------------------------------------------------/
Terminou a execução
