Instance....: instances/I_250_20_S_1-124_3.txt
Algorithm...: Simulated Annealing (alpha=0.990, saMax=10M, t0=1)
Other params: maxIters=100M, seed=-1, timeLimit=3600.00s

    /--------------------------------------------------------\
    |     Iter |   RDP(%) |       S* |       S' |       Time | 
    |----------|----------|----------|----------|------------|
    |        0 |        - |     2280 |     2280 |       0.00 | s0
    |        3 |        - |     2217 |     2217 |       0.01 | *
    |        5 |        - |     2198 |     2198 |       0.01 | *
    |        7 |        - |     2128 |     2128 |       0.01 | *
    |        9 |        - |     2082 |     2082 |       0.01 | *
    |       17 |        - |     2030 |     2030 |       0.03 | *
    |       18 |        - |     1996 |     1996 |       0.03 | *
    |       21 |        - |     1979 |     1979 |       0.03 | *
    |       25 |        - |     1968 |     1968 |       0.03 | *
    |       28 |        - |     1886 |     1886 |       0.03 | *
    |       32 |        - |     1828 |     1828 |       0.03 | *
    |       34 |        - |     1765 |     1765 |       0.03 | *
    |       39 |        - |     1742 |     1742 |       0.03 | *
    |       47 |        - |     1671 |     1671 |       0.04 | *
    |       48 |        - |     1656 |     1656 |       0.04 | *
    |       50 |        - |     1635 |     1635 |       0.04 | *
    |       55 |        - |     1590 |     1590 |       0.04 | *
    |       57 |        - |     1551 |     1551 |       0.04 | *
    |       58 |        - |     1536 |     1536 |       0.04 | *
    |       59 |        - |     1492 |     1492 |       0.04 | *
    |       61 |        - |     1450 |     1450 |       0.04 | *
    |       70 |        - |     1441 |     1441 |       0.04 | *
    |       71 |        - |     1430 |     1430 |       0.04 | *
    |       72 |        - |     1415 |     1415 |       0.04 | *
    |       74 |        - |     1397 |     1397 |       0.04 | *
    |       80 |        - |     1383 |     1383 |       0.04 | *
    |       83 |        - |     1372 |     1372 |       0.04 | *
    |       90 |        - |     1355 |     1355 |       0.04 | *
    |       98 |        - |     1305 |     1305 |       0.04 | *
    |      100 |        - |     1272 |     1272 |       0.05 | *
    |      102 |        - |     1270 |     1270 |       0.05 | *
    |      103 |        - |     1269 |     1269 |       0.05 | *
    |      127 |        - |     1257 |     1257 |       0.05 | *
    |      144 |        - |     1242 |     1242 |       0.05 | *
    |      157 |        - |     1241 |     1241 |       0.05 | *
    |      164 |        - |     1240 |     1240 |       0.05 | *
    |      165 |        - |     1237 |     1237 |       0.05 | *
    |      170 |        - |     1227 |     1227 |       0.05 | *
    |      175 |        - |     1222 |     1222 |       0.05 | *
    |      189 |        - |     1207 |     1207 |       0.05 | *
    |      190 |        - |     1202 |     1202 |       0.05 | *
    |      206 |        - |     1198 |     1198 |       0.05 | *
    |      207 |        - |     1186 |     1186 |       0.05 | *
    |      212 |        - |     1184 |     1184 |       0.06 | *
    |      218 |        - |     1177 |     1177 |       0.06 | *
    |      219 |        - |     1159 |     1159 |       0.06 | *
    |      224 |        - |     1152 |     1152 |       0.06 | *
    |      228 |        - |     1148 |     1148 |       0.06 | *
    |      237 |        - |     1145 |     1145 |       0.06 | *
    |      238 |        - |     1138 |     1138 |       0.06 | *
    |      244 |        - |     1134 |     1134 |       0.06 | *
    |      254 |        - |     1133 |     1133 |       0.06 | *
    |      255 |        - |     1121 |     1121 |       0.06 | *
    |      258 |        - |     1112 |     1112 |       0.06 | *
    |      259 |        - |     1107 |     1107 |       0.06 | *
    |      272 |        - |     1099 |     1099 |       0.06 | *
    |      277 |        - |     1097 |     1097 |       0.06 | *
    |      280 |        - |     1086 |     1086 |       0.06 | *
    |      306 |        - |     1075 |     1075 |       0.06 | *
    |      307 |        - |     1071 |     1071 |       0.06 | *
    |      313 |        - |     1066 |     1066 |       0.06 | *
    |      315 |        - |     1062 |     1062 |       0.06 | *
    |      316 |        - |     1061 |     1061 |       0.07 | *
    |      328 |        - |     1051 |     1051 |       0.07 | *
    |      341 |        - |     1048 |     1048 |       0.07 | *
    |      342 |        - |     1046 |     1046 |       0.07 | *
    |      360 |        - |     1033 |     1033 |       0.07 | *
    |      387 |        - |     1024 |     1024 |       0.07 | *
    |      394 |        - |     1022 |     1022 |       0.07 | *
    |      400 |        - |     1021 |     1021 |       0.07 | *
    |      422 |        - |     1020 |     1020 |       0.07 | *
    |      423 |        - |     1018 |     1018 |       0.07 | *
    |      424 |        - |     1017 |     1017 |       0.07 | *
    |      435 |        - |     1013 |     1013 |       0.07 | *
    |      447 |        - |     1012 |     1012 |       0.07 | *
    |      450 |        - |     1010 |     1010 |       0.07 | *
    |      451 |        - |     1008 |     1008 |       0.07 | *
    |      467 |        - |     1005 |     1005 |       0.07 | *
    |      472 |        - |     1004 |     1004 |       0.07 | *
    |      473 |        - |     1002 |     1002 |       0.07 | *
    |      478 |        - |      995 |      995 |       0.07 | *
    |      486 |        - |      993 |      993 |       0.08 | *
    |      487 |        - |      988 |      988 |       0.08 | *
    |      500 |        - |      982 |      982 |       0.08 | *
    |      513 |        - |      980 |      980 |       0.08 | *
    |      522 |        - |      978 |      978 |       0.08 | *
    |      567 |        - |      963 |      963 |       0.08 | *
    |      591 |        - |      959 |      959 |       0.08 | *
    |      632 |        - |      955 |      955 |       0.08 | *
    |      633 |        - |      952 |      952 |       0.08 | *
    |      669 |        - |      948 |      948 |       0.08 | *
    |      727 |        - |      947 |      947 |       0.08 | *
    |      735 |        - |      942 |      942 |       0.08 | *
    |      747 |        - |      937 |      937 |       0.08 | *
    |      749 |        - |      933 |      933 |       0.08 | *
    |      762 |        - |      932 |      932 |       0.09 | *
    |      787 |        - |      931 |      931 |       0.09 | *
    |      789 |        - |      916 |      916 |       0.09 | *
    |      796 |        - |      915 |      915 |       0.09 | *
    |      802 |        - |      912 |      912 |       0.09 | *
    |      804 |        - |      910 |      910 |       0.09 | *
    |      813 |        - |      902 |      902 |       0.09 | *
    |      829 |        - |      900 |      900 |       0.09 | *
    |      844 |        - |      898 |      898 |       0.09 | *
    |      903 |        - |      896 |      896 |       0.09 | *
    |      905 |        - |      894 |      894 |       0.09 | *
    |      931 |        - |      893 |      893 |       0.10 | *
    |      936 |        - |      892 |      892 |       0.10 | *
    |      944 |        - |      890 |      890 |       0.10 | *
    |      970 |        - |      888 |      888 |       0.10 | *
    |      984 |        - |      881 |      881 |       0.10 | *
    |     1015 |        - |      879 |      879 |       0.10 | *
    |     1122 |        - |      876 |      876 |       0.10 | *
    |     1187 |        - |      870 |      870 |       0.10 | *
    |     1191 |        - |      866 |      866 |       0.10 | *
    |     1195 |        - |      860 |      860 |       0.10 | *
    |     1208 |        - |      850 |      850 |       0.10 | *
    |     1213 |        - |      847 |      847 |       0.11 | *
    |     1232 |        - |      843 |      843 |       0.11 | *
    |     1265 |        - |      841 |      841 |       0.11 | *
    |     1288 |        - |      840 |      840 |       0.11 | *
    |     1290 |        - |      838 |      838 |       0.11 | *
    |     1300 |        - |      833 |      833 |       0.11 | *
    |     1335 |        - |      825 |      825 |       0.11 | *
    |     1360 |        - |      822 |      822 |       0.11 | *
    |     1367 |        - |      821 |      821 |       0.11 | *
    |     1404 |        - |      818 |      818 |       0.11 | *
    |     1459 |        - |      817 |      817 |       0.12 | *
    |     1464 |        - |      815 |      815 |       0.12 | *
    |     1475 |        - |      812 |      812 |       0.12 | *
    |     1553 |        - |      811 |      811 |       0.12 | *
    |     1580 |        - |      806 |      806 |       0.12 | *
    |     1583 |        - |      804 |      804 |       0.12 | *
    |     1648 |        - |      799 |      799 |       0.12 | *
    |     1659 |        - |      796 |      796 |       0.12 | *
    |     1675 |        - |      789 |      789 |       0.12 | *
    |     1679 |        - |      787 |      787 |       0.12 | *
    |     1692 |        - |      786 |      786 |       0.12 | *
    |     1708 |        - |      783 |      783 |       0.12 | *
    |     1730 |        - |      781 |      781 |       0.13 | *
    |     1736 |        - |      777 |      777 |       0.13 | *
    |     1760 |        - |      772 |      772 |       0.13 | *
    |     1811 |        - |      771 |      771 |       0.13 | *
    |     1817 |        - |      768 |      768 |       0.13 | *
    |     1839 |        - |      764 |      764 |       0.13 | *
    |     1849 |        - |      762 |      762 |       0.13 | *
    |     1981 |        - |      761 |      761 |       0.13 | *
    |     1992 |        - |      760 |      760 |       0.13 | *
    |     2000 |        - |      759 |      759 |       0.13 | *
    |     2004 |        - |      758 |      758 |       0.13 | *
    |     2005 |        - |      757 |      757 |       0.13 | *
    |     2020 |        - |      756 |      756 |       0.14 | *
    |     2021 |        - |      755 |      755 |       0.14 | *
    |     2069 |        - |      746 |      746 |       0.14 | *
    |     2150 |        - |      745 |      745 |       0.14 | *
    |     2157 |        - |      743 |      743 |       0.14 | *
    |     2169 |        - |      741 |      741 |       0.14 | *
    |     2171 |        - |      740 |      740 |       0.14 | *
    |     2173 |        - |      736 |      736 |       0.14 | *
    |     2192 |        - |      730 |      730 |       0.14 | *
    |     2196 |        - |      726 |      726 |       0.14 | *
    |     2248 |        - |      724 |      724 |       0.14 | *
    |     2249 |        - |      723 |      723 |       0.14 | *
    |     2265 |        - |      720 |      720 |       0.14 | *
    |     2271 |        - |      718 |      718 |       0.14 | *
    |     2400 |        - |      714 |      714 |       0.15 | *
    |     2402 |        - |      713 |      713 |       0.15 | *
    |     2413 |        - |      711 |      711 |       0.15 | *
    |     2470 |        - |      710 |      710 |       0.15 | *
    |     2472 |        - |      709 |      709 |       0.15 | *
    |     2478 |        - |      705 |      705 |       0.15 | *
    |     2494 |        - |      703 |      703 |       0.15 | *
    |     2537 |        - |      701 |      701 |       0.15 | *
    |     2562 |        - |      699 |      699 |       0.15 | *
    |     2565 |        - |      698 |      698 |       0.15 | *
    |     2567 |        - |      697 |      697 |       0.15 | *
    |     2596 |        - |      695 |      695 |       0.15 | *
    |     2603 |        - |      692 |      692 |       0.15 | *
    |     2633 |        - |      691 |      691 |       0.15 | *
    |     2667 |        - |      690 |      690 |       0.15 | *
    |     2679 |        - |      689 |      689 |       0.16 | *
    |     2809 |        - |      687 |      687 |       0.16 | *
    |     2847 |        - |      685 |      685 |       0.16 | *
    |     2853 |        - |      684 |      684 |       0.16 | *
    |     2870 |        - |      682 |      682 |       0.16 | *
    |     2877 |        - |      680 |      680 |       0.16 | *
    |     2880 |        - |      678 |      678 |       0.16 | *
    |     2882 |        - |      677 |      677 |       0.16 | *
    |     2885 |        - |      675 |      675 |       0.16 | *
    |     2891 |        - |      672 |      672 |       0.16 | *
    |     2938 |        - |      668 |      668 |       0.16 | *
    |     2956 |        - |      666 |      666 |       0.16 | *
    |     3005 |        - |      665 |      665 |       0.16 | *
    |     3040 |        - |      664 |      664 |       0.16 | *
    |     3099 |        - |      663 |      663 |       0.17 | *
    |     3117 |        - |      662 |      662 |       0.17 | *
    |     3132 |        - |      658 |      658 |       0.17 | *
    |     3140 |        - |      654 |      654 |       0.17 | *
    |     3224 |        - |      651 |      651 |       0.17 | *
    |     3239 |        - |      649 |      649 |       0.17 | *
    |     3331 |        - |      644 |      644 |       0.17 | *
    |     3497 |        - |      643 |      643 |       0.17 | *
    |     3499 |        - |      642 |      642 |       0.17 | *
    |     3555 |        - |      641 |      641 |       0.17 | *
    |     3559 |        - |      639 |      639 |       0.17 | *
    |     3627 |        - |      637 |      637 |       0.17 | *
    |     3723 |        - |      636 |      636 |       0.18 | *
    |     3744 |        - |      633 |      633 |       0.18 | *
    |     3749 |        - |      632 |      632 |       0.18 | *
    |     3757 |        - |      631 |      631 |       0.18 | *
    |     3843 |        - |      627 |      627 |       0.18 | *
    |     3871 |        - |      625 |      625 |       0.18 | *
    |     3874 |        - |      623 |      623 |       0.18 | *
    |     3891 |        - |      622 |      622 |       0.18 | *
    |     3912 |        - |      621 |      621 |       0.18 | *
    |     3922 |        - |      619 |      619 |       0.18 | *
    |     3936 |        - |      615 |      615 |       0.18 | *
    |     4084 |        - |      614 |      614 |       0.18 | *
    |     4086 |        - |      610 |      610 |       0.19 | *
    |     4106 |        - |      609 |      609 |       0.19 | *
    |     4300 |        - |      604 |      604 |       0.19 | *
    |     4576 |        - |      602 |      602 |       0.19 | *
    |     4717 |        - |      599 |      599 |       0.19 | *
    |     4755 |        - |      598 |      598 |       0.19 | *
    |     4843 |        - |      596 |      596 |       0.19 | *
    |     4853 |        - |      595 |      595 |       0.19 | *
    |     4869 |        - |      593 |      593 |       0.19 | *
    |     4981 |        - |      592 |      592 |       0.20 | *
    |     4994 |        - |      591 |      591 |       0.20 | *
    |     5167 |        - |      590 |      590 |       0.20 | *
    |     5224 |        - |      588 |      588 |       0.20 | *
    |     5250 |        - |      586 |      586 |       0.20 | *
    |     5322 |        - |      585 |      585 |       0.20 | *
    |     5375 |        - |      584 |      584 |       0.20 | *
    |     5377 |        - |      582 |      582 |       0.20 | *
    |     5419 |        - |      574 |      574 |       0.20 | *
    |     5430 |        - |      572 |      572 |       0.20 | *
    |     5445 |        - |      570 |      570 |       0.20 | *
    |     5538 |        - |      569 |      569 |       0.21 | *
    |     5558 |        - |      568 |      568 |       0.21 | *
    |     5604 |        - |      566 |      566 |       0.21 | *
    |     5721 |        - |      565 |      565 |       0.21 | *
    |     5781 |        - |      564 |      564 |       0.21 | *
    |     5825 |        - |      563 |      563 |       0.21 | *
    |     5854 |        - |      562 |      562 |       0.21 | *
    |     5870 |        - |      560 |      560 |       0.21 | *
    |     6145 |        - |      558 |      558 |       0.21 | *
    |     6178 |        - |      556 |      556 |       0.21 | *
    |     6298 |        - |      555 |      555 |       0.22 | *
    |     6337 |        - |      554 |      554 |       0.22 | *
    |     6396 |        - |      553 |      553 |       0.22 | *
    |     7008 |        - |      552 |      552 |       0.22 | *
    |     7117 |        - |      551 |      551 |       0.22 | *
    |     7158 |        - |      550 |      550 |       0.22 | *
    |     7169 |        - |      548 |      548 |       0.22 | *
    |     7211 |        - |      547 |      547 |       0.22 | *
    |     7237 |        - |      545 |      545 |       0.23 | *
    |     7242 |        - |      544 |      544 |       0.23 | *
    |     7335 |        - |      542 |      542 |       0.23 | *
    |     7336 |        - |      541 |      541 |       0.23 | *
    |     7339 |        - |      540 |      540 |       0.23 | *
    |     7831 |        - |      537 |      537 |       0.23 | *
    |     7855 |        - |      535 |      535 |       0.23 | *
    |     8008 |        - |      533 |      533 |       0.23 | *
    |     8016 |        - |      532 |      532 |       0.23 | *
    |     8056 |        - |      531 |      531 |       0.24 | *
    |     8158 |        - |      530 |      530 |       0.24 | *
    |     8166 |        - |      529 |      529 |       0.24 | *
    |     8173 |        - |      527 |      527 |       0.24 | *
    |     8197 |        - |      522 |      522 |       0.24 | *
    |     8234 |        - |      520 |      520 |       0.24 | *
    |     8299 |        - |      519 |      519 |       0.24 | *
    |     8399 |        - |      518 |      518 |       0.24 | *
    |     8910 |        - |      517 |      517 |       0.24 | *
    |     8984 |        - |      516 |      516 |       0.24 | *
    |     9200 |        - |      515 |      515 |       0.25 | *
    |     9320 |        - |      514 |      514 |       0.25 | *
    |     9384 |        - |      513 |      513 |       0.25 | *
    |     9615 |        - |      512 |      512 |       0.25 | *
    |     9639 |        - |      511 |      511 |       0.25 | *
    |     9910 |        - |      510 |      510 |       0.25 | *
    |      11K |        - |      507 |      507 |       0.26 | *
    |      11K |        - |      504 |      504 |       0.26 | *
    |      12K |        - |      503 |      503 |       0.26 | *
    |      12K |        - |      502 |      502 |       0.26 | *
    |      12K |        - |      501 |      501 |       0.26 | *
    |      12K |        - |      500 |      500 |       0.26 | *
    |      12K |        - |      499 |      499 |       0.26 | *
    |      12K |        - |      497 |      497 |       0.27 | *
    |      13K |        - |      496 |      496 |       0.27 | *
    |      13K |        - |      495 |      495 |       0.27 | *
    |      13K |        - |      494 |      494 |       0.27 | *
    |      13K |        - |      493 |      493 |       0.27 | *
    |      13K |        - |      491 |      491 |       0.27 | *
    |      13K |        - |      489 |      489 |       0.27 | *
    |      13K |        - |      488 |      488 |       0.27 | *
    |      13K |        - |      486 |      486 |       0.27 | *
    |      13K |        - |      485 |      485 |       0.27 | *
    |      13K |        - |      482 |      482 |       0.27 | *
    |      14K |        - |      481 |      481 |       0.28 | *
    |      14K |        - |      479 |      479 |       0.28 | *
    |      14K |        - |      478 |      478 |       0.28 | *
    |      14K |        - |      477 |      477 |       0.28 | *
    |      14K |        - |      475 |      475 |       0.28 | *
    |      15K |        - |      472 |      472 |       0.28 | *
    |      15K |        - |      471 |      471 |       0.28 | *
    |      15K |        - |      470 |      470 |       0.28 | *
    |      15K |        - |      469 |      469 |       0.28 | *
    |      15K |        - |      468 |      468 |       0.28 | *
    |      15K |        - |      463 |      463 |       0.28 | *
    |      16K |        - |      462 |      462 |       0.29 | *
    |      16K |        - |      461 |      461 |       0.29 | *
    |      16K |        - |      458 |      458 |       0.29 | *
    |      17K |        - |      457 |      457 |       0.29 | *
    |      17K |        - |      456 |      456 |       0.29 | *
    |      17K |        - |      455 |      455 |       0.29 | *
    |      17K |        - |      454 |      454 |       0.29 | *
    |      17K |        - |      453 |      453 |       0.29 | *
    |      17K |        - |      452 |      452 |       0.30 | *
    |      17K |        - |      451 |      451 |       0.30 | *
    |      17K |        - |      450 |      450 |       0.30 | *
    |      17K |        - |      448 |      448 |       0.30 | *
    |      18K |        - |      446 |      446 |       0.30 | *
    |      18K |        - |      444 |      444 |       0.30 | *
    |      18K |        - |      443 |      443 |       0.30 | *
    |      18K |        - |      442 |      442 |       0.30 | *
    |      18K |        - |      441 |      441 |       0.30 | *
    |      18K |        - |      440 |      440 |       0.30 | *
    |      18K |        - |      439 |      439 |       0.31 | *
    |      19K |        - |      438 |      438 |       0.31 | *
    |      19K |        - |      437 |      437 |       0.31 | *
    |      20K |        - |      436 |      436 |       0.31 | *
    |      20K |        - |      435 |      435 |       0.31 | *
    |      20K |        - |      433 |      433 |       0.31 | *
    |      20K |        - |      432 |      432 |       0.32 | *
    |      20K |        - |      431 |      431 |       0.32 | *
    |      20K |        - |      430 |      430 |       0.32 | *
    |      20K |        - |      429 |      429 |       0.32 | *
    |      20K |        - |      428 |      428 |       0.32 | *
    |      21K |        - |      427 |      427 |       0.32 | *
    |      21K |        - |      426 |      426 |       0.32 | *
    |      21K |        - |      425 |      425 |       0.32 | *
    |      21K |        - |      424 |      424 |       0.33 | *
    |      22K |        - |      423 |      423 |       0.33 | *
    |      22K |        - |      422 |      422 |       0.33 | *
    |      22K |        - |      421 |      421 |       0.33 | *
    |      22K |        - |      420 |      420 |       0.33 | *
    |      23K |        - |      419 |      419 |       0.33 | *
    |      23K |        - |      417 |      417 |       0.33 | *
    |      23K |        - |      414 |      414 |       0.34 | *
    |      23K |        - |      411 |      411 |       0.34 | *
    |      23K |        - |      410 |      410 |       0.34 | *
    |      23K |        - |      409 |      409 |       0.34 | *
    |      23K |        - |      408 |      408 |       0.34 | *
    |      26K |        - |      407 |      407 |       0.35 | *
    |      27K |        - |      406 |      406 |       0.35 | *
    |      27K |        - |      405 |      405 |       0.35 | *
    |      27K |        - |      404 |      404 |       0.35 | *
    |      27K |        - |      402 |      402 |       0.35 | *
    |      27K |        - |      401 |      401 |       0.35 | *
    |      27K |        - |      400 |      400 |       0.35 | *
    |      27K |        - |      399 |      399 |       0.35 | *
    |      29K |        - |      398 |      398 |       0.36 | *
    |      29K |        - |      397 |      397 |       0.36 | *
    |      29K |        - |      394 |      394 |       0.36 | *
    |      29K |        - |      392 |      392 |       0.36 | *
    |      29K |        - |      391 |      391 |       0.36 | *
    |      30K |        - |      389 |      389 |       0.36 | *
    |      30K |        - |      388 |      388 |       0.36 | *
    |      30K |        - |      385 |      385 |       0.36 | *
    |      30K |        - |      384 |      384 |       0.36 | *
    |      30K |        - |      383 |      383 |       0.36 | *
    |      32K |        - |      381 |      381 |       0.37 | *
    |      33K |        - |      380 |      380 |       0.37 | *
    |      33K |        - |      379 |      379 |       0.37 | *
    |      34K |        - |      378 |      378 |       0.37 | *
    |      34K |        - |      377 |      377 |       0.37 | *
    |      34K |        - |      375 |      375 |       0.37 | *
    |      34K |        - |      374 |      374 |       0.37 | *
    |      35K |        - |      373 |      373 |       0.37 | *
    |      40K |        - |      371 |      371 |       0.38 | *
    |      40K |        - |      370 |      370 |       0.38 | *
    |      42K |        - |      369 |      369 |       0.39 | *
    |      43K |        - |      368 |      368 |       0.39 | *
    |      45K |        - |      367 |      367 |       0.39 | *
    |      45K |        - |      366 |      366 |       0.40 | *
    |      47K |        - |      365 |      365 |       0.40 | *
    |      47K |        - |      363 |      363 |       0.40 | *
    |      48K |        - |      362 |      362 |       0.40 | *
    |      48K |        - |      361 |      361 |       0.40 | *
    |      48K |        - |      360 |      360 |       0.40 | *
    |      48K |        - |      358 |      358 |       0.41 | *
    |      48K |        - |      357 |      357 |       0.41 | *
    |      49K |        - |      355 |      355 |       0.41 | *
    |      49K |        - |      354 |      354 |       0.41 | *
    |      52K |        - |      353 |      353 |       0.42 | *
    |      54K |        - |      351 |      351 |       0.42 | *
    |      54K |        - |      350 |      350 |       0.42 | *
    |      55K |        - |      349 |      349 |       0.42 | *
    |      56K |        - |      348 |      348 |       0.43 | *
    |      56K |        - |      346 |      346 |       0.43 | *
    |      57K |        - |      345 |      345 |       0.43 | *
    |      57K |        - |      344 |      344 |       0.43 | *
    |      60K |        - |      343 |      343 |       0.44 | *
    |      60K |        - |      341 |      341 |       0.44 | *
    |      61K |        - |      340 |      340 |       0.44 | *
    |      61K |        - |      339 |      339 |       0.45 | *
    |      63K |        - |      338 |      338 |       0.45 | *
    |      64K |        - |      337 |      337 |       0.45 | *
    |      65K |        - |      336 |      336 |       0.46 | *
    |      66K |        - |      335 |      335 |       0.46 | *
    |      67K |        - |      334 |      334 |       0.47 | *
    |      67K |        - |      333 |      333 |       0.47 | *
    |      73K |        - |      332 |      332 |       0.49 | *
    |      74K |        - |      331 |      331 |       0.50 | *
    |      75K |        - |      329 |      329 |       0.50 | *
    |      76K |        - |      328 |      328 |       0.50 | *
    |      80K |        - |      327 |      327 |       0.52 | *
    |      80K |        - |      326 |      326 |       0.52 | *
    |      82K |        - |      325 |      325 |       0.53 | *
    |      82K |        - |      324 |      324 |       0.53 | *
    |      85K |        - |      323 |      323 |       0.55 | *
    |      91K |        - |      322 |      322 |       0.57 | *
    |      91K |        - |      321 |      321 |       0.57 | *
    |      91K |        - |      320 |      320 |       0.57 | *
    |      92K |        - |      319 |      319 |       0.58 | *
    |      92K |        - |      318 |      318 |       0.58 | *
    |      92K |        - |      317 |      317 |       0.58 | *
    |      97K |        - |      316 |      316 |       0.59 | *
    |      98K |        - |      312 |      312 |       0.60 | *
    |     102K |        - |      311 |      311 |       0.61 | *
    |     103K |        - |      310 |      310 |       0.61 | *
    |     103K |        - |      309 |      309 |       0.61 | *
    |     106K |        - |      308 |      308 |       0.62 | *
    |     106K |        - |      307 |      307 |       0.63 | *
    |     109K |        - |      306 |      306 |       0.64 | *
    |     109K |        - |      305 |      305 |       0.64 | *
    |     132K |        - |      303 |      303 |       0.74 | *
    |     147K |        - |      300 |      300 |       0.81 | *
    |     160K |        - |      299 |      299 |       0.87 | *
    |     160K |        - |      298 |      298 |       0.87 | *
    |     166K |        - |      297 |      297 |       0.89 | *
    |     166K |        - |      296 |      296 |       0.89 | *
    |     166K |        - |      294 |      294 |       0.89 | *
    |     220K |        - |      293 |      293 |       1.09 | *
    |     227K |        - |      292 |      292 |       1.11 | *
    |     229K |        - |      291 |      291 |       1.11 | *
    |     240K |        - |      290 |      290 |       1.15 | *
    |     243K |        - |      289 |      289 |       1.15 | *
    |     244K |        - |      288 |      288 |       1.15 | *
    |     248K |        - |      287 |      287 |       1.16 | *
    |     254K |        - |      286 |      286 |       1.18 | *
    |     257K |        - |      285 |      285 |       1.19 | *
    |     264K |        - |      283 |      283 |       1.20 | *
    |     274K |        - |      282 |      282 |       1.22 | *
    |     274K |        - |      281 |      281 |       1.22 | *
    |     276K |        - |      280 |      280 |       1.23 | *
    |     278K |        - |      279 |      279 |       1.23 | *
    |     278K |        - |      278 |      278 |       1.23 | *
    |     299K |        - |      277 |      277 |       1.28 | *
    |     310K |        - |      276 |      276 |       1.30 | *
    |     317K |        - |      275 |      275 |       1.32 | *
    |     324K |        - |      274 |      274 |       1.33 | *
    |     326K |        - |      273 |      273 |       1.34 | *
    |     326K |        - |      272 |      272 |       1.34 | *
    |     326K |        - |      271 |      271 |       1.34 | *
    |     332K |        - |      270 |      270 |       1.35 | *
    |     333K |        - |      269 |      269 |       1.35 | *
    |     334K |        - |      268 |      268 |       1.36 | *
    |     367K |        - |      267 |      267 |       1.42 | *
    |     379K |        - |      266 |      266 |       1.44 | *
    |     380K |        - |      265 |      265 |       1.44 | *
    |     394K |        - |      264 |      264 |       1.47 | *
    |     398K |        - |      263 |      263 |       1.47 | *
    |     409K |        - |      262 |      262 |       1.49 | *
    |     411K |        - |      261 |      261 |       1.50 | *
    |     419K |        - |      260 |      260 |       1.51 | *
    |     419K |        - |      259 |      259 |       1.51 | *
    |     421K |        - |      258 |      258 |       1.51 | *
    |     449K |        - |      257 |      257 |       1.56 | *
    |     458K |        - |      256 |      256 |       1.58 | *
    |     462K |        - |      255 |      255 |       1.58 | *
    |     483K |        - |      254 |      254 |       1.62 | *
    |     486K |        - |      253 |      253 |       1.63 | *
    |     486K |        - |      252 |      252 |       1.63 | *
    |     498K |        - |      251 |      251 |       1.65 | *
    |     506K |        - |      250 |      250 |       1.67 | *
    |     520K |        - |      249 |      249 |       1.70 | *
    |     541K |        - |      248 |      248 |       1.74 | *
    |     541K |        - |      247 |      247 |       1.75 | *
    |     574K |        - |      246 |      246 |       1.81 | *
    |     598K |        - |      245 |      245 |       1.86 | *
    |     606K |        - |      244 |      244 |       1.87 | *
    |     609K |        - |      243 |      243 |       1.88 | *
    |     614K |        - |      241 |      241 |       1.88 | *
    |     626K |        - |      240 |      240 |       1.90 | *
    |     699K |        - |      239 |      239 |       1.99 | *
    |     731K |        - |      238 |      238 |       2.03 | *
    |     734K |        - |      237 |      237 |       2.03 | *
    |     785K |        - |      236 |      236 |       2.09 | *
    |     853K |        - |      235 |      235 |       2.17 | *
    |     857K |        - |      234 |      234 |       2.18 | *
    |     879K |        - |      233 |      233 |       2.20 | *
    |     913K |        - |      232 |      232 |       2.22 | *
    |     947K |        - |      231 |      231 |       2.25 | *
    |     952K |        - |      230 |      230 |       2.25 | *
    |     981K |        - |      229 |      229 |       2.28 | *
    |     995K |        - |      228 |      228 |       2.29 | *
    |     997K |        - |      226 |      226 |       2.29 | *
    |    1016K |        - |      225 |      225 |       2.31 | *
    |    1027K |        - |      224 |      224 |       2.32 | *
    |    1031K |        - |      223 |      223 |       2.32 | *
    |    1125K |        - |      221 |      221 |       2.40 | *
    |    1272K |        - |      220 |      220 |       2.51 | *
    |    1289K |        - |      219 |      219 |       2.53 | *
    |    1297K |        - |      217 |      217 |       2.53 | *
    |    1498K |        - |      216 |      216 |       2.70 | *
    |    1832K |        - |      215 |      215 |       2.97 | *
    |    1893K |        - |      214 |      214 |       3.02 | *
    |    1898K |        - |      213 |      213 |       3.02 | *
    |    1899K |        - |      212 |      212 |       3.02 | *
    |    2793K |        - |      211 |      211 |       4.16 | *
    |    2993K |        - |      210 |      210 |       4.47 | *
    |    3395K |        - |      209 |      209 |       4.89 | *
    |    3505K |        - |      208 |      208 |       5.00 | *
    |    3687K |        - |      207 |      207 |       5.20 | *
    |    3787K |        - |      206 |      206 |       5.29 | *
    |    3792K |        - |      205 |      205 |       5.29 | *
    |    3798K |        - |      204 |      204 |       5.29 | *
    |    3798K |        - |      203 |      203 |       5.29 | *
    |    4336K |        - |      202 |      202 |       5.72 | *
    |    4388K |        - |      201 |      201 |       5.76 | *
    |    4826K |        - |      200 |      200 |       6.11 | *
    |    5063K |        - |      199 |      199 |       6.30 | *
    |    5188K |        - |      198 |      198 |       6.40 | *
    |    5197K |        - |      197 |      197 |       6.41 | *
    |    6066K |        - |      196 |      196 |       7.09 | *
    |    6083K |        - |      195 |      195 |       7.11 | *
    |    6181K |        - |      194 |      194 |       7.18 | *
    |    6883K |        - |      193 |      193 |       7.80 | *
    |    7934K |        - |      192 |      192 |       9.06 | *
    |    9208K |        - |      191 |      191 |      10.21 | *
    |    9304K |        - |      190 |      190 |      10.29 | *
    |      10M |        - |      189 |      189 |      11.00 | *
    |      10M |        - |      188 |      188 |      11.17 | *
    |      10M |        - |      186 |      186 |      11.24 | *
    |      17M |        - |      185 |      185 |      17.43 | *
    |      17M |        - |      184 |      184 |      17.46 | *
    |      18M |        - |      183 |      183 |      18.05 | *
    |      19M |        - |      182 |      182 |      19.07 | *
    |      20M |        - |      181 |      181 |      20.00 | *
    |      20M |        - |      180 |      180 |      20.01 | *
    |      21M |        - |      179 |      179 |      21.37 | *
    |      21M |        - |      178 |      178 |      21.40 | *
    |      22M |        - |      177 |      177 |      22.37 | *
    |      22M |        - |      176 |      176 |      22.37 | *
    |      22M |        - |      175 |      175 |      22.45 | *
    |      22M |        - |      174 |      174 |      22.46 | *
    |     122M |        - |      173 |      173 |     103.23 | *
    |     122M |        - |      172 |      172 |     103.23 | *
    |     134M |        - |      171 |      171 |     112.43 | *
    |     141M |        - |      170 |      170 |     118.18 | *
    |     142M |        - |      169 |      169 |     118.47 | *
    |     156M |        - |      168 |      168 |     129.98 | *
    |     264M |        - |      167 |      167 |     213.99 | *
    |     577M |        - |      166 |      166 |     457.91 | *
    |     582M |        - |      165 |      165 |     462.12 | *
    |     824M |        - |      164 |      164 |     649.15 | *
    |     825M |        - |      163 |      163 |     649.85 | *
    |    1265M |        - |      162 |      162 |     991.68 | *
    |    1269M |        - |      161 |      161 |     994.29 | *
    |    1342M |        - |      160 |      160 |    1051.38 | *
    \--------------------------------------------------------/

Neighborhoods statistics (values in %):

    /----------------------------------------------------------------\
    | Move               | Improvs. | Sideways |  Accepts |  Rejects |
    |--------------------|----------|----------|----------|----------|
    | Shift(mk)          |     5926 |      12K |      20K |     199M |
    | Shift              |      319 |     358K |     364K |     199M |
    | ShiftSmart(mk)     |      63K |     127K |     206K |     199M |
    | ShiftSmart         |     3207 |    3307K |    3360K |     196M |
    | SimpSwap(mk)       |       38 |       47 |       95 |     199M |
    | SimpSwap           |        1 |      324 |      346 |     199M |
    | SimpSwapSmart(mk)  |      316 |      514 |      972 |     199M |
    | SimpSwapSmart      |       34 |     3453 |     3733 |     199M |
    | Swap(mk)           |       11 |        7 |       20 |     199M |
    | Swap               |        1 |       45 |       48 |     199M |
    | SwapSmart(mk)      |      344 |      697 |     1164 |     199M |
    | SwapSmart          |       41 |     3578 |     3850 |     199M |
    | Switch(mk)         |     1094 |      19M |      19M |     180M |
    | Switch             |       50 |      16M |      16M |     183M |
    | SwitchSmart(mk)    |      11K |      21K |      34K |     199M |
    | SwitchSmart        |      561 |     686K |     696K |     198M |
    | TaskMove(mk)       |      383 |      853 |     1357 |     199M |
    | TaskMove           |       25 |     4555 |     4802 |     199M |
    | TaskMoveSmart(mk)  |     4056 |     9316 |      15K |     199M |
    | TaskMoveSmart      |      249 |      50K |      52K |     199M |
    | 2-Shift(mk)        |     1271 |    2015K |    2017K |     197M |
    | 2-Shift            |       79 |    1605K |    1606K |     197M |
    | 2-ShiftSmart(mk)   |      12K |    3958K |    3973K |     195M |
    | 2-ShiftSmart       |      634 |    3120K |    3128K |     196M |
    \----------------------------------------------------------------/

Best makespan.....: 160
N. of Iterations..: 4775686367
Total runtime.....: 3600.01s
Using Python-MIP package version 1.6.8
Começo a execução
    /-------------------------------------------------------------------------------\
    |    Makespan   |   Free Jobs   | Free Machines |    It. Time   |   Total Time  | 
    |-------------------------------------------------------------------------------|
    \-------------------------------------------------------------------------------/
Terminou a execução
