Instance....: instances/I_250_10_S_1-49_8.txt
Algorithm...: Simulated Annealing (alpha=0.990, saMax=10M, t0=1)
Other params: maxIters=100M, seed=-1, timeLimit=3600.00s

    /--------------------------------------------------------\
    |     Iter |   RDP(%) |       S* |       S' |       Time | 
    |----------|----------|----------|----------|------------|
    |        0 |        - |     2334 |     2334 |       0.00 | s0
    |        3 |        - |     2267 |     2267 |       0.01 | *
    |        6 |        - |     2246 |     2246 |       0.02 | *
    |       10 |        - |     2232 |     2232 |       0.02 | *
    |       15 |        - |     2122 |     2122 |       0.02 | *
    |       16 |        - |     2115 |     2115 |       0.03 | *
    |       19 |        - |     2102 |     2102 |       0.03 | *
    |       28 |        - |     2097 |     2097 |       0.03 | *
    |       29 |        - |     2090 |     2090 |       0.03 | *
    |       32 |        - |     2058 |     2058 |       0.03 | *
    |       33 |        - |     2050 |     2050 |       0.03 | *
    |       36 |        - |     2039 |     2039 |       0.03 | *
    |       43 |        - |     2029 |     2029 |       0.04 | *
    |       45 |        - |     2011 |     2011 |       0.04 | *
    |       49 |        - |     2001 |     2001 |       0.04 | *
    |       53 |        - |     1970 |     1970 |       0.04 | *
    |       54 |        - |     1967 |     1967 |       0.04 | *
    |       55 |        - |     1958 |     1958 |       0.04 | *
    |       56 |        - |     1939 |     1939 |       0.04 | *
    |       58 |        - |     1924 |     1924 |       0.04 | *
    |       59 |        - |     1901 |     1901 |       0.04 | *
    |       60 |        - |     1898 |     1898 |       0.04 | *
    |       66 |        - |     1888 |     1888 |       0.04 | *
    |       70 |        - |     1885 |     1885 |       0.04 | *
    |       76 |        - |     1876 |     1876 |       0.04 | *
    |       82 |        - |     1875 |     1875 |       0.05 | *
    |       95 |        - |     1868 |     1868 |       0.05 | *
    |      103 |        - |     1844 |     1844 |       0.05 | *
    |      104 |        - |     1836 |     1836 |       0.05 | *
    |      105 |        - |     1814 |     1814 |       0.05 | *
    |      110 |        - |     1812 |     1812 |       0.05 | *
    |      111 |        - |     1806 |     1806 |       0.05 | *
    |      120 |        - |     1784 |     1784 |       0.05 | *
    |      124 |        - |     1771 |     1771 |       0.05 | *
    |      133 |        - |     1768 |     1768 |       0.05 | *
    |      140 |        - |     1751 |     1751 |       0.05 | *
    |      143 |        - |     1747 |     1747 |       0.05 | *
    |      154 |        - |     1719 |     1719 |       0.05 | *
    |      158 |        - |     1703 |     1703 |       0.05 | *
    |      161 |        - |     1697 |     1697 |       0.06 | *
    |      162 |        - |     1688 |     1688 |       0.06 | *
    |      171 |        - |     1685 |     1685 |       0.06 | *
    |      174 |        - |     1679 |     1679 |       0.06 | *
    |      175 |        - |     1670 |     1670 |       0.06 | *
    |      181 |        - |     1666 |     1666 |       0.06 | *
    |      182 |        - |     1662 |     1662 |       0.06 | *
    |      186 |        - |     1656 |     1656 |       0.06 | *
    |      191 |        - |     1655 |     1655 |       0.06 | *
    |      207 |        - |     1641 |     1641 |       0.06 | *
    |      214 |        - |     1635 |     1635 |       0.06 | *
    |      228 |        - |     1631 |     1631 |       0.06 | *
    |      229 |        - |     1618 |     1618 |       0.06 | *
    |      230 |        - |     1606 |     1606 |       0.06 | *
    |      231 |        - |     1604 |     1604 |       0.07 | *
    |      237 |        - |     1595 |     1595 |       0.07 | *
    |      239 |        - |     1593 |     1593 |       0.07 | *
    |      249 |        - |     1578 |     1578 |       0.07 | *
    |      253 |        - |     1573 |     1573 |       0.07 | *
    |      259 |        - |     1558 |     1558 |       0.07 | *
    |      265 |        - |     1549 |     1549 |       0.07 | *
    |      273 |        - |     1546 |     1546 |       0.07 | *
    |      278 |        - |     1530 |     1530 |       0.07 | *
    |      294 |        - |     1528 |     1528 |       0.07 | *
    |      296 |        - |     1520 |     1520 |       0.07 | *
    |      300 |        - |     1519 |     1519 |       0.07 | *
    |      301 |        - |     1518 |     1518 |       0.08 | *
    |      308 |        - |     1517 |     1517 |       0.08 | *
    |      310 |        - |     1510 |     1510 |       0.08 | *
    |      311 |        - |     1507 |     1507 |       0.08 | *
    |      318 |        - |     1506 |     1506 |       0.08 | *
    |      319 |        - |     1486 |     1486 |       0.08 | *
    |      320 |        - |     1481 |     1481 |       0.08 | *
    |      325 |        - |     1477 |     1477 |       0.08 | *
    |      327 |        - |     1474 |     1474 |       0.08 | *
    |      329 |        - |     1465 |     1465 |       0.08 | *
    |      340 |        - |     1458 |     1458 |       0.08 | *
    |      354 |        - |     1451 |     1451 |       0.08 | *
    |      357 |        - |     1449 |     1449 |       0.08 | *
    |      362 |        - |     1443 |     1443 |       0.08 | *
    |      365 |        - |     1429 |     1429 |       0.08 | *
    |      366 |        - |     1424 |     1424 |       0.08 | *
    |      367 |        - |     1419 |     1419 |       0.08 | *
    |      389 |        - |     1404 |     1404 |       0.08 | *
    |      393 |        - |     1398 |     1398 |       0.08 | *
    |      401 |        - |     1393 |     1393 |       0.09 | *
    |      407 |        - |     1391 |     1391 |       0.09 | *
    |      412 |        - |     1388 |     1388 |       0.09 | *
    |      432 |        - |     1384 |     1384 |       0.09 | *
    |      456 |        - |     1383 |     1383 |       0.09 | *
    |      457 |        - |     1380 |     1380 |       0.09 | *
    |      488 |        - |     1379 |     1379 |       0.09 | *
    |      492 |        - |     1375 |     1375 |       0.09 | *
    |      494 |        - |     1374 |     1374 |       0.09 | *
    |      509 |        - |     1369 |     1369 |       0.09 | *
    |      511 |        - |     1366 |     1366 |       0.09 | *
    |      518 |        - |     1362 |     1362 |       0.10 | *
    |      519 |        - |     1359 |     1359 |       0.10 | *
    |      521 |        - |     1358 |     1358 |       0.10 | *
    |      532 |        - |     1356 |     1356 |       0.10 | *
    |      533 |        - |     1354 |     1354 |       0.10 | *
    |      534 |        - |     1351 |     1351 |       0.10 | *
    |      535 |        - |     1345 |     1345 |       0.10 | *
    |      538 |        - |     1337 |     1337 |       0.10 | *
    |      539 |        - |     1336 |     1336 |       0.10 | *
    |      570 |        - |     1327 |     1327 |       0.10 | *
    |      572 |        - |     1326 |     1326 |       0.10 | *
    |      590 |        - |     1321 |     1321 |       0.10 | *
    |      592 |        - |     1315 |     1315 |       0.10 | *
    |      600 |        - |     1311 |     1311 |       0.10 | *
    |      603 |        - |     1310 |     1310 |       0.11 | *
    |      604 |        - |     1305 |     1305 |       0.11 | *
    |      617 |        - |     1303 |     1303 |       0.11 | *
    |      620 |        - |     1298 |     1298 |       0.11 | *
    |      621 |        - |     1297 |     1297 |       0.11 | *
    |      626 |        - |     1294 |     1294 |       0.11 | *
    |      629 |        - |     1293 |     1293 |       0.11 | *
    |      633 |        - |     1288 |     1288 |       0.11 | *
    |      635 |        - |     1280 |     1280 |       0.11 | *
    |      641 |        - |     1278 |     1278 |       0.11 | *
    |      644 |        - |     1277 |     1277 |       0.11 | *
    |      678 |        - |     1275 |     1275 |       0.12 | *
    |      681 |        - |     1274 |     1274 |       0.12 | *
    |      690 |        - |     1269 |     1269 |       0.12 | *
    |      691 |        - |     1265 |     1265 |       0.12 | *
    |      696 |        - |     1259 |     1259 |       0.12 | *
    |      701 |        - |     1253 |     1253 |       0.12 | *
    |      732 |        - |     1250 |     1250 |       0.12 | *
    |      739 |        - |     1249 |     1249 |       0.12 | *
    |      747 |        - |     1248 |     1248 |       0.12 | *
    |      776 |        - |     1246 |     1246 |       0.12 | *
    |      781 |        - |     1244 |     1244 |       0.12 | *
    |      785 |        - |     1241 |     1241 |       0.12 | *
    |      794 |        - |     1239 |     1239 |       0.13 | *
    |      798 |        - |     1237 |     1237 |       0.13 | *
    |      799 |        - |     1234 |     1234 |       0.13 | *
    |      804 |        - |     1233 |     1233 |       0.13 | *
    |      806 |        - |     1228 |     1228 |       0.13 | *
    |      813 |        - |     1226 |     1226 |       0.13 | *
    |      816 |        - |     1225 |     1225 |       0.13 | *
    |      838 |        - |     1222 |     1222 |       0.13 | *
    |      844 |        - |     1220 |     1220 |       0.13 | *
    |      849 |        - |     1214 |     1214 |       0.14 | *
    |      854 |        - |     1213 |     1213 |       0.14 | *
    |      857 |        - |     1204 |     1204 |       0.14 | *
    |      878 |        - |     1195 |     1195 |       0.14 | *
    |      880 |        - |     1193 |     1193 |       0.14 | *
    |      913 |        - |     1190 |     1190 |       0.14 | *
    |      948 |        - |     1189 |     1189 |       0.14 | *
    |      949 |        - |     1187 |     1187 |       0.14 | *
    |      955 |        - |     1185 |     1185 |       0.14 | *
    |      963 |        - |     1183 |     1183 |       0.14 | *
    |      965 |        - |     1182 |     1182 |       0.14 | *
    |      966 |        - |     1180 |     1180 |       0.14 | *
    |      974 |        - |     1177 |     1177 |       0.14 | *
    |      980 |        - |     1176 |     1176 |       0.14 | *
    |      997 |        - |     1175 |     1175 |       0.15 | *
    |     1003 |        - |     1173 |     1173 |       0.15 | *
    |     1021 |        - |     1172 |     1172 |       0.15 | *
    |     1055 |        - |     1171 |     1171 |       0.15 | *
    |     1068 |        - |     1170 |     1170 |       0.15 | *
    |     1069 |        - |     1166 |     1166 |       0.15 | *
    |     1075 |        - |     1161 |     1161 |       0.15 | *
    |     1078 |        - |     1159 |     1159 |       0.15 | *
    |     1091 |        - |     1154 |     1154 |       0.15 | *
    |     1123 |        - |     1150 |     1150 |       0.15 | *
    |     1129 |        - |     1146 |     1146 |       0.15 | *
    |     1130 |        - |     1145 |     1145 |       0.15 | *
    |     1143 |        - |     1144 |     1144 |       0.15 | *
    |     1152 |        - |     1142 |     1142 |       0.15 | *
    |     1159 |        - |     1141 |     1141 |       0.15 | *
    |     1163 |        - |     1139 |     1139 |       0.15 | *
    |     1166 |        - |     1136 |     1136 |       0.15 | *
    |     1178 |        - |     1131 |     1131 |       0.15 | *
    |     1190 |        - |     1128 |     1128 |       0.15 | *
    |     1192 |        - |     1127 |     1127 |       0.15 | *
    |     1193 |        - |     1126 |     1126 |       0.16 | *
    |     1218 |        - |     1117 |     1117 |       0.16 | *
    |     1222 |        - |     1106 |     1106 |       0.16 | *
    |     1241 |        - |     1105 |     1105 |       0.16 | *
    |     1246 |        - |     1103 |     1103 |       0.16 | *
    |     1261 |        - |     1102 |     1102 |       0.16 | *
    |     1262 |        - |     1099 |     1099 |       0.16 | *
    |     1269 |        - |     1098 |     1098 |       0.16 | *
    |     1272 |        - |     1094 |     1094 |       0.16 | *
    |     1274 |        - |     1089 |     1089 |       0.16 | *
    |     1276 |        - |     1085 |     1085 |       0.16 | *
    |     1281 |        - |     1083 |     1083 |       0.16 | *
    |     1308 |        - |     1082 |     1082 |       0.16 | *
    |     1313 |        - |     1079 |     1079 |       0.16 | *
    |     1325 |        - |     1077 |     1077 |       0.16 | *
    |     1347 |        - |     1071 |     1071 |       0.16 | *
    |     1348 |        - |     1070 |     1070 |       0.16 | *
    |     1382 |        - |     1069 |     1069 |       0.16 | *
    |     1429 |        - |     1068 |     1068 |       0.16 | *
    |     1432 |        - |     1062 |     1062 |       0.16 | *
    |     1443 |        - |     1052 |     1052 |       0.16 | *
    |     1452 |        - |     1050 |     1050 |       0.16 | *
    |     1455 |        - |     1049 |     1049 |       0.16 | *
    |     1456 |        - |     1047 |     1047 |       0.16 | *
    |     1458 |        - |     1045 |     1045 |       0.16 | *
    |     1466 |        - |     1037 |     1037 |       0.17 | *
    |     1499 |        - |     1033 |     1033 |       0.17 | *
    |     1501 |        - |     1029 |     1029 |       0.17 | *
    |     1504 |        - |     1028 |     1028 |       0.17 | *
    |     1509 |        - |     1019 |     1019 |       0.17 | *
    |     1516 |        - |     1010 |     1010 |       0.17 | *
    |     1518 |        - |     1009 |     1009 |       0.17 | *
    |     1525 |        - |     1007 |     1007 |       0.17 | *
    |     1542 |        - |     1005 |     1005 |       0.17 | *
    |     1552 |        - |     1001 |     1001 |       0.17 | *
    |     1555 |        - |     1000 |     1000 |       0.17 | *
    |     1566 |        - |      998 |      998 |       0.17 | *
    |     1599 |        - |      997 |      997 |       0.17 | *
    |     1621 |        - |      996 |      996 |       0.17 | *
    |     1623 |        - |      993 |      993 |       0.17 | *
    |     1638 |        - |      992 |      992 |       0.17 | *
    |     1645 |        - |      990 |      990 |       0.17 | *
    |     1654 |        - |      987 |      987 |       0.17 | *
    |     1663 |        - |      985 |      985 |       0.17 | *
    |     1666 |        - |      984 |      984 |       0.17 | *
    |     1699 |        - |      983 |      983 |       0.17 | *
    |     1713 |        - |      978 |      978 |       0.18 | *
    |     1718 |        - |      977 |      977 |       0.18 | *
    |     1728 |        - |      975 |      975 |       0.18 | *
    |     1730 |        - |      974 |      974 |       0.18 | *
    |     1732 |        - |      970 |      970 |       0.18 | *
    |     1733 |        - |      969 |      969 |       0.18 | *
    |     1771 |        - |      967 |      967 |       0.18 | *
    |     1772 |        - |      958 |      958 |       0.18 | *
    |     1784 |        - |      956 |      956 |       0.18 | *
    |     1785 |        - |      955 |      955 |       0.18 | *
    |     1811 |        - |      946 |      946 |       0.18 | *
    |     1826 |        - |      941 |      941 |       0.18 | *
    |     1841 |        - |      938 |      938 |       0.18 | *
    |     1848 |        - |      934 |      934 |       0.18 | *
    |     1875 |        - |      933 |      933 |       0.18 | *
    |     1891 |        - |      931 |      931 |       0.18 | *
    |     2025 |        - |      928 |      928 |       0.18 | *
    |     2051 |        - |      927 |      927 |       0.19 | *
    |     2054 |        - |      926 |      926 |       0.19 | *
    |     2067 |        - |      925 |      925 |       0.19 | *
    |     2101 |        - |      923 |      923 |       0.19 | *
    |     2111 |        - |      920 |      920 |       0.19 | *
    |     2137 |        - |      918 |      918 |       0.19 | *
    |     2249 |        - |      914 |      914 |       0.19 | *
    |     2251 |        - |      913 |      913 |       0.19 | *
    |     2253 |        - |      911 |      911 |       0.19 | *
    |     2274 |        - |      909 |      909 |       0.19 | *
    |     2353 |        - |      907 |      907 |       0.19 | *
    |     2382 |        - |      903 |      903 |       0.19 | *
    |     2419 |        - |      901 |      901 |       0.20 | *
    |     2429 |        - |      898 |      898 |       0.20 | *
    |     2435 |        - |      897 |      897 |       0.20 | *
    |     2451 |        - |      896 |      896 |       0.20 | *
    |     2504 |        - |      894 |      894 |       0.20 | *
    |     2515 |        - |      892 |      892 |       0.20 | *
    |     2516 |        - |      889 |      889 |       0.20 | *
    |     2519 |        - |      882 |      882 |       0.20 | *
    |     2548 |        - |      881 |      881 |       0.20 | *
    |     2564 |        - |      874 |      874 |       0.20 | *
    |     2568 |        - |      870 |      870 |       0.20 | *
    |     2619 |        - |      867 |      867 |       0.20 | *
    |     2649 |        - |      866 |      866 |       0.20 | *
    |     2652 |        - |      864 |      864 |       0.20 | *
    |     2665 |        - |      863 |      863 |       0.20 | *
    |     2723 |        - |      862 |      862 |       0.20 | *
    |     2736 |        - |      861 |      861 |       0.21 | *
    |     2775 |        - |      857 |      857 |       0.21 | *
    |     2790 |        - |      854 |      854 |       0.21 | *
    |     2871 |        - |      849 |      849 |       0.21 | *
    |     2892 |        - |      848 |      848 |       0.21 | *
    |     2894 |        - |      844 |      844 |       0.21 | *
    |     2899 |        - |      842 |      842 |       0.21 | *
    |     2904 |        - |      838 |      838 |       0.21 | *
    |     2971 |        - |      836 |      836 |       0.21 | *
    |     2973 |        - |      835 |      835 |       0.21 | *
    |     3059 |        - |      833 |      833 |       0.21 | *
    |     3086 |        - |      828 |      828 |       0.21 | *
    |     3194 |        - |      827 |      827 |       0.21 | *
    |     3199 |        - |      826 |      826 |       0.21 | *
    |     3231 |        - |      823 |      823 |       0.21 | *
    |     3257 |        - |      821 |      821 |       0.21 | *
    |     3321 |        - |      814 |      814 |       0.21 | *
    |     3367 |        - |      812 |      812 |       0.22 | *
    |     3465 |        - |      808 |      808 |       0.22 | *
    |     3478 |        - |      807 |      807 |       0.22 | *
    |     3577 |        - |      803 |      803 |       0.22 | *
    |     3596 |        - |      800 |      800 |       0.22 | *
    |     3607 |        - |      799 |      799 |       0.22 | *
    |     3618 |        - |      792 |      792 |       0.22 | *
    |     3702 |        - |      791 |      791 |       0.22 | *
    |     3728 |        - |      787 |      787 |       0.22 | *
    |     3773 |        - |      786 |      786 |       0.22 | *
    |     3802 |        - |      784 |      784 |       0.22 | *
    |     3909 |        - |      783 |      783 |       0.22 | *
    |     3932 |        - |      782 |      782 |       0.22 | *
    |     3942 |        - |      779 |      779 |       0.22 | *
    |     3949 |        - |      778 |      778 |       0.22 | *
    |     3988 |        - |      777 |      777 |       0.22 | *
    |     4016 |        - |      775 |      775 |       0.23 | *
    |     4033 |        - |      774 |      774 |       0.23 | *
    |     4075 |        - |      773 |      773 |       0.23 | *
    |     4105 |        - |      771 |      771 |       0.23 | *
    |     4154 |        - |      770 |      770 |       0.23 | *
    |     4155 |        - |      769 |      769 |       0.23 | *
    |     4173 |        - |      767 |      767 |       0.23 | *
    |     4181 |        - |      762 |      762 |       0.23 | *
    |     4188 |        - |      761 |      761 |       0.23 | *
    |     4204 |        - |      760 |      760 |       0.23 | *
    |     4368 |        - |      759 |      759 |       0.23 | *
    |     4379 |        - |      758 |      758 |       0.23 | *
    |     4495 |        - |      755 |      755 |       0.23 | *
    |     4522 |        - |      754 |      754 |       0.23 | *
    |     4525 |        - |      752 |      752 |       0.23 | *
    |     4539 |        - |      751 |      751 |       0.23 | *
    |     4610 |        - |      750 |      750 |       0.23 | *
    |     4614 |        - |      749 |      749 |       0.23 | *
    |     4729 |        - |      748 |      748 |       0.23 | *
    |     4988 |        - |      747 |      747 |       0.24 | *
    |     5007 |        - |      746 |      746 |       0.24 | *
    |     5193 |        - |      745 |      745 |       0.24 | *
    |     5202 |        - |      744 |      744 |       0.24 | *
    |     5229 |        - |      743 |      743 |       0.24 | *
    |     5270 |        - |      742 |      742 |       0.24 | *
    |     5276 |        - |      741 |      741 |       0.24 | *
    |     5311 |        - |      740 |      740 |       0.24 | *
    |     5319 |        - |      739 |      739 |       0.24 | *
    |     5324 |        - |      738 |      738 |       0.24 | *
    |     5364 |        - |      737 |      737 |       0.24 | *
    |     5388 |        - |      736 |      736 |       0.24 | *
    |     5494 |        - |      733 |      733 |       0.24 | *
    |     5543 |        - |      732 |      732 |       0.24 | *
    |     5544 |        - |      729 |      729 |       0.24 | *
    |     5596 |        - |      727 |      727 |       0.24 | *
    |     5605 |        - |      726 |      726 |       0.24 | *
    |     5606 |        - |      725 |      725 |       0.24 | *
    |     5716 |        - |      724 |      724 |       0.24 | *
    |     5749 |        - |      722 |      722 |       0.24 | *
    |     5768 |        - |      721 |      721 |       0.24 | *
    |     5777 |        - |      719 |      719 |       0.24 | *
    |     5780 |        - |      718 |      718 |       0.24 | *
    |     5819 |        - |      717 |      717 |       0.25 | *
    |     5827 |        - |      712 |      712 |       0.25 | *
    |     5852 |        - |      711 |      711 |       0.25 | *
    |     5860 |        - |      709 |      709 |       0.25 | *
    |     5886 |        - |      706 |      706 |       0.25 | *
    |     5924 |        - |      705 |      705 |       0.25 | *
    |     5962 |        - |      704 |      704 |       0.25 | *
    |     5965 |        - |      702 |      702 |       0.25 | *
    |     6031 |        - |      700 |      700 |       0.25 | *
    |     6058 |        - |      699 |      699 |       0.25 | *
    |     6071 |        - |      697 |      697 |       0.25 | *
    |     6155 |        - |      695 |      695 |       0.25 | *
    |     6170 |        - |      690 |      690 |       0.25 | *
    |     6197 |        - |      688 |      688 |       0.25 | *
    |     6207 |        - |      687 |      687 |       0.25 | *
    |     6212 |        - |      686 |      686 |       0.25 | *
    |     6219 |        - |      683 |      683 |       0.25 | *
    |     6256 |        - |      681 |      681 |       0.25 | *
    |     6399 |        - |      680 |      680 |       0.25 | *
    |     6435 |        - |      675 |      675 |       0.26 | *
    |     6474 |        - |      673 |      673 |       0.26 | *
    |     6509 |        - |      669 |      669 |       0.26 | *
    |     6519 |        - |      668 |      668 |       0.26 | *
    |     6633 |        - |      666 |      666 |       0.26 | *
    |     6895 |        - |      665 |      665 |       0.26 | *
    |     6901 |        - |      663 |      663 |       0.26 | *
    |     6967 |        - |      660 |      660 |       0.26 | *
    |     7028 |        - |      658 |      658 |       0.26 | *
    |     7029 |        - |      656 |      656 |       0.26 | *
    |     7060 |        - |      655 |      655 |       0.26 | *
    |     7381 |        - |      653 |      653 |       0.26 | *
    |     7385 |        - |      652 |      652 |       0.26 | *
    |     7427 |        - |      649 |      649 |       0.26 | *
    |     7428 |        - |      647 |      647 |       0.26 | *
    |     7469 |        - |      646 |      646 |       0.26 | *
    |     7514 |        - |      644 |      644 |       0.26 | *
    |     7515 |        - |      643 |      643 |       0.27 | *
    |     7524 |        - |      641 |      641 |       0.27 | *
    |     7718 |        - |      638 |      638 |       0.27 | *
    |     7761 |        - |      637 |      637 |       0.27 | *
    |     7918 |        - |      636 |      636 |       0.27 | *
    |     7947 |        - |      633 |      633 |       0.27 | *
    |     8111 |        - |      632 |      632 |       0.27 | *
    |     8117 |        - |      631 |      631 |       0.27 | *
    |     8128 |        - |      630 |      630 |       0.27 | *
    |     8138 |        - |      628 |      628 |       0.27 | *
    |     8294 |        - |      627 |      627 |       0.27 | *
    |     8317 |        - |      625 |      625 |       0.27 | *
    |     8696 |        - |      624 |      624 |       0.27 | *
    |     8737 |        - |      623 |      623 |       0.28 | *
    |     8767 |        - |      622 |      622 |       0.28 | *
    |     8885 |        - |      620 |      620 |       0.28 | *
    |     9086 |        - |      619 |      619 |       0.28 | *
    |     9138 |        - |      617 |      617 |       0.28 | *
    |     9346 |        - |      614 |      614 |       0.28 | *
    |     9361 |        - |      613 |      613 |       0.28 | *
    |     9414 |        - |      611 |      611 |       0.28 | *
    |     9421 |        - |      610 |      610 |       0.28 | *
    |     9422 |        - |      609 |      609 |       0.28 | *
    |      10K |        - |      608 |      608 |       0.29 | *
    |      10K |        - |      605 |      605 |       0.29 | *
    |      10K |        - |      604 |      604 |       0.29 | *
    |      10K |        - |      602 |      602 |       0.29 | *
    |      10K |        - |      601 |      601 |       0.29 | *
    |      10K |        - |      600 |      600 |       0.29 | *
    |      10K |        - |      597 |      597 |       0.30 | *
    |      10K |        - |      596 |      596 |       0.30 | *
    |      10K |        - |      595 |      595 |       0.30 | *
    |      10K |        - |      594 |      594 |       0.30 | *
    |      11K |        - |      593 |      593 |       0.30 | *
    |      11K |        - |      592 |      592 |       0.30 | *
    |      11K |        - |      591 |      591 |       0.30 | *
    |      11K |        - |      590 |      590 |       0.30 | *
    |      11K |        - |      589 |      589 |       0.30 | *
    |      11K |        - |      585 |      585 |       0.30 | *
    |      11K |        - |      584 |      584 |       0.30 | *
    |      11K |        - |      582 |      582 |       0.30 | *
    |      11K |        - |      581 |      581 |       0.31 | *
    |      12K |        - |      580 |      580 |       0.31 | *
    |      12K |        - |      579 |      579 |       0.31 | *
    |      12K |        - |      578 |      578 |       0.31 | *
    |      12K |        - |      577 |      577 |       0.31 | *
    |      12K |        - |      576 |      576 |       0.31 | *
    |      12K |        - |      573 |      573 |       0.31 | *
    |      12K |        - |      572 |      572 |       0.31 | *
    |      12K |        - |      571 |      571 |       0.31 | *
    |      12K |        - |      566 |      566 |       0.31 | *
    |      12K |        - |      563 |      563 |       0.31 | *
    |      13K |        - |      562 |      562 |       0.32 | *
    |      13K |        - |      561 |      561 |       0.32 | *
    |      13K |        - |      560 |      560 |       0.32 | *
    |      13K |        - |      559 |      559 |       0.32 | *
    |      14K |        - |      557 |      557 |       0.32 | *
    |      14K |        - |      556 |      556 |       0.32 | *
    |      14K |        - |      555 |      555 |       0.32 | *
    |      14K |        - |      552 |      552 |       0.32 | *
    |      14K |        - |      549 |      549 |       0.33 | *
    |      14K |        - |      547 |      547 |       0.33 | *
    |      14K |        - |      546 |      546 |       0.33 | *
    |      16K |        - |      545 |      545 |       0.33 | *
    |      16K |        - |      543 |      543 |       0.34 | *
    |      16K |        - |      542 |      542 |       0.34 | *
    |      16K |        - |      541 |      541 |       0.34 | *
    |      16K |        - |      538 |      538 |       0.34 | *
    |      16K |        - |      537 |      537 |       0.34 | *
    |      16K |        - |      535 |      535 |       0.34 | *
    |      17K |        - |      534 |      534 |       0.34 | *
    |      17K |        - |      533 |      533 |       0.35 | *
    |      18K |        - |      532 |      532 |       0.35 | *
    |      18K |        - |      531 |      531 |       0.35 | *
    |      18K |        - |      527 |      527 |       0.35 | *
    |      20K |        - |      525 |      525 |       0.35 | *
    |      20K |        - |      524 |      524 |       0.36 | *
    |      20K |        - |      522 |      522 |       0.36 | *
    |      21K |        - |      521 |      521 |       0.36 | *
    |      21K |        - |      520 |      520 |       0.36 | *
    |      21K |        - |      519 |      519 |       0.36 | *
    |      21K |        - |      518 |      518 |       0.36 | *
    |      21K |        - |      516 |      516 |       0.36 | *
    |      22K |        - |      515 |      515 |       0.37 | *
    |      23K |        - |      514 |      514 |       0.37 | *
    |      23K |        - |      513 |      513 |       0.37 | *
    |      24K |        - |      512 |      512 |       0.38 | *
    |      25K |        - |      511 |      511 |       0.38 | *
    |      25K |        - |      510 |      510 |       0.38 | *
    |      26K |        - |      508 |      508 |       0.38 | *
    |      27K |        - |      507 |      507 |       0.39 | *
    |      29K |        - |      506 |      506 |       0.39 | *
    |      29K |        - |      505 |      505 |       0.40 | *
    |      29K |        - |      501 |      501 |       0.40 | *
    |      29K |        - |      496 |      496 |       0.40 | *
    |      29K |        - |      495 |      495 |       0.40 | *
    |      29K |        - |      494 |      494 |       0.40 | *
    |      29K |        - |      493 |      493 |       0.40 | *
    |      30K |        - |      492 |      492 |       0.40 | *
    |      30K |        - |      491 |      491 |       0.40 | *
    |      30K |        - |      490 |      490 |       0.40 | *
    |      30K |        - |      489 |      489 |       0.40 | *
    |      30K |        - |      488 |      488 |       0.40 | *
    |      32K |        - |      487 |      487 |       0.41 | *
    |      33K |        - |      482 |      482 |       0.41 | *
    |      33K |        - |      481 |      481 |       0.42 | *
    |      33K |        - |      480 |      480 |       0.42 | *
    |      33K |        - |      479 |      479 |       0.42 | *
    |      33K |        - |      477 |      477 |       0.42 | *
    |      33K |        - |      476 |      476 |       0.42 | *
    |      35K |        - |      475 |      475 |       0.42 | *
    |      35K |        - |      474 |      474 |       0.43 | *
    |      36K |        - |      473 |      473 |       0.43 | *
    |      36K |        - |      472 |      472 |       0.43 | *
    |      37K |        - |      471 |      471 |       0.43 | *
    |      40K |        - |      470 |      470 |       0.44 | *
    |      42K |        - |      469 |      469 |       0.45 | *
    |      43K |        - |      468 |      468 |       0.45 | *
    |      43K |        - |      467 |      467 |       0.45 | *
    |      43K |        - |      465 |      465 |       0.46 | *
    |      45K |        - |      464 |      464 |       0.46 | *
    |      45K |        - |      463 |      463 |       0.46 | *
    |      46K |        - |      462 |      462 |       0.46 | *
    |      46K |        - |      461 |      461 |       0.47 | *
    |      46K |        - |      460 |      460 |       0.47 | *
    |      49K |        - |      459 |      459 |       0.48 | *
    |      51K |        - |      458 |      458 |       0.49 | *
    |      52K |        - |      457 |      457 |       0.49 | *
    |      52K |        - |      456 |      456 |       0.49 | *
    |      57K |        - |      455 |      455 |       0.51 | *
    |      58K |        - |      454 |      454 |       0.52 | *
    |      58K |        - |      453 |      453 |       0.52 | *
    |      60K |        - |      452 |      452 |       0.52 | *
    |      60K |        - |      451 |      451 |       0.53 | *
    |      60K |        - |      450 |      450 |       0.53 | *
    |      60K |        - |      449 |      449 |       0.53 | *
    |      60K |        - |      446 |      446 |       0.53 | *
    |      61K |        - |      445 |      445 |       0.53 | *
    |      68K |        - |      444 |      444 |       0.56 | *
    |      69K |        - |      443 |      443 |       0.57 | *
    |      71K |        - |      442 |      442 |       0.57 | *
    |      71K |        - |      441 |      441 |       0.57 | *
    |      73K |        - |      440 |      440 |       0.58 | *
    |      73K |        - |      439 |      439 |       0.58 | *
    |      77K |        - |      438 |      438 |       0.60 | *
    |      77K |        - |      436 |      436 |       0.60 | *
    |      79K |        - |      435 |      435 |       0.61 | *
    |      80K |        - |      434 |      434 |       0.61 | *
    |      82K |        - |      433 |      433 |       0.62 | *
    |      95K |        - |      432 |      432 |       0.67 | *
    |      95K |        - |      431 |      431 |       0.67 | *
    |      96K |        - |      430 |      430 |       0.67 | *
    |      96K |        - |      429 |      429 |       0.67 | *
    |     115K |        - |      427 |      427 |       0.74 | *
    |     118K |        - |      426 |      426 |       0.76 | *
    |     118K |        - |      425 |      425 |       0.76 | *
    |     119K |        - |      424 |      424 |       0.76 | *
    |     121K |        - |      423 |      423 |       0.77 | *
    |     122K |        - |      422 |      422 |       0.77 | *
    |     122K |        - |      420 |      420 |       0.78 | *
    |     123K |        - |      419 |      419 |       0.78 | *
    |     141K |        - |      418 |      418 |       0.87 | *
    |     141K |        - |      417 |      417 |       0.87 | *
    |     272K |        - |      416 |      416 |       1.47 | *
    |     287K |        - |      415 |      415 |       1.53 | *
    |     287K |        - |      414 |      414 |       1.53 | *
    |     288K |        - |      413 |      413 |       1.54 | *
    |     289K |        - |      412 |      412 |       1.55 | *
    |     293K |        - |      411 |      411 |       1.56 | *
    |     294K |        - |      410 |      410 |       1.57 | *
    |     294K |        - |      409 |      409 |       1.57 | *
    |     391K |        - |      408 |      408 |       1.87 | *
    |     392K |        - |      407 |      407 |       1.88 | *
    |     393K |        - |      406 |      406 |       1.88 | *
    |     393K |        - |      405 |      405 |       1.88 | *
    |     395K |        - |      404 |      404 |       1.89 | *
    |     395K |        - |      403 |      403 |       1.89 | *
    |     403K |        - |      402 |      402 |       1.91 | *
    |     405K |        - |      401 |      401 |       1.92 | *
    |     414K |        - |      400 |      400 |       1.93 | *
    |     468K |        - |      399 |      399 |       2.02 | *
    |     468K |        - |      397 |      397 |       2.02 | *
    |     468K |        - |      395 |      395 |       2.02 | *
    |     468K |        - |      394 |      394 |       2.02 | *
    |     470K |        - |      393 |      393 |       2.03 | *
    |     471K |        - |      392 |      392 |       2.03 | *
    |     475K |        - |      391 |      391 |       2.04 | *
    |     476K |        - |      390 |      390 |       2.04 | *
    |     589K |        - |      389 |      389 |       2.23 | *
    |     900K |        - |      388 |      388 |       2.55 | *
    |     900K |        - |      387 |      387 |       2.55 | *
    |     901K |        - |      386 |      386 |       2.55 | *
    |    1047K |        - |      385 |      385 |       2.68 | *
    |    1175K |        - |      384 |      384 |       2.80 | *
    |    1179K |        - |      383 |      383 |       2.80 | *
    |    1187K |        - |      382 |      382 |       2.81 | *
    |    1192K |        - |      381 |      381 |       2.81 | *
    |    1193K |        - |      380 |      380 |       2.81 | *
    |    1193K |        - |      379 |      379 |       2.81 | *
    |    1317K |        - |      378 |      378 |       2.92 | *
    |    1318K |        - |      377 |      377 |       2.92 | *
    |    1955K |        - |      376 |      376 |       3.55 | *
    |    1992K |        - |      375 |      375 |       3.58 | *
    |    1993K |        - |      374 |      374 |       3.58 | *
    |    1996K |        - |      373 |      373 |       3.59 | *
    |    2045K |        - |      372 |      372 |       3.63 | *
    |    2045K |        - |      371 |      371 |       3.63 | *
    |    2046K |        - |      370 |      370 |       3.63 | *
    |    2493K |        - |      369 |      369 |       4.11 | *
    |    2569K |        - |      368 |      368 |       4.20 | *
    |    3705K |        - |      367 |      367 |       5.76 | *
    |    4530K |        - |      366 |      366 |       6.60 | *
    |    4552K |        - |      365 |      365 |       6.62 | *
    |    4751K |        - |      364 |      364 |       6.81 | *
    |    4755K |        - |      363 |      363 |       6.82 | *
    |    9064K |        - |      362 |      362 |      11.69 | *
    |    9065K |        - |      361 |      361 |      11.69 | *
    |    9067K |        - |      359 |      359 |      11.69 | *
    |    9103K |        - |      358 |      358 |      11.72 | *
    |    9148K |        - |      357 |      357 |      11.76 | *
    |      99M |        - |      356 |      356 |      95.59 | *
    |      99M |        - |      355 |      355 |      95.69 | *
    |      99M |        - |      354 |      354 |      95.69 | *
    |      99M |        - |      353 |      353 |      95.73 | *
    |      99M |        - |      351 |      351 |      95.75 | *
    |     178M |        - |      350 |      350 |     165.61 | *
    |     252M |        - |      349 |      349 |     231.16 | *
    |     252M |        - |      348 |      348 |     231.67 | *
    |     477M |        - |      347 |      347 |     430.37 | *
    |     523M |        - |      346 |      346 |     471.08 | *
    |     813M |        - |      345 |      345 |     727.72 | *
    |     814M |        - |      344 |      344 |     728.80 | *
    |     818M |        - |      343 |      343 |     731.98 | *
    |    1339M |        - |      342 |      342 |    1187.19 | *
    |    1597M |        - |      341 |      341 |    1409.56 | *
    \--------------------------------------------------------/

Neighborhoods statistics (values in %):

    /----------------------------------------------------------------\
    | Move               | Improvs. | Sideways |  Accepts |  Rejects |
    |--------------------|----------|----------|----------|----------|
    | Shift(mk)          |      17K |      37K |      62K |     173M |
    | Shift              |     1645 |     254K |     270K |     173M |
    | ShiftSmart(mk)     |     359K |     782K |    1297K |     172M |
    | ShiftSmart         |      36K |    4650K |    4887K |     169M |
    | SimpSwap(mk)       |       24 |       32 |       68 |     174M |
    | SimpSwap           |       10 |      125 |      155 |     174M |
    | SimpSwapSmart(mk)  |      472 |      805 |     1563 |     174M |
    | SimpSwapSmart      |      106 |     2707 |     3408 |     174M |
    | Swap(mk)           |        6 |        5 |       12 |     174M |
    | Swap               |        1 |       19 |       21 |     174M |
    | SwapSmart(mk)      |      465 |      851 |     1541 |     174M |
    | SwapSmart          |       88 |     2702 |     3205 |     174M |
    | Switch(mk)         |     3952 |    6475K |    6480K |     167M |
    | Switch             |      394 |    7040K |    7043K |     167M |
    | SwitchSmart(mk)    |      82K |     161K |     275K |     173M |
    | SwitchSmart        |     8251 |     849K |     913K |     173M |
    | TaskMove(mk)       |      418 |      786 |     1435 |     174M |
    | TaskMove           |       49 |     1372 |     1645 |     174M |
    | TaskMoveSmart(mk)  |     8000 |      15K |      27K |     174M |
    | TaskMoveSmart      |      877 |      27K |      33K |     174M |
    | 2-Shift(mk)        |     1642 |     255K |     257K |     173M |
    | 2-Shift            |      169 |     322K |     323K |     173M |
    | 2-ShiftSmart(mk)   |      70K |     747K |     837K |     173M |
    | 2-ShiftSmart       |     6992 |    1299K |    1344K |     172M |
    \----------------------------------------------------------------/

Best makespan.....: 341
N. of Iterations..: 4166634114
Total runtime.....: 3600.01s
Using Python-MIP package version 1.6.8
Começo a execução
    /-------------------------------------------------------------------------------\
    |    Makespan   |   Free Jobs   | Free Machines |    It. Time   |   Total Time  | 
    |-------------------------------------------------------------------------------|
    \-------------------------------------------------------------------------------/
Terminou a execução
