Instance....: instances/I_250_20_S_1-9_10.txt
Algorithm...: Simulated Annealing (alpha=0.990, saMax=10M, t0=1)
Other params: maxIters=100M, seed=-1, timeLimit=3600.00s

    /--------------------------------------------------------\
    |     Iter |   RDP(%) |       S* |       S' |       Time | 
    |----------|----------|----------|----------|------------|
    |        0 |        - |     1203 |     1203 |       0.01 | s0
    |        6 |        - |     1185 |     1185 |       0.03 | *
    |       14 |        - |     1124 |     1124 |       0.03 | *
    |       20 |        - |     1027 |     1027 |       0.03 | *
    |       21 |        - |     1023 |     1023 |       0.03 | *
    |       28 |        - |     1018 |     1018 |       0.03 | *
    |       29 |        - |     1009 |     1009 |       0.04 | *
    |       36 |        - |      978 |      978 |       0.04 | *
    |       37 |        - |      977 |      977 |       0.04 | *
    |       39 |        - |      954 |      954 |       0.04 | *
    |       42 |        - |      922 |      922 |       0.04 | *
    |       44 |        - |      921 |      921 |       0.04 | *
    |       50 |        - |      912 |      912 |       0.04 | *
    |       51 |        - |      903 |      903 |       0.04 | *
    |       56 |        - |      901 |      901 |       0.04 | *
    |       58 |        - |      900 |      900 |       0.04 | *
    |       59 |        - |      897 |      897 |       0.04 | *
    |       66 |        - |      895 |      895 |       0.05 | *
    |       69 |        - |      893 |      893 |       0.05 | *
    |       72 |        - |      891 |      891 |       0.05 | *
    |       73 |        - |      889 |      889 |       0.05 | *
    |       77 |        - |      886 |      886 |       0.05 | *
    |       85 |        - |      881 |      881 |       0.05 | *
    |       95 |        - |      874 |      874 |       0.05 | *
    |       99 |        - |      872 |      872 |       0.05 | *
    |      108 |        - |      867 |      867 |       0.05 | *
    |      111 |        - |      859 |      859 |       0.05 | *
    |      117 |        - |      833 |      833 |       0.05 | *
    |      122 |        - |      825 |      825 |       0.05 | *
    |      125 |        - |      824 |      824 |       0.05 | *
    |      130 |        - |      819 |      819 |       0.05 | *
    |      131 |        - |      812 |      812 |       0.05 | *
    |      133 |        - |      809 |      809 |       0.05 | *
    |      137 |        - |      807 |      807 |       0.05 | *
    |      139 |        - |      806 |      806 |       0.06 | *
    |      142 |        - |      803 |      803 |       0.06 | *
    |      151 |        - |      801 |      801 |       0.06 | *
    |      152 |        - |      797 |      797 |       0.06 | *
    |      153 |        - |      796 |      796 |       0.06 | *
    |      157 |        - |      793 |      793 |       0.06 | *
    |      158 |        - |      790 |      790 |       0.06 | *
    |      170 |        - |      788 |      788 |       0.06 | *
    |      179 |        - |      782 |      782 |       0.06 | *
    |      180 |        - |      770 |      770 |       0.06 | *
    |      182 |        - |      765 |      765 |       0.06 | *
    |      184 |        - |      762 |      762 |       0.06 | *
    |      188 |        - |      760 |      760 |       0.06 | *
    |      191 |        - |      758 |      758 |       0.06 | *
    |      196 |        - |      753 |      753 |       0.06 | *
    |      199 |        - |      750 |      750 |       0.06 | *
    |      201 |        - |      746 |      746 |       0.06 | *
    |      214 |        - |      743 |      743 |       0.07 | *
    |      215 |        - |      742 |      742 |       0.07 | *
    |      217 |        - |      740 |      740 |       0.07 | *
    |      220 |        - |      735 |      735 |       0.07 | *
    |      222 |        - |      730 |      730 |       0.07 | *
    |      234 |        - |      729 |      729 |       0.07 | *
    |      247 |        - |      728 |      728 |       0.07 | *
    |      251 |        - |      727 |      727 |       0.07 | *
    |      256 |        - |      722 |      722 |       0.07 | *
    |      258 |        - |      720 |      720 |       0.07 | *
    |      261 |        - |      719 |      719 |       0.07 | *
    |      274 |        - |      718 |      718 |       0.07 | *
    |      276 |        - |      717 |      717 |       0.07 | *
    |      285 |        - |      716 |      716 |       0.07 | *
    |      287 |        - |      714 |      714 |       0.07 | *
    |      295 |        - |      708 |      708 |       0.07 | *
    |      321 |        - |      692 |      692 |       0.07 | *
    |      322 |        - |      688 |      688 |       0.07 | *
    |      325 |        - |      686 |      686 |       0.08 | *
    |      326 |        - |      683 |      683 |       0.08 | *
    |      333 |        - |      678 |      678 |       0.08 | *
    |      342 |        - |      672 |      672 |       0.08 | *
    |      348 |        - |      670 |      670 |       0.08 | *
    |      349 |        - |      666 |      666 |       0.08 | *
    |      351 |        - |      659 |      659 |       0.08 | *
    |      352 |        - |      658 |      658 |       0.08 | *
    |      353 |        - |      651 |      651 |       0.08 | *
    |      362 |        - |      647 |      647 |       0.08 | *
    |      367 |        - |      644 |      644 |       0.08 | *
    |      372 |        - |      642 |      642 |       0.08 | *
    |      376 |        - |      640 |      640 |       0.09 | *
    |      385 |        - |      637 |      637 |       0.09 | *
    |      386 |        - |      634 |      634 |       0.09 | *
    |      387 |        - |      629 |      629 |       0.09 | *
    |      389 |        - |      628 |      628 |       0.09 | *
    |      391 |        - |      627 |      627 |       0.09 | *
    |      392 |        - |      626 |      626 |       0.09 | *
    |      396 |        - |      622 |      622 |       0.09 | *
    |      398 |        - |      621 |      621 |       0.09 | *
    |      406 |        - |      620 |      620 |       0.09 | *
    |      410 |        - |      619 |      619 |       0.09 | *
    |      413 |        - |      616 |      616 |       0.10 | *
    |      422 |        - |      593 |      593 |       0.10 | *
    |      426 |        - |      592 |      592 |       0.10 | *
    |      427 |        - |      591 |      591 |       0.10 | *
    |      436 |        - |      590 |      590 |       0.10 | *
    |      441 |        - |      589 |      589 |       0.10 | *
    |      451 |        - |      588 |      588 |       0.10 | *
    |      459 |        - |      587 |      587 |       0.10 | *
    |      461 |        - |      586 |      586 |       0.10 | *
    |      471 |        - |      585 |      585 |       0.10 | *
    |      480 |        - |      584 |      584 |       0.10 | *
    |      492 |        - |      583 |      583 |       0.10 | *
    |      496 |        - |      582 |      582 |       0.11 | *
    |      499 |        - |      581 |      581 |       0.11 | *
    |      501 |        - |      579 |      579 |       0.11 | *
    |      502 |        - |      575 |      575 |       0.11 | *
    |      507 |        - |      571 |      571 |       0.11 | *
    |      512 |        - |      568 |      568 |       0.11 | *
    |      518 |        - |      567 |      567 |       0.11 | *
    |      520 |        - |      566 |      566 |       0.11 | *
    |      537 |        - |      563 |      563 |       0.11 | *
    |      563 |        - |      562 |      562 |       0.11 | *
    |      573 |        - |      561 |      561 |       0.11 | *
    |      577 |        - |      557 |      557 |       0.11 | *
    |      580 |        - |      556 |      556 |       0.11 | *
    |      583 |        - |      555 |      555 |       0.11 | *
    |      589 |        - |      554 |      554 |       0.11 | *
    |      601 |        - |      553 |      553 |       0.11 | *
    |      602 |        - |      550 |      550 |       0.11 | *
    |      607 |        - |      545 |      545 |       0.11 | *
    |      610 |        - |      540 |      540 |       0.12 | *
    |      616 |        - |      533 |      533 |       0.12 | *
    |      627 |        - |      532 |      532 |       0.12 | *
    |      663 |        - |      529 |      529 |       0.12 | *
    |      705 |        - |      527 |      527 |       0.12 | *
    |      707 |        - |      525 |      525 |       0.12 | *
    |      726 |        - |      524 |      524 |       0.12 | *
    |      729 |        - |      522 |      522 |       0.12 | *
    |      745 |        - |      519 |      519 |       0.12 | *
    |      752 |        - |      518 |      518 |       0.12 | *
    |      763 |        - |      517 |      517 |       0.12 | *
    |      766 |        - |      516 |      516 |       0.12 | *
    |      799 |        - |      515 |      515 |       0.12 | *
    |      804 |        - |      514 |      514 |       0.12 | *
    |      806 |        - |      513 |      513 |       0.12 | *
    |      808 |        - |      511 |      511 |       0.13 | *
    |      819 |        - |      509 |      509 |       0.13 | *
    |      820 |        - |      508 |      508 |       0.13 | *
    |      821 |        - |      507 |      507 |       0.13 | *
    |      825 |        - |      505 |      505 |       0.13 | *
    |      826 |        - |      503 |      503 |       0.13 | *
    |      829 |        - |      502 |      502 |       0.13 | *
    |      830 |        - |      499 |      499 |       0.13 | *
    |      833 |        - |      497 |      497 |       0.13 | *
    |      841 |        - |      496 |      496 |       0.13 | *
    |      849 |        - |      490 |      490 |       0.13 | *
    |      852 |        - |      489 |      489 |       0.13 | *
    |      857 |        - |      487 |      487 |       0.13 | *
    |      863 |        - |      485 |      485 |       0.13 | *
    |      887 |        - |      481 |      481 |       0.13 | *
    |      893 |        - |      480 |      480 |       0.14 | *
    |      918 |        - |      479 |      479 |       0.14 | *
    |      920 |        - |      475 |      475 |       0.14 | *
    |      926 |        - |      473 |      473 |       0.14 | *
    |      942 |        - |      472 |      472 |       0.14 | *
    |      953 |        - |      470 |      470 |       0.14 | *
    |      962 |        - |      467 |      467 |       0.14 | *
    |      973 |        - |      464 |      464 |       0.14 | *
    |      982 |        - |      463 |      463 |       0.14 | *
    |      985 |        - |      462 |      462 |       0.14 | *
    |      986 |        - |      458 |      458 |       0.14 | *
    |      992 |        - |      449 |      449 |       0.14 | *
    |      994 |        - |      445 |      445 |       0.14 | *
    |     1007 |        - |      444 |      444 |       0.14 | *
    |     1012 |        - |      443 |      443 |       0.14 | *
    |     1014 |        - |      442 |      442 |       0.14 | *
    |     1016 |        - |      441 |      441 |       0.14 | *
    |     1026 |        - |      440 |      440 |       0.15 | *
    |     1032 |        - |      439 |      439 |       0.15 | *
    |     1035 |        - |      438 |      438 |       0.15 | *
    |     1043 |        - |      437 |      437 |       0.15 | *
    |     1050 |        - |      436 |      436 |       0.15 | *
    |     1052 |        - |      435 |      435 |       0.15 | *
    |     1059 |        - |      434 |      434 |       0.15 | *
    |     1128 |        - |      428 |      428 |       0.15 | *
    |     1137 |        - |      426 |      426 |       0.15 | *
    |     1147 |        - |      425 |      425 |       0.15 | *
    |     1175 |        - |      424 |      424 |       0.15 | *
    |     1179 |        - |      423 |      423 |       0.15 | *
    |     1180 |        - |      420 |      420 |       0.15 | *
    |     1212 |        - |      419 |      419 |       0.15 | *
    |     1227 |        - |      418 |      418 |       0.15 | *
    |     1243 |        - |      417 |      417 |       0.15 | *
    |     1277 |        - |      416 |      416 |       0.15 | *
    |     1278 |        - |      414 |      414 |       0.15 | *
    |     1282 |        - |      412 |      412 |       0.15 | *
    |     1296 |        - |      411 |      411 |       0.15 | *
    |     1297 |        - |      409 |      409 |       0.15 | *
    |     1336 |        - |      408 |      408 |       0.15 | *
    |     1342 |        - |      406 |      406 |       0.15 | *
    |     1351 |        - |      405 |      405 |       0.16 | *
    |     1372 |        - |      403 |      403 |       0.16 | *
    |     1379 |        - |      402 |      402 |       0.16 | *
    |     1408 |        - |      401 |      401 |       0.16 | *
    |     1411 |        - |      400 |      400 |       0.16 | *
    |     1419 |        - |      399 |      399 |       0.16 | *
    |     1436 |        - |      398 |      398 |       0.16 | *
    |     1437 |        - |      397 |      397 |       0.16 | *
    |     1441 |        - |      395 |      395 |       0.16 | *
    |     1479 |        - |      393 |      393 |       0.16 | *
    |     1481 |        - |      392 |      392 |       0.16 | *
    |     1494 |        - |      391 |      391 |       0.16 | *
    |     1512 |        - |      389 |      389 |       0.16 | *
    |     1532 |        - |      388 |      388 |       0.16 | *
    |     1550 |        - |      387 |      387 |       0.16 | *
    |     1559 |        - |      386 |      386 |       0.16 | *
    |     1566 |        - |      383 |      383 |       0.16 | *
    |     1584 |        - |      382 |      382 |       0.16 | *
    |     1602 |        - |      381 |      381 |       0.16 | *
    |     1610 |        - |      380 |      380 |       0.16 | *
    |     1640 |        - |      379 |      379 |       0.16 | *
    |     1646 |        - |      378 |      378 |       0.16 | *
    |     1688 |        - |      376 |      376 |       0.17 | *
    |     1747 |        - |      375 |      375 |       0.17 | *
    |     1766 |        - |      373 |      373 |       0.17 | *
    |     1769 |        - |      371 |      371 |       0.17 | *
    |     1785 |        - |      369 |      369 |       0.17 | *
    |     1787 |        - |      366 |      366 |       0.17 | *
    |     1794 |        - |      364 |      364 |       0.17 | *
    |     1797 |        - |      363 |      363 |       0.17 | *
    |     1804 |        - |      362 |      362 |       0.17 | *
    |     1815 |        - |      361 |      361 |       0.17 | *
    |     1840 |        - |      354 |      354 |       0.17 | *
    |     1863 |        - |      353 |      353 |       0.17 | *
    |     1865 |        - |      352 |      352 |       0.17 | *
    |     1886 |        - |      351 |      351 |       0.17 | *
    |     1930 |        - |      349 |      349 |       0.17 | *
    |     1942 |        - |      348 |      348 |       0.17 | *
    |     1978 |        - |      347 |      347 |       0.18 | *
    |     1986 |        - |      344 |      344 |       0.18 | *
    |     2008 |        - |      343 |      343 |       0.18 | *
    |     2028 |        - |      342 |      342 |       0.18 | *
    |     2046 |        - |      341 |      341 |       0.18 | *
    |     2048 |        - |      340 |      340 |       0.18 | *
    |     2066 |        - |      339 |      339 |       0.18 | *
    |     2078 |        - |      338 |      338 |       0.18 | *
    |     2085 |        - |      337 |      337 |       0.18 | *
    |     2096 |        - |      336 |      336 |       0.18 | *
    |     2099 |        - |      335 |      335 |       0.18 | *
    |     2128 |        - |      334 |      334 |       0.18 | *
    |     2138 |        - |      333 |      333 |       0.18 | *
    |     2154 |        - |      332 |      332 |       0.18 | *
    |     2161 |        - |      330 |      330 |       0.18 | *
    |     2166 |        - |      329 |      329 |       0.18 | *
    |     2170 |        - |      328 |      328 |       0.19 | *
    |     2199 |        - |      325 |      325 |       0.19 | *
    |     2214 |        - |      324 |      324 |       0.19 | *
    |     2256 |        - |      323 |      323 |       0.19 | *
    |     2266 |        - |      321 |      321 |       0.19 | *
    |     2331 |        - |      320 |      320 |       0.19 | *
    |     2395 |        - |      319 |      319 |       0.19 | *
    |     2398 |        - |      318 |      318 |       0.19 | *
    |     2404 |        - |      317 |      317 |       0.19 | *
    |     2416 |        - |      315 |      315 |       0.19 | *
    |     2430 |        - |      314 |      314 |       0.19 | *
    |     2447 |        - |      312 |      312 |       0.19 | *
    |     2476 |        - |      311 |      311 |       0.19 | *
    |     2482 |        - |      310 |      310 |       0.19 | *
    |     2491 |        - |      309 |      309 |       0.19 | *
    |     2506 |        - |      308 |      308 |       0.19 | *
    |     2535 |        - |      307 |      307 |       0.20 | *
    |     2548 |        - |      306 |      306 |       0.20 | *
    |     2646 |        - |      305 |      305 |       0.20 | *
    |     2670 |        - |      303 |      303 |       0.20 | *
    |     2672 |        - |      302 |      302 |       0.20 | *
    |     2707 |        - |      301 |      301 |       0.20 | *
    |     2709 |        - |      300 |      300 |       0.20 | *
    |     2751 |        - |      299 |      299 |       0.20 | *
    |     2807 |        - |      298 |      298 |       0.20 | *
    |     2809 |        - |      297 |      297 |       0.20 | *
    |     2831 |        - |      294 |      294 |       0.20 | *
    |     2852 |        - |      293 |      293 |       0.20 | *
    |     2856 |        - |      290 |      290 |       0.20 | *
    |     2868 |        - |      289 |      289 |       0.20 | *
    |     2869 |        - |      288 |      288 |       0.20 | *
    |     2971 |        - |      287 |      287 |       0.21 | *
    |     3028 |        - |      286 |      286 |       0.21 | *
    |     3073 |        - |      284 |      284 |       0.21 | *
    |     3092 |        - |      283 |      283 |       0.21 | *
    |     3103 |        - |      282 |      282 |       0.21 | *
    |     3154 |        - |      281 |      281 |       0.21 | *
    |     3189 |        - |      280 |      280 |       0.21 | *
    |     3203 |        - |      278 |      278 |       0.21 | *
    |     3207 |        - |      277 |      277 |       0.21 | *
    |     3221 |        - |      276 |      276 |       0.21 | *
    |     3239 |        - |      275 |      275 |       0.21 | *
    |     3246 |        - |      274 |      274 |       0.21 | *
    |     3337 |        - |      273 |      273 |       0.21 | *
    |     3517 |        - |      272 |      272 |       0.22 | *
    |     3521 |        - |      271 |      271 |       0.22 | *
    |     3536 |        - |      270 |      270 |       0.22 | *
    |     3706 |        - |      269 |      269 |       0.22 | *
    |     3748 |        - |      268 |      268 |       0.22 | *
    |     3761 |        - |      267 |      267 |       0.22 | *
    |     3783 |        - |      266 |      266 |       0.22 | *
    |     3827 |        - |      265 |      265 |       0.22 | *
    |     3840 |        - |      264 |      264 |       0.22 | *
    |     3851 |        - |      263 |      263 |       0.22 | *
    |     3879 |        - |      262 |      262 |       0.22 | *
    |     3893 |        - |      261 |      261 |       0.22 | *
    |     3894 |        - |      260 |      260 |       0.22 | *
    |     3910 |        - |      259 |      259 |       0.22 | *
    |     3987 |        - |      258 |      258 |       0.22 | *
    |     4022 |        - |      257 |      257 |       0.22 | *
    |     4028 |        - |      256 |      256 |       0.22 | *
    |     4037 |        - |      255 |      255 |       0.22 | *
    |     4073 |        - |      254 |      254 |       0.22 | *
    |     4136 |        - |      253 |      253 |       0.23 | *
    |     4205 |        - |      252 |      252 |       0.23 | *
    |     4230 |        - |      250 |      250 |       0.23 | *
    |     4416 |        - |      249 |      249 |       0.23 | *
    |     4423 |        - |      248 |      248 |       0.23 | *
    |     4476 |        - |      247 |      247 |       0.23 | *
    |     4566 |        - |      246 |      246 |       0.23 | *
    |     4653 |        - |      245 |      245 |       0.23 | *
    |     4674 |        - |      244 |      244 |       0.23 | *
    |     4694 |        - |      243 |      243 |       0.23 | *
    |     4710 |        - |      242 |      242 |       0.23 | *
    |     4747 |        - |      241 |      241 |       0.23 | *
    |     4770 |        - |      240 |      240 |       0.23 | *
    |     4800 |        - |      239 |      239 |       0.23 | *
    |     4843 |        - |      238 |      238 |       0.23 | *
    |     4846 |        - |      237 |      237 |       0.24 | *
    |     4930 |        - |      236 |      236 |       0.24 | *
    |     5081 |        - |      235 |      235 |       0.24 | *
    |     5083 |        - |      234 |      234 |       0.24 | *
    |     5085 |        - |      233 |      233 |       0.24 | *
    |     5106 |        - |      232 |      232 |       0.24 | *
    |     5121 |        - |      231 |      231 |       0.24 | *
    |     5241 |        - |      230 |      230 |       0.24 | *
    |     5832 |        - |      229 |      229 |       0.24 | *
    |     5903 |        - |      228 |      228 |       0.24 | *
    |     5970 |        - |      227 |      227 |       0.24 | *
    |     5972 |        - |      226 |      226 |       0.24 | *
    |     6042 |        - |      225 |      225 |       0.24 | *
    |     6262 |        - |      224 |      224 |       0.25 | *
    |     6773 |        - |      223 |      223 |       0.25 | *
    |     6786 |        - |      222 |      222 |       0.25 | *
    |     6802 |        - |      220 |      220 |       0.25 | *
    |     6824 |        - |      219 |      219 |       0.25 | *
    |     6862 |        - |      218 |      218 |       0.25 | *
    |     6958 |        - |      217 |      217 |       0.25 | *
    |     6997 |        - |      216 |      216 |       0.25 | *
    |     7015 |        - |      215 |      215 |       0.25 | *
    |     7052 |        - |      214 |      214 |       0.25 | *
    |     7095 |        - |      213 |      213 |       0.25 | *
    |     7232 |        - |      212 |      212 |       0.25 | *
    |     7271 |        - |      211 |      211 |       0.25 | *
    |     7372 |        - |      210 |      210 |       0.25 | *
    |     7399 |        - |      209 |      209 |       0.26 | *
    |     7437 |        - |      208 |      208 |       0.26 | *
    |     7454 |        - |      207 |      207 |       0.26 | *
    |     7466 |        - |      206 |      206 |       0.26 | *
    |     7477 |        - |      205 |      205 |       0.26 | *
    |     7488 |        - |      204 |      204 |       0.26 | *
    |     7494 |        - |      203 |      203 |       0.26 | *
    |     7500 |        - |      202 |      202 |       0.26 | *
    |     7661 |        - |      201 |      201 |       0.26 | *
    |     7666 |        - |      200 |      200 |       0.26 | *
    |     7693 |        - |      199 |      199 |       0.26 | *
    |     7872 |        - |      198 |      198 |       0.26 | *
    |     8043 |        - |      197 |      197 |       0.26 | *
    |     8158 |        - |      196 |      196 |       0.26 | *
    |     8240 |        - |      195 |      195 |       0.26 | *
    |     8292 |        - |      194 |      194 |       0.26 | *
    |     8366 |        - |      193 |      193 |       0.27 | *
    |     8465 |        - |      192 |      192 |       0.27 | *
    |     8480 |        - |      191 |      191 |       0.27 | *
    |     8492 |        - |      190 |      190 |       0.27 | *
    |     8520 |        - |      189 |      189 |       0.27 | *
    |     8612 |        - |      188 |      188 |       0.27 | *
    |     8812 |        - |      187 |      187 |       0.27 | *
    |     8884 |        - |      186 |      186 |       0.27 | *
    |     8970 |        - |      185 |      185 |       0.27 | *
    |     9069 |        - |      184 |      184 |       0.27 | *
    |     9087 |        - |      183 |      183 |       0.27 | *
    |     9168 |        - |      182 |      182 |       0.27 | *
    |     9497 |        - |      181 |      181 |       0.27 | *
    |     9875 |        - |      180 |      180 |       0.28 | *
    |      11K |        - |      179 |      179 |       0.28 | *
    |      11K |        - |      178 |      178 |       0.28 | *
    |      12K |        - |      177 |      177 |       0.28 | *
    |      12K |        - |      176 |      176 |       0.28 | *
    |      12K |        - |      175 |      175 |       0.28 | *
    |      12K |        - |      174 |      174 |       0.29 | *
    |      12K |        - |      173 |      173 |       0.29 | *
    |      13K |        - |      172 |      172 |       0.29 | *
    |      13K |        - |      171 |      171 |       0.29 | *
    |      16K |        - |      170 |      170 |       0.30 | *
    |      16K |        - |      169 |      169 |       0.30 | *
    |      16K |        - |      168 |      168 |       0.30 | *
    |      16K |        - |      167 |      167 |       0.30 | *
    |      16K |        - |      166 |      166 |       0.30 | *
    |      17K |        - |      165 |      165 |       0.30 | *
    |      18K |        - |      164 |      164 |       0.31 | *
    |      18K |        - |      163 |      163 |       0.31 | *
    |      18K |        - |      162 |      162 |       0.31 | *
    |      18K |        - |      161 |      161 |       0.31 | *
    |      19K |        - |      160 |      160 |       0.31 | *
    |      20K |        - |      159 |      159 |       0.31 | *
    |      20K |        - |      158 |      158 |       0.32 | *
    |      21K |        - |      157 |      157 |       0.32 | *
    |      21K |        - |      156 |      156 |       0.32 | *
    |      21K |        - |      155 |      155 |       0.32 | *
    |      21K |        - |      154 |      154 |       0.32 | *
    |      22K |        - |      153 |      153 |       0.32 | *
    |      22K |        - |      152 |      152 |       0.32 | *
    |      23K |        - |      151 |      151 |       0.32 | *
    |      24K |        - |      150 |      150 |       0.33 | *
    |      24K |        - |      149 |      149 |       0.33 | *
    |      24K |        - |      148 |      148 |       0.33 | *
    |      25K |        - |      147 |      147 |       0.33 | *
    |      25K |        - |      146 |      146 |       0.33 | *
    |      25K |        - |      145 |      145 |       0.33 | *
    |      25K |        - |      144 |      144 |       0.33 | *
    |      25K |        - |      143 |      143 |       0.34 | *
    |      26K |        - |      142 |      142 |       0.34 | *
    |      26K |        - |      141 |      141 |       0.34 | *
    |      27K |        - |      140 |      140 |       0.34 | *
    |      27K |        - |      139 |      139 |       0.34 | *
    |      29K |        - |      138 |      138 |       0.35 | *
    |      29K |        - |      137 |      137 |       0.35 | *
    |      30K |        - |      136 |      136 |       0.35 | *
    |      30K |        - |      135 |      135 |       0.35 | *
    |      31K |        - |      134 |      134 |       0.35 | *
    |      32K |        - |      133 |      133 |       0.35 | *
    |      32K |        - |      132 |      132 |       0.35 | *
    |      32K |        - |      131 |      131 |       0.35 | *
    |      39K |        - |      130 |      130 |       0.36 | *
    |      39K |        - |      129 |      129 |       0.36 | *
    |      39K |        - |      128 |      128 |       0.36 | *
    |      41K |        - |      127 |      127 |       0.37 | *
    |      43K |        - |      126 |      126 |       0.37 | *
    |      52K |        - |      125 |      125 |       0.39 | *
    |      52K |        - |      124 |      124 |       0.39 | *
    |      52K |        - |      123 |      123 |       0.39 | *
    |      62K |        - |      122 |      122 |       0.40 | *
    |      66K |        - |      121 |      121 |       0.41 | *
    |      68K |        - |      120 |      120 |       0.41 | *
    |      68K |        - |      119 |      119 |       0.41 | *
    |      76K |        - |      118 |      118 |       0.42 | *
    |      78K |        - |      117 |      117 |       0.43 | *
    |      86K |        - |      116 |      116 |       0.45 | *
    |      90K |        - |      115 |      115 |       0.46 | *
    |      90K |        - |      114 |      114 |       0.46 | *
    |     108K |        - |      113 |      113 |       0.49 | *
    |     362K |        - |      112 |      112 |       1.18 | *
    |     362K |        - |      111 |      111 |       1.19 | *
    |     369K |        - |      110 |      110 |       1.20 | *
    |     661K |        - |      109 |      109 |       1.63 | *
    |     750K |        - |      108 |      108 |       1.72 | *
    |     766K |        - |      107 |      107 |       1.73 | *
    |     772K |        - |      106 |      106 |       1.74 | *
    |     803K |        - |      105 |      105 |       1.76 | *
    |    8912K |        - |      104 |      104 |       8.72 | *
    |      18M |        - |      103 |      103 |      17.73 | *
    |      44M |        - |      102 |      102 |      40.51 | *
    |      87M |        - |      101 |      101 |      75.25 | *
    |     127M |        - |      100 |      100 |     106.61 | *
    |     188M |        - |       99 |       99 |     155.56 | *
    |     201M |        - |       98 |       98 |     165.57 | *
    |     218M |        - |       97 |       97 |     179.71 | *
    |     328M |        - |       96 |       96 |     267.02 | *
    |     389M |        - |       95 |       95 |     314.96 | *
    |     454M |        - |       94 |       94 |     366.70 | *
    |     537M |        - |       93 |       93 |     432.95 | *
    |     657M |        - |       92 |       92 |     528.56 | *
    |     728M |        - |       91 |       91 |     584.03 | *
    |     764M |        - |       90 |       90 |     613.19 | *
    |     954M |        - |       89 |       89 |     763.46 | *
    |     988M |        - |       88 |       88 |     790.60 | *
    |    1291M |        - |       87 |       87 |    1030.14 | *
    \--------------------------------------------------------/

Neighborhoods statistics (values in %):

    /----------------------------------------------------------------\
    | Move               | Improvs. | Sideways |  Accepts |  Rejects |
    |--------------------|----------|----------|----------|----------|
    | Shift(mk)          |     517K |    2541K |    3460K |     194M |
    | Shift              |      26K |      13M |      13M |     185M |
    | ShiftSmart(mk)     |    2973K |      16M |      20M |     178M |
    | ShiftSmart         |     149K |      52M |      53M |     145M |
    | SimpSwap(mk)       |     2059 |     5610 |     9487 |     198M |
    | SimpSwap           |      188 |      19K |      23K |     198M |
    | SimpSwapSmart(mk)  |      21K |      57K |      95K |     198M |
    | SimpSwapSmart      |     2154 |     180K |     211K |     198M |
    | Swap(mk)           |     1115 |     2868 |     4986 |     198M |
    | Swap               |      120 |      11K |      13K |     198M |
    | SwapSmart(mk)      |     9647 |      27K |      42K |     198M |
    | SwapSmart          |      942 |      73K |      83K |     198M |
    | Switch(mk)         |     307K |      31M |      31M |     166M |
    | Switch             |      15K |      24M |      24M |     174M |
    | SwitchSmart(mk)    |    1592K |    6483K |    8827K |     189M |
    | SwitchSmart        |      80K |      27M |      28M |     170M |
    | TaskMove(mk)       |      24K |      58K |      97K |     198M |
    | TaskMove           |     1208 |      89K |     104K |     198M |
    | TaskMoveSmart(mk)  |     102K |     275K |     431K |     197M |
    | TaskMoveSmart      |     5450 |     420K |     477K |     197M |
    | 2-Shift(mk)        |     230K |    7279K |    7661K |     190M |
    | 2-Shift            |      11K |    6845K |    7183K |     191M |
    | 2-ShiftSmart(mk)   |    2536K |      16M |      19M |     179M |
    | 2-ShiftSmart       |     127K |      33M |      34M |     164M |
    \----------------------------------------------------------------/

Best makespan.....: 87
N. of Iterations..: 4750265679
Total runtime.....: 3600.02s
Using Python-MIP package version 1.6.8
Começo a execução
    /-------------------------------------------------------------------------------\
    |    Makespan   |   Free Jobs   | Free Machines |    It. Time   |   Total Time  | 
    |-------------------------------------------------------------------------------|
    \-------------------------------------------------------------------------------/
Terminou a execução
