Instance....: instances/I_250_30_S_1-49_1.txt
Algorithm...: Simulated Annealing (alpha=0.990, saMax=10M, t0=1)
Other params: maxIters=100M, seed=-1, timeLimit=3600.00s

    /--------------------------------------------------------\
    |     Iter |   RDP(%) |       S* |       S' |       Time | 
    |----------|----------|----------|----------|------------|
    |        0 |        - |     1034 |     1034 |       0.00 | s0
    |        3 |        - |      980 |      980 |       0.00 | *
    |        5 |        - |      944 |      944 |       0.01 | *
    |       13 |        - |      933 |      933 |       0.02 | *
    |       17 |        - |      914 |      914 |       0.02 | *
    |       19 |        - |      893 |      893 |       0.03 | *
    |       24 |        - |      886 |      886 |       0.03 | *
    |       25 |        - |      875 |      875 |       0.03 | *
    |       28 |        - |      843 |      843 |       0.03 | *
    |       30 |        - |      840 |      840 |       0.03 | *
    |       31 |        - |      828 |      828 |       0.03 | *
    |       33 |        - |      818 |      818 |       0.03 | *
    |       34 |        - |      815 |      815 |       0.03 | *
    |       42 |        - |      813 |      813 |       0.04 | *
    |       44 |        - |      810 |      810 |       0.04 | *
    |       45 |        - |      807 |      807 |       0.04 | *
    |       46 |        - |      793 |      793 |       0.04 | *
    |       47 |        - |      789 |      789 |       0.04 | *
    |       48 |        - |      770 |      770 |       0.04 | *
    |       56 |        - |      765 |      765 |       0.04 | *
    |       60 |        - |      755 |      755 |       0.04 | *
    |       61 |        - |      740 |      740 |       0.04 | *
    |       65 |        - |      737 |      737 |       0.04 | *
    |       69 |        - |      733 |      733 |       0.04 | *
    |       77 |        - |      730 |      730 |       0.04 | *
    |       78 |        - |      723 |      723 |       0.04 | *
    |       80 |        - |      717 |      717 |       0.04 | *
    |       81 |        - |      714 |      714 |       0.04 | *
    |       85 |        - |      713 |      713 |       0.04 | *
    |       86 |        - |      708 |      708 |       0.05 | *
    |       99 |        - |      699 |      699 |       0.05 | *
    |      100 |        - |      689 |      689 |       0.05 | *
    |      108 |        - |      685 |      685 |       0.05 | *
    |      112 |        - |      681 |      681 |       0.05 | *
    |      115 |        - |      679 |      679 |       0.05 | *
    |      116 |        - |      677 |      677 |       0.05 | *
    |      117 |        - |      666 |      666 |       0.05 | *
    |      121 |        - |      659 |      659 |       0.05 | *
    |      138 |        - |      653 |      653 |       0.05 | *
    |      142 |        - |      650 |      650 |       0.05 | *
    |      144 |        - |      644 |      644 |       0.05 | *
    |      151 |        - |      642 |      642 |       0.05 | *
    |      152 |        - |      641 |      641 |       0.05 | *
    |      158 |        - |      636 |      636 |       0.05 | *
    |      159 |        - |      633 |      633 |       0.06 | *
    |      164 |        - |      629 |      629 |       0.06 | *
    |      169 |        - |      628 |      628 |       0.06 | *
    |      174 |        - |      626 |      626 |       0.06 | *
    |      175 |        - |      625 |      625 |       0.06 | *
    |      178 |        - |      621 |      621 |       0.06 | *
    |      181 |        - |      619 |      619 |       0.06 | *
    |      182 |        - |      616 |      616 |       0.06 | *
    |      184 |        - |      612 |      612 |       0.06 | *
    |      195 |        - |      601 |      601 |       0.06 | *
    |      196 |        - |      597 |      597 |       0.06 | *
    |      197 |        - |      595 |      595 |       0.06 | *
    |      199 |        - |      594 |      594 |       0.06 | *
    |      216 |        - |      592 |      592 |       0.06 | *
    |      222 |        - |      591 |      591 |       0.06 | *
    |      230 |        - |      587 |      587 |       0.06 | *
    |      233 |        - |      584 |      584 |       0.06 | *
    |      234 |        - |      581 |      581 |       0.07 | *
    |      238 |        - |      579 |      579 |       0.07 | *
    |      251 |        - |      572 |      572 |       0.07 | *
    |      258 |        - |      571 |      571 |       0.07 | *
    |      287 |        - |      567 |      567 |       0.07 | *
    |      289 |        - |      563 |      563 |       0.07 | *
    |      291 |        - |      560 |      560 |       0.07 | *
    |      297 |        - |      558 |      558 |       0.07 | *
    |      308 |        - |      553 |      553 |       0.07 | *
    |      314 |        - |      552 |      552 |       0.07 | *
    |      315 |        - |      547 |      547 |       0.08 | *
    |      318 |        - |      544 |      544 |       0.08 | *
    |      319 |        - |      542 |      542 |       0.08 | *
    |      336 |        - |      539 |      539 |       0.08 | *
    |      352 |        - |      538 |      538 |       0.08 | *
    |      353 |        - |      537 |      537 |       0.08 | *
    |      364 |        - |      536 |      536 |       0.08 | *
    |      367 |        - |      535 |      535 |       0.08 | *
    |      370 |        - |      534 |      534 |       0.08 | *
    |      373 |        - |      531 |      531 |       0.08 | *
    |      378 |        - |      529 |      529 |       0.08 | *
    |      390 |        - |      527 |      527 |       0.08 | *
    |      394 |        - |      526 |      526 |       0.09 | *
    |      396 |        - |      525 |      525 |       0.09 | *
    |      405 |        - |      523 |      523 |       0.09 | *
    |      411 |        - |      519 |      519 |       0.09 | *
    |      415 |        - |      518 |      518 |       0.09 | *
    |      437 |        - |      513 |      513 |       0.09 | *
    |      439 |        - |      510 |      510 |       0.09 | *
    |      440 |        - |      509 |      509 |       0.09 | *
    |      459 |        - |      506 |      506 |       0.09 | *
    |      472 |        - |      503 |      503 |       0.09 | *
    |      484 |        - |      500 |      500 |       0.09 | *
    |      488 |        - |      499 |      499 |       0.09 | *
    |      494 |        - |      498 |      498 |       0.10 | *
    |      511 |        - |      494 |      494 |       0.10 | *
    |      538 |        - |      493 |      493 |       0.10 | *
    |      548 |        - |      491 |      491 |       0.10 | *
    |      551 |        - |      490 |      490 |       0.10 | *
    |      561 |        - |      489 |      489 |       0.10 | *
    |      564 |        - |      487 |      487 |       0.10 | *
    |      565 |        - |      485 |      485 |       0.10 | *
    |      573 |        - |      482 |      482 |       0.10 | *
    |      578 |        - |      479 |      479 |       0.10 | *
    |      581 |        - |      478 |      478 |       0.10 | *
    |      605 |        - |      476 |      476 |       0.11 | *
    |      617 |        - |      475 |      475 |       0.11 | *
    |      620 |        - |      471 |      471 |       0.11 | *
    |      623 |        - |      469 |      469 |       0.11 | *
    |      625 |        - |      468 |      468 |       0.11 | *
    |      630 |        - |      467 |      467 |       0.11 | *
    |      640 |        - |      466 |      466 |       0.11 | *
    |      645 |        - |      465 |      465 |       0.11 | *
    |      648 |        - |      462 |      462 |       0.11 | *
    |      652 |        - |      460 |      460 |       0.11 | *
    |      678 |        - |      458 |      458 |       0.11 | *
    |      708 |        - |      457 |      457 |       0.11 | *
    |      709 |        - |      456 |      456 |       0.12 | *
    |      720 |        - |      455 |      455 |       0.12 | *
    |      725 |        - |      454 |      454 |       0.12 | *
    |      736 |        - |      453 |      453 |       0.12 | *
    |      789 |        - |      452 |      452 |       0.12 | *
    |      805 |        - |      450 |      450 |       0.12 | *
    |      834 |        - |      449 |      449 |       0.12 | *
    |      857 |        - |      448 |      448 |       0.12 | *
    |      863 |        - |      445 |      445 |       0.12 | *
    |      876 |        - |      441 |      441 |       0.12 | *
    |      877 |        - |      439 |      439 |       0.12 | *
    |      887 |        - |      438 |      438 |       0.13 | *
    |      894 |        - |      436 |      436 |       0.13 | *
    |      897 |        - |      435 |      435 |       0.13 | *
    |      912 |        - |      430 |      430 |       0.13 | *
    |      915 |        - |      429 |      429 |       0.13 | *
    |      923 |        - |      424 |      424 |       0.13 | *
    |      927 |        - |      421 |      421 |       0.13 | *
    |      929 |        - |      420 |      420 |       0.13 | *
    |      934 |        - |      419 |      419 |       0.14 | *
    |      944 |        - |      417 |      417 |       0.14 | *
    |      981 |        - |      415 |      415 |       0.14 | *
    |      984 |        - |      413 |      413 |       0.14 | *
    |     1025 |        - |      412 |      412 |       0.14 | *
    |     1044 |        - |      410 |      410 |       0.14 | *
    |     1062 |        - |      409 |      409 |       0.14 | *
    |     1119 |        - |      408 |      408 |       0.14 | *
    |     1136 |        - |      407 |      407 |       0.14 | *
    |     1170 |        - |      406 |      406 |       0.14 | *
    |     1203 |        - |      404 |      404 |       0.14 | *
    |     1210 |        - |      403 |      403 |       0.15 | *
    |     1232 |        - |      402 |      402 |       0.15 | *
    |     1246 |        - |      400 |      400 |       0.15 | *
    |     1283 |        - |      399 |      399 |       0.15 | *
    |     1287 |        - |      398 |      398 |       0.15 | *
    |     1344 |        - |      397 |      397 |       0.15 | *
    |     1350 |        - |      396 |      396 |       0.15 | *
    |     1354 |        - |      395 |      395 |       0.15 | *
    |     1385 |        - |      394 |      394 |       0.15 | *
    |     1393 |        - |      393 |      393 |       0.15 | *
    |     1396 |        - |      392 |      392 |       0.15 | *
    |     1416 |        - |      391 |      391 |       0.15 | *
    |     1484 |        - |      390 |      390 |       0.15 | *
    |     1496 |        - |      384 |      384 |       0.16 | *
    |     1515 |        - |      383 |      383 |       0.16 | *
    |     1520 |        - |      382 |      382 |       0.16 | *
    |     1532 |        - |      381 |      381 |       0.16 | *
    |     1547 |        - |      380 |      380 |       0.16 | *
    |     1569 |        - |      379 |      379 |       0.16 | *
    |     1572 |        - |      376 |      376 |       0.16 | *
    |     1597 |        - |      375 |      375 |       0.16 | *
    |     1598 |        - |      373 |      373 |       0.16 | *
    |     1632 |        - |      372 |      372 |       0.16 | *
    |     1747 |        - |      370 |      370 |       0.16 | *
    |     1765 |        - |      369 |      369 |       0.16 | *
    |     1769 |        - |      366 |      366 |       0.16 | *
    |     1779 |        - |      365 |      365 |       0.17 | *
    |     1801 |        - |      364 |      364 |       0.17 | *
    |     1806 |        - |      363 |      363 |       0.17 | *
    |     1826 |        - |      362 |      362 |       0.17 | *
    |     1855 |        - |      361 |      361 |       0.17 | *
    |     1856 |        - |      360 |      360 |       0.17 | *
    |     1869 |        - |      359 |      359 |       0.17 | *
    |     1878 |        - |      358 |      358 |       0.17 | *
    |     1915 |        - |      357 |      357 |       0.17 | *
    |     1940 |        - |      355 |      355 |       0.17 | *
    |     1954 |        - |      353 |      353 |       0.17 | *
    |     1991 |        - |      350 |      350 |       0.17 | *
    |     2001 |        - |      349 |      349 |       0.17 | *
    |     2010 |        - |      346 |      346 |       0.17 | *
    |     2027 |        - |      345 |      345 |       0.17 | *
    |     2046 |        - |      344 |      344 |       0.17 | *
    |     2052 |        - |      343 |      343 |       0.18 | *
    |     2053 |        - |      342 |      342 |       0.18 | *
    |     2088 |        - |      340 |      340 |       0.18 | *
    |     2100 |        - |      339 |      339 |       0.18 | *
    |     2177 |        - |      337 |      337 |       0.18 | *
    |     2178 |        - |      336 |      336 |       0.18 | *
    |     2193 |        - |      335 |      335 |       0.18 | *
    |     2254 |        - |      333 |      333 |       0.18 | *
    |     2269 |        - |      332 |      332 |       0.18 | *
    |     2286 |        - |      330 |      330 |       0.18 | *
    |     2287 |        - |      329 |      329 |       0.18 | *
    |     2296 |        - |      327 |      327 |       0.18 | *
    |     2301 |        - |      326 |      326 |       0.18 | *
    |     2321 |        - |      324 |      324 |       0.18 | *
    |     2336 |        - |      322 |      322 |       0.18 | *
    |     2340 |        - |      320 |      320 |       0.18 | *
    |     2343 |        - |      319 |      319 |       0.19 | *
    |     2369 |        - |      317 |      317 |       0.19 | *
    |     2407 |        - |      316 |      316 |       0.19 | *
    |     2445 |        - |      313 |      313 |       0.19 | *
    |     2469 |        - |      312 |      312 |       0.19 | *
    |     2480 |        - |      311 |      311 |       0.19 | *
    |     2496 |        - |      310 |      310 |       0.19 | *
    |     2516 |        - |      309 |      309 |       0.19 | *
    |     2728 |        - |      308 |      308 |       0.19 | *
    |     2766 |        - |      307 |      307 |       0.19 | *
    |     2812 |        - |      306 |      306 |       0.19 | *
    |     2870 |        - |      305 |      305 |       0.19 | *
    |     2878 |        - |      304 |      304 |       0.19 | *
    |     2891 |        - |      303 |      303 |       0.20 | *
    |     3034 |        - |      302 |      302 |       0.20 | *
    |     3105 |        - |      301 |      301 |       0.20 | *
    |     3122 |        - |      300 |      300 |       0.20 | *
    |     3138 |        - |      299 |      299 |       0.20 | *
    |     3238 |        - |      295 |      295 |       0.20 | *
    |     3248 |        - |      294 |      294 |       0.20 | *
    |     3320 |        - |      292 |      292 |       0.20 | *
    |     3345 |        - |      291 |      291 |       0.20 | *
    |     3365 |        - |      289 |      289 |       0.20 | *
    |     3367 |        - |      288 |      288 |       0.20 | *
    |     3431 |        - |      287 |      287 |       0.20 | *
    |     3622 |        - |      286 |      286 |       0.21 | *
    |     3666 |        - |      284 |      284 |       0.21 | *
    |     3705 |        - |      283 |      283 |       0.21 | *
    |     3734 |        - |      281 |      281 |       0.21 | *
    |     3741 |        - |      280 |      280 |       0.21 | *
    |     3747 |        - |      279 |      279 |       0.21 | *
    |     3759 |        - |      277 |      277 |       0.21 | *
    |     3768 |        - |      275 |      275 |       0.21 | *
    |     3799 |        - |      273 |      273 |       0.21 | *
    |     3814 |        - |      272 |      272 |       0.21 | *
    |     3912 |        - |      271 |      271 |       0.21 | *
    |     4048 |        - |      270 |      270 |       0.21 | *
    |     4300 |        - |      269 |      269 |       0.21 | *
    |     4308 |        - |      268 |      268 |       0.22 | *
    |     4353 |        - |      267 |      267 |       0.22 | *
    |     4517 |        - |      266 |      266 |       0.22 | *
    |     4548 |        - |      265 |      265 |       0.22 | *
    |     4597 |        - |      264 |      264 |       0.22 | *
    |     4629 |        - |      263 |      263 |       0.22 | *
    |     4790 |        - |      261 |      261 |       0.22 | *
    |     5272 |        - |      259 |      259 |       0.22 | *
    |     5285 |        - |      258 |      258 |       0.22 | *
    |     5300 |        - |      257 |      257 |       0.22 | *
    |     5381 |        - |      256 |      256 |       0.23 | *
    |     5397 |        - |      255 |      255 |       0.23 | *
    |     5464 |        - |      254 |      254 |       0.23 | *
    |     5496 |        - |      253 |      253 |       0.23 | *
    |     5682 |        - |      252 |      252 |       0.23 | *
    |     5720 |        - |      251 |      251 |       0.23 | *
    |     5908 |        - |      250 |      250 |       0.23 | *
    |     6105 |        - |      249 |      249 |       0.23 | *
    |     6216 |        - |      248 |      248 |       0.23 | *
    |     6335 |        - |      247 |      247 |       0.23 | *
    |     6546 |        - |      246 |      246 |       0.23 | *
    |     6563 |        - |      245 |      245 |       0.23 | *
    |     6640 |        - |      244 |      244 |       0.23 | *
    |     6796 |        - |      243 |      243 |       0.24 | *
    |     6800 |        - |      242 |      242 |       0.24 | *
    |     7075 |        - |      241 |      241 |       0.24 | *
    |     7175 |        - |      240 |      240 |       0.24 | *
    |     7273 |        - |      238 |      238 |       0.24 | *
    |     7643 |        - |      236 |      236 |       0.24 | *
    |     7665 |        - |      235 |      235 |       0.24 | *
    |     7690 |        - |      234 |      234 |       0.24 | *
    |     7746 |        - |      233 |      233 |       0.24 | *
    |     7938 |        - |      232 |      232 |       0.24 | *
    |     7983 |        - |      231 |      231 |       0.24 | *
    |     8170 |        - |      230 |      230 |       0.25 | *
    |     8233 |        - |      229 |      229 |       0.25 | *
    |     8268 |        - |      228 |      228 |       0.25 | *
    |     8565 |        - |      227 |      227 |       0.25 | *
    |     8570 |        - |      225 |      225 |       0.25 | *
    |     8622 |        - |      224 |      224 |       0.25 | *
    |     8687 |        - |      221 |      221 |       0.25 | *
    |     8698 |        - |      219 |      219 |       0.25 | *
    |     8729 |        - |      218 |      218 |       0.25 | *
    |     8893 |        - |      216 |      216 |       0.25 | *
    |     9044 |        - |      214 |      214 |       0.25 | *
    |     9152 |        - |      213 |      213 |       0.25 | *
    |     9267 |        - |      212 |      212 |       0.25 | *
    |     9299 |        - |      211 |      211 |       0.25 | *
    |     9425 |        - |      209 |      209 |       0.26 | *
    |     9507 |        - |      208 |      208 |       0.26 | *
    |     9964 |        - |      207 |      207 |       0.26 | *
    |      10K |        - |      206 |      206 |       0.26 | *
    |      10K |        - |      205 |      205 |       0.26 | *
    |      10K |        - |      204 |      204 |       0.26 | *
    |      10K |        - |      202 |      202 |       0.26 | *
    |      10K |        - |      201 |      201 |       0.26 | *
    |      11K |        - |      200 |      200 |       0.26 | *
    |      11K |        - |      198 |      198 |       0.27 | *
    |      11K |        - |      197 |      197 |       0.27 | *
    |      11K |        - |      196 |      196 |       0.28 | *
    |      11K |        - |      195 |      195 |       0.28 | *
    |      11K |        - |      194 |      194 |       0.28 | *
    |      12K |        - |      193 |      193 |       0.28 | *
    |      12K |        - |      192 |      192 |       0.28 | *
    |      12K |        - |      191 |      191 |       0.28 | *
    |      12K |        - |      190 |      190 |       0.28 | *
    |      12K |        - |      189 |      189 |       0.28 | *
    |      12K |        - |      188 |      188 |       0.28 | *
    |      13K |        - |      187 |      187 |       0.28 | *
    |      13K |        - |      186 |      186 |       0.29 | *
    |      13K |        - |      185 |      185 |       0.29 | *
    |      13K |        - |      184 |      184 |       0.29 | *
    |      14K |        - |      182 |      182 |       0.29 | *
    |      14K |        - |      181 |      181 |       0.29 | *
    |      14K |        - |      180 |      180 |       0.29 | *
    |      14K |        - |      179 |      179 |       0.29 | *
    |      14K |        - |      178 |      178 |       0.29 | *
    |      17K |        - |      177 |      177 |       0.30 | *
    |      17K |        - |      176 |      176 |       0.30 | *
    |      17K |        - |      175 |      175 |       0.30 | *
    |      19K |        - |      174 |      174 |       0.31 | *
    |      19K |        - |      173 |      173 |       0.31 | *
    |      20K |        - |      172 |      172 |       0.31 | *
    |      21K |        - |      171 |      171 |       0.31 | *
    |      21K |        - |      170 |      170 |       0.31 | *
    |      21K |        - |      169 |      169 |       0.32 | *
    |      21K |        - |      168 |      168 |       0.32 | *
    |      21K |        - |      166 |      166 |       0.32 | *
    |      22K |        - |      165 |      165 |       0.32 | *
    |      22K |        - |      164 |      164 |       0.32 | *
    |      22K |        - |      163 |      163 |       0.32 | *
    |      27K |        - |      162 |      162 |       0.33 | *
    |      27K |        - |      161 |      161 |       0.33 | *
    |      27K |        - |      160 |      160 |       0.33 | *
    |      29K |        - |      159 |      159 |       0.34 | *
    |      29K |        - |      158 |      158 |       0.34 | *
    |      29K |        - |      157 |      157 |       0.34 | *
    |      32K |        - |      156 |      156 |       0.35 | *
    |      33K |        - |      155 |      155 |       0.35 | *
    |      33K |        - |      154 |      154 |       0.35 | *
    |      33K |        - |      153 |      153 |       0.35 | *
    |      34K |        - |      152 |      152 |       0.35 | *
    |      35K |        - |      151 |      151 |       0.36 | *
    |      35K |        - |      150 |      150 |       0.36 | *
    |      38K |        - |      149 |      149 |       0.36 | *
    |      38K |        - |      148 |      148 |       0.37 | *
    |      40K |        - |      147 |      147 |       0.37 | *
    |      40K |        - |      146 |      146 |       0.37 | *
    |      43K |        - |      145 |      145 |       0.38 | *
    |      44K |        - |      144 |      144 |       0.38 | *
    |      45K |        - |      143 |      143 |       0.38 | *
    |      46K |        - |      142 |      142 |       0.39 | *
    |      47K |        - |      141 |      141 |       0.39 | *
    |      50K |        - |      140 |      140 |       0.40 | *
    |      51K |        - |      139 |      139 |       0.40 | *
    |      51K |        - |      138 |      138 |       0.40 | *
    |      59K |        - |      137 |      137 |       0.42 | *
    |      59K |        - |      136 |      136 |       0.42 | *
    |      59K |        - |      135 |      135 |       0.42 | *
    |      62K |        - |      134 |      134 |       0.42 | *
    |      66K |        - |      133 |      133 |       0.43 | *
    |      67K |        - |      132 |      132 |       0.43 | *
    |      68K |        - |      131 |      131 |       0.43 | *
    |      69K |        - |      130 |      130 |       0.43 | *
    |      75K |        - |      129 |      129 |       0.44 | *
    |      76K |        - |      128 |      128 |       0.44 | *
    |      76K |        - |      127 |      127 |       0.44 | *
    |      79K |        - |      126 |      126 |       0.44 | *
    |      82K |        - |      125 |      125 |       0.45 | *
    |      90K |        - |      124 |      124 |       0.45 | *
    |      94K |        - |      123 |      123 |       0.46 | *
    |      99K |        - |      122 |      122 |       0.46 | *
    |     104K |        - |      121 |      121 |       0.47 | *
    |     106K |        - |      120 |      120 |       0.47 | *
    |     109K |        - |      119 |      119 |       0.47 | *
    |     116K |        - |      118 |      118 |       0.48 | *
    |     119K |        - |      117 |      117 |       0.48 | *
    |     124K |        - |      116 |      116 |       0.49 | *
    |     128K |        - |      115 |      115 |       0.49 | *
    |     128K |        - |      114 |      114 |       0.49 | *
    |     129K |        - |      113 |      113 |       0.49 | *
    |     130K |        - |      112 |      112 |       0.50 | *
    |     137K |        - |      111 |      111 |       0.51 | *
    |     158K |        - |      110 |      110 |       0.54 | *
    |     173K |        - |      109 |      109 |       0.57 | *
    |     219K |        - |      108 |      108 |       0.67 | *
    |     275K |        - |      107 |      107 |       0.83 | *
    |     305K |        - |      106 |      106 |       0.92 | *
    |     306K |        - |      105 |      105 |       0.92 | *
    |     314K |        - |      104 |      104 |       0.94 | *
    |     314K |        - |      103 |      103 |       0.95 | *
    |     315K |        - |      102 |      102 |       0.95 | *
    |     325K |        - |      101 |      101 |       0.98 | *
    |     407K |        - |      100 |      100 |       1.19 | *
    |     528K |        - |       99 |       99 |       1.35 | *
    |     562K |        - |       98 |       98 |       1.41 | *
    |     568K |        - |       97 |       97 |       1.42 | *
    |     581K |        - |       96 |       96 |       1.43 | *
    |    2076K |        - |       95 |       95 |       2.74 | *
    |    2740K |        - |       94 |       94 |       3.27 | *
    |    2748K |        - |       93 |       93 |       3.28 | *
    |    2922K |        - |       92 |       92 |       3.41 | *
    |    4208K |        - |       91 |       91 |       4.57 | *
    |    4240K |        - |       90 |       90 |       4.61 | *
    |    4242K |        - |       89 |       89 |       4.61 | *
    |      11M |        - |       88 |       88 |      11.80 | *
    |      11M |        - |       87 |       87 |      11.91 | *
    |      22M |        - |       86 |       86 |      22.50 | *
    |      47M |        - |       85 |       85 |      43.50 | *
    |      59M |        - |       84 |       84 |      52.83 | *
    |     121M |        - |       83 |       83 |     101.05 | *
    |     123M |        - |       82 |       82 |     102.69 | *
    |     149M |        - |       81 |       81 |     122.09 | *
    |     245M |        - |       80 |       80 |     196.17 | *
    |     283M |        - |       79 |       79 |     224.91 | *
    |     288M |        - |       78 |       78 |     229.06 | *
    |     390M |        - |       77 |       77 |     307.04 | *
    |     391M |        - |       76 |       76 |     307.77 | *
    |     462M |        - |       75 |       75 |     361.92 | *
    |     555M |        - |       74 |       74 |     432.42 | *
    |     612M |        - |       73 |       73 |     475.69 | *
    |     715M |        - |       72 |       72 |     553.86 | *
    |     910M |        - |       71 |       71 |     701.70 | *
    |     916M |        - |       70 |       70 |     706.11 | *
    |     938M |        - |       69 |       69 |     722.78 | *
    |     952M |        - |       68 |       68 |     733.22 | *
    \--------------------------------------------------------/

Neighborhoods statistics (values in %):

    /----------------------------------------------------------------\
    | Move               | Improvs. | Sideways |  Accepts |  Rejects |
    |--------------------|----------|----------|----------|----------|
    | Shift(mk)          |      54K |     297K |     370K |     201M |
    | Shift              |     1802 |    1903K |    1948K |     199M |
    | ShiftSmart(mk)     |     333K |    1997K |    2447K |     199M |
    | ShiftSmart         |      11K |      10M |      10M |     190M |
    | SimpSwap(mk)       |      227 |      778 |     1142 |     201M |
    | SimpSwap           |       12 |     2967 |     3256 |     201M |
    | SimpSwapSmart(mk)  |     1783 |     5123 |     7777 |     201M |
    | SimpSwapSmart      |      128 |      20K |      22K |     201M |
    | Swap(mk)           |       89 |      255 |      386 |     201M |
    | Swap               |        5 |      882 |      965 |     201M |
    | SwapSmart(mk)      |     1920 |     7474 |      10K |     201M |
    | SwapSmart          |      142 |      21K |      23K |     201M |
    | Switch(mk)         |      18K |      24M |      24M |     177M |
    | Switch             |      599 |      26M |      26M |     176M |
    | SwitchSmart(mk)    |     106K |     434K |     572K |     201M |
    | SwitchSmart        |     3458 |    2392K |    2470K |     199M |
    | TaskMove(mk)       |     3047 |      10K |      15K |     201M |
    | TaskMove           |      106 |      24K |      26K |     201M |
    | TaskMoveSmart(mk)  |      20K |      70K |     100K |     201M |
    | TaskMoveSmart      |      792 |     165K |     178K |     201M |
    | 2-Shift(mk)        |      20K |    3433K |    3459K |     198M |
    | 2-Shift            |      671 |    4509K |    4526K |     197M |
    | 2-ShiftSmart(mk)   |     127K |    5075K |    5231K |     196M |
    | 2-ShiftSmart       |     4213 |    9146K |    9219K |     192M |
    \----------------------------------------------------------------/

Best makespan.....: 68
N. of Iterations..: 4824919549
Total runtime.....: 3600.02s
Using Python-MIP package version 1.6.8
Começo a execução
    /-------------------------------------------------------------------------------\
    |    Makespan   |   Free Jobs   | Free Machines |    It. Time   |   Total Time  | 
    |-------------------------------------------------------------------------------|
    \-------------------------------------------------------------------------------/
Terminou a execução
