Instance....: instances/I_250_15_S_1-9_10.txt
Algorithm...: Simulated Annealing (alpha=0.990, saMax=10M, t0=1)
Other params: maxIters=100M, seed=-1, timeLimit=3600.00s

    /--------------------------------------------------------\
    |     Iter |   RDP(%) |       S* |       S' |       Time | 
    |----------|----------|----------|----------|------------|
    |        0 |        - |     1175 |     1175 |       0.00 | s0
    |        3 |        - |     1162 |     1162 |       0.01 | *
    |        8 |        - |     1159 |     1159 |       0.02 | *
    |       10 |        - |     1103 |     1103 |       0.02 | *
    |       28 |        - |     1097 |     1097 |       0.03 | *
    |       29 |        - |     1094 |     1094 |       0.03 | *
    |       30 |        - |     1064 |     1064 |       0.03 | *
    |       35 |        - |     1040 |     1040 |       0.03 | *
    |       43 |        - |     1038 |     1038 |       0.03 | *
    |       44 |        - |     1037 |     1037 |       0.03 | *
    |       45 |        - |     1036 |     1036 |       0.03 | *
    |       47 |        - |     1035 |     1035 |       0.04 | *
    |       55 |        - |     1029 |     1029 |       0.04 | *
    |       56 |        - |     1020 |     1020 |       0.04 | *
    |       58 |        - |     1019 |     1019 |       0.04 | *
    |       61 |        - |     1015 |     1015 |       0.04 | *
    |       67 |        - |     1004 |     1004 |       0.04 | *
    |       72 |        - |     1002 |     1002 |       0.04 | *
    |       73 |        - |     1001 |     1001 |       0.04 | *
    |       74 |        - |     1000 |     1000 |       0.04 | *
    |       76 |        - |      995 |      995 |       0.04 | *
    |       77 |        - |      994 |      994 |       0.04 | *
    |       80 |        - |      992 |      992 |       0.04 | *
    |       82 |        - |      985 |      985 |       0.04 | *
    |       83 |        - |      976 |      976 |       0.04 | *
    |       87 |        - |      970 |      970 |       0.05 | *
    |       88 |        - |      966 |      966 |       0.05 | *
    |       93 |        - |      952 |      952 |       0.05 | *
    |       95 |        - |      948 |      948 |       0.05 | *
    |      113 |        - |      946 |      946 |       0.05 | *
    |      114 |        - |      940 |      940 |       0.05 | *
    |      116 |        - |      937 |      937 |       0.05 | *
    |      123 |        - |      936 |      936 |       0.05 | *
    |      125 |        - |      934 |      934 |       0.05 | *
    |      137 |        - |      925 |      925 |       0.05 | *
    |      144 |        - |      918 |      918 |       0.05 | *
    |      145 |        - |      914 |      914 |       0.05 | *
    |      147 |        - |      908 |      908 |       0.05 | *
    |      148 |        - |      906 |      906 |       0.05 | *
    |      149 |        - |      905 |      905 |       0.05 | *
    |      152 |        - |      897 |      897 |       0.06 | *
    |      154 |        - |      893 |      893 |       0.06 | *
    |      163 |        - |      882 |      882 |       0.06 | *
    |      176 |        - |      875 |      875 |       0.06 | *
    |      180 |        - |      868 |      868 |       0.06 | *
    |      185 |        - |      867 |      867 |       0.06 | *
    |      192 |        - |      865 |      865 |       0.06 | *
    |      198 |        - |      860 |      860 |       0.06 | *
    |      201 |        - |      857 |      857 |       0.06 | *
    |      207 |        - |      853 |      853 |       0.06 | *
    |      209 |        - |      850 |      850 |       0.06 | *
    |      214 |        - |      847 |      847 |       0.06 | *
    |      218 |        - |      842 |      842 |       0.06 | *
    |      221 |        - |      841 |      841 |       0.06 | *
    |      223 |        - |      832 |      832 |       0.07 | *
    |      233 |        - |      827 |      827 |       0.07 | *
    |      235 |        - |      826 |      826 |       0.07 | *
    |      240 |        - |      825 |      825 |       0.07 | *
    |      248 |        - |      823 |      823 |       0.07 | *
    |      249 |        - |      821 |      821 |       0.07 | *
    |      251 |        - |      817 |      817 |       0.07 | *
    |      260 |        - |      814 |      814 |       0.07 | *
    |      262 |        - |      813 |      813 |       0.07 | *
    |      264 |        - |      811 |      811 |       0.07 | *
    |      266 |        - |      804 |      804 |       0.07 | *
    |      268 |        - |      803 |      803 |       0.07 | *
    |      280 |        - |      802 |      802 |       0.07 | *
    |      282 |        - |      801 |      801 |       0.07 | *
    |      283 |        - |      798 |      798 |       0.07 | *
    |      286 |        - |      797 |      797 |       0.08 | *
    |      291 |        - |      792 |      792 |       0.08 | *
    |      296 |        - |      787 |      787 |       0.08 | *
    |      298 |        - |      785 |      785 |       0.08 | *
    |      300 |        - |      782 |      782 |       0.08 | *
    |      303 |        - |      780 |      780 |       0.08 | *
    |      313 |        - |      779 |      779 |       0.08 | *
    |      314 |        - |      778 |      778 |       0.08 | *
    |      315 |        - |      777 |      777 |       0.08 | *
    |      319 |        - |      775 |      775 |       0.08 | *
    |      320 |        - |      773 |      773 |       0.08 | *
    |      322 |        - |      770 |      770 |       0.08 | *
    |      352 |        - |      769 |      769 |       0.08 | *
    |      354 |        - |      768 |      768 |       0.08 | *
    |      362 |        - |      767 |      767 |       0.08 | *
    |      373 |        - |      760 |      760 |       0.08 | *
    |      377 |        - |      759 |      759 |       0.09 | *
    |      398 |        - |      755 |      755 |       0.09 | *
    |      412 |        - |      747 |      747 |       0.09 | *
    |      415 |        - |      746 |      746 |       0.09 | *
    |      422 |        - |      740 |      740 |       0.09 | *
    |      435 |        - |      733 |      733 |       0.09 | *
    |      436 |        - |      729 |      729 |       0.09 | *
    |      440 |        - |      725 |      725 |       0.09 | *
    |      444 |        - |      724 |      724 |       0.09 | *
    |      449 |        - |      721 |      721 |       0.09 | *
    |      458 |        - |      719 |      719 |       0.09 | *
    |      467 |        - |      712 |      712 |       0.09 | *
    |      471 |        - |      709 |      709 |       0.09 | *
    |      472 |        - |      708 |      708 |       0.09 | *
    |      475 |        - |      707 |      707 |       0.09 | *
    |      481 |        - |      705 |      705 |       0.09 | *
    |      498 |        - |      704 |      704 |       0.09 | *
    |      503 |        - |      703 |      703 |       0.09 | *
    |      509 |        - |      702 |      702 |       0.09 | *
    |      520 |        - |      699 |      699 |       0.10 | *
    |      524 |        - |      696 |      696 |       0.10 | *
    |      525 |        - |      695 |      695 |       0.10 | *
    |      533 |        - |      693 |      693 |       0.10 | *
    |      535 |        - |      683 |      683 |       0.10 | *
    |      539 |        - |      680 |      680 |       0.10 | *
    |      549 |        - |      678 |      678 |       0.10 | *
    |      550 |        - |      677 |      677 |       0.10 | *
    |      555 |        - |      676 |      676 |       0.10 | *
    |      562 |        - |      674 |      674 |       0.10 | *
    |      565 |        - |      671 |      671 |       0.10 | *
    |      590 |        - |      669 |      669 |       0.10 | *
    |      593 |        - |      667 |      667 |       0.10 | *
    |      601 |        - |      663 |      663 |       0.10 | *
    |      603 |        - |      662 |      662 |       0.10 | *
    |      605 |        - |      661 |      661 |       0.10 | *
    |      614 |        - |      659 |      659 |       0.10 | *
    |      631 |        - |      658 |      658 |       0.11 | *
    |      633 |        - |      657 |      657 |       0.11 | *
    |      634 |        - |      655 |      655 |       0.11 | *
    |      653 |        - |      652 |      652 |       0.11 | *
    |      664 |        - |      650 |      650 |       0.11 | *
    |      668 |        - |      649 |      649 |       0.11 | *
    |      670 |        - |      645 |      645 |       0.11 | *
    |      671 |        - |      644 |      644 |       0.11 | *
    |      677 |        - |      641 |      641 |       0.11 | *
    |      682 |        - |      640 |      640 |       0.11 | *
    |      683 |        - |      639 |      639 |       0.11 | *
    |      721 |        - |      635 |      635 |       0.11 | *
    |      731 |        - |      633 |      633 |       0.12 | *
    |      742 |        - |      622 |      622 |       0.12 | *
    |      751 |        - |      621 |      621 |       0.12 | *
    |      756 |        - |      620 |      620 |       0.12 | *
    |      770 |        - |      619 |      619 |       0.12 | *
    |      778 |        - |      616 |      616 |       0.12 | *
    |      779 |        - |      615 |      615 |       0.12 | *
    |      780 |        - |      606 |      606 |       0.12 | *
    |      791 |        - |      604 |      604 |       0.12 | *
    |      816 |        - |      598 |      598 |       0.12 | *
    |      817 |        - |      595 |      595 |       0.12 | *
    |      820 |        - |      592 |      592 |       0.12 | *
    |      823 |        - |      589 |      589 |       0.12 | *
    |      825 |        - |      587 |      587 |       0.12 | *
    |      834 |        - |      586 |      586 |       0.13 | *
    |      839 |        - |      585 |      585 |       0.13 | *
    |      853 |        - |      584 |      584 |       0.13 | *
    |      854 |        - |      583 |      583 |       0.13 | *
    |      859 |        - |      582 |      582 |       0.13 | *
    |      861 |        - |      581 |      581 |       0.13 | *
    |      862 |        - |      580 |      580 |       0.13 | *
    |      865 |        - |      579 |      579 |       0.13 | *
    |      884 |        - |      577 |      577 |       0.13 | *
    |      885 |        - |      576 |      576 |       0.13 | *
    |      888 |        - |      574 |      574 |       0.13 | *
    |      896 |        - |      572 |      572 |       0.13 | *
    |      901 |        - |      570 |      570 |       0.13 | *
    |      912 |        - |      569 |      569 |       0.13 | *
    |      919 |        - |      568 |      568 |       0.13 | *
    |      949 |        - |      567 |      567 |       0.13 | *
    |      950 |        - |      566 |      566 |       0.13 | *
    |      951 |        - |      564 |      564 |       0.13 | *
    |      955 |        - |      561 |      561 |       0.14 | *
    |      978 |        - |      560 |      560 |       0.14 | *
    |      986 |        - |      559 |      559 |       0.14 | *
    |      994 |        - |      558 |      558 |       0.14 | *
    |     1003 |        - |      554 |      554 |       0.14 | *
    |     1010 |        - |      552 |      552 |       0.14 | *
    |     1044 |        - |      550 |      550 |       0.14 | *
    |     1114 |        - |      549 |      549 |       0.14 | *
    |     1124 |        - |      546 |      546 |       0.14 | *
    |     1134 |        - |      544 |      544 |       0.14 | *
    |     1151 |        - |      540 |      540 |       0.14 | *
    |     1153 |        - |      537 |      537 |       0.14 | *
    |     1156 |        - |      536 |      536 |       0.14 | *
    |     1173 |        - |      534 |      534 |       0.14 | *
    |     1176 |        - |      533 |      533 |       0.14 | *
    |     1186 |        - |      531 |      531 |       0.14 | *
    |     1189 |        - |      529 |      529 |       0.14 | *
    |     1203 |        - |      528 |      528 |       0.14 | *
    |     1205 |        - |      527 |      527 |       0.14 | *
    |     1214 |        - |      526 |      526 |       0.15 | *
    |     1221 |        - |      524 |      524 |       0.15 | *
    |     1231 |        - |      522 |      522 |       0.15 | *
    |     1236 |        - |      520 |      520 |       0.15 | *
    |     1237 |        - |      518 |      518 |       0.15 | *
    |     1251 |        - |      517 |      517 |       0.15 | *
    |     1268 |        - |      515 |      515 |       0.15 | *
    |     1270 |        - |      510 |      510 |       0.15 | *
    |     1272 |        - |      509 |      509 |       0.15 | *
    |     1273 |        - |      503 |      503 |       0.15 | *
    |     1277 |        - |      501 |      501 |       0.15 | *
    |     1286 |        - |      500 |      500 |       0.15 | *
    |     1294 |        - |      499 |      499 |       0.15 | *
    |     1306 |        - |      498 |      498 |       0.15 | *
    |     1309 |        - |      497 |      497 |       0.15 | *
    |     1314 |        - |      496 |      496 |       0.15 | *
    |     1333 |        - |      495 |      495 |       0.15 | *
    |     1334 |        - |      492 |      492 |       0.15 | *
    |     1337 |        - |      490 |      490 |       0.15 | *
    |     1350 |        - |      482 |      482 |       0.16 | *
    |     1358 |        - |      479 |      479 |       0.16 | *
    |     1374 |        - |      476 |      476 |       0.16 | *
    |     1377 |        - |      475 |      475 |       0.16 | *
    |     1390 |        - |      471 |      471 |       0.16 | *
    |     1405 |        - |      470 |      470 |       0.16 | *
    |     1412 |        - |      468 |      468 |       0.16 | *
    |     1419 |        - |      466 |      466 |       0.16 | *
    |     1421 |        - |      465 |      465 |       0.16 | *
    |     1428 |        - |      464 |      464 |       0.16 | *
    |     1451 |        - |      463 |      463 |       0.16 | *
    |     1463 |        - |      462 |      462 |       0.16 | *
    |     1486 |        - |      461 |      461 |       0.16 | *
    |     1491 |        - |      460 |      460 |       0.16 | *
    |     1493 |        - |      459 |      459 |       0.16 | *
    |     1505 |        - |      458 |      458 |       0.16 | *
    |     1535 |        - |      456 |      456 |       0.16 | *
    |     1537 |        - |      455 |      455 |       0.16 | *
    |     1548 |        - |      454 |      454 |       0.16 | *
    |     1558 |        - |      450 |      450 |       0.16 | *
    |     1595 |        - |      447 |      447 |       0.16 | *
    |     1607 |        - |      446 |      446 |       0.16 | *
    |     1655 |        - |      444 |      444 |       0.16 | *
    |     1659 |        - |      441 |      441 |       0.16 | *
    |     1683 |        - |      437 |      437 |       0.17 | *
    |     1690 |        - |      436 |      436 |       0.17 | *
    |     1695 |        - |      435 |      435 |       0.17 | *
    |     1703 |        - |      434 |      434 |       0.17 | *
    |     1705 |        - |      432 |      432 |       0.17 | *
    |     1721 |        - |      430 |      430 |       0.17 | *
    |     1740 |        - |      429 |      429 |       0.17 | *
    |     1741 |        - |      428 |      428 |       0.17 | *
    |     1771 |        - |      427 |      427 |       0.17 | *
    |     1782 |        - |      426 |      426 |       0.17 | *
    |     1789 |        - |      424 |      424 |       0.17 | *
    |     1795 |        - |      423 |      423 |       0.17 | *
    |     1826 |        - |      422 |      422 |       0.17 | *
    |     1835 |        - |      421 |      421 |       0.17 | *
    |     1839 |        - |      420 |      420 |       0.17 | *
    |     1848 |        - |      419 |      419 |       0.17 | *
    |     1852 |        - |      418 |      418 |       0.17 | *
    |     1855 |        - |      415 |      415 |       0.17 | *
    |     1900 |        - |      409 |      409 |       0.17 | *
    |     1942 |        - |      408 |      408 |       0.17 | *
    |     1947 |        - |      407 |      407 |       0.17 | *
    |     1958 |        - |      406 |      406 |       0.17 | *
    |     2003 |        - |      404 |      404 |       0.17 | *
    |     2073 |        - |      402 |      402 |       0.17 | *
    |     2085 |        - |      401 |      401 |       0.18 | *
    |     2096 |        - |      398 |      398 |       0.18 | *
    |     2112 |        - |      397 |      397 |       0.18 | *
    |     2117 |        - |      396 |      396 |       0.18 | *
    |     2127 |        - |      395 |      395 |       0.18 | *
    |     2301 |        - |      394 |      394 |       0.18 | *
    |     2307 |        - |      393 |      393 |       0.18 | *
    |     2357 |        - |      391 |      391 |       0.18 | *
    |     2392 |        - |      390 |      390 |       0.18 | *
    |     2404 |        - |      389 |      389 |       0.18 | *
    |     2429 |        - |      388 |      388 |       0.18 | *
    |     2453 |        - |      387 |      387 |       0.18 | *
    |     2482 |        - |      386 |      386 |       0.18 | *
    |     2556 |        - |      385 |      385 |       0.18 | *
    |     2572 |        - |      384 |      384 |       0.18 | *
    |     2580 |        - |      383 |      383 |       0.18 | *
    |     2614 |        - |      382 |      382 |       0.18 | *
    |     2618 |        - |      381 |      381 |       0.18 | *
    |     2640 |        - |      380 |      380 |       0.18 | *
    |     2678 |        - |      379 |      379 |       0.18 | *
    |     2684 |        - |      378 |      378 |       0.18 | *
    |     2751 |        - |      377 |      377 |       0.19 | *
    |     2753 |        - |      376 |      376 |       0.19 | *
    |     2816 |        - |      372 |      372 |       0.19 | *
    |     2859 |        - |      370 |      370 |       0.19 | *
    |     2861 |        - |      369 |      369 |       0.19 | *
    |     2905 |        - |      368 |      368 |       0.19 | *
    |     2930 |        - |      367 |      367 |       0.19 | *
    |     2965 |        - |      366 |      366 |       0.19 | *
    |     2987 |        - |      365 |      365 |       0.19 | *
    |     2992 |        - |      364 |      364 |       0.19 | *
    |     3037 |        - |      360 |      360 |       0.19 | *
    |     3043 |        - |      359 |      359 |       0.19 | *
    |     3072 |        - |      358 |      358 |       0.19 | *
    |     3073 |        - |      357 |      357 |       0.19 | *
    |     3086 |        - |      355 |      355 |       0.19 | *
    |     3107 |        - |      354 |      354 |       0.19 | *
    |     3118 |        - |      352 |      352 |       0.19 | *
    |     3123 |        - |      351 |      351 |       0.19 | *
    |     3131 |        - |      350 |      350 |       0.19 | *
    |     3146 |        - |      349 |      349 |       0.19 | *
    |     3184 |        - |      348 |      348 |       0.20 | *
    |     3185 |        - |      346 |      346 |       0.20 | *
    |     3198 |        - |      345 |      345 |       0.20 | *
    |     3224 |        - |      344 |      344 |       0.20 | *
    |     3381 |        - |      343 |      343 |       0.20 | *
    |     3387 |        - |      342 |      342 |       0.20 | *
    |     3396 |        - |      340 |      340 |       0.20 | *
    |     3443 |        - |      339 |      339 |       0.20 | *
    |     3469 |        - |      338 |      338 |       0.20 | *
    |     3495 |        - |      337 |      337 |       0.20 | *
    |     3506 |        - |      336 |      336 |       0.20 | *
    |     3523 |        - |      335 |      335 |       0.20 | *
    |     3633 |        - |      334 |      334 |       0.20 | *
    |     3643 |        - |      333 |      333 |       0.20 | *
    |     3671 |        - |      332 |      332 |       0.20 | *
    |     3691 |        - |      331 |      331 |       0.20 | *
    |     3837 |        - |      330 |      330 |       0.20 | *
    |     3840 |        - |      327 |      327 |       0.20 | *
    |     3844 |        - |      326 |      326 |       0.20 | *
    |     3868 |        - |      324 |      324 |       0.20 | *
    |     3882 |        - |      323 |      323 |       0.20 | *
    |     3953 |        - |      322 |      322 |       0.21 | *
    |     3986 |        - |      321 |      321 |       0.21 | *
    |     3990 |        - |      320 |      320 |       0.21 | *
    |     3998 |        - |      319 |      319 |       0.21 | *
    |     4009 |        - |      318 |      318 |       0.21 | *
    |     4044 |        - |      315 |      315 |       0.21 | *
    |     4078 |        - |      314 |      314 |       0.21 | *
    |     4146 |        - |      312 |      312 |       0.21 | *
    |     4182 |        - |      311 |      311 |       0.21 | *
    |     4210 |        - |      310 |      310 |       0.21 | *
    |     4212 |        - |      309 |      309 |       0.21 | *
    |     4252 |        - |      308 |      308 |       0.21 | *
    |     4279 |        - |      305 |      305 |       0.21 | *
    |     4313 |        - |      304 |      304 |       0.21 | *
    |     4330 |        - |      303 |      303 |       0.21 | *
    |     4446 |        - |      302 |      302 |       0.21 | *
    |     4500 |        - |      301 |      301 |       0.21 | *
    |     4508 |        - |      300 |      300 |       0.21 | *
    |     4528 |        - |      299 |      299 |       0.21 | *
    |     4530 |        - |      298 |      298 |       0.21 | *
    |     4582 |        - |      297 |      297 |       0.21 | *
    |     4584 |        - |      296 |      296 |       0.21 | *
    |     4608 |        - |      295 |      295 |       0.21 | *
    |     4641 |        - |      294 |      294 |       0.21 | *
    |     4651 |        - |      292 |      292 |       0.21 | *
    |     4657 |        - |      291 |      291 |       0.21 | *
    |     4729 |        - |      290 |      290 |       0.21 | *
    |     4732 |        - |      289 |      289 |       0.21 | *
    |     4788 |        - |      288 |      288 |       0.22 | *
    |     4894 |        - |      287 |      287 |       0.22 | *
    |     4966 |        - |      286 |      286 |       0.22 | *
    |     5050 |        - |      285 |      285 |       0.22 | *
    |     5081 |        - |      284 |      284 |       0.22 | *
    |     5094 |        - |      283 |      283 |       0.22 | *
    |     5144 |        - |      282 |      282 |       0.22 | *
    |     5196 |        - |      281 |      281 |       0.22 | *
    |     5229 |        - |      279 |      279 |       0.22 | *
    |     5249 |        - |      278 |      278 |       0.22 | *
    |     5252 |        - |      276 |      276 |       0.22 | *
    |     5298 |        - |      275 |      275 |       0.22 | *
    |     5324 |        - |      274 |      274 |       0.22 | *
    |     5385 |        - |      273 |      273 |       0.22 | *
    |     5507 |        - |      272 |      272 |       0.22 | *
    |     5515 |        - |      271 |      271 |       0.22 | *
    |     5601 |        - |      270 |      270 |       0.22 | *
    |     5744 |        - |      269 |      269 |       0.22 | *
    |     5781 |        - |      268 |      268 |       0.22 | *
    |     5833 |        - |      267 |      267 |       0.22 | *
    |     5877 |        - |      266 |      266 |       0.22 | *
    |     6089 |        - |      265 |      265 |       0.23 | *
    |     6174 |        - |      264 |      264 |       0.23 | *
    |     6275 |        - |      263 |      263 |       0.23 | *
    |     6326 |        - |      262 |      262 |       0.23 | *
    |     6362 |        - |      261 |      261 |       0.23 | *
    |     6380 |        - |      260 |      260 |       0.23 | *
    |     6470 |        - |      259 |      259 |       0.23 | *
    |     6524 |        - |      258 |      258 |       0.23 | *
    |     6631 |        - |      257 |      257 |       0.23 | *
    |     6657 |        - |      256 |      256 |       0.23 | *
    |     6700 |        - |      255 |      255 |       0.23 | *
    |     6805 |        - |      254 |      254 |       0.23 | *
    |     6927 |        - |      253 |      253 |       0.23 | *
    |     7458 |        - |      252 |      252 |       0.24 | *
    |     7560 |        - |      251 |      251 |       0.24 | *
    |     7646 |        - |      250 |      250 |       0.24 | *
    |     7716 |        - |      249 |      249 |       0.24 | *
    |     7783 |        - |      247 |      247 |       0.24 | *
    |     7788 |        - |      246 |      246 |       0.24 | *
    |     8153 |        - |      245 |      245 |       0.24 | *
    |     8191 |        - |      244 |      244 |       0.24 | *
    |     8439 |        - |      243 |      243 |       0.24 | *
    |     8501 |        - |      242 |      242 |       0.24 | *
    |     8568 |        - |      241 |      241 |       0.24 | *
    |     9232 |        - |      240 |      240 |       0.25 | *
    |     9280 |        - |      239 |      239 |       0.25 | *
    |     9430 |        - |      238 |      238 |       0.25 | *
    |     9444 |        - |      237 |      237 |       0.25 | *
    |     9504 |        - |      236 |      236 |       0.25 | *
    |     9518 |        - |      235 |      235 |       0.25 | *
    |     9614 |        - |      234 |      234 |       0.25 | *
    |     9619 |        - |      233 |      233 |       0.25 | *
    |     9828 |        - |      232 |      232 |       0.25 | *
    |      11K |        - |      231 |      231 |       0.25 | *
    |      11K |        - |      230 |      230 |       0.25 | *
    |      11K |        - |      229 |      229 |       0.25 | *
    |      11K |        - |      228 |      228 |       0.26 | *
    |      11K |        - |      227 |      227 |       0.26 | *
    |      11K |        - |      226 |      226 |       0.26 | *
    |      11K |        - |      225 |      225 |       0.26 | *
    |      12K |        - |      224 |      224 |       0.26 | *
    |      12K |        - |      223 |      223 |       0.26 | *
    |      12K |        - |      222 |      222 |       0.26 | *
    |      12K |        - |      220 |      220 |       0.26 | *
    |      12K |        - |      219 |      219 |       0.26 | *
    |      12K |        - |      218 |      218 |       0.26 | *
    |      12K |        - |      217 |      217 |       0.26 | *
    |      12K |        - |      216 |      216 |       0.26 | *
    |      13K |        - |      215 |      215 |       0.26 | *
    |      13K |        - |      213 |      213 |       0.26 | *
    |      13K |        - |      212 |      212 |       0.26 | *
    |      13K |        - |      211 |      211 |       0.26 | *
    |      14K |        - |      210 |      210 |       0.26 | *
    |      15K |        - |      209 |      209 |       0.27 | *
    |      15K |        - |      208 |      208 |       0.27 | *
    |      15K |        - |      207 |      207 |       0.27 | *
    |      15K |        - |      206 |      206 |       0.27 | *
    |      15K |        - |      205 |      205 |       0.27 | *
    |      16K |        - |      204 |      204 |       0.27 | *
    |      16K |        - |      203 |      203 |       0.27 | *
    |      16K |        - |      202 |      202 |       0.27 | *
    |      16K |        - |      201 |      201 |       0.27 | *
    |      16K |        - |      200 |      200 |       0.27 | *
    |      17K |        - |      199 |      199 |       0.27 | *
    |      17K |        - |      198 |      198 |       0.27 | *
    |      20K |        - |      197 |      197 |       0.28 | *
    |      21K |        - |      196 |      196 |       0.28 | *
    |      21K |        - |      195 |      195 |       0.28 | *
    |      21K |        - |      194 |      194 |       0.28 | *
    |      21K |        - |      193 |      193 |       0.28 | *
    |      21K |        - |      192 |      192 |       0.28 | *
    |      23K |        - |      191 |      191 |       0.28 | *
    |      25K |        - |      190 |      190 |       0.29 | *
    |      27K |        - |      189 |      189 |       0.29 | *
    |      28K |        - |      188 |      188 |       0.29 | *
    |      29K |        - |      187 |      187 |       0.29 | *
    |      29K |        - |      186 |      186 |       0.30 | *
    |      29K |        - |      185 |      185 |       0.30 | *
    |      29K |        - |      184 |      184 |       0.30 | *
    |      30K |        - |      183 |      183 |       0.30 | *
    |      31K |        - |      182 |      182 |       0.30 | *
    |      38K |        - |      181 |      181 |       0.31 | *
    |      38K |        - |      180 |      180 |       0.31 | *
    |      39K |        - |      179 |      179 |       0.31 | *
    |      39K |        - |      178 |      178 |       0.31 | *
    |      43K |        - |      177 |      177 |       0.32 | *
    |      43K |        - |      176 |      176 |       0.32 | *
    |      44K |        - |      175 |      175 |       0.32 | *
    |      47K |        - |      174 |      174 |       0.33 | *
    |      48K |        - |      173 |      173 |       0.33 | *
    |      50K |        - |      172 |      172 |       0.33 | *
    |      50K |        - |      171 |      171 |       0.33 | *
    |      50K |        - |      170 |      170 |       0.33 | *
    |      59K |        - |      169 |      169 |       0.34 | *
    |      61K |        - |      168 |      168 |       0.35 | *
    |      61K |        - |      167 |      167 |       0.35 | *
    |      62K |        - |      166 |      166 |       0.35 | *
    |      64K |        - |      165 |      165 |       0.35 | *
    |      64K |        - |      164 |      164 |       0.35 | *
    |      64K |        - |      163 |      163 |       0.35 | *
    |      86K |        - |      162 |      162 |       0.40 | *
    |     285K |        - |      161 |      161 |       1.08 | *
    |     428K |        - |      160 |      160 |       1.35 | *
    |     491K |        - |      159 |      159 |       1.44 | *
    |     563K |        - |      158 |      158 |       1.54 | *
    |     572K |        - |      157 |      157 |       1.55 | *
    |     684K |        - |      156 |      156 |       1.65 | *
    |      14M |        - |      155 |      155 |      14.01 | *
    |      21M |        - |      154 |      154 |      20.70 | *
    |      28M |        - |      153 |      153 |      27.44 | *
    |      52M |        - |      152 |      152 |      46.88 | *
    |     111M |        - |      151 |      151 |      93.93 | *
    |     130M |        - |      150 |      150 |     109.66 | *
    |     130M |        - |      149 |      149 |     109.66 | *
    |     130M |        - |      148 |      148 |     109.66 | *
    |     287M |        - |      147 |      147 |     234.44 | *
    |     287M |        - |      146 |      146 |     234.44 | *
    |     428M |        - |      145 |      145 |     346.70 | *
    |     523M |        - |      144 |      144 |     421.85 | *
    |     579M |        - |      143 |      143 |     466.66 | *
    |     667M |        - |      142 |      142 |     535.90 | *
    |     687M |        - |      141 |      141 |     551.93 | *
    |     737M |        - |      140 |      140 |     591.62 | *
    |     856M |        - |      139 |      139 |     686.22 | *
    |     925M |        - |      138 |      138 |     741.08 | *
    |    1190M |        - |      137 |      137 |     950.35 | *
    |    1402M |        - |      136 |      136 |    1117.81 | *
    |    1780M |        - |      135 |      135 |    1416.82 | *
    \--------------------------------------------------------/

Neighborhoods statistics (values in %):

    /----------------------------------------------------------------\
    | Move               | Improvs. | Sideways |  Accepts |  Rejects |
    |--------------------|----------|----------|----------|----------|
    | Shift(mk)          |     396K |    2042K |    2769K |     187M |
    | Shift              |      27K |    9458K |      10M |     180M |
    | ShiftSmart(mk)     |    2985K |      19M |      23M |     167M |
    | ShiftSmart         |     199K |      47M |      48M |     142M |
    | SimpSwap(mk)       |     1654 |     3880 |     7073 |     190M |
    | SimpSwap           |      231 |      15K |      18K |     190M |
    | SimpSwapSmart(mk)  |      22K |      52K |      92K |     190M |
    | SimpSwapSmart      |     3074 |     175K |     210K |     190M |
    | Swap(mk)           |      824 |     1788 |     3345 |     190M |
    | Swap               |      120 |     7428 |     9207 |     190M |
    | SwapSmart(mk)      |     9783 |      23K |      39K |     190M |
    | SwapSmart          |     1375 |      66K |      77K |     190M |
    | Switch(mk)         |     221K |      12M |      12M |     178M |
    | Switch             |      15K |      16M |      17M |     174M |
    | SwitchSmart(mk)    |    1591K |    6903K |    9269K |     181M |
    | SwitchSmart        |     106K |      23M |      24M |     166M |
    | TaskMove(mk)       |      16K |      33K |      60K |     190M |
    | TaskMove           |     1080 |      54K |      65K |     190M |
    | TaskMoveSmart(mk)  |      84K |     196K |     325K |     190M |
    | TaskMoveSmart      |     5974 |     307K |     356K |     190M |
    | 2-Shift(mk)        |     137K |    1193K |    1426K |     189M |
    | 2-Shift            |     9173 |    3695K |    3939K |     186M |
    | 2-ShiftSmart(mk)   |    2458K |    9761K |      13M |     177M |
    | 2-ShiftSmart       |     164K |      28M |      29M |     161M |
    \----------------------------------------------------------------/

Best makespan.....: 135
N. of Iterations..: 4564087377
Total runtime.....: 3600.02s
Using Python-MIP package version 1.6.8
Começo a execução
    /-------------------------------------------------------------------------------\
    |    Makespan   |   Free Jobs   | Free Machines |    It. Time   |   Total Time  | 
    |-------------------------------------------------------------------------------|
    \-------------------------------------------------------------------------------/
Terminou a execução
