Instance....: instances/I_250_15_S_1-9_7.txt
Algorithm...: Simulated Annealing (alpha=0.990, saMax=10M, t0=1)
Other params: maxIters=100M, seed=-1, timeLimit=3600.00s

    /--------------------------------------------------------\
    |     Iter |   RDP(%) |       S* |       S' |       Time | 
    |----------|----------|----------|----------|------------|
    |        0 |        - |     1333 |     1333 |       0.00 | s0
    |        3 |        - |     1317 |     1317 |       0.01 | *
    |        6 |        - |     1245 |     1245 |       0.02 | *
    |        8 |        - |     1238 |     1238 |       0.02 | *
    |       10 |        - |     1211 |     1211 |       0.03 | *
    |       18 |        - |     1168 |     1168 |       0.03 | *
    |       28 |        - |     1156 |     1156 |       0.03 | *
    |       35 |        - |     1141 |     1141 |       0.03 | *
    |       36 |        - |     1138 |     1138 |       0.03 | *
    |       38 |        - |     1135 |     1135 |       0.03 | *
    |       44 |        - |     1127 |     1127 |       0.04 | *
    |       45 |        - |     1104 |     1104 |       0.04 | *
    |       46 |        - |     1091 |     1091 |       0.04 | *
    |       49 |        - |     1064 |     1064 |       0.04 | *
    |       50 |        - |     1062 |     1062 |       0.04 | *
    |       52 |        - |     1054 |     1054 |       0.04 | *
    |       53 |        - |     1042 |     1042 |       0.04 | *
    |       54 |        - |     1034 |     1034 |       0.04 | *
    |       55 |        - |     1032 |     1032 |       0.04 | *
    |       65 |        - |     1017 |     1017 |       0.04 | *
    |       68 |        - |     1009 |     1009 |       0.04 | *
    |       70 |        - |     1006 |     1006 |       0.04 | *
    |       71 |        - |     1005 |     1005 |       0.04 | *
    |       93 |        - |     1004 |     1004 |       0.05 | *
    |       96 |        - |      979 |      979 |       0.05 | *
    |       97 |        - |      976 |      976 |       0.05 | *
    |      100 |        - |      975 |      975 |       0.05 | *
    |      102 |        - |      965 |      965 |       0.05 | *
    |      104 |        - |      962 |      962 |       0.05 | *
    |      105 |        - |      961 |      961 |       0.05 | *
    |      106 |        - |      955 |      955 |       0.05 | *
    |      110 |        - |      948 |      948 |       0.05 | *
    |      111 |        - |      946 |      946 |       0.05 | *
    |      114 |        - |      944 |      944 |       0.05 | *
    |      115 |        - |      942 |      942 |       0.05 | *
    |      116 |        - |      934 |      934 |       0.05 | *
    |      122 |        - |      933 |      933 |       0.05 | *
    |      124 |        - |      927 |      927 |       0.05 | *
    |      131 |        - |      926 |      926 |       0.06 | *
    |      132 |        - |      922 |      922 |       0.06 | *
    |      133 |        - |      921 |      921 |       0.06 | *
    |      135 |        - |      917 |      917 |       0.06 | *
    |      137 |        - |      913 |      913 |       0.06 | *
    |      144 |        - |      911 |      911 |       0.06 | *
    |      145 |        - |      910 |      910 |       0.06 | *
    |      148 |        - |      901 |      901 |       0.06 | *
    |      153 |        - |      897 |      897 |       0.06 | *
    |      159 |        - |      884 |      884 |       0.06 | *
    |      161 |        - |      883 |      883 |       0.06 | *
    |      162 |        - |      877 |      877 |       0.06 | *
    |      166 |        - |      872 |      872 |       0.06 | *
    |      178 |        - |      867 |      867 |       0.06 | *
    |      183 |        - |      860 |      860 |       0.07 | *
    |      199 |        - |      859 |      859 |       0.07 | *
    |      204 |        - |      858 |      858 |       0.07 | *
    |      210 |        - |      857 |      857 |       0.07 | *
    |      212 |        - |      855 |      855 |       0.07 | *
    |      213 |        - |      846 |      846 |       0.07 | *
    |      215 |        - |      845 |      845 |       0.07 | *
    |      223 |        - |      842 |      842 |       0.07 | *
    |      232 |        - |      839 |      839 |       0.07 | *
    |      233 |        - |      836 |      836 |       0.07 | *
    |      236 |        - |      835 |      835 |       0.07 | *
    |      238 |        - |      830 |      830 |       0.07 | *
    |      240 |        - |      829 |      829 |       0.07 | *
    |      241 |        - |      824 |      824 |       0.07 | *
    |      242 |        - |      823 |      823 |       0.07 | *
    |      249 |        - |      821 |      821 |       0.07 | *
    |      273 |        - |      820 |      820 |       0.08 | *
    |      281 |        - |      815 |      815 |       0.08 | *
    |      284 |        - |      811 |      811 |       0.08 | *
    |      285 |        - |      805 |      805 |       0.08 | *
    |      292 |        - |      800 |      800 |       0.08 | *
    |      293 |        - |      798 |      798 |       0.08 | *
    |      297 |        - |      795 |      795 |       0.08 | *
    |      299 |        - |      793 |      793 |       0.08 | *
    |      304 |        - |      792 |      792 |       0.08 | *
    |      306 |        - |      791 |      791 |       0.08 | *
    |      310 |        - |      790 |      790 |       0.08 | *
    |      334 |        - |      785 |      785 |       0.08 | *
    |      337 |        - |      781 |      781 |       0.08 | *
    |      350 |        - |      780 |      780 |       0.08 | *
    |      351 |        - |      779 |      779 |       0.08 | *
    |      360 |        - |      774 |      774 |       0.08 | *
    |      366 |        - |      773 |      773 |       0.08 | *
    |      379 |        - |      771 |      771 |       0.09 | *
    |      384 |        - |      765 |      765 |       0.09 | *
    |      385 |        - |      759 |      759 |       0.09 | *
    |      386 |        - |      756 |      756 |       0.09 | *
    |      389 |        - |      751 |      751 |       0.09 | *
    |      395 |        - |      750 |      750 |       0.09 | *
    |      405 |        - |      747 |      747 |       0.09 | *
    |      417 |        - |      746 |      746 |       0.09 | *
    |      420 |        - |      744 |      744 |       0.09 | *
    |      425 |        - |      742 |      742 |       0.09 | *
    |      428 |        - |      741 |      741 |       0.09 | *
    |      451 |        - |      740 |      740 |       0.09 | *
    |      455 |        - |      737 |      737 |       0.09 | *
    |      457 |        - |      731 |      731 |       0.09 | *
    |      459 |        - |      730 |      730 |       0.09 | *
    |      470 |        - |      725 |      725 |       0.09 | *
    |      472 |        - |      723 |      723 |       0.09 | *
    |      477 |        - |      722 |      722 |       0.09 | *
    |      484 |        - |      719 |      719 |       0.10 | *
    |      494 |        - |      717 |      717 |       0.10 | *
    |      509 |        - |      715 |      715 |       0.10 | *
    |      512 |        - |      713 |      713 |       0.10 | *
    |      519 |        - |      712 |      712 |       0.10 | *
    |      526 |        - |      708 |      708 |       0.10 | *
    |      528 |        - |      702 |      702 |       0.10 | *
    |      543 |        - |      701 |      701 |       0.10 | *
    |      565 |        - |      700 |      700 |       0.10 | *
    |      581 |        - |      698 |      698 |       0.10 | *
    |      583 |        - |      694 |      694 |       0.10 | *
    |      585 |        - |      692 |      692 |       0.10 | *
    |      587 |        - |      691 |      691 |       0.10 | *
    |      594 |        - |      687 |      687 |       0.10 | *
    |      596 |        - |      686 |      686 |       0.10 | *
    |      600 |        - |      684 |      684 |       0.10 | *
    |      621 |        - |      681 |      681 |       0.10 | *
    |      623 |        - |      680 |      680 |       0.10 | *
    |      629 |        - |      677 |      677 |       0.11 | *
    |      641 |        - |      676 |      676 |       0.11 | *
    |      650 |        - |      664 |      664 |       0.11 | *
    |      659 |        - |      663 |      663 |       0.11 | *
    |      677 |        - |      660 |      660 |       0.11 | *
    |      679 |        - |      659 |      659 |       0.11 | *
    |      684 |        - |      656 |      656 |       0.11 | *
    |      689 |        - |      652 |      652 |       0.11 | *
    |      711 |        - |      649 |      649 |       0.11 | *
    |      715 |        - |      648 |      648 |       0.11 | *
    |      718 |        - |      647 |      647 |       0.11 | *
    |      741 |        - |      646 |      646 |       0.12 | *
    |      753 |        - |      643 |      643 |       0.12 | *
    |      756 |        - |      641 |      641 |       0.12 | *
    |      780 |        - |      640 |      640 |       0.12 | *
    |      791 |        - |      637 |      637 |       0.12 | *
    |      801 |        - |      636 |      636 |       0.12 | *
    |      805 |        - |      635 |      635 |       0.12 | *
    |      834 |        - |      634 |      634 |       0.12 | *
    |      840 |        - |      633 |      633 |       0.12 | *
    |      841 |        - |      631 |      631 |       0.12 | *
    |      842 |        - |      630 |      630 |       0.12 | *
    |      861 |        - |      628 |      628 |       0.12 | *
    |      904 |        - |      626 |      626 |       0.13 | *
    |      906 |        - |      620 |      620 |       0.13 | *
    |      919 |        - |      618 |      618 |       0.13 | *
    |      928 |        - |      616 |      616 |       0.13 | *
    |      931 |        - |      614 |      614 |       0.13 | *
    |      932 |        - |      613 |      613 |       0.13 | *
    |      952 |        - |      612 |      612 |       0.13 | *
    |      961 |        - |      611 |      611 |       0.13 | *
    |      964 |        - |      610 |      610 |       0.13 | *
    |      971 |        - |      606 |      606 |       0.13 | *
    |     1004 |        - |      602 |      602 |       0.13 | *
    |     1006 |        - |      601 |      601 |       0.13 | *
    |     1020 |        - |      597 |      597 |       0.13 | *
    |     1023 |        - |      595 |      595 |       0.13 | *
    |     1039 |        - |      594 |      594 |       0.13 | *
    |     1047 |        - |      593 |      593 |       0.13 | *
    |     1070 |        - |      592 |      592 |       0.13 | *
    |     1074 |        - |      589 |      589 |       0.13 | *
    |     1080 |        - |      586 |      586 |       0.14 | *
    |     1089 |        - |      585 |      585 |       0.14 | *
    |     1109 |        - |      583 |      583 |       0.14 | *
    |     1116 |        - |      582 |      582 |       0.14 | *
    |     1126 |        - |      581 |      581 |       0.14 | *
    |     1134 |        - |      579 |      579 |       0.14 | *
    |     1153 |        - |      578 |      578 |       0.14 | *
    |     1157 |        - |      577 |      577 |       0.14 | *
    |     1161 |        - |      576 |      576 |       0.14 | *
    |     1166 |        - |      572 |      572 |       0.14 | *
    |     1179 |        - |      568 |      568 |       0.14 | *
    |     1180 |        - |      567 |      567 |       0.14 | *
    |     1182 |        - |      560 |      560 |       0.14 | *
    |     1184 |        - |      557 |      557 |       0.14 | *
    |     1196 |        - |      555 |      555 |       0.15 | *
    |     1204 |        - |      552 |      552 |       0.15 | *
    |     1214 |        - |      551 |      551 |       0.15 | *
    |     1223 |        - |      550 |      550 |       0.15 | *
    |     1228 |        - |      547 |      547 |       0.15 | *
    |     1237 |        - |      542 |      542 |       0.15 | *
    |     1242 |        - |      538 |      538 |       0.15 | *
    |     1248 |        - |      534 |      534 |       0.15 | *
    |     1255 |        - |      532 |      532 |       0.15 | *
    |     1261 |        - |      531 |      531 |       0.15 | *
    |     1265 |        - |      527 |      527 |       0.15 | *
    |     1272 |        - |      524 |      524 |       0.15 | *
    |     1274 |        - |      522 |      522 |       0.15 | *
    |     1277 |        - |      520 |      520 |       0.15 | *
    |     1278 |        - |      518 |      518 |       0.15 | *
    |     1290 |        - |      514 |      514 |       0.15 | *
    |     1345 |        - |      513 |      513 |       0.15 | *
    |     1346 |        - |      511 |      511 |       0.15 | *
    |     1348 |        - |      510 |      510 |       0.16 | *
    |     1355 |        - |      509 |      509 |       0.16 | *
    |     1401 |        - |      508 |      508 |       0.16 | *
    |     1406 |        - |      507 |      507 |       0.16 | *
    |     1407 |        - |      504 |      504 |       0.16 | *
    |     1440 |        - |      503 |      503 |       0.16 | *
    |     1441 |        - |      501 |      501 |       0.16 | *
    |     1455 |        - |      500 |      500 |       0.16 | *
    |     1494 |        - |      495 |      495 |       0.16 | *
    |     1504 |        - |      494 |      494 |       0.16 | *
    |     1522 |        - |      491 |      491 |       0.16 | *
    |     1546 |        - |      490 |      490 |       0.16 | *
    |     1549 |        - |      486 |      486 |       0.16 | *
    |     1553 |        - |      485 |      485 |       0.16 | *
    |     1582 |        - |      484 |      484 |       0.16 | *
    |     1588 |        - |      483 |      483 |       0.16 | *
    |     1592 |        - |      482 |      482 |       0.16 | *
    |     1599 |        - |      478 |      478 |       0.16 | *
    |     1604 |        - |      477 |      477 |       0.17 | *
    |     1606 |        - |      476 |      476 |       0.17 | *
    |     1614 |        - |      475 |      475 |       0.17 | *
    |     1647 |        - |      473 |      473 |       0.17 | *
    |     1656 |        - |      471 |      471 |       0.17 | *
    |     1673 |        - |      470 |      470 |       0.17 | *
    |     1680 |        - |      469 |      469 |       0.17 | *
    |     1688 |        - |      468 |      468 |       0.17 | *
    |     1703 |        - |      467 |      467 |       0.17 | *
    |     1708 |        - |      466 |      466 |       0.17 | *
    |     1717 |        - |      458 |      458 |       0.17 | *
    |     1724 |        - |      457 |      457 |       0.17 | *
    |     1745 |        - |      455 |      455 |       0.17 | *
    |     1754 |        - |      454 |      454 |       0.17 | *
    |     1772 |        - |      453 |      453 |       0.17 | *
    |     1810 |        - |      452 |      452 |       0.17 | *
    |     1817 |        - |      451 |      451 |       0.17 | *
    |     1837 |        - |      449 |      449 |       0.17 | *
    |     1838 |        - |      446 |      446 |       0.17 | *
    |     1889 |        - |      445 |      445 |       0.17 | *
    |     1892 |        - |      443 |      443 |       0.17 | *
    |     1895 |        - |      441 |      441 |       0.17 | *
    |     1896 |        - |      440 |      440 |       0.17 | *
    |     1923 |        - |      438 |      438 |       0.17 | *
    |     1940 |        - |      437 |      437 |       0.17 | *
    |     1945 |        - |      436 |      436 |       0.17 | *
    |     1951 |        - |      434 |      434 |       0.17 | *
    |     1962 |        - |      432 |      432 |       0.17 | *
    |     1965 |        - |      430 |      430 |       0.18 | *
    |     1970 |        - |      426 |      426 |       0.18 | *
    |     1996 |        - |      424 |      424 |       0.18 | *
    |     2014 |        - |      423 |      423 |       0.18 | *
    |     2021 |        - |      420 |      420 |       0.18 | *
    |     2031 |        - |      418 |      418 |       0.18 | *
    |     2064 |        - |      417 |      417 |       0.18 | *
    |     2083 |        - |      416 |      416 |       0.18 | *
    |     2089 |        - |      415 |      415 |       0.18 | *
    |     2091 |        - |      414 |      414 |       0.18 | *
    |     2125 |        - |      413 |      413 |       0.18 | *
    |     2131 |        - |      412 |      412 |       0.18 | *
    |     2165 |        - |      411 |      411 |       0.18 | *
    |     2172 |        - |      410 |      410 |       0.18 | *
    |     2232 |        - |      409 |      409 |       0.18 | *
    |     2236 |        - |      407 |      407 |       0.18 | *
    |     2238 |        - |      405 |      405 |       0.18 | *
    |     2255 |        - |      404 |      404 |       0.18 | *
    |     2271 |        - |      403 |      403 |       0.18 | *
    |     2355 |        - |      402 |      402 |       0.18 | *
    |     2384 |        - |      401 |      401 |       0.18 | *
    |     2421 |        - |      400 |      400 |       0.18 | *
    |     2445 |        - |      399 |      399 |       0.18 | *
    |     2463 |        - |      396 |      396 |       0.18 | *
    |     2474 |        - |      395 |      395 |       0.19 | *
    |     2487 |        - |      394 |      394 |       0.19 | *
    |     2563 |        - |      393 |      393 |       0.19 | *
    |     2581 |        - |      392 |      392 |       0.19 | *
    |     2582 |        - |      391 |      391 |       0.19 | *
    |     2615 |        - |      390 |      390 |       0.19 | *
    |     2659 |        - |      389 |      389 |       0.19 | *
    |     2696 |        - |      388 |      388 |       0.19 | *
    |     2721 |        - |      387 |      387 |       0.19 | *
    |     2736 |        - |      386 |      386 |       0.19 | *
    |     2777 |        - |      385 |      385 |       0.19 | *
    |     2790 |        - |      384 |      384 |       0.19 | *
    |     2900 |        - |      383 |      383 |       0.19 | *
    |     2930 |        - |      382 |      382 |       0.19 | *
    |     2998 |        - |      381 |      381 |       0.19 | *
    |     3042 |        - |      380 |      380 |       0.19 | *
    |     3065 |        - |      379 |      379 |       0.19 | *
    |     3075 |        - |      378 |      378 |       0.19 | *
    |     3082 |        - |      377 |      377 |       0.20 | *
    |     3120 |        - |      376 |      376 |       0.20 | *
    |     3262 |        - |      375 |      375 |       0.20 | *
    |     3296 |        - |      374 |      374 |       0.20 | *
    |     3316 |        - |      373 |      373 |       0.20 | *
    |     3380 |        - |      372 |      372 |       0.20 | *
    |     3428 |        - |      371 |      371 |       0.20 | *
    |     3455 |        - |      370 |      370 |       0.20 | *
    |     3504 |        - |      369 |      369 |       0.20 | *
    |     3626 |        - |      368 |      368 |       0.20 | *
    |     3835 |        - |      365 |      365 |       0.20 | *
    |     3870 |        - |      364 |      364 |       0.20 | *
    |     3874 |        - |      363 |      363 |       0.20 | *
    |     3875 |        - |      362 |      362 |       0.20 | *
    |     3902 |        - |      361 |      361 |       0.20 | *
    |     3949 |        - |      360 |      360 |       0.20 | *
    |     3955 |        - |      359 |      359 |       0.20 | *
    |     3961 |        - |      356 |      356 |       0.20 | *
    |     3964 |        - |      355 |      355 |       0.20 | *
    |     3969 |        - |      354 |      354 |       0.21 | *
    |     3974 |        - |      353 |      353 |       0.21 | *
    |     3979 |        - |      352 |      352 |       0.21 | *
    |     3990 |        - |      351 |      351 |       0.21 | *
    |     4074 |        - |      350 |      350 |       0.21 | *
    |     4108 |        - |      349 |      349 |       0.21 | *
    |     4145 |        - |      348 |      348 |       0.21 | *
    |     4185 |        - |      347 |      347 |       0.21 | *
    |     4301 |        - |      346 |      346 |       0.21 | *
    |     4349 |        - |      345 |      345 |       0.21 | *
    |     4400 |        - |      344 |      344 |       0.21 | *
    |     4415 |        - |      343 |      343 |       0.21 | *
    |     4422 |        - |      341 |      341 |       0.21 | *
    |     4517 |        - |      340 |      340 |       0.21 | *
    |     4533 |        - |      339 |      339 |       0.21 | *
    |     4545 |        - |      338 |      338 |       0.21 | *
    |     4558 |        - |      337 |      337 |       0.21 | *
    |     4591 |        - |      336 |      336 |       0.21 | *
    |     4600 |        - |      335 |      335 |       0.21 | *
    |     4602 |        - |      334 |      334 |       0.21 | *
    |     4618 |        - |      333 |      333 |       0.21 | *
    |     4624 |        - |      332 |      332 |       0.21 | *
    |     4634 |        - |      331 |      331 |       0.21 | *
    |     4760 |        - |      327 |      327 |       0.21 | *
    |     4798 |        - |      326 |      326 |       0.21 | *
    |     4802 |        - |      325 |      325 |       0.21 | *
    |     4871 |        - |      323 |      323 |       0.21 | *
    |     4966 |        - |      322 |      322 |       0.22 | *
    |     4967 |        - |      321 |      321 |       0.22 | *
    |     4997 |        - |      320 |      320 |       0.22 | *
    |     5008 |        - |      319 |      319 |       0.22 | *
    |     5118 |        - |      318 |      318 |       0.22 | *
    |     5167 |        - |      317 |      317 |       0.22 | *
    |     5188 |        - |      316 |      316 |       0.22 | *
    |     5297 |        - |      315 |      315 |       0.22 | *
    |     5367 |        - |      314 |      314 |       0.22 | *
    |     5379 |        - |      312 |      312 |       0.22 | *
    |     5400 |        - |      311 |      311 |       0.22 | *
    |     5449 |        - |      310 |      310 |       0.22 | *
    |     5457 |        - |      307 |      307 |       0.22 | *
    |     5477 |        - |      306 |      306 |       0.22 | *
    |     5507 |        - |      305 |      305 |       0.22 | *
    |     5549 |        - |      304 |      304 |       0.22 | *
    |     5551 |        - |      303 |      303 |       0.22 | *
    |     5552 |        - |      302 |      302 |       0.22 | *
    |     5570 |        - |      301 |      301 |       0.22 | *
    |     5640 |        - |      300 |      300 |       0.22 | *
    |     5755 |        - |      299 |      299 |       0.22 | *
    |     5925 |        - |      298 |      298 |       0.22 | *
    |     5952 |        - |      297 |      297 |       0.22 | *
    |     6012 |        - |      296 |      296 |       0.22 | *
    |     6104 |        - |      295 |      295 |       0.22 | *
    |     6114 |        - |      294 |      294 |       0.22 | *
    |     6162 |        - |      292 |      292 |       0.22 | *
    |     6292 |        - |      291 |      291 |       0.23 | *
    |     6328 |        - |      290 |      290 |       0.23 | *
    |     6450 |        - |      289 |      289 |       0.23 | *
    |     6706 |        - |      288 |      288 |       0.23 | *
    |     6738 |        - |      286 |      286 |       0.23 | *
    |     6740 |        - |      285 |      285 |       0.23 | *
    |     6786 |        - |      284 |      284 |       0.23 | *
    |     6791 |        - |      283 |      283 |       0.23 | *
    |     6827 |        - |      282 |      282 |       0.23 | *
    |     6880 |        - |      281 |      281 |       0.23 | *
    |     7004 |        - |      280 |      280 |       0.23 | *
    |     7006 |        - |      279 |      279 |       0.23 | *
    |     7016 |        - |      278 |      278 |       0.23 | *
    |     7080 |        - |      276 |      276 |       0.23 | *
    |     7085 |        - |      275 |      275 |       0.23 | *
    |     7089 |        - |      274 |      274 |       0.23 | *
    |     7140 |        - |      273 |      273 |       0.23 | *
    |     7385 |        - |      272 |      272 |       0.23 | *
    |     7396 |        - |      271 |      271 |       0.23 | *
    |     7397 |        - |      270 |      270 |       0.23 | *
    |     7458 |        - |      269 |      269 |       0.23 | *
    |     7481 |        - |      268 |      268 |       0.23 | *
    |     7510 |        - |      267 |      267 |       0.23 | *
    |     7580 |        - |      266 |      266 |       0.23 | *
    |     7692 |        - |      265 |      265 |       0.24 | *
    |     7758 |        - |      264 |      264 |       0.24 | *
    |     7885 |        - |      260 |      260 |       0.24 | *
    |     7929 |        - |      259 |      259 |       0.24 | *
    |     8117 |        - |      258 |      258 |       0.24 | *
    |     8195 |        - |      257 |      257 |       0.24 | *
    |     8219 |        - |      256 |      256 |       0.24 | *
    |     8271 |        - |      255 |      255 |       0.24 | *
    |     8545 |        - |      254 |      254 |       0.24 | *
    |     8712 |        - |      253 |      253 |       0.24 | *
    |     8729 |        - |      252 |      252 |       0.24 | *
    |     8803 |        - |      251 |      251 |       0.24 | *
    |     9172 |        - |      250 |      250 |       0.25 | *
    |     9182 |        - |      249 |      249 |       0.25 | *
    |     9392 |        - |      248 |      248 |       0.25 | *
    |     9580 |        - |      247 |      247 |       0.25 | *
    |     9810 |        - |      246 |      246 |       0.25 | *
    |      10K |        - |      245 |      245 |       0.25 | *
    |      10K |        - |      244 |      244 |       0.25 | *
    |      10K |        - |      243 |      243 |       0.25 | *
    |      11K |        - |      242 |      242 |       0.25 | *
    |      11K |        - |      241 |      241 |       0.25 | *
    |      11K |        - |      240 |      240 |       0.26 | *
    |      12K |        - |      238 |      238 |       0.26 | *
    |      12K |        - |      237 |      237 |       0.26 | *
    |      13K |        - |      236 |      236 |       0.26 | *
    |      13K |        - |      234 |      234 |       0.26 | *
    |      13K |        - |      233 |      233 |       0.26 | *
    |      13K |        - |      232 |      232 |       0.26 | *
    |      13K |        - |      231 |      231 |       0.26 | *
    |      13K |        - |      230 |      230 |       0.26 | *
    |      14K |        - |      229 |      229 |       0.26 | *
    |      14K |        - |      228 |      228 |       0.26 | *
    |      14K |        - |      227 |      227 |       0.26 | *
    |      14K |        - |      226 |      226 |       0.26 | *
    |      15K |        - |      225 |      225 |       0.27 | *
    |      16K |        - |      224 |      224 |       0.27 | *
    |      16K |        - |      223 |      223 |       0.27 | *
    |      16K |        - |      222 |      222 |       0.27 | *
    |      16K |        - |      221 |      221 |       0.27 | *
    |      16K |        - |      219 |      219 |       0.27 | *
    |      16K |        - |      218 |      218 |       0.27 | *
    |      16K |        - |      217 |      217 |       0.27 | *
    |      16K |        - |      216 |      216 |       0.27 | *
    |      17K |        - |      215 |      215 |       0.27 | *
    |      17K |        - |      214 |      214 |       0.27 | *
    |      17K |        - |      213 |      213 |       0.27 | *
    |      17K |        - |      212 |      212 |       0.27 | *
    |      18K |        - |      211 |      211 |       0.28 | *
    |      19K |        - |      210 |      210 |       0.28 | *
    |      19K |        - |      209 |      209 |       0.28 | *
    |      19K |        - |      208 |      208 |       0.28 | *
    |      19K |        - |      207 |      207 |       0.28 | *
    |      19K |        - |      206 |      206 |       0.28 | *
    |      20K |        - |      205 |      205 |       0.28 | *
    |      20K |        - |      204 |      204 |       0.28 | *
    |      21K |        - |      203 |      203 |       0.28 | *
    |      21K |        - |      202 |      202 |       0.28 | *
    |      22K |        - |      201 |      201 |       0.29 | *
    |      23K |        - |      200 |      200 |       0.29 | *
    |      24K |        - |      199 |      199 |       0.29 | *
    |      26K |        - |      198 |      198 |       0.29 | *
    |      28K |        - |      197 |      197 |       0.29 | *
    |      28K |        - |      196 |      196 |       0.29 | *
    |      28K |        - |      195 |      195 |       0.30 | *
    |      31K |        - |      194 |      194 |       0.30 | *
    |      31K |        - |      193 |      193 |       0.30 | *
    |      32K |        - |      192 |      192 |       0.30 | *
    |      36K |        - |      191 |      191 |       0.31 | *
    |      36K |        - |      190 |      190 |       0.32 | *
    |      39K |        - |      189 |      189 |       0.32 | *
    |      39K |        - |      188 |      188 |       0.33 | *
    |      40K |        - |      187 |      187 |       0.33 | *
    |      50K |        - |      186 |      186 |       0.35 | *
    |      50K |        - |      185 |      185 |       0.36 | *
    |      51K |        - |      184 |      184 |       0.36 | *
    |      54K |        - |      183 |      183 |       0.37 | *
    |      55K |        - |      182 |      182 |       0.37 | *
    |      55K |        - |      181 |      181 |       0.38 | *
    |      58K |        - |      180 |      180 |       0.39 | *
    |      63K |        - |      179 |      179 |       0.40 | *
    |      69K |        - |      178 |      178 |       0.42 | *
    |      80K |        - |      177 |      177 |       0.47 | *
    |      80K |        - |      176 |      176 |       0.47 | *
    |      81K |        - |      175 |      175 |       0.47 | *
    |      90K |        - |      174 |      174 |       0.51 | *
    |      90K |        - |      173 |      173 |       0.51 | *
    |      99K |        - |      172 |      172 |       0.56 | *
    |     101K |        - |      171 |      171 |       0.57 | *
    |     130K |        - |      170 |      170 |       0.71 | *
    |     152K |        - |      169 |      169 |       0.81 | *
    |     168K |        - |      168 |      168 |       0.88 | *
    |     168K |        - |      167 |      167 |       0.88 | *
    |     169K |        - |      166 |      166 |       0.88 | *
    |     169K |        - |      165 |      165 |       0.89 | *
    |     222K |        - |      164 |      164 |       1.03 | *
    |     226K |        - |      163 |      163 |       1.04 | *
    |     422K |        - |      162 |      162 |       1.37 | *
    |     504K |        - |      161 |      161 |       1.54 | *
    |     599K |        - |      160 |      160 |       1.68 | *
    |     599K |        - |      159 |      159 |       1.68 | *
    |     628K |        - |      158 |      158 |       1.73 | *
    |    3668K |        - |      157 |      157 |       4.96 | *
    |      11M |        - |      156 |      156 |      11.17 | *
    |      44M |        - |      155 |      155 |      37.80 | *
    |      55M |        - |      154 |      154 |      46.53 | *
    |      55M |        - |      153 |      153 |      46.53 | *
    |     111M |        - |      152 |      152 |      91.40 | *
    |     211M |        - |      151 |      151 |     171.31 | *
    |     226M |        - |      150 |      150 |     183.24 | *
    |     300M |        - |      149 |      149 |     242.97 | *
    |     333M |        - |      148 |      148 |     268.83 | *
    |     333M |        - |      147 |      147 |     268.84 | *
    |     432M |        - |      146 |      146 |     348.15 | *
    |     432M |        - |      145 |      145 |     348.16 | *
    |     564M |        - |      144 |      144 |     453.84 | *
    |     736M |        - |      143 |      143 |     591.23 | *
    |     805M |        - |      142 |      142 |     646.50 | *
    |    1117M |        - |      141 |      141 |     896.41 | *
    |    1499M |        - |      140 |      140 |    1200.32 | *
    \--------------------------------------------------------/

Neighborhoods statistics (values in %):

    /----------------------------------------------------------------\
    | Move               | Improvs. | Sideways |  Accepts |  Rejects |
    |--------------------|----------|----------|----------|----------|
    | Shift(mk)          |     413K |    2149K |    2900K |     187M |
    | Shift              |      27K |    9242K |    9859K |     180M |
    | ShiftSmart(mk)     |    2991K |      21M |      25M |     165M |
    | ShiftSmart         |     199K |      46M |      47M |     142M |
    | SimpSwap(mk)       |     1134 |     2554 |     4709 |     189M |
    | SimpSwap           |      181 |     9524 |      12K |     190M |
    | SimpSwapSmart(mk)  |      16K |      35K |      63K |     190M |
    | SimpSwapSmart      |     2177 |     119K |     143K |     189M |
    | Swap(mk)           |      618 |     1102 |     2176 |     189M |
    | Swap               |       65 |     4719 |     5915 |     190M |
    | SwapSmart(mk)      |     6524 |      15K |      25K |     189M |
    | SwapSmart          |      847 |      43K |      50K |     189M |
    | Switch(mk)         |     232K |      12M |      12M |     177M |
    | Switch             |      15K |      16M |      17M |     173M |
    | SwitchSmart(mk)    |    1592K |    6765K |    9155K |     181M |
    | SwitchSmart        |     106K |      23M |      23M |     166M |
    | TaskMove(mk)       |      14K |      28K |      51K |     189M |
    | TaskMove           |      974 |      46K |      55K |     190M |
    | TaskMoveSmart(mk)  |      71K |     162K |     270K |     189M |
    | TaskMoveSmart      |     5130 |     260K |     301K |     189M |
    | 2-Shift(mk)        |     149K |    1234K |    1482K |     188M |
    | 2-Shift            |      10K |    3755K |    4003K |     186M |
    | 2-ShiftSmart(mk)   |    2484K |      10M |      13M |     176M |
    | 2-ShiftSmart       |     165K |      27M |      28M |     162M |
    \----------------------------------------------------------------/

Best makespan.....: 140
N. of Iterations..: 4548572586
Total runtime.....: 3600.02s
Using Python-MIP package version 1.6.8
Começo a execução
    /-------------------------------------------------------------------------------\
    |    Makespan   |   Free Jobs   | Free Machines |    It. Time   |   Total Time  | 
    |-------------------------------------------------------------------------------|
    \-------------------------------------------------------------------------------/
Terminou a execução
