Instance....: instances/I_250_30_S_1-124_7.txt
Algorithm...: Simulated Annealing (alpha=0.990, saMax=10M, t0=1)
Other params: maxIters=100M, seed=-1, timeLimit=3600.00s

    /--------------------------------------------------------\
    |     Iter |   RDP(%) |       S* |       S' |       Time | 
    |----------|----------|----------|----------|------------|
    |        0 |        - |     1446 |     1446 |       0.00 | s0
    |        4 |        - |     1412 |     1412 |       0.01 | *
    |        7 |        - |     1398 |     1398 |       0.01 | *
    |        9 |        - |     1378 |     1378 |       0.01 | *
    |       20 |        - |     1273 |     1273 |       0.02 | *
    |       24 |        - |     1261 |     1261 |       0.03 | *
    |       29 |        - |     1238 |     1238 |       0.03 | *
    |       30 |        - |     1115 |     1115 |       0.03 | *
    |       33 |        - |     1103 |     1103 |       0.03 | *
    |       40 |        - |     1092 |     1092 |       0.03 | *
    |       45 |        - |     1079 |     1079 |       0.03 | *
    |       46 |        - |     1077 |     1077 |       0.03 | *
    |       47 |        - |     1073 |     1073 |       0.04 | *
    |       52 |        - |     1070 |     1070 |       0.04 | *
    |       54 |        - |     1044 |     1044 |       0.04 | *
    |       55 |        - |     1040 |     1040 |       0.04 | *
    |       60 |        - |     1038 |     1038 |       0.04 | *
    |       63 |        - |     1030 |     1030 |       0.04 | *
    |       66 |        - |     1029 |     1029 |       0.04 | *
    |       78 |        - |     1024 |     1024 |       0.04 | *
    |       82 |        - |     1018 |     1018 |       0.04 | *
    |       88 |        - |     1015 |     1015 |       0.04 | *
    |       90 |        - |     1006 |     1006 |       0.04 | *
    |       99 |        - |     1004 |     1004 |       0.04 | *
    |      101 |        - |      999 |      999 |       0.04 | *
    |      103 |        - |      986 |      986 |       0.04 | *
    |      110 |        - |      981 |      981 |       0.04 | *
    |      113 |        - |      973 |      973 |       0.04 | *
    |      115 |        - |      960 |      960 |       0.04 | *
    |      116 |        - |      954 |      954 |       0.05 | *
    |      119 |        - |      950 |      950 |       0.05 | *
    |      120 |        - |      938 |      938 |       0.05 | *
    |      122 |        - |      936 |      936 |       0.05 | *
    |      128 |        - |      933 |      933 |       0.05 | *
    |      138 |        - |      914 |      914 |       0.05 | *
    |      140 |        - |      913 |      913 |       0.05 | *
    |      148 |        - |      907 |      907 |       0.05 | *
    |      149 |        - |      903 |      903 |       0.05 | *
    |      150 |        - |      902 |      902 |       0.05 | *
    |      151 |        - |      901 |      901 |       0.05 | *
    |      152 |        - |      886 |      886 |       0.05 | *
    |      157 |        - |      883 |      883 |       0.05 | *
    |      158 |        - |      876 |      876 |       0.06 | *
    |      159 |        - |      869 |      869 |       0.06 | *
    |      161 |        - |      867 |      867 |       0.06 | *
    |      173 |        - |      854 |      854 |       0.06 | *
    |      178 |        - |      851 |      851 |       0.06 | *
    |      179 |        - |      848 |      848 |       0.06 | *
    |      185 |        - |      846 |      846 |       0.06 | *
    |      193 |        - |      839 |      839 |       0.06 | *
    |      195 |        - |      834 |      834 |       0.06 | *
    |      209 |        - |      833 |      833 |       0.06 | *
    |      212 |        - |      827 |      827 |       0.06 | *
    |      213 |        - |      822 |      822 |       0.06 | *
    |      221 |        - |      821 |      821 |       0.06 | *
    |      222 |        - |      817 |      817 |       0.06 | *
    |      226 |        - |      815 |      815 |       0.06 | *
    |      234 |        - |      811 |      811 |       0.06 | *
    |      243 |        - |      805 |      805 |       0.06 | *
    |      261 |        - |      799 |      799 |       0.07 | *
    |      279 |        - |      791 |      791 |       0.07 | *
    |      285 |        - |      783 |      783 |       0.07 | *
    |      289 |        - |      774 |      774 |       0.07 | *
    |      295 |        - |      772 |      772 |       0.07 | *
    |      304 |        - |      770 |      770 |       0.07 | *
    |      305 |        - |      769 |      769 |       0.07 | *
    |      306 |        - |      768 |      768 |       0.07 | *
    |      312 |        - |      767 |      767 |       0.07 | *
    |      315 |        - |      757 |      757 |       0.07 | *
    |      320 |        - |      755 |      755 |       0.07 | *
    |      323 |        - |      754 |      754 |       0.07 | *
    |      340 |        - |      752 |      752 |       0.07 | *
    |      341 |        - |      748 |      748 |       0.07 | *
    |      344 |        - |      745 |      745 |       0.07 | *
    |      351 |        - |      742 |      742 |       0.07 | *
    |      366 |        - |      741 |      741 |       0.07 | *
    |      370 |        - |      739 |      739 |       0.07 | *
    |      377 |        - |      738 |      738 |       0.08 | *
    |      381 |        - |      737 |      737 |       0.08 | *
    |      385 |        - |      734 |      734 |       0.08 | *
    |      387 |        - |      730 |      730 |       0.08 | *
    |      399 |        - |      726 |      726 |       0.08 | *
    |      400 |        - |      717 |      717 |       0.08 | *
    |      402 |        - |      716 |      716 |       0.08 | *
    |      414 |        - |      715 |      715 |       0.08 | *
    |      418 |        - |      714 |      714 |       0.08 | *
    |      423 |        - |      713 |      713 |       0.08 | *
    |      437 |        - |      712 |      712 |       0.08 | *
    |      443 |        - |      709 |      709 |       0.08 | *
    |      465 |        - |      708 |      708 |       0.08 | *
    |      473 |        - |      707 |      707 |       0.08 | *
    |      476 |        - |      705 |      705 |       0.08 | *
    |      477 |        - |      703 |      703 |       0.08 | *
    |      482 |        - |      700 |      700 |       0.09 | *
    |      489 |        - |      695 |      695 |       0.09 | *
    |      499 |        - |      693 |      693 |       0.09 | *
    |      522 |        - |      690 |      690 |       0.09 | *
    |      541 |        - |      689 |      689 |       0.09 | *
    |      559 |        - |      685 |      685 |       0.09 | *
    |      580 |        - |      684 |      684 |       0.09 | *
    |      587 |        - |      682 |      682 |       0.09 | *
    |      596 |        - |      680 |      680 |       0.09 | *
    |      598 |        - |      676 |      676 |       0.09 | *
    |      599 |        - |      674 |      674 |       0.09 | *
    |      604 |        - |      670 |      670 |       0.09 | *
    |      608 |        - |      668 |      668 |       0.09 | *
    |      614 |        - |      662 |      662 |       0.09 | *
    |      624 |        - |      661 |      661 |       0.09 | *
    |      631 |        - |      658 |      658 |       0.09 | *
    |      634 |        - |      652 |      652 |       0.10 | *
    |      635 |        - |      651 |      651 |       0.10 | *
    |      654 |        - |      650 |      650 |       0.10 | *
    |      655 |        - |      649 |      649 |       0.10 | *
    |      663 |        - |      648 |      648 |       0.10 | *
    |      664 |        - |      642 |      642 |       0.10 | *
    |      681 |        - |      640 |      640 |       0.10 | *
    |      734 |        - |      639 |      639 |       0.10 | *
    |      746 |        - |      625 |      625 |       0.10 | *
    |      773 |        - |      624 |      624 |       0.10 | *
    |      783 |        - |      622 |      622 |       0.10 | *
    |      806 |        - |      620 |      620 |       0.10 | *
    |      809 |        - |      618 |      618 |       0.10 | *
    |      827 |        - |      617 |      617 |       0.10 | *
    |      869 |        - |      615 |      615 |       0.10 | *
    |      890 |        - |      609 |      609 |       0.10 | *
    |      893 |        - |      604 |      604 |       0.10 | *
    |      898 |        - |      603 |      603 |       0.11 | *
    |      953 |        - |      602 |      602 |       0.11 | *
    |      957 |        - |      601 |      601 |       0.11 | *
    |      961 |        - |      600 |      600 |       0.11 | *
    |      991 |        - |      593 |      593 |       0.11 | *
    |     1001 |        - |      590 |      590 |       0.11 | *
    |     1046 |        - |      585 |      585 |       0.11 | *
    |     1073 |        - |      579 |      579 |       0.11 | *
    |     1076 |        - |      578 |      578 |       0.11 | *
    |     1083 |        - |      576 |      576 |       0.11 | *
    |     1084 |        - |      575 |      575 |       0.11 | *
    |     1104 |        - |      574 |      574 |       0.11 | *
    |     1112 |        - |      569 |      569 |       0.11 | *
    |     1115 |        - |      566 |      566 |       0.11 | *
    |     1357 |        - |      564 |      564 |       0.11 | *
    |     1394 |        - |      561 |      561 |       0.11 | *
    |     1416 |        - |      560 |      560 |       0.11 | *
    |     1440 |        - |      559 |      559 |       0.11 | *
    |     1467 |        - |      557 |      557 |       0.12 | *
    |     1487 |        - |      554 |      554 |       0.12 | *
    |     1572 |        - |      552 |      552 |       0.12 | *
    |     1573 |        - |      548 |      548 |       0.12 | *
    |     1599 |        - |      546 |      546 |       0.12 | *
    |     1627 |        - |      545 |      545 |       0.12 | *
    |     1671 |        - |      540 |      540 |       0.12 | *
    |     1906 |        - |      539 |      539 |       0.12 | *
    |     1950 |        - |      537 |      537 |       0.12 | *
    |     1951 |        - |      536 |      536 |       0.12 | *
    |     1971 |        - |      534 |      534 |       0.12 | *
    |     2002 |        - |      531 |      531 |       0.12 | *
    |     2004 |        - |      530 |      530 |       0.12 | *
    |     2015 |        - |      529 |      529 |       0.12 | *
    |     2053 |        - |      528 |      528 |       0.12 | *
    |     2085 |        - |      525 |      525 |       0.13 | *
    |     2091 |        - |      523 |      523 |       0.13 | *
    |     2098 |        - |      520 |      520 |       0.13 | *
    |     2111 |        - |      519 |      519 |       0.13 | *
    |     2132 |        - |      518 |      518 |       0.13 | *
    |     2201 |        - |      516 |      516 |       0.13 | *
    |     2286 |        - |      515 |      515 |       0.13 | *
    |     2289 |        - |      514 |      514 |       0.13 | *
    |     2320 |        - |      512 |      512 |       0.13 | *
    |     2323 |        - |      511 |      511 |       0.13 | *
    |     2346 |        - |      510 |      510 |       0.13 | *
    |     2372 |        - |      509 |      509 |       0.13 | *
    |     2432 |        - |      507 |      507 |       0.13 | *
    |     2460 |        - |      504 |      504 |       0.13 | *
    |     2465 |        - |      503 |      503 |       0.13 | *
    |     2483 |        - |      501 |      501 |       0.13 | *
    |     2491 |        - |      499 |      499 |       0.13 | *
    |     2499 |        - |      495 |      495 |       0.13 | *
    |     2639 |        - |      493 |      493 |       0.14 | *
    |     2689 |        - |      490 |      490 |       0.14 | *
    |     2694 |        - |      488 |      488 |       0.14 | *
    |     2697 |        - |      487 |      487 |       0.14 | *
    |     2749 |        - |      486 |      486 |       0.14 | *
    |     2755 |        - |      485 |      485 |       0.14 | *
    |     2760 |        - |      483 |      483 |       0.14 | *
    |     2873 |        - |      482 |      482 |       0.14 | *
    |     2894 |        - |      481 |      481 |       0.14 | *
    |     2984 |        - |      480 |      480 |       0.14 | *
    |     3035 |        - |      479 |      479 |       0.14 | *
    |     3059 |        - |      478 |      478 |       0.14 | *
    |     3078 |        - |      477 |      477 |       0.14 | *
    |     3090 |        - |      476 |      476 |       0.14 | *
    |     3097 |        - |      474 |      474 |       0.14 | *
    |     3111 |        - |      473 |      473 |       0.15 | *
    |     3167 |        - |      472 |      472 |       0.15 | *
    |     3168 |        - |      468 |      468 |       0.15 | *
    |     3173 |        - |      467 |      467 |       0.15 | *
    |     3188 |        - |      466 |      466 |       0.15 | *
    |     3204 |        - |      465 |      465 |       0.15 | *
    |     3276 |        - |      463 |      463 |       0.15 | *
    |     3301 |        - |      462 |      462 |       0.15 | *
    |     3338 |        - |      460 |      460 |       0.15 | *
    |     3361 |        - |      459 |      459 |       0.15 | *
    |     3406 |        - |      458 |      458 |       0.15 | *
    |     3561 |        - |      457 |      457 |       0.15 | *
    |     3655 |        - |      456 |      456 |       0.15 | *
    |     3812 |        - |      455 |      455 |       0.15 | *
    |     3819 |        - |      454 |      454 |       0.16 | *
    |     3848 |        - |      452 |      452 |       0.16 | *
    |     3851 |        - |      451 |      451 |       0.16 | *
    |     3854 |        - |      449 |      449 |       0.16 | *
    |     4198 |        - |      448 |      448 |       0.16 | *
    |     4203 |        - |      445 |      445 |       0.16 | *
    |     4242 |        - |      442 |      442 |       0.16 | *
    |     4254 |        - |      441 |      441 |       0.16 | *
    |     4343 |        - |      439 |      439 |       0.16 | *
    |     4453 |        - |      436 |      436 |       0.16 | *
    |     4565 |        - |      434 |      434 |       0.16 | *
    |     4643 |        - |      433 |      433 |       0.16 | *
    |     4836 |        - |      432 |      432 |       0.17 | *
    |     4861 |        - |      431 |      431 |       0.17 | *
    |     4892 |        - |      429 |      429 |       0.17 | *
    |     5475 |        - |      428 |      428 |       0.17 | *
    |     5534 |        - |      427 |      427 |       0.17 | *
    |     5543 |        - |      426 |      426 |       0.17 | *
    |     5546 |        - |      425 |      425 |       0.17 | *
    |     5624 |        - |      422 |      422 |       0.17 | *
    |     5651 |        - |      418 |      418 |       0.17 | *
    |     5672 |        - |      415 |      415 |       0.17 | *
    |     5731 |        - |      414 |      414 |       0.17 | *
    |     5797 |        - |      413 |      413 |       0.17 | *
    |     5804 |        - |      412 |      412 |       0.17 | *
    |     5924 |        - |      411 |      411 |       0.18 | *
    |     6055 |        - |      410 |      410 |       0.18 | *
    |     6056 |        - |      409 |      409 |       0.18 | *
    |     6200 |        - |      408 |      408 |       0.18 | *
    |     6207 |        - |      407 |      407 |       0.18 | *
    |     6232 |        - |      406 |      406 |       0.18 | *
    |     6237 |        - |      404 |      404 |       0.18 | *
    |     6240 |        - |      403 |      403 |       0.18 | *
    |     6262 |        - |      402 |      402 |       0.18 | *
    |     6410 |        - |      401 |      401 |       0.18 | *
    |     6457 |        - |      400 |      400 |       0.18 | *
    |     6475 |        - |      399 |      399 |       0.18 | *
    |     6548 |        - |      398 |      398 |       0.18 | *
    |     6558 |        - |      397 |      397 |       0.18 | *
    |     6631 |        - |      395 |      395 |       0.18 | *
    |     6653 |        - |      394 |      394 |       0.18 | *
    |     6711 |        - |      393 |      393 |       0.19 | *
    |     7050 |        - |      391 |      391 |       0.19 | *
    |     7134 |        - |      390 |      390 |       0.19 | *
    |     7338 |        - |      389 |      389 |       0.19 | *
    |     7389 |        - |      388 |      388 |       0.19 | *
    |     7420 |        - |      386 |      386 |       0.19 | *
    |     7573 |        - |      384 |      384 |       0.19 | *
    |     7579 |        - |      382 |      382 |       0.19 | *
    |     7595 |        - |      381 |      381 |       0.19 | *
    |     7934 |        - |      380 |      380 |       0.19 | *
    |     7992 |        - |      379 |      379 |       0.19 | *
    |     8040 |        - |      378 |      378 |       0.19 | *
    |     8052 |        - |      377 |      377 |       0.19 | *
    |     8063 |        - |      374 |      374 |       0.20 | *
    |     8142 |        - |      373 |      373 |       0.20 | *
    |     8586 |        - |      372 |      372 |       0.20 | *
    |     8694 |        - |      371 |      371 |       0.20 | *
    |     8768 |        - |      370 |      370 |       0.20 | *
    |     8923 |        - |      367 |      367 |       0.20 | *
    |     9073 |        - |      365 |      365 |       0.20 | *
    |     9087 |        - |      364 |      364 |       0.20 | *
    |     9128 |        - |      363 |      363 |       0.20 | *
    |     9141 |        - |      361 |      361 |       0.20 | *
    |     9216 |        - |      360 |      360 |       0.20 | *
    |     9320 |        - |      359 |      359 |       0.20 | *
    |     9430 |        - |      357 |      357 |       0.20 | *
    |     9438 |        - |      356 |      356 |       0.21 | *
    |     9445 |        - |      354 |      354 |       0.21 | *
    |     9472 |        - |      353 |      353 |       0.21 | *
    |     9671 |        - |      352 |      352 |       0.21 | *
    |     9747 |        - |      351 |      351 |       0.21 | *
    |     9807 |        - |      350 |      350 |       0.21 | *
    |      10K |        - |      349 |      349 |       0.21 | *
    |      10K |        - |      347 |      347 |       0.21 | *
    |      10K |        - |      346 |      346 |       0.21 | *
    |      10K |        - |      345 |      345 |       0.21 | *
    |      10K |        - |      344 |      344 |       0.21 | *
    |      10K |        - |      343 |      343 |       0.21 | *
    |      11K |        - |      342 |      342 |       0.21 | *
    |      11K |        - |      341 |      341 |       0.21 | *
    |      11K |        - |      339 |      339 |       0.21 | *
    |      11K |        - |      338 |      338 |       0.21 | *
    |      11K |        - |      337 |      337 |       0.21 | *
    |      11K |        - |      336 |      336 |       0.21 | *
    |      11K |        - |      334 |      334 |       0.22 | *
    |      12K |        - |      333 |      333 |       0.22 | *
    |      12K |        - |      330 |      330 |       0.22 | *
    |      12K |        - |      328 |      328 |       0.22 | *
    |      12K |        - |      327 |      327 |       0.22 | *
    |      12K |        - |      326 |      326 |       0.22 | *
    |      12K |        - |      325 |      325 |       0.22 | *
    |      12K |        - |      323 |      323 |       0.22 | *
    |      12K |        - |      322 |      322 |       0.22 | *
    |      12K |        - |      319 |      319 |       0.22 | *
    |      13K |        - |      318 |      318 |       0.22 | *
    |      13K |        - |      316 |      316 |       0.22 | *
    |      13K |        - |      315 |      315 |       0.23 | *
    |      14K |        - |      314 |      314 |       0.23 | *
    |      14K |        - |      313 |      313 |       0.23 | *
    |      14K |        - |      312 |      312 |       0.23 | *
    |      14K |        - |      311 |      311 |       0.23 | *
    |      14K |        - |      310 |      310 |       0.23 | *
    |      15K |        - |      309 |      309 |       0.23 | *
    |      15K |        - |      308 |      308 |       0.23 | *
    |      15K |        - |      307 |      307 |       0.23 | *
    |      15K |        - |      306 |      306 |       0.23 | *
    |      16K |        - |      305 |      305 |       0.24 | *
    |      16K |        - |      304 |      304 |       0.24 | *
    |      16K |        - |      303 |      303 |       0.24 | *
    |      17K |        - |      302 |      302 |       0.24 | *
    |      17K |        - |      301 |      301 |       0.24 | *
    |      17K |        - |      300 |      300 |       0.24 | *
    |      18K |        - |      299 |      299 |       0.24 | *
    |      18K |        - |      298 |      298 |       0.24 | *
    |      18K |        - |      297 |      297 |       0.25 | *
    |      18K |        - |      296 |      296 |       0.25 | *
    |      19K |        - |      295 |      295 |       0.25 | *
    |      21K |        - |      294 |      294 |       0.26 | *
    |      22K |        - |      293 |      293 |       0.26 | *
    |      22K |        - |      292 |      292 |       0.26 | *
    |      22K |        - |      291 |      291 |       0.26 | *
    |      22K |        - |      290 |      290 |       0.26 | *
    |      23K |        - |      289 |      289 |       0.26 | *
    |      24K |        - |      288 |      288 |       0.26 | *
    |      24K |        - |      287 |      287 |       0.27 | *
    |      24K |        - |      286 |      286 |       0.27 | *
    |      24K |        - |      285 |      285 |       0.27 | *
    |      25K |        - |      284 |      284 |       0.27 | *
    |      26K |        - |      283 |      283 |       0.27 | *
    |      27K |        - |      282 |      282 |       0.28 | *
    |      27K |        - |      281 |      281 |       0.28 | *
    |      28K |        - |      280 |      280 |       0.28 | *
    |      31K |        - |      279 |      279 |       0.29 | *
    |      31K |        - |      278 |      278 |       0.29 | *
    |      32K |        - |      277 |      277 |       0.29 | *
    |      32K |        - |      276 |      276 |       0.29 | *
    |      32K |        - |      275 |      275 |       0.29 | *
    |      33K |        - |      274 |      274 |       0.30 | *
    |      33K |        - |      273 |      273 |       0.30 | *
    |      33K |        - |      272 |      272 |       0.30 | *
    |      34K |        - |      271 |      271 |       0.30 | *
    |      36K |        - |      269 |      269 |       0.30 | *
    |      36K |        - |      268 |      268 |       0.30 | *
    |      36K |        - |      267 |      267 |       0.31 | *
    |      36K |        - |      265 |      265 |       0.31 | *
    |      39K |        - |      264 |      264 |       0.31 | *
    |      39K |        - |      263 |      263 |       0.31 | *
    |      39K |        - |      262 |      262 |       0.31 | *
    |      39K |        - |      261 |      261 |       0.31 | *
    |      39K |        - |      260 |      260 |       0.31 | *
    |      39K |        - |      259 |      259 |       0.32 | *
    |      40K |        - |      258 |      258 |       0.32 | *
    |      40K |        - |      257 |      257 |       0.32 | *
    |      41K |        - |      256 |      256 |       0.32 | *
    |      41K |        - |      255 |      255 |       0.32 | *
    |      42K |        - |      254 |      254 |       0.32 | *
    |      42K |        - |      253 |      253 |       0.33 | *
    |      43K |        - |      252 |      252 |       0.33 | *
    |      43K |        - |      251 |      251 |       0.33 | *
    |      45K |        - |      250 |      250 |       0.33 | *
    |      45K |        - |      249 |      249 |       0.33 | *
    |      46K |        - |      248 |      248 |       0.34 | *
    |      47K |        - |      247 |      247 |       0.34 | *
    |      47K |        - |      246 |      246 |       0.34 | *
    |      47K |        - |      245 |      245 |       0.34 | *
    |      48K |        - |      244 |      244 |       0.34 | *
    |      49K |        - |      243 |      243 |       0.35 | *
    |      50K |        - |      242 |      242 |       0.35 | *
    |      54K |        - |      241 |      241 |       0.36 | *
    |      56K |        - |      240 |      240 |       0.37 | *
    |      58K |        - |      239 |      239 |       0.37 | *
    |      61K |        - |      238 |      238 |       0.38 | *
    |      61K |        - |      236 |      236 |       0.38 | *
    |      62K |        - |      235 |      235 |       0.38 | *
    |      64K |        - |      234 |      234 |       0.38 | *
    |      64K |        - |      232 |      232 |       0.38 | *
    |      65K |        - |      231 |      231 |       0.38 | *
    |      65K |        - |      230 |      230 |       0.38 | *
    |      65K |        - |      229 |      229 |       0.38 | *
    |      67K |        - |      228 |      228 |       0.39 | *
    |      68K |        - |      227 |      227 |       0.39 | *
    |      68K |        - |      226 |      226 |       0.39 | *
    |      73K |        - |      225 |      225 |       0.40 | *
    |      75K |        - |      224 |      224 |       0.40 | *
    |      76K |        - |      223 |      223 |       0.40 | *
    |      76K |        - |      222 |      222 |       0.40 | *
    |      78K |        - |      221 |      221 |       0.41 | *
    |      80K |        - |      220 |      220 |       0.41 | *
    |      83K |        - |      219 |      219 |       0.42 | *
    |      84K |        - |      218 |      218 |       0.43 | *
    |      86K |        - |      217 |      217 |       0.43 | *
    |      87K |        - |      216 |      216 |       0.43 | *
    |      88K |        - |      215 |      215 |       0.43 | *
    |      88K |        - |      214 |      214 |       0.44 | *
    |     100K |        - |      213 |      213 |       0.45 | *
    |     100K |        - |      212 |      212 |       0.45 | *
    |     102K |        - |      211 |      211 |       0.46 | *
    |     108K |        - |      210 |      210 |       0.47 | *
    |     110K |        - |      209 |      209 |       0.48 | *
    |     110K |        - |      208 |      208 |       0.48 | *
    |     113K |        - |      207 |      207 |       0.48 | *
    |     113K |        - |      205 |      205 |       0.48 | *
    |     113K |        - |      204 |      204 |       0.49 | *
    |     115K |        - |      203 |      203 |       0.49 | *
    |     117K |        - |      202 |      202 |       0.50 | *
    |     118K |        - |      201 |      201 |       0.50 | *
    |     118K |        - |      199 |      199 |       0.50 | *
    |     122K |        - |      198 |      198 |       0.51 | *
    |     124K |        - |      197 |      197 |       0.52 | *
    |     124K |        - |      196 |      196 |       0.52 | *
    |     126K |        - |      195 |      195 |       0.52 | *
    |     134K |        - |      194 |      194 |       0.55 | *
    |     135K |        - |      193 |      193 |       0.55 | *
    |     139K |        - |      192 |      192 |       0.56 | *
    |     142K |        - |      191 |      191 |       0.57 | *
    |     151K |        - |      190 |      190 |       0.60 | *
    |     152K |        - |      189 |      189 |       0.60 | *
    |     152K |        - |      188 |      188 |       0.60 | *
    |     154K |        - |      187 |      187 |       0.61 | *
    |     164K |        - |      186 |      186 |       0.64 | *
    |     165K |        - |      185 |      185 |       0.65 | *
    |     166K |        - |      184 |      184 |       0.65 | *
    |     169K |        - |      183 |      183 |       0.67 | *
    |     172K |        - |      182 |      182 |       0.68 | *
    |     189K |        - |      181 |      181 |       0.75 | *
    |     192K |        - |      180 |      180 |       0.76 | *
    |     194K |        - |      179 |      179 |       0.76 | *
    |     200K |        - |      178 |      178 |       0.78 | *
    |     235K |        - |      177 |      177 |       0.89 | *
    |     285K |        - |      176 |      176 |       1.03 | *
    |     286K |        - |      175 |      175 |       1.03 | *
    |     289K |        - |      174 |      174 |       1.04 | *
    |     431K |        - |      173 |      173 |       1.24 | *
    |     451K |        - |      172 |      172 |       1.26 | *
    |     451K |        - |      171 |      171 |       1.26 | *
    |     478K |        - |      170 |      170 |       1.29 | *
    |     497K |        - |      169 |      169 |       1.30 | *
    |     518K |        - |      168 |      168 |       1.32 | *
    |     524K |        - |      167 |      167 |       1.33 | *
    |     549K |        - |      166 |      166 |       1.35 | *
    |     559K |        - |      165 |      165 |       1.35 | *
    |     653K |        - |      164 |      164 |       1.42 | *
    |     675K |        - |      163 |      163 |       1.44 | *
    |     724K |        - |      162 |      162 |       1.48 | *
    |     726K |        - |      161 |      161 |       1.48 | *
    |     765K |        - |      160 |      160 |       1.52 | *
    |     857K |        - |      159 |      159 |       1.61 | *
    |     927K |        - |      158 |      158 |       1.69 | *
    |     927K |        - |      157 |      157 |       1.69 | *
    |     940K |        - |      155 |      155 |       1.70 | *
    |     944K |        - |      153 |      153 |       1.71 | *
    |     964K |        - |      152 |      152 |       1.73 | *
    |     999K |        - |      151 |      151 |       1.78 | *
    |    1019K |        - |      150 |      150 |       1.80 | *
    |    1021K |        - |      149 |      149 |       1.80 | *
    |    1023K |        - |      148 |      148 |       1.81 | *
    |    1024K |        - |      147 |      147 |       1.81 | *
    |    1326K |        - |      146 |      146 |       2.10 | *
    |    1338K |        - |      145 |      145 |       2.11 | *
    |    1405K |        - |      144 |      144 |       2.16 | *
    |    1418K |        - |      143 |      143 |       2.17 | *
    |    1440K |        - |      142 |      142 |       2.19 | *
    |    1558K |        - |      141 |      141 |       2.28 | *
    |    1562K |        - |      140 |      140 |       2.28 | *
    |    1576K |        - |      139 |      139 |       2.29 | *
    |    2120K |        - |      138 |      138 |       2.70 | *
    |    2224K |        - |      137 |      137 |       2.78 | *
    |    2386K |        - |      136 |      136 |       2.90 | *
    |    2389K |        - |      135 |      135 |       2.91 | *
    |    2565K |        - |      134 |      134 |       3.04 | *
    |    3087K |        - |      133 |      133 |       3.43 | *
    |    3095K |        - |      132 |      132 |       3.44 | *
    |    3104K |        - |      131 |      131 |       3.44 | *
    |    3179K |        - |      130 |      130 |       3.50 | *
    |    3382K |        - |      129 |      129 |       3.74 | *
    |    3555K |        - |      128 |      128 |       3.94 | *
    |    4177K |        - |      127 |      127 |       4.46 | *
    |    4193K |        - |      126 |      126 |       4.48 | *
    |    4610K |        - |      125 |      125 |       4.97 | *
    |    4696K |        - |      124 |      124 |       5.08 | *
    |    4719K |        - |      123 |      123 |       5.11 | *
    |    4884K |        - |      122 |      122 |       5.31 | *
    |    4898K |        - |      121 |      121 |       5.33 | *
    |    5713K |        - |      120 |      120 |       6.03 | *
    |    7547K |        - |      119 |      119 |       7.60 | *
    |    7804K |        - |      118 |      118 |       7.79 | *
    |      10M |        - |      117 |      117 |      10.25 | *
    |      11M |        - |      116 |      116 |      10.77 | *
    |      12M |        - |      115 |      115 |      11.21 | *
    |      15M |        - |      114 |      114 |      14.76 | *
    |      16M |        - |      113 |      113 |      14.82 | *
    |      16M |        - |      112 |      112 |      15.14 | *
    |      17M |        - |      111 |      111 |      16.00 | *
    |      17M |        - |      110 |      110 |      16.03 | *
    |      23M |        - |      109 |      109 |      21.18 | *
    |      39M |        - |      108 |      108 |      33.02 | *
    |      40M |        - |      107 |      107 |      33.72 | *
    |     115M |        - |      106 |      106 |      91.05 | *
    |     115M |        - |      105 |      105 |      91.23 | *
    |     116M |        - |      104 |      104 |      91.65 | *
    |     117M |        - |      103 |      103 |      92.39 | *
    |     138M |        - |      102 |      102 |     108.79 | *
    |     388M |        - |      101 |      101 |     297.41 | *
    |     436M |        - |      100 |      100 |     334.20 | *
    |     478M |        - |       99 |       99 |     365.88 | *
    |     495M |        - |       98 |       98 |     378.32 | *
    |     526M |        - |       97 |       97 |     401.88 | *
    |     526M |        - |       96 |       96 |     402.35 | *
    |    1398M |        - |       95 |       95 |    1056.99 | *
    |    1418M |        - |       94 |       94 |    1071.42 | *
    |    1831M |        - |       93 |       93 |    1375.97 | *
    |    1976M |        - |       92 |       92 |    1483.65 | *
    \--------------------------------------------------------/

Neighborhoods statistics (values in %):

    /----------------------------------------------------------------\
    | Move               | Improvs. | Sideways |  Accepts |  Rejects |
    |--------------------|----------|----------|----------|----------|
    | Shift(mk)          |      12K |      34K |      50K |     208M |
    | Shift              |      406 |     796K |     806K |     208M |
    | ShiftSmart(mk)     |      80K |     259K |     362K |     208M |
    | ShiftSmart         |     2643 |    4439K |    4500K |     204M |
    | SimpSwap(mk)       |       77 |      133 |      233 |     208M |
    | SimpSwap           |        3 |      906 |      967 |     208M |
    | SimpSwapSmart(mk)  |      489 |     1197 |     1830 |     208M |
    | SimpSwapSmart      |       34 |     5904 |     6329 |     208M |
    | Swap(mk)           |       17 |       45 |       66 |     208M |
    | Swap               |        1 |      206 |      219 |     208M |
    | SwapSmart(mk)      |      470 |     1216 |     1842 |     208M |
    | SwapSmart          |       36 |     6774 |     7162 |     208M |
    | Switch(mk)         |     3153 |      28M |      28M |     180M |
    | Switch             |      120 |      26M |      26M |     182M |
    | SwitchSmart(mk)    |      21K |      39K |      64K |     208M |
    | SwitchSmart        |      675 |    1955K |    1972K |     206M |
    | TaskMove(mk)       |      887 |     2373 |     3582 |     208M |
    | TaskMove           |       34 |      12K |      13K |     208M |
    | TaskMoveSmart(mk)  |     6719 |      18K |      27K |     208M |
    | TaskMoveSmart      |      301 |      96K |     101K |     208M |
    | 2-Shift(mk)        |     4363 |    4390K |    4396K |     204M |
    | 2-Shift            |      144 |    4263K |    4266K |     204M |
    | 2-ShiftSmart(mk)   |      20K |    8185K |    8208K |     200M |
    | 2-ShiftSmart       |      631 |    7748K |    7761K |     200M |
    \----------------------------------------------------------------/

Best makespan.....: 92
N. of Iterations..: 4995026312
Total runtime.....: 3600.01s
Using Python-MIP package version 1.6.8
Começo a execução
    /-------------------------------------------------------------------------------\
    |    Makespan   |   Free Jobs   | Free Machines |    It. Time   |   Total Time  | 
    |-------------------------------------------------------------------------------|
    \-------------------------------------------------------------------------------/
Terminou a execução
