Instance....: instances/I_250_10_S_1-124_3.txt
Algorithm...: Simulated Annealing (alpha=0.990, saMax=10M, t0=1)
Other params: maxIters=100M, seed=-1, timeLimit=3600.00s

    /--------------------------------------------------------\
    |     Iter |   RDP(%) |       S* |       S' |       Time | 
    |----------|----------|----------|----------|------------|
    |        0 |        - |     3357 |     3357 |       0.00 | s0
    |        3 |        - |     3303 |     3303 |       0.01 | *
    |        5 |        - |     3219 |     3219 |       0.01 | *
    |        6 |        - |     3198 |     3198 |       0.01 | *
    |       11 |        - |     3155 |     3155 |       0.01 | *
    |       15 |        - |     3016 |     3016 |       0.03 | *
    |       20 |        - |     2859 |     2859 |       0.03 | *
    |       29 |        - |     2802 |     2802 |       0.03 | *
    |       30 |        - |     2789 |     2789 |       0.03 | *
    |       33 |        - |     2766 |     2766 |       0.03 | *
    |       36 |        - |     2704 |     2704 |       0.04 | *
    |       43 |        - |     2685 |     2685 |       0.04 | *
    |       45 |        - |     2678 |     2678 |       0.04 | *
    |       49 |        - |     2668 |     2668 |       0.04 | *
    |       50 |        - |     2649 |     2649 |       0.04 | *
    |       54 |        - |     2609 |     2609 |       0.04 | *
    |       55 |        - |     2595 |     2595 |       0.04 | *
    |       56 |        - |     2566 |     2566 |       0.04 | *
    |       59 |        - |     2552 |     2552 |       0.04 | *
    |       63 |        - |     2522 |     2522 |       0.04 | *
    |       66 |        - |     2487 |     2487 |       0.04 | *
    |       70 |        - |     2482 |     2482 |       0.04 | *
    |       73 |        - |     2463 |     2463 |       0.04 | *
    |       74 |        - |     2451 |     2451 |       0.05 | *
    |       76 |        - |     2442 |     2442 |       0.05 | *
    |       78 |        - |     2420 |     2420 |       0.05 | *
    |       82 |        - |     2410 |     2410 |       0.05 | *
    |       86 |        - |     2362 |     2362 |       0.05 | *
    |       92 |        - |     2347 |     2347 |       0.05 | *
    |      100 |        - |     2335 |     2335 |       0.05 | *
    |      101 |        - |     2263 |     2263 |       0.05 | *
    |      108 |        - |     2237 |     2237 |       0.05 | *
    |      111 |        - |     2234 |     2234 |       0.05 | *
    |      112 |        - |     2231 |     2231 |       0.05 | *
    |      122 |        - |     2199 |     2199 |       0.05 | *
    |      124 |        - |     2187 |     2187 |       0.05 | *
    |      129 |        - |     2180 |     2180 |       0.05 | *
    |      131 |        - |     2175 |     2175 |       0.06 | *
    |      138 |        - |     2122 |     2122 |       0.06 | *
    |      145 |        - |     2105 |     2105 |       0.06 | *
    |      148 |        - |     2104 |     2104 |       0.06 | *
    |      156 |        - |     2102 |     2102 |       0.06 | *
    |      164 |        - |     2077 |     2077 |       0.06 | *
    |      165 |        - |     2067 |     2067 |       0.06 | *
    |      166 |        - |     2041 |     2041 |       0.06 | *
    |      171 |        - |     2028 |     2028 |       0.06 | *
    |      174 |        - |     2006 |     2006 |       0.06 | *
    |      175 |        - |     2001 |     2001 |       0.06 | *
    |      183 |        - |     1994 |     1994 |       0.06 | *
    |      197 |        - |     1974 |     1974 |       0.06 | *
    |      211 |        - |     1972 |     1972 |       0.06 | *
    |      227 |        - |     1967 |     1967 |       0.07 | *
    |      228 |        - |     1951 |     1951 |       0.07 | *
    |      237 |        - |     1948 |     1948 |       0.07 | *
    |      243 |        - |     1936 |     1936 |       0.07 | *
    |      247 |        - |     1931 |     1931 |       0.07 | *
    |      253 |        - |     1929 |     1929 |       0.07 | *
    |      254 |        - |     1910 |     1910 |       0.07 | *
    |      259 |        - |     1902 |     1902 |       0.07 | *
    |      266 |        - |     1894 |     1894 |       0.07 | *
    |      269 |        - |     1887 |     1887 |       0.07 | *
    |      274 |        - |     1885 |     1885 |       0.07 | *
    |      284 |        - |     1882 |     1882 |       0.07 | *
    |      290 |        - |     1869 |     1869 |       0.07 | *
    |      296 |        - |     1865 |     1865 |       0.07 | *
    |      298 |        - |     1864 |     1864 |       0.07 | *
    |      299 |        - |     1861 |     1861 |       0.08 | *
    |      309 |        - |     1859 |     1859 |       0.08 | *
    |      314 |        - |     1852 |     1852 |       0.08 | *
    |      316 |        - |     1847 |     1847 |       0.08 | *
    |      318 |        - |     1846 |     1846 |       0.08 | *
    |      320 |        - |     1841 |     1841 |       0.08 | *
    |      330 |        - |     1839 |     1839 |       0.08 | *
    |      341 |        - |     1826 |     1826 |       0.08 | *
    |      343 |        - |     1824 |     1824 |       0.08 | *
    |      344 |        - |     1814 |     1814 |       0.08 | *
    |      359 |        - |     1811 |     1811 |       0.08 | *
    |      368 |        - |     1783 |     1783 |       0.08 | *
    |      387 |        - |     1777 |     1777 |       0.08 | *
    |      408 |        - |     1771 |     1771 |       0.08 | *
    |      423 |        - |     1769 |     1769 |       0.08 | *
    |      433 |        - |     1760 |     1760 |       0.08 | *
    |      435 |        - |     1752 |     1752 |       0.09 | *
    |      443 |        - |     1749 |     1749 |       0.09 | *
    |      455 |        - |     1747 |     1747 |       0.09 | *
    |      463 |        - |     1738 |     1738 |       0.09 | *
    |      465 |        - |     1735 |     1735 |       0.09 | *
    |      468 |        - |     1722 |     1722 |       0.09 | *
    |      472 |        - |     1718 |     1718 |       0.09 | *
    |      494 |        - |     1711 |     1711 |       0.09 | *
    |      531 |        - |     1709 |     1709 |       0.09 | *
    |      539 |        - |     1705 |     1705 |       0.09 | *
    |      543 |        - |     1700 |     1700 |       0.09 | *
    |      553 |        - |     1693 |     1693 |       0.09 | *
    |      563 |        - |     1683 |     1683 |       0.09 | *
    |      589 |        - |     1676 |     1676 |       0.10 | *
    |      590 |        - |     1672 |     1672 |       0.10 | *
    |      601 |        - |     1668 |     1668 |       0.10 | *
    |      602 |        - |     1662 |     1662 |       0.10 | *
    |      615 |        - |     1657 |     1657 |       0.10 | *
    |      619 |        - |     1656 |     1656 |       0.10 | *
    |      637 |        - |     1644 |     1644 |       0.10 | *
    |      640 |        - |     1639 |     1639 |       0.10 | *
    |      658 |        - |     1636 |     1636 |       0.10 | *
    |      659 |        - |     1633 |     1633 |       0.10 | *
    |      699 |        - |     1632 |     1632 |       0.10 | *
    |      713 |        - |     1631 |     1631 |       0.10 | *
    |      731 |        - |     1629 |     1629 |       0.10 | *
    |      733 |        - |     1628 |     1628 |       0.10 | *
    |      743 |        - |     1624 |     1624 |       0.10 | *
    |      746 |        - |     1612 |     1612 |       0.10 | *
    |      759 |        - |     1611 |     1611 |       0.11 | *
    |      765 |        - |     1610 |     1610 |       0.11 | *
    |      768 |        - |     1609 |     1609 |       0.11 | *
    |      782 |        - |     1608 |     1608 |       0.11 | *
    |      799 |        - |     1605 |     1605 |       0.11 | *
    |      817 |        - |     1601 |     1601 |       0.11 | *
    |      818 |        - |     1597 |     1597 |       0.11 | *
    |      829 |        - |     1593 |     1593 |       0.11 | *
    |      833 |        - |     1587 |     1587 |       0.11 | *
    |      849 |        - |     1579 |     1579 |       0.11 | *
    |      856 |        - |     1576 |     1576 |       0.11 | *
    |      868 |        - |     1572 |     1572 |       0.11 | *
    |      869 |        - |     1570 |     1570 |       0.12 | *
    |      875 |        - |     1566 |     1566 |       0.12 | *
    |      881 |        - |     1564 |     1564 |       0.12 | *
    |      895 |        - |     1560 |     1560 |       0.12 | *
    |      929 |        - |     1548 |     1548 |       0.12 | *
    |      941 |        - |     1521 |     1521 |       0.12 | *
    |      945 |        - |     1513 |     1513 |       0.12 | *
    |      952 |        - |     1509 |     1509 |       0.12 | *
    |      995 |        - |     1501 |     1501 |       0.12 | *
    |     1018 |        - |     1493 |     1493 |       0.12 | *
    |     1035 |        - |     1487 |     1487 |       0.12 | *
    |     1039 |        - |     1485 |     1485 |       0.13 | *
    |     1042 |        - |     1481 |     1481 |       0.13 | *
    |     1044 |        - |     1480 |     1480 |       0.13 | *
    |     1048 |        - |     1479 |     1479 |       0.13 | *
    |     1096 |        - |     1470 |     1470 |       0.13 | *
    |     1103 |        - |     1465 |     1465 |       0.13 | *
    |     1135 |        - |     1464 |     1464 |       0.13 | *
    |     1153 |        - |     1455 |     1455 |       0.13 | *
    |     1176 |        - |     1453 |     1453 |       0.13 | *
    |     1194 |        - |     1449 |     1449 |       0.13 | *
    |     1196 |        - |     1448 |     1448 |       0.13 | *
    |     1203 |        - |     1445 |     1445 |       0.13 | *
    |     1241 |        - |     1439 |     1439 |       0.13 | *
    |     1292 |        - |     1423 |     1423 |       0.14 | *
    |     1343 |        - |     1422 |     1422 |       0.14 | *
    |     1381 |        - |     1419 |     1419 |       0.14 | *
    |     1391 |        - |     1409 |     1409 |       0.14 | *
    |     1403 |        - |     1408 |     1408 |       0.14 | *
    |     1411 |        - |     1396 |     1396 |       0.14 | *
    |     1475 |        - |     1394 |     1394 |       0.14 | *
    |     1485 |        - |     1392 |     1392 |       0.14 | *
    |     1580 |        - |     1389 |     1389 |       0.15 | *
    |     1585 |        - |     1388 |     1388 |       0.15 | *
    |     1598 |        - |     1382 |     1382 |       0.15 | *
    |     1601 |        - |     1381 |     1381 |       0.15 | *
    |     1603 |        - |     1374 |     1374 |       0.15 | *
    |     1612 |        - |     1368 |     1368 |       0.15 | *
    |     1636 |        - |     1367 |     1367 |       0.15 | *
    |     1685 |        - |     1351 |     1351 |       0.15 | *
    |     1687 |        - |     1345 |     1345 |       0.15 | *
    |     1695 |        - |     1341 |     1341 |       0.15 | *
    |     1699 |        - |     1339 |     1339 |       0.15 | *
    |     1718 |        - |     1335 |     1335 |       0.15 | *
    |     1733 |        - |     1334 |     1334 |       0.15 | *
    |     1736 |        - |     1330 |     1330 |       0.15 | *
    |     1810 |        - |     1318 |     1318 |       0.16 | *
    |     1834 |        - |     1313 |     1313 |       0.16 | *
    |     1837 |        - |     1311 |     1311 |       0.16 | *
    |     1853 |        - |     1309 |     1309 |       0.16 | *
    |     1905 |        - |     1308 |     1308 |       0.16 | *
    |     1961 |        - |     1307 |     1307 |       0.16 | *
    |     1964 |        - |     1306 |     1306 |       0.16 | *
    |     1977 |        - |     1304 |     1304 |       0.16 | *
    |     1985 |        - |     1302 |     1302 |       0.16 | *
    |     2003 |        - |     1300 |     1300 |       0.16 | *
    |     2011 |        - |     1297 |     1297 |       0.16 | *
    |     2107 |        - |     1290 |     1290 |       0.16 | *
    |     2173 |        - |     1285 |     1285 |       0.16 | *
    |     2180 |        - |     1283 |     1283 |       0.17 | *
    |     2182 |        - |     1280 |     1280 |       0.17 | *
    |     2209 |        - |     1277 |     1277 |       0.17 | *
    |     2281 |        - |     1276 |     1276 |       0.17 | *
    |     2290 |        - |     1275 |     1275 |       0.17 | *
    |     2299 |        - |     1273 |     1273 |       0.17 | *
    |     2332 |        - |     1271 |     1271 |       0.17 | *
    |     2344 |        - |     1270 |     1270 |       0.17 | *
    |     2354 |        - |     1264 |     1264 |       0.17 | *
    |     2399 |        - |     1262 |     1262 |       0.17 | *
    |     2414 |        - |     1251 |     1251 |       0.17 | *
    |     2417 |        - |     1247 |     1247 |       0.17 | *
    |     2422 |        - |     1244 |     1244 |       0.17 | *
    |     2441 |        - |     1231 |     1231 |       0.17 | *
    |     2471 |        - |     1228 |     1228 |       0.17 | *
    |     2473 |        - |     1226 |     1226 |       0.18 | *
    |     2580 |        - |     1225 |     1225 |       0.18 | *
    |     2584 |        - |     1224 |     1224 |       0.18 | *
    |     2600 |        - |     1220 |     1220 |       0.18 | *
    |     2628 |        - |     1219 |     1219 |       0.18 | *
    |     2658 |        - |     1212 |     1212 |       0.18 | *
    |     2668 |        - |     1210 |     1210 |       0.18 | *
    |     2754 |        - |     1209 |     1209 |       0.18 | *
    |     2760 |        - |     1206 |     1206 |       0.18 | *
    |     2772 |        - |     1203 |     1203 |       0.18 | *
    |     2808 |        - |     1200 |     1200 |       0.18 | *
    |     2837 |        - |     1198 |     1198 |       0.18 | *
    |     2907 |        - |     1191 |     1191 |       0.18 | *
    |     2982 |        - |     1190 |     1190 |       0.18 | *
    |     3066 |        - |     1189 |     1189 |       0.19 | *
    |     3082 |        - |     1187 |     1187 |       0.19 | *
    |     3163 |        - |     1182 |     1182 |       0.19 | *
    |     3206 |        - |     1179 |     1179 |       0.19 | *
    |     3353 |        - |     1175 |     1175 |       0.19 | *
    |     3476 |        - |     1172 |     1172 |       0.19 | *
    |     3506 |        - |     1171 |     1171 |       0.19 | *
    |     3544 |        - |     1170 |     1170 |       0.19 | *
    |     3641 |        - |     1169 |     1169 |       0.19 | *
    |     3643 |        - |     1168 |     1168 |       0.19 | *
    |     3665 |        - |     1165 |     1165 |       0.20 | *
    |     3677 |        - |     1162 |     1162 |       0.20 | *
    |     3698 |        - |     1160 |     1160 |       0.20 | *
    |     3703 |        - |     1158 |     1158 |       0.20 | *
    |     3704 |        - |     1157 |     1157 |       0.20 | *
    |     3719 |        - |     1153 |     1153 |       0.20 | *
    |     3776 |        - |     1152 |     1152 |       0.20 | *
    |     3861 |        - |     1150 |     1150 |       0.20 | *
    |     3889 |        - |     1133 |     1133 |       0.20 | *
    |     3951 |        - |     1131 |     1131 |       0.20 | *
    |     3955 |        - |     1128 |     1128 |       0.20 | *
    |     3971 |        - |     1126 |     1126 |       0.20 | *
    |     4055 |        - |     1123 |     1123 |       0.20 | *
    |     4136 |        - |     1121 |     1121 |       0.20 | *
    |     4164 |        - |     1120 |     1120 |       0.21 | *
    |     4343 |        - |     1114 |     1114 |       0.21 | *
    |     4454 |        - |     1109 |     1109 |       0.21 | *
    |     4478 |        - |     1108 |     1108 |       0.21 | *
    |     4584 |        - |     1103 |     1103 |       0.21 | *
    |     4654 |        - |     1100 |     1100 |       0.21 | *
    |     4680 |        - |     1099 |     1099 |       0.22 | *
    |     4762 |        - |     1098 |     1098 |       0.22 | *
    |     4841 |        - |     1097 |     1097 |       0.22 | *
    |     4847 |        - |     1092 |     1092 |       0.22 | *
    |     4857 |        - |     1088 |     1088 |       0.22 | *
    |     4995 |        - |     1086 |     1086 |       0.22 | *
    |     5015 |        - |     1083 |     1083 |       0.22 | *
    |     5102 |        - |     1081 |     1081 |       0.22 | *
    |     5164 |        - |     1080 |     1080 |       0.22 | *
    |     5169 |        - |     1077 |     1077 |       0.22 | *
    |     5219 |        - |     1075 |     1075 |       0.22 | *
    |     5222 |        - |     1074 |     1074 |       0.22 | *
    |     5295 |        - |     1072 |     1072 |       0.23 | *
    |     5337 |        - |     1071 |     1071 |       0.23 | *
    |     5341 |        - |     1069 |     1069 |       0.23 | *
    |     5399 |        - |     1067 |     1067 |       0.23 | *
    |     5432 |        - |     1066 |     1066 |       0.23 | *
    |     5444 |        - |     1064 |     1064 |       0.23 | *
    |     5492 |        - |     1063 |     1063 |       0.23 | *
    |     5498 |        - |     1061 |     1061 |       0.23 | *
    |     5523 |        - |     1049 |     1049 |       0.23 | *
    |     5666 |        - |     1047 |     1047 |       0.23 | *
    |     5694 |        - |     1045 |     1045 |       0.23 | *
    |     5713 |        - |     1043 |     1043 |       0.23 | *
    |     5761 |        - |     1040 |     1040 |       0.23 | *
    |     5795 |        - |     1039 |     1039 |       0.23 | *
    |     5815 |        - |     1038 |     1038 |       0.23 | *
    |     5845 |        - |     1036 |     1036 |       0.24 | *
    |     5863 |        - |     1035 |     1035 |       0.24 | *
    |     5903 |        - |     1034 |     1034 |       0.24 | *
    |     5982 |        - |     1026 |     1026 |       0.24 | *
    |     6102 |        - |     1024 |     1024 |       0.24 | *
    |     6107 |        - |     1023 |     1023 |       0.24 | *
    |     6198 |        - |     1017 |     1017 |       0.24 | *
    |     6225 |        - |     1010 |     1010 |       0.24 | *
    |     6226 |        - |     1007 |     1007 |       0.24 | *
    |     6257 |        - |     1005 |     1005 |       0.24 | *
    |     6268 |        - |     1004 |     1004 |       0.24 | *
    |     6271 |        - |     1003 |     1003 |       0.24 | *
    |     6369 |        - |     1001 |     1001 |       0.24 | *
    |     6445 |        - |      997 |      997 |       0.24 | *
    |     6461 |        - |      995 |      995 |       0.25 | *
    |     6561 |        - |      993 |      993 |       0.25 | *
    |     6643 |        - |      990 |      990 |       0.25 | *
    |     6681 |        - |      985 |      985 |       0.25 | *
    |     6706 |        - |      984 |      984 |       0.25 | *
    |     6888 |        - |      982 |      982 |       0.25 | *
    |     6945 |        - |      978 |      978 |       0.25 | *
    |     6951 |        - |      977 |      977 |       0.25 | *
    |     7123 |        - |      976 |      976 |       0.25 | *
    |     7130 |        - |      975 |      975 |       0.25 | *
    |     7185 |        - |      971 |      971 |       0.25 | *
    |     7257 |        - |      969 |      969 |       0.25 | *
    |     7258 |        - |      960 |      960 |       0.26 | *
    |     7529 |        - |      958 |      958 |       0.26 | *
    |     7577 |        - |      957 |      957 |       0.26 | *
    |     7678 |        - |      951 |      951 |       0.26 | *
    |     7789 |        - |      947 |      947 |       0.26 | *
    |     7795 |        - |      946 |      946 |       0.26 | *
    |     7933 |        - |      943 |      943 |       0.26 | *
    |     8042 |        - |      941 |      941 |       0.26 | *
    |     8070 |        - |      938 |      938 |       0.26 | *
    |     8087 |        - |      937 |      937 |       0.26 | *
    |     8109 |        - |      934 |      934 |       0.26 | *
    |     8221 |        - |      933 |      933 |       0.27 | *
    |     8240 |        - |      930 |      930 |       0.27 | *
    |     8335 |        - |      927 |      927 |       0.27 | *
    |     8431 |        - |      922 |      922 |       0.27 | *
    |     8555 |        - |      921 |      921 |       0.27 | *
    |     8942 |        - |      910 |      910 |       0.27 | *
    |     8956 |        - |      908 |      908 |       0.27 | *
    |     9108 |        - |      903 |      903 |       0.27 | *
    |     9196 |        - |      902 |      902 |       0.27 | *
    |     9231 |        - |      901 |      901 |       0.27 | *
    |     9240 |        - |      900 |      900 |       0.28 | *
    |     9359 |        - |      897 |      897 |       0.28 | *
    |     9465 |        - |      896 |      896 |       0.28 | *
    |     9704 |        - |      895 |      895 |       0.28 | *
    |     9718 |        - |      893 |      893 |       0.28 | *
    |     9985 |        - |      891 |      891 |       0.28 | *
    |      10K |        - |      890 |      890 |       0.28 | *
    |      10K |        - |      889 |      889 |       0.28 | *
    |      10K |        - |      886 |      886 |       0.28 | *
    |      11K |        - |      885 |      885 |       0.29 | *
    |      11K |        - |      883 |      883 |       0.29 | *
    |      11K |        - |      882 |      882 |       0.29 | *
    |      11K |        - |      881 |      881 |       0.29 | *
    |      11K |        - |      880 |      880 |       0.29 | *
    |      11K |        - |      879 |      879 |       0.29 | *
    |      11K |        - |      878 |      878 |       0.29 | *
    |      11K |        - |      876 |      876 |       0.29 | *
    |      11K |        - |      875 |      875 |       0.29 | *
    |      11K |        - |      873 |      873 |       0.29 | *
    |      11K |        - |      868 |      868 |       0.29 | *
    |      11K |        - |      865 |      865 |       0.29 | *
    |      12K |        - |      863 |      863 |       0.30 | *
    |      12K |        - |      862 |      862 |       0.30 | *
    |      12K |        - |      861 |      861 |       0.30 | *
    |      13K |        - |      858 |      858 |       0.30 | *
    |      13K |        - |      857 |      857 |       0.30 | *
    |      13K |        - |      850 |      850 |       0.30 | *
    |      13K |        - |      849 |      849 |       0.31 | *
    |      14K |        - |      847 |      847 |       0.31 | *
    |      14K |        - |      843 |      843 |       0.31 | *
    |      14K |        - |      840 |      840 |       0.31 | *
    |      14K |        - |      834 |      834 |       0.31 | *
    |      14K |        - |      833 |      833 |       0.31 | *
    |      14K |        - |      831 |      831 |       0.31 | *
    |      14K |        - |      828 |      828 |       0.31 | *
    |      14K |        - |      827 |      827 |       0.31 | *
    |      15K |        - |      825 |      825 |       0.31 | *
    |      15K |        - |      824 |      824 |       0.32 | *
    |      15K |        - |      822 |      822 |       0.32 | *
    |      16K |        - |      819 |      819 |       0.32 | *
    |      16K |        - |      817 |      817 |       0.32 | *
    |      16K |        - |      816 |      816 |       0.32 | *
    |      16K |        - |      814 |      814 |       0.32 | *
    |      17K |        - |      813 |      813 |       0.33 | *
    |      17K |        - |      809 |      809 |       0.33 | *
    |      18K |        - |      808 |      808 |       0.33 | *
    |      18K |        - |      806 |      806 |       0.33 | *
    |      18K |        - |      805 |      805 |       0.33 | *
    |      18K |        - |      803 |      803 |       0.33 | *
    |      18K |        - |      802 |      802 |       0.33 | *
    |      18K |        - |      801 |      801 |       0.33 | *
    |      18K |        - |      799 |      799 |       0.34 | *
    |      18K |        - |      797 |      797 |       0.34 | *
    |      19K |        - |      796 |      796 |       0.34 | *
    |      19K |        - |      795 |      795 |       0.34 | *
    |      19K |        - |      791 |      791 |       0.34 | *
    |      19K |        - |      787 |      787 |       0.34 | *
    |      19K |        - |      786 |      786 |       0.34 | *
    |      19K |        - |      783 |      783 |       0.34 | *
    |      20K |        - |      782 |      782 |       0.34 | *
    |      20K |        - |      781 |      781 |       0.35 | *
    |      20K |        - |      779 |      779 |       0.35 | *
    |      20K |        - |      778 |      778 |       0.35 | *
    |      20K |        - |      775 |      775 |       0.35 | *
    |      22K |        - |      774 |      774 |       0.36 | *
    |      23K |        - |      773 |      773 |       0.36 | *
    |      23K |        - |      772 |      772 |       0.36 | *
    |      25K |        - |      770 |      770 |       0.37 | *
    |      25K |        - |      767 |      767 |       0.37 | *
    |      25K |        - |      766 |      766 |       0.37 | *
    |      26K |        - |      764 |      764 |       0.37 | *
    |      26K |        - |      763 |      763 |       0.38 | *
    |      26K |        - |      761 |      761 |       0.38 | *
    |      28K |        - |      759 |      759 |       0.39 | *
    |      28K |        - |      757 |      757 |       0.39 | *
    |      28K |        - |      755 |      755 |       0.39 | *
    |      28K |        - |      749 |      749 |       0.39 | *
    |      29K |        - |      748 |      748 |       0.39 | *
    |      30K |        - |      737 |      737 |       0.39 | *
    |      30K |        - |      734 |      734 |       0.40 | *
    |      31K |        - |      733 |      733 |       0.40 | *
    |      31K |        - |      729 |      729 |       0.40 | *
    |      31K |        - |      728 |      728 |       0.40 | *
    |      31K |        - |      727 |      727 |       0.40 | *
    |      31K |        - |      726 |      726 |       0.40 | *
    |      32K |        - |      721 |      721 |       0.40 | *
    |      33K |        - |      719 |      719 |       0.41 | *
    |      33K |        - |      718 |      718 |       0.41 | *
    |      33K |        - |      717 |      717 |       0.41 | *
    |      34K |        - |      716 |      716 |       0.41 | *
    |      34K |        - |      715 |      715 |       0.41 | *
    |      34K |        - |      711 |      711 |       0.41 | *
    |      34K |        - |      710 |      710 |       0.41 | *
    |      34K |        - |      709 |      709 |       0.41 | *
    |      35K |        - |      707 |      707 |       0.42 | *
    |      36K |        - |      703 |      703 |       0.42 | *
    |      36K |        - |      701 |      701 |       0.42 | *
    |      38K |        - |      700 |      700 |       0.43 | *
    |      38K |        - |      698 |      698 |       0.43 | *
    |      39K |        - |      696 |      696 |       0.43 | *
    |      39K |        - |      695 |      695 |       0.43 | *
    |      39K |        - |      694 |      694 |       0.44 | *
    |      41K |        - |      693 |      693 |       0.44 | *
    |      42K |        - |      692 |      692 |       0.44 | *
    |      42K |        - |      690 |      690 |       0.45 | *
    |      44K |        - |      689 |      689 |       0.47 | *
    |      44K |        - |      687 |      687 |       0.47 | *
    |      45K |        - |      684 |      684 |       0.47 | *
    |      46K |        - |      683 |      683 |       0.48 | *
    |      47K |        - |      682 |      682 |       0.48 | *
    |      47K |        - |      678 |      678 |       0.48 | *
    |      47K |        - |      677 |      677 |       0.48 | *
    |      47K |        - |      676 |      676 |       0.49 | *
    |      48K |        - |      674 |      674 |       0.49 | *
    |      48K |        - |      673 |      673 |       0.49 | *
    |      48K |        - |      672 |      672 |       0.49 | *
    |      48K |        - |      671 |      671 |       0.49 | *
    |      48K |        - |      670 |      670 |       0.50 | *
    |      49K |        - |      663 |      663 |       0.51 | *
    |      53K |        - |      662 |      662 |       0.55 | *
    |      53K |        - |      661 |      661 |       0.55 | *
    |      57K |        - |      654 |      654 |       0.57 | *
    |      57K |        - |      653 |      653 |       0.57 | *
    |      60K |        - |      650 |      650 |       0.59 | *
    |      60K |        - |      648 |      648 |       0.59 | *
    |      66K |        - |      647 |      647 |       0.61 | *
    |      78K |        - |      646 |      646 |       0.71 | *
    |      84K |        - |      645 |      645 |       0.74 | *
    |      85K |        - |      643 |      643 |       0.75 | *
    |      87K |        - |      640 |      640 |       0.76 | *
    |      88K |        - |      639 |      639 |       0.77 | *
    |      89K |        - |      638 |      638 |       0.77 | *
    |      90K |        - |      637 |      637 |       0.78 | *
    |      90K |        - |      634 |      634 |       0.79 | *
    |     110K |        - |      633 |      633 |       0.90 | *
    |     110K |        - |      632 |      632 |       0.90 | *
    |     110K |        - |      631 |      631 |       0.90 | *
    |     111K |        - |      630 |      630 |       0.91 | *
    |     112K |        - |      629 |      629 |       0.91 | *
    |     112K |        - |      626 |      626 |       0.92 | *
    |     112K |        - |      625 |      625 |       0.92 | *
    |     112K |        - |      624 |      624 |       0.92 | *
    |     112K |        - |      621 |      621 |       0.92 | *
    |     112K |        - |      620 |      620 |       0.92 | *
    |     112K |        - |      618 |      618 |       0.92 | *
    |     112K |        - |      616 |      616 |       0.92 | *
    |     112K |        - |      615 |      615 |       0.92 | *
    |     121K |        - |      614 |      614 |       0.97 | *
    |     121K |        - |      613 |      613 |       0.97 | *
    |     122K |        - |      612 |      612 |       0.98 | *
    |     124K |        - |      611 |      611 |       0.99 | *
    |     137K |        - |      610 |      610 |       1.07 | *
    |     140K |        - |      609 |      609 |       1.09 | *
    |     142K |        - |      608 |      608 |       1.10 | *
    |     142K |        - |      607 |      607 |       1.10 | *
    |     143K |        - |      606 |      606 |       1.10 | *
    |     143K |        - |      605 |      605 |       1.10 | *
    |     143K |        - |      604 |      604 |       1.10 | *
    |     150K |        - |      603 |      603 |       1.13 | *
    |     152K |        - |      602 |      602 |       1.14 | *
    |     152K |        - |      601 |      601 |       1.16 | *
    |     153K |        - |      600 |      600 |       1.17 | *
    |     155K |        - |      599 |      599 |       1.19 | *
    |     155K |        - |      598 |      598 |       1.20 | *
    |     175K |        - |      597 |      597 |       1.32 | *
    |     188K |        - |      596 |      596 |       1.35 | *
    |     195K |        - |      595 |      595 |       1.37 | *
    |     195K |        - |      589 |      589 |       1.37 | *
    |     196K |        - |      588 |      588 |       1.37 | *
    |     197K |        - |      585 |      585 |       1.38 | *
    |     197K |        - |      584 |      584 |       1.38 | *
    |     198K |        - |      583 |      583 |       1.39 | *
    |     201K |        - |      582 |      582 |       1.40 | *
    |     201K |        - |      581 |      581 |       1.41 | *
    |     203K |        - |      579 |      579 |       1.42 | *
    |     203K |        - |      578 |      578 |       1.42 | *
    |     213K |        - |      575 |      575 |       1.45 | *
    |     213K |        - |      574 |      574 |       1.45 | *
    |     216K |        - |      573 |      573 |       1.45 | *
    |     218K |        - |      570 |      570 |       1.46 | *
    |     218K |        - |      569 |      569 |       1.46 | *
    |     219K |        - |      568 |      568 |       1.46 | *
    |     224K |        - |      567 |      567 |       1.49 | *
    |     224K |        - |      565 |      565 |       1.49 | *
    |     236K |        - |      564 |      564 |       1.52 | *
    |     240K |        - |      563 |      563 |       1.53 | *
    |     244K |        - |      562 |      562 |       1.55 | *
    |     244K |        - |      561 |      561 |       1.55 | *
    |     245K |        - |      558 |      558 |       1.55 | *
    |     245K |        - |      557 |      557 |       1.55 | *
    |     263K |        - |      554 |      554 |       1.60 | *
    |     297K |        - |      553 |      553 |       1.67 | *
    |     297K |        - |      550 |      550 |       1.68 | *
    |     349K |        - |      549 |      549 |       1.74 | *
    |     349K |        - |      548 |      548 |       1.74 | *
    |     350K |        - |      547 |      547 |       1.74 | *
    |     351K |        - |      546 |      546 |       1.75 | *
    |     351K |        - |      545 |      545 |       1.75 | *
    |     351K |        - |      544 |      544 |       1.75 | *
    |     351K |        - |      542 |      542 |       1.75 | *
    |     354K |        - |      541 |      541 |       1.75 | *
    |     358K |        - |      540 |      540 |       1.75 | *
    |     358K |        - |      539 |      539 |       1.75 | *
    |     359K |        - |      537 |      537 |       1.76 | *
    |     390K |        - |      536 |      536 |       1.79 | *
    |     391K |        - |      535 |      535 |       1.79 | *
    |     511K |        - |      534 |      534 |       1.91 | *
    |     511K |        - |      533 |      533 |       1.91 | *
    |     569K |        - |      531 |      531 |       1.98 | *
    |     600K |        - |      529 |      529 |       2.01 | *
    |     629K |        - |      527 |      527 |       2.03 | *
    |     630K |        - |      525 |      525 |       2.04 | *
    |     631K |        - |      524 |      524 |       2.04 | *
    |     637K |        - |      523 |      523 |       2.04 | *
    |     678K |        - |      522 |      522 |       2.08 | *
    |     678K |        - |      521 |      521 |       2.08 | *
    |     685K |        - |      520 |      520 |       2.09 | *
    |     686K |        - |      519 |      519 |       2.09 | *
    |     688K |        - |      518 |      518 |       2.09 | *
    |     692K |        - |      517 |      517 |       2.09 | *
    |     692K |        - |      516 |      516 |       2.09 | *
    |     718K |        - |      514 |      514 |       2.12 | *
    |     726K |        - |      513 |      513 |       2.13 | *
    |     735K |        - |      511 |      511 |       2.14 | *
    |     742K |        - |      510 |      510 |       2.15 | *
    |     743K |        - |      509 |      509 |       2.15 | *
    |     750K |        - |      508 |      508 |       2.15 | *
    |     770K |        - |      506 |      506 |       2.17 | *
    |     870K |        - |      505 |      505 |       2.27 | *
    |     871K |        - |      504 |      504 |       2.27 | *
    |     886K |        - |      503 |      503 |       2.28 | *
    |     894K |        - |      501 |      501 |       2.29 | *
    |     894K |        - |      500 |      500 |       2.29 | *
    |     940K |        - |      497 |      497 |       2.34 | *
    |     956K |        - |      495 |      495 |       2.35 | *
    |     956K |        - |      494 |      494 |       2.35 | *
    |    1047K |        - |      493 |      493 |       2.43 | *
    |    1226K |        - |      492 |      492 |       2.59 | *
    |    1259K |        - |      491 |      491 |       2.62 | *
    |    1272K |        - |      490 |      490 |       2.63 | *
    |    1510K |        - |      489 |      489 |       2.85 | *
    |    1617K |        - |      488 |      488 |       2.94 | *
    |    1617K |        - |      486 |      486 |       2.94 | *
    |    1627K |        - |      485 |      485 |       2.95 | *
    |    1745K |        - |      484 |      484 |       3.06 | *
    |    1899K |        - |      483 |      483 |       3.20 | *
    |    2062K |        - |      482 |      482 |       3.35 | *
    |    2190K |        - |      481 |      481 |       3.46 | *
    |    2224K |        - |      480 |      480 |       3.50 | *
    |    2456K |        - |      479 |      479 |       3.73 | *
    |    2624K |        - |      478 |      478 |       3.91 | *
    |    2631K |        - |      477 |      477 |       3.91 | *
    |    2663K |        - |      476 |      476 |       3.95 | *
    |    2663K |        - |      475 |      475 |       3.95 | *
    |    2731K |        - |      474 |      474 |       4.02 | *
    |    2734K |        - |      470 |      470 |       4.02 | *
    |    2736K |        - |      469 |      469 |       4.03 | *
    |    2736K |        - |      468 |      468 |       4.03 | *
    |    2986K |        - |      467 |      467 |       4.42 | *
    |    3895K |        - |      466 |      466 |       5.74 | *
    |    4073K |        - |      465 |      465 |       5.94 | *
    |    4075K |        - |      464 |      464 |       5.94 | *
    |    4078K |        - |      463 |      463 |       5.94 | *
    |    4254K |        - |      462 |      462 |       6.12 | *
    |    4273K |        - |      461 |      461 |       6.14 | *
    |    4289K |        - |      460 |      460 |       6.15 | *
    |    4577K |        - |      459 |      459 |       6.41 | *
    |    4631K |        - |      458 |      458 |       6.46 | *
    |    4632K |        - |      457 |      457 |       6.46 | *
    |    4761K |        - |      456 |      456 |       6.58 | *
    |    4763K |        - |      455 |      455 |       6.58 | *
    |    4804K |        - |      454 |      454 |       6.62 | *
    |    4851K |        - |      453 |      453 |       6.66 | *
    |    6185K |        - |      451 |      451 |       8.10 | *
    |    6963K |        - |      450 |      450 |       9.02 | *
    |    6963K |        - |      449 |      449 |       9.02 | *
    |    6964K |        - |      447 |      447 |       9.03 | *
    |    7800K |        - |      446 |      446 |       9.77 | *
    |    9928K |        - |      444 |      444 |      12.42 | *
    |      10M |        - |      443 |      443 |      12.68 | *
    |      10M |        - |      442 |      442 |      12.92 | *
    |      10M |        - |      441 |      441 |      13.03 | *
    |      10M |        - |      440 |      440 |      13.04 | *
    |      11M |        - |      439 |      439 |      13.17 | *
    |      11M |        - |      438 |      438 |      14.31 | *
    |      19M |        - |      437 |      437 |      23.62 | *
    |      19M |        - |      436 |      436 |      23.66 | *
    |      20M |        - |      435 |      435 |      24.51 | *
    |      25M |        - |      434 |      434 |      29.89 | *
    |      30M |        - |      433 |      433 |      33.58 | *
    |      30M |        - |      432 |      432 |      33.63 | *
    |      30M |        - |      431 |      431 |      33.64 | *
    |      30M |        - |      430 |      430 |      33.66 | *
    |      30M |        - |      429 |      429 |      34.43 | *
    |      31M |        - |      428 |      428 |      34.55 | *
    |      31M |        - |      427 |      427 |      34.64 | *
    |      31M |        - |      426 |      426 |      34.70 | *
    |      35M |        - |      425 |      425 |      38.50 | *
    |      36M |        - |      424 |      424 |      39.30 | *
    |      43M |        - |      423 |      423 |      46.11 | *
    |     351M |        - |      422 |      422 |     321.75 | *
    |     352M |        - |      420 |      420 |     322.74 | *
    |     352M |        - |      419 |      419 |     322.74 | *
    |     441M |        - |      418 |      418 |     401.73 | *
    |     442M |        - |      417 |      417 |     403.39 | *
    |     444M |        - |      416 |      416 |     404.49 | *
    |     829M |        - |      415 |      415 |     746.89 | *
    |     866M |        - |      414 |      414 |     779.92 | *
    |     874M |        - |      413 |      413 |     787.28 | *
    |    1111M |        - |      412 |      412 |    1000.60 | *
    |    1120M |        - |      411 |      411 |    1009.25 | *
    |    1578M |        - |      410 |      410 |    1419.42 | *
    \--------------------------------------------------------/

Neighborhoods statistics (values in %):

    /----------------------------------------------------------------\
    | Move               | Improvs. | Sideways |  Accepts |  Rejects |
    |--------------------|----------|----------|----------|----------|
    | Shift(mk)          |     3065 |     8523 |      13K |     171M |
    | Shift              |      301 |     133K |     136K |     171M |
    | ShiftSmart(mk)     |      71K |     180K |     278K |     171M |
    | ShiftSmart         |     7059 |    2828K |    2882K |     168M |
    | SimpSwap(mk)       |       12 |        7 |       22 |     171M |
    | SimpSwap           |        4 |       63 |       76 |     171M |
    | SimpSwapSmart(mk)  |      192 |      187 |      453 |     171M |
    | SimpSwapSmart      |       43 |     1230 |     1409 |     171M |
    | Swap(mk)           |        2 |        0 |        2 |     171M |
    | Swap               |        0 |        7 |        7 |     171M |
    | SwapSmart(mk)      |      158 |      212 |      418 |     171M |
    | SwapSmart          |       35 |      899 |     1049 |     171M |
    | Switch(mk)         |      382 |    6762K |    6763K |     164M |
    | Switch             |       41 |    6971K |    6972K |     164M |
    | SwitchSmart(mk)    |     9411 |      16K |      27K |     171M |
    | SwitchSmart        |     1016 |     997K |    1006K |     170M |
    | TaskMove(mk)       |      128 |      266 |      449 |     171M |
    | TaskMove           |       35 |      766 |      899 |     171M |
    | TaskMoveSmart(mk)  |     2726 |     5627 |     9574 |     171M |
    | TaskMoveSmart      |      548 |      18K |      20K |     171M |
    | 2-Shift(mk)        |      390 |     283K |     283K |     170M |
    | 2-Shift            |       41 |     309K |     309K |     171M |
    | 2-ShiftSmart(mk)   |     5488 |     603K |     610K |     170M |
    | 2-ShiftSmart       |      562 |     817K |     821K |     170M |
    \----------------------------------------------------------------/

Best makespan.....: 410
N. of Iterations..: 4099794510
Total runtime.....: 3600.01s
Using Python-MIP package version 1.6.8
Começo a execução
    /-------------------------------------------------------------------------------\
    |    Makespan   |   Free Jobs   | Free Machines |    It. Time   |   Total Time  | 
    |-------------------------------------------------------------------------------|
    \-------------------------------------------------------------------------------/
Terminou a execução
