Instance....: instances/I_250_10_S_1-99_1.txt
Algorithm...: Simulated Annealing (alpha=0.990, saMax=10M, t0=1)
Other params: maxIters=100M, seed=-1, timeLimit=3600.00s

    /--------------------------------------------------------\
    |     Iter |   RDP(%) |       S* |       S' |       Time | 
    |----------|----------|----------|----------|------------|
    |        0 |        - |     3092 |     3092 |       0.00 | s0
    |        3 |        - |     2942 |     2942 |       0.01 | *
    |        7 |        - |     2898 |     2898 |       0.02 | *
    |        9 |        - |     2895 |     2895 |       0.02 | *
    |       11 |        - |     2853 |     2853 |       0.02 | *
    |       17 |        - |     2800 |     2800 |       0.03 | *
    |       20 |        - |     2748 |     2748 |       0.03 | *
    |       29 |        - |     2706 |     2706 |       0.03 | *
    |       30 |        - |     2683 |     2683 |       0.03 | *
    |       33 |        - |     2636 |     2636 |       0.03 | *
    |       36 |        - |     2578 |     2578 |       0.04 | *
    |       41 |        - |     2532 |     2532 |       0.04 | *
    |       42 |        - |     2520 |     2520 |       0.04 | *
    |       46 |        - |     2480 |     2480 |       0.04 | *
    |       49 |        - |     2468 |     2468 |       0.04 | *
    |       54 |        - |     2452 |     2452 |       0.04 | *
    |       55 |        - |     2428 |     2428 |       0.04 | *
    |       57 |        - |     2414 |     2414 |       0.04 | *
    |       58 |        - |     2413 |     2413 |       0.04 | *
    |       59 |        - |     2407 |     2407 |       0.04 | *
    |       61 |        - |     2394 |     2394 |       0.04 | *
    |       66 |        - |     2341 |     2341 |       0.04 | *
    |       68 |        - |     2339 |     2339 |       0.04 | *
    |       70 |        - |     2337 |     2337 |       0.04 | *
    |       74 |        - |     2332 |     2332 |       0.05 | *
    |       76 |        - |     2283 |     2283 |       0.05 | *
    |       79 |        - |     2270 |     2270 |       0.05 | *
    |       80 |        - |     2257 |     2257 |       0.05 | *
    |       87 |        - |     2235 |     2235 |       0.05 | *
    |       88 |        - |     2227 |     2227 |       0.05 | *
    |       96 |        - |     2207 |     2207 |       0.05 | *
    |       99 |        - |     2204 |     2204 |       0.05 | *
    |      100 |        - |     2195 |     2195 |       0.05 | *
    |      101 |        - |     2192 |     2192 |       0.05 | *
    |      103 |        - |     2191 |     2191 |       0.05 | *
    |      120 |        - |     2150 |     2150 |       0.05 | *
    |      122 |        - |     2147 |     2147 |       0.05 | *
    |      126 |        - |     2127 |     2127 |       0.05 | *
    |      127 |        - |     2117 |     2117 |       0.05 | *
    |      128 |        - |     2115 |     2115 |       0.06 | *
    |      130 |        - |     2109 |     2109 |       0.06 | *
    |      133 |        - |     2102 |     2102 |       0.06 | *
    |      134 |        - |     2091 |     2091 |       0.06 | *
    |      139 |        - |     2090 |     2090 |       0.06 | *
    |      142 |        - |     2074 |     2074 |       0.06 | *
    |      148 |        - |     2070 |     2070 |       0.06 | *
    |      155 |        - |     2051 |     2051 |       0.06 | *
    |      160 |        - |     2019 |     2019 |       0.06 | *
    |      172 |        - |     2015 |     2015 |       0.06 | *
    |      180 |        - |     2012 |     2012 |       0.06 | *
    |      196 |        - |     2002 |     2002 |       0.06 | *
    |      197 |        - |     2001 |     2001 |       0.06 | *
    |      202 |        - |     1988 |     1988 |       0.06 | *
    |      205 |        - |     1972 |     1972 |       0.07 | *
    |      208 |        - |     1968 |     1968 |       0.07 | *
    |      210 |        - |     1957 |     1957 |       0.07 | *
    |      222 |        - |     1946 |     1946 |       0.07 | *
    |      238 |        - |     1939 |     1939 |       0.07 | *
    |      239 |        - |     1920 |     1920 |       0.07 | *
    |      240 |        - |     1898 |     1898 |       0.07 | *
    |      243 |        - |     1870 |     1870 |       0.07 | *
    |      252 |        - |     1868 |     1868 |       0.07 | *
    |      253 |        - |     1862 |     1862 |       0.07 | *
    |      257 |        - |     1861 |     1861 |       0.07 | *
    |      261 |        - |     1860 |     1860 |       0.07 | *
    |      267 |        - |     1857 |     1857 |       0.07 | *
    |      269 |        - |     1852 |     1852 |       0.07 | *
    |      287 |        - |     1842 |     1842 |       0.07 | *
    |      295 |        - |     1840 |     1840 |       0.08 | *
    |      296 |        - |     1835 |     1835 |       0.08 | *
    |      324 |        - |     1816 |     1816 |       0.08 | *
    |      326 |        - |     1814 |     1814 |       0.08 | *
    |      328 |        - |     1813 |     1813 |       0.08 | *
    |      338 |        - |     1804 |     1804 |       0.08 | *
    |      358 |        - |     1802 |     1802 |       0.08 | *
    |      364 |        - |     1800 |     1800 |       0.08 | *
    |      366 |        - |     1789 |     1789 |       0.08 | *
    |      367 |        - |     1782 |     1782 |       0.08 | *
    |      369 |        - |     1780 |     1780 |       0.08 | *
    |      393 |        - |     1775 |     1775 |       0.08 | *
    |      422 |        - |     1767 |     1767 |       0.08 | *
    |      442 |        - |     1762 |     1762 |       0.08 | *
    |      450 |        - |     1761 |     1761 |       0.08 | *
    |      454 |        - |     1751 |     1751 |       0.08 | *
    |      457 |        - |     1742 |     1742 |       0.09 | *
    |      463 |        - |     1736 |     1736 |       0.09 | *
    |      464 |        - |     1729 |     1729 |       0.09 | *
    |      468 |        - |     1724 |     1724 |       0.09 | *
    |      471 |        - |     1720 |     1720 |       0.09 | *
    |      472 |        - |     1709 |     1709 |       0.09 | *
    |      485 |        - |     1703 |     1703 |       0.09 | *
    |      495 |        - |     1697 |     1697 |       0.09 | *
    |      497 |        - |     1695 |     1695 |       0.09 | *
    |      499 |        - |     1657 |     1657 |       0.09 | *
    |      522 |        - |     1647 |     1647 |       0.09 | *
    |      543 |        - |     1617 |     1617 |       0.09 | *
    |      558 |        - |     1614 |     1614 |       0.09 | *
    |      559 |        - |     1611 |     1611 |       0.09 | *
    |      560 |        - |     1605 |     1605 |       0.09 | *
    |      578 |        - |     1597 |     1597 |       0.09 | *
    |      579 |        - |     1591 |     1591 |       0.10 | *
    |      585 |        - |     1590 |     1590 |       0.10 | *
    |      594 |        - |     1585 |     1585 |       0.10 | *
    |      602 |        - |     1580 |     1580 |       0.10 | *
    |      608 |        - |     1578 |     1578 |       0.10 | *
    |      609 |        - |     1576 |     1576 |       0.10 | *
    |      617 |        - |     1567 |     1567 |       0.10 | *
    |      638 |        - |     1565 |     1565 |       0.10 | *
    |      652 |        - |     1550 |     1550 |       0.10 | *
    |      662 |        - |     1543 |     1543 |       0.10 | *
    |      663 |        - |     1541 |     1541 |       0.10 | *
    |      668 |        - |     1540 |     1540 |       0.10 | *
    |      683 |        - |     1539 |     1539 |       0.10 | *
    |      691 |        - |     1531 |     1531 |       0.10 | *
    |      701 |        - |     1529 |     1529 |       0.10 | *
    |      715 |        - |     1523 |     1523 |       0.10 | *
    |      734 |        - |     1522 |     1522 |       0.11 | *
    |      739 |        - |     1520 |     1520 |       0.11 | *
    |      742 |        - |     1516 |     1516 |       0.11 | *
    |      751 |        - |     1515 |     1515 |       0.11 | *
    |      759 |        - |     1514 |     1514 |       0.11 | *
    |      768 |        - |     1513 |     1513 |       0.11 | *
    |      774 |        - |     1510 |     1510 |       0.11 | *
    |      798 |        - |     1501 |     1501 |       0.11 | *
    |      801 |        - |     1500 |     1500 |       0.11 | *
    |      811 |        - |     1491 |     1491 |       0.11 | *
    |      812 |        - |     1489 |     1489 |       0.11 | *
    |      813 |        - |     1482 |     1482 |       0.12 | *
    |      834 |        - |     1478 |     1478 |       0.12 | *
    |      866 |        - |     1477 |     1477 |       0.12 | *
    |      890 |        - |     1475 |     1475 |       0.12 | *
    |      901 |        - |     1464 |     1464 |       0.12 | *
    |      910 |        - |     1463 |     1463 |       0.12 | *
    |      915 |        - |     1457 |     1457 |       0.12 | *
    |      954 |        - |     1449 |     1449 |       0.12 | *
    |      959 |        - |     1443 |     1443 |       0.12 | *
    |      961 |        - |     1442 |     1442 |       0.12 | *
    |      977 |        - |     1436 |     1436 |       0.12 | *
    |      978 |        - |     1432 |     1432 |       0.12 | *
    |      983 |        - |     1429 |     1429 |       0.13 | *
    |      991 |        - |     1427 |     1427 |       0.13 | *
    |      998 |        - |     1426 |     1426 |       0.13 | *
    |     1000 |        - |     1420 |     1420 |       0.13 | *
    |     1010 |        - |     1415 |     1415 |       0.13 | *
    |     1028 |        - |     1414 |     1414 |       0.13 | *
    |     1049 |        - |     1413 |     1413 |       0.13 | *
    |     1050 |        - |     1402 |     1402 |       0.13 | *
    |     1055 |        - |     1397 |     1397 |       0.13 | *
    |     1080 |        - |     1394 |     1394 |       0.13 | *
    |     1082 |        - |     1393 |     1393 |       0.13 | *
    |     1097 |        - |     1385 |     1385 |       0.13 | *
    |     1100 |        - |     1379 |     1379 |       0.13 | *
    |     1105 |        - |     1378 |     1378 |       0.13 | *
    |     1138 |        - |     1370 |     1370 |       0.14 | *
    |     1210 |        - |     1366 |     1366 |       0.14 | *
    |     1227 |        - |     1351 |     1351 |       0.14 | *
    |     1229 |        - |     1349 |     1349 |       0.14 | *
    |     1265 |        - |     1345 |     1345 |       0.14 | *
    |     1266 |        - |     1344 |     1344 |       0.14 | *
    |     1281 |        - |     1343 |     1343 |       0.14 | *
    |     1297 |        - |     1342 |     1342 |       0.14 | *
    |     1306 |        - |     1337 |     1337 |       0.14 | *
    |     1327 |        - |     1335 |     1335 |       0.14 | *
    |     1335 |        - |     1330 |     1330 |       0.14 | *
    |     1383 |        - |     1328 |     1328 |       0.15 | *
    |     1395 |        - |     1316 |     1316 |       0.15 | *
    |     1461 |        - |     1310 |     1310 |       0.15 | *
    |     1466 |        - |     1307 |     1307 |       0.15 | *
    |     1486 |        - |     1306 |     1306 |       0.15 | *
    |     1507 |        - |     1299 |     1299 |       0.15 | *
    |     1542 |        - |     1297 |     1297 |       0.15 | *
    |     1545 |        - |     1295 |     1295 |       0.15 | *
    |     1549 |        - |     1294 |     1294 |       0.15 | *
    |     1556 |        - |     1293 |     1293 |       0.15 | *
    |     1560 |        - |     1283 |     1283 |       0.15 | *
    |     1721 |        - |     1281 |     1281 |       0.15 | *
    |     1735 |        - |     1278 |     1278 |       0.16 | *
    |     1780 |        - |     1277 |     1277 |       0.16 | *
    |     1787 |        - |     1270 |     1270 |       0.16 | *
    |     1789 |        - |     1266 |     1266 |       0.16 | *
    |     1800 |        - |     1261 |     1261 |       0.16 | *
    |     1847 |        - |     1254 |     1254 |       0.16 | *
    |     1971 |        - |     1252 |     1252 |       0.16 | *
    |     1981 |        - |     1249 |     1249 |       0.16 | *
    |     1985 |        - |     1247 |     1247 |       0.16 | *
    |     1988 |        - |     1243 |     1243 |       0.16 | *
    |     2008 |        - |     1234 |     1234 |       0.16 | *
    |     2030 |        - |     1233 |     1233 |       0.16 | *
    |     2047 |        - |     1230 |     1230 |       0.16 | *
    |     2131 |        - |     1227 |     1227 |       0.17 | *
    |     2138 |        - |     1226 |     1226 |       0.17 | *
    |     2191 |        - |     1225 |     1225 |       0.17 | *
    |     2300 |        - |     1219 |     1219 |       0.17 | *
    |     2310 |        - |     1217 |     1217 |       0.17 | *
    |     2325 |        - |     1211 |     1211 |       0.17 | *
    |     2331 |        - |     1206 |     1206 |       0.17 | *
    |     2377 |        - |     1205 |     1205 |       0.17 | *
    |     2446 |        - |     1200 |     1200 |       0.17 | *
    |     2453 |        - |     1197 |     1197 |       0.17 | *
    |     2456 |        - |     1195 |     1195 |       0.17 | *
    |     2463 |        - |     1190 |     1190 |       0.17 | *
    |     2482 |        - |     1185 |     1185 |       0.17 | *
    |     2492 |        - |     1179 |     1179 |       0.17 | *
    |     2526 |        - |     1177 |     1177 |       0.17 | *
    |     2541 |        - |     1176 |     1176 |       0.17 | *
    |     2546 |        - |     1175 |     1175 |       0.18 | *
    |     2584 |        - |     1163 |     1163 |       0.18 | *
    |     2585 |        - |     1160 |     1160 |       0.18 | *
    |     2595 |        - |     1153 |     1153 |       0.18 | *
    |     2613 |        - |     1146 |     1146 |       0.18 | *
    |     2637 |        - |     1145 |     1145 |       0.18 | *
    |     2657 |        - |     1138 |     1138 |       0.18 | *
    |     2671 |        - |     1136 |     1136 |       0.18 | *
    |     2697 |        - |     1131 |     1131 |       0.18 | *
    |     2730 |        - |     1125 |     1125 |       0.18 | *
    |     2748 |        - |     1124 |     1124 |       0.18 | *
    |     2903 |        - |     1123 |     1123 |       0.18 | *
    |     2929 |        - |     1121 |     1121 |       0.18 | *
    |     2952 |        - |     1118 |     1118 |       0.18 | *
    |     2962 |        - |     1117 |     1117 |       0.19 | *
    |     3008 |        - |     1114 |     1114 |       0.19 | *
    |     3033 |        - |     1112 |     1112 |       0.19 | *
    |     3087 |        - |     1111 |     1111 |       0.19 | *
    |     3130 |        - |     1107 |     1107 |       0.19 | *
    |     3174 |        - |     1106 |     1106 |       0.19 | *
    |     3201 |        - |     1104 |     1104 |       0.19 | *
    |     3215 |        - |     1102 |     1102 |       0.19 | *
    |     3287 |        - |     1100 |     1100 |       0.19 | *
    |     3312 |        - |     1096 |     1096 |       0.19 | *
    |     3354 |        - |     1093 |     1093 |       0.19 | *
    |     3489 |        - |     1091 |     1091 |       0.19 | *
    |     3505 |        - |     1090 |     1090 |       0.19 | *
    |     3552 |        - |     1089 |     1089 |       0.19 | *
    |     3564 |        - |     1087 |     1087 |       0.20 | *
    |     3585 |        - |     1086 |     1086 |       0.20 | *
    |     3590 |        - |     1083 |     1083 |       0.20 | *
    |     3602 |        - |     1082 |     1082 |       0.20 | *
    |     3693 |        - |     1081 |     1081 |       0.20 | *
    |     3734 |        - |     1078 |     1078 |       0.20 | *
    |     3746 |        - |     1077 |     1077 |       0.20 | *
    |     3751 |        - |     1076 |     1076 |       0.20 | *
    |     3764 |        - |     1068 |     1068 |       0.20 | *
    |     3799 |        - |     1066 |     1066 |       0.20 | *
    |     3845 |        - |     1065 |     1065 |       0.20 | *
    |     3864 |        - |     1064 |     1064 |       0.20 | *
    |     3907 |        - |     1062 |     1062 |       0.20 | *
    |     3959 |        - |     1058 |     1058 |       0.20 | *
    |     4100 |        - |     1056 |     1056 |       0.20 | *
    |     4124 |        - |     1054 |     1054 |       0.20 | *
    |     4195 |        - |     1051 |     1051 |       0.20 | *
    |     4232 |        - |     1050 |     1050 |       0.20 | *
    |     4233 |        - |     1049 |     1049 |       0.20 | *
    |     4296 |        - |     1048 |     1048 |       0.20 | *
    |     4298 |        - |     1047 |     1047 |       0.20 | *
    |     4314 |        - |     1045 |     1045 |       0.20 | *
    |     4390 |        - |     1039 |     1039 |       0.20 | *
    |     4396 |        - |     1036 |     1036 |       0.20 | *
    |     4487 |        - |     1035 |     1035 |       0.21 | *
    |     4513 |        - |     1028 |     1028 |       0.21 | *
    |     4564 |        - |     1020 |     1020 |       0.21 | *
    |     4599 |        - |     1019 |     1019 |       0.21 | *
    |     4831 |        - |     1018 |     1018 |       0.21 | *
    |     4836 |        - |     1017 |     1017 |       0.21 | *
    |     4928 |        - |     1015 |     1015 |       0.21 | *
    |     4966 |        - |     1014 |     1014 |       0.21 | *
    |     5014 |        - |     1011 |     1011 |       0.21 | *
    |     5077 |        - |     1006 |     1006 |       0.21 | *
    |     5086 |        - |     1003 |     1003 |       0.21 | *
    |     5153 |        - |     1002 |     1002 |       0.21 | *
    |     5167 |        - |      999 |      999 |       0.21 | *
    |     5171 |        - |      997 |      997 |       0.21 | *
    |     5174 |        - |      996 |      996 |       0.21 | *
    |     5255 |        - |      993 |      993 |       0.21 | *
    |     5305 |        - |      992 |      992 |       0.21 | *
    |     5322 |        - |      986 |      986 |       0.21 | *
    |     5331 |        - |      982 |      982 |       0.21 | *
    |     5345 |        - |      981 |      981 |       0.21 | *
    |     5406 |        - |      980 |      980 |       0.21 | *
    |     5440 |        - |      977 |      977 |       0.21 | *
    |     5445 |        - |      974 |      974 |       0.21 | *
    |     5504 |        - |      969 |      969 |       0.21 | *
    |     5637 |        - |      964 |      964 |       0.21 | *
    |     5641 |        - |      959 |      959 |       0.21 | *
    |     5650 |        - |      958 |      958 |       0.22 | *
    |     5652 |        - |      956 |      956 |       0.22 | *
    |     5682 |        - |      955 |      955 |       0.22 | *
    |     5686 |        - |      952 |      952 |       0.22 | *
    |     5719 |        - |      951 |      951 |       0.22 | *
    |     5730 |        - |      950 |      950 |       0.22 | *
    |     5763 |        - |      949 |      949 |       0.22 | *
    |     5809 |        - |      948 |      948 |       0.22 | *
    |     5839 |        - |      946 |      946 |       0.22 | *
    |     5858 |        - |      944 |      944 |       0.22 | *
    |     5877 |        - |      943 |      943 |       0.22 | *
    |     5879 |        - |      941 |      941 |       0.22 | *
    |     5898 |        - |      940 |      940 |       0.22 | *
    |     6247 |        - |      933 |      933 |       0.22 | *
    |     6296 |        - |      932 |      932 |       0.22 | *
    |     6513 |        - |      930 |      930 |       0.22 | *
    |     6645 |        - |      929 |      929 |       0.22 | *
    |     6649 |        - |      925 |      925 |       0.22 | *
    |     6744 |        - |      924 |      924 |       0.22 | *
    |     6773 |        - |      919 |      919 |       0.23 | *
    |     6799 |        - |      918 |      918 |       0.23 | *
    |     6814 |        - |      916 |      916 |       0.23 | *
    |     6860 |        - |      914 |      914 |       0.23 | *
    |     6900 |        - |      911 |      911 |       0.23 | *
    |     6952 |        - |      909 |      909 |       0.23 | *
    |     7032 |        - |      908 |      908 |       0.23 | *
    |     7272 |        - |      907 |      907 |       0.23 | *
    |     7279 |        - |      904 |      904 |       0.23 | *
    |     7417 |        - |      902 |      902 |       0.23 | *
    |     7508 |        - |      899 |      899 |       0.23 | *
    |     7513 |        - |      898 |      898 |       0.23 | *
    |     7607 |        - |      896 |      896 |       0.23 | *
    |     7625 |        - |      895 |      895 |       0.23 | *
    |     7643 |        - |      890 |      890 |       0.23 | *
    |     7669 |        - |      886 |      886 |       0.24 | *
    |     7838 |        - |      883 |      883 |       0.24 | *
    |     7852 |        - |      882 |      882 |       0.24 | *
    |     7968 |        - |      881 |      881 |       0.24 | *
    |     7997 |        - |      878 |      878 |       0.24 | *
    |     8033 |        - |      877 |      877 |       0.24 | *
    |     8044 |        - |      876 |      876 |       0.24 | *
    |     8258 |        - |      875 |      875 |       0.24 | *
    |     8401 |        - |      874 |      874 |       0.24 | *
    |     8437 |        - |      873 |      873 |       0.24 | *
    |     8560 |        - |      870 |      870 |       0.24 | *
    |     8655 |        - |      868 |      868 |       0.24 | *
    |     8784 |        - |      864 |      864 |       0.24 | *
    |     8880 |        - |      863 |      863 |       0.24 | *
    |     8966 |        - |      858 |      858 |       0.24 | *
    |     8967 |        - |      856 |      856 |       0.24 | *
    |     8984 |        - |      855 |      855 |       0.24 | *
    |     9079 |        - |      851 |      851 |       0.24 | *
    |     9222 |        - |      849 |      849 |       0.24 | *
    |     9228 |        - |      847 |      847 |       0.24 | *
    |     9325 |        - |      846 |      846 |       0.24 | *
    |     9416 |        - |      843 |      843 |       0.24 | *
    |     9524 |        - |      842 |      842 |       0.24 | *
    |     9573 |        - |      837 |      837 |       0.25 | *
    |     9647 |        - |      835 |      835 |       0.25 | *
    |     9754 |        - |      833 |      833 |       0.25 | *
    |     9758 |        - |      832 |      832 |       0.25 | *
    |      10K |        - |      831 |      831 |       0.25 | *
    |      10K |        - |      827 |      827 |       0.25 | *
    |      10K |        - |      825 |      825 |       0.25 | *
    |      10K |        - |      824 |      824 |       0.25 | *
    |      10K |        - |      823 |      823 |       0.25 | *
    |      10K |        - |      821 |      821 |       0.25 | *
    |      10K |        - |      820 |      820 |       0.25 | *
    |      10K |        - |      819 |      819 |       0.25 | *
    |      10K |        - |      815 |      815 |       0.25 | *
    |      11K |        - |      813 |      813 |       0.25 | *
    |      11K |        - |      808 |      808 |       0.26 | *
    |      11K |        - |      807 |      807 |       0.26 | *
    |      11K |        - |      804 |      804 |       0.26 | *
    |      11K |        - |      803 |      803 |       0.26 | *
    |      11K |        - |      802 |      802 |       0.26 | *
    |      11K |        - |      801 |      801 |       0.26 | *
    |      11K |        - |      800 |      800 |       0.26 | *
    |      11K |        - |      799 |      799 |       0.26 | *
    |      11K |        - |      798 |      798 |       0.26 | *
    |      12K |        - |      797 |      797 |       0.26 | *
    |      12K |        - |      795 |      795 |       0.27 | *
    |      12K |        - |      794 |      794 |       0.27 | *
    |      12K |        - |      790 |      790 |       0.27 | *
    |      12K |        - |      785 |      785 |       0.27 | *
    |      12K |        - |      781 |      781 |       0.27 | *
    |      12K |        - |      780 |      780 |       0.27 | *
    |      12K |        - |      777 |      777 |       0.27 | *
    |      12K |        - |      775 |      775 |       0.27 | *
    |      12K |        - |      771 |      771 |       0.27 | *
    |      12K |        - |      767 |      767 |       0.28 | *
    |      13K |        - |      764 |      764 |       0.28 | *
    |      13K |        - |      762 |      762 |       0.28 | *
    |      13K |        - |      759 |      759 |       0.28 | *
    |      13K |        - |      755 |      755 |       0.28 | *
    |      13K |        - |      754 |      754 |       0.28 | *
    |      13K |        - |      751 |      751 |       0.28 | *
    |      13K |        - |      750 |      750 |       0.28 | *
    |      13K |        - |      748 |      748 |       0.28 | *
    |      13K |        - |      746 |      746 |       0.28 | *
    |      13K |        - |      745 |      745 |       0.28 | *
    |      13K |        - |      743 |      743 |       0.29 | *
    |      13K |        - |      742 |      742 |       0.29 | *
    |      13K |        - |      739 |      739 |       0.29 | *
    |      13K |        - |      737 |      737 |       0.29 | *
    |      13K |        - |      733 |      733 |       0.29 | *
    |      14K |        - |      730 |      730 |       0.29 | *
    |      14K |        - |      729 |      729 |       0.29 | *
    |      14K |        - |      726 |      726 |       0.29 | *
    |      14K |        - |      725 |      725 |       0.30 | *
    |      15K |        - |      724 |      724 |       0.30 | *
    |      15K |        - |      722 |      722 |       0.30 | *
    |      15K |        - |      720 |      720 |       0.30 | *
    |      15K |        - |      718 |      718 |       0.30 | *
    |      15K |        - |      714 |      714 |       0.30 | *
    |      16K |        - |      713 |      713 |       0.30 | *
    |      16K |        - |      709 |      709 |       0.31 | *
    |      16K |        - |      708 |      708 |       0.31 | *
    |      16K |        - |      706 |      706 |       0.31 | *
    |      17K |        - |      705 |      705 |       0.31 | *
    |      17K |        - |      704 |      704 |       0.31 | *
    |      17K |        - |      703 |      703 |       0.31 | *
    |      17K |        - |      701 |      701 |       0.32 | *
    |      17K |        - |      698 |      698 |       0.32 | *
    |      17K |        - |      693 |      693 |       0.32 | *
    |      17K |        - |      691 |      691 |       0.32 | *
    |      17K |        - |      689 |      689 |       0.32 | *
    |      17K |        - |      688 |      688 |       0.32 | *
    |      18K |        - |      687 |      687 |       0.32 | *
    |      18K |        - |      685 |      685 |       0.32 | *
    |      18K |        - |      681 |      681 |       0.32 | *
    |      18K |        - |      679 |      679 |       0.32 | *
    |      18K |        - |      678 |      678 |       0.33 | *
    |      18K |        - |      677 |      677 |       0.33 | *
    |      19K |        - |      675 |      675 |       0.33 | *
    |      24K |        - |      674 |      674 |       0.35 | *
    |      24K |        - |      672 |      672 |       0.35 | *
    |      25K |        - |      671 |      671 |       0.35 | *
    |      25K |        - |      670 |      670 |       0.36 | *
    |      25K |        - |      667 |      667 |       0.36 | *
    |      25K |        - |      666 |      666 |       0.36 | *
    |      25K |        - |      665 |      665 |       0.36 | *
    |      26K |        - |      662 |      662 |       0.36 | *
    |      27K |        - |      660 |      660 |       0.37 | *
    |      27K |        - |      658 |      658 |       0.37 | *
    |      27K |        - |      656 |      656 |       0.37 | *
    |      29K |        - |      654 |      654 |       0.38 | *
    |      29K |        - |      653 |      653 |       0.38 | *
    |      29K |        - |      652 |      652 |       0.38 | *
    |      30K |        - |      650 |      650 |       0.38 | *
    |      30K |        - |      649 |      649 |       0.38 | *
    |      32K |        - |      648 |      648 |       0.39 | *
    |      32K |        - |      646 |      646 |       0.39 | *
    |      32K |        - |      645 |      645 |       0.40 | *
    |      32K |        - |      643 |      643 |       0.40 | *
    |      35K |        - |      642 |      642 |       0.41 | *
    |      36K |        - |      641 |      641 |       0.41 | *
    |      36K |        - |      640 |      640 |       0.41 | *
    |      37K |        - |      639 |      639 |       0.42 | *
    |      37K |        - |      637 |      637 |       0.42 | *
    |      37K |        - |      636 |      636 |       0.42 | *
    |      37K |        - |      634 |      634 |       0.42 | *
    |      38K |        - |      632 |      632 |       0.43 | *
    |      38K |        - |      631 |      631 |       0.43 | *
    |      48K |        - |      629 |      629 |       0.48 | *
    |      48K |        - |      626 |      626 |       0.48 | *
    |      48K |        - |      624 |      624 |       0.48 | *
    |      48K |        - |      623 |      623 |       0.49 | *
    |      49K |        - |      622 |      622 |       0.49 | *
    |      49K |        - |      618 |      618 |       0.49 | *
    |      51K |        - |      617 |      617 |       0.50 | *
    |      51K |        - |      614 |      614 |       0.51 | *
    |      52K |        - |      613 |      613 |       0.51 | *
    |      52K |        - |      611 |      611 |       0.52 | *
    |      52K |        - |      609 |      609 |       0.52 | *
    |      52K |        - |      607 |      607 |       0.52 | *
    |      52K |        - |      606 |      606 |       0.52 | *
    |      53K |        - |      605 |      605 |       0.52 | *
    |      53K |        - |      604 |      604 |       0.52 | *
    |      53K |        - |      603 |      603 |       0.53 | *
    |      56K |        - |      601 |      601 |       0.54 | *
    |      56K |        - |      600 |      600 |       0.55 | *
    |      56K |        - |      599 |      599 |       0.55 | *
    |      57K |        - |      597 |      597 |       0.56 | *
    |      62K |        - |      594 |      594 |       0.59 | *
    |      62K |        - |      593 |      593 |       0.59 | *
    |      63K |        - |      591 |      591 |       0.60 | *
    |      66K |        - |      590 |      590 |       0.62 | *
    |      67K |        - |      589 |      589 |       0.63 | *
    |      68K |        - |      588 |      588 |       0.63 | *
    |      68K |        - |      586 |      586 |       0.63 | *
    |      69K |        - |      585 |      585 |       0.65 | *
    |      70K |        - |      584 |      584 |       0.65 | *
    |      75K |        - |      582 |      582 |       0.68 | *
    |      76K |        - |      581 |      581 |       0.69 | *
    |      79K |        - |      580 |      580 |       0.71 | *
    |      83K |        - |      579 |      579 |       0.73 | *
    |      85K |        - |      578 |      578 |       0.74 | *
    |      85K |        - |      577 |      577 |       0.74 | *
    |      88K |        - |      576 |      576 |       0.75 | *
    |      88K |        - |      575 |      575 |       0.75 | *
    |      89K |        - |      574 |      574 |       0.76 | *
    |      91K |        - |      573 |      573 |       0.77 | *
    |      91K |        - |      572 |      572 |       0.77 | *
    |      91K |        - |      571 |      571 |       0.77 | *
    |      94K |        - |      570 |      570 |       0.79 | *
    |      95K |        - |      567 |      567 |       0.80 | *
    |      95K |        - |      566 |      566 |       0.80 | *
    |      95K |        - |      565 |      565 |       0.80 | *
    |      96K |        - |      564 |      564 |       0.81 | *
    |      96K |        - |      563 |      563 |       0.81 | *
    |     101K |        - |      561 |      561 |       0.84 | *
    |     101K |        - |      560 |      560 |       0.85 | *
    |     103K |        - |      559 |      559 |       0.86 | *
    |     106K |        - |      558 |      558 |       0.88 | *
    |     109K |        - |      557 |      557 |       0.91 | *
    |     110K |        - |      555 |      555 |       0.91 | *
    |     110K |        - |      554 |      554 |       0.91 | *
    |     110K |        - |      553 |      553 |       0.92 | *
    |     118K |        - |      551 |      551 |       0.97 | *
    |     119K |        - |      549 |      549 |       0.97 | *
    |     120K |        - |      547 |      547 |       0.98 | *
    |     121K |        - |      546 |      546 |       0.99 | *
    |     121K |        - |      544 |      544 |       0.99 | *
    |     121K |        - |      543 |      543 |       0.99 | *
    |     121K |        - |      542 |      542 |       0.99 | *
    |     125K |        - |      539 |      539 |       1.01 | *
    |     125K |        - |      538 |      538 |       1.02 | *
    |     126K |        - |      537 |      537 |       1.02 | *
    |     127K |        - |      536 |      536 |       1.03 | *
    |     140K |        - |      535 |      535 |       1.09 | *
    |     144K |        - |      534 |      534 |       1.11 | *
    |     146K |        - |      533 |      533 |       1.12 | *
    |     147K |        - |      531 |      531 |       1.12 | *
    |     152K |        - |      530 |      530 |       1.15 | *
    |     156K |        - |      528 |      528 |       1.17 | *
    |     156K |        - |      527 |      527 |       1.17 | *
    |     156K |        - |      526 |      526 |       1.17 | *
    |     157K |        - |      525 |      525 |       1.17 | *
    |     157K |        - |      524 |      524 |       1.17 | *
    |     163K |        - |      523 |      523 |       1.20 | *
    |     164K |        - |      522 |      522 |       1.20 | *
    |     164K |        - |      521 |      521 |       1.21 | *
    |     165K |        - |      520 |      520 |       1.21 | *
    |     165K |        - |      519 |      519 |       1.22 | *
    |     165K |        - |      518 |      518 |       1.22 | *
    |     206K |        - |      517 |      517 |       1.31 | *
    |     206K |        - |      516 |      516 |       1.31 | *
    |     206K |        - |      515 |      515 |       1.31 | *
    |     206K |        - |      514 |      514 |       1.31 | *
    |     215K |        - |      513 |      513 |       1.33 | *
    |     251K |        - |      512 |      512 |       1.40 | *
    |     278K |        - |      511 |      511 |       1.45 | *
    |     289K |        - |      510 |      510 |       1.47 | *
    |     306K |        - |      509 |      509 |       1.49 | *
    |     314K |        - |      508 |      508 |       1.50 | *
    |     320K |        - |      507 |      507 |       1.51 | *
    |     331K |        - |      506 |      506 |       1.52 | *
    |     339K |        - |      505 |      505 |       1.53 | *
    |     339K |        - |      504 |      504 |       1.53 | *
    |     342K |        - |      503 |      503 |       1.53 | *
    |     355K |        - |      502 |      502 |       1.55 | *
    |     379K |        - |      501 |      501 |       1.58 | *
    |     406K |        - |      500 |      500 |       1.62 | *
    |     418K |        - |      499 |      499 |       1.63 | *
    |     419K |        - |      498 |      498 |       1.64 | *
    |     510K |        - |      497 |      497 |       1.75 | *
    |     529K |        - |      495 |      495 |       1.78 | *
    |     534K |        - |      493 |      493 |       1.78 | *
    |     548K |        - |      492 |      492 |       1.79 | *
    |     549K |        - |      491 |      491 |       1.79 | *
    |     562K |        - |      490 |      490 |       1.81 | *
    |     562K |        - |      489 |      489 |       1.81 | *
    |     581K |        - |      488 |      488 |       1.82 | *
    |     585K |        - |      485 |      485 |       1.83 | *
    |     587K |        - |      484 |      484 |       1.83 | *
    |     631K |        - |      483 |      483 |       1.87 | *
    |     640K |        - |      481 |      481 |       1.88 | *
    |     641K |        - |      480 |      480 |       1.88 | *
    |     723K |        - |      478 |      478 |       1.95 | *
    |     725K |        - |      477 |      477 |       1.96 | *
    |     743K |        - |      476 |      476 |       1.97 | *
    |     763K |        - |      472 |      472 |       1.99 | *
    |     764K |        - |      471 |      471 |       1.99 | *
    |     862K |        - |      468 |      468 |       2.08 | *
    |     942K |        - |      467 |      467 |       2.15 | *
    |     956K |        - |      466 |      466 |       2.16 | *
    |    1088K |        - |      465 |      465 |       2.28 | *
    |    1103K |        - |      464 |      464 |       2.29 | *
    |    1235K |        - |      463 |      463 |       2.41 | *
    |    1240K |        - |      462 |      462 |       2.41 | *
    |    1261K |        - |      461 |      461 |       2.43 | *
    |    1263K |        - |      460 |      460 |       2.43 | *
    |    1267K |        - |      458 |      458 |       2.44 | *
    |    1339K |        - |      456 |      456 |       2.50 | *
    |    1372K |        - |      455 |      455 |       2.53 | *
    |    1474K |        - |      454 |      454 |       2.62 | *
    |    1485K |        - |      453 |      453 |       2.63 | *
    |    2181K |        - |      451 |      451 |       3.24 | *
    |    2202K |        - |      450 |      450 |       3.26 | *
    |    2202K |        - |      449 |      449 |       3.26 | *
    |    2202K |        - |      448 |      448 |       3.26 | *
    |    2382K |        - |      447 |      447 |       3.42 | *
    |    2383K |        - |      446 |      446 |       3.42 | *
    |    2390K |        - |      445 |      445 |       3.43 | *
    |    2390K |        - |      444 |      444 |       3.43 | *
    |    2391K |        - |      443 |      443 |       3.43 | *
    |    2484K |        - |      442 |      442 |       3.52 | *
    |    2484K |        - |      441 |      441 |       3.52 | *
    |    2515K |        - |      440 |      440 |       3.55 | *
    |    2740K |        - |      438 |      438 |       3.83 | *
    |    2743K |        - |      436 |      436 |       3.84 | *
    |    2764K |        - |      434 |      434 |       3.87 | *
    |    2787K |        - |      433 |      433 |       3.90 | *
    |    2787K |        - |      432 |      432 |       3.90 | *
    |    3853K |        - |      431 |      431 |       5.88 | *
    |    3855K |        - |      430 |      430 |       5.88 | *
    |    4644K |        - |      429 |      429 |       6.59 | *
    |    5986K |        - |      427 |      427 |       7.78 | *
    |    7642K |        - |      426 |      426 |       9.94 | *
    |    7821K |        - |      425 |      425 |      10.16 | *
    |    7824K |        - |      423 |      423 |      10.17 | *
    |    8726K |        - |      422 |      422 |      11.06 | *
    |    8726K |        - |      421 |      421 |      11.06 | *
    |    8744K |        - |      420 |      420 |      11.08 | *
    |    8748K |        - |      419 |      419 |      11.08 | *
    |    8754K |        - |      418 |      418 |      11.09 | *
    |    9495K |        - |      417 |      417 |      11.94 | *
    |    9609K |        - |      416 |      416 |      12.13 | *
    |      11M |        - |      415 |      415 |      13.52 | *
    |      12M |        - |      414 |      414 |      14.21 | *
    |      24M |        - |      413 |      413 |      25.11 | *
    |      24M |        - |      412 |      412 |      25.11 | *
    |      39M |        - |      411 |      411 |      38.68 | *
    |      39M |        - |      410 |      410 |      38.68 | *
    |      46M |        - |      409 |      409 |      45.00 | *
    |      96M |        - |      407 |      407 |      89.48 | *
    |     119M |        - |      406 |      406 |     109.43 | *
    |     123M |        - |      405 |      405 |     112.81 | *
    |     128M |        - |      404 |      404 |     117.10 | *
    |     134M |        - |      403 |      403 |     122.43 | *
    |     134M |        - |      402 |      402 |     122.43 | *
    |     134M |        - |      401 |      401 |     122.43 | *
    |     142M |        - |      400 |      400 |     129.43 | *
    |     169M |        - |      399 |      399 |     154.27 | *
    |     169M |        - |      398 |      398 |     154.27 | *
    |     169M |        - |      397 |      397 |     154.27 | *
    |     175M |        - |      396 |      396 |     158.82 | *
    |     175M |        - |      395 |      395 |     158.84 | *
    |     175M |        - |      394 |      394 |     158.84 | *
    |     473M |        - |      393 |      393 |     422.09 | *
    |     490M |        - |      392 |      392 |     437.57 | *
    |     496M |        - |      391 |      391 |     442.44 | *
    |     550M |        - |      390 |      390 |     490.36 | *
    |    1934M |        - |      389 |      389 |    1712.42 | *
    \--------------------------------------------------------/

Neighborhoods statistics (values in %):

    /----------------------------------------------------------------\
    | Move               | Improvs. | Sideways |  Accepts |  Rejects |
    |--------------------|----------|----------|----------|----------|
    | Shift(mk)          |     5289 |     8954 |      17K |     173M |
    | Shift              |      525 |      99K |     103K |     173M |
    | ShiftSmart(mk)     |     132K |     201K |     401K |     173M |
    | ShiftSmart         |      13K |    2140K |    2225K |     171M |
    | SimpSwap(mk)       |        9 |       10 |       20 |     173M |
    | SimpSwap           |        3 |       43 |       57 |     173M |
    | SimpSwapSmart(mk)  |      186 |      176 |      438 |     173M |
    | SimpSwapSmart      |       39 |      872 |     1042 |     173M |
    | Swap(mk)           |        4 |        1 |        5 |     173M |
    | Swap               |        0 |        7 |        7 |     173M |
    | SwapSmart(mk)      |      164 |      274 |      504 |     173M |
    | SwapSmart          |       36 |      950 |     1109 |     173M |
    | Switch(mk)         |      763 |    7739K |    7740K |     165M |
    | Switch             |       66 |    7070K |    7071K |     166M |
    | SwitchSmart(mk)    |      17K |      19K |      41K |     173M |
    | SwitchSmart        |     1725 |     163K |     178K |     173M |
    | TaskMove(mk)       |      148 |      395 |      614 |     173M |
    | TaskMove           |       30 |      881 |     1016 |     173M |
    | TaskMoveSmart(mk)  |     3447 |     9069 |      14K |     173M |
    | TaskMoveSmart      |      533 |      21K |      24K |     173M |
    | 2-Shift(mk)        |      465 |     372K |     372K |     173M |
    | 2-Shift            |       48 |     316K |     316K |     173M |
    | 2-ShiftSmart(mk)   |     9442 |     548K |     559K |     173M |
    | 2-ShiftSmart       |      926 |     646K |     653K |     173M |
    \----------------------------------------------------------------/

Best makespan.....: 389
N. of Iterations..: 4156758995
Total runtime.....: 3600.01s
Using Python-MIP package version 1.6.8
Começo a execução
    /-------------------------------------------------------------------------------\
    |    Makespan   |   Free Jobs   | Free Machines |    It. Time   |   Total Time  | 
    |-------------------------------------------------------------------------------|
    \-------------------------------------------------------------------------------/
Terminou a execução
