Instance....: instances/I_250_15_S_1-9_1.txt
Algorithm...: Simulated Annealing (alpha=0.990, saMax=10M, t0=1)
Other params: maxIters=100M, seed=-1, timeLimit=3600.00s

    /--------------------------------------------------------\
    |     Iter |   RDP(%) |       S* |       S' |       Time | 
    |----------|----------|----------|----------|------------|
    |        0 |        - |     1542 |     1542 |       0.00 | s0
    |        3 |        - |     1531 |     1531 |       0.01 | *
    |        5 |        - |     1480 |     1480 |       0.01 | *
    |        9 |        - |     1466 |     1466 |       0.01 | *
    |       11 |        - |     1406 |     1406 |       0.01 | *
    |       13 |        - |     1398 |     1398 |       0.01 | *
    |       22 |        - |     1337 |     1337 |       0.03 | *
    |       23 |        - |     1238 |     1238 |       0.03 | *
    |       28 |        - |     1168 |     1168 |       0.03 | *
    |       29 |        - |     1153 |     1153 |       0.03 | *
    |       30 |        - |     1151 |     1151 |       0.03 | *
    |       32 |        - |     1102 |     1102 |       0.04 | *
    |       38 |        - |     1087 |     1087 |       0.04 | *
    |       47 |        - |     1062 |     1062 |       0.04 | *
    |       48 |        - |     1045 |     1045 |       0.04 | *
    |       49 |        - |     1037 |     1037 |       0.04 | *
    |       56 |        - |     1027 |     1027 |       0.04 | *
    |       58 |        - |     1019 |     1019 |       0.04 | *
    |       59 |        - |     1004 |     1004 |       0.04 | *
    |       62 |        - |      974 |      974 |       0.04 | *
    |       70 |        - |      968 |      968 |       0.04 | *
    |       72 |        - |      964 |      964 |       0.04 | *
    |       78 |        - |      958 |      958 |       0.04 | *
    |       85 |        - |      953 |      953 |       0.05 | *
    |       93 |        - |      898 |      898 |       0.05 | *
    |      101 |        - |      897 |      897 |       0.05 | *
    |      102 |        - |      893 |      893 |       0.05 | *
    |      104 |        - |      891 |      891 |       0.05 | *
    |      110 |        - |      883 |      883 |       0.05 | *
    |      111 |        - |      882 |      882 |       0.05 | *
    |      123 |        - |      881 |      881 |       0.05 | *
    |      125 |        - |      872 |      872 |       0.05 | *
    |      131 |        - |      866 |      866 |       0.05 | *
    |      147 |        - |      865 |      865 |       0.05 | *
    |      155 |        - |      854 |      854 |       0.05 | *
    |      157 |        - |      850 |      850 |       0.05 | *
    |      159 |        - |      846 |      846 |       0.05 | *
    |      166 |        - |      845 |      845 |       0.05 | *
    |      172 |        - |      844 |      844 |       0.06 | *
    |      177 |        - |      840 |      840 |       0.06 | *
    |      178 |        - |      837 |      837 |       0.06 | *
    |      186 |        - |      834 |      834 |       0.06 | *
    |      189 |        - |      832 |      832 |       0.06 | *
    |      192 |        - |      826 |      826 |       0.06 | *
    |      193 |        - |      821 |      821 |       0.06 | *
    |      206 |        - |      818 |      818 |       0.06 | *
    |      210 |        - |      817 |      817 |       0.06 | *
    |      216 |        - |      815 |      815 |       0.06 | *
    |      218 |        - |      814 |      814 |       0.06 | *
    |      225 |        - |      808 |      808 |       0.06 | *
    |      227 |        - |      806 |      806 |       0.06 | *
    |      228 |        - |      805 |      805 |       0.06 | *
    |      232 |        - |      799 |      799 |       0.06 | *
    |      233 |        - |      798 |      798 |       0.07 | *
    |      234 |        - |      796 |      796 |       0.07 | *
    |      237 |        - |      794 |      794 |       0.07 | *
    |      245 |        - |      787 |      787 |       0.07 | *
    |      295 |        - |      780 |      780 |       0.07 | *
    |      296 |        - |      779 |      779 |       0.07 | *
    |      306 |        - |      771 |      771 |       0.07 | *
    |      312 |        - |      761 |      761 |       0.07 | *
    |      314 |        - |      760 |      760 |       0.07 | *
    |      317 |        - |      759 |      759 |       0.07 | *
    |      331 |        - |      754 |      754 |       0.07 | *
    |      336 |        - |      753 |      753 |       0.07 | *
    |      337 |        - |      750 |      750 |       0.07 | *
    |      343 |        - |      745 |      745 |       0.07 | *
    |      349 |        - |      744 |      744 |       0.07 | *
    |      351 |        - |      743 |      743 |       0.08 | *
    |      355 |        - |      742 |      742 |       0.08 | *
    |      360 |        - |      741 |      741 |       0.08 | *
    |      362 |        - |      738 |      738 |       0.08 | *
    |      369 |        - |      737 |      737 |       0.08 | *
    |      374 |        - |      736 |      736 |       0.08 | *
    |      384 |        - |      734 |      734 |       0.08 | *
    |      392 |        - |      732 |      732 |       0.08 | *
    |      403 |        - |      731 |      731 |       0.08 | *
    |      405 |        - |      728 |      728 |       0.08 | *
    |      412 |        - |      727 |      727 |       0.08 | *
    |      433 |        - |      726 |      726 |       0.08 | *
    |      434 |        - |      725 |      725 |       0.08 | *
    |      443 |        - |      724 |      724 |       0.08 | *
    |      445 |        - |      723 |      723 |       0.08 | *
    |      461 |        - |      719 |      719 |       0.08 | *
    |      518 |        - |      711 |      711 |       0.09 | *
    |      532 |        - |      710 |      710 |       0.09 | *
    |      537 |        - |      706 |      706 |       0.09 | *
    |      541 |        - |      705 |      705 |       0.09 | *
    |      545 |        - |      703 |      703 |       0.09 | *
    |      546 |        - |      700 |      700 |       0.09 | *
    |      554 |        - |      694 |      694 |       0.09 | *
    |      555 |        - |      693 |      693 |       0.09 | *
    |      560 |        - |      692 |      692 |       0.09 | *
    |      572 |        - |      687 |      687 |       0.09 | *
    |      574 |        - |      681 |      681 |       0.09 | *
    |      576 |        - |      679 |      679 |       0.09 | *
    |      590 |        - |      677 |      677 |       0.09 | *
    |      591 |        - |      676 |      676 |       0.09 | *
    |      595 |        - |      673 |      673 |       0.09 | *
    |      597 |        - |      672 |      672 |       0.10 | *
    |      605 |        - |      670 |      670 |       0.10 | *
    |      607 |        - |      669 |      669 |       0.10 | *
    |      621 |        - |      668 |      668 |       0.10 | *
    |      627 |        - |      666 |      666 |       0.10 | *
    |      633 |        - |      662 |      662 |       0.10 | *
    |      642 |        - |      661 |      661 |       0.10 | *
    |      643 |        - |      660 |      660 |       0.10 | *
    |      667 |        - |      657 |      657 |       0.10 | *
    |      672 |        - |      656 |      656 |       0.10 | *
    |      687 |        - |      654 |      654 |       0.10 | *
    |      690 |        - |      648 |      648 |       0.10 | *
    |      693 |        - |      644 |      644 |       0.10 | *
    |      696 |        - |      643 |      643 |       0.10 | *
    |      706 |        - |      642 |      642 |       0.10 | *
    |      712 |        - |      641 |      641 |       0.10 | *
    |      714 |        - |      638 |      638 |       0.11 | *
    |      727 |        - |      637 |      637 |       0.11 | *
    |      738 |        - |      636 |      636 |       0.11 | *
    |      763 |        - |      635 |      635 |       0.11 | *
    |      771 |        - |      632 |      632 |       0.11 | *
    |      773 |        - |      628 |      628 |       0.11 | *
    |      775 |        - |      619 |      619 |       0.11 | *
    |      778 |        - |      608 |      608 |       0.11 | *
    |      781 |        - |      607 |      607 |       0.11 | *
    |      782 |        - |      602 |      602 |       0.11 | *
    |      790 |        - |      600 |      600 |       0.11 | *
    |      801 |        - |      595 |      595 |       0.11 | *
    |      802 |        - |      593 |      593 |       0.11 | *
    |      827 |        - |      592 |      592 |       0.11 | *
    |      830 |        - |      590 |      590 |       0.12 | *
    |      849 |        - |      589 |      589 |       0.12 | *
    |      856 |        - |      585 |      585 |       0.12 | *
    |      857 |        - |      583 |      583 |       0.12 | *
    |      880 |        - |      581 |      581 |       0.12 | *
    |      883 |        - |      578 |      578 |       0.12 | *
    |      923 |        - |      577 |      577 |       0.12 | *
    |      934 |        - |      576 |      576 |       0.12 | *
    |      941 |        - |      572 |      572 |       0.12 | *
    |      946 |        - |      569 |      569 |       0.12 | *
    |      970 |        - |      568 |      568 |       0.12 | *
    |      990 |        - |      567 |      567 |       0.12 | *
    |      996 |        - |      566 |      566 |       0.12 | *
    |     1001 |        - |      565 |      565 |       0.12 | *
    |     1003 |        - |      562 |      562 |       0.13 | *
    |     1013 |        - |      559 |      559 |       0.13 | *
    |     1015 |        - |      558 |      558 |       0.13 | *
    |     1033 |        - |      557 |      557 |       0.13 | *
    |     1048 |        - |      556 |      556 |       0.13 | *
    |     1051 |        - |      555 |      555 |       0.13 | *
    |     1057 |        - |      553 |      553 |       0.13 | *
    |     1064 |        - |      551 |      551 |       0.13 | *
    |     1090 |        - |      550 |      550 |       0.13 | *
    |     1104 |        - |      548 |      548 |       0.13 | *
    |     1124 |        - |      547 |      547 |       0.13 | *
    |     1129 |        - |      545 |      545 |       0.13 | *
    |     1144 |        - |      544 |      544 |       0.13 | *
    |     1195 |        - |      543 |      543 |       0.14 | *
    |     1237 |        - |      541 |      541 |       0.14 | *
    |     1243 |        - |      537 |      537 |       0.14 | *
    |     1244 |        - |      534 |      534 |       0.14 | *
    |     1248 |        - |      533 |      533 |       0.14 | *
    |     1267 |        - |      532 |      532 |       0.14 | *
    |     1274 |        - |      531 |      531 |       0.14 | *
    |     1281 |        - |      529 |      529 |       0.14 | *
    |     1283 |        - |      527 |      527 |       0.14 | *
    |     1289 |        - |      525 |      525 |       0.14 | *
    |     1290 |        - |      524 |      524 |       0.14 | *
    |     1294 |        - |      522 |      522 |       0.14 | *
    |     1305 |        - |      521 |      521 |       0.14 | *
    |     1309 |        - |      520 |      520 |       0.15 | *
    |     1314 |        - |      519 |      519 |       0.15 | *
    |     1321 |        - |      518 |      518 |       0.15 | *
    |     1329 |        - |      517 |      517 |       0.15 | *
    |     1331 |        - |      516 |      516 |       0.15 | *
    |     1357 |        - |      515 |      515 |       0.15 | *
    |     1380 |        - |      514 |      514 |       0.15 | *
    |     1383 |        - |      513 |      513 |       0.15 | *
    |     1388 |        - |      512 |      512 |       0.15 | *
    |     1396 |        - |      510 |      510 |       0.15 | *
    |     1414 |        - |      509 |      509 |       0.15 | *
    |     1430 |        - |      507 |      507 |       0.15 | *
    |     1432 |        - |      505 |      505 |       0.15 | *
    |     1446 |        - |      504 |      504 |       0.15 | *
    |     1450 |        - |      503 |      503 |       0.15 | *
    |     1460 |        - |      502 |      502 |       0.15 | *
    |     1485 |        - |      501 |      501 |       0.16 | *
    |     1487 |        - |      500 |      500 |       0.16 | *
    |     1515 |        - |      499 |      499 |       0.16 | *
    |     1533 |        - |      495 |      495 |       0.16 | *
    |     1536 |        - |      494 |      494 |       0.16 | *
    |     1556 |        - |      492 |      492 |       0.16 | *
    |     1557 |        - |      491 |      491 |       0.16 | *
    |     1559 |        - |      490 |      490 |       0.16 | *
    |     1561 |        - |      489 |      489 |       0.16 | *
    |     1566 |        - |      488 |      488 |       0.16 | *
    |     1606 |        - |      484 |      484 |       0.16 | *
    |     1625 |        - |      483 |      483 |       0.16 | *
    |     1631 |        - |      482 |      482 |       0.16 | *
    |     1639 |        - |      481 |      481 |       0.16 | *
    |     1655 |        - |      479 |      479 |       0.16 | *
    |     1711 |        - |      477 |      477 |       0.17 | *
    |     1713 |        - |      476 |      476 |       0.17 | *
    |     1714 |        - |      473 |      473 |       0.17 | *
    |     1738 |        - |      472 |      472 |       0.17 | *
    |     1745 |        - |      470 |      470 |       0.17 | *
    |     1747 |        - |      469 |      469 |       0.17 | *
    |     1781 |        - |      466 |      466 |       0.17 | *
    |     1785 |        - |      465 |      465 |       0.17 | *
    |     1790 |        - |      464 |      464 |       0.17 | *
    |     1792 |        - |      461 |      461 |       0.17 | *
    |     1807 |        - |      460 |      460 |       0.17 | *
    |     1835 |        - |      459 |      459 |       0.17 | *
    |     1836 |        - |      458 |      458 |       0.17 | *
    |     1862 |        - |      456 |      456 |       0.17 | *
    |     1863 |        - |      454 |      454 |       0.17 | *
    |     1919 |        - |      453 |      453 |       0.17 | *
    |     1929 |        - |      451 |      451 |       0.18 | *
    |     1946 |        - |      450 |      450 |       0.18 | *
    |     1970 |        - |      448 |      448 |       0.18 | *
    |     1971 |        - |      447 |      447 |       0.18 | *
    |     1973 |        - |      446 |      446 |       0.18 | *
    |     1981 |        - |      445 |      445 |       0.18 | *
    |     1999 |        - |      444 |      444 |       0.18 | *
    |     2015 |        - |      443 |      443 |       0.18 | *
    |     2044 |        - |      442 |      442 |       0.18 | *
    |     2078 |        - |      441 |      441 |       0.18 | *
    |     2082 |        - |      439 |      439 |       0.18 | *
    |     2101 |        - |      437 |      437 |       0.18 | *
    |     2108 |        - |      436 |      436 |       0.18 | *
    |     2135 |        - |      433 |      433 |       0.18 | *
    |     2140 |        - |      430 |      430 |       0.18 | *
    |     2216 |        - |      427 |      427 |       0.18 | *
    |     2226 |        - |      426 |      426 |       0.19 | *
    |     2247 |        - |      424 |      424 |       0.19 | *
    |     2251 |        - |      423 |      423 |       0.19 | *
    |     2258 |        - |      422 |      422 |       0.19 | *
    |     2261 |        - |      421 |      421 |       0.19 | *
    |     2263 |        - |      420 |      420 |       0.19 | *
    |     2269 |        - |      419 |      419 |       0.19 | *
    |     2273 |        - |      417 |      417 |       0.19 | *
    |     2294 |        - |      416 |      416 |       0.19 | *
    |     2297 |        - |      413 |      413 |       0.19 | *
    |     2362 |        - |      412 |      412 |       0.19 | *
    |     2366 |        - |      411 |      411 |       0.19 | *
    |     2374 |        - |      410 |      410 |       0.19 | *
    |     2379 |        - |      409 |      409 |       0.19 | *
    |     2408 |        - |      408 |      408 |       0.19 | *
    |     2445 |        - |      406 |      406 |       0.19 | *
    |     2457 |        - |      405 |      405 |       0.19 | *
    |     2466 |        - |      402 |      402 |       0.20 | *
    |     2480 |        - |      401 |      401 |       0.20 | *
    |     2526 |        - |      400 |      400 |       0.20 | *
    |     2612 |        - |      399 |      399 |       0.20 | *
    |     2614 |        - |      398 |      398 |       0.20 | *
    |     2618 |        - |      397 |      397 |       0.20 | *
    |     2625 |        - |      395 |      395 |       0.20 | *
    |     2629 |        - |      394 |      394 |       0.20 | *
    |     2630 |        - |      393 |      393 |       0.20 | *
    |     2642 |        - |      392 |      392 |       0.20 | *
    |     2648 |        - |      390 |      390 |       0.20 | *
    |     2654 |        - |      389 |      389 |       0.20 | *
    |     2657 |        - |      388 |      388 |       0.20 | *
    |     2659 |        - |      387 |      387 |       0.20 | *
    |     2668 |        - |      386 |      386 |       0.20 | *
    |     2670 |        - |      385 |      385 |       0.20 | *
    |     2673 |        - |      383 |      383 |       0.21 | *
    |     2678 |        - |      381 |      381 |       0.21 | *
    |     2704 |        - |      380 |      380 |       0.21 | *
    |     2729 |        - |      379 |      379 |       0.21 | *
    |     2738 |        - |      378 |      378 |       0.21 | *
    |     2746 |        - |      377 |      377 |       0.21 | *
    |     2756 |        - |      376 |      376 |       0.21 | *
    |     2758 |        - |      375 |      375 |       0.21 | *
    |     2761 |        - |      373 |      373 |       0.21 | *
    |     2775 |        - |      372 |      372 |       0.21 | *
    |     2786 |        - |      371 |      371 |       0.21 | *
    |     2794 |        - |      369 |      369 |       0.21 | *
    |     2795 |        - |      368 |      368 |       0.21 | *
    |     2799 |        - |      367 |      367 |       0.21 | *
    |     2802 |        - |      366 |      366 |       0.21 | *
    |     2832 |        - |      365 |      365 |       0.21 | *
    |     2835 |        - |      364 |      364 |       0.21 | *
    |     2841 |        - |      362 |      362 |       0.21 | *
    |     2849 |        - |      360 |      360 |       0.21 | *
    |     2863 |        - |      358 |      358 |       0.22 | *
    |     2887 |        - |      357 |      357 |       0.22 | *
    |     2987 |        - |      356 |      356 |       0.22 | *
    |     2989 |        - |      355 |      355 |       0.22 | *
    |     3021 |        - |      354 |      354 |       0.22 | *
    |     3045 |        - |      353 |      353 |       0.22 | *
    |     3064 |        - |      352 |      352 |       0.22 | *
    |     3084 |        - |      351 |      351 |       0.22 | *
    |     3125 |        - |      350 |      350 |       0.22 | *
    |     3139 |        - |      348 |      348 |       0.22 | *
    |     3149 |        - |      347 |      347 |       0.22 | *
    |     3196 |        - |      346 |      346 |       0.23 | *
    |     3198 |        - |      345 |      345 |       0.23 | *
    |     3243 |        - |      344 |      344 |       0.23 | *
    |     3436 |        - |      342 |      342 |       0.23 | *
    |     3445 |        - |      341 |      341 |       0.23 | *
    |     3453 |        - |      340 |      340 |       0.23 | *
    |     3502 |        - |      339 |      339 |       0.23 | *
    |     3519 |        - |      338 |      338 |       0.23 | *
    |     3535 |        - |      337 |      337 |       0.23 | *
    |     3562 |        - |      336 |      336 |       0.23 | *
    |     3701 |        - |      335 |      335 |       0.23 | *
    |     3742 |        - |      334 |      334 |       0.23 | *
    |     3744 |        - |      333 |      333 |       0.23 | *
    |     3795 |        - |      332 |      332 |       0.24 | *
    |     3814 |        - |      330 |      330 |       0.24 | *
    |     3861 |        - |      329 |      329 |       0.24 | *
    |     3952 |        - |      328 |      328 |       0.24 | *
    |     3962 |        - |      327 |      327 |       0.24 | *
    |     3989 |        - |      326 |      326 |       0.24 | *
    |     3993 |        - |      325 |      325 |       0.24 | *
    |     4033 |        - |      324 |      324 |       0.24 | *
    |     4038 |        - |      323 |      323 |       0.24 | *
    |     4049 |        - |      321 |      321 |       0.24 | *
    |     4050 |        - |      320 |      320 |       0.25 | *
    |     4066 |        - |      318 |      318 |       0.25 | *
    |     4076 |        - |      317 |      317 |       0.25 | *
    |     4111 |        - |      316 |      316 |       0.25 | *
    |     4113 |        - |      315 |      315 |       0.25 | *
    |     4174 |        - |      314 |      314 |       0.25 | *
    |     4242 |        - |      313 |      313 |       0.25 | *
    |     4293 |        - |      311 |      311 |       0.25 | *
    |     4306 |        - |      310 |      310 |       0.25 | *
    |     4323 |        - |      308 |      308 |       0.25 | *
    |     4412 |        - |      307 |      307 |       0.25 | *
    |     4579 |        - |      306 |      306 |       0.25 | *
    |     4627 |        - |      305 |      305 |       0.26 | *
    |     4651 |        - |      303 |      303 |       0.26 | *
    |     4667 |        - |      301 |      301 |       0.26 | *
    |     4678 |        - |      300 |      300 |       0.26 | *
    |     4679 |        - |      298 |      298 |       0.26 | *
    |     4681 |        - |      297 |      297 |       0.26 | *
    |     4691 |        - |      296 |      296 |       0.26 | *
    |     4714 |        - |      295 |      295 |       0.26 | *
    |     4733 |        - |      293 |      293 |       0.26 | *
    |     4750 |        - |      291 |      291 |       0.26 | *
    |     4755 |        - |      290 |      290 |       0.26 | *
    |     4796 |        - |      289 |      289 |       0.26 | *
    |     4869 |        - |      288 |      288 |       0.26 | *
    |     4872 |        - |      287 |      287 |       0.26 | *
    |     4977 |        - |      286 |      286 |       0.26 | *
    |     5017 |        - |      285 |      285 |       0.27 | *
    |     5067 |        - |      284 |      284 |       0.27 | *
    |     5099 |        - |      282 |      282 |       0.27 | *
    |     5219 |        - |      281 |      281 |       0.27 | *
    |     5253 |        - |      280 |      280 |       0.27 | *
    |     5323 |        - |      278 |      278 |       0.27 | *
    |     5327 |        - |      277 |      277 |       0.27 | *
    |     5342 |        - |      276 |      276 |       0.27 | *
    |     5476 |        - |      275 |      275 |       0.27 | *
    |     5492 |        - |      274 |      274 |       0.27 | *
    |     5539 |        - |      272 |      272 |       0.27 | *
    |     5596 |        - |      271 |      271 |       0.27 | *
    |     5678 |        - |      270 |      270 |       0.27 | *
    |     5745 |        - |      269 |      269 |       0.28 | *
    |     5776 |        - |      268 |      268 |       0.28 | *
    |     6292 |        - |      267 |      267 |       0.28 | *
    |     6293 |        - |      266 |      266 |       0.28 | *
    |     6298 |        - |      265 |      265 |       0.28 | *
    |     6393 |        - |      264 |      264 |       0.28 | *
    |     6454 |        - |      263 |      263 |       0.28 | *
    |     6482 |        - |      261 |      261 |       0.28 | *
    |     6527 |        - |      260 |      260 |       0.28 | *
    |     6552 |        - |      259 |      259 |       0.28 | *
    |     6907 |        - |      258 |      258 |       0.28 | *
    |     6923 |        - |      257 |      257 |       0.28 | *
    |     6946 |        - |      256 |      256 |       0.28 | *
    |     7335 |        - |      255 |      255 |       0.29 | *
    |     7428 |        - |      254 |      254 |       0.29 | *
    |     7546 |        - |      253 |      253 |       0.29 | *
    |     7674 |        - |      252 |      252 |       0.29 | *
    |     7966 |        - |      251 |      251 |       0.29 | *
    |     8106 |        - |      250 |      250 |       0.29 | *
    |     8146 |        - |      248 |      248 |       0.29 | *
    |     8222 |        - |      247 |      247 |       0.29 | *
    |     8284 |        - |      246 |      246 |       0.29 | *
    |     8343 |        - |      245 |      245 |       0.29 | *
    |     8889 |        - |      244 |      244 |       0.30 | *
    |     8961 |        - |      243 |      243 |       0.30 | *
    |     8965 |        - |      242 |      242 |       0.30 | *
    |     9107 |        - |      241 |      241 |       0.31 | *
    |     9196 |        - |      240 |      240 |       0.31 | *
    |     9296 |        - |      239 |      239 |       0.31 | *
    |     9532 |        - |      238 |      238 |       0.31 | *
    |     9546 |        - |      237 |      237 |       0.31 | *
    |     9615 |        - |      236 |      236 |       0.31 | *
    |     9625 |        - |      235 |      235 |       0.31 | *
    |     9977 |        - |      233 |      233 |       0.31 | *
    |      10K |        - |      232 |      232 |       0.31 | *
    |      10K |        - |      231 |      231 |       0.31 | *
    |      11K |        - |      230 |      230 |       0.32 | *
    |      11K |        - |      229 |      229 |       0.32 | *
    |      11K |        - |      228 |      228 |       0.32 | *
    |      11K |        - |      227 |      227 |       0.32 | *
    |      12K |        - |      226 |      226 |       0.33 | *
    |      12K |        - |      225 |      225 |       0.33 | *
    |      12K |        - |      224 |      224 |       0.33 | *
    |      12K |        - |      223 |      223 |       0.33 | *
    |      12K |        - |      222 |      222 |       0.33 | *
    |      12K |        - |      221 |      221 |       0.33 | *
    |      12K |        - |      220 |      220 |       0.33 | *
    |      12K |        - |      219 |      219 |       0.33 | *
    |      12K |        - |      218 |      218 |       0.33 | *
    |      12K |        - |      217 |      217 |       0.33 | *
    |      12K |        - |      216 |      216 |       0.33 | *
    |      13K |        - |      214 |      214 |       0.34 | *
    |      13K |        - |      213 |      213 |       0.34 | *
    |      13K |        - |      211 |      211 |       0.34 | *
    |      13K |        - |      210 |      210 |       0.34 | *
    |      15K |        - |      209 |      209 |       0.34 | *
    |      15K |        - |      208 |      208 |       0.35 | *
    |      15K |        - |      207 |      207 |       0.35 | *
    |      16K |        - |      206 |      206 |       0.35 | *
    |      16K |        - |      205 |      205 |       0.36 | *
    |      16K |        - |      204 |      204 |       0.36 | *
    |      17K |        - |      203 |      203 |       0.36 | *
    |      17K |        - |      202 |      202 |       0.36 | *
    |      17K |        - |      201 |      201 |       0.36 | *
    |      17K |        - |      200 |      200 |       0.36 | *
    |      18K |        - |      199 |      199 |       0.37 | *
    |      18K |        - |      198 |      198 |       0.37 | *
    |      19K |        - |      197 |      197 |       0.37 | *
    |      20K |        - |      196 |      196 |       0.37 | *
    |      21K |        - |      195 |      195 |       0.38 | *
    |      23K |        - |      194 |      194 |       0.39 | *
    |      23K |        - |      193 |      193 |       0.39 | *
    |      23K |        - |      192 |      192 |       0.39 | *
    |      24K |        - |      191 |      191 |       0.39 | *
    |      24K |        - |      190 |      190 |       0.39 | *
    |      26K |        - |      189 |      189 |       0.40 | *
    |      26K |        - |      188 |      188 |       0.40 | *
    |      27K |        - |      187 |      187 |       0.40 | *
    |      28K |        - |      186 |      186 |       0.41 | *
    |      28K |        - |      185 |      185 |       0.41 | *
    |      28K |        - |      184 |      184 |       0.41 | *
    |      35K |        - |      183 |      183 |       0.43 | *
    |      38K |        - |      182 |      182 |       0.44 | *
    |      39K |        - |      181 |      181 |       0.44 | *
    |      40K |        - |      180 |      180 |       0.45 | *
    |      40K |        - |      179 |      179 |       0.45 | *
    |      41K |        - |      178 |      178 |       0.45 | *
    |      51K |        - |      177 |      177 |       0.49 | *
    |      53K |        - |      176 |      176 |       0.49 | *
    |      54K |        - |      175 |      175 |       0.50 | *
    |      54K |        - |      174 |      174 |       0.50 | *
    |      54K |        - |      173 |      173 |       0.50 | *
    |      55K |        - |      172 |      172 |       0.50 | *
    |      56K |        - |      171 |      171 |       0.51 | *
    |      62K |        - |      170 |      170 |       0.53 | *
    |      67K |        - |      169 |      169 |       0.54 | *
    |      67K |        - |      168 |      168 |       0.54 | *
    |      67K |        - |      167 |      167 |       0.55 | *
    |      77K |        - |      166 |      166 |       0.57 | *
    |      77K |        - |      165 |      165 |       0.57 | *
    |      78K |        - |      164 |      164 |       0.58 | *
    |      83K |        - |      163 |      163 |       0.59 | *
    |      83K |        - |      162 |      162 |       0.59 | *
    |      88K |        - |      161 |      161 |       0.60 | *
    |     265K |        - |      160 |      160 |       1.35 | *
    |     405K |        - |      159 |      159 |       1.84 | *
    |     406K |        - |      158 |      158 |       1.85 | *
    |     422K |        - |      157 |      157 |       1.89 | *
    |    1242K |        - |      156 |      156 |       2.72 | *
    |    7993K |        - |      155 |      155 |       9.31 | *
    |      11M |        - |      154 |      154 |      11.99 | *
    |      47M |        - |      153 |      153 |      44.24 | *
    |      76M |        - |      152 |      152 |      67.74 | *
    |     133M |        - |      151 |      151 |     114.00 | *
    |     181M |        - |      150 |      150 |     152.57 | *
    |     241M |        - |      149 |      149 |     201.68 | *
    |     241M |        - |      148 |      148 |     201.68 | *
    |     353M |        - |      147 |      147 |     292.07 | *
    |     384M |        - |      146 |      146 |     317.11 | *
    |     402M |        - |      145 |      145 |     331.71 | *
    |     502M |        - |      144 |      144 |     412.60 | *
    |     565M |        - |      143 |      143 |     464.19 | *
    |     604M |        - |      142 |      142 |     495.79 | *
    |     760M |        - |      141 |      141 |     620.25 | *
    |     851M |        - |      140 |      140 |     693.02 | *
    |     954M |        - |      139 |      139 |     775.19 | *
    |    1188M |        - |      138 |      138 |     961.44 | *
    |    1348M |        - |      137 |      137 |    1088.74 | *
    \--------------------------------------------------------/

Neighborhoods statistics (values in %):

    /----------------------------------------------------------------\
    | Move               | Improvs. | Sideways |  Accepts |  Rejects |
    |--------------------|----------|----------|----------|----------|
    | Shift(mk)          |     398K |    2100K |    2834K |     188M |
    | Shift              |      26K |    9263K |    9877K |     181M |
    | ShiftSmart(mk)     |    2994K |      19M |      23M |     167M |
    | ShiftSmart         |     200K |      46M |      47M |     143M |
    | SimpSwap(mk)       |     1317 |     3254 |     5821 |     190M |
    | SimpSwap           |      205 |      12K |      15K |     191M |
    | SimpSwapSmart(mk)  |      18K |      44K |      77K |     191M |
    | SimpSwapSmart      |     2494 |     147K |     175K |     190M |
    | Swap(mk)           |      695 |     1608 |     2903 |     190M |
    | Swap               |      101 |     6203 |     7752 |     191M |
    | SwapSmart(mk)      |     7564 |      21K |      33K |     190M |
    | SwapSmart          |      986 |      56K |      64K |     190M |
    | Switch(mk)         |     223K |      12M |      13M |     178M |
    | Switch             |      15K |      16M |      16M |     174M |
    | SwitchSmart(mk)    |    1606K |    6395K |    8786K |     182M |
    | SwitchSmart        |     108K |      22M |      23M |     168M |
    | TaskMove(mk)       |      18K |      41K |      71K |     190M |
    | TaskMove           |     1236 |      64K |      76K |     191M |
    | TaskMoveSmart(mk)  |      89K |     234K |     371K |     190M |
    | TaskMoveSmart      |     6388 |     362K |     415K |     190M |
    | 2-Shift(mk)        |     137K |    1297K |    1532K |     189M |
    | 2-Shift            |     9193 |    3630K |    3874K |     187M |
    | 2-ShiftSmart(mk)   |    2473K |    9847K |      13M |     177M |
    | 2-ShiftSmart       |     165K |      27M |      28M |     162M |
    \----------------------------------------------------------------/

Best makespan.....: 137
N. of Iterations..: 4571193646
Total runtime.....: 3600.02s
Using Python-MIP package version 1.6.8
Começo a execução
    /-------------------------------------------------------------------------------\
    |    Makespan   |   Free Jobs   | Free Machines |    It. Time   |   Total Time  | 
    |-------------------------------------------------------------------------------|
    \-------------------------------------------------------------------------------/
Terminou a execução
