Instance....: instances/I_250_10_S_1-124_8.txt
Algorithm...: Simulated Annealing (alpha=0.990, saMax=10M, t0=1)
Other params: maxIters=100M, seed=-1, timeLimit=3600.00s

    /--------------------------------------------------------\
    |     Iter |   RDP(%) |       S* |       S' |       Time | 
    |----------|----------|----------|----------|------------|
    |        0 |        - |     3418 |     3418 |       0.00 | s0
    |        3 |        - |     3319 |     3319 |       0.01 | *
    |        5 |        - |     3241 |     3241 |       0.01 | *
    |        6 |        - |     3181 |     3181 |       0.01 | *
    |       11 |        - |     3171 |     3171 |       0.01 | *
    |       18 |        - |     2898 |     2898 |       0.04 | *
    |       21 |        - |     2857 |     2857 |       0.04 | *
    |       25 |        - |     2786 |     2786 |       0.04 | *
    |       29 |        - |     2771 |     2771 |       0.04 | *
    |       30 |        - |     2752 |     2752 |       0.04 | *
    |       31 |        - |     2730 |     2730 |       0.04 | *
    |       34 |        - |     2686 |     2686 |       0.05 | *
    |       37 |        - |     2675 |     2675 |       0.05 | *
    |       40 |        - |     2644 |     2644 |       0.05 | *
    |       42 |        - |     2625 |     2625 |       0.05 | *
    |       43 |        - |     2624 |     2624 |       0.05 | *
    |       44 |        - |     2592 |     2592 |       0.05 | *
    |       57 |        - |     2565 |     2565 |       0.05 | *
    |       58 |        - |     2547 |     2547 |       0.05 | *
    |       61 |        - |     2521 |     2521 |       0.05 | *
    |       63 |        - |     2499 |     2499 |       0.05 | *
    |       64 |        - |     2480 |     2480 |       0.06 | *
    |       66 |        - |     2470 |     2470 |       0.06 | *
    |       67 |        - |     2469 |     2469 |       0.06 | *
    |       72 |        - |     2460 |     2460 |       0.06 | *
    |       79 |        - |     2435 |     2435 |       0.06 | *
    |       80 |        - |     2434 |     2434 |       0.06 | *
    |       81 |        - |     2427 |     2427 |       0.06 | *
    |       92 |        - |     2424 |     2424 |       0.06 | *
    |       93 |        - |     2423 |     2423 |       0.06 | *
    |       96 |        - |     2420 |     2420 |       0.06 | *
    |       99 |        - |     2419 |     2419 |       0.07 | *
    |      103 |        - |     2404 |     2404 |       0.07 | *
    |      106 |        - |     2388 |     2388 |       0.07 | *
    |      109 |        - |     2381 |     2381 |       0.07 | *
    |      111 |        - |     2366 |     2366 |       0.07 | *
    |      114 |        - |     2348 |     2348 |       0.07 | *
    |      115 |        - |     2346 |     2346 |       0.07 | *
    |      122 |        - |     2341 |     2341 |       0.07 | *
    |      134 |        - |     2315 |     2315 |       0.07 | *
    |      135 |        - |     2312 |     2312 |       0.07 | *
    |      138 |        - |     2303 |     2303 |       0.08 | *
    |      141 |        - |     2297 |     2297 |       0.08 | *
    |      142 |        - |     2281 |     2281 |       0.08 | *
    |      145 |        - |     2274 |     2274 |       0.08 | *
    |      146 |        - |     2260 |     2260 |       0.08 | *
    |      148 |        - |     2243 |     2243 |       0.08 | *
    |      153 |        - |     2241 |     2241 |       0.08 | *
    |      157 |        - |     2222 |     2222 |       0.08 | *
    |      166 |        - |     2217 |     2217 |       0.08 | *
    |      168 |        - |     2189 |     2189 |       0.08 | *
    |      172 |        - |     2182 |     2182 |       0.09 | *
    |      174 |        - |     2155 |     2155 |       0.09 | *
    |      176 |        - |     2153 |     2153 |       0.09 | *
    |      183 |        - |     2143 |     2143 |       0.09 | *
    |      192 |        - |     2142 |     2142 |       0.09 | *
    |      194 |        - |     2137 |     2137 |       0.09 | *
    |      207 |        - |     2123 |     2123 |       0.09 | *
    |      211 |        - |     2114 |     2114 |       0.09 | *
    |      215 |        - |     2111 |     2111 |       0.09 | *
    |      225 |        - |     2085 |     2085 |       0.09 | *
    |      234 |        - |     2077 |     2077 |       0.10 | *
    |      243 |        - |     2070 |     2070 |       0.10 | *
    |      246 |        - |     2050 |     2050 |       0.10 | *
    |      252 |        - |     2037 |     2037 |       0.10 | *
    |      263 |        - |     2019 |     2019 |       0.10 | *
    |      267 |        - |     2003 |     2003 |       0.10 | *
    |      270 |        - |     2001 |     2001 |       0.10 | *
    |      274 |        - |     1999 |     1999 |       0.10 | *
    |      279 |        - |     1993 |     1993 |       0.10 | *
    |      285 |        - |     1991 |     1991 |       0.10 | *
    |      289 |        - |     1985 |     1985 |       0.10 | *
    |      300 |        - |     1984 |     1984 |       0.10 | *
    |      302 |        - |     1976 |     1976 |       0.10 | *
    |      305 |        - |     1971 |     1971 |       0.11 | *
    |      306 |        - |     1967 |     1967 |       0.11 | *
    |      312 |        - |     1955 |     1955 |       0.11 | *
    |      317 |        - |     1953 |     1953 |       0.11 | *
    |      320 |        - |     1951 |     1951 |       0.11 | *
    |      327 |        - |     1949 |     1949 |       0.11 | *
    |      328 |        - |     1946 |     1946 |       0.11 | *
    |      329 |        - |     1939 |     1939 |       0.11 | *
    |      340 |        - |     1919 |     1919 |       0.11 | *
    |      354 |        - |     1914 |     1914 |       0.11 | *
    |      355 |        - |     1892 |     1892 |       0.11 | *
    |      357 |        - |     1890 |     1890 |       0.11 | *
    |      376 |        - |     1888 |     1888 |       0.12 | *
    |      377 |        - |     1884 |     1884 |       0.12 | *
    |      396 |        - |     1870 |     1870 |       0.12 | *
    |      397 |        - |     1858 |     1858 |       0.12 | *
    |      401 |        - |     1840 |     1840 |       0.12 | *
    |      408 |        - |     1828 |     1828 |       0.12 | *
    |      410 |        - |     1809 |     1809 |       0.12 | *
    |      424 |        - |     1806 |     1806 |       0.12 | *
    |      437 |        - |     1805 |     1805 |       0.12 | *
    |      445 |        - |     1788 |     1788 |       0.12 | *
    |      461 |        - |     1784 |     1784 |       0.13 | *
    |      464 |        - |     1775 |     1775 |       0.13 | *
    |      481 |        - |     1773 |     1773 |       0.13 | *
    |      496 |        - |     1770 |     1770 |       0.13 | *
    |      500 |        - |     1763 |     1763 |       0.13 | *
    |      507 |        - |     1753 |     1753 |       0.13 | *
    |      515 |        - |     1752 |     1752 |       0.13 | *
    |      517 |        - |     1743 |     1743 |       0.13 | *
    |      518 |        - |     1735 |     1735 |       0.13 | *
    |      520 |        - |     1730 |     1730 |       0.13 | *
    |      528 |        - |     1712 |     1712 |       0.13 | *
    |      538 |        - |     1711 |     1711 |       0.14 | *
    |      539 |        - |     1708 |     1708 |       0.14 | *
    |      554 |        - |     1707 |     1707 |       0.14 | *
    |      555 |        - |     1679 |     1679 |       0.14 | *
    |      559 |        - |     1677 |     1677 |       0.14 | *
    |      560 |        - |     1670 |     1670 |       0.14 | *
    |      595 |        - |     1650 |     1650 |       0.14 | *
    |      602 |        - |     1644 |     1644 |       0.14 | *
    |      603 |        - |     1640 |     1640 |       0.14 | *
    |      611 |        - |     1638 |     1638 |       0.14 | *
    |      629 |        - |     1637 |     1637 |       0.14 | *
    |      636 |        - |     1634 |     1634 |       0.14 | *
    |      654 |        - |     1631 |     1631 |       0.15 | *
    |      671 |        - |     1622 |     1622 |       0.15 | *
    |      681 |        - |     1620 |     1620 |       0.15 | *
    |      694 |        - |     1612 |     1612 |       0.15 | *
    |      700 |        - |     1608 |     1608 |       0.15 | *
    |      716 |        - |     1607 |     1607 |       0.15 | *
    |      717 |        - |     1601 |     1601 |       0.15 | *
    |      720 |        - |     1599 |     1599 |       0.15 | *
    |      722 |        - |     1580 |     1580 |       0.15 | *
    |      724 |        - |     1567 |     1567 |       0.15 | *
    |      732 |        - |     1555 |     1555 |       0.15 | *
    |      737 |        - |     1545 |     1545 |       0.16 | *
    |      754 |        - |     1538 |     1538 |       0.16 | *
    |      755 |        - |     1532 |     1532 |       0.16 | *
    |      771 |        - |     1529 |     1529 |       0.16 | *
    |      782 |        - |     1526 |     1526 |       0.16 | *
    |      786 |        - |     1518 |     1518 |       0.16 | *
    |      787 |        - |     1515 |     1515 |       0.16 | *
    |      788 |        - |     1511 |     1511 |       0.16 | *
    |      791 |        - |     1510 |     1510 |       0.16 | *
    |      849 |        - |     1505 |     1505 |       0.16 | *
    |      860 |        - |     1499 |     1499 |       0.16 | *
    |      862 |        - |     1498 |     1498 |       0.16 | *
    |      870 |        - |     1495 |     1495 |       0.16 | *
    |      884 |        - |     1491 |     1491 |       0.17 | *
    |      903 |        - |     1490 |     1490 |       0.17 | *
    |      908 |        - |     1486 |     1486 |       0.17 | *
    |      918 |        - |     1484 |     1484 |       0.17 | *
    |      920 |        - |     1483 |     1483 |       0.17 | *
    |      930 |        - |     1473 |     1473 |       0.17 | *
    |      953 |        - |     1472 |     1472 |       0.17 | *
    |      983 |        - |     1471 |     1471 |       0.17 | *
    |      993 |        - |     1469 |     1469 |       0.17 | *
    |     1048 |        - |     1464 |     1464 |       0.17 | *
    |     1055 |        - |     1459 |     1459 |       0.17 | *
    |     1074 |        - |     1455 |     1455 |       0.17 | *
    |     1080 |        - |     1452 |     1452 |       0.17 | *
    |     1119 |        - |     1448 |     1448 |       0.18 | *
    |     1132 |        - |     1445 |     1445 |       0.18 | *
    |     1135 |        - |     1444 |     1444 |       0.18 | *
    |     1150 |        - |     1442 |     1442 |       0.18 | *
    |     1174 |        - |     1440 |     1440 |       0.18 | *
    |     1181 |        - |     1439 |     1439 |       0.18 | *
    |     1185 |        - |     1438 |     1438 |       0.18 | *
    |     1243 |        - |     1434 |     1434 |       0.18 | *
    |     1251 |        - |     1426 |     1426 |       0.18 | *
    |     1255 |        - |     1424 |     1424 |       0.18 | *
    |     1257 |        - |     1422 |     1422 |       0.18 | *
    |     1261 |        - |     1421 |     1421 |       0.18 | *
    |     1291 |        - |     1419 |     1419 |       0.19 | *
    |     1304 |        - |     1415 |     1415 |       0.19 | *
    |     1335 |        - |     1409 |     1409 |       0.19 | *
    |     1343 |        - |     1408 |     1408 |       0.19 | *
    |     1367 |        - |     1406 |     1406 |       0.19 | *
    |     1371 |        - |     1404 |     1404 |       0.19 | *
    |     1389 |        - |     1402 |     1402 |       0.19 | *
    |     1390 |        - |     1397 |     1397 |       0.19 | *
    |     1427 |        - |     1395 |     1395 |       0.19 | *
    |     1435 |        - |     1393 |     1393 |       0.19 | *
    |     1448 |        - |     1391 |     1391 |       0.19 | *
    |     1450 |        - |     1390 |     1390 |       0.19 | *
    |     1451 |        - |     1383 |     1383 |       0.19 | *
    |     1472 |        - |     1378 |     1378 |       0.19 | *
    |     1482 |        - |     1377 |     1377 |       0.20 | *
    |     1536 |        - |     1376 |     1376 |       0.20 | *
    |     1549 |        - |     1362 |     1362 |       0.20 | *
    |     1552 |        - |     1360 |     1360 |       0.20 | *
    |     1563 |        - |     1356 |     1356 |       0.20 | *
    |     1573 |        - |     1343 |     1343 |       0.20 | *
    |     1577 |        - |     1340 |     1340 |       0.20 | *
    |     1580 |        - |     1338 |     1338 |       0.20 | *
    |     1584 |        - |     1335 |     1335 |       0.20 | *
    |     1587 |        - |     1328 |     1328 |       0.20 | *
    |     1588 |        - |     1323 |     1323 |       0.20 | *
    |     1597 |        - |     1319 |     1319 |       0.20 | *
    |     1605 |        - |     1318 |     1318 |       0.20 | *
    |     1623 |        - |     1307 |     1307 |       0.20 | *
    |     1632 |        - |     1304 |     1304 |       0.20 | *
    |     1635 |        - |     1300 |     1300 |       0.20 | *
    |     1638 |        - |     1292 |     1292 |       0.21 | *
    |     1642 |        - |     1290 |     1290 |       0.21 | *
    |     1643 |        - |     1279 |     1279 |       0.21 | *
    |     1646 |        - |     1274 |     1274 |       0.21 | *
    |     1650 |        - |     1273 |     1273 |       0.21 | *
    |     1682 |        - |     1266 |     1266 |       0.21 | *
    |     1754 |        - |     1264 |     1264 |       0.21 | *
    |     1757 |        - |     1260 |     1260 |       0.21 | *
    |     1791 |        - |     1259 |     1259 |       0.21 | *
    |     1806 |        - |     1258 |     1258 |       0.21 | *
    |     1815 |        - |     1256 |     1256 |       0.21 | *
    |     1895 |        - |     1255 |     1255 |       0.21 | *
    |     1919 |        - |     1253 |     1253 |       0.21 | *
    |     1920 |        - |     1249 |     1249 |       0.21 | *
    |     1931 |        - |     1242 |     1242 |       0.21 | *
    |     1977 |        - |     1239 |     1239 |       0.22 | *
    |     1993 |        - |     1235 |     1235 |       0.22 | *
    |     2006 |        - |     1234 |     1234 |       0.22 | *
    |     2012 |        - |     1229 |     1229 |       0.22 | *
    |     2037 |        - |     1228 |     1228 |       0.22 | *
    |     2038 |        - |     1227 |     1227 |       0.22 | *
    |     2078 |        - |     1226 |     1226 |       0.22 | *
    |     2088 |        - |     1214 |     1214 |       0.22 | *
    |     2117 |        - |     1213 |     1213 |       0.22 | *
    |     2119 |        - |     1208 |     1208 |       0.22 | *
    |     2121 |        - |     1206 |     1206 |       0.22 | *
    |     2138 |        - |     1203 |     1203 |       0.22 | *
    |     2140 |        - |     1201 |     1201 |       0.22 | *
    |     2183 |        - |     1198 |     1198 |       0.22 | *
    |     2188 |        - |     1197 |     1197 |       0.22 | *
    |     2217 |        - |     1195 |     1195 |       0.22 | *
    |     2229 |        - |     1194 |     1194 |       0.22 | *
    |     2234 |        - |     1187 |     1187 |       0.23 | *
    |     2244 |        - |     1186 |     1186 |       0.23 | *
    |     2311 |        - |     1184 |     1184 |       0.23 | *
    |     2341 |        - |     1183 |     1183 |       0.23 | *
    |     2445 |        - |     1182 |     1182 |       0.23 | *
    |     2455 |        - |     1179 |     1179 |       0.23 | *
    |     2457 |        - |     1177 |     1177 |       0.23 | *
    |     2523 |        - |     1175 |     1175 |       0.23 | *
    |     2612 |        - |     1174 |     1174 |       0.23 | *
    |     2635 |        - |     1171 |     1171 |       0.23 | *
    |     2644 |        - |     1170 |     1170 |       0.23 | *
    |     2681 |        - |     1164 |     1164 |       0.23 | *
    |     2684 |        - |     1163 |     1163 |       0.23 | *
    |     2698 |        - |     1161 |     1161 |       0.23 | *
    |     2700 |        - |     1160 |     1160 |       0.23 | *
    |     2705 |        - |     1158 |     1158 |       0.24 | *
    |     2727 |        - |     1157 |     1157 |       0.24 | *
    |     2731 |        - |     1155 |     1155 |       0.24 | *
    |     2744 |        - |     1151 |     1151 |       0.24 | *
    |     2750 |        - |     1147 |     1147 |       0.24 | *
    |     2852 |        - |     1145 |     1145 |       0.24 | *
    |     2891 |        - |     1144 |     1144 |       0.24 | *
    |     2929 |        - |     1139 |     1139 |       0.24 | *
    |     3001 |        - |     1137 |     1137 |       0.24 | *
    |     3014 |        - |     1136 |     1136 |       0.24 | *
    |     3048 |        - |     1134 |     1134 |       0.24 | *
    |     3192 |        - |     1133 |     1133 |       0.24 | *
    |     3231 |        - |     1130 |     1130 |       0.24 | *
    |     3322 |        - |     1128 |     1128 |       0.25 | *
    |     3347 |        - |     1126 |     1126 |       0.25 | *
    |     3398 |        - |     1124 |     1124 |       0.25 | *
    |     3402 |        - |     1122 |     1122 |       0.25 | *
    |     3416 |        - |     1121 |     1121 |       0.25 | *
    |     3516 |        - |     1119 |     1119 |       0.25 | *
    |     3562 |        - |     1117 |     1117 |       0.25 | *
    |     3638 |        - |     1113 |     1113 |       0.25 | *
    |     3655 |        - |     1112 |     1112 |       0.25 | *
    |     3672 |        - |     1110 |     1110 |       0.25 | *
    |     3875 |        - |     1107 |     1107 |       0.26 | *
    |     3920 |        - |     1098 |     1098 |       0.26 | *
    |     3948 |        - |     1097 |     1097 |       0.26 | *
    |     3950 |        - |     1096 |     1096 |       0.26 | *
    |     3973 |        - |     1086 |     1086 |       0.26 | *
    |     4037 |        - |     1084 |     1084 |       0.26 | *
    |     4086 |        - |     1082 |     1082 |       0.26 | *
    |     4105 |        - |     1081 |     1081 |       0.26 | *
    |     4270 |        - |     1080 |     1080 |       0.26 | *
    |     4330 |        - |     1077 |     1077 |       0.26 | *
    |     4450 |        - |     1071 |     1071 |       0.27 | *
    |     4493 |        - |     1070 |     1070 |       0.27 | *
    |     4597 |        - |     1069 |     1069 |       0.27 | *
    |     4727 |        - |     1068 |     1068 |       0.27 | *
    |     4784 |        - |     1061 |     1061 |       0.27 | *
    |     4875 |        - |     1060 |     1060 |       0.27 | *
    |     4968 |        - |     1050 |     1050 |       0.27 | *
    |     4975 |        - |     1048 |     1048 |       0.27 | *
    |     5081 |        - |     1039 |     1039 |       0.27 | *
    |     5163 |        - |     1036 |     1036 |       0.28 | *
    |     5178 |        - |     1035 |     1035 |       0.28 | *
    |     5245 |        - |     1033 |     1033 |       0.28 | *
    |     5247 |        - |     1031 |     1031 |       0.28 | *
    |     5273 |        - |     1027 |     1027 |       0.28 | *
    |     5301 |        - |     1026 |     1026 |       0.28 | *
    |     5347 |        - |     1025 |     1025 |       0.28 | *
    |     5363 |        - |     1024 |     1024 |       0.28 | *
    |     5592 |        - |     1023 |     1023 |       0.28 | *
    |     5623 |        - |     1021 |     1021 |       0.28 | *
    |     5674 |        - |     1017 |     1017 |       0.28 | *
    |     5683 |        - |     1009 |     1009 |       0.28 | *
    |     5848 |        - |     1006 |     1006 |       0.29 | *
    |     5914 |        - |     1004 |     1004 |       0.29 | *
    |     5921 |        - |     1002 |     1002 |       0.29 | *
    |     6019 |        - |     1001 |     1001 |       0.29 | *
    |     6144 |        - |     1000 |     1000 |       0.29 | *
    |     6406 |        - |      996 |      996 |       0.29 | *
    |     6417 |        - |      994 |      994 |       0.29 | *
    |     6475 |        - |      991 |      991 |       0.29 | *
    |     6516 |        - |      990 |      990 |       0.29 | *
    |     6558 |        - |      987 |      987 |       0.29 | *
    |     6570 |        - |      986 |      986 |       0.29 | *
    |     6590 |        - |      984 |      984 |       0.29 | *
    |     6612 |        - |      983 |      983 |       0.30 | *
    |     6621 |        - |      979 |      979 |       0.30 | *
    |     6754 |        - |      978 |      978 |       0.30 | *
    |     6781 |        - |      970 |      970 |       0.30 | *
    |     6821 |        - |      966 |      966 |       0.30 | *
    |     6863 |        - |      964 |      964 |       0.30 | *
    |     6935 |        - |      956 |      956 |       0.30 | *
    |     7006 |        - |      955 |      955 |       0.30 | *
    |     7049 |        - |      948 |      948 |       0.30 | *
    |     7065 |        - |      945 |      945 |       0.30 | *
    |     7096 |        - |      944 |      944 |       0.30 | *
    |     7243 |        - |      940 |      940 |       0.31 | *
    |     7250 |        - |      939 |      939 |       0.31 | *
    |     7335 |        - |      936 |      936 |       0.31 | *
    |     7390 |        - |      935 |      935 |       0.31 | *
    |     7525 |        - |      932 |      932 |       0.31 | *
    |     7563 |        - |      930 |      930 |       0.31 | *
    |     7573 |        - |      929 |      929 |       0.31 | *
    |     7650 |        - |      928 |      928 |       0.31 | *
    |     7749 |        - |      927 |      927 |       0.31 | *
    |     7866 |        - |      923 |      923 |       0.31 | *
    |     7940 |        - |      922 |      922 |       0.31 | *
    |     8028 |        - |      919 |      919 |       0.32 | *
    |     8104 |        - |      913 |      913 |       0.32 | *
    |     8241 |        - |      912 |      912 |       0.32 | *
    |     8320 |        - |      911 |      911 |       0.32 | *
    |     8324 |        - |      908 |      908 |       0.32 | *
    |     8340 |        - |      907 |      907 |       0.32 | *
    |     8395 |        - |      906 |      906 |       0.32 | *
    |     8494 |        - |      905 |      905 |       0.32 | *
    |     8764 |        - |      902 |      902 |       0.32 | *
    |     8777 |        - |      901 |      901 |       0.32 | *
    |     9150 |        - |      900 |      900 |       0.33 | *
    |     9243 |        - |      898 |      898 |       0.33 | *
    |     9544 |        - |      896 |      896 |       0.33 | *
    |     9545 |        - |      894 |      894 |       0.33 | *
    |     9830 |        - |      893 |      893 |       0.33 | *
    |     9970 |        - |      891 |      891 |       0.33 | *
    |      10K |        - |      888 |      888 |       0.33 | *
    |      10K |        - |      885 |      885 |       0.33 | *
    |      10K |        - |      883 |      883 |       0.34 | *
    |      11K |        - |      881 |      881 |       0.34 | *
    |      11K |        - |      878 |      878 |       0.34 | *
    |      11K |        - |      877 |      877 |       0.34 | *
    |      11K |        - |      876 |      876 |       0.34 | *
    |      11K |        - |      875 |      875 |       0.34 | *
    |      11K |        - |      871 |      871 |       0.34 | *
    |      11K |        - |      869 |      869 |       0.34 | *
    |      11K |        - |      868 |      868 |       0.35 | *
    |      11K |        - |      867 |      867 |       0.35 | *
    |      11K |        - |      866 |      866 |       0.35 | *
    |      11K |        - |      860 |      860 |       0.35 | *
    |      11K |        - |      859 |      859 |       0.35 | *
    |      12K |        - |      854 |      854 |       0.35 | *
    |      12K |        - |      852 |      852 |       0.35 | *
    |      12K |        - |      848 |      848 |       0.35 | *
    |      12K |        - |      846 |      846 |       0.36 | *
    |      12K |        - |      845 |      845 |       0.36 | *
    |      12K |        - |      840 |      840 |       0.36 | *
    |      12K |        - |      839 |      839 |       0.36 | *
    |      12K |        - |      838 |      838 |       0.36 | *
    |      13K |        - |      834 |      834 |       0.36 | *
    |      13K |        - |      833 |      833 |       0.37 | *
    |      13K |        - |      829 |      829 |       0.37 | *
    |      13K |        - |      828 |      828 |       0.37 | *
    |      13K |        - |      825 |      825 |       0.37 | *
    |      13K |        - |      823 |      823 |       0.37 | *
    |      13K |        - |      822 |      822 |       0.37 | *
    |      14K |        - |      820 |      820 |       0.37 | *
    |      14K |        - |      815 |      815 |       0.37 | *
    |      14K |        - |      813 |      813 |       0.37 | *
    |      14K |        - |      812 |      812 |       0.38 | *
    |      14K |        - |      811 |      811 |       0.38 | *
    |      15K |        - |      810 |      810 |       0.38 | *
    |      15K |        - |      809 |      809 |       0.38 | *
    |      15K |        - |      808 |      808 |       0.38 | *
    |      15K |        - |      807 |      807 |       0.38 | *
    |      15K |        - |      803 |      803 |       0.39 | *
    |      16K |        - |      802 |      802 |       0.39 | *
    |      16K |        - |      801 |      801 |       0.39 | *
    |      16K |        - |      799 |      799 |       0.39 | *
    |      16K |        - |      798 |      798 |       0.39 | *
    |      16K |        - |      795 |      795 |       0.39 | *
    |      16K |        - |      790 |      790 |       0.39 | *
    |      16K |        - |      789 |      789 |       0.39 | *
    |      16K |        - |      787 |      787 |       0.39 | *
    |      16K |        - |      786 |      786 |       0.40 | *
    |      16K |        - |      785 |      785 |       0.40 | *
    |      16K |        - |      780 |      780 |       0.40 | *
    |      17K |        - |      775 |      775 |       0.40 | *
    |      17K |        - |      771 |      771 |       0.40 | *
    |      18K |        - |      768 |      768 |       0.41 | *
    |      18K |        - |      762 |      762 |       0.41 | *
    |      18K |        - |      760 |      760 |       0.41 | *
    |      18K |        - |      758 |      758 |       0.41 | *
    |      19K |        - |      757 |      757 |       0.41 | *
    |      19K |        - |      756 |      756 |       0.42 | *
    |      19K |        - |      754 |      754 |       0.42 | *
    |      19K |        - |      751 |      751 |       0.42 | *
    |      19K |        - |      749 |      749 |       0.42 | *
    |      19K |        - |      745 |      745 |       0.42 | *
    |      21K |        - |      744 |      744 |       0.42 | *
    |      21K |        - |      741 |      741 |       0.42 | *
    |      23K |        - |      737 |      737 |       0.43 | *
    |      25K |        - |      736 |      736 |       0.43 | *
    |      25K |        - |      735 |      735 |       0.43 | *
    |      26K |        - |      734 |      734 |       0.44 | *
    |      26K |        - |      733 |      733 |       0.44 | *
    |      26K |        - |      728 |      728 |       0.44 | *
    |      26K |        - |      726 |      726 |       0.44 | *
    |      28K |        - |      725 |      725 |       0.44 | *
    |      28K |        - |      724 |      724 |       0.44 | *
    |      29K |        - |      723 |      723 |       0.45 | *
    |      37K |        - |      722 |      722 |       0.47 | *
    |      37K |        - |      721 |      721 |       0.47 | *
    |      37K |        - |      720 |      720 |       0.47 | *
    |      37K |        - |      719 |      719 |       0.47 | *
    |      38K |        - |      718 |      718 |       0.47 | *
    |      38K |        - |      716 |      716 |       0.47 | *
    |      39K |        - |      712 |      712 |       0.47 | *
    |      39K |        - |      710 |      710 |       0.47 | *
    |      39K |        - |      709 |      709 |       0.47 | *
    |      39K |        - |      707 |      707 |       0.48 | *
    |      39K |        - |      705 |      705 |       0.48 | *
    |      42K |        - |      703 |      703 |       0.49 | *
    |      43K |        - |      702 |      702 |       0.49 | *
    |      43K |        - |      701 |      701 |       0.49 | *
    |      44K |        - |      700 |      700 |       0.49 | *
    |      45K |        - |      699 |      699 |       0.50 | *
    |      45K |        - |      696 |      696 |       0.50 | *
    |      45K |        - |      695 |      695 |       0.50 | *
    |      45K |        - |      692 |      692 |       0.50 | *
    |      54K |        - |      691 |      691 |       0.55 | *
    |      54K |        - |      690 |      690 |       0.55 | *
    |      55K |        - |      689 |      689 |       0.55 | *
    |      55K |        - |      686 |      686 |       0.55 | *
    |      56K |        - |      685 |      685 |       0.56 | *
    |      58K |        - |      684 |      684 |       0.57 | *
    |      67K |        - |      680 |      680 |       0.62 | *
    |      67K |        - |      679 |      679 |       0.62 | *
    |      68K |        - |      678 |      678 |       0.63 | *
    |      69K |        - |      674 |      674 |       0.63 | *
    |      69K |        - |      672 |      672 |       0.63 | *
    |      71K |        - |      671 |      671 |       0.65 | *
    |      71K |        - |      669 |      669 |       0.65 | *
    |      77K |        - |      668 |      668 |       0.69 | *
    |      77K |        - |      667 |      667 |       0.69 | *
    |      79K |        - |      666 |      666 |       0.70 | *
    |      81K |        - |      665 |      665 |       0.71 | *
    |      81K |        - |      664 |      664 |       0.72 | *
    |      81K |        - |      663 |      663 |       0.72 | *
    |      81K |        - |      661 |      661 |       0.72 | *
    |      82K |        - |      659 |      659 |       0.72 | *
    |      87K |        - |      655 |      655 |       0.76 | *
    |      91K |        - |      654 |      654 |       0.79 | *
    |      91K |        - |      653 |      653 |       0.79 | *
    |      92K |        - |      652 |      652 |       0.79 | *
    |      92K |        - |      650 |      650 |       0.80 | *
    |      92K |        - |      648 |      648 |       0.80 | *
    |      94K |        - |      647 |      647 |       0.81 | *
    |      94K |        - |      646 |      646 |       0.81 | *
    |      98K |        - |      645 |      645 |       0.84 | *
    |      99K |        - |      644 |      644 |       0.84 | *
    |      99K |        - |      643 |      643 |       0.85 | *
    |     101K |        - |      642 |      642 |       0.86 | *
    |     101K |        - |      641 |      641 |       0.86 | *
    |     102K |        - |      640 |      640 |       0.87 | *
    |     102K |        - |      639 |      639 |       0.87 | *
    |     103K |        - |      638 |      638 |       0.88 | *
    |     104K |        - |      637 |      637 |       0.89 | *
    |     109K |        - |      636 |      636 |       0.93 | *
    |     110K |        - |      635 |      635 |       0.94 | *
    |     112K |        - |      634 |      634 |       0.96 | *
    |     112K |        - |      631 |      631 |       0.96 | *
    |     112K |        - |      630 |      630 |       0.96 | *
    |     114K |        - |      628 |      628 |       0.97 | *
    |     116K |        - |      627 |      627 |       0.99 | *
    |     116K |        - |      626 |      626 |       0.99 | *
    |     116K |        - |      624 |      624 |       0.99 | *
    |     116K |        - |      623 |      623 |       0.99 | *
    |     118K |        - |      622 |      622 |       1.00 | *
    |     119K |        - |      620 |      620 |       1.01 | *
    |     119K |        - |      619 |      619 |       1.01 | *
    |     119K |        - |      618 |      618 |       1.02 | *
    |     123K |        - |      617 |      617 |       1.05 | *
    |     124K |        - |      616 |      616 |       1.06 | *
    |     131K |        - |      615 |      615 |       1.12 | *
    |     133K |        - |      614 |      614 |       1.13 | *
    |     137K |        - |      613 |      613 |       1.17 | *
    |     138K |        - |      610 |      610 |       1.17 | *
    |     138K |        - |      609 |      609 |       1.18 | *
    |     138K |        - |      608 |      608 |       1.18 | *
    |     140K |        - |      605 |      605 |       1.19 | *
    |     141K |        - |      604 |      604 |       1.20 | *
    |     141K |        - |      602 |      602 |       1.21 | *
    |     141K |        - |      600 |      600 |       1.21 | *
    |     141K |        - |      599 |      599 |       1.21 | *
    |     143K |        - |      598 |      598 |       1.22 | *
    |     144K |        - |      597 |      597 |       1.23 | *
    |     144K |        - |      596 |      596 |       1.23 | *
    |     147K |        - |      593 |      593 |       1.25 | *
    |     157K |        - |      592 |      592 |       1.31 | *
    |     159K |        - |      591 |      591 |       1.33 | *
    |     159K |        - |      589 |      589 |       1.33 | *
    |     159K |        - |      587 |      587 |       1.33 | *
    |     169K |        - |      586 |      586 |       1.38 | *
    |     193K |        - |      584 |      584 |       1.49 | *
    |     211K |        - |      583 |      583 |       1.55 | *
    |     211K |        - |      582 |      582 |       1.55 | *
    |     257K |        - |      579 |      579 |       1.64 | *
    |     258K |        - |      576 |      576 |       1.64 | *
    |     263K |        - |      573 |      573 |       1.66 | *
    |     292K |        - |      570 |      570 |       1.74 | *
    |     292K |        - |      569 |      569 |       1.74 | *
    |     292K |        - |      567 |      567 |       1.74 | *
    |     294K |        - |      565 |      565 |       1.75 | *
    |     297K |        - |      564 |      564 |       1.75 | *
    |     297K |        - |      563 |      563 |       1.76 | *
    |     305K |        - |      562 |      562 |       1.78 | *
    |     323K |        - |      560 |      560 |       1.84 | *
    |     333K |        - |      558 |      558 |       1.88 | *
    |     334K |        - |      556 |      556 |       1.88 | *
    |     335K |        - |      553 |      553 |       1.89 | *
    |     349K |        - |      552 |      552 |       1.94 | *
    |     349K |        - |      551 |      551 |       1.94 | *
    |     356K |        - |      550 |      550 |       1.95 | *
    |     385K |        - |      549 |      549 |       2.03 | *
    |     392K |        - |      548 |      548 |       2.05 | *
    |     398K |        - |      547 |      547 |       2.06 | *
    |     398K |        - |      545 |      545 |       2.06 | *
    |     399K |        - |      544 |      544 |       2.06 | *
    |     399K |        - |      543 |      543 |       2.07 | *
    |     422K |        - |      542 |      542 |       2.11 | *
    |     422K |        - |      541 |      541 |       2.12 | *
    |     422K |        - |      540 |      540 |       2.12 | *
    |     430K |        - |      539 |      539 |       2.14 | *
    |     471K |        - |      538 |      538 |       2.24 | *
    |     495K |        - |      537 |      537 |       2.27 | *
    |     496K |        - |      536 |      536 |       2.27 | *
    |     608K |        - |      535 |      535 |       2.44 | *
    |     614K |        - |      534 |      534 |       2.45 | *
    |     614K |        - |      533 |      533 |       2.45 | *
    |     630K |        - |      532 |      532 |       2.47 | *
    |     630K |        - |      531 |      531 |       2.47 | *
    |     636K |        - |      530 |      530 |       2.48 | *
    |     715K |        - |      528 |      528 |       2.62 | *
    |     715K |        - |      527 |      527 |       2.62 | *
    |     723K |        - |      526 |      526 |       2.63 | *
    |     754K |        - |      525 |      525 |       2.68 | *
    |     756K |        - |      523 |      523 |       2.68 | *
    |     758K |        - |      522 |      522 |       2.69 | *
    |     809K |        - |      521 |      521 |       2.78 | *
    |     830K |        - |      519 |      519 |       2.81 | *
    |     831K |        - |      518 |      518 |       2.81 | *
    |     897K |        - |      517 |      517 |       2.92 | *
    |     897K |        - |      516 |      516 |       2.92 | *
    |     899K |        - |      514 |      514 |       2.92 | *
    |     921K |        - |      513 |      513 |       2.95 | *
    |     922K |        - |      512 |      512 |       2.95 | *
    |     923K |        - |      511 |      511 |       2.96 | *
    |     923K |        - |      508 |      508 |       2.96 | *
    |     986K |        - |      507 |      507 |       3.03 | *
    |    1005K |        - |      506 |      506 |       3.05 | *
    |    1009K |        - |      505 |      505 |       3.05 | *
    |    1084K |        - |      504 |      504 |       3.16 | *
    |    1087K |        - |      503 |      503 |       3.17 | *
    |    1340K |        - |      502 |      502 |       3.55 | *
    |    1341K |        - |      501 |      501 |       3.55 | *
    |    1352K |        - |      500 |      500 |       3.57 | *
    |    1649K |        - |      499 |      499 |       3.98 | *
    |    1649K |        - |      498 |      498 |       3.98 | *
    |    1649K |        - |      497 |      497 |       3.98 | *
    |    1652K |        - |      496 |      496 |       3.98 | *
    |    1654K |        - |      495 |      495 |       3.98 | *
    |    1658K |        - |      494 |      494 |       3.99 | *
    |    1661K |        - |      493 |      493 |       3.99 | *
    |    1662K |        - |      491 |      491 |       3.99 | *
    |    1667K |        - |      490 |      490 |       3.99 | *
    |    1667K |        - |      488 |      488 |       4.00 | *
    |    1702K |        - |      487 |      487 |       4.03 | *
    |    1706K |        - |      486 |      486 |       4.03 | *
    |    1775K |        - |      485 |      485 |       4.09 | *
    |    1775K |        - |      484 |      484 |       4.09 | *
    |    1819K |        - |      483 |      483 |       4.13 | *
    |    1964K |        - |      482 |      482 |       4.27 | *
    |    2054K |        - |      481 |      481 |       4.34 | *
    |    2056K |        - |      480 |      480 |       4.35 | *
    |    2057K |        - |      479 |      479 |       4.35 | *
    |    2057K |        - |      478 |      478 |       4.35 | *
    |    2057K |        - |      477 |      477 |       4.35 | *
    |    2057K |        - |      476 |      476 |       4.35 | *
    |    2518K |        - |      474 |      474 |       4.76 | *
    |    2542K |        - |      473 |      473 |       4.78 | *
    |    2546K |        - |      472 |      472 |       4.78 | *
    |    2679K |        - |      471 |      471 |       4.90 | *
    |    2686K |        - |      470 |      470 |       4.91 | *
    |    2696K |        - |      469 |      469 |       4.92 | *
    |    2712K |        - |      468 |      468 |       4.93 | *
    |    2716K |        - |      467 |      467 |       4.94 | *
    |    2921K |        - |      466 |      466 |       5.14 | *
    |    2921K |        - |      465 |      465 |       5.14 | *
    |    2985K |        - |      464 |      464 |       5.19 | *
    |    3020K |        - |      463 |      463 |       5.22 | *
    |    3366K |        - |      462 |      462 |       5.56 | *
    |    3366K |        - |      460 |      460 |       5.56 | *
    |    3671K |        - |      459 |      459 |       5.90 | *
    |    3842K |        - |      458 |      458 |       6.16 | *
    |    3842K |        - |      457 |      457 |       6.16 | *
    |    3875K |        - |      456 |      456 |       6.21 | *
    |    4171K |        - |      455 |      455 |       6.71 | *
    |    5681K |        - |      454 |      454 |       8.21 | *
    |    5703K |        - |      453 |      453 |       8.23 | *
    |    5704K |        - |      451 |      451 |       8.23 | *
    |    6488K |        - |      450 |      450 |       8.92 | *
    |    6596K |        - |      449 |      449 |       9.01 | *
    |    6653K |        - |      448 |      448 |       9.06 | *
    |    6715K |        - |      447 |      447 |       9.12 | *
    |    7920K |        - |      446 |      446 |      10.28 | *
    |    9163K |        - |      444 |      444 |      11.40 | *
    |    9196K |        - |      443 |      443 |      11.43 | *
    |    9196K |        - |      442 |      442 |      11.43 | *
    |    9310K |        - |      441 |      441 |      11.53 | *
    |    9319K |        - |      440 |      440 |      11.54 | *
    |    9319K |        - |      439 |      439 |      11.54 | *
    |      14M |        - |      438 |      438 |      15.54 | *
    |      14M |        - |      437 |      437 |      15.85 | *
    |      14M |        - |      436 |      436 |      16.05 | *
    |      16M |        - |      435 |      435 |      17.88 | *
    |      16M |        - |      434 |      434 |      17.89 | *
    |      16M |        - |      433 |      433 |      17.89 | *
    |      17M |        - |      432 |      432 |      18.17 | *
    |      20M |        - |      431 |      431 |      21.57 | *
    |      20M |        - |      430 |      430 |      21.65 | *
    |      21M |        - |      429 |      429 |      21.66 | *
    |      21M |        - |      428 |      428 |      21.66 | *
    |      21M |        - |      427 |      427 |      22.02 | *
    |      22M |        - |      426 |      426 |      23.33 | *
    |      23M |        - |      425 |      425 |      24.24 | *
    |      23M |        - |      424 |      424 |      24.24 | *
    |      25M |        - |      423 |      423 |      25.92 | *
    |      25M |        - |      422 |      422 |      25.92 | *
    |      28M |        - |      421 |      421 |      27.98 | *
    |      28M |        - |      420 |      420 |      28.65 | *
    |      28M |        - |      419 |      419 |      28.71 | *
    |      28M |        - |      417 |      417 |      28.74 | *
    |      28M |        - |      415 |      415 |      28.75 | *
    |      29M |        - |      414 |      414 |      29.20 | *
    |      29M |        - |      413 |      413 |      29.20 | *
    |      34M |        - |      412 |      412 |      33.38 | *
    |      34M |        - |      411 |      411 |      33.46 | *
    |      34M |        - |      410 |      410 |      33.58 | *
    |      34M |        - |      407 |      407 |      33.58 | *
    |      99M |        - |      406 |      406 |      91.83 | *
    |     145M |        - |      405 |      405 |     132.91 | *
    |     145M |        - |      404 |      404 |     132.92 | *
    |     172M |        - |      403 |      403 |     156.67 | *
    |     172M |        - |      402 |      402 |     156.67 | *
    |     332M |        - |      400 |      400 |     299.05 | *
    \--------------------------------------------------------/

Neighborhoods statistics (values in %):

    /----------------------------------------------------------------\
    | Move               | Improvs. | Sideways |  Accepts |  Rejects |
    |--------------------|----------|----------|----------|----------|
    | Shift(mk)          |     1936 |     2379 |     5017 |     170M |
    | Shift              |      209 |      96K |      98K |     171M |
    | ShiftSmart(mk)     |      47K |      50K |     114K |     170M |
    | ShiftSmart         |     4635 |    1784K |    1821K |     169M |
    | SimpSwap(mk)       |       11 |        1 |       16 |     170M |
    | SimpSwap           |        2 |       24 |       31 |     171M |
    | SimpSwapSmart(mk)  |      116 |       76 |      234 |     171M |
    | SimpSwapSmart      |       28 |      493 |      580 |     170M |
    | Swap(mk)           |        5 |        0 |        5 |     170M |
    | Swap               |        1 |        8 |        9 |     171M |
    | SwapSmart(mk)      |      138 |      128 |      305 |     170M |
    | SwapSmart          |       25 |      468 |      559 |     170M |
    | Switch(mk)         |      217 |    6583K |    6584K |     164M |
    | Switch             |       23 |    6916K |    6916K |     164M |
    | SwitchSmart(mk)    |     4073 |     5913 |      11K |     171M |
    | SwitchSmart        |      414 |      62K |      66K |     170M |
    | TaskMove(mk)       |       80 |       97 |      200 |     170M |
    | TaskMove           |        9 |      297 |      344 |     171M |
    | TaskMoveSmart(mk)  |     1548 |     2244 |     4411 |     170M |
    | TaskMoveSmart      |      199 |     6198 |     7342 |     170M |
    | 2-Shift(mk)        |      226 |     266K |     267K |     170M |
    | 2-Shift            |       19 |     305K |     305K |     170M |
    | 2-ShiftSmart(mk)   |     3957 |     313K |     317K |     170M |
    | 2-ShiftSmart       |      374 |     624K |     627K |     170M |
    \----------------------------------------------------------------/

Best makespan.....: 400
N. of Iterations..: 4092829447
Total runtime.....: 3600.01s
Using Python-MIP package version 1.6.8
Começo a execução
    /-------------------------------------------------------------------------------\
    |    Makespan   |   Free Jobs   | Free Machines |    It. Time   |   Total Time  | 
    |-------------------------------------------------------------------------------|
    \-------------------------------------------------------------------------------/
Terminou a execução
