Instance....: instances/I_250_25_S_1-99_3.txt
Algorithm...: Simulated Annealing (alpha=0.990, saMax=10M, t0=1)
Other params: maxIters=100M, seed=-1, timeLimit=3600.00s

    /--------------------------------------------------------\
    |     Iter |   RDP(%) |       S* |       S' |       Time | 
    |----------|----------|----------|----------|------------|
    |        0 |        - |     1792 |     1792 |       0.00 | s0
    |        3 |        - |     1760 |     1760 |       0.01 | *
    |        4 |        - |     1679 |     1679 |       0.01 | *
    |        6 |        - |     1653 |     1653 |       0.02 | *
    |       16 |        - |     1566 |     1566 |       0.03 | *
    |       22 |        - |     1540 |     1540 |       0.03 | *
    |       27 |        - |     1513 |     1513 |       0.03 | *
    |       29 |        - |     1499 |     1499 |       0.03 | *
    |       31 |        - |     1482 |     1482 |       0.03 | *
    |       36 |        - |     1447 |     1447 |       0.03 | *
    |       37 |        - |     1426 |     1426 |       0.03 | *
    |       40 |        - |     1380 |     1380 |       0.03 | *
    |       41 |        - |     1338 |     1338 |       0.03 | *
    |       42 |        - |     1327 |     1327 |       0.04 | *
    |       43 |        - |     1262 |     1262 |       0.04 | *
    |       45 |        - |     1258 |     1258 |       0.04 | *
    |       47 |        - |     1257 |     1257 |       0.04 | *
    |       54 |        - |     1251 |     1251 |       0.04 | *
    |       62 |        - |     1249 |     1249 |       0.04 | *
    |       77 |        - |     1242 |     1242 |       0.04 | *
    |       78 |        - |     1235 |     1235 |       0.04 | *
    |       88 |        - |     1234 |     1234 |       0.04 | *
    |       94 |        - |     1228 |     1228 |       0.04 | *
    |       98 |        - |     1225 |     1225 |       0.04 | *
    |      106 |        - |     1216 |     1216 |       0.04 | *
    |      108 |        - |     1185 |     1185 |       0.04 | *
    |      112 |        - |     1181 |     1181 |       0.04 | *
    |      115 |        - |     1169 |     1169 |       0.04 | *
    |      116 |        - |     1160 |     1160 |       0.04 | *
    |      126 |        - |     1117 |     1117 |       0.04 | *
    |      127 |        - |     1111 |     1111 |       0.05 | *
    |      133 |        - |     1107 |     1107 |       0.05 | *
    |      140 |        - |     1101 |     1101 |       0.05 | *
    |      141 |        - |     1099 |     1099 |       0.05 | *
    |      142 |        - |     1095 |     1095 |       0.05 | *
    |      146 |        - |     1092 |     1092 |       0.05 | *
    |      148 |        - |     1082 |     1082 |       0.05 | *
    |      158 |        - |     1080 |     1080 |       0.05 | *
    |      161 |        - |     1073 |     1073 |       0.05 | *
    |      165 |        - |     1068 |     1068 |       0.05 | *
    |      167 |        - |     1047 |     1047 |       0.06 | *
    |      171 |        - |     1045 |     1045 |       0.06 | *
    |      178 |        - |     1033 |     1033 |       0.06 | *
    |      181 |        - |     1032 |     1032 |       0.06 | *
    |      187 |        - |     1031 |     1031 |       0.06 | *
    |      188 |        - |     1019 |     1019 |       0.06 | *
    |      189 |        - |     1010 |     1010 |       0.06 | *
    |      193 |        - |     1006 |     1006 |       0.06 | *
    |      194 |        - |     1005 |     1005 |       0.06 | *
    |      195 |        - |     1003 |     1003 |       0.06 | *
    |      201 |        - |      996 |      996 |       0.07 | *
    |      211 |        - |      989 |      989 |       0.07 | *
    |      219 |        - |      988 |      988 |       0.07 | *
    |      220 |        - |      982 |      982 |       0.07 | *
    |      235 |        - |      971 |      971 |       0.07 | *
    |      276 |        - |      969 |      969 |       0.07 | *
    |      278 |        - |      946 |      946 |       0.07 | *
    |      281 |        - |      943 |      943 |       0.07 | *
    |      284 |        - |      940 |      940 |       0.07 | *
    |      285 |        - |      934 |      934 |       0.07 | *
    |      286 |        - |      925 |      925 |       0.07 | *
    |      296 |        - |      924 |      924 |       0.08 | *
    |      300 |        - |      922 |      922 |       0.08 | *
    |      303 |        - |      916 |      916 |       0.08 | *
    |      312 |        - |      907 |      907 |       0.08 | *
    |      313 |        - |      902 |      902 |       0.08 | *
    |      334 |        - |      900 |      900 |       0.08 | *
    |      356 |        - |      897 |      897 |       0.08 | *
    |      366 |        - |      882 |      882 |       0.08 | *
    |      369 |        - |      881 |      881 |       0.08 | *
    |      376 |        - |      880 |      880 |       0.08 | *
    |      377 |        - |      878 |      878 |       0.08 | *
    |      385 |        - |      876 |      876 |       0.09 | *
    |      387 |        - |      873 |      873 |       0.09 | *
    |      391 |        - |      871 |      871 |       0.09 | *
    |      406 |        - |      868 |      868 |       0.09 | *
    |      407 |        - |      859 |      859 |       0.09 | *
    |      460 |        - |      856 |      856 |       0.09 | *
    |      464 |        - |      855 |      855 |       0.09 | *
    |      466 |        - |      849 |      849 |       0.09 | *
    |      468 |        - |      847 |      847 |       0.09 | *
    |      473 |        - |      821 |      821 |       0.09 | *
    |      477 |        - |      820 |      820 |       0.09 | *
    |      482 |        - |      819 |      819 |       0.09 | *
    |      484 |        - |      817 |      817 |       0.10 | *
    |      491 |        - |      810 |      810 |       0.10 | *
    |      506 |        - |      800 |      800 |       0.10 | *
    |      533 |        - |      799 |      799 |       0.10 | *
    |      542 |        - |      798 |      798 |       0.10 | *
    |      543 |        - |      797 |      797 |       0.10 | *
    |      549 |        - |      796 |      796 |       0.10 | *
    |      550 |        - |      791 |      791 |       0.10 | *
    |      566 |        - |      789 |      789 |       0.10 | *
    |      567 |        - |      778 |      778 |       0.10 | *
    |      592 |        - |      777 |      777 |       0.10 | *
    |      614 |        - |      775 |      775 |       0.11 | *
    |      619 |        - |      772 |      772 |       0.11 | *
    |      620 |        - |      765 |      765 |       0.11 | *
    |      631 |        - |      763 |      763 |       0.11 | *
    |      649 |        - |      761 |      761 |       0.11 | *
    |      655 |        - |      760 |      760 |       0.11 | *
    |      657 |        - |      757 |      757 |       0.11 | *
    |      663 |        - |      754 |      754 |       0.11 | *
    |      664 |        - |      751 |      751 |       0.11 | *
    |      668 |        - |      747 |      747 |       0.11 | *
    |      670 |        - |      744 |      744 |       0.11 | *
    |      722 |        - |      743 |      743 |       0.11 | *
    |      725 |        - |      742 |      742 |       0.12 | *
    |      736 |        - |      736 |      736 |       0.12 | *
    |      740 |        - |      734 |      734 |       0.12 | *
    |      748 |        - |      732 |      732 |       0.12 | *
    |      749 |        - |      730 |      730 |       0.12 | *
    |      754 |        - |      729 |      729 |       0.12 | *
    |      758 |        - |      728 |      728 |       0.12 | *
    |      760 |        - |      727 |      727 |       0.12 | *
    |      783 |        - |      725 |      725 |       0.12 | *
    |      792 |        - |      723 |      723 |       0.12 | *
    |      795 |        - |      716 |      716 |       0.12 | *
    |      798 |        - |      703 |      703 |       0.12 | *
    |      799 |        - |      700 |      700 |       0.12 | *
    |      815 |        - |      697 |      697 |       0.13 | *
    |      822 |        - |      695 |      695 |       0.13 | *
    |      831 |        - |      694 |      694 |       0.13 | *
    |      854 |        - |      693 |      693 |       0.13 | *
    |      861 |        - |      691 |      691 |       0.13 | *
    |      864 |        - |      688 |      688 |       0.13 | *
    |      877 |        - |      686 |      686 |       0.13 | *
    |      897 |        - |      680 |      680 |       0.13 | *
    |      900 |        - |      678 |      678 |       0.13 | *
    |      923 |        - |      677 |      677 |       0.13 | *
    |      947 |        - |      676 |      676 |       0.13 | *
    |      948 |        - |      675 |      675 |       0.13 | *
    |      952 |        - |      670 |      670 |       0.14 | *
    |      959 |        - |      668 |      668 |       0.14 | *
    |      989 |        - |      660 |      660 |       0.14 | *
    |      991 |        - |      656 |      656 |       0.14 | *
    |      994 |        - |      654 |      654 |       0.14 | *
    |      997 |        - |      651 |      651 |       0.14 | *
    |     1002 |        - |      647 |      647 |       0.14 | *
    |     1055 |        - |      646 |      646 |       0.14 | *
    |     1063 |        - |      645 |      645 |       0.14 | *
    |     1071 |        - |      642 |      642 |       0.14 | *
    |     1094 |        - |      636 |      636 |       0.14 | *
    |     1108 |        - |      632 |      632 |       0.14 | *
    |     1110 |        - |      630 |      630 |       0.14 | *
    |     1140 |        - |      625 |      625 |       0.15 | *
    |     1145 |        - |      620 |      620 |       0.15 | *
    |     1157 |        - |      619 |      619 |       0.15 | *
    |     1170 |        - |      616 |      616 |       0.15 | *
    |     1193 |        - |      615 |      615 |       0.15 | *
    |     1197 |        - |      611 |      611 |       0.15 | *
    |     1212 |        - |      610 |      610 |       0.15 | *
    |     1216 |        - |      608 |      608 |       0.15 | *
    |     1221 |        - |      604 |      604 |       0.15 | *
    |     1225 |        - |      601 |      601 |       0.15 | *
    |     1305 |        - |      599 |      599 |       0.15 | *
    |     1325 |        - |      598 |      598 |       0.15 | *
    |     1327 |        - |      597 |      597 |       0.15 | *
    |     1339 |        - |      596 |      596 |       0.16 | *
    |     1344 |        - |      595 |      595 |       0.16 | *
    |     1347 |        - |      591 |      591 |       0.16 | *
    |     1383 |        - |      586 |      586 |       0.16 | *
    |     1393 |        - |      584 |      584 |       0.16 | *
    |     1426 |        - |      579 |      579 |       0.16 | *
    |     1434 |        - |      576 |      576 |       0.16 | *
    |     1436 |        - |      575 |      575 |       0.16 | *
    |     1443 |        - |      574 |      574 |       0.16 | *
    |     1456 |        - |      573 |      573 |       0.16 | *
    |     1499 |        - |      570 |      570 |       0.16 | *
    |     1503 |        - |      569 |      569 |       0.16 | *
    |     1505 |        - |      568 |      568 |       0.17 | *
    |     1517 |        - |      567 |      567 |       0.17 | *
    |     1549 |        - |      566 |      566 |       0.17 | *
    |     1571 |        - |      565 |      565 |       0.17 | *
    |     1574 |        - |      560 |      560 |       0.17 | *
    |     1582 |        - |      559 |      559 |       0.17 | *
    |     1592 |        - |      556 |      556 |       0.17 | *
    |     1631 |        - |      550 |      550 |       0.17 | *
    |     1862 |        - |      549 |      549 |       0.17 | *
    |     1897 |        - |      548 |      548 |       0.17 | *
    |     1924 |        - |      545 |      545 |       0.17 | *
    |     1934 |        - |      543 |      543 |       0.17 | *
    |     1951 |        - |      542 |      542 |       0.18 | *
    |     1967 |        - |      538 |      538 |       0.18 | *
    |     1995 |        - |      536 |      536 |       0.18 | *
    |     2040 |        - |      535 |      535 |       0.18 | *
    |     2124 |        - |      534 |      534 |       0.18 | *
    |     2126 |        - |      532 |      532 |       0.18 | *
    |     2304 |        - |      530 |      530 |       0.18 | *
    |     2320 |        - |      524 |      524 |       0.18 | *
    |     2340 |        - |      523 |      523 |       0.18 | *
    |     2350 |        - |      520 |      520 |       0.18 | *
    |     2353 |        - |      519 |      519 |       0.18 | *
    |     2373 |        - |      518 |      518 |       0.18 | *
    |     2389 |        - |      515 |      515 |       0.18 | *
    |     2440 |        - |      514 |      514 |       0.18 | *
    |     2492 |        - |      513 |      513 |       0.18 | *
    |     2498 |        - |      512 |      512 |       0.18 | *
    |     2527 |        - |      511 |      511 |       0.18 | *
    |     2528 |        - |      510 |      510 |       0.18 | *
    |     2534 |        - |      509 |      509 |       0.18 | *
    |     2540 |        - |      508 |      508 |       0.19 | *
    |     2652 |        - |      507 |      507 |       0.19 | *
    |     2672 |        - |      506 |      506 |       0.19 | *
    |     2677 |        - |      505 |      505 |       0.19 | *
    |     2687 |        - |      504 |      504 |       0.19 | *
    |     2805 |        - |      503 |      503 |       0.19 | *
    |     2855 |        - |      502 |      502 |       0.19 | *
    |     2955 |        - |      501 |      501 |       0.19 | *
    |     2989 |        - |      500 |      500 |       0.19 | *
    |     3044 |        - |      499 |      499 |       0.19 | *
    |     3054 |        - |      497 |      497 |       0.19 | *
    |     3058 |        - |      496 |      496 |       0.19 | *
    |     3090 |        - |      495 |      495 |       0.19 | *
    |     3130 |        - |      494 |      494 |       0.19 | *
    |     3135 |        - |      490 |      490 |       0.19 | *
    |     3282 |        - |      487 |      487 |       0.19 | *
    |     3302 |        - |      483 |      483 |       0.19 | *
    |     3391 |        - |      482 |      482 |       0.19 | *
    |     3407 |        - |      481 |      481 |       0.19 | *
    |     3598 |        - |      480 |      480 |       0.19 | *
    |     3651 |        - |      478 |      478 |       0.20 | *
    |     3736 |        - |      476 |      476 |       0.20 | *
    |     3771 |        - |      475 |      475 |       0.20 | *
    |     3772 |        - |      474 |      474 |       0.20 | *
    |     4000 |        - |      473 |      473 |       0.20 | *
    |     4026 |        - |      472 |      472 |       0.20 | *
    |     4242 |        - |      470 |      470 |       0.20 | *
    |     4258 |        - |      469 |      469 |       0.20 | *
    |     4290 |        - |      467 |      467 |       0.20 | *
    |     4303 |        - |      465 |      465 |       0.20 | *
    |     4333 |        - |      464 |      464 |       0.20 | *
    |     4359 |        - |      463 |      463 |       0.20 | *
    |     4408 |        - |      460 |      460 |       0.20 | *
    |     4535 |        - |      458 |      458 |       0.20 | *
    |     4573 |        - |      457 |      457 |       0.20 | *
    |     4611 |        - |      456 |      456 |       0.20 | *
    |     4709 |        - |      452 |      452 |       0.20 | *
    |     4739 |        - |      451 |      451 |       0.20 | *
    |     4741 |        - |      450 |      450 |       0.20 | *
    |     4783 |        - |      449 |      449 |       0.20 | *
    |     4808 |        - |      448 |      448 |       0.20 | *
    |     4868 |        - |      446 |      446 |       0.20 | *
    |     4906 |        - |      445 |      445 |       0.20 | *
    |     4911 |        - |      443 |      443 |       0.21 | *
    |     4966 |        - |      442 |      442 |       0.21 | *
    |     5143 |        - |      440 |      440 |       0.21 | *
    |     5294 |        - |      439 |      439 |       0.21 | *
    |     5431 |        - |      437 |      437 |       0.21 | *
    |     5481 |        - |      436 |      436 |       0.21 | *
    |     5637 |        - |      435 |      435 |       0.21 | *
    |     5708 |        - |      433 |      433 |       0.21 | *
    |     5719 |        - |      431 |      431 |       0.21 | *
    |     5771 |        - |      429 |      429 |       0.21 | *
    |     5813 |        - |      428 |      428 |       0.21 | *
    |     5882 |        - |      425 |      425 |       0.21 | *
    |     5996 |        - |      423 |      423 |       0.21 | *
    |     6013 |        - |      421 |      421 |       0.21 | *
    |     6022 |        - |      419 |      419 |       0.21 | *
    |     6121 |        - |      418 |      418 |       0.22 | *
    |     6141 |        - |      417 |      417 |       0.22 | *
    |     6184 |        - |      410 |      410 |       0.22 | *
    |     6202 |        - |      409 |      409 |       0.22 | *
    |     6266 |        - |      408 |      408 |       0.22 | *
    |     6352 |        - |      407 |      407 |       0.22 | *
    |     6354 |        - |      404 |      404 |       0.22 | *
    |     6572 |        - |      403 |      403 |       0.22 | *
    |     6707 |        - |      402 |      402 |       0.22 | *
    |     6718 |        - |      401 |      401 |       0.22 | *
    |     6846 |        - |      399 |      399 |       0.22 | *
    |     6978 |        - |      397 |      397 |       0.23 | *
    |     6982 |        - |      395 |      395 |       0.23 | *
    |     7045 |        - |      392 |      392 |       0.23 | *
    |     7140 |        - |      390 |      390 |       0.23 | *
    |     7453 |        - |      389 |      389 |       0.23 | *
    |     7624 |        - |      388 |      388 |       0.23 | *
    |     7650 |        - |      387 |      387 |       0.23 | *
    |     7653 |        - |      385 |      385 |       0.23 | *
    |     7678 |        - |      384 |      384 |       0.23 | *
    |     7715 |        - |      383 |      383 |       0.23 | *
    |     7785 |        - |      381 |      381 |       0.23 | *
    |     7844 |        - |      380 |      380 |       0.23 | *
    |     7864 |        - |      378 |      378 |       0.23 | *
    |     7979 |        - |      377 |      377 |       0.23 | *
    |     8155 |        - |      375 |      375 |       0.23 | *
    |     8402 |        - |      374 |      374 |       0.24 | *
    |     8425 |        - |      373 |      373 |       0.24 | *
    |     8970 |        - |      372 |      372 |       0.24 | *
    |     9287 |        - |      371 |      371 |       0.24 | *
    |     9310 |        - |      370 |      370 |       0.24 | *
    |     9380 |        - |      369 |      369 |       0.24 | *
    |     9481 |        - |      368 |      368 |       0.24 | *
    |     9504 |        - |      367 |      367 |       0.24 | *
    |     9521 |        - |      366 |      366 |       0.24 | *
    |      10K |        - |      365 |      365 |       0.25 | *
    |      10K |        - |      364 |      364 |       0.25 | *
    |      11K |        - |      363 |      363 |       0.25 | *
    |      11K |        - |      362 |      362 |       0.25 | *
    |      11K |        - |      361 |      361 |       0.25 | *
    |      11K |        - |      360 |      360 |       0.25 | *
    |      11K |        - |      359 |      359 |       0.25 | *
    |      11K |        - |      358 |      358 |       0.25 | *
    |      11K |        - |      357 |      357 |       0.26 | *
    |      11K |        - |      356 |      356 |       0.26 | *
    |      12K |        - |      355 |      355 |       0.26 | *
    |      12K |        - |      354 |      354 |       0.26 | *
    |      12K |        - |      353 |      353 |       0.26 | *
    |      12K |        - |      352 |      352 |       0.26 | *
    |      12K |        - |      349 |      349 |       0.26 | *
    |      12K |        - |      348 |      348 |       0.26 | *
    |      13K |        - |      347 |      347 |       0.26 | *
    |      13K |        - |      346 |      346 |       0.26 | *
    |      13K |        - |      345 |      345 |       0.27 | *
    |      13K |        - |      343 |      343 |       0.27 | *
    |      13K |        - |      342 |      342 |       0.27 | *
    |      13K |        - |      340 |      340 |       0.27 | *
    |      13K |        - |      338 |      338 |       0.27 | *
    |      13K |        - |      337 |      337 |       0.27 | *
    |      14K |        - |      336 |      336 |       0.27 | *
    |      14K |        - |      335 |      335 |       0.27 | *
    |      15K |        - |      331 |      331 |       0.27 | *
    |      15K |        - |      330 |      330 |       0.28 | *
    |      15K |        - |      329 |      329 |       0.28 | *
    |      15K |        - |      325 |      325 |       0.28 | *
    |      16K |        - |      324 |      324 |       0.28 | *
    |      16K |        - |      323 |      323 |       0.28 | *
    |      16K |        - |      322 |      322 |       0.28 | *
    |      16K |        - |      319 |      319 |       0.28 | *
    |      16K |        - |      316 |      316 |       0.28 | *
    |      16K |        - |      315 |      315 |       0.28 | *
    |      17K |        - |      314 |      314 |       0.29 | *
    |      17K |        - |      313 |      313 |       0.29 | *
    |      17K |        - |      312 |      312 |       0.29 | *
    |      18K |        - |      311 |      311 |       0.29 | *
    |      19K |        - |      310 |      310 |       0.29 | *
    |      19K |        - |      309 |      309 |       0.29 | *
    |      19K |        - |      308 |      308 |       0.29 | *
    |      19K |        - |      307 |      307 |       0.30 | *
    |      20K |        - |      306 |      306 |       0.30 | *
    |      20K |        - |      304 |      304 |       0.30 | *
    |      20K |        - |      303 |      303 |       0.30 | *
    |      20K |        - |      301 |      301 |       0.30 | *
    |      20K |        - |      300 |      300 |       0.30 | *
    |      20K |        - |      299 |      299 |       0.30 | *
    |      21K |        - |      298 |      298 |       0.30 | *
    |      21K |        - |      297 |      297 |       0.31 | *
    |      21K |        - |      296 |      296 |       0.31 | *
    |      22K |        - |      295 |      295 |       0.31 | *
    |      23K |        - |      294 |      294 |       0.31 | *
    |      23K |        - |      293 |      293 |       0.31 | *
    |      24K |        - |      292 |      292 |       0.32 | *
    |      24K |        - |      291 |      291 |       0.32 | *
    |      24K |        - |      290 |      290 |       0.32 | *
    |      24K |        - |      289 |      289 |       0.32 | *
    |      25K |        - |      288 |      288 |       0.32 | *
    |      25K |        - |      287 |      287 |       0.32 | *
    |      26K |        - |      286 |      286 |       0.33 | *
    |      26K |        - |      285 |      285 |       0.33 | *
    |      26K |        - |      283 |      283 |       0.33 | *
    |      27K |        - |      282 |      282 |       0.33 | *
    |      28K |        - |      281 |      281 |       0.33 | *
    |      28K |        - |      280 |      280 |       0.33 | *
    |      29K |        - |      279 |      279 |       0.33 | *
    |      29K |        - |      278 |      278 |       0.34 | *
    |      29K |        - |      276 |      276 |       0.34 | *
    |      29K |        - |      275 |      275 |       0.34 | *
    |      29K |        - |      274 |      274 |       0.34 | *
    |      30K |        - |      273 |      273 |       0.34 | *
    |      30K |        - |      272 |      272 |       0.34 | *
    |      30K |        - |      271 |      271 |       0.34 | *
    |      30K |        - |      270 |      270 |       0.34 | *
    |      31K |        - |      269 |      269 |       0.34 | *
    |      31K |        - |      268 |      268 |       0.34 | *
    |      32K |        - |      267 |      267 |       0.35 | *
    |      32K |        - |      266 |      266 |       0.35 | *
    |      34K |        - |      265 |      265 |       0.36 | *
    |      35K |        - |      264 |      264 |       0.36 | *
    |      35K |        - |      263 |      263 |       0.36 | *
    |      36K |        - |      262 |      262 |       0.36 | *
    |      37K |        - |      261 |      261 |       0.36 | *
    |      37K |        - |      258 |      258 |       0.36 | *
    |      38K |        - |      256 |      256 |       0.37 | *
    |      39K |        - |      255 |      255 |       0.37 | *
    |      45K |        - |      254 |      254 |       0.37 | *
    |      46K |        - |      253 |      253 |       0.38 | *
    |      46K |        - |      252 |      252 |       0.38 | *
    |      48K |        - |      251 |      251 |       0.38 | *
    |      49K |        - |      250 |      250 |       0.38 | *
    |      49K |        - |      249 |      249 |       0.38 | *
    |      52K |        - |      248 |      248 |       0.39 | *
    |      54K |        - |      247 |      247 |       0.39 | *
    |      55K |        - |      245 |      245 |       0.39 | *
    |      55K |        - |      244 |      244 |       0.39 | *
    |      56K |        - |      243 |      243 |       0.39 | *
    |      56K |        - |      241 |      241 |       0.40 | *
    |      57K |        - |      240 |      240 |       0.40 | *
    |      58K |        - |      239 |      239 |       0.40 | *
    |      58K |        - |      238 |      238 |       0.40 | *
    |      58K |        - |      236 |      236 |       0.40 | *
    |      58K |        - |      235 |      235 |       0.40 | *
    |      58K |        - |      234 |      234 |       0.40 | *
    |      58K |        - |      233 |      233 |       0.40 | *
    |      59K |        - |      232 |      232 |       0.40 | *
    |      71K |        - |      231 |      231 |       0.42 | *
    |      72K |        - |      230 |      230 |       0.42 | *
    |      73K |        - |      229 |      229 |       0.43 | *
    |      74K |        - |      228 |      228 |       0.43 | *
    |      79K |        - |      227 |      227 |       0.44 | *
    |      79K |        - |      226 |      226 |       0.44 | *
    |      80K |        - |      225 |      225 |       0.44 | *
    |      80K |        - |      224 |      224 |       0.44 | *
    |      84K |        - |      223 |      223 |       0.44 | *
    |      87K |        - |      222 |      222 |       0.45 | *
    |      92K |        - |      220 |      220 |       0.47 | *
    |      95K |        - |      219 |      219 |       0.47 | *
    |      95K |        - |      218 |      218 |       0.48 | *
    |      95K |        - |      217 |      217 |       0.48 | *
    |      96K |        - |      216 |      216 |       0.48 | *
    |      98K |        - |      215 |      215 |       0.48 | *
    |     101K |        - |      213 |      213 |       0.49 | *
    |     102K |        - |      212 |      212 |       0.50 | *
    |     104K |        - |      211 |      211 |       0.50 | *
    |     115K |        - |      210 |      210 |       0.54 | *
    |     131K |        - |      209 |      209 |       0.59 | *
    |     132K |        - |      208 |      208 |       0.59 | *
    |     141K |        - |      207 |      207 |       0.62 | *
    |     164K |        - |      206 |      206 |       0.71 | *
    |     166K |        - |      205 |      205 |       0.72 | *
    |     175K |        - |      203 |      203 |       0.75 | *
    |     176K |        - |      202 |      202 |       0.75 | *
    |     183K |        - |      201 |      201 |       0.77 | *
    |     185K |        - |      199 |      199 |       0.78 | *
    |     190K |        - |      198 |      198 |       0.79 | *
    |     193K |        - |      197 |      197 |       0.80 | *
    |     194K |        - |      196 |      196 |       0.81 | *
    |     210K |        - |      195 |      195 |       0.85 | *
    |     210K |        - |      194 |      194 |       0.85 | *
    |     210K |        - |      193 |      193 |       0.85 | *
    |     214K |        - |      192 |      192 |       0.87 | *
    |     214K |        - |      191 |      191 |       0.87 | *
    |     217K |        - |      190 |      190 |       0.87 | *
    |     225K |        - |      189 |      189 |       0.90 | *
    |     232K |        - |      188 |      188 |       0.92 | *
    |     245K |        - |      187 |      187 |       0.95 | *
    |     250K |        - |      186 |      186 |       0.97 | *
    |     253K |        - |      185 |      185 |       0.98 | *
    |     274K |        - |      184 |      184 |       1.03 | *
    |     281K |        - |      183 |      183 |       1.04 | *
    |     283K |        - |      182 |      182 |       1.05 | *
    |     286K |        - |      181 |      181 |       1.05 | *
    |     294K |        - |      180 |      180 |       1.06 | *
    |     302K |        - |      179 |      179 |       1.07 | *
    |     310K |        - |      178 |      178 |       1.08 | *
    |     311K |        - |      177 |      177 |       1.08 | *
    |     319K |        - |      176 |      176 |       1.09 | *
    |     320K |        - |      175 |      175 |       1.09 | *
    |     390K |        - |      174 |      174 |       1.19 | *
    |     447K |        - |      173 |      173 |       1.27 | *
    |     491K |        - |      172 |      172 |       1.33 | *
    |    1049K |        - |      171 |      171 |       1.98 | *
    |    1094K |        - |      170 |      170 |       2.04 | *
    |    1098K |        - |      169 |      169 |       2.04 | *
    |    1102K |        - |      168 |      168 |       2.05 | *
    |    1123K |        - |      167 |      167 |       2.07 | *
    |    1132K |        - |      166 |      166 |       2.09 | *
    |    1140K |        - |      165 |      165 |       2.10 | *
    |    1182K |        - |      164 |      164 |       2.15 | *
    |    1192K |        - |      163 |      163 |       2.16 | *
    |    1210K |        - |      162 |      162 |       2.18 | *
    |    1368K |        - |      161 |      161 |       2.35 | *
    |    1590K |        - |      160 |      160 |       2.55 | *
    |    1592K |        - |      159 |      159 |       2.55 | *
    |    1592K |        - |      158 |      158 |       2.55 | *
    |    1593K |        - |      157 |      157 |       2.55 | *
    |    1599K |        - |      156 |      156 |       2.56 | *
    |    1634K |        - |      155 |      155 |       2.59 | *
    |    1667K |        - |      154 |      154 |       2.61 | *
    |    1686K |        - |      153 |      153 |       2.63 | *
    |    1779K |        - |      152 |      152 |       2.71 | *
    |    1779K |        - |      151 |      151 |       2.71 | *
    |    1870K |        - |      150 |      150 |       2.78 | *
    |    2114K |        - |      149 |      149 |       2.96 | *
    |    2148K |        - |      148 |      148 |       2.99 | *
    |    2213K |        - |      147 |      147 |       3.06 | *
    |    2724K |        - |      146 |      146 |       3.54 | *
    |    2756K |        - |      145 |      145 |       3.56 | *
    |    2834K |        - |      144 |      144 |       3.64 | *
    |    2916K |        - |      143 |      143 |       3.74 | *
    |    3093K |        - |      142 |      142 |       3.94 | *
    |    3378K |        - |      141 |      141 |       4.38 | *
    |    3508K |        - |      140 |      140 |       4.57 | *
    |    3643K |        - |      139 |      139 |       4.75 | *
    |    3653K |        - |      138 |      138 |       4.76 | *
    |    4301K |        - |      137 |      137 |       5.35 | *
    |    6069K |        - |      136 |      136 |       6.72 | *
    |    6732K |        - |      135 |      135 |       7.32 | *
    |      17M |        - |      134 |      134 |      15.97 | *
    |      18M |        - |      133 |      133 |      16.22 | *
    |      18M |        - |      132 |      132 |      16.30 | *
    |      18M |        - |      131 |      131 |      16.34 | *
    |      29M |        - |      130 |      130 |      25.00 | *
    |      29M |        - |      129 |      129 |      25.03 | *
    |      98M |        - |      128 |      128 |      77.39 | *
    |      98M |        - |      127 |      127 |      77.49 | *
    |     111M |        - |      126 |      126 |      87.47 | *
    |     112M |        - |      125 |      125 |      87.78 | *
    |     152M |        - |      124 |      124 |     118.55 | *
    |     153M |        - |      123 |      123 |     118.77 | *
    |     153M |        - |      122 |      122 |     118.81 | *
    |     154M |        - |      121 |      121 |     119.53 | *
    |     154M |        - |      120 |      120 |     119.55 | *
    |     412M |        - |      119 |      119 |     314.03 | *
    |     501M |        - |      118 |      118 |     380.77 | *
    |     507M |        - |      117 |      117 |     385.66 | *
    |     537M |        - |      116 |      116 |     408.01 | *
    |     943M |        - |      115 |      115 |     716.04 | *
    |    1045M |        - |      114 |      114 |     794.69 | *
    |    1720M |        - |      113 |      113 |    1302.87 | *
    \--------------------------------------------------------/

Neighborhoods statistics (values in %):

    /----------------------------------------------------------------\
    | Move               | Improvs. | Sideways |  Accepts |  Rejects |
    |--------------------|----------|----------|----------|----------|
    | Shift(mk)          |      16K |      37K |      58K |     203M |
    | Shift              |      632 |     522K |     534K |     203M |
    | ShiftSmart(mk)     |     128K |     290K |     468K |     203M |
    | ShiftSmart         |     5041 |    3646K |    3732K |     200M |
    | SimpSwap(mk)       |       72 |      129 |      230 |     203M |
    | SimpSwap           |        4 |      744 |      816 |     204M |
    | SimpSwapSmart(mk)  |      619 |     1025 |     1870 |     204M |
    | SimpSwapSmart      |       55 |     6296 |     6835 |     203M |
    | Swap(mk)           |       14 |       24 |       44 |     203M |
    | Swap               |        1 |      109 |      120 |     204M |
    | SwapSmart(mk)      |      586 |     1296 |     2122 |     203M |
    | SwapSmart          |       42 |     5549 |     6074 |     203M |
    | Switch(mk)         |     3307 |      20M |      20M |     183M |
    | Switch             |      123 |      21M |      21M |     182M |
    | SwitchSmart(mk)    |      25K |      56K |      88K |     204M |
    | SwitchSmart        |     1022 |     497K |     517K |     203M |
    | TaskMove(mk)       |      858 |     2086 |     3234 |     203M |
    | TaskMove           |       32 |     5530 |     6072 |     204M |
    | TaskMoveSmart(mk)  |     7099 |      18K |      28K |     203M |
    | TaskMoveSmart      |      402 |      48K |      53K |     203M |
    | 2-Shift(mk)        |     3997 |    2243K |    2249K |     201M |
    | 2-Shift            |      183 |    2826K |    2830K |     201M |
    | 2-ShiftSmart(mk)   |      27K |    5576K |    5609K |     198M |
    | 2-ShiftSmart       |     1032 |    5496K |    5512K |     198M |
    \----------------------------------------------------------------/

Best makespan.....: 113
N. of Iterations..: 4883793935
Total runtime.....: 3600.02s
Using Python-MIP package version 1.6.8
Começo a execução
    /-------------------------------------------------------------------------------\
    |    Makespan   |   Free Jobs   | Free Machines |    It. Time   |   Total Time  | 
    |-------------------------------------------------------------------------------|
    \-------------------------------------------------------------------------------/
Terminou a execução
