Instance....: instances/I_250_30_S_1-9_4.txt
Algorithm...: Simulated Annealing (alpha=0.990, saMax=10M, t0=1)
Other params: maxIters=100M, seed=-1, timeLimit=3600.00s

    /--------------------------------------------------------\
    |     Iter |   RDP(%) |       S* |       S' |       Time | 
    |----------|----------|----------|----------|------------|
    |        0 |        - |      899 |      899 |       0.00 | s0
    |        3 |        - |      893 |      893 |       0.01 | *
    |        5 |        - |      859 |      859 |       0.01 | *
    |       11 |        - |      819 |      819 |       0.01 | *
    |       13 |        - |      818 |      818 |       0.01 | *
    |       18 |        - |      799 |      799 |       0.01 | *
    |       22 |        - |      768 |      768 |       0.03 | *
    |       23 |        - |      750 |      750 |       0.03 | *
    |       29 |        - |      745 |      745 |       0.03 | *
    |       30 |        - |      736 |      736 |       0.03 | *
    |       31 |        - |      734 |      734 |       0.03 | *
    |       33 |        - |      732 |      732 |       0.03 | *
    |       42 |        - |      679 |      679 |       0.03 | *
    |       43 |        - |      668 |      668 |       0.03 | *
    |       44 |        - |      661 |      661 |       0.03 | *
    |       47 |        - |      654 |      654 |       0.04 | *
    |       48 |        - |      651 |      651 |       0.04 | *
    |       52 |        - |      627 |      627 |       0.04 | *
    |       57 |        - |      623 |      623 |       0.04 | *
    |       60 |        - |      622 |      622 |       0.04 | *
    |       61 |        - |      618 |      618 |       0.04 | *
    |       64 |        - |      614 |      614 |       0.04 | *
    |       66 |        - |      612 |      612 |       0.04 | *
    |       67 |        - |      609 |      609 |       0.04 | *
    |       71 |        - |      602 |      602 |       0.04 | *
    |       75 |        - |      601 |      601 |       0.04 | *
    |       77 |        - |      600 |      600 |       0.04 | *
    |       80 |        - |      594 |      594 |       0.04 | *
    |       85 |        - |      582 |      582 |       0.04 | *
    |       97 |        - |      581 |      581 |       0.04 | *
    |       99 |        - |      580 |      580 |       0.04 | *
    |      101 |        - |      579 |      579 |       0.04 | *
    |      119 |        - |      578 |      578 |       0.05 | *
    |      129 |        - |      575 |      575 |       0.05 | *
    |      134 |        - |      573 |      573 |       0.05 | *
    |      147 |        - |      571 |      571 |       0.05 | *
    |      154 |        - |      563 |      563 |       0.05 | *
    |      163 |        - |      555 |      555 |       0.05 | *
    |      167 |        - |      553 |      553 |       0.05 | *
    |      185 |        - |      551 |      551 |       0.05 | *
    |      187 |        - |      550 |      550 |       0.05 | *
    |      190 |        - |      548 |      548 |       0.05 | *
    |      193 |        - |      547 |      547 |       0.05 | *
    |      197 |        - |      545 |      545 |       0.05 | *
    |      198 |        - |      542 |      542 |       0.05 | *
    |      199 |        - |      540 |      540 |       0.05 | *
    |      200 |        - |      535 |      535 |       0.06 | *
    |      201 |        - |      528 |      528 |       0.06 | *
    |      203 |        - |      524 |      524 |       0.06 | *
    |      204 |        - |      516 |      516 |       0.06 | *
    |      213 |        - |      513 |      513 |       0.06 | *
    |      215 |        - |      512 |      512 |       0.06 | *
    |      217 |        - |      511 |      511 |       0.06 | *
    |      227 |        - |      510 |      510 |       0.06 | *
    |      236 |        - |      508 |      508 |       0.06 | *
    |      241 |        - |      506 |      506 |       0.06 | *
    |      250 |        - |      504 |      504 |       0.06 | *
    |      255 |        - |      500 |      500 |       0.06 | *
    |      259 |        - |      498 |      498 |       0.06 | *
    |      261 |        - |      497 |      497 |       0.06 | *
    |      266 |        - |      494 |      494 |       0.06 | *
    |      277 |        - |      493 |      493 |       0.06 | *
    |      288 |        - |      490 |      490 |       0.06 | *
    |      293 |        - |      487 |      487 |       0.06 | *
    |      296 |        - |      486 |      486 |       0.07 | *
    |      301 |        - |      485 |      485 |       0.07 | *
    |      306 |        - |      483 |      483 |       0.07 | *
    |      308 |        - |      482 |      482 |       0.07 | *
    |      317 |        - |      479 |      479 |       0.07 | *
    |      318 |        - |      478 |      478 |       0.07 | *
    |      319 |        - |      475 |      475 |       0.07 | *
    |      327 |        - |      470 |      470 |       0.07 | *
    |      331 |        - |      469 |      469 |       0.07 | *
    |      340 |        - |      468 |      468 |       0.07 | *
    |      346 |        - |      466 |      466 |       0.07 | *
    |      349 |        - |      461 |      461 |       0.07 | *
    |      354 |        - |      460 |      460 |       0.07 | *
    |      358 |        - |      459 |      459 |       0.07 | *
    |      372 |        - |      456 |      456 |       0.07 | *
    |      386 |        - |      454 |      454 |       0.07 | *
    |      414 |        - |      453 |      453 |       0.07 | *
    |      415 |        - |      452 |      452 |       0.07 | *
    |      418 |        - |      450 |      450 |       0.08 | *
    |      429 |        - |      449 |      449 |       0.08 | *
    |      431 |        - |      448 |      448 |       0.08 | *
    |      465 |        - |      447 |      447 |       0.08 | *
    |      473 |        - |      445 |      445 |       0.08 | *
    |      480 |        - |      443 |      443 |       0.08 | *
    |      504 |        - |      441 |      441 |       0.08 | *
    |      508 |        - |      440 |      440 |       0.08 | *
    |      511 |        - |      437 |      437 |       0.08 | *
    |      515 |        - |      435 |      435 |       0.08 | *
    |      516 |        - |      433 |      433 |       0.08 | *
    |      517 |        - |      432 |      432 |       0.09 | *
    |      518 |        - |      431 |      431 |       0.09 | *
    |      521 |        - |      429 |      429 |       0.09 | *
    |      530 |        - |      428 |      428 |       0.09 | *
    |      531 |        - |      423 |      423 |       0.09 | *
    |      532 |        - |      422 |      422 |       0.09 | *
    |      538 |        - |      421 |      421 |       0.09 | *
    |      541 |        - |      420 |      420 |       0.09 | *
    |      542 |        - |      418 |      418 |       0.09 | *
    |      549 |        - |      417 |      417 |       0.09 | *
    |      554 |        - |      414 |      414 |       0.09 | *
    |      557 |        - |      413 |      413 |       0.09 | *
    |      569 |        - |      412 |      412 |       0.09 | *
    |      574 |        - |      411 |      411 |       0.10 | *
    |      593 |        - |      410 |      410 |       0.10 | *
    |      602 |        - |      408 |      408 |       0.10 | *
    |      620 |        - |      406 |      406 |       0.10 | *
    |      623 |        - |      404 |      404 |       0.10 | *
    |      639 |        - |      403 |      403 |       0.10 | *
    |      642 |        - |      400 |      400 |       0.10 | *
    |      652 |        - |      399 |      399 |       0.10 | *
    |      659 |        - |      398 |      398 |       0.10 | *
    |      662 |        - |      395 |      395 |       0.10 | *
    |      663 |        - |      393 |      393 |       0.10 | *
    |      668 |        - |      392 |      392 |       0.10 | *
    |      677 |        - |      391 |      391 |       0.11 | *
    |      688 |        - |      390 |      390 |       0.11 | *
    |      691 |        - |      386 |      386 |       0.11 | *
    |      695 |        - |      384 |      384 |       0.11 | *
    |      696 |        - |      382 |      382 |       0.11 | *
    |      701 |        - |      381 |      381 |       0.11 | *
    |      720 |        - |      380 |      380 |       0.11 | *
    |      723 |        - |      378 |      378 |       0.11 | *
    |      728 |        - |      375 |      375 |       0.11 | *
    |      747 |        - |      374 |      374 |       0.11 | *
    |      754 |        - |      370 |      370 |       0.11 | *
    |      757 |        - |      369 |      369 |       0.12 | *
    |      765 |        - |      368 |      368 |       0.12 | *
    |      782 |        - |      365 |      365 |       0.12 | *
    |      784 |        - |      358 |      358 |       0.12 | *
    |      788 |        - |      357 |      357 |       0.12 | *
    |      791 |        - |      355 |      355 |       0.12 | *
    |      794 |        - |      352 |      352 |       0.12 | *
    |      805 |        - |      349 |      349 |       0.12 | *
    |      808 |        - |      348 |      348 |       0.12 | *
    |      812 |        - |      347 |      347 |       0.12 | *
    |      819 |        - |      344 |      344 |       0.12 | *
    |      838 |        - |      343 |      343 |       0.12 | *
    |      839 |        - |      340 |      340 |       0.12 | *
    |      840 |        - |      338 |      338 |       0.12 | *
    |      842 |        - |      337 |      337 |       0.12 | *
    |      849 |        - |      336 |      336 |       0.13 | *
    |      853 |        - |      335 |      335 |       0.13 | *
    |      862 |        - |      334 |      334 |       0.13 | *
    |      876 |        - |      333 |      333 |       0.13 | *
    |      890 |        - |      332 |      332 |       0.13 | *
    |      896 |        - |      331 |      331 |       0.13 | *
    |      899 |        - |      330 |      330 |       0.13 | *
    |      903 |        - |      326 |      326 |       0.13 | *
    |      917 |        - |      325 |      325 |       0.13 | *
    |      920 |        - |      324 |      324 |       0.13 | *
    |      945 |        - |      321 |      321 |       0.13 | *
    |      949 |        - |      320 |      320 |       0.13 | *
    |      951 |        - |      319 |      319 |       0.13 | *
    |      958 |        - |      318 |      318 |       0.13 | *
    |      971 |        - |      316 |      316 |       0.14 | *
    |      976 |        - |      314 |      314 |       0.14 | *
    |      979 |        - |      312 |      312 |       0.14 | *
    |      982 |        - |      311 |      311 |       0.14 | *
    |      989 |        - |      310 |      310 |       0.14 | *
    |      991 |        - |      305 |      305 |       0.14 | *
    |      992 |        - |      304 |      304 |       0.14 | *
    |      993 |        - |      303 |      303 |       0.14 | *
    |     1016 |        - |      300 |      300 |       0.14 | *
    |     1026 |        - |      299 |      299 |       0.14 | *
    |     1042 |        - |      296 |      296 |       0.14 | *
    |     1048 |        - |      295 |      295 |       0.14 | *
    |     1050 |        - |      294 |      294 |       0.14 | *
    |     1056 |        - |      293 |      293 |       0.14 | *
    |     1058 |        - |      291 |      291 |       0.15 | *
    |     1067 |        - |      290 |      290 |       0.15 | *
    |     1069 |        - |      289 |      289 |       0.15 | *
    |     1074 |        - |      287 |      287 |       0.15 | *
    |     1077 |        - |      286 |      286 |       0.15 | *
    |     1079 |        - |      285 |      285 |       0.15 | *
    |     1097 |        - |      284 |      284 |       0.15 | *
    |     1105 |        - |      282 |      282 |       0.15 | *
    |     1113 |        - |      281 |      281 |       0.15 | *
    |     1130 |        - |      280 |      280 |       0.15 | *
    |     1148 |        - |      279 |      279 |       0.15 | *
    |     1182 |        - |      278 |      278 |       0.15 | *
    |     1202 |        - |      277 |      277 |       0.15 | *
    |     1304 |        - |      276 |      276 |       0.16 | *
    |     1328 |        - |      275 |      275 |       0.16 | *
    |     1363 |        - |      274 |      274 |       0.16 | *
    |     1373 |        - |      273 |      273 |       0.16 | *
    |     1404 |        - |      272 |      272 |       0.16 | *
    |     1426 |        - |      271 |      271 |       0.16 | *
    |     1427 |        - |      270 |      270 |       0.16 | *
    |     1470 |        - |      268 |      268 |       0.16 | *
    |     1471 |        - |      267 |      267 |       0.16 | *
    |     1473 |        - |      266 |      266 |       0.16 | *
    |     1482 |        - |      265 |      265 |       0.16 | *
    |     1517 |        - |      264 |      264 |       0.16 | *
    |     1686 |        - |      263 |      263 |       0.16 | *
    |     1710 |        - |      262 |      262 |       0.16 | *
    |     1718 |        - |      261 |      261 |       0.17 | *
    |     1773 |        - |      260 |      260 |       0.17 | *
    |     1782 |        - |      259 |      259 |       0.17 | *
    |     1853 |        - |      258 |      258 |       0.17 | *
    |     1901 |        - |      257 |      257 |       0.17 | *
    |     1911 |        - |      256 |      256 |       0.17 | *
    |     1914 |        - |      255 |      255 |       0.17 | *
    |     1918 |        - |      254 |      254 |       0.17 | *
    |     1948 |        - |      253 |      253 |       0.17 | *
    |     1979 |        - |      252 |      252 |       0.17 | *
    |     2044 |        - |      251 |      251 |       0.17 | *
    |     2062 |        - |      250 |      250 |       0.17 | *
    |     2064 |        - |      249 |      249 |       0.17 | *
    |     2184 |        - |      248 |      248 |       0.18 | *
    |     2201 |        - |      247 |      247 |       0.18 | *
    |     2216 |        - |      246 |      246 |       0.18 | *
    |     2252 |        - |      245 |      245 |       0.18 | *
    |     2305 |        - |      244 |      244 |       0.18 | *
    |     2382 |        - |      243 |      243 |       0.18 | *
    |     2386 |        - |      242 |      242 |       0.18 | *
    |     2409 |        - |      241 |      241 |       0.18 | *
    |     2444 |        - |      240 |      240 |       0.18 | *
    |     2493 |        - |      239 |      239 |       0.18 | *
    |     2532 |        - |      238 |      238 |       0.18 | *
    |     2622 |        - |      237 |      237 |       0.18 | *
    |     2660 |        - |      236 |      236 |       0.18 | *
    |     2694 |        - |      234 |      234 |       0.19 | *
    |     2706 |        - |      233 |      233 |       0.19 | *
    |     2741 |        - |      232 |      232 |       0.19 | *
    |     2772 |        - |      231 |      231 |       0.19 | *
    |     2774 |        - |      230 |      230 |       0.19 | *
    |     2812 |        - |      229 |      229 |       0.19 | *
    |     2854 |        - |      227 |      227 |       0.19 | *
    |     2864 |        - |      226 |      226 |       0.19 | *
    |     2886 |        - |      225 |      225 |       0.19 | *
    |     2898 |        - |      224 |      224 |       0.19 | *
    |     2984 |        - |      222 |      222 |       0.19 | *
    |     3129 |        - |      221 |      221 |       0.19 | *
    |     3214 |        - |      220 |      220 |       0.19 | *
    |     3228 |        - |      219 |      219 |       0.19 | *
    |     3335 |        - |      218 |      218 |       0.20 | *
    |     3336 |        - |      217 |      217 |       0.20 | *
    |     3398 |        - |      216 |      216 |       0.20 | *
    |     3415 |        - |      214 |      214 |       0.20 | *
    |     3433 |        - |      213 |      213 |       0.20 | *
    |     3459 |        - |      212 |      212 |       0.20 | *
    |     3483 |        - |      211 |      211 |       0.20 | *
    |     3509 |        - |      210 |      210 |       0.20 | *
    |     3546 |        - |      209 |      209 |       0.20 | *
    |     3558 |        - |      208 |      208 |       0.20 | *
    |     3615 |        - |      207 |      207 |       0.20 | *
    |     3695 |        - |      206 |      206 |       0.20 | *
    |     3709 |        - |      205 |      205 |       0.20 | *
    |     3770 |        - |      204 |      204 |       0.20 | *
    |     3853 |        - |      203 |      203 |       0.21 | *
    |     3873 |        - |      202 |      202 |       0.21 | *
    |     3911 |        - |      201 |      201 |       0.21 | *
    |     3938 |        - |      200 |      200 |       0.21 | *
    |     3951 |        - |      199 |      199 |       0.21 | *
    |     3960 |        - |      197 |      197 |       0.21 | *
    |     4011 |        - |      196 |      196 |       0.21 | *
    |     4065 |        - |      194 |      194 |       0.21 | *
    |     4086 |        - |      193 |      193 |       0.21 | *
    |     4246 |        - |      192 |      192 |       0.21 | *
    |     4275 |        - |      191 |      191 |       0.21 | *
    |     4289 |        - |      190 |      190 |       0.21 | *
    |     4425 |        - |      189 |      189 |       0.21 | *
    |     4514 |        - |      188 |      188 |       0.21 | *
    |     4539 |        - |      187 |      187 |       0.22 | *
    |     4613 |        - |      186 |      186 |       0.22 | *
    |     4637 |        - |      185 |      185 |       0.22 | *
    |     4648 |        - |      184 |      184 |       0.22 | *
    |     4685 |        - |      183 |      183 |       0.22 | *
    |     4864 |        - |      182 |      182 |       0.22 | *
    |     4891 |        - |      181 |      181 |       0.22 | *
    |     5006 |        - |      180 |      180 |       0.22 | *
    |     5048 |        - |      179 |      179 |       0.22 | *
    |     5139 |        - |      178 |      178 |       0.22 | *
    |     5156 |        - |      177 |      177 |       0.22 | *
    |     5180 |        - |      176 |      176 |       0.22 | *
    |     5229 |        - |      175 |      175 |       0.22 | *
    |     5358 |        - |      174 |      174 |       0.22 | *
    |     5435 |        - |      173 |      173 |       0.22 | *
    |     5665 |        - |      172 |      172 |       0.22 | *
    |     5732 |        - |      171 |      171 |       0.23 | *
    |     5796 |        - |      170 |      170 |       0.23 | *
    |     5868 |        - |      169 |      169 |       0.23 | *
    |     5919 |        - |      168 |      168 |       0.23 | *
    |     6032 |        - |      167 |      167 |       0.23 | *
    |     6055 |        - |      166 |      166 |       0.24 | *
    |     6176 |        - |      165 |      165 |       0.24 | *
    |     6236 |        - |      164 |      164 |       0.24 | *
    |     6310 |        - |      163 |      163 |       0.24 | *
    |     6354 |        - |      162 |      162 |       0.24 | *
    |     6382 |        - |      161 |      161 |       0.24 | *
    |     6431 |        - |      160 |      160 |       0.24 | *
    |     6469 |        - |      159 |      159 |       0.24 | *
    |     6608 |        - |      158 |      158 |       0.24 | *
    |     6622 |        - |      157 |      157 |       0.24 | *
    |     6701 |        - |      156 |      156 |       0.24 | *
    |     6975 |        - |      155 |      155 |       0.24 | *
    |     7068 |        - |      154 |      154 |       0.24 | *
    |     7159 |        - |      153 |      153 |       0.25 | *
    |     7439 |        - |      152 |      152 |       0.25 | *
    |     7519 |        - |      151 |      151 |       0.25 | *
    |     7656 |        - |      149 |      149 |       0.25 | *
    |     7663 |        - |      148 |      148 |       0.25 | *
    |     7741 |        - |      147 |      147 |       0.25 | *
    |     7797 |        - |      146 |      146 |       0.25 | *
    |     7798 |        - |      145 |      145 |       0.25 | *
    |     7982 |        - |      144 |      144 |       0.25 | *
    |     8021 |        - |      143 |      143 |       0.25 | *
    |     8064 |        - |      142 |      142 |       0.25 | *
    |     8140 |        - |      141 |      141 |       0.25 | *
    |     8238 |        - |      140 |      140 |       0.25 | *
    |     8244 |        - |      139 |      139 |       0.25 | *
    |     8461 |        - |      138 |      138 |       0.25 | *
    |     8656 |        - |      137 |      137 |       0.25 | *
    |     8876 |        - |      136 |      136 |       0.25 | *
    |     8908 |        - |      135 |      135 |       0.25 | *
    |     8945 |        - |      134 |      134 |       0.25 | *
    |     9197 |        - |      133 |      133 |       0.25 | *
    |     9323 |        - |      132 |      132 |       0.25 | *
    |     9468 |        - |      131 |      131 |       0.25 | *
    |     9605 |        - |      130 |      130 |       0.26 | *
    |     9766 |        - |      129 |      129 |       0.26 | *
    |     9920 |        - |      128 |      128 |       0.26 | *
    |      10K |        - |      127 |      127 |       0.26 | *
    |      10K |        - |      126 |      126 |       0.26 | *
    |      11K |        - |      125 |      125 |       0.26 | *
    |      11K |        - |      124 |      124 |       0.26 | *
    |      11K |        - |      123 |      123 |       0.26 | *
    |      11K |        - |      122 |      122 |       0.26 | *
    |      11K |        - |      121 |      121 |       0.27 | *
    |      11K |        - |      120 |      120 |       0.27 | *
    |      11K |        - |      119 |      119 |       0.27 | *
    |      12K |        - |      118 |      118 |       0.27 | *
    |      12K |        - |      117 |      117 |       0.27 | *
    |      12K |        - |      116 |      116 |       0.27 | *
    |      12K |        - |      115 |      115 |       0.27 | *
    |      13K |        - |      114 |      114 |       0.27 | *
    |      13K |        - |      113 |      113 |       0.27 | *
    |      14K |        - |      112 |      112 |       0.27 | *
    |      15K |        - |      111 |      111 |       0.28 | *
    |      15K |        - |      110 |      110 |       0.28 | *
    |      15K |        - |      109 |      109 |       0.28 | *
    |      16K |        - |      108 |      108 |       0.28 | *
    |      17K |        - |      107 |      107 |       0.29 | *
    |      17K |        - |      106 |      106 |       0.29 | *
    |      18K |        - |      105 |      105 |       0.29 | *
    |      18K |        - |      104 |      104 |       0.29 | *
    |      18K |        - |      103 |      103 |       0.29 | *
    |      18K |        - |      102 |      102 |       0.29 | *
    |      20K |        - |      101 |      101 |       0.30 | *
    |      20K |        - |      100 |      100 |       0.30 | *
    |      21K |        - |       99 |       99 |       0.30 | *
    |      21K |        - |       98 |       98 |       0.31 | *
    |      21K |        - |       97 |       97 |       0.31 | *
    |      22K |        - |       96 |       96 |       0.31 | *
    |      23K |        - |       95 |       95 |       0.31 | *
    |      23K |        - |       94 |       94 |       0.32 | *
    |      24K |        - |       93 |       93 |       0.32 | *
    |      24K |        - |       92 |       92 |       0.32 | *
    |      27K |        - |       91 |       91 |       0.33 | *
    |      28K |        - |       90 |       90 |       0.33 | *
    |      28K |        - |       89 |       89 |       0.33 | *
    |      30K |        - |       88 |       88 |       0.34 | *
    |      30K |        - |       87 |       87 |       0.34 | *
    |      34K |        - |       86 |       86 |       0.35 | *
    |      36K |        - |       85 |       85 |       0.36 | *
    |      38K |        - |       84 |       84 |       0.37 | *
    |      39K |        - |       83 |       83 |       0.37 | *
    |      39K |        - |       82 |       82 |       0.37 | *
    |      44K |        - |       81 |       81 |       0.39 | *
    |      46K |        - |       80 |       80 |       0.39 | *
    |      47K |        - |       79 |       79 |       0.40 | *
    |      47K |        - |       78 |       78 |       0.40 | *
    |      56K |        - |       77 |       77 |       0.43 | *
    |      58K |        - |       76 |       76 |       0.44 | *
    |      62K |        - |       75 |       75 |       0.45 | *
    |      95K |        - |       74 |       74 |       0.55 | *
    |      97K |        - |       73 |       73 |       0.56 | *
    |     101K |        - |       72 |       72 |       0.57 | *
    |     112K |        - |       71 |       71 |       0.61 | *
    |     121K |        - |       70 |       70 |       0.64 | *
    |     139K |        - |       69 |       69 |       0.71 | *
    |     148K |        - |       68 |       68 |       0.75 | *
    |     240K |        - |       67 |       67 |       1.07 | *
    |     241K |        - |       66 |       66 |       1.08 | *
    |     676K |        - |       65 |       65 |       1.64 | *
    |     798K |        - |       64 |       64 |       1.74 | *
    |    1317K |        - |       63 |       63 |       2.15 | *
    |    3378K |        - |       62 |       62 |       3.87 | *
    |      14M |        - |       61 |       61 |      14.94 | *
    |      14M |        - |       60 |       60 |      14.94 | *
    |      96M |        - |       59 |       59 |      81.94 | *
    |     141M |        - |       58 |       58 |     116.99 | *
    |     198M |        - |       57 |       57 |     160.64 | *
    |     273M |        - |       56 |       56 |     217.45 | *
    |     295M |        - |       55 |       55 |     234.46 | *
    |     396M |        - |       54 |       54 |     310.88 | *
    |     396M |        - |       53 |       53 |     310.89 | *
    |     521M |        - |       52 |       52 |     405.90 | *
    |     580M |        - |       51 |       51 |     450.47 | *
    |     713M |        - |       50 |       50 |     551.72 | *
    |     812M |        - |       49 |       49 |     626.48 | *
    |     948M |        - |       48 |       48 |     729.17 | *
    |    1165M |        - |       47 |       47 |     892.00 | *
    |    1440M |        - |       46 |       46 |    1098.40 | *
    |    2944M |        - |       45 |       45 |    2225.78 | *
    \--------------------------------------------------------/

Neighborhoods statistics (values in %):

    /----------------------------------------------------------------\
    | Move               | Improvs. | Sideways |  Accepts |  Rejects |
    |--------------------|----------|----------|----------|----------|
    | Shift(mk)          |     719K |    4589K |    5814K |     194M |
    | Shift              |      24K |      19M |      20M |     180M |
    | ShiftSmart(mk)     |    2998K |      22M |      26M |     173M |
    | ShiftSmart         |     100K |      60M |      61M |     139M |
    | SimpSwap(mk)       |     4508 |      13K |      20K |     200M |
    | SimpSwap           |      262 |      41K |      46K |     200M |
    | SimpSwapSmart(mk)  |      29K |      82K |     129K |     200M |
    | SimpSwapSmart      |     2015 |     253K |     287K |     199M |
    | Swap(mk)           |     2886 |     7688 |      13K |     200M |
    | Swap               |      194 |      28K |      32K |     200M |
    | SwapSmart(mk)      |      15K |      43K |      66K |     200M |
    | SwapSmart          |      999 |     118K |     132K |     200M |
    | Switch(mk)         |     450K |      28M |      29M |     171M |
    | Switch             |      15K |      36M |      36M |     164M |
    | SwitchSmart(mk)    |    1594K |    8409K |      11M |     189M |
    | SwitchSmart        |      53K |      31M |      32M |     168M |
    | TaskMove(mk)       |      40K |     102K |     163K |     199M |
    | TaskMove           |     1374 |     160K |     181K |     200M |
    | TaskMoveSmart(mk)  |     126K |     367K |     551K |     199M |
    | TaskMoveSmart      |     4454 |     570K |     632K |     199M |
    | 2-Shift(mk)        |     416K |    6125K |    6790K |     193M |
    | 2-Shift            |      14K |      14M |      15M |     185M |
    | 2-ShiftSmart(mk)   |    2599K |      19M |      22M |     178M |
    | 2-ShiftSmart       |      87K |      43M |      44M |     156M |
    \----------------------------------------------------------------/

Best makespan.....: 45
N. of Iterations..: 4794145726
Total runtime.....: 3600.02s
Using Python-MIP package version 1.6.8
Começo a execução
    /-------------------------------------------------------------------------------\
    |    Makespan   |   Free Jobs   | Free Machines |    It. Time   |   Total Time  | 
    |-------------------------------------------------------------------------------|
    \-------------------------------------------------------------------------------/
Terminou a execução
