Instance....: instances/I_250_15_S_1-124_7.txt
Algorithm...: Simulated Annealing (alpha=0.990, saMax=10M, t0=1)
Other params: maxIters=100M, seed=-1, timeLimit=3600.00s

    /--------------------------------------------------------\
    |     Iter |   RDP(%) |       S* |       S' |       Time | 
    |----------|----------|----------|----------|------------|
    |        0 |        - |     2632 |     2632 |       0.00 | s0
    |        3 |        - |     2572 |     2572 |       0.00 | *
    |        7 |        - |     2269 |     2269 |       0.02 | *
    |        8 |        - |     2245 |     2245 |       0.02 | *
    |       10 |        - |     2214 |     2214 |       0.02 | *
    |       27 |        - |     2198 |     2198 |       0.03 | *
    |       28 |        - |     2140 |     2140 |       0.03 | *
    |       31 |        - |     2113 |     2113 |       0.03 | *
    |       34 |        - |     2102 |     2102 |       0.03 | *
    |       40 |        - |     2099 |     2099 |       0.03 | *
    |       47 |        - |     2039 |     2039 |       0.03 | *
    |       48 |        - |     2012 |     2012 |       0.03 | *
    |       56 |        - |     1995 |     1995 |       0.03 | *
    |       59 |        - |     1933 |     1933 |       0.03 | *
    |       61 |        - |     1905 |     1905 |       0.04 | *
    |       64 |        - |     1893 |     1893 |       0.04 | *
    |       66 |        - |     1853 |     1853 |       0.04 | *
    |       69 |        - |     1851 |     1851 |       0.04 | *
    |       70 |        - |     1833 |     1833 |       0.04 | *
    |       71 |        - |     1812 |     1812 |       0.04 | *
    |       73 |        - |     1803 |     1803 |       0.04 | *
    |       74 |        - |     1800 |     1800 |       0.04 | *
    |       76 |        - |     1797 |     1797 |       0.04 | *
    |       90 |        - |     1748 |     1748 |       0.04 | *
    |       91 |        - |     1734 |     1734 |       0.04 | *
    |       92 |        - |     1729 |     1729 |       0.04 | *
    |       94 |        - |     1715 |     1715 |       0.04 | *
    |      112 |        - |     1712 |     1712 |       0.04 | *
    |      113 |        - |     1685 |     1685 |       0.05 | *
    |      116 |        - |     1672 |     1672 |       0.05 | *
    |      118 |        - |     1657 |     1657 |       0.05 | *
    |      126 |        - |     1633 |     1633 |       0.05 | *
    |      135 |        - |     1614 |     1614 |       0.05 | *
    |      138 |        - |     1608 |     1608 |       0.05 | *
    |      151 |        - |     1568 |     1568 |       0.05 | *
    |      156 |        - |     1567 |     1567 |       0.05 | *
    |      161 |        - |     1559 |     1559 |       0.05 | *
    |      166 |        - |     1548 |     1548 |       0.05 | *
    |      169 |        - |     1521 |     1521 |       0.05 | *
    |      177 |        - |     1520 |     1520 |       0.05 | *
    |      180 |        - |     1518 |     1518 |       0.05 | *
    |      181 |        - |     1500 |     1500 |       0.06 | *
    |      189 |        - |     1483 |     1483 |       0.06 | *
    |      190 |        - |     1475 |     1475 |       0.06 | *
    |      196 |        - |     1472 |     1472 |       0.06 | *
    |      197 |        - |     1470 |     1470 |       0.06 | *
    |      198 |        - |     1465 |     1465 |       0.06 | *
    |      202 |        - |     1460 |     1460 |       0.06 | *
    |      205 |        - |     1451 |     1451 |       0.06 | *
    |      207 |        - |     1450 |     1450 |       0.06 | *
    |      218 |        - |     1448 |     1448 |       0.06 | *
    |      227 |        - |     1437 |     1437 |       0.06 | *
    |      233 |        - |     1434 |     1434 |       0.06 | *
    |      235 |        - |     1419 |     1419 |       0.06 | *
    |      237 |        - |     1397 |     1397 |       0.06 | *
    |      241 |        - |     1393 |     1393 |       0.06 | *
    |      243 |        - |     1388 |     1388 |       0.06 | *
    |      247 |        - |     1381 |     1381 |       0.06 | *
    |      251 |        - |     1380 |     1380 |       0.06 | *
    |      252 |        - |     1350 |     1350 |       0.07 | *
    |      258 |        - |     1348 |     1348 |       0.07 | *
    |      272 |        - |     1338 |     1338 |       0.07 | *
    |      284 |        - |     1331 |     1331 |       0.07 | *
    |      287 |        - |     1329 |     1329 |       0.07 | *
    |      292 |        - |     1328 |     1328 |       0.07 | *
    |      298 |        - |     1303 |     1303 |       0.07 | *
    |      313 |        - |     1296 |     1296 |       0.07 | *
    |      314 |        - |     1295 |     1295 |       0.07 | *
    |      315 |        - |     1290 |     1290 |       0.07 | *
    |      318 |        - |     1275 |     1275 |       0.07 | *
    |      322 |        - |     1269 |     1269 |       0.07 | *
    |      334 |        - |     1265 |     1265 |       0.07 | *
    |      341 |        - |     1264 |     1264 |       0.07 | *
    |      349 |        - |     1258 |     1258 |       0.07 | *
    |      373 |        - |     1256 |     1256 |       0.07 | *
    |      382 |        - |     1248 |     1248 |       0.08 | *
    |      392 |        - |     1245 |     1245 |       0.08 | *
    |      409 |        - |     1241 |     1241 |       0.08 | *
    |      411 |        - |     1238 |     1238 |       0.08 | *
    |      414 |        - |     1237 |     1237 |       0.08 | *
    |      417 |        - |     1234 |     1234 |       0.08 | *
    |      427 |        - |     1233 |     1233 |       0.08 | *
    |      440 |        - |     1230 |     1230 |       0.08 | *
    |      496 |        - |     1222 |     1222 |       0.08 | *
    |      498 |        - |     1220 |     1220 |       0.08 | *
    |      500 |        - |     1217 |     1217 |       0.08 | *
    |      508 |        - |     1213 |     1213 |       0.08 | *
    |      519 |        - |     1206 |     1206 |       0.08 | *
    |      524 |        - |     1201 |     1201 |       0.08 | *
    |      559 |        - |     1192 |     1192 |       0.08 | *
    |      567 |        - |     1189 |     1189 |       0.09 | *
    |      575 |        - |     1188 |     1188 |       0.09 | *
    |      582 |        - |     1184 |     1184 |       0.09 | *
    |      594 |        - |     1183 |     1183 |       0.09 | *
    |      595 |        - |     1182 |     1182 |       0.09 | *
    |      609 |        - |     1180 |     1180 |       0.09 | *
    |      613 |        - |     1179 |     1179 |       0.09 | *
    |      615 |        - |     1175 |     1175 |       0.09 | *
    |      620 |        - |     1174 |     1174 |       0.09 | *
    |      621 |        - |     1170 |     1170 |       0.09 | *
    |      625 |        - |     1164 |     1164 |       0.09 | *
    |      629 |        - |     1163 |     1163 |       0.09 | *
    |      646 |        - |     1154 |     1154 |       0.09 | *
    |      650 |        - |     1150 |     1150 |       0.09 | *
    |      662 |        - |     1148 |     1148 |       0.09 | *
    |      663 |        - |     1147 |     1147 |       0.09 | *
    |      669 |        - |     1143 |     1143 |       0.09 | *
    |      672 |        - |     1140 |     1140 |       0.09 | *
    |      722 |        - |     1135 |     1135 |       0.10 | *
    |      742 |        - |     1131 |     1131 |       0.10 | *
    |      745 |        - |     1126 |     1126 |       0.10 | *
    |      809 |        - |     1124 |     1124 |       0.10 | *
    |      812 |        - |     1120 |     1120 |       0.10 | *
    |      828 |        - |     1119 |     1119 |       0.10 | *
    |      835 |        - |     1114 |     1114 |       0.10 | *
    |      859 |        - |     1113 |     1113 |       0.10 | *
    |      864 |        - |     1110 |     1110 |       0.10 | *
    |      874 |        - |     1107 |     1107 |       0.10 | *
    |      888 |        - |     1106 |     1106 |       0.10 | *
    |      892 |        - |     1105 |     1105 |       0.10 | *
    |      896 |        - |     1102 |     1102 |       0.10 | *
    |      897 |        - |     1099 |     1099 |       0.10 | *
    |      908 |        - |     1096 |     1096 |       0.10 | *
    |      914 |        - |     1095 |     1095 |       0.10 | *
    |      949 |        - |     1092 |     1092 |       0.11 | *
    |      972 |        - |     1090 |     1090 |       0.11 | *
    |      974 |        - |     1089 |     1089 |       0.11 | *
    |      980 |        - |     1078 |     1078 |       0.11 | *
    |      981 |        - |     1075 |     1075 |       0.11 | *
    |      984 |        - |     1072 |     1072 |       0.11 | *
    |      985 |        - |     1070 |     1070 |       0.11 | *
    |     1013 |        - |     1067 |     1067 |       0.11 | *
    |     1015 |        - |     1064 |     1064 |       0.11 | *
    |     1021 |        - |     1059 |     1059 |       0.11 | *
    |     1023 |        - |     1057 |     1057 |       0.11 | *
    |     1032 |        - |     1054 |     1054 |       0.11 | *
    |     1036 |        - |     1046 |     1046 |       0.11 | *
    |     1055 |        - |     1044 |     1044 |       0.11 | *
    |     1105 |        - |     1042 |     1042 |       0.11 | *
    |     1125 |        - |     1040 |     1040 |       0.11 | *
    |     1128 |        - |     1039 |     1039 |       0.11 | *
    |     1139 |        - |     1038 |     1038 |       0.11 | *
    |     1144 |        - |     1033 |     1033 |       0.11 | *
    |     1151 |        - |     1030 |     1030 |       0.11 | *
    |     1162 |        - |     1029 |     1029 |       0.12 | *
    |     1261 |        - |     1027 |     1027 |       0.12 | *
    |     1269 |        - |     1026 |     1026 |       0.12 | *
    |     1272 |        - |     1018 |     1018 |       0.12 | *
    |     1281 |        - |     1006 |     1006 |       0.12 | *
    |     1284 |        - |      998 |      998 |       0.12 | *
    |     1298 |        - |      997 |      997 |       0.12 | *
    |     1311 |        - |      994 |      994 |       0.12 | *
    |     1388 |        - |      988 |      988 |       0.12 | *
    |     1404 |        - |      987 |      987 |       0.12 | *
    |     1415 |        - |      980 |      980 |       0.12 | *
    |     1436 |        - |      975 |      975 |       0.12 | *
    |     1437 |        - |      974 |      974 |       0.12 | *
    |     1463 |        - |      972 |      972 |       0.12 | *
    |     1604 |        - |      965 |      965 |       0.12 | *
    |     1632 |        - |      961 |      961 |       0.12 | *
    |     1637 |        - |      957 |      957 |       0.13 | *
    |     1651 |        - |      956 |      956 |       0.13 | *
    |     1708 |        - |      954 |      954 |       0.13 | *
    |     1765 |        - |      944 |      944 |       0.13 | *
    |     1806 |        - |      943 |      943 |       0.13 | *
    |     1930 |        - |      942 |      942 |       0.13 | *
    |     1984 |        - |      941 |      941 |       0.13 | *
    |     2001 |        - |      937 |      937 |       0.13 | *
    |     2183 |        - |      934 |      934 |       0.13 | *
    |     2231 |        - |      930 |      930 |       0.13 | *
    |     2241 |        - |      929 |      929 |       0.14 | *
    |     2267 |        - |      926 |      926 |       0.14 | *
    |     2292 |        - |      919 |      919 |       0.14 | *
    |     2295 |        - |      918 |      918 |       0.14 | *
    |     2510 |        - |      917 |      917 |       0.14 | *
    |     2514 |        - |      916 |      916 |       0.14 | *
    |     2532 |        - |      912 |      912 |       0.14 | *
    |     2540 |        - |      910 |      910 |       0.14 | *
    |     2542 |        - |      904 |      904 |       0.14 | *
    |     2565 |        - |      895 |      895 |       0.14 | *
    |     2601 |        - |      894 |      894 |       0.14 | *
    |     2609 |        - |      891 |      891 |       0.14 | *
    |     2615 |        - |      890 |      890 |       0.14 | *
    |     2627 |        - |      889 |      889 |       0.14 | *
    |     2635 |        - |      887 |      887 |       0.15 | *
    |     2651 |        - |      884 |      884 |       0.15 | *
    |     2762 |        - |      883 |      883 |       0.15 | *
    |     2847 |        - |      882 |      882 |       0.15 | *
    |     2878 |        - |      879 |      879 |       0.15 | *
    |     2909 |        - |      876 |      876 |       0.15 | *
    |     2913 |        - |      875 |      875 |       0.15 | *
    |     3073 |        - |      873 |      873 |       0.15 | *
    |     3095 |        - |      872 |      872 |       0.15 | *
    |     3128 |        - |      871 |      871 |       0.15 | *
    |     3134 |        - |      870 |      870 |       0.15 | *
    |     3164 |        - |      869 |      869 |       0.15 | *
    |     3228 |        - |      868 |      868 |       0.15 | *
    |     3246 |        - |      867 |      867 |       0.16 | *
    |     3266 |        - |      865 |      865 |       0.16 | *
    |     3360 |        - |      863 |      863 |       0.16 | *
    |     3449 |        - |      861 |      861 |       0.16 | *
    |     3452 |        - |      858 |      858 |       0.16 | *
    |     3456 |        - |      853 |      853 |       0.16 | *
    |     3468 |        - |      851 |      851 |       0.16 | *
    |     3734 |        - |      850 |      850 |       0.16 | *
    |     3746 |        - |      848 |      848 |       0.16 | *
    |     3768 |        - |      847 |      847 |       0.16 | *
    |     3852 |        - |      845 |      845 |       0.16 | *
    |     3896 |        - |      844 |      844 |       0.16 | *
    |     3897 |        - |      843 |      843 |       0.16 | *
    |     3995 |        - |      840 |      840 |       0.17 | *
    |     4029 |        - |      836 |      836 |       0.17 | *
    |     4073 |        - |      835 |      835 |       0.17 | *
    |     4104 |        - |      832 |      832 |       0.17 | *
    |     4118 |        - |      831 |      831 |       0.17 | *
    |     4121 |        - |      830 |      830 |       0.17 | *
    |     4163 |        - |      829 |      829 |       0.17 | *
    |     4284 |        - |      824 |      824 |       0.17 | *
    |     4333 |        - |      823 |      823 |       0.17 | *
    |     4388 |        - |      822 |      822 |       0.17 | *
    |     4575 |        - |      816 |      816 |       0.17 | *
    |     4629 |        - |      815 |      815 |       0.17 | *
    |     4665 |        - |      813 |      813 |       0.17 | *
    |     4700 |        - |      809 |      809 |       0.18 | *
    |     4744 |        - |      808 |      808 |       0.18 | *
    |     4755 |        - |      805 |      805 |       0.18 | *
    |     4764 |        - |      802 |      802 |       0.18 | *
    |     4969 |        - |      799 |      799 |       0.18 | *
    |     5029 |        - |      798 |      798 |       0.18 | *
    |     5090 |        - |      797 |      797 |       0.18 | *
    |     5094 |        - |      795 |      795 |       0.18 | *
    |     5096 |        - |      793 |      793 |       0.18 | *
    |     5098 |        - |      791 |      791 |       0.18 | *
    |     5103 |        - |      789 |      789 |       0.18 | *
    |     5104 |        - |      787 |      787 |       0.18 | *
    |     5109 |        - |      780 |      780 |       0.18 | *
    |     5228 |        - |      778 |      778 |       0.18 | *
    |     5237 |        - |      776 |      776 |       0.18 | *
    |     5259 |        - |      774 |      774 |       0.19 | *
    |     5317 |        - |      772 |      772 |       0.19 | *
    |     5318 |        - |      771 |      771 |       0.19 | *
    |     5319 |        - |      770 |      770 |       0.19 | *
    |     5351 |        - |      767 |      767 |       0.19 | *
    |     5387 |        - |      763 |      763 |       0.19 | *
    |     5396 |        - |      761 |      761 |       0.19 | *
    |     5446 |        - |      757 |      757 |       0.19 | *
    |     5494 |        - |      755 |      755 |       0.19 | *
    |     5507 |        - |      753 |      753 |       0.19 | *
    |     5510 |        - |      750 |      750 |       0.19 | *
    |     5537 |        - |      748 |      748 |       0.19 | *
    |     5587 |        - |      746 |      746 |       0.19 | *
    |     5756 |        - |      743 |      743 |       0.19 | *
    |     5863 |        - |      742 |      742 |       0.20 | *
    |     6032 |        - |      741 |      741 |       0.20 | *
    |     6059 |        - |      738 |      738 |       0.20 | *
    |     6076 |        - |      737 |      737 |       0.20 | *
    |     6128 |        - |      734 |      734 |       0.20 | *
    |     6136 |        - |      733 |      733 |       0.20 | *
    |     6153 |        - |      731 |      731 |       0.20 | *
    |     6188 |        - |      730 |      730 |       0.20 | *
    |     6636 |        - |      729 |      729 |       0.20 | *
    |     6670 |        - |      728 |      728 |       0.20 | *
    |     6759 |        - |      727 |      727 |       0.20 | *
    |     6835 |        - |      724 |      724 |       0.20 | *
    |     6902 |        - |      722 |      722 |       0.20 | *
    |     6928 |        - |      721 |      721 |       0.21 | *
    |     7005 |        - |      720 |      720 |       0.21 | *
    |     7021 |        - |      719 |      719 |       0.21 | *
    |     7035 |        - |      717 |      717 |       0.21 | *
    |     7071 |        - |      713 |      713 |       0.21 | *
    |     7073 |        - |      709 |      709 |       0.21 | *
    |     7112 |        - |      708 |      708 |       0.21 | *
    |     7182 |        - |      707 |      707 |       0.21 | *
    |     7258 |        - |      706 |      706 |       0.21 | *
    |     7478 |        - |      705 |      705 |       0.21 | *
    |     7660 |        - |      704 |      704 |       0.21 | *
    |     7691 |        - |      702 |      702 |       0.21 | *
    |     7696 |        - |      699 |      699 |       0.21 | *
    |     7827 |        - |      696 |      696 |       0.21 | *
    |     7872 |        - |      695 |      695 |       0.22 | *
    |     8214 |        - |      689 |      689 |       0.22 | *
    |     8761 |        - |      688 |      688 |       0.22 | *
    |     8788 |        - |      685 |      685 |       0.22 | *
    |     8826 |        - |      684 |      684 |       0.22 | *
    |     8902 |        - |      683 |      683 |       0.22 | *
    |     8940 |        - |      681 |      681 |       0.22 | *
    |     9114 |        - |      679 |      679 |       0.22 | *
    |     9176 |        - |      678 |      678 |       0.22 | *
    |     9526 |        - |      675 |      675 |       0.22 | *
    |     9554 |        - |      673 |      673 |       0.23 | *
    |     9616 |        - |      670 |      670 |       0.23 | *
    |     9643 |        - |      669 |      669 |       0.23 | *
    |     9783 |        - |      667 |      667 |       0.23 | *
    |     9885 |        - |      665 |      665 |       0.23 | *
    |      10K |        - |      664 |      664 |       0.23 | *
    |      10K |        - |      663 |      663 |       0.23 | *
    |      10K |        - |      662 |      662 |       0.23 | *
    |      10K |        - |      660 |      660 |       0.24 | *
    |      11K |        - |      658 |      658 |       0.24 | *
    |      11K |        - |      657 |      657 |       0.24 | *
    |      11K |        - |      656 |      656 |       0.24 | *
    |      11K |        - |      655 |      655 |       0.24 | *
    |      11K |        - |      654 |      654 |       0.24 | *
    |      11K |        - |      652 |      652 |       0.24 | *
    |      11K |        - |      651 |      651 |       0.24 | *
    |      12K |        - |      650 |      650 |       0.24 | *
    |      12K |        - |      648 |      648 |       0.24 | *
    |      12K |        - |      647 |      647 |       0.25 | *
    |      12K |        - |      646 |      646 |       0.25 | *
    |      12K |        - |      644 |      644 |       0.25 | *
    |      12K |        - |      643 |      643 |       0.25 | *
    |      12K |        - |      642 |      642 |       0.25 | *
    |      12K |        - |      641 |      641 |       0.25 | *
    |      12K |        - |      640 |      640 |       0.25 | *
    |      13K |        - |      639 |      639 |       0.25 | *
    |      13K |        - |      637 |      637 |       0.25 | *
    |      13K |        - |      636 |      636 |       0.25 | *
    |      13K |        - |      633 |      633 |       0.25 | *
    |      13K |        - |      631 |      631 |       0.25 | *
    |      13K |        - |      630 |      630 |       0.25 | *
    |      13K |        - |      628 |      628 |       0.26 | *
    |      13K |        - |      627 |      627 |       0.26 | *
    |      13K |        - |      625 |      625 |       0.26 | *
    |      14K |        - |      624 |      624 |       0.26 | *
    |      14K |        - |      623 |      623 |       0.26 | *
    |      14K |        - |      622 |      622 |       0.26 | *
    |      14K |        - |      621 |      621 |       0.26 | *
    |      14K |        - |      619 |      619 |       0.26 | *
    |      14K |        - |      618 |      618 |       0.26 | *
    |      15K |        - |      615 |      615 |       0.26 | *
    |      15K |        - |      614 |      614 |       0.26 | *
    |      16K |        - |      613 |      613 |       0.26 | *
    |      16K |        - |      609 |      609 |       0.26 | *
    |      16K |        - |      608 |      608 |       0.26 | *
    |      16K |        - |      605 |      605 |       0.26 | *
    |      16K |        - |      604 |      604 |       0.27 | *
    |      17K |        - |      601 |      601 |       0.27 | *
    |      17K |        - |      600 |      600 |       0.27 | *
    |      18K |        - |      598 |      598 |       0.28 | *
    |      18K |        - |      596 |      596 |       0.28 | *
    |      18K |        - |      594 |      594 |       0.28 | *
    |      18K |        - |      593 |      593 |       0.28 | *
    |      21K |        - |      592 |      592 |       0.29 | *
    |      21K |        - |      591 |      591 |       0.29 | *
    |      21K |        - |      590 |      590 |       0.29 | *
    |      22K |        - |      588 |      588 |       0.29 | *
    |      22K |        - |      587 |      587 |       0.29 | *
    |      22K |        - |      586 |      586 |       0.29 | *
    |      22K |        - |      585 |      585 |       0.29 | *
    |      22K |        - |      584 |      584 |       0.29 | *
    |      23K |        - |      583 |      583 |       0.30 | *
    |      23K |        - |      582 |      582 |       0.30 | *
    |      23K |        - |      580 |      580 |       0.30 | *
    |      23K |        - |      576 |      576 |       0.30 | *
    |      23K |        - |      575 |      575 |       0.30 | *
    |      23K |        - |      574 |      574 |       0.30 | *
    |      24K |        - |      573 |      573 |       0.30 | *
    |      24K |        - |      571 |      571 |       0.30 | *
    |      24K |        - |      569 |      569 |       0.30 | *
    |      24K |        - |      568 |      568 |       0.30 | *
    |      24K |        - |      566 |      566 |       0.30 | *
    |      24K |        - |      565 |      565 |       0.31 | *
    |      24K |        - |      564 |      564 |       0.31 | *
    |      24K |        - |      562 |      562 |       0.31 | *
    |      25K |        - |      561 |      561 |       0.31 | *
    |      25K |        - |      558 |      558 |       0.31 | *
    |      25K |        - |      556 |      556 |       0.31 | *
    |      25K |        - |      555 |      555 |       0.31 | *
    |      25K |        - |      554 |      554 |       0.31 | *
    |      26K |        - |      552 |      552 |       0.32 | *
    |      26K |        - |      551 |      551 |       0.32 | *
    |      26K |        - |      550 |      550 |       0.32 | *
    |      27K |        - |      547 |      547 |       0.32 | *
    |      28K |        - |      546 |      546 |       0.33 | *
    |      28K |        - |      545 |      545 |       0.33 | *
    |      28K |        - |      544 |      544 |       0.33 | *
    |      29K |        - |      542 |      542 |       0.33 | *
    |      29K |        - |      541 |      541 |       0.33 | *
    |      29K |        - |      540 |      540 |       0.33 | *
    |      29K |        - |      539 |      539 |       0.33 | *
    |      29K |        - |      537 |      537 |       0.33 | *
    |      33K |        - |      536 |      536 |       0.34 | *
    |      34K |        - |      534 |      534 |       0.35 | *
    |      35K |        - |      533 |      533 |       0.35 | *
    |      35K |        - |      532 |      532 |       0.35 | *
    |      35K |        - |      531 |      531 |       0.35 | *
    |      35K |        - |      527 |      527 |       0.36 | *
    |      35K |        - |      526 |      526 |       0.36 | *
    |      36K |        - |      525 |      525 |       0.36 | *
    |      38K |        - |      524 |      524 |       0.37 | *
    |      41K |        - |      523 |      523 |       0.37 | *
    |      41K |        - |      521 |      521 |       0.38 | *
    |      41K |        - |      520 |      520 |       0.38 | *
    |      42K |        - |      518 |      518 |       0.38 | *
    |      42K |        - |      517 |      517 |       0.39 | *
    |      43K |        - |      515 |      515 |       0.39 | *
    |      43K |        - |      514 |      514 |       0.39 | *
    |      43K |        - |      511 |      511 |       0.39 | *
    |      43K |        - |      510 |      510 |       0.39 | *
    |      43K |        - |      508 |      508 |       0.39 | *
    |      44K |        - |      506 |      506 |       0.40 | *
    |      46K |        - |      505 |      505 |       0.41 | *
    |      46K |        - |      503 |      503 |       0.41 | *
    |      46K |        - |      502 |      502 |       0.41 | *
    |      48K |        - |      501 |      501 |       0.42 | *
    |      48K |        - |      498 |      498 |       0.42 | *
    |      48K |        - |      497 |      497 |       0.42 | *
    |      48K |        - |      496 |      496 |       0.43 | *
    |      49K |        - |      495 |      495 |       0.43 | *
    |      49K |        - |      494 |      494 |       0.43 | *
    |      50K |        - |      493 |      493 |       0.44 | *
    |      50K |        - |      492 |      492 |       0.44 | *
    |      51K |        - |      491 |      491 |       0.44 | *
    |      52K |        - |      488 |      488 |       0.45 | *
    |      52K |        - |      487 |      487 |       0.45 | *
    |      57K |        - |      485 |      485 |       0.48 | *
    |      57K |        - |      483 |      483 |       0.48 | *
    |      57K |        - |      482 |      482 |       0.48 | *
    |      58K |        - |      480 |      480 |       0.48 | *
    |      59K |        - |      479 |      479 |       0.49 | *
    |      59K |        - |      478 |      478 |       0.49 | *
    |      60K |        - |      477 |      477 |       0.49 | *
    |      67K |        - |      476 |      476 |       0.53 | *
    |      67K |        - |      474 |      474 |       0.53 | *
    |      67K |        - |      472 |      472 |       0.53 | *
    |      67K |        - |      471 |      471 |       0.54 | *
    |      68K |        - |      470 |      470 |       0.54 | *
    |      68K |        - |      468 |      468 |       0.54 | *
    |      68K |        - |      467 |      467 |       0.54 | *
    |      69K |        - |      466 |      466 |       0.55 | *
    |      69K |        - |      465 |      465 |       0.55 | *
    |      69K |        - |      464 |      464 |       0.55 | *
    |      70K |        - |      461 |      461 |       0.56 | *
    |      70K |        - |      459 |      459 |       0.56 | *
    |      71K |        - |      458 |      458 |       0.56 | *
    |      73K |        - |      457 |      457 |       0.57 | *
    |      74K |        - |      455 |      455 |       0.58 | *
    |      76K |        - |      454 |      454 |       0.59 | *
    |      79K |        - |      451 |      451 |       0.61 | *
    |      79K |        - |      448 |      448 |       0.61 | *
    |      80K |        - |      447 |      447 |       0.61 | *
    |      80K |        - |      444 |      444 |       0.61 | *
    |      80K |        - |      443 |      443 |       0.61 | *
    |      83K |        - |      442 |      442 |       0.63 | *
    |      85K |        - |      441 |      441 |       0.64 | *
    |      86K |        - |      440 |      440 |       0.65 | *
    |      86K |        - |      438 |      438 |       0.65 | *
    |      90K |        - |      437 |      437 |       0.67 | *
    |      91K |        - |      436 |      436 |       0.67 | *
    |      91K |        - |      435 |      435 |       0.68 | *
    |      93K |        - |      433 |      433 |       0.68 | *
    |      93K |        - |      432 |      432 |       0.69 | *
    |      95K |        - |      430 |      430 |       0.70 | *
    |     103K |        - |      429 |      429 |       0.73 | *
    |     103K |        - |      428 |      428 |       0.73 | *
    |     104K |        - |      427 |      427 |       0.74 | *
    |     104K |        - |      426 |      426 |       0.74 | *
    |     119K |        - |      425 |      425 |       0.80 | *
    |     119K |        - |      424 |      424 |       0.81 | *
    |     124K |        - |      422 |      422 |       0.84 | *
    |     124K |        - |      421 |      421 |       0.84 | *
    |     126K |        - |      420 |      420 |       0.85 | *
    |     128K |        - |      418 |      418 |       0.86 | *
    |     129K |        - |      416 |      416 |       0.86 | *
    |     131K |        - |      415 |      415 |       0.88 | *
    |     131K |        - |      414 |      414 |       0.88 | *
    |     131K |        - |      413 |      413 |       0.88 | *
    |     131K |        - |      412 |      412 |       0.88 | *
    |     132K |        - |      411 |      411 |       0.88 | *
    |     132K |        - |      409 |      409 |       0.89 | *
    |     132K |        - |      408 |      408 |       0.89 | *
    |     146K |        - |      407 |      407 |       0.97 | *
    |     147K |        - |      406 |      406 |       0.97 | *
    |     147K |        - |      405 |      405 |       0.98 | *
    |     149K |        - |      404 |      404 |       0.99 | *
    |     150K |        - |      403 |      403 |       0.99 | *
    |     150K |        - |      402 |      402 |       0.99 | *
    |     151K |        - |      401 |      401 |       1.00 | *
    |     161K |        - |      400 |      400 |       1.04 | *
    |     182K |        - |      399 |      399 |       1.14 | *
    |     187K |        - |      398 |      398 |       1.15 | *
    |     189K |        - |      397 |      397 |       1.16 | *
    |     189K |        - |      396 |      396 |       1.16 | *
    |     190K |        - |      395 |      395 |       1.16 | *
    |     192K |        - |      393 |      393 |       1.17 | *
    |     231K |        - |      392 |      392 |       1.28 | *
    |     233K |        - |      391 |      391 |       1.28 | *
    |     234K |        - |      390 |      390 |       1.28 | *
    |     235K |        - |      389 |      389 |       1.29 | *
    |     239K |        - |      388 |      388 |       1.29 | *
    |     239K |        - |      387 |      387 |       1.29 | *
    |     255K |        - |      386 |      386 |       1.32 | *
    |     255K |        - |      385 |      385 |       1.33 | *
    |     296K |        - |      384 |      384 |       1.40 | *
    |     297K |        - |      383 |      383 |       1.40 | *
    |     298K |        - |      382 |      382 |       1.40 | *
    |     306K |        - |      381 |      381 |       1.42 | *
    |     307K |        - |      380 |      380 |       1.42 | *
    |     309K |        - |      379 |      379 |       1.42 | *
    |     309K |        - |      377 |      377 |       1.42 | *
    |     310K |        - |      375 |      375 |       1.43 | *
    |     332K |        - |      374 |      374 |       1.47 | *
    |     338K |        - |      373 |      373 |       1.48 | *
    |     344K |        - |      372 |      372 |       1.49 | *
    |     368K |        - |      370 |      370 |       1.55 | *
    |     371K |        - |      369 |      369 |       1.56 | *
    |     376K |        - |      368 |      368 |       1.57 | *
    |     399K |        - |      367 |      367 |       1.62 | *
    |     401K |        - |      365 |      365 |       1.62 | *
    |     413K |        - |      364 |      364 |       1.64 | *
    |     415K |        - |      363 |      363 |       1.65 | *
    |     418K |        - |      362 |      362 |       1.65 | *
    |     441K |        - |      361 |      361 |       1.69 | *
    |     441K |        - |      360 |      360 |       1.69 | *
    |     465K |        - |      359 |      359 |       1.75 | *
    |     465K |        - |      358 |      358 |       1.75 | *
    |     472K |        - |      357 |      357 |       1.76 | *
    |     472K |        - |      356 |      356 |       1.76 | *
    |     472K |        - |      355 |      355 |       1.77 | *
    |     602K |        - |      354 |      354 |       1.93 | *
    |     620K |        - |      353 |      353 |       1.95 | *
    |     630K |        - |      351 |      351 |       1.95 | *
    |     683K |        - |      350 |      350 |       2.00 | *
    |     725K |        - |      349 |      349 |       2.03 | *
    |     726K |        - |      348 |      348 |       2.03 | *
    |     726K |        - |      347 |      347 |       2.03 | *
    |     726K |        - |      346 |      346 |       2.03 | *
    |     736K |        - |      345 |      345 |       2.04 | *
    |     760K |        - |      344 |      344 |       2.06 | *
    |     760K |        - |      343 |      343 |       2.06 | *
    |     769K |        - |      342 |      342 |       2.07 | *
    |     786K |        - |      341 |      341 |       2.08 | *
    |     794K |        - |      340 |      340 |       2.09 | *
    |     804K |        - |      339 |      339 |       2.10 | *
    |     813K |        - |      338 |      338 |       2.11 | *
    |     822K |        - |      337 |      337 |       2.11 | *
    |     829K |        - |      336 |      336 |       2.12 | *
    |     866K |        - |      335 |      335 |       2.15 | *
    |     976K |        - |      334 |      334 |       2.28 | *
    |     982K |        - |      333 |      333 |       2.28 | *
    |    1022K |        - |      332 |      332 |       2.33 | *
    |    1025K |        - |      331 |      331 |       2.34 | *
    |    1032K |        - |      330 |      330 |       2.35 | *
    |    1043K |        - |      329 |      329 |       2.35 | *
    |    1043K |        - |      327 |      327 |       2.35 | *
    |    1048K |        - |      326 |      326 |       2.36 | *
    |    1048K |        - |      325 |      325 |       2.36 | *
    |    1050K |        - |      324 |      324 |       2.36 | *
    |    1050K |        - |      323 |      323 |       2.36 | *
    |    1055K |        - |      322 |      322 |       2.37 | *
    |    1117K |        - |      321 |      321 |       2.42 | *
    |    1121K |        - |      320 |      320 |       2.42 | *
    |    1200K |        - |      319 |      319 |       2.48 | *
    |    1212K |        - |      318 |      318 |       2.49 | *
    |    1214K |        - |      317 |      317 |       2.49 | *
    |    1215K |        - |      316 |      316 |       2.49 | *
    |    1240K |        - |      315 |      315 |       2.52 | *
    |    1264K |        - |      314 |      314 |       2.53 | *
    |    1278K |        - |      313 |      313 |       2.55 | *
    |    1279K |        - |      311 |      311 |       2.55 | *
    |    1293K |        - |      310 |      310 |       2.56 | *
    |    1295K |        - |      309 |      309 |       2.56 | *
    |    1815K |        - |      308 |      308 |       3.01 | *
    |    1822K |        - |      307 |      307 |       3.02 | *
    |    1830K |        - |      306 |      306 |       3.03 | *
    |    1877K |        - |      304 |      304 |       3.07 | *
    |    2095K |        - |      303 |      303 |       3.26 | *
    |    2095K |        - |      302 |      302 |       3.26 | *
    |    2173K |        - |      301 |      301 |       3.35 | *
    |    2194K |        - |      300 |      300 |       3.38 | *
    |    2207K |        - |      299 |      299 |       3.39 | *
    |    2219K |        - |      298 |      298 |       3.40 | *
    |    2219K |        - |      296 |      296 |       3.40 | *
    |    2497K |        - |      295 |      295 |       3.74 | *
    |    2548K |        - |      294 |      294 |       3.81 | *
    |    2914K |        - |      293 |      293 |       4.31 | *
    |    3174K |        - |      292 |      292 |       4.55 | *
    |    3216K |        - |      291 |      291 |       4.59 | *
    |    3221K |        - |      290 |      290 |       4.60 | *
    |    3629K |        - |      289 |      289 |       4.98 | *
    |    3644K |        - |      288 |      288 |       5.00 | *
    |    3668K |        - |      287 |      287 |       5.02 | *
    |    3676K |        - |      286 |      286 |       5.02 | *
    |    3677K |        - |      285 |      285 |       5.03 | *
    |    3683K |        - |      284 |      284 |       5.03 | *
    |    3899K |        - |      283 |      283 |       5.24 | *
    |    3962K |        - |      282 |      282 |       5.30 | *
    |    3962K |        - |      281 |      281 |       5.30 | *
    |    4237K |        - |      280 |      280 |       5.53 | *
    |    7470K |        - |      279 |      279 |       9.40 | *
    |    7470K |        - |      277 |      277 |       9.40 | *
    |    7470K |        - |      276 |      276 |       9.40 | *
    |    7787K |        - |      275 |      275 |       9.88 | *
    |    7809K |        - |      274 |      274 |       9.91 | *
    |    7860K |        - |      273 |      273 |       9.99 | *
    |    7860K |        - |      272 |      272 |       9.99 | *
    |      12M |        - |      271 |      271 |      13.65 | *
    |      12M |        - |      270 |      270 |      13.78 | *
    |      12M |        - |      269 |      269 |      13.85 | *
    |      12M |        - |      268 |      268 |      13.85 | *
    |      12M |        - |      267 |      267 |      13.88 | *
    |      13M |        - |      266 |      266 |      14.31 | *
    |      13M |        - |      265 |      265 |      14.35 | *
    |      13M |        - |      264 |      264 |      14.35 | *
    |      13M |        - |      263 |      263 |      14.36 | *
    |      13M |        - |      262 |      262 |      14.36 | *
    |      19M |        - |      261 |      261 |      19.54 | *
    |      21M |        - |      260 |      260 |      21.21 | *
    |      21M |        - |      259 |      259 |      21.22 | *
    |      21M |        - |      258 |      258 |      21.22 | *
    |      58M |        - |      257 |      257 |      50.66 | *
    |      59M |        - |      256 |      256 |      51.49 | *
    |      61M |        - |      255 |      255 |      53.61 | *
    |      95M |        - |      254 |      254 |      80.66 | *
    |     274M |        - |      253 |      253 |     225.80 | *
    |     303M |        - |      252 |      252 |     249.00 | *
    |     303M |        - |      251 |      251 |     249.26 | *
    |     303M |        - |      250 |      250 |     249.42 | *
    |     304M |        - |      249 |      249 |     249.80 | *
    |     304M |        - |      248 |      248 |     249.87 | *
    |     304M |        - |      247 |      247 |     250.16 | *
    |     304M |        - |      246 |      246 |     250.16 | *
    |     305M |        - |      245 |      245 |     250.47 | *
    |     875M |        - |      244 |      244 |     710.80 | *
    |    1163M |        - |      243 |      243 |     945.30 | *
    |    1180M |        - |      242 |      242 |     958.84 | *
    |    1343M |        - |      241 |      241 |    1088.71 | *
    |    1581M |        - |      240 |      240 |    1284.16 | *
    |    1581M |        - |      239 |      239 |    1284.16 | *
    \--------------------------------------------------------/

Neighborhoods statistics (values in %):

    /----------------------------------------------------------------\
    | Move               | Improvs. | Sideways |  Accepts |  Rejects |
    |--------------------|----------|----------|----------|----------|
    | Shift(mk)          |     3828 |      30K |      35K |     187M |
    | Shift              |      277 |     209K |     213K |     187M |
    | ShiftSmart(mk)     |      57K |     462K |     533K |     187M |
    | ShiftSmart         |     3853 |    3058K |    3106K |     184M |
    | SimpSwap(mk)       |       24 |       13 |       39 |     187M |
    | SimpSwap           |        6 |      126 |      148 |     187M |
    | SimpSwapSmart(mk)  |      257 |      274 |      603 |     187M |
    | SimpSwapSmart      |       34 |     2032 |     2298 |     187M |
    | Swap(mk)           |        5 |       35 |       42 |     187M |
    | Swap               |        0 |       49 |       50 |     187M |
    | SwapSmart(mk)      |      232 |     8063 |     8370 |     187M |
    | SwapSmart          |       34 |     8653 |     8848 |     187M |
    | Switch(mk)         |      902 |      12M |      12M |     175M |
    | Switch             |       59 |      12M |      12M |     176M |
    | SwitchSmart(mk)    |      12K |     219K |     236K |     187M |
    | SwitchSmart        |      810 |    2492K |    2502K |     185M |
    | TaskMove(mk)       |      232 |      893 |     1203 |     187M |
    | TaskMove           |       18 |     2069 |     2210 |     187M |
    | TaskMoveSmart(mk)  |     3468 |      16K |      21K |     187M |
    | TaskMoveSmart      |      314 |      32K |      34K |     187M |
    | 2-Shift(mk)        |      646 |     865K |     866K |     186M |
    | 2-Shift            |       37 |     793K |     793K |     187M |
    | 2-ShiftSmart(mk)   |     7994 |    1310K |    1320K |     186M |
    | 2-ShiftSmart       |      529 |    1590K |    1596K |     186M |
    \----------------------------------------------------------------/

Best makespan.....: 239
N. of Iterations..: 4493996678
Total runtime.....: 3600.01s
Using Python-MIP package version 1.6.8
Começo a execução
    /-------------------------------------------------------------------------------\
    |    Makespan   |   Free Jobs   | Free Machines |    It. Time   |   Total Time  | 
    |-------------------------------------------------------------------------------|
    \-------------------------------------------------------------------------------/
Terminou a execução
