Instance....: instances/I_250_10_S_1-9_10.txt
Algorithm...: Simulated Annealing (alpha=0.990, saMax=10M, t0=1)
Other params: maxIters=100M, seed=-1, timeLimit=3600.00s

    /--------------------------------------------------------\
    |     Iter |   RDP(%) |       S* |       S' |       Time | 
    |----------|----------|----------|----------|------------|
    |        0 |        - |     1692 |     1692 |       0.01 | s0
    |        3 |        - |     1679 |     1679 |       0.01 | *
    |        5 |        - |     1670 |     1670 |       0.01 | *
    |       10 |        - |     1661 |     1661 |       0.03 | *
    |       14 |        - |     1622 |     1622 |       0.03 | *
    |       16 |        - |     1610 |     1610 |       0.03 | *
    |       17 |        - |     1591 |     1591 |       0.03 | *
    |       21 |        - |     1590 |     1590 |       0.03 | *
    |       22 |        - |     1530 |     1530 |       0.03 | *
    |       28 |        - |     1528 |     1528 |       0.04 | *
    |       29 |        - |     1515 |     1515 |       0.04 | *
    |       33 |        - |     1506 |     1506 |       0.04 | *
    |       36 |        - |     1502 |     1502 |       0.04 | *
    |       37 |        - |     1498 |     1498 |       0.04 | *
    |       40 |        - |     1492 |     1492 |       0.04 | *
    |       45 |        - |     1484 |     1484 |       0.04 | *
    |       46 |        - |     1474 |     1474 |       0.04 | *
    |       50 |        - |     1468 |     1468 |       0.04 | *
    |       53 |        - |     1437 |     1437 |       0.04 | *
    |       56 |        - |     1418 |     1418 |       0.05 | *
    |       59 |        - |     1416 |     1416 |       0.05 | *
    |       61 |        - |     1411 |     1411 |       0.05 | *
    |       65 |        - |     1406 |     1406 |       0.05 | *
    |       68 |        - |     1403 |     1403 |       0.05 | *
    |       75 |        - |     1401 |     1401 |       0.05 | *
    |       76 |        - |     1400 |     1400 |       0.05 | *
    |       78 |        - |     1398 |     1398 |       0.05 | *
    |       80 |        - |     1379 |     1379 |       0.05 | *
    |       81 |        - |     1377 |     1377 |       0.05 | *
    |       86 |        - |     1370 |     1370 |       0.05 | *
    |       92 |        - |     1364 |     1364 |       0.05 | *
    |      101 |        - |     1357 |     1357 |       0.05 | *
    |      108 |        - |     1351 |     1351 |       0.05 | *
    |      109 |        - |     1347 |     1347 |       0.05 | *
    |      114 |        - |     1345 |     1345 |       0.06 | *
    |      115 |        - |     1344 |     1344 |       0.06 | *
    |      129 |        - |     1343 |     1343 |       0.06 | *
    |      130 |        - |     1337 |     1337 |       0.06 | *
    |      134 |        - |     1336 |     1336 |       0.06 | *
    |      135 |        - |     1332 |     1332 |       0.06 | *
    |      140 |        - |     1329 |     1329 |       0.06 | *
    |      144 |        - |     1323 |     1323 |       0.06 | *
    |      145 |        - |     1310 |     1310 |       0.06 | *
    |      146 |        - |     1305 |     1305 |       0.06 | *
    |      158 |        - |     1303 |     1303 |       0.06 | *
    |      163 |        - |     1299 |     1299 |       0.06 | *
    |      164 |        - |     1298 |     1298 |       0.07 | *
    |      165 |        - |     1297 |     1297 |       0.07 | *
    |      167 |        - |     1284 |     1284 |       0.07 | *
    |      169 |        - |     1283 |     1283 |       0.07 | *
    |      170 |        - |     1282 |     1282 |       0.07 | *
    |      180 |        - |     1273 |     1273 |       0.07 | *
    |      190 |        - |     1269 |     1269 |       0.07 | *
    |      193 |        - |     1264 |     1264 |       0.07 | *
    |      194 |        - |     1262 |     1262 |       0.07 | *
    |      197 |        - |     1260 |     1260 |       0.07 | *
    |      199 |        - |     1256 |     1256 |       0.07 | *
    |      200 |        - |     1255 |     1255 |       0.07 | *
    |      201 |        - |     1251 |     1251 |       0.07 | *
    |      203 |        - |     1249 |     1249 |       0.07 | *
    |      215 |        - |     1240 |     1240 |       0.07 | *
    |      217 |        - |     1223 |     1223 |       0.07 | *
    |      219 |        - |     1209 |     1209 |       0.07 | *
    |      222 |        - |     1207 |     1207 |       0.08 | *
    |      224 |        - |     1198 |     1198 |       0.08 | *
    |      237 |        - |     1196 |     1196 |       0.08 | *
    |      241 |        - |     1190 |     1190 |       0.08 | *
    |      242 |        - |     1188 |     1188 |       0.08 | *
    |      244 |        - |     1184 |     1184 |       0.08 | *
    |      246 |        - |     1183 |     1183 |       0.08 | *
    |      253 |        - |     1182 |     1182 |       0.08 | *
    |      254 |        - |     1179 |     1179 |       0.08 | *
    |      256 |        - |     1171 |     1171 |       0.08 | *
    |      257 |        - |     1167 |     1167 |       0.08 | *
    |      262 |        - |     1166 |     1166 |       0.08 | *
    |      266 |        - |     1162 |     1162 |       0.08 | *
    |      269 |        - |     1159 |     1159 |       0.08 | *
    |      274 |        - |     1156 |     1156 |       0.08 | *
    |      284 |        - |     1144 |     1144 |       0.08 | *
    |      285 |        - |     1142 |     1142 |       0.08 | *
    |      289 |        - |     1137 |     1137 |       0.09 | *
    |      294 |        - |     1127 |     1127 |       0.09 | *
    |      296 |        - |     1124 |     1124 |       0.09 | *
    |      299 |        - |     1120 |     1120 |       0.09 | *
    |      313 |        - |     1119 |     1119 |       0.09 | *
    |      318 |        - |     1114 |     1114 |       0.09 | *
    |      325 |        - |     1113 |     1113 |       0.09 | *
    |      332 |        - |     1112 |     1112 |       0.09 | *
    |      333 |        - |     1108 |     1108 |       0.09 | *
    |      334 |        - |     1103 |     1103 |       0.09 | *
    |      337 |        - |     1099 |     1099 |       0.09 | *
    |      343 |        - |     1087 |     1087 |       0.09 | *
    |      351 |        - |     1083 |     1083 |       0.09 | *
    |      354 |        - |     1079 |     1079 |       0.09 | *
    |      364 |        - |     1074 |     1074 |       0.09 | *
    |      367 |        - |     1073 |     1073 |       0.09 | *
    |      369 |        - |     1072 |     1072 |       0.09 | *
    |      371 |        - |     1071 |     1071 |       0.09 | *
    |      378 |        - |     1062 |     1062 |       0.10 | *
    |      379 |        - |     1058 |     1058 |       0.10 | *
    |      384 |        - |     1056 |     1056 |       0.10 | *
    |      390 |        - |     1048 |     1048 |       0.10 | *
    |      392 |        - |     1047 |     1047 |       0.10 | *
    |      408 |        - |     1045 |     1045 |       0.10 | *
    |      414 |        - |     1042 |     1042 |       0.10 | *
    |      415 |        - |     1038 |     1038 |       0.10 | *
    |      419 |        - |     1036 |     1036 |       0.10 | *
    |      426 |        - |     1033 |     1033 |       0.10 | *
    |      427 |        - |     1028 |     1028 |       0.10 | *
    |      429 |        - |     1026 |     1026 |       0.10 | *
    |      432 |        - |     1021 |     1021 |       0.10 | *
    |      447 |        - |     1019 |     1019 |       0.10 | *
    |      452 |        - |     1018 |     1018 |       0.10 | *
    |      454 |        - |     1015 |     1015 |       0.11 | *
    |      456 |        - |     1011 |     1011 |       0.11 | *
    |      460 |        - |     1005 |     1005 |       0.11 | *
    |      461 |        - |     1004 |     1004 |       0.11 | *
    |      477 |        - |      997 |      997 |       0.11 | *
    |      478 |        - |      995 |      995 |       0.11 | *
    |      480 |        - |      994 |      994 |       0.11 | *
    |      499 |        - |      992 |      992 |       0.11 | *
    |      504 |        - |      991 |      991 |       0.11 | *
    |      511 |        - |      984 |      984 |       0.11 | *
    |      532 |        - |      979 |      979 |       0.11 | *
    |      542 |        - |      977 |      977 |       0.11 | *
    |      545 |        - |      976 |      976 |       0.11 | *
    |      567 |        - |      975 |      975 |       0.11 | *
    |      586 |        - |      974 |      974 |       0.11 | *
    |      595 |        - |      971 |      971 |       0.11 | *
    |      596 |        - |      967 |      967 |       0.11 | *
    |      600 |        - |      957 |      957 |       0.11 | *
    |      605 |        - |      956 |      956 |       0.12 | *
    |      609 |        - |      954 |      954 |       0.12 | *
    |      617 |        - |      953 |      953 |       0.12 | *
    |      624 |        - |      950 |      950 |       0.12 | *
    |      632 |        - |      945 |      945 |       0.12 | *
    |      633 |        - |      939 |      939 |       0.12 | *
    |      638 |        - |      936 |      936 |       0.12 | *
    |      644 |        - |      931 |      931 |       0.12 | *
    |      655 |        - |      928 |      928 |       0.12 | *
    |      665 |        - |      925 |      925 |       0.12 | *
    |      666 |        - |      922 |      922 |       0.12 | *
    |      678 |        - |      918 |      918 |       0.12 | *
    |      695 |        - |      917 |      917 |       0.12 | *
    |      700 |        - |      916 |      916 |       0.13 | *
    |      720 |        - |      913 |      913 |       0.13 | *
    |      724 |        - |      912 |      912 |       0.13 | *
    |      732 |        - |      910 |      910 |       0.13 | *
    |      736 |        - |      908 |      908 |       0.13 | *
    |      739 |        - |      907 |      907 |       0.13 | *
    |      744 |        - |      904 |      904 |       0.13 | *
    |      746 |        - |      902 |      902 |       0.13 | *
    |      750 |        - |      899 |      899 |       0.13 | *
    |      751 |        - |      895 |      895 |       0.13 | *
    |      758 |        - |      892 |      892 |       0.13 | *
    |      768 |        - |      888 |      888 |       0.13 | *
    |      772 |        - |      887 |      887 |       0.13 | *
    |      791 |        - |      881 |      881 |       0.13 | *
    |      798 |        - |      880 |      880 |       0.14 | *
    |      805 |        - |      879 |      879 |       0.14 | *
    |      814 |        - |      876 |      876 |       0.14 | *
    |      816 |        - |      875 |      875 |       0.14 | *
    |      817 |        - |      873 |      873 |       0.14 | *
    |      818 |        - |      871 |      871 |       0.14 | *
    |      823 |        - |      867 |      867 |       0.14 | *
    |      835 |        - |      866 |      866 |       0.14 | *
    |      847 |        - |      865 |      865 |       0.14 | *
    |      855 |        - |      863 |      863 |       0.14 | *
    |      857 |        - |      862 |      862 |       0.14 | *
    |      858 |        - |      861 |      861 |       0.14 | *
    |      861 |        - |      859 |      859 |       0.14 | *
    |      883 |        - |      858 |      858 |       0.14 | *
    |      886 |        - |      857 |      857 |       0.15 | *
    |      891 |        - |      856 |      856 |       0.15 | *
    |      908 |        - |      855 |      855 |       0.15 | *
    |      912 |        - |      854 |      854 |       0.15 | *
    |      917 |        - |      852 |      852 |       0.15 | *
    |      926 |        - |      849 |      849 |       0.15 | *
    |      945 |        - |      847 |      847 |       0.15 | *
    |      950 |        - |      845 |      845 |       0.15 | *
    |      951 |        - |      844 |      844 |       0.15 | *
    |      963 |        - |      843 |      843 |       0.15 | *
    |      971 |        - |      841 |      841 |       0.15 | *
    |      981 |        - |      835 |      835 |       0.15 | *
    |      987 |        - |      831 |      831 |       0.15 | *
    |      998 |        - |      828 |      828 |       0.15 | *
    |     1011 |        - |      827 |      827 |       0.15 | *
    |     1026 |        - |      825 |      825 |       0.15 | *
    |     1030 |        - |      824 |      824 |       0.16 | *
    |     1045 |        - |      822 |      822 |       0.16 | *
    |     1052 |        - |      821 |      821 |       0.16 | *
    |     1056 |        - |      819 |      819 |       0.16 | *
    |     1059 |        - |      816 |      816 |       0.16 | *
    |     1060 |        - |      815 |      815 |       0.16 | *
    |     1064 |        - |      814 |      814 |       0.16 | *
    |     1095 |        - |      811 |      811 |       0.16 | *
    |     1096 |        - |      808 |      808 |       0.16 | *
    |     1101 |        - |      807 |      807 |       0.16 | *
    |     1105 |        - |      806 |      806 |       0.16 | *
    |     1107 |        - |      802 |      802 |       0.16 | *
    |     1114 |        - |      798 |      798 |       0.16 | *
    |     1141 |        - |      797 |      797 |       0.16 | *
    |     1174 |        - |      795 |      795 |       0.16 | *
    |     1181 |        - |      791 |      791 |       0.17 | *
    |     1186 |        - |      790 |      790 |       0.17 | *
    |     1187 |        - |      788 |      788 |       0.17 | *
    |     1192 |        - |      787 |      787 |       0.17 | *
    |     1206 |        - |      786 |      786 |       0.17 | *
    |     1221 |        - |      785 |      785 |       0.17 | *
    |     1230 |        - |      782 |      782 |       0.17 | *
    |     1233 |        - |      780 |      780 |       0.17 | *
    |     1236 |        - |      778 |      778 |       0.17 | *
    |     1240 |        - |      777 |      777 |       0.17 | *
    |     1253 |        - |      771 |      771 |       0.17 | *
    |     1259 |        - |      770 |      770 |       0.17 | *
    |     1261 |        - |      764 |      764 |       0.17 | *
    |     1262 |        - |      762 |      762 |       0.17 | *
    |     1263 |        - |      760 |      760 |       0.17 | *
    |     1268 |        - |      758 |      758 |       0.17 | *
    |     1275 |        - |      752 |      752 |       0.17 | *
    |     1290 |        - |      749 |      749 |       0.17 | *
    |     1329 |        - |      748 |      748 |       0.17 | *
    |     1334 |        - |      747 |      747 |       0.18 | *
    |     1341 |        - |      746 |      746 |       0.18 | *
    |     1349 |        - |      745 |      745 |       0.18 | *
    |     1362 |        - |      744 |      744 |       0.18 | *
    |     1375 |        - |      743 |      743 |       0.18 | *
    |     1392 |        - |      741 |      741 |       0.18 | *
    |     1409 |        - |      738 |      738 |       0.18 | *
    |     1416 |        - |      735 |      735 |       0.18 | *
    |     1425 |        - |      734 |      734 |       0.18 | *
    |     1427 |        - |      732 |      732 |       0.18 | *
    |     1428 |        - |      730 |      730 |       0.18 | *
    |     1455 |        - |      727 |      727 |       0.18 | *
    |     1465 |        - |      726 |      726 |       0.18 | *
    |     1471 |        - |      723 |      723 |       0.18 | *
    |     1489 |        - |      722 |      722 |       0.18 | *
    |     1491 |        - |      721 |      721 |       0.18 | *
    |     1504 |        - |      720 |      720 |       0.18 | *
    |     1511 |        - |      718 |      718 |       0.18 | *
    |     1517 |        - |      715 |      715 |       0.19 | *
    |     1522 |        - |      713 |      713 |       0.19 | *
    |     1524 |        - |      709 |      709 |       0.19 | *
    |     1528 |        - |      706 |      706 |       0.19 | *
    |     1550 |        - |      705 |      705 |       0.19 | *
    |     1552 |        - |      704 |      704 |       0.19 | *
    |     1555 |        - |      703 |      703 |       0.19 | *
    |     1604 |        - |      697 |      697 |       0.19 | *
    |     1612 |        - |      695 |      695 |       0.19 | *
    |     1630 |        - |      694 |      694 |       0.19 | *
    |     1641 |        - |      692 |      692 |       0.19 | *
    |     1653 |        - |      691 |      691 |       0.19 | *
    |     1662 |        - |      690 |      690 |       0.19 | *
    |     1663 |        - |      688 |      688 |       0.19 | *
    |     1722 |        - |      687 |      687 |       0.20 | *
    |     1734 |        - |      683 |      683 |       0.20 | *
    |     1738 |        - |      681 |      681 |       0.20 | *
    |     1745 |        - |      680 |      680 |       0.20 | *
    |     1747 |        - |      679 |      679 |       0.20 | *
    |     1756 |        - |      677 |      677 |       0.20 | *
    |     1757 |        - |      676 |      676 |       0.20 | *
    |     1763 |        - |      675 |      675 |       0.20 | *
    |     1773 |        - |      674 |      674 |       0.20 | *
    |     1794 |        - |      672 |      672 |       0.20 | *
    |     1804 |        - |      669 |      669 |       0.20 | *
    |     1888 |        - |      664 |      664 |       0.20 | *
    |     1907 |        - |      660 |      660 |       0.20 | *
    |     1910 |        - |      657 |      657 |       0.20 | *
    |     1920 |        - |      656 |      656 |       0.20 | *
    |     1945 |        - |      655 |      655 |       0.20 | *
    |     1958 |        - |      654 |      654 |       0.20 | *
    |     1959 |        - |      652 |      652 |       0.20 | *
    |     2025 |        - |      648 |      648 |       0.21 | *
    |     2041 |        - |      646 |      646 |       0.21 | *
    |     2044 |        - |      645 |      645 |       0.21 | *
    |     2049 |        - |      641 |      641 |       0.21 | *
    |     2065 |        - |      640 |      640 |       0.21 | *
    |     2066 |        - |      638 |      638 |       0.21 | *
    |     2072 |        - |      630 |      630 |       0.21 | *
    |     2085 |        - |      628 |      628 |       0.21 | *
    |     2098 |        - |      627 |      627 |       0.21 | *
    |     2104 |        - |      626 |      626 |       0.21 | *
    |     2110 |        - |      624 |      624 |       0.21 | *
    |     2119 |        - |      622 |      622 |       0.21 | *
    |     2125 |        - |      621 |      621 |       0.21 | *
    |     2132 |        - |      620 |      620 |       0.21 | *
    |     2179 |        - |      619 |      619 |       0.21 | *
    |     2185 |        - |      618 |      618 |       0.21 | *
    |     2257 |        - |      616 |      616 |       0.21 | *
    |     2264 |        - |      614 |      614 |       0.21 | *
    |     2286 |        - |      613 |      613 |       0.21 | *
    |     2291 |        - |      612 |      612 |       0.21 | *
    |     2303 |        - |      610 |      610 |       0.21 | *
    |     2311 |        - |      608 |      608 |       0.21 | *
    |     2314 |        - |      606 |      606 |       0.21 | *
    |     2318 |        - |      605 |      605 |       0.22 | *
    |     2326 |        - |      604 |      604 |       0.22 | *
    |     2364 |        - |      600 |      600 |       0.22 | *
    |     2443 |        - |      598 |      598 |       0.22 | *
    |     2500 |        - |      596 |      596 |       0.22 | *
    |     2516 |        - |      594 |      594 |       0.22 | *
    |     2517 |        - |      593 |      593 |       0.22 | *
    |     2531 |        - |      592 |      592 |       0.22 | *
    |     2564 |        - |      591 |      591 |       0.22 | *
    |     2568 |        - |      590 |      590 |       0.22 | *
    |     2584 |        - |      589 |      589 |       0.22 | *
    |     2601 |        - |      588 |      588 |       0.22 | *
    |     2602 |        - |      587 |      587 |       0.22 | *
    |     2617 |        - |      586 |      586 |       0.22 | *
    |     2663 |        - |      584 |      584 |       0.22 | *
    |     2687 |        - |      583 |      583 |       0.22 | *
    |     2724 |        - |      580 |      580 |       0.22 | *
    |     2742 |        - |      579 |      579 |       0.22 | *
    |     2752 |        - |      578 |      578 |       0.22 | *
    |     2777 |        - |      577 |      577 |       0.22 | *
    |     2782 |        - |      576 |      576 |       0.22 | *
    |     2788 |        - |      575 |      575 |       0.22 | *
    |     2795 |        - |      574 |      574 |       0.22 | *
    |     2823 |        - |      573 |      573 |       0.22 | *
    |     2826 |        - |      572 |      572 |       0.22 | *
    |     2855 |        - |      571 |      571 |       0.22 | *
    |     2868 |        - |      569 |      569 |       0.23 | *
    |     2873 |        - |      568 |      568 |       0.23 | *
    |     2879 |        - |      567 |      567 |       0.23 | *
    |     2884 |        - |      565 |      565 |       0.23 | *
    |     2899 |        - |      563 |      563 |       0.23 | *
    |     2926 |        - |      562 |      562 |       0.23 | *
    |     2930 |        - |      561 |      561 |       0.23 | *
    |     2931 |        - |      560 |      560 |       0.23 | *
    |     2957 |        - |      559 |      559 |       0.23 | *
    |     2960 |        - |      558 |      558 |       0.23 | *
    |     2966 |        - |      557 |      557 |       0.23 | *
    |     2967 |        - |      556 |      556 |       0.23 | *
    |     2991 |        - |      555 |      555 |       0.23 | *
    |     2997 |        - |      553 |      553 |       0.23 | *
    |     3018 |        - |      551 |      551 |       0.23 | *
    |     3036 |        - |      550 |      550 |       0.23 | *
    |     3058 |        - |      549 |      549 |       0.23 | *
    |     3078 |        - |      547 |      547 |       0.23 | *
    |     3143 |        - |      546 |      546 |       0.23 | *
    |     3364 |        - |      545 |      545 |       0.23 | *
    |     3395 |        - |      541 |      541 |       0.24 | *
    |     3400 |        - |      538 |      538 |       0.24 | *
    |     3401 |        - |      536 |      536 |       0.24 | *
    |     3424 |        - |      534 |      534 |       0.24 | *
    |     3451 |        - |      533 |      533 |       0.24 | *
    |     3458 |        - |      532 |      532 |       0.24 | *
    |     3460 |        - |      529 |      529 |       0.24 | *
    |     3463 |        - |      527 |      527 |       0.24 | *
    |     3477 |        - |      526 |      526 |       0.24 | *
    |     3560 |        - |      524 |      524 |       0.24 | *
    |     3561 |        - |      522 |      522 |       0.24 | *
    |     3579 |        - |      521 |      521 |       0.24 | *
    |     3597 |        - |      520 |      520 |       0.24 | *
    |     3599 |        - |      518 |      518 |       0.24 | *
    |     3693 |        - |      517 |      517 |       0.24 | *
    |     3729 |        - |      516 |      516 |       0.25 | *
    |     3754 |        - |      513 |      513 |       0.25 | *
    |     3777 |        - |      511 |      511 |       0.25 | *
    |     3784 |        - |      510 |      510 |       0.25 | *
    |     3788 |        - |      509 |      509 |       0.25 | *
    |     3799 |        - |      508 |      508 |       0.25 | *
    |     3859 |        - |      507 |      507 |       0.25 | *
    |     3862 |        - |      506 |      506 |       0.25 | *
    |     3869 |        - |      504 |      504 |       0.25 | *
    |     3872 |        - |      503 |      503 |       0.25 | *
    |     3878 |        - |      502 |      502 |       0.25 | *
    |     3892 |        - |      501 |      501 |       0.25 | *
    |     3898 |        - |      500 |      500 |       0.25 | *
    |     3932 |        - |      499 |      499 |       0.25 | *
    |     3972 |        - |      498 |      498 |       0.25 | *
    |     3980 |        - |      497 |      497 |       0.25 | *
    |     3984 |        - |      496 |      496 |       0.25 | *
    |     4107 |        - |      495 |      495 |       0.25 | *
    |     4129 |        - |      494 |      494 |       0.26 | *
    |     4158 |        - |      493 |      493 |       0.26 | *
    |     4170 |        - |      492 |      492 |       0.26 | *
    |     4220 |        - |      491 |      491 |       0.26 | *
    |     4224 |        - |      490 |      490 |       0.26 | *
    |     4230 |        - |      489 |      489 |       0.26 | *
    |     4232 |        - |      488 |      488 |       0.26 | *
    |     4251 |        - |      487 |      487 |       0.26 | *
    |     4273 |        - |      486 |      486 |       0.26 | *
    |     4292 |        - |      485 |      485 |       0.26 | *
    |     4300 |        - |      484 |      484 |       0.26 | *
    |     4426 |        - |      482 |      482 |       0.26 | *
    |     4432 |        - |      481 |      481 |       0.26 | *
    |     4492 |        - |      480 |      480 |       0.26 | *
    |     4538 |        - |      479 |      479 |       0.26 | *
    |     4548 |        - |      478 |      478 |       0.26 | *
    |     4551 |        - |      477 |      477 |       0.26 | *
    |     4559 |        - |      476 |      476 |       0.27 | *
    |     4580 |        - |      475 |      475 |       0.27 | *
    |     4601 |        - |      474 |      474 |       0.27 | *
    |     4765 |        - |      473 |      473 |       0.27 | *
    |     4812 |        - |      472 |      472 |       0.27 | *
    |     4917 |        - |      470 |      470 |       0.27 | *
    |     4957 |        - |      469 |      469 |       0.27 | *
    |     5545 |        - |      467 |      467 |       0.27 | *
    |     5573 |        - |      465 |      465 |       0.27 | *
    |     5599 |        - |      464 |      464 |       0.27 | *
    |     5601 |        - |      463 |      463 |       0.27 | *
    |     5603 |        - |      461 |      461 |       0.27 | *
    |     5643 |        - |      459 |      459 |       0.27 | *
    |     5674 |        - |      456 |      456 |       0.27 | *
    |     5705 |        - |      455 |      455 |       0.28 | *
    |     5734 |        - |      454 |      454 |       0.28 | *
    |     5774 |        - |      451 |      451 |       0.28 | *
    |     5783 |        - |      449 |      449 |       0.28 | *
    |     5791 |        - |      447 |      447 |       0.28 | *
    |     5847 |        - |      446 |      446 |       0.28 | *
    |     5865 |        - |      445 |      445 |       0.28 | *
    |     5912 |        - |      444 |      444 |       0.28 | *
    |     5916 |        - |      440 |      440 |       0.28 | *
    |     5924 |        - |      439 |      439 |       0.28 | *
    |     5960 |        - |      438 |      438 |       0.28 | *
    |     5971 |        - |      437 |      437 |       0.28 | *
    |     6081 |        - |      436 |      436 |       0.28 | *
    |     6095 |        - |      435 |      435 |       0.28 | *
    |     6100 |        - |      434 |      434 |       0.28 | *
    |     6138 |        - |      433 |      433 |       0.28 | *
    |     6309 |        - |      430 |      430 |       0.29 | *
    |     6337 |        - |      429 |      429 |       0.29 | *
    |     6482 |        - |      427 |      427 |       0.29 | *
    |     6516 |        - |      426 |      426 |       0.29 | *
    |     6531 |        - |      425 |      425 |       0.29 | *
    |     6560 |        - |      424 |      424 |       0.29 | *
    |     6565 |        - |      423 |      423 |       0.29 | *
    |     6584 |        - |      422 |      422 |       0.29 | *
    |     6593 |        - |      421 |      421 |       0.29 | *
    |     6619 |        - |      419 |      419 |       0.29 | *
    |     6639 |        - |      418 |      418 |       0.29 | *
    |     6692 |        - |      417 |      417 |       0.29 | *
    |     6698 |        - |      416 |      416 |       0.29 | *
    |     6710 |        - |      415 |      415 |       0.29 | *
    |     6713 |        - |      414 |      414 |       0.29 | *
    |     6900 |        - |      413 |      413 |       0.29 | *
    |     6946 |        - |      412 |      412 |       0.29 | *
    |     6981 |        - |      411 |      411 |       0.30 | *
    |     7021 |        - |      410 |      410 |       0.30 | *
    |     7068 |        - |      409 |      409 |       0.30 | *
    |     7274 |        - |      408 |      408 |       0.30 | *
    |     7362 |        - |      407 |      407 |       0.30 | *
    |     7369 |        - |      406 |      406 |       0.30 | *
    |     7394 |        - |      405 |      405 |       0.30 | *
    |     7410 |        - |      403 |      403 |       0.30 | *
    |     7533 |        - |      402 |      402 |       0.30 | *
    |     7565 |        - |      400 |      400 |       0.30 | *
    |     7567 |        - |      399 |      399 |       0.30 | *
    |     7571 |        - |      398 |      398 |       0.30 | *
    |     7621 |        - |      397 |      397 |       0.30 | *
    |     7644 |        - |      396 |      396 |       0.30 | *
    |     7656 |        - |      395 |      395 |       0.31 | *
    |     7696 |        - |      394 |      394 |       0.31 | *
    |     7808 |        - |      393 |      393 |       0.31 | *
    |     8002 |        - |      392 |      392 |       0.31 | *
    |     8359 |        - |      391 |      391 |       0.31 | *
    |     8423 |        - |      390 |      390 |       0.31 | *
    |     8430 |        - |      388 |      388 |       0.31 | *
    |     8465 |        - |      387 |      387 |       0.31 | *
    |     8690 |        - |      386 |      386 |       0.31 | *
    |     9235 |        - |      385 |      385 |       0.32 | *
    |     9285 |        - |      384 |      384 |       0.32 | *
    |     9286 |        - |      383 |      383 |       0.32 | *
    |     9288 |        - |      382 |      382 |       0.32 | *
    |     9301 |        - |      381 |      381 |       0.32 | *
    |     9394 |        - |      380 |      380 |       0.32 | *
    |     9480 |        - |      379 |      379 |       0.32 | *
    |     9490 |        - |      378 |      378 |       0.32 | *
    |     9505 |        - |      376 |      376 |       0.32 | *
    |     9745 |        - |      375 |      375 |       0.32 | *
    |      10K |        - |      374 |      374 |       0.32 | *
    |      10K |        - |      373 |      373 |       0.33 | *
    |      11K |        - |      372 |      372 |       0.33 | *
    |      11K |        - |      371 |      371 |       0.33 | *
    |      11K |        - |      370 |      370 |       0.33 | *
    |      12K |        - |      369 |      369 |       0.33 | *
    |      12K |        - |      368 |      368 |       0.33 | *
    |      12K |        - |      367 |      367 |       0.33 | *
    |      12K |        - |      366 |      366 |       0.33 | *
    |      12K |        - |      364 |      364 |       0.33 | *
    |      12K |        - |      362 |      362 |       0.33 | *
    |      12K |        - |      361 |      361 |       0.34 | *
    |      12K |        - |      360 |      360 |       0.34 | *
    |      12K |        - |      359 |      359 |       0.34 | *
    |      12K |        - |      358 |      358 |       0.34 | *
    |      12K |        - |      357 |      357 |       0.34 | *
    |      14K |        - |      355 |      355 |       0.34 | *
    |      14K |        - |      354 |      354 |       0.35 | *
    |      14K |        - |      353 |      353 |       0.35 | *
    |      14K |        - |      352 |      352 |       0.35 | *
    |      14K |        - |      351 |      351 |       0.35 | *
    |      14K |        - |      350 |      350 |       0.35 | *
    |      14K |        - |      349 |      349 |       0.35 | *
    |      15K |        - |      348 |      348 |       0.35 | *
    |      15K |        - |      347 |      347 |       0.35 | *
    |      16K |        - |      346 |      346 |       0.36 | *
    |      17K |        - |      345 |      345 |       0.36 | *
    |      18K |        - |      344 |      344 |       0.37 | *
    |      18K |        - |      343 |      343 |       0.37 | *
    |      19K |        - |      342 |      342 |       0.37 | *
    |      19K |        - |      341 |      341 |       0.37 | *
    |      20K |        - |      340 |      340 |       0.37 | *
    |      20K |        - |      338 |      338 |       0.37 | *
    |      20K |        - |      337 |      337 |       0.37 | *
    |      20K |        - |      336 |      336 |       0.38 | *
    |      20K |        - |      335 |      335 |       0.38 | *
    |      20K |        - |      334 |      334 |       0.38 | *
    |      21K |        - |      333 |      333 |       0.38 | *
    |      21K |        - |      332 |      332 |       0.38 | *
    |      21K |        - |      331 |      331 |       0.38 | *
    |      21K |        - |      330 |      330 |       0.38 | *
    |      21K |        - |      329 |      329 |       0.38 | *
    |      21K |        - |      328 |      328 |       0.38 | *
    |      22K |        - |      327 |      327 |       0.39 | *
    |      22K |        - |      326 |      326 |       0.39 | *
    |      22K |        - |      325 |      325 |       0.39 | *
    |      26K |        - |      324 |      324 |       0.40 | *
    |      26K |        - |      323 |      323 |       0.40 | *
    |      26K |        - |      321 |      321 |       0.40 | *
    |      26K |        - |      320 |      320 |       0.41 | *
    |      27K |        - |      319 |      319 |       0.41 | *
    |      27K |        - |      318 |      318 |       0.41 | *
    |      27K |        - |      317 |      317 |       0.41 | *
    |      30K |        - |      316 |      316 |       0.42 | *
    |      31K |        - |      315 |      315 |       0.42 | *
    |      31K |        - |      314 |      314 |       0.42 | *
    |      31K |        - |      313 |      313 |       0.43 | *
    |      40K |        - |      312 |      312 |       0.46 | *
    |      40K |        - |      311 |      311 |       0.46 | *
    |      41K |        - |      310 |      310 |       0.46 | *
    |      42K |        - |      309 |      309 |       0.46 | *
    |      49K |        - |      308 |      308 |       0.49 | *
    |      49K |        - |      307 |      307 |       0.49 | *
    |      49K |        - |      306 |      306 |       0.49 | *
    |      50K |        - |      305 |      305 |       0.49 | *
    |      50K |        - |      304 |      304 |       0.49 | *
    |      50K |        - |      303 |      303 |       0.50 | *
    |      74K |        - |      302 |      302 |       0.59 | *
    |      75K |        - |      301 |      301 |       0.59 | *
    |      75K |        - |      300 |      300 |       0.60 | *
    |      75K |        - |      299 |      299 |       0.60 | *
    |      75K |        - |      298 |      298 |       0.60 | *
    |      76K |        - |      297 |      297 |       0.60 | *
    |      76K |        - |      296 |      296 |       0.61 | *
    |      82K |        - |      295 |      295 |       0.63 | *
    |      84K |        - |      294 |      294 |       0.64 | *
    |      85K |        - |      293 |      293 |       0.65 | *
    |      85K |        - |      292 |      292 |       0.65 | *
    |      89K |        - |      291 |      291 |       0.67 | *
    |     143K |        - |      290 |      290 |       0.93 | *
    |     144K |        - |      289 |      289 |       0.94 | *
    |     147K |        - |      288 |      288 |       0.95 | *
    |     147K |        - |      287 |      287 |       0.95 | *
    |     148K |        - |      286 |      286 |       0.96 | *
    |     522K |        - |      284 |      284 |       1.74 | *
    |     538K |        - |      283 |      283 |       1.76 | *
    |     757K |        - |      282 |      282 |       2.01 | *
    |     757K |        - |      281 |      281 |       2.01 | *
    |    1120K |        - |      280 |      280 |       2.34 | *
    |    1137K |        - |      279 |      279 |       2.36 | *
    |    1137K |        - |      278 |      278 |       2.36 | *
    |    1720K |        - |      277 |      277 |       2.86 | *
    |    1721K |        - |      276 |      276 |       2.86 | *
    |    1722K |        - |      275 |      275 |       2.86 | *
    |    2514K |        - |      274 |      274 |       3.55 | *
    |    6337K |        - |      273 |      273 |       7.67 | *
    |    6339K |        - |      272 |      272 |       7.67 | *
    |      30M |        - |      271 |      271 |      32.28 | *
    |      47M |        - |      270 |      270 |      46.78 | *
    |     103M |        - |      269 |      269 |      95.87 | *
    |     159M |        - |      268 |      268 |     143.92 | *
    |     286M |        - |      267 |      267 |     253.37 | *
    |     286M |        - |      266 |      266 |     253.37 | *
    |     312M |        - |      265 |      265 |     275.70 | *
    |     319M |        - |      264 |      264 |     281.84 | *
    |     416M |        - |      263 |      263 |     365.25 | *
    |     484M |        - |      262 |      262 |     423.95 | *
    |     682M |        - |      261 |      261 |     596.04 | *
    |     788M |        - |      260 |      260 |     688.45 | *
    |     789M |        - |      259 |      259 |     689.96 | *
    |     835M |        - |      258 |      258 |     730.00 | *
    |     894M |        - |      257 |      257 |     782.03 | *
    |    1016M |        - |      256 |      256 |     889.87 | *
    |    1530M |        - |      255 |      255 |    1341.80 | *
    |    1864M |        - |      254 |      254 |    1633.22 | *
    \--------------------------------------------------------/

Neighborhoods statistics (values in %):

    /----------------------------------------------------------------\
    | Move               | Improvs. | Sideways |  Accepts |  Rejects |
    |--------------------|----------|----------|----------|----------|
    | Shift(mk)          |     271K |    1333K |    1884K |     170M |
    | Shift              |      27K |    6144K |    6675K |     166M |
    | ShiftSmart(mk)     |    3024K |      16M |      20M |     152M |
    | ShiftSmart         |     302K |      40M |      41M |     131M |
    | SimpSwap(mk)       |      437 |      938 |     1840 |     172M |
    | SimpSwap           |       78 |     3286 |     4260 |     172M |
    | SimpSwapSmart(mk)  |     8786 |      19K |      36K |     173M |
    | SimpSwapSmart      |     1824 |      61K |      77K |     172M |
    | Swap(mk)           |      169 |      354 |      724 |     172M |
    | Swap               |       32 |     1415 |     1833 |     173M |
    | SwapSmart(mk)      |     3280 |     6636 |      12K |     172M |
    | SwapSmart          |      612 |      20K |      24K |     172M |
    | Switch(mk)         |     141K |    7374K |    7640K |     165M |
    | Switch             |      14K |    9760K |      10M |     162M |
    | SwitchSmart(mk)    |    1691K |    5992K |    8584K |     164M |
    | SwitchSmart        |     169K |      21M |      22M |     151M |
    | TaskMove(mk)       |     7848 |      15K |      28K |     172M |
    | TaskMove           |      809 |      24K |      30K |     173M |
    | TaskMoveSmart(mk)  |      53K |     111K |     194K |     172M |
    | TaskMoveSmart      |     5742 |     176K |     211K |     172M |
    | 2-Shift(mk)        |      64K |     525K |     646K |     172M |
    | 2-Shift            |     6375 |    1640K |    1792K |     171M |
    | 2-ShiftSmart(mk)   |    2360K |    7774K |      11M |     162M |
    | 2-ShiftSmart       |     235K |      22M |      23M |     149M |
    \----------------------------------------------------------------/

Best makespan.....: 254
N. of Iterations..: 4138078557
Total runtime.....: 3600.02s
Using Python-MIP package version 1.6.8
Começo a execução
    /-------------------------------------------------------------------------------\
    |    Makespan   |   Free Jobs   | Free Machines |    It. Time   |   Total Time  | 
    |-------------------------------------------------------------------------------|
    \-------------------------------------------------------------------------------/
Terminou a execução
