Instance....: instances/I_50_20_S_1-99_3.txt
Algorithm...: Simulated Annealing (alpha=0.990, saMax=10M, t0=1)
Other params: maxIters=100M, seed=-1, timeLimit=3600.00s

    /--------------------------------------------------------\
    |     Iter |   RDP(%) |       S* |       S' |       Time | 
    |----------|----------|----------|----------|------------|
    |        0 |        - |      607 |      607 |       0.00 | s0
    |        6 |        - |      514 |      514 |       0.02 | *
    |       12 |        - |      512 |      512 |       0.02 | *
    |       15 |        - |      506 |      506 |       0.02 | *
    |       16 |        - |      468 |      468 |       0.02 | *
    |       17 |        - |      446 |      446 |       0.02 | *
    |       19 |        - |      441 |      441 |       0.03 | *
    |       20 |        - |      433 |      433 |       0.03 | *
    |       23 |        - |      415 |      415 |       0.03 | *
    |       25 |        - |      409 |      409 |       0.03 | *
    |       28 |        - |      398 |      398 |       0.03 | *
    |       34 |        - |      365 |      365 |       0.03 | *
    |       38 |        - |      348 |      348 |       0.03 | *
    |       62 |        - |      341 |      341 |       0.03 | *
    |       63 |        - |      338 |      338 |       0.03 | *
    |       67 |        - |      336 |      336 |       0.03 | *
    |       72 |        - |      314 |      314 |       0.04 | *
    |       82 |        - |      310 |      310 |       0.04 | *
    |       90 |        - |      308 |      308 |       0.04 | *
    |       96 |        - |      307 |      307 |       0.04 | *
    |       98 |        - |      306 |      306 |       0.04 | *
    |      109 |        - |      298 |      298 |       0.04 | *
    |      110 |        - |      288 |      288 |       0.04 | *
    |      113 |        - |      278 |      278 |       0.04 | *
    |      118 |        - |      274 |      274 |       0.04 | *
    |      120 |        - |      246 |      246 |       0.04 | *
    |      123 |        - |      238 |      238 |       0.04 | *
    |      125 |        - |      232 |      232 |       0.04 | *
    |      129 |        - |      228 |      228 |       0.04 | *
    |      133 |        - |      223 |      223 |       0.04 | *
    |      152 |        - |      219 |      219 |       0.05 | *
    |      159 |        - |      211 |      211 |       0.05 | *
    |      175 |        - |      209 |      209 |       0.05 | *
    |      181 |        - |      197 |      197 |       0.05 | *
    |      191 |        - |      193 |      193 |       0.05 | *
    |      194 |        - |      187 |      187 |       0.05 | *
    |      196 |        - |      186 |      186 |       0.05 | *
    |      197 |        - |      182 |      182 |       0.05 | *
    |      204 |        - |      181 |      181 |       0.05 | *
    |      250 |        - |      180 |      180 |       0.05 | *
    |      252 |        - |      175 |      175 |       0.05 | *
    |      253 |        - |      173 |      173 |       0.05 | *
    |      287 |        - |      170 |      170 |       0.05 | *
    |      296 |        - |      163 |      163 |       0.05 | *
    |      308 |        - |      160 |      160 |       0.05 | *
    |      398 |        - |      159 |      159 |       0.06 | *
    |      399 |        - |      155 |      155 |       0.06 | *
    |      415 |        - |      153 |      153 |       0.06 | *
    |      437 |        - |      152 |      152 |       0.06 | *
    |      485 |        - |      146 |      146 |       0.06 | *
    |      500 |        - |      145 |      145 |       0.06 | *
    |      518 |        - |      144 |      144 |       0.06 | *
    |      539 |        - |      141 |      141 |       0.06 | *
    |      555 |        - |      140 |      140 |       0.06 | *
    |      582 |        - |      139 |      139 |       0.06 | *
    |      584 |        - |      136 |      136 |       0.06 | *
    |      631 |        - |      135 |      135 |       0.06 | *
    |     1029 |        - |      134 |      134 |       0.07 | *
    |     1233 |        - |      133 |      133 |       0.07 | *
    |     1255 |        - |      132 |      132 |       0.07 | *
    |     1260 |        - |      131 |      131 |       0.07 | *
    |     1299 |        - |      129 |      129 |       0.07 | *
    |     1338 |        - |      128 |      128 |       0.07 | *
    |     1444 |        - |      127 |      127 |       0.07 | *
    |     1483 |        - |      126 |      126 |       0.07 | *
    |     1536 |        - |      123 |      123 |       0.07 | *
    |     1564 |        - |      119 |      119 |       0.07 | *
    |     1652 |        - |      115 |      115 |       0.07 | *
    |     1745 |        - |      114 |      114 |       0.07 | *
    |     1751 |        - |      111 |      111 |       0.07 | *
    |     1782 |        - |      110 |      110 |       0.07 | *
    |     1791 |        - |      108 |      108 |       0.08 | *
    |     1802 |        - |      105 |      105 |       0.08 | *
    |     1812 |        - |      103 |      103 |       0.08 | *
    |     2061 |        - |      101 |      101 |       0.08 | *
    |     2097 |        - |      100 |      100 |       0.08 | *
    |     2111 |        - |       98 |       98 |       0.08 | *
    |     2112 |        - |       97 |       97 |       0.08 | *
    |     2130 |        - |       94 |       94 |       0.08 | *
    |     2267 |        - |       88 |       88 |       0.08 | *
    |     2376 |        - |       86 |       86 |       0.08 | *
    |     2418 |        - |       85 |       85 |       0.08 | *
    |     2457 |        - |       83 |       83 |       0.08 | *
    |     2462 |        - |       82 |       82 |       0.09 | *
    |     2473 |        - |       80 |       80 |       0.09 | *
    |     3468 |        - |       79 |       79 |       0.09 | *
    |     3470 |        - |       78 |       78 |       0.09 | *
    |     3660 |        - |       77 |       77 |       0.09 | *
    |     3678 |        - |       74 |       74 |       0.09 | *
    |     4012 |        - |       72 |       72 |       0.09 | *
    |     7396 |        - |       71 |       71 |       0.11 | *
    |     7962 |        - |       70 |       70 |       0.11 | *
    |      12K |        - |       66 |       66 |       0.11 | *
    |      12K |        - |       65 |       65 |       0.12 | *
    |      12K |        - |       63 |       63 |       0.12 | *
    |      13K |        - |       62 |       62 |       0.12 | *
    |      16K |        - |       61 |       61 |       0.12 | *
    |      16K |        - |       60 |       60 |       0.12 | *
    |      22K |        - |       59 |       59 |       0.13 | *
    |      22K |        - |       56 |       56 |       0.13 | *
    |      33K |        - |       54 |       54 |       0.15 | *
    |      34K |        - |       53 |       53 |       0.15 | *
    |      35K |        - |       52 |       52 |       0.16 | *
    |      39K |        - |       51 |       51 |       0.16 | *
    |      43K |        - |       50 |       50 |       0.17 | *
    |      43K |        - |       48 |       48 |       0.17 | *
    |      57K |        - |       46 |       46 |       0.19 | *
    |      57K |        - |       45 |       45 |       0.19 | *
    |      58K |        - |       44 |       44 |       0.19 | *
    |     310K |        - |       43 |       43 |       0.47 | *
    |     310K |        - |       42 |       42 |       0.48 | *
    |    5807K |        - |       41 |       41 |       4.23 | *
    |      12M |        - |       40 |       40 |       7.43 | *
    \--------------------------------------------------------/

Neighborhoods statistics (values in %):

    /----------------------------------------------------------------\
    | Move               | Improvs. | Sideways |  Accepts |  Rejects |
    |--------------------|----------|----------|----------|----------|
    | Shift(mk)          |      87K |     105K |     199K |     288M |
    | Shift              |     4649 |      11M |      11M |     280M |
    | ShiftSmart(mk)     |      96K |     113K |     222K |     288M |
    | ShiftSmart         |     5103 |      16M |      16M |     275M |
    | SimpSwap(mk)       |     2595 |      12K |      16K |     290M |
    | SimpSwap           |      257 |     192K |     194K |     290M |
    | SimpSwapSmart(mk)  |     3793 |      16K |      21K |     291M |
    | SimpSwapSmart      |      448 |     240K |     244K |     290M |
    | Swap(mk)           |     2033 |      90K |      93K |     290M |
    | Swap               |      189 |     191K |     192K |     291M |
    | SwapSmart(mk)      |     5122 |     724K |     730K |     290M |
    | SwapSmart          |      495 |     414K |     418K |     290M |
    | Switch(mk)         |      41K |      91M |      91M |     197M |
    | Switch             |     2204 |     125M |     125M |     165M |
    | SwitchSmart(mk)    |      82K |     101K |     187K |     289M |
    | SwitchSmart        |     4421 |      15M |      15M |     275M |
    | TaskMove(mk)       |     5100 |     122K |     129K |     290M |
    | TaskMove           |      369 |     205K |     209K |     291M |
    | TaskMoveSmart(mk)  |      12K |     334K |     349K |     290M |
    | TaskMoveSmart      |      939 |     516K |     526K |     290M |
    | 2-Shift(mk)        |      45K |      48M |      48M |     241M |
    | 2-Shift            |     2442 |     103M |     103M |     188M |
    | 2-ShiftSmart(mk)   |     9344 |      62M |      62M |     227M |
    | 2-ShiftSmart       |      509 |     184M |     184M |     107M |
    \----------------------------------------------------------------/

Best makespan.....: 40
N. of Iterations..: 6960688112
Total runtime.....: 3600.03s
Using Python-MIP package version 1.6.8
Começo a execução
    /-------------------------------------------------------------------------------\
    |    Makespan   |   Free Jobs   | Free Machines |    It. Time   |   Total Time  | 
    |-------------------------------------------------------------------------------|
    \-------------------------------------------------------------------------------/
Terminou a execução
