Instance....: instances/I_50_20_S_1-99_9.txt
Algorithm...: Simulated Annealing (alpha=0.990, saMax=10M, t0=1)
Other params: maxIters=100M, seed=-1, timeLimit=3600.00s

    /--------------------------------------------------------\
    |     Iter |   RDP(%) |       S* |       S' |       Time | 
    |----------|----------|----------|----------|------------|
    |        0 |        - |      585 |      585 |       0.00 | s0
    |        0 |        - |      502 |      502 |       0.00 | *
    |        1 |        - |      482 |      482 |       0.01 | *
    |       18 |        - |      439 |      439 |       0.02 | *
    |       22 |        - |      431 |      431 |       0.02 | *
    |       28 |        - |      395 |      395 |       0.03 | *
    |       33 |        - |      377 |      377 |       0.03 | *
    |       37 |        - |      368 |      368 |       0.03 | *
    |       40 |        - |      367 |      367 |       0.03 | *
    |       41 |        - |      361 |      361 |       0.03 | *
    |       47 |        - |      358 |      358 |       0.03 | *
    |       48 |        - |      352 |      352 |       0.04 | *
    |       50 |        - |      337 |      337 |       0.04 | *
    |       52 |        - |      325 |      325 |       0.04 | *
    |       55 |        - |      295 |      295 |       0.04 | *
    |       56 |        - |      274 |      274 |       0.04 | *
    |       58 |        - |      257 |      257 |       0.04 | *
    |       62 |        - |      251 |      251 |       0.04 | *
    |       65 |        - |      249 |      249 |       0.04 | *
    |       66 |        - |      244 |      244 |       0.04 | *
    |       69 |        - |      243 |      243 |       0.04 | *
    |       73 |        - |      235 |      235 |       0.04 | *
    |       87 |        - |      233 |      233 |       0.05 | *
    |       91 |        - |      229 |      229 |       0.05 | *
    |      101 |        - |      227 |      227 |       0.05 | *
    |      102 |        - |      218 |      218 |       0.05 | *
    |      105 |        - |      216 |      216 |       0.05 | *
    |      110 |        - |      214 |      214 |       0.05 | *
    |      131 |        - |      206 |      206 |       0.05 | *
    |      138 |        - |      203 |      203 |       0.05 | *
    |      159 |        - |      202 |      202 |       0.05 | *
    |      194 |        - |      199 |      199 |       0.05 | *
    |      206 |        - |      195 |      195 |       0.05 | *
    |      213 |        - |      189 |      189 |       0.05 | *
    |      222 |        - |      186 |      186 |       0.05 | *
    |      269 |        - |      180 |      180 |       0.05 | *
    |      280 |        - |      176 |      176 |       0.06 | *
    |      289 |        - |      175 |      175 |       0.06 | *
    |      298 |        - |      174 |      174 |       0.06 | *
    |      321 |        - |      172 |      172 |       0.06 | *
    |      377 |        - |      164 |      164 |       0.06 | *
    |      565 |        - |      161 |      161 |       0.06 | *
    |      573 |        - |      160 |      160 |       0.06 | *
    |      575 |        - |      158 |      158 |       0.06 | *
    |      579 |        - |      155 |      155 |       0.06 | *
    |      587 |        - |      153 |      153 |       0.06 | *
    |      606 |        - |      152 |      152 |       0.06 | *
    |      633 |        - |      151 |      151 |       0.07 | *
    |      644 |        - |      150 |      150 |       0.07 | *
    |      747 |        - |      148 |      148 |       0.07 | *
    |      798 |        - |      147 |      147 |       0.07 | *
    |      830 |        - |      145 |      145 |       0.07 | *
    |      835 |        - |      143 |      143 |       0.07 | *
    |      903 |        - |      142 |      142 |       0.07 | *
    |      953 |        - |      138 |      138 |       0.07 | *
    |     1026 |        - |      131 |      131 |       0.07 | *
    |     1088 |        - |      129 |      129 |       0.07 | *
    |     1118 |        - |      126 |      126 |       0.07 | *
    |     1133 |        - |      123 |      123 |       0.07 | *
    |     1316 |        - |      117 |      117 |       0.07 | *
    |     1407 |        - |      116 |      116 |       0.08 | *
    |     1410 |        - |      114 |      114 |       0.08 | *
    |     1863 |        - |      112 |      112 |       0.08 | *
    |     1871 |        - |      111 |      111 |       0.08 | *
    |     1910 |        - |      110 |      110 |       0.08 | *
    |     2279 |        - |      109 |      109 |       0.08 | *
    |     2349 |        - |      108 |      108 |       0.09 | *
    |     2369 |        - |      103 |      103 |       0.09 | *
    |     2414 |        - |      102 |      102 |       0.09 | *
    |     2526 |        - |      101 |      101 |       0.09 | *
    |     2531 |        - |      100 |      100 |       0.09 | *
    |     2838 |        - |       98 |       98 |       0.09 | *
    |     2953 |        - |       94 |       94 |       0.09 | *
    |     3336 |        - |       91 |       91 |       0.10 | *
    |     3349 |        - |       90 |       90 |       0.10 | *
    |     3433 |        - |       89 |       89 |       0.10 | *
    |     3592 |        - |       88 |       88 |       0.10 | *
    |     4031 |        - |       87 |       87 |       0.10 | *
    |     4220 |        - |       85 |       85 |       0.10 | *
    |     4337 |        - |       84 |       84 |       0.10 | *
    |     6893 |        - |       83 |       83 |       0.11 | *
    |     7177 |        - |       82 |       82 |       0.12 | *
    |     7392 |        - |       80 |       80 |       0.12 | *
    |     7708 |        - |       79 |       79 |       0.12 | *
    |     7748 |        - |       78 |       78 |       0.12 | *
    |      11K |        - |       77 |       77 |       0.13 | *
    |      11K |        - |       76 |       76 |       0.13 | *
    |      11K |        - |       75 |       75 |       0.13 | *
    |      11K |        - |       73 |       73 |       0.13 | *
    |      11K |        - |       72 |       72 |       0.13 | *
    |      11K |        - |       71 |       71 |       0.13 | *
    |      12K |        - |       70 |       70 |       0.14 | *
    |      12K |        - |       69 |       69 |       0.14 | *
    |      13K |        - |       68 |       68 |       0.14 | *
    |      13K |        - |       65 |       65 |       0.14 | *
    |      14K |        - |       63 |       63 |       0.14 | *
    |      14K |        - |       62 |       62 |       0.14 | *
    |      15K |        - |       61 |       61 |       0.15 | *
    |      18K |        - |       59 |       59 |       0.15 | *
    |      22K |        - |       58 |       58 |       0.16 | *
    |      22K |        - |       57 |       57 |       0.16 | *
    |      23K |        - |       56 |       56 |       0.16 | *
    |      47K |        - |       53 |       53 |       0.19 | *
    |      51K |        - |       52 |       52 |       0.19 | *
    |      52K |        - |       51 |       51 |       0.19 | *
    |      68K |        - |       50 |       50 |       0.21 | *
    |      71K |        - |       49 |       49 |       0.21 | *
    |     114K |        - |       48 |       48 |       0.25 | *
    |     174K |        - |       47 |       47 |       0.32 | *
    |     182K |        - |       45 |       45 |       0.33 | *
    |     272K |        - |       43 |       43 |       0.47 | *
    |     337K |        - |       41 |       41 |       0.56 | *
    |    3725K |        - |       40 |       40 |       2.60 | *
    |    8057K |        - |       39 |       39 |       5.14 | *
    \--------------------------------------------------------/

Neighborhoods statistics (values in %):

    /----------------------------------------------------------------\
    | Move               | Improvs. | Sideways |  Accepts |  Rejects |
    |--------------------|----------|----------|----------|----------|
    | Shift(mk)          |      88K |      55K |     205K |     311M |
    | Shift              |     4810 |      16M |      16M |     295M |
    | ShiftSmart(mk)     |     104K |      81K |     256K |     311M |
    | ShiftSmart         |     5737 |      17M |      17M |     294M |
    | SimpSwap(mk)       |     2529 |     6113 |     9315 |     311M |
    | SimpSwap           |      235 |      39K |      41K |     311M |
    | SimpSwapSmart(mk)  |     3782 |      11K |      16K |     312M |
    | SimpSwapSmart      |      425 |      61K |      65K |     311M |
    | Swap(mk)           |     2836 |     3109 |     6497 |     311M |
    | Swap               |      308 |      36K |      38K |     312M |
    | SwapSmart(mk)      |     7506 |     9434 |      18K |     311M |
    | SwapSmart          |      734 |      72K |      79K |     311M |
    | Switch(mk)         |      38K |     151M |     151M |     160M |
    | Switch             |     2075 |     140M |     140M |     172M |
    | SwitchSmart(mk)    |      75K |      30K |     159K |     311M |
    | SwitchSmart        |     4241 |      26M |      26M |     286M |
    | TaskMove(mk)       |     5756 |      26K |      33K |     311M |
    | TaskMove           |      300 |      40K |      43K |     312M |
    | TaskMoveSmart(mk)  |      13K |      75K |      93K |     311M |
    | TaskMoveSmart      |      694 |      95K |     104K |     311M |
    | 2-Shift(mk)        |      51K |     147M |     147M |     164M |
    | 2-Shift            |     2781 |     114M |     114M |     197M |
    | 2-ShiftSmart(mk)   |      31K |     291M |     291M |      21M |
    | 2-ShiftSmart       |     1663 |     201M |     201M |     111M |
    \----------------------------------------------------------------/

Best makespan.....: 39
N. of Iterations..: 7474084500
Total runtime.....: 3600.02s
Using Python-MIP package version 1.6.8
Começo a execução
    /-------------------------------------------------------------------------------\
    |    Makespan   |   Free Jobs   | Free Machines |    It. Time   |   Total Time  | 
    |-------------------------------------------------------------------------------|
    \-------------------------------------------------------------------------------/
Terminou a execução
