Instance....: instances/I_50_10_S_1-124_8.txt
Algorithm...: Simulated Annealing (alpha=0.990, saMax=10M, t0=1)
Other params: maxIters=100M, seed=-1, timeLimit=3600.00s

    /--------------------------------------------------------\
    |     Iter |   RDP(%) |       S* |       S' |       Time | 
    |----------|----------|----------|----------|------------|
    |        0 |        - |      823 |      823 |       0.00 | s0
    |        4 |        - |      679 |      679 |       0.02 | *
    |        7 |        - |      670 |      670 |       0.02 | *
    |       18 |        - |      654 |      654 |       0.02 | *
    |       23 |        - |      616 |      616 |       0.02 | *
    |       36 |        - |      570 |      570 |       0.02 | *
    |       43 |        - |      565 |      565 |       0.03 | *
    |       45 |        - |      559 |      559 |       0.03 | *
    |       46 |        - |      532 |      532 |       0.03 | *
    |       49 |        - |      521 |      521 |       0.03 | *
    |       50 |        - |      486 |      486 |       0.03 | *
    |       54 |        - |      478 |      478 |       0.03 | *
    |       57 |        - |      466 |      466 |       0.03 | *
    |       69 |        - |      447 |      447 |       0.03 | *
    |       80 |        - |      443 |      443 |       0.03 | *
    |      102 |        - |      434 |      434 |       0.03 | *
    |      129 |        - |      431 |      431 |       0.04 | *
    |      134 |        - |      428 |      428 |       0.04 | *
    |      136 |        - |      414 |      414 |       0.04 | *
    |      140 |        - |      390 |      390 |       0.04 | *
    |      161 |        - |      380 |      380 |       0.04 | *
    |      206 |        - |      372 |      372 |       0.04 | *
    |      211 |        - |      369 |      369 |       0.04 | *
    |      264 |        - |      365 |      365 |       0.04 | *
    |      275 |        - |      358 |      358 |       0.04 | *
    |      292 |        - |      353 |      353 |       0.04 | *
    |      319 |        - |      346 |      346 |       0.04 | *
    |      329 |        - |      345 |      345 |       0.04 | *
    |      342 |        - |      343 |      343 |       0.04 | *
    |      346 |        - |      337 |      337 |       0.04 | *
    |      396 |        - |      335 |      335 |       0.05 | *
    |      402 |        - |      328 |      328 |       0.05 | *
    |      553 |        - |      314 |      314 |       0.05 | *
    |      596 |        - |      308 |      308 |       0.05 | *
    |      600 |        - |      300 |      300 |       0.05 | *
    |      603 |        - |      298 |      298 |       0.05 | *
    |      645 |        - |      294 |      294 |       0.05 | *
    |      673 |        - |      293 |      293 |       0.05 | *
    |      836 |        - |      290 |      290 |       0.05 | *
    |     1090 |        - |      289 |      289 |       0.05 | *
    |     1119 |        - |      288 |      288 |       0.06 | *
    |     1156 |        - |      286 |      286 |       0.06 | *
    |     1162 |        - |      284 |      284 |       0.06 | *
    |     1177 |        - |      280 |      280 |       0.06 | *
    |     1179 |        - |      278 |      278 |       0.06 | *
    |     1230 |        - |      276 |      276 |       0.06 | *
    |     1232 |        - |      275 |      275 |       0.06 | *
    |     1275 |        - |      274 |      274 |       0.06 | *
    |     1456 |        - |      269 |      269 |       0.06 | *
    |     1561 |        - |      268 |      268 |       0.06 | *
    |     1607 |        - |      262 |      262 |       0.06 | *
    |     1769 |        - |      260 |      260 |       0.07 | *
    |     1847 |        - |      259 |      259 |       0.07 | *
    |     1852 |        - |      256 |      256 |       0.07 | *
    |     1862 |        - |      252 |      252 |       0.07 | *
    |     1914 |        - |      242 |      242 |       0.07 | *
    |     1938 |        - |      237 |      237 |       0.07 | *
    |     1948 |        - |      235 |      235 |       0.07 | *
    |     1971 |        - |      234 |      234 |       0.07 | *
    |     2009 |        - |      229 |      229 |       0.07 | *
    |     2019 |        - |      228 |      228 |       0.07 | *
    |     2048 |        - |      223 |      223 |       0.07 | *
    |     2051 |        - |      217 |      217 |       0.07 | *
    |     2113 |        - |      215 |      215 |       0.07 | *
    |     2120 |        - |      212 |      212 |       0.07 | *
    |     2396 |        - |      211 |      211 |       0.08 | *
    |     2488 |        - |      209 |      209 |       0.08 | *
    |     2489 |        - |      208 |      208 |       0.08 | *
    |     2696 |        - |      205 |      205 |       0.08 | *
    |     4163 |        - |      200 |      200 |       0.08 | *
    |     5584 |        - |      198 |      198 |       0.09 | *
    |     5587 |        - |      197 |      197 |       0.09 | *
    |     6939 |        - |      196 |      196 |       0.09 | *
    |     7073 |        - |      195 |      195 |       0.09 | *
    |     7678 |        - |      193 |      193 |       0.09 | *
    |     7797 |        - |      192 |      192 |       0.09 | *
    |     7857 |        - |      189 |      189 |       0.09 | *
    |     7858 |        - |      180 |      180 |       0.09 | *
    |     8061 |        - |      179 |      179 |       0.10 | *
    |     8306 |        - |      175 |      175 |       0.10 | *
    |     8316 |        - |      174 |      174 |       0.10 | *
    |     9016 |        - |      171 |      171 |       0.10 | *
    |     9365 |        - |      167 |      167 |       0.10 | *
    |     9694 |        - |      165 |      165 |       0.10 | *
    |      14K |        - |      163 |      163 |       0.11 | *
    |      14K |        - |      160 |      160 |       0.11 | *
    |      16K |        - |      159 |      159 |       0.11 | *
    |      16K |        - |      158 |      158 |       0.11 | *
    |      16K |        - |      157 |      157 |       0.11 | *
    |      19K |        - |      156 |      156 |       0.12 | *
    |      19K |        - |      154 |      154 |       0.12 | *
    |      19K |        - |      153 |      153 |       0.12 | *
    |      20K |        - |      151 |      151 |       0.12 | *
    |      20K |        - |      149 |      149 |       0.13 | *
    |      30K |        - |      148 |      148 |       0.14 | *
    |      31K |        - |      147 |      147 |       0.15 | *
    |      31K |        - |      144 |      144 |       0.15 | *
    |      34K |        - |      142 |      142 |       0.15 | *
    |      34K |        - |      141 |      141 |       0.15 | *
    |      35K |        - |      138 |      138 |       0.15 | *
    |      37K |        - |      137 |      137 |       0.16 | *
    |      43K |        - |      133 |      133 |       0.16 | *
    |      72K |        - |      132 |      132 |       0.19 | *
    |      73K |        - |      131 |      131 |       0.19 | *
    |     122K |        - |      130 |      130 |       0.24 | *
    |     171K |        - |      129 |      129 |       0.33 | *
    |     171K |        - |      125 |      125 |       0.33 | *
    |     172K |        - |      124 |      124 |       0.34 | *
    |     289K |        - |      121 |      121 |       0.60 | *
    |     293K |        - |      120 |      120 |       0.60 | *
    |    4626K |        - |      119 |      119 |       3.14 | *
    |    4728K |        - |      118 |      118 |       3.21 | *
    |    5619K |        - |      117 |      117 |       4.00 | *
    |    5620K |        - |      115 |      115 |       4.00 | *
    |    5621K |        - |      114 |      114 |       4.01 | *
    |      38M |        - |      113 |      113 |      23.34 | *
    |      43M |        - |      112 |      112 |      26.24 | *
    |      43M |        - |      110 |      110 |      26.25 | *
    |      48M |        - |      109 |      109 |      28.62 | *
    \--------------------------------------------------------/

Neighborhoods statistics (values in %):

    /----------------------------------------------------------------\
    | Move               | Improvs. | Sideways |  Accepts |  Rejects |
    |--------------------|----------|----------|----------|----------|
    | Shift(mk)          |      48K |     9762 |      58K |     277M |
    | Shift              |     4656 |    6565K |    6632K |     271M |
    | ShiftSmart(mk)     |     135K |      15K |     151K |     277M |
    | ShiftSmart         |      14K |      12M |      13M |     264M |
    | SimpSwap(mk)       |      404 |       55 |      560 |     277M |
    | SimpSwap           |       69 |      99K |     100K |     277M |
    | SimpSwapSmart(mk)  |     1511 |      185 |     1963 |     277M |
    | SimpSwapSmart      |      293 |     373K |     374K |     277M |
    | Swap(mk)           |      150 |      44K |      44K |     277M |
    | Swap               |       26 |      36K |      36K |     277M |
    | SwapSmart(mk)      |     1380 |     662K |     664K |     276M |
    | SwapSmart          |      278 |     376K |     378K |     277M |
    | Switch(mk)         |     2728 |      57M |      57M |     220M |
    | Switch             |      279 |      63M |      63M |     214M |
    | SwitchSmart(mk)    |     4506 |     9500 |      14K |     277M |
    | SwitchSmart        |      440 |    3975K |    3982K |     273M |
    | TaskMove(mk)       |     1150 |      19K |      20K |     277M |
    | TaskMove           |      115 |     161K |     162K |     277M |
    | TaskMoveSmart(mk)  |     4567 |      94K |     100K |     277M |
    | TaskMoveSmart      |      494 |     746K |     751K |     276M |
    | 2-Shift(mk)        |      26K |      17M |      17M |     260M |
    | 2-Shift            |     2583 |      26M |      26M |     251M |
    | 2-ShiftSmart(mk)   |      51K |      21M |      21M |     256M |
    | 2-ShiftSmart       |     5154 |      35M |      35M |     243M |
    \----------------------------------------------------------------/

Best makespan.....: 109
N. of Iterations..: 6653525502
Total runtime.....: 3600.03s
Using Python-MIP package version 1.6.8
Começo a execução
    /-------------------------------------------------------------------------------\
    |    Makespan   |   Free Jobs   | Free Machines |    It. Time   |   Total Time  | 
    |-------------------------------------------------------------------------------|
    \-------------------------------------------------------------------------------/
Terminou a execução
