Instance....: instances/I_50_15_S_1-124_8.txt
Algorithm...: Simulated Annealing (alpha=0.990, saMax=10M, t0=1)
Other params: maxIters=100M, seed=-1, timeLimit=3600.00s

    /--------------------------------------------------------\
    |     Iter |   RDP(%) |       S* |       S' |       Time | 
    |----------|----------|----------|----------|------------|
    |        0 |        - |      818 |      818 |       0.00 | s0
    |        0 |        - |      733 |      733 |       0.01 | *
    |        1 |        - |      664 |      664 |       0.01 | *
    |        3 |        - |      649 |      649 |       0.01 | *
    |        7 |        - |      598 |      598 |       0.05 | *
    |        9 |        - |      541 |      541 |       0.05 | *
    |       19 |        - |      539 |      539 |       0.05 | *
    |       22 |        - |      441 |      441 |       0.06 | *
    |       24 |        - |      426 |      426 |       0.06 | *
    |       33 |        - |      414 |      414 |       0.07 | *
    |       37 |        - |      406 |      406 |       0.07 | *
    |       49 |        - |      397 |      397 |       0.07 | *
    |       50 |        - |      393 |      393 |       0.07 | *
    |       51 |        - |      370 |      370 |       0.08 | *
    |       58 |        - |      365 |      365 |       0.08 | *
    |       61 |        - |      356 |      356 |       0.08 | *
    |       62 |        - |      334 |      334 |       0.08 | *
    |       63 |        - |      330 |      330 |       0.08 | *
    |       65 |        - |      324 |      324 |       0.09 | *
    |       66 |        - |      320 |      320 |       0.09 | *
    |       77 |        - |      317 |      317 |       0.09 | *
    |       80 |        - |      315 |      315 |       0.09 | *
    |       93 |        - |      313 |      313 |       0.09 | *
    |       99 |        - |      310 |      310 |       0.09 | *
    |      141 |        - |      297 |      297 |       0.10 | *
    |      143 |        - |      294 |      294 |       0.10 | *
    |      144 |        - |      289 |      289 |       0.10 | *
    |      148 |        - |      288 |      288 |       0.10 | *
    |      156 |        - |      284 |      284 |       0.10 | *
    |      162 |        - |      281 |      281 |       0.11 | *
    |      167 |        - |      278 |      278 |       0.11 | *
    |      239 |        - |      277 |      277 |       0.11 | *
    |      248 |        - |      276 |      276 |       0.11 | *
    |      262 |        - |      274 |      274 |       0.12 | *
    |      313 |        - |      269 |      269 |       0.12 | *
    |      319 |        - |      266 |      266 |       0.12 | *
    |      350 |        - |      264 |      264 |       0.12 | *
    |      356 |        - |      263 |      263 |       0.12 | *
    |      362 |        - |      260 |      260 |       0.13 | *
    |      378 |        - |      253 |      253 |       0.13 | *
    |      406 |        - |      251 |      251 |       0.13 | *
    |      445 |        - |      250 |      250 |       0.14 | *
    |      538 |        - |      248 |      248 |       0.15 | *
    |      539 |        - |      247 |      247 |       0.15 | *
    |      540 |        - |      244 |      244 |       0.15 | *
    |      541 |        - |      235 |      235 |       0.15 | *
    |      682 |        - |      233 |      233 |       0.15 | *
    |      723 |        - |      228 |      228 |       0.16 | *
    |      725 |        - |      227 |      227 |       0.16 | *
    |      738 |        - |      223 |      223 |       0.16 | *
    |      783 |        - |      219 |      219 |       0.16 | *
    |      868 |        - |      211 |      211 |       0.17 | *
    |      869 |        - |      205 |      205 |       0.17 | *
    |      879 |        - |      201 |      201 |       0.17 | *
    |      880 |        - |      200 |      200 |       0.17 | *
    |      894 |        - |      194 |      194 |       0.17 | *
    |      901 |        - |      193 |      193 |       0.17 | *
    |      903 |        - |      192 |      192 |       0.18 | *
    |      904 |        - |      191 |      191 |       0.18 | *
    |      926 |        - |      190 |      190 |       0.18 | *
    |      951 |        - |      189 |      189 |       0.18 | *
    |      952 |        - |      185 |      185 |       0.19 | *
    |     1001 |        - |      178 |      178 |       0.19 | *
    |     1404 |        - |      174 |      174 |       0.20 | *
    |     1506 |        - |      171 |      171 |       0.20 | *
    |     1530 |        - |      170 |      170 |       0.21 | *
    |     1531 |        - |      168 |      168 |       0.21 | *
    |     1711 |        - |      167 |      167 |       0.21 | *
    |     1918 |        - |      166 |      166 |       0.21 | *
    |     1961 |        - |      165 |      165 |       0.22 | *
    |     2068 |        - |      164 |      164 |       0.22 | *
    |     2204 |        - |      162 |      162 |       0.22 | *
    |     2335 |        - |      160 |      160 |       0.22 | *
    |     2455 |        - |      159 |      159 |       0.23 | *
    |     2808 |        - |      156 |      156 |       0.23 | *
    |     2896 |        - |      152 |      152 |       0.23 | *
    |     3068 |        - |      147 |      147 |       0.23 | *
    |     3191 |        - |      143 |      143 |       0.24 | *
    |     3242 |        - |      141 |      141 |       0.24 | *
    |     4278 |        - |      140 |      140 |       0.26 | *
    |     4308 |        - |      139 |      139 |       0.27 | *
    |     4534 |        - |      138 |      138 |       0.28 | *
    |     4599 |        - |      137 |      137 |       0.28 | *
    |     4984 |        - |      136 |      136 |       0.29 | *
    |     5342 |        - |      133 |      133 |       0.29 | *
    |     7918 |        - |      132 |      132 |       0.31 | *
    |     7990 |        - |      130 |      130 |       0.31 | *
    |     8347 |        - |      125 |      125 |       0.32 | *
    |     8353 |        - |      123 |      123 |       0.32 | *
    |     8460 |        - |      122 |      122 |       0.32 | *
    |     9561 |        - |      120 |      120 |       0.32 | *
    |      10K |        - |      117 |      117 |       0.33 | *
    |      14K |        - |      116 |      116 |       0.34 | *
    |      14K |        - |      115 |      115 |       0.35 | *
    |      14K |        - |      113 |      113 |       0.35 | *
    |      14K |        - |      112 |      112 |       0.35 | *
    |      15K |        - |      111 |      111 |       0.36 | *
    |      19K |        - |      109 |      109 |       0.37 | *
    |      21K |        - |      108 |      108 |       0.37 | *
    |      21K |        - |      107 |      107 |       0.38 | *
    |      21K |        - |      106 |      106 |       0.38 | *
    |      22K |        - |      105 |      105 |       0.38 | *
    |      22K |        - |      103 |      103 |       0.39 | *
    |      36K |        - |      102 |      102 |       0.42 | *
    |      37K |        - |      100 |      100 |       0.43 | *
    |      38K |        - |       99 |       99 |       0.43 | *
    |      39K |        - |       98 |       98 |       0.44 | *
    |      81K |        - |       97 |       97 |       0.55 | *
    |      86K |        - |       96 |       96 |       0.56 | *
    |      96K |        - |       95 |       95 |       0.58 | *
    |      96K |        - |       94 |       94 |       0.58 | *
    |     115K |        - |       93 |       93 |       0.61 | *
    |     117K |        - |       92 |       92 |       0.62 | *
    |     170K |        - |       91 |       91 |       0.72 | *
    |     173K |        - |       90 |       90 |       0.72 | *
    |     173K |        - |       89 |       89 |       0.73 | *
    |     189K |        - |       86 |       86 |       0.76 | *
    |     201K |        - |       85 |       85 |       0.77 | *
    |     201K |        - |       84 |       84 |       0.77 | *
    |     202K |        - |       83 |       83 |       0.78 | *
    |     230K |        - |       80 |       80 |       0.83 | *
    |     252K |        - |       79 |       79 |       0.87 | *
    |     260K |        - |       78 |       78 |       0.89 | *
    |     296K |        - |       76 |       76 |       0.97 | *
    |     609K |        - |       75 |       75 |       1.56 | *
    |    1094K |        - |       74 |       74 |       2.15 | *
    |    5558K |        - |       73 |       73 |       5.34 | *
    |      10M |        - |       71 |       71 |       8.74 | *
    |     119M |        - |       70 |       70 |      70.08 | *
    \--------------------------------------------------------/

Neighborhoods statistics (values in %):

    /----------------------------------------------------------------\
    | Move               | Improvs. | Sideways |  Accepts |  Rejects |
    |--------------------|----------|----------|----------|----------|
    | Shift(mk)          |      44K |    2207K |    2257K |     273M |
    | Shift              |     2962 |      12M |      12M |     263M |
    | ShiftSmart(mk)     |      92K |    4382K |    4486K |     270M |
    | ShiftSmart         |     6313 |      22M |      22M |     252M |
    | SimpSwap(mk)       |      786 |      713 |     1753 |     275M |
    | SimpSwap           |      108 |      49K |      50K |     275M |
    | SimpSwapSmart(mk)  |     1826 |     1626 |     4011 |     275M |
    | SimpSwapSmart      |      254 |     125K |     127K |     275M |
    | Swap(mk)           |      628 |     2357 |     3135 |     275M |
    | Swap               |       84 |      41K |      42K |     275M |
    | SwapSmart(mk)      |     3199 |      16K |      20K |     275M |
    | SwapSmart          |      411 |     204K |     207K |     275M |
    | Switch(mk)         |      13K |      70M |      70M |     205M |
    | Switch             |      866 |      95M |      95M |     180M |
    | SwitchSmart(mk)    |      36K |      40K |      79K |     275M |
    | SwitchSmart        |     2433 |      11M |      11M |     264M |
    | TaskMove(mk)       |     3752 |      39K |      44K |     275M |
    | TaskMove           |      296 |     218K |     220K |     275M |
    | TaskMoveSmart(mk)  |      13K |     119K |     140K |     275M |
    | TaskMoveSmart      |     1061 |     674K |     681K |     274M |
    | 2-Shift(mk)        |      31K |      27M |      27M |     248M |
    | 2-Shift            |     2085 |      67M |      67M |     208M |
    | 2-ShiftSmart(mk)   |      55K |      53M |      53M |     222M |
    | 2-ShiftSmart       |     3706 |     117M |     117M |     158M |
    \----------------------------------------------------------------/

Best makespan.....: 70
N. of Iterations..: 6597697400
Total runtime.....: 3600.03s
Using Python-MIP package version 1.6.8
Começo a execução
    /-------------------------------------------------------------------------------\
    |    Makespan   |   Free Jobs   | Free Machines |    It. Time   |   Total Time  | 
    |-------------------------------------------------------------------------------|
    \-------------------------------------------------------------------------------/
Terminou a execução
