Instance....: instances/I_50_15_S_1-124_6.txt
Algorithm...: Simulated Annealing (alpha=0.990, saMax=10M, t0=1)
Other params: maxIters=100M, seed=-1, timeLimit=3600.00s

    /--------------------------------------------------------\
    |     Iter |   RDP(%) |       S* |       S' |       Time | 
    |----------|----------|----------|----------|------------|
    |        0 |        - |      572 |      572 |       0.00 | s0
    |        0 |        - |      512 |      512 |       0.00 | *
    |        1 |        - |      457 |      457 |       0.01 | *
    |        4 |        - |      430 |      430 |       0.01 | *
    |        5 |        - |      422 |      422 |       0.01 | *
    |        9 |        - |      417 |      417 |       0.01 | *
    |       20 |        - |      401 |      401 |       0.03 | *
    |       48 |        - |      389 |      389 |       0.03 | *
    |       52 |        - |      367 |      367 |       0.03 | *
    |       56 |        - |      357 |      357 |       0.03 | *
    |       61 |        - |      355 |      355 |       0.03 | *
    |       62 |        - |      339 |      339 |       0.03 | *
    |       65 |        - |      336 |      336 |       0.03 | *
    |       68 |        - |      318 |      318 |       0.03 | *
    |       70 |        - |      317 |      317 |       0.04 | *
    |       88 |        - |      314 |      314 |       0.04 | *
    |       94 |        - |      305 |      305 |       0.04 | *
    |      112 |        - |      297 |      297 |       0.04 | *
    |      125 |        - |      291 |      291 |       0.04 | *
    |      131 |        - |      290 |      290 |       0.04 | *
    |      149 |        - |      283 |      283 |       0.04 | *
    |      163 |        - |      279 |      279 |       0.04 | *
    |      171 |        - |      274 |      274 |       0.04 | *
    |      173 |        - |      270 |      270 |       0.04 | *
    |      175 |        - |      266 |      266 |       0.04 | *
    |      188 |        - |      264 |      264 |       0.04 | *
    |      193 |        - |      262 |      262 |       0.04 | *
    |      200 |        - |      256 |      256 |       0.04 | *
    |      204 |        - |      254 |      254 |       0.04 | *
    |      205 |        - |      249 |      249 |       0.05 | *
    |      206 |        - |      247 |      247 |       0.05 | *
    |      207 |        - |      244 |      244 |       0.05 | *
    |      268 |        - |      238 |      238 |       0.05 | *
    |      280 |        - |      236 |      236 |       0.05 | *
    |      293 |        - |      232 |      232 |       0.05 | *
    |      295 |        - |      231 |      231 |       0.05 | *
    |      300 |        - |      223 |      223 |       0.05 | *
    |      342 |        - |      222 |      222 |       0.05 | *
    |      375 |        - |      218 |      218 |       0.05 | *
    |      378 |        - |      212 |      212 |       0.05 | *
    |      718 |        - |      210 |      210 |       0.06 | *
    |      821 |        - |      204 |      204 |       0.06 | *
    |      827 |        - |      201 |      201 |       0.06 | *
    |      877 |        - |      200 |      200 |       0.06 | *
    |      900 |        - |      199 |      199 |       0.06 | *
    |     1059 |        - |      193 |      193 |       0.06 | *
    |     1063 |        - |      187 |      187 |       0.06 | *
    |     1068 |        - |      185 |      185 |       0.06 | *
    |     1184 |        - |      180 |      180 |       0.06 | *
    |     1305 |        - |      178 |      178 |       0.06 | *
    |     1343 |        - |      175 |      175 |       0.07 | *
    |     1418 |        - |      172 |      172 |       0.07 | *
    |     1678 |        - |      171 |      171 |       0.07 | *
    |     1694 |        - |      170 |      170 |       0.07 | *
    |     1721 |        - |      163 |      163 |       0.07 | *
    |     2068 |        - |      162 |      162 |       0.07 | *
    |     2078 |        - |      153 |      153 |       0.07 | *
    |     2081 |        - |      151 |      151 |       0.07 | *
    |     2095 |        - |      147 |      147 |       0.07 | *
    |     2566 |        - |      145 |      145 |       0.07 | *
    |     2609 |        - |      144 |      144 |       0.07 | *
    |     2794 |        - |      139 |      139 |       0.08 | *
    |     3805 |        - |      138 |      138 |       0.08 | *
    |     3827 |        - |      134 |      134 |       0.08 | *
    |     4415 |        - |      133 |      133 |       0.08 | *
    |     5399 |        - |      132 |      132 |       0.09 | *
    |     6239 |        - |      131 |      131 |       0.09 | *
    |     6729 |        - |      128 |      128 |       0.09 | *
    |     6804 |        - |      126 |      126 |       0.09 | *
    |     6900 |        - |      125 |      125 |       0.09 | *
    |     7004 |        - |      124 |      124 |       0.09 | *
    |     7005 |        - |      122 |      122 |       0.09 | *
    |     7331 |        - |      121 |      121 |       0.09 | *
    |     7620 |        - |      119 |      119 |       0.09 | *
    |     9014 |        - |      117 |      117 |       0.10 | *
    |     9033 |        - |      116 |      116 |       0.10 | *
    |     9403 |        - |      115 |      115 |       0.10 | *
    |     9559 |        - |      114 |      114 |       0.10 | *
    |      12K |        - |      112 |      112 |       0.10 | *
    |      13K |        - |      109 |      109 |       0.10 | *
    |      13K |        - |      108 |      108 |       0.10 | *
    |      13K |        - |      107 |      107 |       0.10 | *
    |      13K |        - |      102 |      102 |       0.11 | *
    |      16K |        - |      101 |      101 |       0.11 | *
    |      17K |        - |       99 |       99 |       0.11 | *
    |      36K |        - |       98 |       98 |       0.13 | *
    |      39K |        - |       97 |       97 |       0.13 | *
    |      40K |        - |       96 |       96 |       0.13 | *
    |      43K |        - |       95 |       95 |       0.14 | *
    |      47K |        - |       93 |       93 |       0.14 | *
    |      57K |        - |       92 |       92 |       0.15 | *
    |      65K |        - |       91 |       91 |       0.16 | *
    |      76K |        - |       89 |       89 |       0.16 | *
    |      77K |        - |       88 |       88 |       0.17 | *
    |      77K |        - |       87 |       87 |       0.17 | *
    |     101K |        - |       86 |       86 |       0.18 | *
    |     102K |        - |       85 |       85 |       0.18 | *
    |     115K |        - |       84 |       84 |       0.20 | *
    |     116K |        - |       83 |       83 |       0.20 | *
    |     193K |        - |       82 |       82 |       0.29 | *
    |     236K |        - |       81 |       81 |       0.38 | *
    |     316K |        - |       80 |       80 |       0.57 | *
    |     320K |        - |       79 |       79 |       0.58 | *
    |     322K |        - |       76 |       76 |       0.58 | *
    |     602K |        - |       75 |       75 |       1.06 | *
    |     684K |        - |       74 |       74 |       1.15 | *
    |    1642K |        - |       73 |       73 |       1.82 | *
    |    7012K |        - |       72 |       72 |       5.13 | *
    |    9468K |        - |       71 |       71 |       6.59 | *
    |    9957K |        - |       70 |       70 |       6.97 | *
    |     133M |        - |       69 |       69 |      82.56 | *
    \--------------------------------------------------------/

Neighborhoods statistics (values in %):

    /----------------------------------------------------------------\
    | Move               | Improvs. | Sideways |  Accepts |  Rejects |
    |--------------------|----------|----------|----------|----------|
    | Shift(mk)          |      14K |     2836 |      17K |     268M |
    | Shift              |      923 |    7950K |    7965K |     261M |
    | ShiftSmart(mk)     |      35K |     5455 |      41K |     268M |
    | ShiftSmart         |     2269 |      11M |      11M |     257M |
    | SimpSwap(mk)       |      187 |       83 |      296 |     268M |
    | SimpSwap           |       29 |      14K |      14K |     268M |
    | SimpSwapSmart(mk)  |      459 |      181 |      737 |     269M |
    | SimpSwapSmart      |       59 |      37K |      38K |     268M |
    | Swap(mk)           |      138 |      675 |      826 |     268M |
    | Swap               |       15 |      81K |      82K |     268M |
    | SwapSmart(mk)      |      839 |     5184 |     6104 |     268M |
    | SwapSmart          |       86 |     306K |     307K |     268M |
    | Switch(mk)         |     8386 |      66M |      66M |     202M |
    | Switch             |      581 |      89M |      89M |     179M |
    | SwitchSmart(mk)    |      24K |     1894 |      27K |     268M |
    | SwitchSmart        |     1590 |    4773K |    4796K |     263M |
    | TaskMove(mk)       |      805 |     8963 |     9919 |     268M |
    | TaskMove           |       54 |     223K |     224K |     268M |
    | TaskMoveSmart(mk)  |     2228 |      31K |      34K |     268M |
    | TaskMoveSmart      |      219 |     748K |     750K |     267M |
    | 2-Shift(mk)        |      15K |      22M |      22M |     246M |
    | 2-Shift            |      930 |      56M |      56M |     213M |
    | 2-ShiftSmart(mk)   |      23K |      86M |      86M |     183M |
    | 2-ShiftSmart       |     1548 |      90M |      90M |     178M |
    \----------------------------------------------------------------/

Best makespan.....: 69
N. of Iterations..: 6440230628
Total runtime.....: 3600.02s
Using Python-MIP package version 1.6.8
Começo a execução
    /-------------------------------------------------------------------------------\
    |    Makespan   |   Free Jobs   | Free Machines |    It. Time   |   Total Time  | 
    |-------------------------------------------------------------------------------|
    \-------------------------------------------------------------------------------/
Terminou a execução
