Instance....: instances/I_50_20_S_1-124_1.txt
Algorithm...: Simulated Annealing (alpha=0.990, saMax=10M, t0=1)
Other params: maxIters=100M, seed=-1, timeLimit=3600.00s

    /--------------------------------------------------------\
    |     Iter |   RDP(%) |       S* |       S' |       Time | 
    |----------|----------|----------|----------|------------|
    |        0 |        - |      617 |      617 |       0.00 | s0
    |        2 |        - |      600 |      600 |       0.04 | *
    |        3 |        - |      594 |      594 |       0.04 | *
    |        8 |        - |      553 |      553 |       0.04 | *
    |        9 |        - |      484 |      484 |       0.04 | *
    |       13 |        - |      471 |      471 |       0.04 | *
    |       14 |        - |      453 |      453 |       0.05 | *
    |       19 |        - |      439 |      439 |       0.05 | *
    |       20 |        - |      436 |      436 |       0.05 | *
    |       25 |        - |      431 |      431 |       0.05 | *
    |       36 |        - |      413 |      413 |       0.05 | *
    |       37 |        - |      394 |      394 |       0.06 | *
    |       42 |        - |      391 |      391 |       0.06 | *
    |       46 |        - |      371 |      371 |       0.06 | *
    |       56 |        - |      365 |      365 |       0.06 | *
    |       59 |        - |      352 |      352 |       0.07 | *
    |       62 |        - |      350 |      350 |       0.07 | *
    |       66 |        - |      333 |      333 |       0.07 | *
    |       68 |        - |      312 |      312 |       0.07 | *
    |       72 |        - |      304 |      304 |       0.07 | *
    |       76 |        - |      293 |      293 |       0.07 | *
    |      100 |        - |      287 |      287 |       0.08 | *
    |      102 |        - |      282 |      282 |       0.08 | *
    |      110 |        - |      281 |      281 |       0.08 | *
    |      140 |        - |      280 |      280 |       0.08 | *
    |      164 |        - |      278 |      278 |       0.08 | *
    |      170 |        - |      272 |      272 |       0.08 | *
    |      175 |        - |      270 |      270 |       0.08 | *
    |      203 |        - |      258 |      258 |       0.09 | *
    |      255 |        - |      256 |      256 |       0.09 | *
    |      263 |        - |      251 |      251 |       0.09 | *
    |      266 |        - |      248 |      248 |       0.09 | *
    |      267 |        - |      247 |      247 |       0.09 | *
    |      268 |        - |      242 |      242 |       0.09 | *
    |      278 |        - |      239 |      239 |       0.09 | *
    |      283 |        - |      230 |      230 |       0.10 | *
    |      289 |        - |      229 |      229 |       0.10 | *
    |      314 |        - |      228 |      228 |       0.10 | *
    |      322 |        - |      223 |      223 |       0.10 | *
    |      336 |        - |      219 |      219 |       0.10 | *
    |      338 |        - |      217 |      217 |       0.10 | *
    |      339 |        - |      215 |      215 |       0.11 | *
    |      341 |        - |      212 |      212 |       0.11 | *
    |      343 |        - |      211 |      211 |       0.11 | *
    |      373 |        - |      208 |      208 |       0.11 | *
    |      394 |        - |      204 |      204 |       0.11 | *
    |      402 |        - |      203 |      203 |       0.11 | *
    |      412 |        - |      197 |      197 |       0.11 | *
    |      423 |        - |      196 |      196 |       0.12 | *
    |      424 |        - |      190 |      190 |       0.12 | *
    |      455 |        - |      189 |      189 |       0.12 | *
    |      475 |        - |      188 |      188 |       0.12 | *
    |      517 |        - |      187 |      187 |       0.12 | *
    |      518 |        - |      186 |      186 |       0.12 | *
    |      529 |        - |      185 |      185 |       0.12 | *
    |      533 |        - |      183 |      183 |       0.13 | *
    |      552 |        - |      175 |      175 |       0.13 | *
    |      558 |        - |      171 |      171 |       0.13 | *
    |      782 |        - |      168 |      168 |       0.13 | *
    |      799 |        - |      167 |      167 |       0.13 | *
    |      802 |        - |      165 |      165 |       0.13 | *
    |      811 |        - |      164 |      164 |       0.14 | *
    |      824 |        - |      162 |      162 |       0.14 | *
    |      829 |        - |      161 |      161 |       0.14 | *
    |      833 |        - |      160 |      160 |       0.14 | *
    |      859 |        - |      158 |      158 |       0.14 | *
    |     1019 |        - |      157 |      157 |       0.14 | *
    |     1033 |        - |      156 |      156 |       0.14 | *
    |     1068 |        - |      151 |      151 |       0.14 | *
    |     1170 |        - |      150 |      150 |       0.15 | *
    |     1177 |        - |      149 |      149 |       0.15 | *
    |     1195 |        - |      148 |      148 |       0.15 | *
    |     1323 |        - |      146 |      146 |       0.15 | *
    |     1416 |        - |      143 |      143 |       0.15 | *
    |     1423 |        - |      141 |      141 |       0.15 | *
    |     1467 |        - |      140 |      140 |       0.15 | *
    |     1471 |        - |      138 |      138 |       0.15 | *
    |     1515 |        - |      136 |      136 |       0.15 | *
    |     1536 |        - |      135 |      135 |       0.15 | *
    |     1540 |        - |      133 |      133 |       0.15 | *
    |     1554 |        - |      128 |      128 |       0.15 | *
    |     1581 |        - |      127 |      127 |       0.16 | *
    |     1650 |        - |      124 |      124 |       0.16 | *
    |     1883 |        - |      121 |      121 |       0.16 | *
    |     1971 |        - |      119 |      119 |       0.16 | *
    |     2022 |        - |      118 |      118 |       0.16 | *
    |     2271 |        - |      117 |      117 |       0.17 | *
    |     2342 |        - |      112 |      112 |       0.17 | *
    |     2353 |        - |      110 |      110 |       0.17 | *
    |     2919 |        - |      107 |      107 |       0.17 | *
    |     2926 |        - |      106 |      106 |       0.17 | *
    |     5376 |        - |      105 |      105 |       0.19 | *
    |     5415 |        - |      100 |      100 |       0.19 | *
    |     6346 |        - |       99 |       99 |       0.19 | *
    |     6356 |        - |       90 |       90 |       0.19 | *
    |     6516 |        - |       86 |       86 |       0.19 | *
    |     6583 |        - |       85 |       85 |       0.20 | *
    |     6644 |        - |       84 |       84 |       0.20 | *
    |     6778 |        - |       82 |       82 |       0.20 | *
    |     7172 |        - |       81 |       81 |       0.20 | *
    |     7256 |        - |       79 |       79 |       0.20 | *
    |     7578 |        - |       78 |       78 |       0.20 | *
    |     7593 |        - |       76 |       76 |       0.20 | *
    |      12K |        - |       75 |       75 |       0.22 | *
    |      13K |        - |       74 |       74 |       0.22 | *
    |      15K |        - |       73 |       73 |       0.22 | *
    |      15K |        - |       71 |       71 |       0.23 | *
    |      16K |        - |       70 |       70 |       0.23 | *
    |      16K |        - |       69 |       69 |       0.23 | *
    |      16K |        - |       68 |       68 |       0.23 | *
    |      32K |        - |       66 |       66 |       0.25 | *
    |      33K |        - |       65 |       65 |       0.25 | *
    |      33K |        - |       64 |       64 |       0.25 | *
    |      37K |        - |       63 |       63 |       0.26 | *
    |      38K |        - |       62 |       62 |       0.26 | *
    |      38K |        - |       61 |       61 |       0.27 | *
    |      44K |        - |       60 |       60 |       0.28 | *
    |      63K |        - |       59 |       59 |       0.31 | *
    |      75K |        - |       58 |       58 |       0.32 | *
    |      76K |        - |       57 |       57 |       0.32 | *
    |      88K |        - |       56 |       56 |       0.33 | *
    |     128K |        - |       55 |       55 |       0.38 | *
    |     184K |        - |       54 |       54 |       0.46 | *
    |     204K |        - |       53 |       53 |       0.49 | *
    |     282K |        - |       52 |       52 |       0.62 | *
    |     283K |        - |       51 |       51 |       0.62 | *
    |     309K |        - |       50 |       50 |       0.68 | *
    |    1165K |        - |       49 |       49 |       1.98 | *
    |    2178K |        - |       48 |       48 |       2.70 | *
    |    2495K |        - |       47 |       47 |       2.86 | *
    |    3437K |        - |       46 |       46 |       3.37 | *
    \--------------------------------------------------------/

Neighborhoods statistics (values in %):

    /----------------------------------------------------------------\
    | Move               | Improvs. | Sideways |  Accepts |  Rejects |
    |--------------------|----------|----------|----------|----------|
    | Shift(mk)          |      52K |    4031K |    4093K |     270M |
    | Shift              |     2891 |      12M |      12M |     263M |
    | ShiftSmart(mk)     |      87K |    4042K |    4149K |     270M |
    | ShiftSmart         |     4978 |      14M |      15M |     261M |
    | SimpSwap(mk)       |     2269 |      38K |      40K |     275M |
    | SimpSwap           |      230 |     325K |     327K |     275M |
    | SimpSwapSmart(mk)  |     3106 |      51K |      55K |     275M |
    | SimpSwapSmart      |      368 |     500K |     504K |     275M |
    | Swap(mk)           |     1657 |      48K |      50K |     275M |
    | Swap               |      169 |     291K |     293K |     275M |
    | SwapSmart(mk)      |     4512 |     115K |     120K |     275M |
    | SwapSmart          |      423 |     591K |     595K |     275M |
    | Switch(mk)         |      21K |      95M |      95M |     179M |
    | Switch             |     1145 |     115M |     115M |     160M |
    | SwitchSmart(mk)    |      56K |    4042K |    4098K |     270M |
    | SwitchSmart        |     3121 |      10M |      10M |     265M |
    | TaskMove(mk)       |     4457 |      94K |     100K |     275M |
    | TaskMove           |      221 |     223K |     226K |     275M |
    | TaskMoveSmart(mk)  |      11K |     198K |     212K |     275M |
    | TaskMoveSmart      |      571 |     548K |     558K |     275M |
    | 2-Shift(mk)        |      34K |      63M |      63M |     211M |
    | 2-Shift            |     1864 |      93M |      93M |     183M |
    | 2-ShiftSmart(mk)   |      34K |     105M |     106M |     169M |
    | 2-ShiftSmart       |     1920 |     157M |     157M |     118M |
    \----------------------------------------------------------------/

Best makespan.....: 46
N. of Iterations..: 6600148676
Total runtime.....: 3600.06s
Using Python-MIP package version 1.6.8
Começo a execução
    /-------------------------------------------------------------------------------\
    |    Makespan   |   Free Jobs   | Free Machines |    It. Time   |   Total Time  | 
    |-------------------------------------------------------------------------------|
    \-------------------------------------------------------------------------------/
Terminou a execução
