Instance....: instances/I_50_20_S_1-124_9.txt
Algorithm...: Simulated Annealing (alpha=0.990, saMax=10M, t0=1)
Other params: maxIters=100M, seed=-1, timeLimit=3600.00s

    /--------------------------------------------------------\
    |     Iter |   RDP(%) |       S* |       S' |       Time | 
    |----------|----------|----------|----------|------------|
    |        0 |        - |      547 |      547 |       0.00 | s0
    |        0 |        - |      509 |      509 |       0.01 | *
    |        6 |        - |      506 |      506 |       0.03 | *
    |       10 |        - |      502 |      502 |       0.04 | *
    |       18 |        - |      486 |      486 |       0.04 | *
    |       19 |        - |      469 |      469 |       0.04 | *
    |       22 |        - |      465 |      465 |       0.05 | *
    |       24 |        - |      452 |      452 |       0.05 | *
    |       28 |        - |      445 |      445 |       0.05 | *
    |       31 |        - |      421 |      421 |       0.05 | *
    |       40 |        - |      402 |      402 |       0.05 | *
    |       47 |        - |      399 |      399 |       0.06 | *
    |       53 |        - |      398 |      398 |       0.06 | *
    |       56 |        - |      390 |      390 |       0.06 | *
    |       57 |        - |      361 |      361 |       0.06 | *
    |       60 |        - |      337 |      337 |       0.06 | *
    |       63 |        - |      322 |      322 |       0.06 | *
    |       65 |        - |      318 |      318 |       0.07 | *
    |       69 |        - |      314 |      314 |       0.07 | *
    |       70 |        - |      287 |      287 |       0.07 | *
    |       75 |        - |      271 |      271 |       0.07 | *
    |      127 |        - |      267 |      267 |       0.07 | *
    |      148 |        - |      262 |      262 |       0.07 | *
    |      149 |        - |      260 |      260 |       0.07 | *
    |      151 |        - |      255 |      255 |       0.07 | *
    |      172 |        - |      241 |      241 |       0.07 | *
    |      220 |        - |      233 |      233 |       0.07 | *
    |      229 |        - |      232 |      232 |       0.07 | *
    |      237 |        - |      228 |      228 |       0.08 | *
    |      260 |        - |      225 |      225 |       0.08 | *
    |      337 |        - |      222 |      222 |       0.08 | *
    |      340 |        - |      221 |      221 |       0.08 | *
    |      349 |        - |      205 |      205 |       0.08 | *
    |      365 |        - |      203 |      203 |       0.08 | *
    |      374 |        - |      200 |      200 |       0.08 | *
    |      377 |        - |      199 |      199 |       0.08 | *
    |      391 |        - |      196 |      196 |       0.08 | *
    |      393 |        - |      195 |      195 |       0.08 | *
    |      445 |        - |      184 |      184 |       0.08 | *
    |      448 |        - |      182 |      182 |       0.08 | *
    |      491 |        - |      180 |      180 |       0.09 | *
    |      492 |        - |      179 |      179 |       0.09 | *
    |      547 |        - |      178 |      178 |       0.09 | *
    |      566 |        - |      175 |      175 |       0.09 | *
    |      568 |        - |      167 |      167 |       0.09 | *
    |      573 |        - |      164 |      164 |       0.09 | *
    |      947 |        - |      161 |      161 |       0.10 | *
    |      949 |        - |      160 |      160 |       0.10 | *
    |     1002 |        - |      159 |      159 |       0.10 | *
    |     1009 |        - |      157 |      157 |       0.10 | *
    |     1048 |        - |      154 |      154 |       0.10 | *
    |     1057 |        - |      152 |      152 |       0.10 | *
    |     1089 |        - |      150 |      150 |       0.10 | *
    |     1091 |        - |      149 |      149 |       0.10 | *
    |     1105 |        - |      147 |      147 |       0.10 | *
    |     1355 |        - |      145 |      145 |       0.11 | *
    |     1396 |        - |      142 |      142 |       0.11 | *
    |     1495 |        - |      141 |      141 |       0.11 | *
    |     1535 |        - |      139 |      139 |       0.11 | *
    |     1798 |        - |      138 |      138 |       0.11 | *
    |     1946 |        - |      137 |      137 |       0.11 | *
    |     1947 |        - |      135 |      135 |       0.11 | *
    |     2212 |        - |      134 |      134 |       0.12 | *
    |     2338 |        - |      133 |      133 |       0.12 | *
    |     2533 |        - |      131 |      131 |       0.12 | *
    |     2557 |        - |      128 |      128 |       0.12 | *
    |     2636 |        - |      126 |      126 |       0.12 | *
    |     2658 |        - |      122 |      122 |       0.12 | *
    |     2659 |        - |      121 |      121 |       0.12 | *
    |     2853 |        - |      120 |      120 |       0.12 | *
    |     2890 |        - |      119 |      119 |       0.13 | *
    |     2894 |        - |      118 |      118 |       0.13 | *
    |     2987 |        - |      117 |      117 |       0.13 | *
    |     3004 |        - |      114 |      114 |       0.13 | *
    |     3062 |        - |      109 |      109 |       0.13 | *
    |     3523 |        - |      108 |      108 |       0.13 | *
    |     3652 |        - |      107 |      107 |       0.13 | *
    |     3850 |        - |      106 |      106 |       0.14 | *
    |     3861 |        - |      104 |      104 |       0.14 | *
    |     4704 |        - |      103 |      103 |       0.14 | *
    |     4717 |        - |      102 |      102 |       0.14 | *
    |     4733 |        - |      101 |      101 |       0.14 | *
    |     5120 |        - |      100 |      100 |       0.14 | *
    |     5135 |        - |       97 |       97 |       0.14 | *
    |     5550 |        - |       94 |       94 |       0.15 | *
    |     5606 |        - |       93 |       93 |       0.15 | *
    |     6105 |        - |       89 |       89 |       0.15 | *
    |     7103 |        - |       88 |       88 |       0.15 | *
    |     7480 |        - |       87 |       87 |       0.15 | *
    |     7806 |        - |       86 |       86 |       0.16 | *
    |     8088 |        - |       85 |       85 |       0.16 | *
    |     8516 |        - |       84 |       84 |       0.16 | *
    |     9462 |        - |       83 |       83 |       0.16 | *
    |     9543 |        - |       82 |       82 |       0.16 | *
    |      10K |        - |       81 |       81 |       0.16 | *
    |      11K |        - |       80 |       80 |       0.17 | *
    |      11K |        - |       79 |       79 |       0.17 | *
    |      11K |        - |       78 |       78 |       0.17 | *
    |      11K |        - |       77 |       77 |       0.17 | *
    |      12K |        - |       76 |       76 |       0.17 | *
    |      12K |        - |       75 |       75 |       0.17 | *
    |      12K |        - |       74 |       74 |       0.17 | *
    |      12K |        - |       73 |       73 |       0.17 | *
    |      21K |        - |       72 |       72 |       0.19 | *
    |      22K |        - |       70 |       70 |       0.19 | *
    |      23K |        - |       68 |       68 |       0.20 | *
    |      25K |        - |       67 |       67 |       0.20 | *
    |      29K |        - |       66 |       66 |       0.21 | *
    |      42K |        - |       65 |       65 |       0.23 | *
    |      52K |        - |       64 |       64 |       0.25 | *
    |      60K |        - |       63 |       63 |       0.26 | *
    |      61K |        - |       62 |       62 |       0.26 | *
    |      66K |        - |       61 |       61 |       0.27 | *
    |      69K |        - |       59 |       59 |       0.27 | *
    |      70K |        - |       57 |       57 |       0.28 | *
    |      71K |        - |       56 |       56 |       0.28 | *
    |      75K |        - |       55 |       55 |       0.28 | *
    |      76K |        - |       54 |       54 |       0.28 | *
    |     145K |        - |       53 |       53 |       0.36 | *
    |     145K |        - |       52 |       52 |       0.36 | *
    |     151K |        - |       51 |       51 |       0.37 | *
    |     183K |        - |       50 |       50 |       0.41 | *
    |     629K |        - |       49 |       49 |       1.06 | *
    |    1209K |        - |       48 |       48 |       1.61 | *
    |    1210K |        - |       47 |       47 |       1.61 | *
    |    1793K |        - |       46 |       46 |       2.12 | *
    |    6131K |        - |       45 |       45 |       4.66 | *
    |      43M |        - |       44 |       44 |      25.15 | *
    \--------------------------------------------------------/

Neighborhoods statistics (values in %):

    /----------------------------------------------------------------\
    | Move               | Improvs. | Sideways |  Accepts |  Rejects |
    |--------------------|----------|----------|----------|----------|
    | Shift(mk)          |      78K |      25K |     159K |     279M |
    | Shift              |     4208 |      19M |      19M |     267M |
    | ShiftSmart(mk)     |      84K |      27K |     169K |     279M |
    | ShiftSmart         |     4700 |      25M |      25M |     261M |
    | SimpSwap(mk)       |     2523 |     5225 |     8638 |     286M |
    | SimpSwap           |      249 |      29K |      31K |     286M |
    | SimpSwapSmart(mk)  |     3841 |     6234 |      12K |     286M |
    | SimpSwapSmart      |      466 |      47K |      51K |     286M |
    | Swap(mk)           |     1751 |     3774 |     6001 |     286M |
    | Swap               |      168 |      25K |      27K |     286M |
    | SwapSmart(mk)      |     4584 |     8285 |      14K |     286M |
    | SwapSmart          |      472 |      53K |      57K |     286M |
    | Switch(mk)         |      61K |      95M |      95M |     184M |
    | Switch             |     3409 |     117M |     117M |     169M |
    | SwitchSmart(mk)    |     147K |      49K |     249K |     279M |
    | SwitchSmart        |     8155 |      17M |      17M |     269M |
    | TaskMove(mk)       |     6643 |     9851 |      18K |     286M |
    | TaskMove           |      341 |      28K |      33K |     286M |
    | TaskMoveSmart(mk)  |      17K |      21K |      42K |     286M |
    | TaskMoveSmart      |      955 |      70K |      84K |     286M |
    | 2-Shift(mk)        |      60K |      52M |      52M |     228M |
    | 2-Shift            |     3274 |      86M |      86M |     199M |
    | 2-ShiftSmart(mk)   |      67K |     100M |     100M |     179M |
    | 2-ShiftSmart       |     3811 |     134M |     134M |     152M |
    \----------------------------------------------------------------/

Best makespan.....: 44
N. of Iterations..: 6821455493
Total runtime.....: 3600.03s
Using Python-MIP package version 1.6.8
Começo a execução
    /-------------------------------------------------------------------------------\
    |    Makespan   |   Free Jobs   | Free Machines |    It. Time   |   Total Time  | 
    |-------------------------------------------------------------------------------|
    \-------------------------------------------------------------------------------/
Terminou a execução
