Instance....: instances/I_50_15_S_1-49_6.txt
Algorithm...: Simulated Annealing (alpha=0.990, saMax=10M, t0=1)
Other params: maxIters=100M, seed=-1, timeLimit=3600.00s

    /--------------------------------------------------------\
    |     Iter |   RDP(%) |       S* |       S' |       Time | 
    |----------|----------|----------|----------|------------|
    |        0 |        - |      429 |      429 |       0.00 | s0
    |        3 |        - |      428 |      428 |       0.02 | *
    |        4 |        - |      426 |      426 |       0.02 | *
    |       18 |        - |      423 |      423 |       0.02 | *
    |       21 |        - |      395 |      395 |       0.02 | *
    |       23 |        - |      343 |      343 |       0.02 | *
    |       26 |        - |      339 |      339 |       0.02 | *
    |       27 |        - |      318 |      318 |       0.03 | *
    |       36 |        - |      294 |      294 |       0.03 | *
    |       58 |        - |      292 |      292 |       0.03 | *
    |       59 |        - |      285 |      285 |       0.03 | *
    |       60 |        - |      273 |      273 |       0.03 | *
    |       61 |        - |      269 |      269 |       0.03 | *
    |       63 |        - |      246 |      246 |       0.03 | *
    |       74 |        - |      245 |      245 |       0.03 | *
    |       79 |        - |      243 |      243 |       0.03 | *
    |       89 |        - |      242 |      242 |       0.04 | *
    |       98 |        - |      241 |      241 |       0.04 | *
    |       99 |        - |      239 |      239 |       0.04 | *
    |      101 |        - |      235 |      235 |       0.04 | *
    |      104 |        - |      232 |      232 |       0.04 | *
    |      113 |        - |      225 |      225 |       0.04 | *
    |      115 |        - |      224 |      224 |       0.04 | *
    |      150 |        - |      222 |      222 |       0.04 | *
    |      152 |        - |      216 |      216 |       0.04 | *
    |      162 |        - |      214 |      214 |       0.04 | *
    |      167 |        - |      209 |      209 |       0.04 | *
    |      168 |        - |      207 |      207 |       0.04 | *
    |      173 |        - |      206 |      206 |       0.04 | *
    |      175 |        - |      200 |      200 |       0.04 | *
    |      178 |        - |      190 |      190 |       0.04 | *
    |      181 |        - |      189 |      189 |       0.04 | *
    |      197 |        - |      188 |      188 |       0.05 | *
    |      199 |        - |      187 |      187 |       0.05 | *
    |      221 |        - |      179 |      179 |       0.05 | *
    |      238 |        - |      177 |      177 |       0.05 | *
    |      241 |        - |      170 |      170 |       0.05 | *
    |      281 |        - |      164 |      164 |       0.05 | *
    |      284 |        - |      163 |      163 |       0.05 | *
    |      294 |        - |      159 |      159 |       0.05 | *
    |      306 |        - |      154 |      154 |       0.05 | *
    |      318 |        - |      152 |      152 |       0.05 | *
    |      353 |        - |      151 |      151 |       0.05 | *
    |      448 |        - |      148 |      148 |       0.05 | *
    |      473 |        - |      146 |      146 |       0.05 | *
    |      483 |        - |      145 |      145 |       0.05 | *
    |      486 |        - |      141 |      141 |       0.06 | *
    |      488 |        - |      139 |      139 |       0.06 | *
    |      555 |        - |      136 |      136 |       0.06 | *
    |      623 |        - |      133 |      133 |       0.06 | *
    |      625 |        - |      132 |      132 |       0.06 | *
    |      687 |        - |      128 |      128 |       0.06 | *
    |      791 |        - |      127 |      127 |       0.06 | *
    |      851 |        - |      121 |      121 |       0.06 | *
    |      978 |        - |      117 |      117 |       0.07 | *
    |     1186 |        - |      116 |      116 |       0.07 | *
    |     1291 |        - |      114 |      114 |       0.07 | *
    |     1583 |        - |      112 |      112 |       0.07 | *
    |     1675 |        - |      111 |      111 |       0.07 | *
    |     1925 |        - |      107 |      107 |       0.07 | *
    |     1928 |        - |      106 |      106 |       0.07 | *
    |     1929 |        - |      105 |      105 |       0.08 | *
    |     1937 |        - |      104 |      104 |       0.08 | *
    |     2329 |        - |      103 |      103 |       0.08 | *
    |     2364 |        - |      101 |      101 |       0.08 | *
    |     2461 |        - |       97 |       97 |       0.08 | *
    |     2498 |        - |       95 |       95 |       0.08 | *
    |     2515 |        - |       92 |       92 |       0.08 | *
    |     3748 |        - |       91 |       91 |       0.09 | *
    |     3990 |        - |       89 |       89 |       0.09 | *
    |     4201 |        - |       88 |       88 |       0.09 | *
    |     4793 |        - |       87 |       87 |       0.10 | *
    |     4830 |        - |       86 |       86 |       0.10 | *
    |     4921 |        - |       85 |       85 |       0.10 | *
    |     5173 |        - |       84 |       84 |       0.10 | *
    |     6112 |        - |       83 |       83 |       0.10 | *
    |     6844 |        - |       82 |       82 |       0.11 | *
    |     6917 |        - |       81 |       81 |       0.11 | *
    |     8205 |        - |       80 |       80 |       0.11 | *
    |     8230 |        - |       79 |       79 |       0.11 | *
    |     8665 |        - |       76 |       76 |       0.11 | *
    |     8698 |        - |       75 |       75 |       0.11 | *
    |     8744 |        - |       74 |       74 |       0.11 | *
    |     8790 |        - |       73 |       73 |       0.12 | *
    |     9180 |        - |       72 |       72 |       0.12 | *
    |     9215 |        - |       71 |       71 |       0.12 | *
    |      24K |        - |       70 |       70 |       0.14 | *
    |      28K |        - |       69 |       69 |       0.14 | *
    |      28K |        - |       68 |       68 |       0.15 | *
    |      29K |        - |       67 |       67 |       0.15 | *
    |      30K |        - |       66 |       66 |       0.15 | *
    |      30K |        - |       65 |       65 |       0.15 | *
    |      51K |        - |       64 |       64 |       0.17 | *
    |      65K |        - |       63 |       63 |       0.18 | *
    |      91K |        - |       62 |       62 |       0.20 | *
    |      92K |        - |       60 |       60 |       0.20 | *
    |     120K |        - |       59 |       59 |       0.23 | *
    |     120K |        - |       57 |       57 |       0.23 | *
    |     125K |        - |       56 |       56 |       0.24 | *
    |     145K |        - |       55 |       55 |       0.26 | *
    |    1570K |        - |       54 |       54 |       1.54 | *
    |    1781K |        - |       53 |       53 |       1.66 | *
    |    4380K |        - |       51 |       51 |       3.58 | *
    |     121M |        - |       50 |       50 |      68.26 | *
    |     276M |        - |       49 |       49 |     151.45 | *
    \--------------------------------------------------------/

Neighborhoods statistics (values in %):

    /----------------------------------------------------------------\
    | Move               | Improvs. | Sideways |  Accepts |  Rejects |
    |--------------------|----------|----------|----------|----------|
    | Shift(mk)          |     110K |     330K |     471K |     262M |
    | Shift              |     7658 |    6231K |    6334K |     256M |
    | ShiftSmart(mk)     |     225K |     771K |    1072K |     261M |
    | ShiftSmart         |      16K |      11M |      11M |     251M |
    | SimpSwap(mk)       |     1131 |     2132 |     3579 |     262M |
    | SimpSwap           |      153 |      15K |      16K |     262M |
    | SimpSwapSmart(mk)  |     2694 |     4900 |     8471 |     262M |
    | SimpSwapSmart      |      400 |      37K |      41K |     262M |
    | Swap(mk)           |      975 |     2242 |     3505 |     262M |
    | Swap               |      137 |      36K |      37K |     262M |
    | SwapSmart(mk)      |     4502 |     8869 |      15K |     262M |
    | SwapSmart          |      566 |     233K |     237K |     262M |
    | Switch(mk)         |      52K |      58M |      58M |     204M |
    | Switch             |     3693 |      86M |      86M |     176M |
    | SwitchSmart(mk)    |     135K |     219K |     389K |     262M |
    | SwitchSmart        |     9490 |      16M |      16M |     246M |
    | TaskMove(mk)       |     5978 |     9364 |      17K |     262M |
    | TaskMove           |      443 |      37K |      41K |     262M |
    | TaskMoveSmart(mk)  |      17K |      26K |      50K |     262M |
    | TaskMoveSmart      |     1340 |     106K |     118K |     262M |
    | 2-Shift(mk)        |      74K |      21M |      21M |     241M |
    | 2-Shift            |     5244 |      48M |      48M |     214M |
    | 2-ShiftSmart(mk)   |     131K |      18M |      19M |     244M |
    | 2-ShiftSmart       |     9062 |      78M |      78M |     184M |
    \----------------------------------------------------------------/

Best makespan.....: 49
N. of Iterations..: 6294608368
Total runtime.....: 3600.02s
Using Python-MIP package version 1.6.8
Começo a execução
    /-------------------------------------------------------------------------------\
    |    Makespan   |   Free Jobs   | Free Machines |    It. Time   |   Total Time  | 
    |-------------------------------------------------------------------------------|
    \-------------------------------------------------------------------------------/
Terminou a execução
