Instance....: instances/I_50_10_S_1-99_1.txt
Algorithm...: Simulated Annealing (alpha=0.990, saMax=10M, t0=1)
Other params: maxIters=100M, seed=-1, timeLimit=3600.00s

    /--------------------------------------------------------\
    |     Iter |   RDP(%) |       S* |       S' |       Time | 
    |----------|----------|----------|----------|------------|
    |        0 |        - |      681 |      681 |       0.00 | s0
    |        4 |        - |      656 |      656 |       0.02 | *
    |        8 |        - |      650 |      650 |       0.02 | *
    |       15 |        - |      642 |      642 |       0.02 | *
    |       17 |        - |      593 |      593 |       0.02 | *
    |       23 |        - |      591 |      591 |       0.02 | *
    |       26 |        - |      561 |      561 |       0.03 | *
    |       30 |        - |      552 |      552 |       0.03 | *
    |       31 |        - |      542 |      542 |       0.03 | *
    |       35 |        - |      536 |      536 |       0.03 | *
    |       38 |        - |      527 |      527 |       0.03 | *
    |       40 |        - |      515 |      515 |       0.03 | *
    |       43 |        - |      510 |      510 |       0.03 | *
    |       44 |        - |      501 |      501 |       0.03 | *
    |       48 |        - |      498 |      498 |       0.03 | *
    |       52 |        - |      495 |      495 |       0.04 | *
    |       53 |        - |      486 |      486 |       0.04 | *
    |       54 |        - |      470 |      470 |       0.04 | *
    |       61 |        - |      448 |      448 |       0.04 | *
    |       65 |        - |      441 |      441 |       0.04 | *
    |       72 |        - |      422 |      422 |       0.04 | *
    |       78 |        - |      421 |      421 |       0.04 | *
    |       94 |        - |      409 |      409 |       0.04 | *
    |      101 |        - |      402 |      402 |       0.04 | *
    |      127 |        - |      400 |      400 |       0.04 | *
    |      139 |        - |      399 |      399 |       0.04 | *
    |      140 |        - |      398 |      398 |       0.04 | *
    |      168 |        - |      385 |      385 |       0.04 | *
    |      173 |        - |      373 |      373 |       0.04 | *
    |      174 |        - |      371 |      371 |       0.04 | *
    |      179 |        - |      366 |      366 |       0.05 | *
    |      180 |        - |      356 |      356 |       0.05 | *
    |      183 |        - |      347 |      347 |       0.05 | *
    |      191 |        - |      344 |      344 |       0.05 | *
    |      298 |        - |      342 |      342 |       0.05 | *
    |      301 |        - |      331 |      331 |       0.05 | *
    |      302 |        - |      329 |      329 |       0.05 | *
    |      307 |        - |      325 |      325 |       0.05 | *
    |      314 |        - |      324 |      324 |       0.05 | *
    |      316 |        - |      321 |      321 |       0.05 | *
    |      318 |        - |      318 |      318 |       0.05 | *
    |      323 |        - |      316 |      316 |       0.05 | *
    |      386 |        - |      315 |      315 |       0.05 | *
    |      411 |        - |      312 |      312 |       0.06 | *
    |      423 |        - |      295 |      295 |       0.06 | *
    |      428 |        - |      293 |      293 |       0.06 | *
    |      432 |        - |      289 |      289 |       0.06 | *
    |      665 |        - |      280 |      280 |       0.06 | *
    |      745 |        - |      267 |      267 |       0.06 | *
    |      753 |        - |      258 |      258 |       0.06 | *
    |      816 |        - |      251 |      251 |       0.06 | *
    |      818 |        - |      249 |      249 |       0.06 | *
    |      830 |        - |      247 |      247 |       0.06 | *
    |      997 |        - |      245 |      245 |       0.06 | *
    |     1081 |        - |      244 |      244 |       0.06 | *
    |     1166 |        - |      243 |      243 |       0.06 | *
    |     1183 |        - |      242 |      242 |       0.07 | *
    |     1254 |        - |      235 |      235 |       0.07 | *
    |     1294 |        - |      234 |      234 |       0.07 | *
    |     1320 |        - |      232 |      232 |       0.07 | *
    |     1861 |        - |      231 |      231 |       0.07 | *
    |     1956 |        - |      227 |      227 |       0.07 | *
    |     1962 |        - |      224 |      224 |       0.07 | *
    |     1994 |        - |      219 |      219 |       0.07 | *
    |     2048 |        - |      217 |      217 |       0.07 | *
    |     2185 |        - |      216 |      216 |       0.08 | *
    |     2220 |        - |      210 |      210 |       0.08 | *
    |     2535 |        - |      209 |      209 |       0.08 | *
    |     2540 |        - |      207 |      207 |       0.08 | *
    |     2559 |        - |      206 |      206 |       0.08 | *
    |     2566 |        - |      205 |      205 |       0.08 | *
    |     2609 |        - |      203 |      203 |       0.08 | *
    |     2833 |        - |      200 |      200 |       0.08 | *
    |     3137 |        - |      199 |      199 |       0.08 | *
    |     3173 |        - |      196 |      196 |       0.09 | *
    |     5061 |        - |      195 |      195 |       0.09 | *
    |     5113 |        - |      194 |      194 |       0.09 | *
    |     5552 |        - |      193 |      193 |       0.09 | *
    |     6260 |        - |      192 |      192 |       0.09 | *
    |     6269 |        - |      189 |      189 |       0.09 | *
    |     7413 |        - |      188 |      188 |       0.10 | *
    |     7492 |        - |      184 |      184 |       0.10 | *
    |     7987 |        - |      180 |      180 |       0.10 | *
    |     8000 |        - |      176 |      176 |       0.10 | *
    |     8060 |        - |      175 |      175 |       0.10 | *
    |     8275 |        - |      172 |      172 |       0.10 | *
    |     8710 |        - |      171 |      171 |       0.10 | *
    |     9007 |        - |      169 |      169 |       0.10 | *
    |     9114 |        - |      168 |      168 |       0.10 | *
    |     9220 |        - |      164 |      164 |       0.10 | *
    |      10K |        - |      163 |      163 |       0.11 | *
    |      11K |        - |      160 |      160 |       0.11 | *
    |      12K |        - |      159 |      159 |       0.11 | *
    |      12K |        - |      158 |      158 |       0.11 | *
    |      13K |        - |      157 |      157 |       0.11 | *
    |      14K |        - |      154 |      154 |       0.11 | *
    |      14K |        - |      153 |      153 |       0.11 | *
    |      15K |        - |      152 |      152 |       0.11 | *
    |      15K |        - |      149 |      149 |       0.12 | *
    |      16K |        - |      148 |      148 |       0.12 | *
    |      16K |        - |      147 |      147 |       0.12 | *
    |      17K |        - |      143 |      143 |       0.12 | *
    |      17K |        - |      141 |      141 |       0.12 | *
    |      17K |        - |      140 |      140 |       0.12 | *
    |      17K |        - |      138 |      138 |       0.12 | *
    |      29K |        - |      136 |      136 |       0.15 | *
    |      29K |        - |      135 |      135 |       0.15 | *
    |      30K |        - |      134 |      134 |       0.15 | *
    |      43K |        - |      133 |      133 |       0.18 | *
    |      43K |        - |      132 |      132 |       0.18 | *
    |      86K |        - |      131 |      131 |       0.22 | *
    |      87K |        - |      128 |      128 |       0.22 | *
    |      88K |        - |      127 |      127 |       0.22 | *
    |      88K |        - |      125 |      125 |       0.22 | *
    |      98K |        - |      124 |      124 |       0.23 | *
    |     105K |        - |      123 |      123 |       0.24 | *
    |     107K |        - |      122 |      122 |       0.24 | *
    |     146K |        - |      121 |      121 |       0.31 | *
    |     407K |        - |      119 |      119 |       0.73 | *
    |     407K |        - |      118 |      118 |       0.73 | *
    |    1896K |        - |      117 |      117 |       1.62 | *
    |    1933K |        - |      115 |      115 |       1.65 | *
    |    1980K |        - |      113 |      113 |       1.67 | *
    |    7580K |        - |      112 |      112 |       5.01 | *
    |      17M |        - |      111 |      111 |      11.07 | *
    \--------------------------------------------------------/

Neighborhoods statistics (values in %):

    /----------------------------------------------------------------\
    | Move               | Improvs. | Sideways |  Accepts |  Rejects |
    |--------------------|----------|----------|----------|----------|
    | Shift(mk)          |      65K |     967K |    1040K |     273M |
    | Shift              |     6460 |    1538K |    1614K |     273M |
    | ShiftSmart(mk)     |     253K |    3872K |    4142K |     270M |
    | ShiftSmart         |      25K |    5931K |    6198K |     268M |
    | SimpSwap(mk)       |      162 |      122 |      315 |     274M |
    | SimpSwap           |       22 |     1187 |     1391 |     274M |
    | SimpSwapSmart(mk)  |      623 |      505 |     1242 |     274M |
    | SimpSwapSmart      |      131 |     4412 |     5301 |     274M |
    | Swap(mk)           |       54 |       30 |       98 |     274M |
    | Swap               |       10 |      493 |      558 |     274M |
    | SwapSmart(mk)      |      588 |      437 |     1166 |     274M |
    | SwapSmart          |      120 |     5459 |     6176 |     274M |
    | Switch(mk)         |     2163 |      86M |      86M |     188M |
    | Switch             |      214 |      58M |      58M |     216M |
    | SwitchSmart(mk)    |     7811 |     4001 |      17K |     274M |
    | SwitchSmart        |      823 |     478K |     483K |     274M |
    | TaskMove(mk)       |     2059 |     2719 |     5932 |     274M |
    | TaskMove           |      317 |     6232 |     8357 |     274M |
    | TaskMoveSmart(mk)  |      11K |      14K |      30K |     274M |
    | TaskMoveSmart      |     1554 |      34K |      45K |     274M |
    | 2-Shift(mk)        |      39K |      42M |      42M |     232M |
    | 2-Shift            |     3827 |      18M |      18M |     256M |
    | 2-ShiftSmart(mk)   |     117K |      45M |      45M |     229M |
    | 2-ShiftSmart       |      12K |      30M |      31M |     243M |
    \----------------------------------------------------------------/

Best makespan.....: 111
N. of Iterations..: 6578538105
Total runtime.....: 3600.02s
Using Python-MIP package version 1.6.8
Começo a execução
    /-------------------------------------------------------------------------------\
    |    Makespan   |   Free Jobs   | Free Machines |    It. Time   |   Total Time  | 
    |-------------------------------------------------------------------------------|
    \-------------------------------------------------------------------------------/
Terminou a execução
