Instance....: instances/I_50_10_S_1-9_1.txt
Algorithm...: Simulated Annealing (alpha=0.990, saMax=10M, t0=1)
Other params: maxIters=100M, seed=-1, timeLimit=3600.00s

    /--------------------------------------------------------\
    |     Iter |   RDP(%) |       S* |       S' |       Time | 
    |----------|----------|----------|----------|------------|
    |        0 |        - |      351 |      351 |       0.00 | s0
    |        0 |        - |      348 |      348 |       0.00 | *
    |        1 |        - |      339 |      339 |       0.01 | *
    |        4 |        - |      334 |      334 |       0.02 | *
    |       24 |        - |      322 |      322 |       0.03 | *
    |       25 |        - |      314 |      314 |       0.03 | *
    |       36 |        - |      313 |      313 |       0.03 | *
    |       37 |        - |      311 |      311 |       0.03 | *
    |       39 |        - |      296 |      296 |       0.03 | *
    |       48 |        - |      295 |      295 |       0.03 | *
    |       53 |        - |      293 |      293 |       0.03 | *
    |       57 |        - |      283 |      283 |       0.03 | *
    |       60 |        - |      280 |      280 |       0.04 | *
    |       65 |        - |      263 |      263 |       0.04 | *
    |       67 |        - |      259 |      259 |       0.04 | *
    |       69 |        - |      253 |      253 |       0.04 | *
    |       71 |        - |      250 |      250 |       0.04 | *
    |       76 |        - |      240 |      240 |       0.04 | *
    |       96 |        - |      236 |      236 |       0.04 | *
    |       99 |        - |      232 |      232 |       0.04 | *
    |      101 |        - |      231 |      231 |       0.04 | *
    |      107 |        - |      230 |      230 |       0.04 | *
    |      114 |        - |      226 |      226 |       0.04 | *
    |      123 |        - |      224 |      224 |       0.04 | *
    |      129 |        - |      222 |      222 |       0.04 | *
    |      150 |        - |      218 |      218 |       0.04 | *
    |      154 |        - |      214 |      214 |       0.05 | *
    |      155 |        - |      208 |      208 |       0.05 | *
    |      165 |        - |      207 |      207 |       0.05 | *
    |      171 |        - |      202 |      202 |       0.05 | *
    |      189 |        - |      200 |      200 |       0.05 | *
    |      197 |        - |      192 |      192 |       0.05 | *
    |      201 |        - |      191 |      191 |       0.05 | *
    |      223 |        - |      189 |      189 |       0.05 | *
    |      240 |        - |      187 |      187 |       0.05 | *
    |      244 |        - |      186 |      186 |       0.05 | *
    |      255 |        - |      185 |      185 |       0.05 | *
    |      328 |        - |      184 |      184 |       0.05 | *
    |      336 |        - |      183 |      183 |       0.05 | *
    |      342 |        - |      182 |      182 |       0.05 | *
    |      344 |        - |      180 |      180 |       0.06 | *
    |      349 |        - |      176 |      176 |       0.06 | *
    |      365 |        - |      174 |      174 |       0.06 | *
    |      366 |        - |      173 |      173 |       0.06 | *
    |      375 |        - |      170 |      170 |       0.06 | *
    |      399 |        - |      168 |      168 |       0.06 | *
    |      401 |        - |      167 |      167 |       0.06 | *
    |      407 |        - |      166 |      166 |       0.06 | *
    |      415 |        - |      165 |      165 |       0.06 | *
    |      425 |        - |      163 |      163 |       0.06 | *
    |      431 |        - |      162 |      162 |       0.06 | *
    |      453 |        - |      160 |      160 |       0.06 | *
    |      483 |        - |      154 |      154 |       0.06 | *
    |      488 |        - |      153 |      153 |       0.06 | *
    |      515 |        - |      143 |      143 |       0.06 | *
    |      560 |        - |      142 |      142 |       0.07 | *
    |      566 |        - |      141 |      141 |       0.07 | *
    |      593 |        - |      140 |      140 |       0.07 | *
    |      600 |        - |      138 |      138 |       0.07 | *
    |      628 |        - |      137 |      137 |       0.07 | *
    |      634 |        - |      136 |      136 |       0.07 | *
    |      649 |        - |      135 |      135 |       0.07 | *
    |      669 |        - |      133 |      133 |       0.07 | *
    |      689 |        - |      130 |      130 |       0.07 | *
    |      780 |        - |      129 |      129 |       0.07 | *
    |      820 |        - |      126 |      126 |       0.07 | *
    |      854 |        - |      125 |      125 |       0.07 | *
    |      865 |        - |      122 |      122 |       0.07 | *
    |      901 |        - |      120 |      120 |       0.07 | *
    |      923 |        - |      119 |      119 |       0.07 | *
    |      926 |        - |      117 |      117 |       0.08 | *
    |     1149 |        - |      116 |      116 |       0.08 | *
    |     1152 |        - |      113 |      113 |       0.08 | *
    |     1156 |        - |      111 |      111 |       0.08 | *
    |     1224 |        - |      110 |      110 |       0.08 | *
    |     1316 |        - |      109 |      109 |       0.08 | *
    |     1526 |        - |      108 |      108 |       0.08 | *
    |     1598 |        - |      107 |      107 |       0.08 | *
    |     1643 |        - |      106 |      106 |       0.08 | *
    |     1697 |        - |      105 |      105 |       0.08 | *
    |     1868 |        - |      104 |      104 |       0.08 | *
    |     1887 |        - |      103 |      103 |       0.08 | *
    |     2367 |        - |      101 |      101 |       0.09 | *
    |     2371 |        - |      100 |      100 |       0.09 | *
    |     2403 |        - |       99 |       99 |       0.09 | *
    |     2510 |        - |       96 |       96 |       0.09 | *
    |     2632 |        - |       95 |       95 |       0.09 | *
    |     2645 |        - |       94 |       94 |       0.09 | *
    |     2811 |        - |       93 |       93 |       0.09 | *
    |     2887 |        - |       92 |       92 |       0.09 | *
    |     3838 |        - |       90 |       90 |       0.10 | *
    |     3930 |        - |       89 |       89 |       0.10 | *
    |     3934 |        - |       87 |       87 |       0.10 | *
    |     3981 |        - |       86 |       86 |       0.10 | *
    |     4014 |        - |       84 |       84 |       0.10 | *
    |     8340 |        - |       83 |       83 |       0.12 | *
    |     8826 |        - |       82 |       82 |       0.12 | *
    |     8844 |        - |       81 |       81 |       0.12 | *
    |     8856 |        - |       79 |       79 |       0.12 | *
    |     8859 |        - |       78 |       78 |       0.12 | *
    |     8864 |        - |       77 |       77 |       0.12 | *
    |     9300 |        - |       76 |       76 |       0.12 | *
    |     9327 |        - |       75 |       75 |       0.12 | *
    |     9349 |        - |       74 |       74 |       0.12 | *
    |     9483 |        - |       73 |       73 |       0.13 | *
    |      59K |        - |       72 |       72 |       0.21 | *
    |      59K |        - |       71 |       71 |       0.21 | *
    |      62K |        - |       70 |       70 |       0.22 | *
    |      64K |        - |       69 |       69 |       0.22 | *
    |      64K |        - |       68 |       68 |       0.22 | *
    |      66K |        - |       66 |       66 |       0.22 | *
    |    1396K |        - |       65 |       65 |       1.54 | *
    \--------------------------------------------------------/

Neighborhoods statistics (values in %):

    /----------------------------------------------------------------\
    | Move               | Improvs. | Sideways |  Accepts |  Rejects |
    |--------------------|----------|----------|----------|----------|
    | Shift(mk)          |    1103K |    9295K |      11M |     259M |
    | Shift              |     114K |      72M |      73M |     197M |
    | ShiftSmart(mk)     |    3241K |      32M |      37M |     233M |
    | ShiftSmart         |     334K |     122M |     123M |     147M |
    | SimpSwap(mk)       |     1800 |      10K |      13K |     270M |
    | SimpSwap           |      364 |     8429 |      10K |     270M |
    | SimpSwapSmart(mk)  |     7906 |      49K |      63K |     270M |
    | SimpSwapSmart      |     1446 |      39K |      47K |     270M |
    | Swap(mk)           |     1785 |     6602 |     9619 |     270M |
    | Swap               |      364 |     7585 |     9456 |     270M |
    | SwapSmart(mk)      |     5506 |      57K |      66K |     270M |
    | SwapSmart          |      998 |      33K |      38K |     270M |
    | Switch(mk)         |     655K |      59M |      60M |     210M |
    | Switch             |      68K |     111M |     112M |     158M |
    | SwitchSmart(mk)    |    1735K |      11M |      14M |     256M |
    | SwitchSmart        |     178K |      87M |      88M |     182M |
    | TaskMove(mk)       |      26K |     159K |     200K |     270M |
    | TaskMove           |     2614 |     347K |     362K |     270M |
    | TaskMoveSmart(mk)  |      64K |     496K |     597K |     269M |
    | TaskMoveSmart      |     6611 |     826K |     860K |     269M |
    | 2-Shift(mk)        |     680K |      21M |      22M |     248M |
    | 2-Shift            |      70K |      81M |      82M |     188M |
    | 2-ShiftSmart(mk)   |    2207K |      54M |      57M |     213M |
    | 2-ShiftSmart       |     229K |     146M |     147M |     123M |
    \----------------------------------------------------------------/

Best makespan.....: 65
N. of Iterations..: 6477448158
Total runtime.....: 3600.02s
Using Python-MIP package version 1.6.8
Começo a execução
    /-------------------------------------------------------------------------------\
    |    Makespan   |   Free Jobs   | Free Machines |    It. Time   |   Total Time  | 
    |-------------------------------------------------------------------------------|
    \-------------------------------------------------------------------------------/
Terminou a execução
