Instance....: instances/I_50_10_S_1-49_10.txt
Algorithm...: Simulated Annealing (alpha=0.990, saMax=10M, t0=1)
Other params: maxIters=100M, seed=-1, timeLimit=3600.00s

    /--------------------------------------------------------\
    |     Iter |   RDP(%) |       S* |       S' |       Time | 
    |----------|----------|----------|----------|------------|
    |        0 |        - |      584 |      584 |       0.00 | s0
    |        0 |        - |      531 |      531 |       0.01 | *
    |        3 |        - |      501 |      501 |       0.04 | *
    |        4 |        - |      478 |      478 |       0.04 | *
    |        5 |        - |      468 |      468 |       0.04 | *
    |        7 |        - |      450 |      450 |       0.05 | *
    |        8 |        - |      438 |      438 |       0.05 | *
    |       17 |        - |      429 |      429 |       0.05 | *
    |       24 |        - |      417 |      417 |       0.06 | *
    |       36 |        - |      411 |      411 |       0.06 | *
    |       37 |        - |      409 |      409 |       0.06 | *
    |       42 |        - |      399 |      399 |       0.07 | *
    |       43 |        - |      386 |      386 |       0.07 | *
    |       51 |        - |      380 |      380 |       0.07 | *
    |       52 |        - |      378 |      378 |       0.07 | *
    |       56 |        - |      373 |      373 |       0.07 | *
    |       57 |        - |      371 |      371 |       0.07 | *
    |       58 |        - |      370 |      370 |       0.07 | *
    |       60 |        - |      366 |      366 |       0.08 | *
    |       67 |        - |      359 |      359 |       0.08 | *
    |       68 |        - |      356 |      356 |       0.08 | *
    |       73 |        - |      354 |      354 |       0.08 | *
    |       85 |        - |      335 |      335 |       0.09 | *
    |      104 |        - |      329 |      329 |       0.09 | *
    |      108 |        - |      325 |      325 |       0.09 | *
    |      137 |        - |      311 |      311 |       0.09 | *
    |      139 |        - |      310 |      310 |       0.10 | *
    |      145 |        - |      308 |      308 |       0.10 | *
    |      189 |        - |      303 |      303 |       0.10 | *
    |      195 |        - |      300 |      300 |       0.10 | *
    |      199 |        - |      288 |      288 |       0.10 | *
    |      212 |        - |      282 |      282 |       0.10 | *
    |      219 |        - |      277 |      277 |       0.10 | *
    |      271 |        - |      271 |      271 |       0.10 | *
    |      303 |        - |      267 |      267 |       0.11 | *
    |      325 |        - |      265 |      265 |       0.11 | *
    |      353 |        - |      264 |      264 |       0.11 | *
    |      355 |        - |      260 |      260 |       0.11 | *
    |      370 |        - |      257 |      257 |       0.11 | *
    |      375 |        - |      255 |      255 |       0.11 | *
    |      376 |        - |      254 |      254 |       0.11 | *
    |      389 |        - |      251 |      251 |       0.11 | *
    |      396 |        - |      245 |      245 |       0.12 | *
    |      515 |        - |      238 |      238 |       0.12 | *
    |      516 |        - |      227 |      227 |       0.12 | *
    |      520 |        - |      221 |      221 |       0.12 | *
    |      524 |        - |      219 |      219 |       0.12 | *
    |      528 |        - |      217 |      217 |       0.13 | *
    |      530 |        - |      209 |      209 |       0.13 | *
    |      603 |        - |      202 |      202 |       0.13 | *
    |      632 |        - |      199 |      199 |       0.13 | *
    |      634 |        - |      198 |      198 |       0.13 | *
    |      640 |        - |      197 |      197 |       0.13 | *
    |      643 |        - |      194 |      194 |       0.13 | *
    |      676 |        - |      193 |      193 |       0.13 | *
    |      751 |        - |      191 |      191 |       0.14 | *
    |      806 |        - |      190 |      190 |       0.14 | *
    |      835 |        - |      187 |      187 |       0.14 | *
    |      875 |        - |      185 |      185 |       0.14 | *
    |      989 |        - |      183 |      183 |       0.14 | *
    |      998 |        - |      182 |      182 |       0.15 | *
    |     1082 |        - |      180 |      180 |       0.15 | *
    |     1090 |        - |      179 |      179 |       0.15 | *
    |     1117 |        - |      177 |      177 |       0.15 | *
    |     1123 |        - |      176 |      176 |       0.15 | *
    |     1134 |        - |      174 |      174 |       0.15 | *
    |     1139 |        - |      171 |      171 |       0.15 | *
    |     1182 |        - |      169 |      169 |       0.15 | *
    |     1183 |        - |      168 |      168 |       0.16 | *
    |     1195 |        - |      167 |      167 |       0.16 | *
    |     1277 |        - |      166 |      166 |       0.16 | *
    |     1436 |        - |      164 |      164 |       0.16 | *
    |     1692 |        - |      161 |      161 |       0.17 | *
    |     2449 |        - |      160 |      160 |       0.18 | *
    |     2453 |        - |      155 |      155 |       0.18 | *
    |     2459 |        - |      154 |      154 |       0.18 | *
    |     2486 |        - |      152 |      152 |       0.18 | *
    |     2492 |        - |      151 |      151 |       0.19 | *
    |     2495 |        - |      150 |      150 |       0.19 | *
    |     2662 |        - |      149 |      149 |       0.19 | *
    |     2849 |        - |      148 |      148 |       0.19 | *
    |     2851 |        - |      147 |      147 |       0.19 | *
    |     3008 |        - |      146 |      146 |       0.20 | *
    |     3059 |        - |      145 |      145 |       0.20 | *
    |     3065 |        - |      143 |      143 |       0.20 | *
    |     3075 |        - |      142 |      142 |       0.20 | *
    |     3391 |        - |      141 |      141 |       0.20 | *
    |     3461 |        - |      140 |      140 |       0.20 | *
    |     4943 |        - |      139 |      139 |       0.22 | *
    |     5280 |        - |      138 |      138 |       0.22 | *
    |     5803 |        - |      136 |      136 |       0.22 | *
    |     5892 |        - |      135 |      135 |       0.22 | *
    |     6949 |        - |      132 |      132 |       0.23 | *
    |     7004 |        - |      129 |      129 |       0.23 | *
    |     7019 |        - |      127 |      127 |       0.23 | *
    |     7041 |        - |      126 |      126 |       0.24 | *
    |     7941 |        - |      125 |      125 |       0.25 | *
    |     8088 |        - |      124 |      124 |       0.25 | *
    |     8366 |        - |      121 |      121 |       0.25 | *
    |     8397 |        - |      120 |      120 |       0.26 | *
    |      10K |        - |      119 |      119 |       0.26 | *
    |      10K |        - |      118 |      118 |       0.26 | *
    |      10K |        - |      117 |      117 |       0.27 | *
    |      12K |        - |      116 |      116 |       0.27 | *
    |      13K |        - |      115 |      115 |       0.28 | *
    |      34K |        - |      113 |      113 |       0.33 | *
    |      34K |        - |      112 |      112 |       0.33 | *
    |      37K |        - |      111 |      111 |       0.35 | *
    |      39K |        - |      110 |      110 |       0.35 | *
    |      65K |        - |      109 |      109 |       0.41 | *
    |      65K |        - |      108 |      108 |       0.41 | *
    |      71K |        - |      107 |      107 |       0.43 | *
    |      72K |        - |      106 |      106 |       0.43 | *
    |     118K |        - |      105 |      105 |       0.51 | *
    |     118K |        - |      104 |      104 |       0.52 | *
    |     804K |        - |      103 |      103 |       3.30 | *
    |     804K |        - |      102 |      102 |       3.30 | *
    |     807K |        - |      101 |      101 |       3.31 | *
    |     807K |        - |      100 |      100 |       3.31 | *
    |     941K |        - |       99 |       99 |       3.55 | *
    |    1429K |        - |       98 |       98 |       3.98 | *
    |    3127K |        - |       97 |       97 |       5.00 | *
    |    7517K |        - |       96 |       96 |       7.44 | *
    |      13M |        - |       95 |       95 |      10.96 | *
    \--------------------------------------------------------/

Neighborhoods statistics (values in %):

    /----------------------------------------------------------------\
    | Move               | Improvs. | Sideways |  Accepts |  Rejects |
    |--------------------|----------|----------|----------|----------|
    | Shift(mk)          |      87K |     378K |     485K |     269M |
    | Shift              |     8745 |    5432K |    5518K |     264M |
    | ShiftSmart(mk)     |     236K |    1582K |    1901K |     267M |
    | ShiftSmart         |      23K |      19M |      19M |     250M |
    | SimpSwap(mk)       |      464 |      547 |     1108 |     269M |
    | SimpSwap           |       89 |     2223 |     2934 |     269M |
    | SimpSwapSmart(mk)  |     2480 |     2649 |     5605 |     269M |
    | SimpSwapSmart      |      432 |     9860 |      13K |     269M |
    | Swap(mk)           |      150 |      214 |      403 |     269M |
    | Swap               |       32 |     1080 |     1321 |     269M |
    | SwapSmart(mk)      |     2127 |     3272 |     5831 |     269M |
    | SwapSmart          |      436 |      13K |      16K |     269M |
    | Switch(mk)         |      45K |      45M |      45M |     224M |
    | Switch             |     4499 |      59M |      59M |     210M |
    | SwitchSmart(mk)    |     127K |      57K |     240K |     269M |
    | SwitchSmart        |      13K |    3715K |    3812K |     265M |
    | TaskMove(mk)       |     1864 |     8544 |      11K |     269M |
    | TaskMove           |      171 |     277K |     278K |     269M |
    | TaskMoveSmart(mk)  |     8865 |      46K |      60K |     269M |
    | TaskMoveSmart      |      920 |    1072K |    1078K |     268M |
    | 2-Shift(mk)        |      52K |    9378K |    9442K |     260M |
    | 2-Shift            |     5353 |      24M |      24M |     245M |
    | 2-ShiftSmart(mk)   |     215K |      18M |      18M |     251M |
    | 2-ShiftSmart       |      21K |      40M |      40M |     229M |
    \----------------------------------------------------------------/

Best makespan.....: 95
N. of Iterations..: 6459529364
Total runtime.....: 3600.03s
Using Python-MIP package version 1.6.8
Começo a execução
    /-------------------------------------------------------------------------------\
    |    Makespan   |   Free Jobs   | Free Machines |    It. Time   |   Total Time  | 
    |-------------------------------------------------------------------------------|
    \-------------------------------------------------------------------------------/
Terminou a execução
