Instance....: instances/I_50_20_S_1-49_5.txt
Algorithm...: Simulated Annealing (alpha=0.990, saMax=10M, t0=1)
Other params: maxIters=100M, seed=3, timeLimit=360.00s

    /--------------------------------------------------------\
    |     Iter |   RDP(%) |       S* |       S' |       Time | 
    |----------|----------|----------|----------|------------|
    |        0 |        - |      537 |      537 |       0.00 | s0
    |        0 |        - |      522 |      522 |       0.00 | *
    |        3 |        - |      471 |      471 |       0.00 | *
    |        6 |        - |      426 |      426 |       0.02 | *
    |        7 |        - |      405 |      405 |       0.02 | *
    |       11 |        - |      398 |      398 |       0.02 | *
    |       21 |        - |      384 |      384 |       0.02 | *
    |       22 |        - |      369 |      369 |       0.02 | *
    |       24 |        - |      344 |      344 |       0.02 | *
    |       26 |        - |      333 |      333 |       0.03 | *
    |       30 |        - |      311 |      311 |       0.03 | *
    |       33 |        - |      306 |      306 |       0.03 | *
    |       41 |        - |      289 |      289 |       0.03 | *
    |       49 |        - |      286 |      286 |       0.03 | *
    |       51 |        - |      278 |      278 |       0.03 | *
    |       53 |        - |      275 |      275 |       0.03 | *
    |       55 |        - |      271 |      271 |       0.03 | *
    |       59 |        - |      263 |      263 |       0.03 | *
    |       60 |        - |      261 |      261 |       0.03 | *
    |       63 |        - |      260 |      260 |       0.03 | *
    |       72 |        - |      256 |      256 |       0.03 | *
    |       81 |        - |      252 |      252 |       0.03 | *
    |       85 |        - |      245 |      245 |       0.03 | *
    |       87 |        - |      237 |      237 |       0.03 | *
    |       89 |        - |      230 |      230 |       0.03 | *
    |       90 |        - |      225 |      225 |       0.03 | *
    |       95 |        - |      217 |      217 |       0.03 | *
    |       96 |        - |      211 |      211 |       0.03 | *
    |      100 |        - |      209 |      209 |       0.03 | *
    |      102 |        - |      207 |      207 |       0.03 | *
    |      109 |        - |      203 |      203 |       0.03 | *
    |      113 |        - |      201 |      201 |       0.03 | *
    |      115 |        - |      199 |      199 |       0.04 | *
    |      121 |        - |      190 |      190 |       0.04 | *
    |      122 |        - |      187 |      187 |       0.04 | *
    |      123 |        - |      180 |      180 |       0.04 | *
    |      127 |        - |      179 |      179 |       0.04 | *
    |      130 |        - |      172 |      172 |       0.04 | *
    |      133 |        - |      169 |      169 |       0.04 | *
    |      134 |        - |      167 |      167 |       0.04 | *
    |      146 |        - |      161 |      161 |       0.04 | *
    |      148 |        - |      160 |      160 |       0.04 | *
    |      166 |        - |      159 |      159 |       0.04 | *
    |      182 |        - |      157 |      157 |       0.04 | *
    |      191 |        - |      155 |      155 |       0.04 | *
    |      197 |        - |      154 |      154 |       0.04 | *
    |      212 |        - |      153 |      153 |       0.04 | *
    |      214 |        - |      147 |      147 |       0.04 | *
    |      221 |        - |      145 |      145 |       0.04 | *
    |      237 |        - |      141 |      141 |       0.04 | *
    |      250 |        - |      137 |      137 |       0.04 | *
    |      261 |        - |      133 |      133 |       0.04 | *
    |      262 |        - |      132 |      132 |       0.04 | *
    |      265 |        - |      128 |      128 |       0.04 | *
    |      278 |        - |      127 |      127 |       0.04 | *
    |      295 |        - |      126 |      126 |       0.04 | *
    |      304 |        - |      118 |      118 |       0.04 | *
    |      308 |        - |      117 |      117 |       0.04 | *
    |      317 |        - |      116 |      116 |       0.04 | *
    |      324 |        - |      114 |      114 |       0.05 | *
    |      340 |        - |      112 |      112 |       0.05 | *
    |      341 |        - |      111 |      111 |       0.05 | *
    |      386 |        - |      109 |      109 |       0.05 | *
    |      463 |        - |      108 |      108 |       0.05 | *
    |      532 |        - |      106 |      106 |       0.05 | *
    |      561 |        - |       98 |       98 |       0.05 | *
    |      583 |        - |       95 |       95 |       0.05 | *
    |      590 |        - |       94 |       94 |       0.05 | *
    |      592 |        - |       92 |       92 |       0.05 | *
    |      594 |        - |       90 |       90 |       0.05 | *
    |      642 |        - |       88 |       88 |       0.05 | *
    |      727 |        - |       85 |       85 |       0.05 | *
    |      812 |        - |       83 |       83 |       0.05 | *
    |      819 |        - |       82 |       82 |       0.05 | *
    |      834 |        - |       80 |       80 |       0.05 | *
    |      898 |        - |       79 |       79 |       0.05 | *
    |      963 |        - |       78 |       78 |       0.05 | *
    |     1160 |        - |       77 |       77 |       0.05 | *
    |     1163 |        - |       76 |       76 |       0.05 | *
    |     1314 |        - |       75 |       75 |       0.05 | *
    |     1474 |        - |       73 |       73 |       0.06 | *
    |     1532 |        - |       72 |       72 |       0.06 | *
    |     1733 |        - |       71 |       71 |       0.06 | *
    |     2750 |        - |       70 |       70 |       0.06 | *
    |     2752 |        - |       69 |       69 |       0.06 | *
    |     2753 |        - |       68 |       68 |       0.06 | *
    |     2808 |        - |       67 |       67 |       0.06 | *
    |     2841 |        - |       66 |       66 |       0.06 | *
    |     2845 |        - |       65 |       65 |       0.06 | *
    |     2932 |        - |       64 |       64 |       0.06 | *
    |     2991 |        - |       63 |       63 |       0.06 | *
    |     3119 |        - |       62 |       62 |       0.06 | *
    |     3305 |        - |       61 |       61 |       0.07 | *
    |     3369 |        - |       60 |       60 |       0.07 | *
    |     3843 |        - |       57 |       57 |       0.07 | *
    |     3856 |        - |       56 |       56 |       0.07 | *
    |     6842 |        - |       55 |       55 |       0.08 | *
    |     6895 |        - |       54 |       54 |       0.08 | *
    |     7224 |        - |       53 |       53 |       0.08 | *
    |     8210 |        - |       52 |       52 |       0.08 | *
    |     8275 |        - |       51 |       51 |       0.08 | *
    |     8478 |        - |       50 |       50 |       0.08 | *
    |     8494 |        - |       49 |       49 |       0.08 | *
    |     8763 |        - |       48 |       48 |       0.08 | *
    |      13K |        - |       46 |       46 |       0.09 | *
    |      14K |        - |       45 |       45 |       0.09 | *
    |      14K |        - |       43 |       43 |       0.09 | *
    |      17K |        - |       42 |       42 |       0.10 | *
    |      29K |        - |       41 |       41 |       0.11 | *
    |      30K |        - |       40 |       40 |       0.12 | *
    |      55K |        - |       39 |       39 |       0.16 | *
    |      61K |        - |       38 |       38 |       0.17 | *
    |      64K |        - |       37 |       37 |       0.18 | *
    |      66K |        - |       36 |       36 |       0.18 | *
    |      66K |        - |       35 |       35 |       0.18 | *
    |      66K |        - |       34 |       34 |       0.18 | *
    |     369K |        - |       33 |       33 |       0.57 | *
    |    1805K |        - |       32 |       32 |       2.29 | *
    |    3116K |        - |       31 |       31 |       3.83 | *
    |    6502K |        - |       30 |       30 |       7.89 | *
    \--------------------------------------------------------/

Neighborhoods statistics (values in %):

    /----------------------------------------------------------------\
    | Move               | Improvs. | Sideways |  Accepts |  Rejects |
    |--------------------|----------|----------|----------|----------|
    | Shift(mk)          |     139K |     207K |     379K |      12M |
    | Shift              |     7505 |    1885K |    2007K |      10M |
    | ShiftSmart(mk)     |     234K |     308K |     621K |      11M |
    | ShiftSmart         |      13K |    2311K |    2496K |    9905K |
    | SimpSwap(mk)       |     2760 |     4038 |     8253 |      12M |
    | SimpSwap           |      278 |      18K |      20K |      12M |
    | SimpSwapSmart(mk)  |     4721 |     6606 |      14K |      12M |
    | SimpSwapSmart      |      493 |      31K |      35K |      12M |
    | Swap(mk)           |     2692 |     3670 |     7454 |      12M |
    | Swap               |      261 |      17K |      19K |      12M |
    | SwapSmart(mk)      |     6836 |     9629 |      20K |      12M |
    | SwapSmart          |      709 |      40K |      45K |      12M |
    | Switch(mk)         |      75K |    4410K |    4504K |    7543K |
    | Switch             |     4080 |    5903K |    5966K |    6440K |
    | SwitchSmart(mk)    |     178K |     249K |     489K |      12M |
    | SwitchSmart        |     9692 |    1977K |    2112K |      10M |
    | TaskMove(mk)       |     8684 |      13K |      26K |      12M |
    | TaskMove           |      456 |      34K |      39K |      12M |
    | TaskMoveSmart(mk)  |      20K |      33K |      63K |      12M |
    | TaskMoveSmart      |     1089 |      79K |      90K |      12M |
    | 2-Shift(mk)        |      83K |    2844K |    2947K |    9107K |
    | 2-Shift            |     4584 |    4852K |    4925K |    7477K |
    | 2-ShiftSmart(mk)   |      79K |    5199K |    5297K |    6760K |
    | 2-ShiftSmart       |     4242 |    7608K |    7648K |    4753K |
    \----------------------------------------------------------------/

Best makespan.....: 30
N. of Iterations..: 295561529
Total runtime.....: 360.01s
Academic license - for non-commercial use only
Academic license - for non-commercial use only
Academic license - for non-commercial use only
Academic license - for non-commercial use only
Academic license - for non-commercial use only
Academic license - for non-commercial use only
Academic license - for non-commercial use only
Academic license - for non-commercial use only
Academic license - for non-commercial use only
Academic license - for non-commercial use only
Academic license - for non-commercial use only
Academic license - for non-commercial use only
Academic license - for non-commercial use only
Academic license - for non-commercial use only
Academic license - for non-commercial use only
Academic license - for non-commercial use only
Academic license - for non-commercial use only
Academic license - for non-commercial use only
Academic license - for non-commercial use only
Academic license - for non-commercial use only
Academic license - for non-commercial use only
Academic license - for non-commercial use only
Academic license - for non-commercial use only
Academic license - for non-commercial use only
Academic license - for non-commercial use only
Academic license - for non-commercial use only
Academic license - for non-commercial use only
Academic license - for non-commercial use only
Academic license - for non-commercial use only
Academic license - for non-commercial use only
Academic license - for non-commercial use only
Academic license - for non-commercial use only
Academic license - for non-commercial use only
Academic license - for non-commercial use only
Academic license - for non-commercial use only
Academic license - for non-commercial use only
Academic license - for non-commercial use only
Academic license - for non-commercial use only
Academic license - for non-commercial use only
Academic license - for non-commercial use only
Academic license - for non-commercial use only
Academic license - for non-commercial use only
Academic license - for non-commercial use only
Academic license - for non-commercial use only
Academic license - for non-commercial use only
Academic license - for non-commercial use only
Academic license - for non-commercial use only
Academic license - for non-commercial use only
Academic license - for non-commercial use only
Academic license - for non-commercial use only
Academic license - for non-commercial use only
Academic license - for non-commercial use only
Academic license - for non-commercial use only
Academic license - for non-commercial use only
Academic license - for non-commercial use only
Academic license - for non-commercial use only
Academic license - for non-commercial use only
Academic license - for non-commercial use only
Academic license - for non-commercial use only
Academic license - for non-commercial use only
Academic license - for non-commercial use only
Academic license - for non-commercial use only
Academic license - for non-commercial use only
Academic license - for non-commercial use only
Academic license - for non-commercial use only
Academic license - for non-commercial use only
Academic license - for non-commercial use only
Academic license - for non-commercial use only
Academic license - for non-commercial use only
Academic license - for non-commercial use only
Academic license - for non-commercial use only
Academic license - for non-commercial use only
Academic license - for non-commercial use only
Academic license - for non-commercial use only
Academic license - for non-commercial use only
Academic license - for non-commercial use only
Academic license - for non-commercial use only
Academic license - for non-commercial use only
Academic license - for non-commercial use only
Academic license - for non-commercial use only
Academic license - for non-commercial use only
Academic license - for non-commercial use only
Academic license - for non-commercial use only
Academic license - for non-commercial use only
Academic license - for non-commercial use only
Academic license - for non-commercial use only
Academic license - for non-commercial use only
Academic license - for non-commercial use only
Academic license - for non-commercial use only
Academic license - for non-commercial use only
Academic license - for non-commercial use only
Academic license - for non-commercial use only
    /-------------------------------------------------------------------------------\
    |    Makespam   |   Free Jobs   | Free Machines |    It. Time   |   Total Time  | 
    |-------------------------------------------------------------------------------|
    |            30 |            33 |            15 |          2.71 |          3.53 | 
    |            30 |            39 |            17 |          0.15 |          3.83 | 
    |            30 |            46 |            19 |          0.26 |          4.37 | 
    |            30 |            50 |            20 |          0.36 |          4.97 | 
    |            30 |            50 |            20 |          0.32 |          5.59 | 
    |            30 |            50 |            20 |          0.33 |          6.11 | 
    |            30 |            50 |            20 |          0.27 |          6.58 | 
    |            30 |            50 |            20 |          0.29 |          7.01 | 
    |            30 |            50 |            20 |          0.29 |          7.51 | 
    |            30 |            50 |            20 |          0.28 |          7.98 | 
    |            30 |            50 |            20 |          0.29 |          8.48 | 
    |            30 |            50 |            20 |          0.29 |          8.92 | 
    |            30 |            50 |            20 |          0.30 |          9.39 | 
    |            30 |            50 |            20 |          0.37 |          9.96 | 
    |            30 |            50 |            20 |          0.27 |         10.39 | 
    |            30 |            50 |            20 |          0.30 |         10.89 | 
    |            30 |            50 |            20 |          0.32 |         11.35 | 
    |            30 |            50 |            20 |          0.26 |         11.80 | 
    |            30 |            50 |            20 |          0.30 |         12.27 | 
    |            30 |            50 |            20 |          0.29 |         12.72 | 
    |            30 |            50 |            20 |         22.01 |         34.91 | 
    |            30 |            40 |            17 |          3.75 |         38.76 | 
    |            30 |            48 |            20 |          0.26 |         39.17 | 
    |            30 |            50 |            20 |          0.27 |         39.63 | 
    |            30 |            50 |            20 |          0.26 |         40.04 | 
    |            30 |            50 |            20 |          0.29 |         40.50 | 
    |            30 |            50 |            20 |          0.28 |         40.97 | 
    |            30 |            50 |            20 |         22.00 |         63.14 | 
    |            30 |            40 |            17 |          7.80 |         71.04 | 
    |            30 |            48 |            20 |          0.34 |         71.70 | 
    |            30 |            50 |            20 |          0.32 |         72.33 | 
    |            30 |            50 |            20 |          0.33 |         72.84 | 
    |            30 |            50 |            20 |          0.34 |         73.39 | 
    |            30 |            50 |            20 |          0.30 |         73.89 | 
    |            30 |            50 |            20 |          0.36 |         74.48 | 
    |            30 |            50 |            20 |         22.01 |         96.69 | 
    |            30 |            40 |            17 |          0.11 |         96.90 | 
    |            30 |            48 |            20 |          0.27 |         97.49 | 
    |            30 |            50 |            20 |         22.01 |        119.71 | 
    |            30 |            40 |            17 |          0.13 |        119.97 | 
    |            30 |            48 |            20 |          0.28 |        120.47 | 
    |            30 |            50 |            20 |          0.27 |        120.89 | 
    |            30 |            50 |            20 |          0.26 |        121.31 | 
    |            30 |            50 |            20 |          0.26 |        121.75 | 
    |            30 |            50 |            20 |          0.30 |        122.18 | 
    |            30 |            50 |            20 |          0.33 |        122.73 | 
    |            30 |            50 |            20 |          0.27 |        123.17 | 
    |            30 |            50 |            20 |          0.26 |        123.61 | 
    |            30 |            50 |            20 |          0.32 |        124.17 | 
    |            30 |            50 |            20 |          0.29 |        124.60 | 
    |            30 |            50 |            20 |          0.25 |        125.02 | 
    |            30 |            50 |            20 |          0.30 |        125.49 | 
    |            30 |            50 |            20 |         22.03 |        147.74 | 
    |            30 |            40 |            16 |          1.65 |        149.47 | 
    |            30 |            48 |            20 |          0.32 |        150.09 | 
    |            30 |            50 |            20 |         22.00 |        172.35 | 
    |            30 |            40 |            16 |          0.13 |        172.62 | 
    |            30 |            48 |            20 |          0.31 |        173.21 | 
    |            30 |            50 |            20 |          0.29 |        173.72 | 
    |            30 |            50 |            20 |          0.34 |        174.25 | 
    |            30 |            50 |            20 |          0.29 |        174.74 | 
    |            30 |            50 |            20 |          0.32 |        175.23 | 
    |            30 |            50 |            20 |          0.28 |        175.69 | 
    |            30 |            50 |            20 |          0.34 |        176.22 | 
    |            30 |            50 |            20 |         22.00 |        198.40 | 
    |            30 |            40 |            16 |         22.01 |        220.53 | 
    |            30 |            32 |            14 |          0.39 |        221.05 | 
    |            30 |            38 |            16 |         22.00 |        243.22 | 
    |            30 |            30 |            13 |          0.35 |        243.70 | 
    |            30 |            36 |            15 |          0.12 |        243.98 | 
    |            30 |            43 |            18 |         22.01 |        266.22 | 
    |            30 |            34 |            14 |          0.90 |        267.26 | 
    |            30 |            40 |            16 |         20.83 |        288.30 | 
    |            30 |            48 |            20 |          0.35 |        289.03 | 
    |            30 |            50 |            20 |         22.00 |        311.22 | 
    |            30 |            40 |            17 |          1.34 |        312.69 | 
    |            30 |            48 |            20 |          0.32 |        313.23 | 
    |            30 |            50 |            20 |         22.00 |        335.44 | 
    |            30 |            40 |            17 |          3.59 |        339.12 | 
    |            30 |            48 |            20 |          0.31 |        339.70 | 
    |            30 |            50 |            20 |          0.29 |        340.17 | 
    |            30 |            50 |            20 |          0.36 |        340.78 | 
    |            30 |            50 |            20 |          0.33 |        341.30 | 
    |            30 |            50 |            20 |         22.00 |        363.51 | 
    |            30 |            40 |            17 |         10.68 |        374.33 | 
    |            30 |            48 |            20 |         22.00 |        396.56 | 
    |            30 |            38 |            16 |          4.39 |        401.03 | 
    |            30 |            45 |            19 |          0.28 |        401.57 | 
    |            30 |            50 |            20 |          0.35 |        402.23 | 
    |            30 |            50 |            20 |         22.00 |        424.41 | 
    |            30 |            40 |            17 |          3.87 |        428.42 | 
    |            30 |            48 |            20 |          0.30 |        428.97 | Academic license - for non-commercial use only
Academic license - for non-commercial use only
Academic license - for non-commercial use only
Academic license - for non-commercial use only
Academic license - for non-commercial use only
Academic license - for non-commercial use only
Academic license - for non-commercial use only
Academic license - for non-commercial use only
Academic license - for non-commercial use only
Academic license - for non-commercial use only
Academic license - for non-commercial use only
Academic license - for non-commercial use only
Academic license - for non-commercial use only
Academic license - for non-commercial use only
Academic license - for non-commercial use only
Academic license - for non-commercial use only
Academic license - for non-commercial use only
Academic license - for non-commercial use only
Academic license - for non-commercial use only
Academic license - for non-commercial use only
Academic license - for non-commercial use only
Academic license - for non-commercial use only
Academic license - for non-commercial use only
Academic license - for non-commercial use only
Academic license - for non-commercial use only
Academic license - for non-commercial use only
Academic license - for non-commercial use only
Academic license - for non-commercial use only
Academic license - for non-commercial use only
Academic license - for non-commercial use only
Academic license - for non-commercial use only
Academic license - for non-commercial use only
Academic license - for non-commercial use only
Academic license - for non-commercial use only
Academic license - for non-commercial use only
Academic license - for non-commercial use only
Academic license - for non-commercial use only
Academic license - for non-commercial use only
Academic license - for non-commercial use only
Academic license - for non-commercial use only
Academic license - for non-commercial use only
Academic license - for non-commercial use only
Academic license - for non-commercial use only
Academic license - for non-commercial use only
Academic license - for non-commercial use only
Academic license - for non-commercial use only
Academic license - for non-commercial use only
Academic license - for non-commercial use only
Academic license - for non-commercial use only
Academic license - for non-commercial use only
Academic license - for non-commercial use only
Academic license - for non-commercial use only
Academic license - for non-commercial use only
Academic license - for non-commercial use only
Academic license - for non-commercial use only
Academic license - for non-commercial use only
Academic license - for non-commercial use only
Academic license - for non-commercial use only
Academic license - for non-commercial use only
Academic license - for non-commercial use only
Academic license - for non-commercial use only
Academic license - for non-commercial use only
Academic license - for non-commercial use only
Academic license - for non-commercial use only
Academic license - for non-commercial use only
Academic license - for non-commercial use only
Academic license - for non-commercial use only
Academic license - for non-commercial use only
Academic license - for non-commercial use only
Academic license - for non-commercial use only
Academic license - for non-commercial use only
Academic license - for non-commercial use only
Academic license - for non-commercial use only
Academic license - for non-commercial use only
Academic license - for non-commercial use only
Academic license - for non-commercial use only
Academic license - for non-commercial use only
Academic license - for non-commercial use only
Academic license - for non-commercial use only
Academic license - for non-commercial use only
Academic license - for non-commercial use only
Academic license - for non-commercial use only
Academic license - for non-commercial use only
Academic license - for non-commercial use only
Academic license - for non-commercial use only
Academic license - for non-commercial use only
Academic license - for non-commercial use only
Academic license - for non-commercial use only
Academic license - for non-commercial use only
Academic license - for non-commercial use only
Academic license - for non-commercial use only
Academic license - for non-commercial use only
Academic license - for non-commercial use only
Academic license - for non-commercial use only
Academic license - for non-commercial use only

    |            30 |            50 |            20 |          0.33 |        429.48 | 
    |            30 |            50 |            20 |          0.37 |        430.06 | 
    |            30 |            50 |            20 |         22.01 |        452.29 | 
    |            30 |            40 |            17 |          1.30 |        453.71 | 
    |            30 |            48 |            20 |         22.00 |        475.93 | 
    |            30 |            38 |            16 |          2.77 |        478.78 | 
    |            30 |            45 |            19 |          0.24 |        479.17 | 
    |            30 |            50 |            20 |         22.00 |        501.40 | 
    |            30 |            40 |            16 |          4.81 |        506.30 | 
    |            30 |            48 |            20 |         22.00 |        528.52 | 
    |            30 |            38 |            16 |          2.53 |        531.14 | 
    |            30 |            45 |            18 |         22.01 |        553.31 | 
    |            30 |            36 |            15 |          0.77 |        554.24 | 
    |            30 |            43 |            18 |          0.18 |        554.67 | 
    |            30 |            50 |            20 |          0.36 |        555.22 | 
    |            30 |            50 |            20 |         22.01 |        577.41 | 
    |            30 |            40 |            17 |         11.37 |        588.89 | 
    |            30 |            48 |            20 |          0.28 |        589.38 | 
    |            30 |            50 |            20 |          0.26 |        589.79 | 
    |            30 |            50 |            20 |          0.25 |        590.19 | 
    |            30 |            50 |            20 |          0.26 |        590.65 | 
    |            30 |            50 |            20 |         22.01 |        612.82 | 
    |            30 |            40 |            16 |         10.28 |        623.20 | 
    |            30 |            48 |            20 |          0.27 |        623.68 | 
    |            30 |            50 |            20 |         22.00 |        645.84 | 
    |            30 |            40 |            16 |          2.67 |        648.61 | 
    |            30 |            48 |            20 |          0.35 |        649.14 | 
    |            30 |            50 |            20 |          0.30 |        649.61 | 
    |            30 |            50 |            20 |          0.31 |        650.13 | 
    |            30 |            50 |            20 |          0.28 |        650.57 | 
    |            30 |            50 |            20 |         22.01 |        672.75 | 
    |            30 |            40 |            17 |         22.00 |        694.90 | 
    |            30 |            32 |            14 |          1.44 |        696.42 | 
    |            30 |            38 |            16 |          5.49 |        702.03 | 
    |            30 |            45 |            18 |         22.00 |        724.26 | 
    |            30 |            36 |            15 |          1.55 |        725.86 | 
    |            30 |            43 |            18 |          0.20 |        726.20 | 
    |            30 |            50 |            20 |         22.01 |        748.42 | 
    |            30 |            40 |            17 |         22.00 |        770.56 | 
    |            30 |            32 |            13 |          0.29 |        770.89 | 
    |            30 |            38 |            15 |          0.70 |        771.78 | 
    |            30 |            45 |            18 |          9.89 |        781.92 | 
    |            30 |            50 |            20 |          0.31 |        782.41 | 
    |            30 |            50 |            20 |         22.01 |        804.59 | 
    |            30 |            40 |            16 |          0.15 |        804.88 | 
    |            30 |            48 |            19 |         22.01 |        827.14 | 
    |            30 |            38 |            16 |          1.83 |        829.10 | 
    |            30 |            45 |            19 |         22.01 |        851.39 | 
    |            30 |            36 |            15 |          6.37 |        857.85 | 
    |            30 |            43 |            18 |         22.00 |        879.98 | 
    |            30 |            34 |            14 |          0.55 |        880.62 | 
    |            30 |            40 |            17 |          4.44 |        885.22 | 
    |            30 |            48 |            19 |         22.00 |        907.46 | 
    |            30 |            38 |            15 |          1.16 |        908.72 | 
    |            30 |            45 |            18 |         22.00 |        930.90 | 
    |            30 |            36 |            15 |          4.20 |        935.16 | 
    |            30 |            43 |            18 |         22.00 |        957.33 | 
    |            30 |            34 |            14 |          0.90 |        958.32 | 
    |            30 |            40 |            16 |          1.10 |        959.58 | 
    |            30 |            48 |            20 |         22.00 |        981.77 | 
    |            30 |            38 |            16 |          9.84 |        991.71 | 
    |            30 |            45 |            18 |         22.01 |       1013.85 | 
    |            30 |            36 |            15 |          1.10 |       1015.02 | 
    |            30 |            43 |            18 |         21.35 |       1036.51 | 
    |            30 |            50 |            20 |         22.01 |       1058.72 | 
    |            30 |            40 |            16 |          0.12 |       1058.95 | 
    |            30 |            48 |            20 |         22.00 |       1081.12 | 
    |            30 |            38 |            16 |          0.98 |       1082.20 | 
    |            30 |            45 |            19 |         22.00 |       1104.38 | 
    |            30 |            36 |            15 |          3.01 |       1107.50 | 
    |            30 |            43 |            18 |         22.01 |       1129.64 | 
    |            30 |            34 |            15 |          9.71 |       1139.43 | 
    |            30 |            40 |            17 |         17.58 |       1157.13 | 
    |            30 |            48 |            20 |         22.01 |       1179.33 | 
    |            30 |            38 |            16 |          0.12 |       1179.55 | 
    |            30 |            45 |            19 |          0.23 |       1179.92 | 
    |            30 |            50 |            20 |         22.00 |       1202.11 | 
    |            30 |            40 |            17 |          8.57 |       1210.80 | 
    |            30 |            48 |            20 |          0.27 |       1211.26 | 
    |            30 |            50 |            20 |          0.33 |       1211.75 | 
    |            30 |            50 |            20 |         22.01 |       1233.92 | 
    |            30 |            40 |            16 |          5.39 |       1239.47 | 
    |            30 |            48 |            20 |          0.27 |       1239.91 | 
    |            30 |            50 |            20 |          0.27 |       1240.33 | 
    |            30 |            50 |            20 |          0.28 |       1240.76 | 
    |            30 |            50 |            20 |         22.00 |       1262.98 | 
    |            30 |            40 |            16 |          0.12 |       1263.23 | 
    |            30 |            48 |            20 |         22.00 |       1285.44 | 
    |            30 |            38 |            16 |          0.12 |       1285.63 | 
    |            30 |            45 |            18 |          0.21 |       1285.97 | 
    |            30 |            50 |            20 |          0.28 |       1286.43 | 
    |            30 |            50 |            20 |         22.01 |       1308.62 | 
    |            30 |            40 |            17 |          1.28 |       1310.04 | 
    |            30 |            48 |            20 |          0.29 |       1310.57 | 
    |            30 |            50 |            20 |          0.31 |       1311.10 | Academic license - for non-commercial use only
Academic license - for non-commercial use only
Academic license - for non-commercial use only
Academic license - for non-commercial use only
Academic license - for non-commercial use only
Academic license - for non-commercial use only
Academic license - for non-commercial use only
Academic license - for non-commercial use only
Academic license - for non-commercial use only
Academic license - for non-commercial use only
Academic license - for non-commercial use only
Academic license - for non-commercial use only
Academic license - for non-commercial use only
Academic license - for non-commercial use only
Academic license - for non-commercial use only
Academic license - for non-commercial use only
Academic license - for non-commercial use only
Academic license - for non-commercial use only
Academic license - for non-commercial use only
Academic license - for non-commercial use only
Academic license - for non-commercial use only
Academic license - for non-commercial use only
Academic license - for non-commercial use only
Academic license - for non-commercial use only
Academic license - for non-commercial use only
Academic license - for non-commercial use only
Academic license - for non-commercial use only
Academic license - for non-commercial use only
Academic license - for non-commercial use only
Academic license - for non-commercial use only
Academic license - for non-commercial use only
Academic license - for non-commercial use only
Academic license - for non-commercial use only
Academic license - for non-commercial use only
Academic license - for non-commercial use only
Academic license - for non-commercial use only
Academic license - for non-commercial use only
Academic license - for non-commercial use only
Academic license - for non-commercial use only
Academic license - for non-commercial use only
Academic license - for non-commercial use only
Academic license - for non-commercial use only
Academic license - for non-commercial use only
Academic license - for non-commercial use only
Academic license - for non-commercial use only
Academic license - for non-commercial use only
Academic license - for non-commercial use only
Academic license - for non-commercial use only
Academic license - for non-commercial use only
Academic license - for non-commercial use only
Academic license - for non-commercial use only
Academic license - for non-commercial use only
Academic license - for non-commercial use only
Academic license - for non-commercial use only
Academic license - for non-commercial use only
Academic license - for non-commercial use only
Academic license - for non-commercial use only
Academic license - for non-commercial use only
Academic license - for non-commercial use only
Academic license - for non-commercial use only
Academic license - for non-commercial use only
Academic license - for non-commercial use only
Academic license - for non-commercial use only
Academic license - for non-commercial use only
Academic license - for non-commercial use only
Academic license - for non-commercial use only
Academic license - for non-commercial use only
Academic license - for non-commercial use only
Academic license - for non-commercial use only
Academic license - for non-commercial use only
Academic license - for non-commercial use only
Academic license - for non-commercial use only
Academic license - for non-commercial use only
Academic license - for non-commercial use only
Academic license - for non-commercial use only
Academic license - for non-commercial use only
Academic license - for non-commercial use only
Academic license - for non-commercial use only
Academic license - for non-commercial use only
Academic license - for non-commercial use only
Academic license - for non-commercial use only
Academic license - for non-commercial use only
Academic license - for non-commercial use only
Academic license - for non-commercial use only
Academic license - for non-commercial use only
Academic license - for non-commercial use only
Academic license - for non-commercial use only
Academic license - for non-commercial use only
Academic license - for non-commercial use only
Academic license - for non-commercial use only
Academic license - for non-commercial use only
Academic license - for non-commercial use only
Academic license - for non-commercial use only
Academic license - for non-commercial use only
Academic license - for non-commercial use only

    |            30 |            50 |            20 |          0.31 |       1311.60 | 
    |            30 |            50 |            20 |         22.00 |       1333.79 | 
    |            30 |            40 |            17 |         22.00 |       1355.92 | 
    |            30 |            32 |            14 |          1.64 |       1357.64 | 
    |            30 |            38 |            16 |          1.35 |       1359.07 | 
    |            30 |            45 |            19 |         22.01 |       1381.24 | 
    |            30 |            36 |            15 |          0.91 |       1382.25 | 
    |            30 |            43 |            18 |         22.00 |       1404.40 | 
    |            30 |            34 |            15 |          0.33 |       1404.79 | 
    |            30 |            40 |            16 |         11.56 |       1416.49 | 
    |            30 |            48 |            20 |         22.00 |       1438.79 | 
    |            30 |            38 |            16 |          3.97 |       1442.86 | 
    |            30 |            45 |            18 |         16.59 |       1459.56 | 
    |            30 |            50 |            20 |          0.33 |       1460.12 | 
    |            30 |            50 |            20 |         22.00 |       1482.31 | 
    |            30 |            40 |            16 |          1.07 |       1483.44 | 
    |            30 |            48 |            20 |         22.01 |       1505.70 | 
    |            30 |            38 |            16 |          0.16 |       1505.98 | 
    |            30 |            45 |            19 |         22.00 |       1528.13 | 
    |            30 |            36 |            14 |          1.00 |       1529.20 | 
    |            30 |            43 |            18 |         22.00 |       1551.40 | 
    |            30 |            34 |            14 |          0.63 |       1552.21 | 
    |            30 |            40 |            17 |          9.33 |       1561.70 | 
    |            30 |            48 |            20 |          0.30 |       1562.15 | 
    |            30 |            50 |            20 |         22.00 |       1584.34 | 
    |            30 |            40 |            17 |         22.00 |       1606.48 | 
    |            30 |            32 |            13 |          0.47 |       1607.00 | 
    |            30 |            38 |            16 |          5.75 |       1612.95 | 
    |            30 |            45 |            19 |         22.00 |       1635.15 | 
    |            30 |            36 |            14 |          0.79 |       1636.02 | 
    |            30 |            43 |            18 |         22.00 |       1658.22 | 
    |            30 |            34 |            14 |          0.89 |       1659.20 | 
    |            30 |            40 |            17 |         14.25 |       1673.60 | 
    |            30 |            48 |            20 |          0.29 |       1674.08 | 
    |            30 |            50 |            20 |         22.00 |       1696.23 | 
    |            30 |            40 |            17 |         22.00 |       1718.35 | 
    |            30 |            32 |            13 |          0.06 |       1718.45 | 
    |            30 |            38 |            16 |         22.00 |       1740.64 | 
    |            30 |            30 |            14 |          0.51 |       1741.22 | 
    |            30 |            36 |            14 |          0.76 |       1742.06 | 
    |            30 |            43 |            18 |         20.24 |       1762.42 | 
    |            30 |            50 |            20 |          0.32 |       1762.92 | 
    |            30 |            50 |            20 |          0.37 |       1763.48 | 
    |            30 |            50 |            20 |          0.31 |       1763.95 | 
    |            30 |            50 |            20 |          0.35 |       1764.50 | 
    |            30 |            50 |            20 |          0.32 |       1764.99 | 
    |            30 |            50 |            20 |          0.33 |       1765.49 | 
    |            30 |            50 |            20 |          0.36 |       1766.03 | 
    |            30 |            50 |            20 |          0.28 |       1766.51 | 
    |            30 |            50 |            20 |          0.31 |       1766.96 | 
    |            30 |            50 |            20 |          0.36 |       1767.50 | 
    |            30 |            50 |            20 |         22.01 |       1789.77 | 
    |            30 |            40 |            17 |         13.70 |       1803.57 | 
    |            30 |            48 |            20 |          0.30 |       1804.08 | 
    |            30 |            50 |            20 |         22.01 |       1826.28 | 
    |            30 |            40 |            16 |         20.00 |       1846.37 | 
    |            30 |            48 |            20 |          0.29 |       1846.89 | 
    |            30 |            50 |            20 |         22.01 |       1869.06 | 
    |            30 |            40 |            17 |         15.59 |       1884.78 | 
    |            30 |            48 |            19 |          0.23 |       1885.18 | 
    |            30 |            50 |            20 |         22.00 |       1907.38 | 
    |            30 |            40 |            16 |          1.65 |       1909.14 | 
    |            30 |            48 |            20 |          0.31 |       1909.67 | 
    |            30 |            50 |            20 |          0.38 |       1910.23 | 
    |            30 |            50 |            20 |          0.30 |       1910.72 | 
    |            30 |            50 |            20 |          0.32 |       1911.23 | 
    |            30 |            50 |            20 |          0.30 |       1911.72 | 
    |            30 |            50 |            20 |          0.40 |       1912.29 | 
    |            30 |            50 |            20 |          0.28 |       1912.74 | 
    |            30 |            50 |            20 |          0.29 |       1913.21 | 
    |            30 |            50 |            20 |          0.29 |       1913.70 | 
    |            30 |            50 |            20 |         22.01 |       1935.90 | 
    |            30 |            40 |            16 |          2.07 |       1938.10 | 
    |            30 |            48 |            20 |          0.33 |       1938.70 | 
    |            30 |            50 |            20 |          0.39 |       1939.29 | 
    |            30 |            50 |            20 |          0.31 |       1939.80 | 
    |            30 |            50 |            20 |          0.31 |       1940.27 | 
    |            30 |            50 |            20 |          0.34 |       1940.81 | 
    |            30 |            50 |            20 |          0.33 |       1941.36 | 
    |            30 |            50 |            20 |         22.00 |       1963.56 | 
    |            30 |            40 |            17 |         22.00 |       1985.72 | 
    |            30 |            32 |            14 |          0.93 |       1986.76 | 
    |            30 |            38 |            16 |          5.33 |       1992.19 | 
    |            30 |            45 |            18 |         22.00 |       2014.33 | 
    |            30 |            36 |            15 |          3.45 |       2017.85 | 
    |            30 |            43 |            18 |         22.00 |       2039.99 | 
    |            30 |            34 |            14 |         15.23 |       2055.32 | 
    |            30 |            40 |            17 |          4.81 |       2060.26 | 
    |            30 |            48 |            19 |         22.00 |       2082.43 | 
    |            30 |            38 |            15 |          9.00 |       2091.51 | 
    |            30 |            45 |            18 |         22.00 |       2113.64 | 
    |            30 |            36 |            14 |          1.15 |       2114.86 | 
    |            30 |            43 |            18 |         22.01 |       2137.01 | 
    |            30 |            34 |            14 |          0.90 |       2138.00 | 
    |            30 |            40 |            16 |          2.07 |       2140.18 | Academic license - for non-commercial use only
Academic license - for non-commercial use only
Academic license - for non-commercial use only
Academic license - for non-commercial use only
Academic license - for non-commercial use only
Academic license - for non-commercial use only
Academic license - for non-commercial use only
Academic license - for non-commercial use only
Academic license - for non-commercial use only
Academic license - for non-commercial use only
Academic license - for non-commercial use only
Academic license - for non-commercial use only
Academic license - for non-commercial use only
Academic license - for non-commercial use only
Academic license - for non-commercial use only
Academic license - for non-commercial use only
Academic license - for non-commercial use only
Academic license - for non-commercial use only
Academic license - for non-commercial use only
Academic license - for non-commercial use only
Academic license - for non-commercial use only
Academic license - for non-commercial use only
Academic license - for non-commercial use only
Academic license - for non-commercial use only
Academic license - for non-commercial use only
Academic license - for non-commercial use only
Academic license - for non-commercial use only
Academic license - for non-commercial use only
Academic license - for non-commercial use only
Academic license - for non-commercial use only
Academic license - for non-commercial use only
Academic license - for non-commercial use only
Academic license - for non-commercial use only
Academic license - for non-commercial use only
Academic license - for non-commercial use only
Academic license - for non-commercial use only
Academic license - for non-commercial use only
Academic license - for non-commercial use only
Academic license - for non-commercial use only
Academic license - for non-commercial use only
Academic license - for non-commercial use only
Academic license - for non-commercial use only
Academic license - for non-commercial use only
Academic license - for non-commercial use only
Academic license - for non-commercial use only
Academic license - for non-commercial use only
Academic license - for non-commercial use only
Academic license - for non-commercial use only
Academic license - for non-commercial use only
Academic license - for non-commercial use only
Academic license - for non-commercial use only
Academic license - for non-commercial use only
Academic license - for non-commercial use only
Academic license - for non-commercial use only
Academic license - for non-commercial use only
Academic license - for non-commercial use only
Academic license - for non-commercial use only
Academic license - for non-commercial use only
Academic license - for non-commercial use only
Academic license - for non-commercial use only
Academic license - for non-commercial use only
Academic license - for non-commercial use only
Academic license - for non-commercial use only
Academic license - for non-commercial use only
Academic license - for non-commercial use only
Academic license - for non-commercial use only
Academic license - for non-commercial use only
Academic license - for non-commercial use only
Academic license - for non-commercial use only
Academic license - for non-commercial use only
Academic license - for non-commercial use only
Academic license - for non-commercial use only
Academic license - for non-commercial use only
Academic license - for non-commercial use only
Academic license - for non-commercial use only
Academic license - for non-commercial use only
Academic license - for non-commercial use only
Academic license - for non-commercial use only
Academic license - for non-commercial use only
Academic license - for non-commercial use only
Academic license - for non-commercial use only
Academic license - for non-commercial use only
Academic license - for non-commercial use only
Academic license - for non-commercial use only
Academic license - for non-commercial use only
Academic license - for non-commercial use only
Academic license - for non-commercial use only
Academic license - for non-commercial use only
Academic license - for non-commercial use only
Academic license - for non-commercial use only
Academic license - for non-commercial use only
Academic license - for non-commercial use only
Academic license - for non-commercial use only
Academic license - for non-commercial use only
Academic license - for non-commercial use only

    |            30 |            48 |            19 |         22.00 |       2162.36 | 
    |            30 |            38 |            16 |          2.13 |       2164.59 | 
    |            30 |            45 |            19 |         22.00 |       2186.74 | 
    |            30 |            36 |            15 |          1.25 |       2188.05 | 
    |            30 |            43 |            17 |         22.00 |       2210.18 | 
    |            30 |            34 |            14 |          0.89 |       2211.20 | 
    |            30 |            40 |            16 |          6.23 |       2217.57 | 
    |            30 |            48 |            20 |         22.00 |       2239.86 | 
    |            30 |            38 |            15 |          2.15 |       2242.08 | 
    |            30 |            45 |            19 |         22.01 |       2264.30 | 
    |            30 |            36 |            15 |          2.28 |       2266.80 | 
    |            30 |            43 |            17 |         22.00 |       2288.95 | 
    |            30 |            34 |            13 |          1.39 |       2290.41 | 
    |            30 |            40 |            17 |          2.31 |       2292.90 | 
    |            30 |            48 |            20 |         22.01 |       2315.21 | 
    |            30 |            38 |            16 |          3.29 |       2318.57 | 
    |            30 |            45 |            18 |         22.00 |       2340.70 | 
    |            30 |            36 |            15 |          8.16 |       2348.97 | 
    |            30 |            43 |            18 |          1.40 |       2350.50 | 
    |            30 |            50 |            20 |         22.00 |       2372.67 | 
    |            30 |            40 |            17 |         13.75 |       2386.53 | 
    |            30 |            48 |            19 |         22.00 |       2408.70 | 
    |            30 |            38 |            16 |         22.00 |       2430.82 | 
    |            30 |            30 |            12 |          0.56 |       2431.42 | 
    |            30 |            36 |            15 |          4.31 |       2435.87 | 
    |            30 |            43 |            18 |         19.28 |       2455.41 | 
    |            30 |            50 |            20 |         22.00 |       2477.59 | 
    |            30 |            40 |            16 |          1.92 |       2479.60 | 
    |            30 |            48 |            20 |         22.01 |       2501.81 | 
    |            30 |            38 |            16 |         22.00 |       2523.90 | 
    |            30 |            30 |            13 |          0.21 |       2524.18 | 
    |            30 |            36 |            14 |          2.81 |       2527.06 | 
    |            30 |            43 |            17 |         22.00 |       2549.21 | 
    |            30 |            34 |            14 |          1.67 |       2550.97 | 
    |            30 |            40 |            16 |          9.01 |       2560.08 | 
    |            30 |            48 |            19 |         22.01 |       2582.22 | 
    |            29 |            38 |            16 |         14.75 |       2597.09 | 
    |            29 |            38 |            16 |          7.07 |       2604.27 | 
    |            29 |            45 |            18 |          3.48 |       2607.90 | 
    |            29 |            50 |            20 |          0.27 |       2608.34 | 
    |            29 |            50 |            20 |          0.27 |       2608.77 | 
    |            29 |            50 |            20 |          0.31 |       2609.25 | 
    |            29 |            50 |            20 |         22.01 |       2631.46 | 
    |            29 |            40 |            16 |          0.75 |       2632.32 | 
    |            29 |            48 |            19 |          0.24 |       2632.73 | 
    |            29 |            50 |            20 |          0.26 |       2633.15 | 
    |            29 |            50 |            20 |          0.38 |       2633.72 | 
    |            29 |            50 |            20 |         22.00 |       2655.94 | 
    |            29 |            40 |            16 |          2.99 |       2659.03 | 
    |            29 |            48 |            20 |          0.28 |       2659.50 | 
    |            29 |            50 |            20 |          0.28 |       2659.95 | 
    |            29 |            50 |            20 |          0.32 |       2660.44 | 
    |            29 |            50 |            20 |         22.00 |       2682.65 | 
    |            29 |            40 |            16 |          3.69 |       2686.43 | 
    |            29 |            48 |            20 |          0.29 |       2686.89 | 
    |            29 |            50 |            20 |         22.00 |       2709.09 | 
    |            29 |            40 |            17 |          1.81 |       2711.01 | 
    |            29 |            48 |            19 |         22.00 |       2733.22 | 
    |            29 |            38 |            15 |          0.11 |       2733.39 | 
    |            29 |            45 |            18 |         17.61 |       2751.13 | 
    |            29 |            50 |            20 |         22.01 |       2773.36 | 
    |            29 |            40 |            16 |          0.11 |       2773.56 | 
    |            29 |            48 |            20 |          0.30 |       2774.03 | 
    |            29 |            50 |            20 |          0.31 |       2774.54 | 
    |            29 |            50 |            20 |         22.00 |       2796.73 | 
    |            29 |            40 |            16 |          1.54 |       2798.39 | 
    |            29 |            48 |            20 |          0.31 |       2798.92 | 
    |            29 |            50 |            20 |          0.31 |       2799.43 | 
    |            29 |            50 |            20 |          0.32 |       2799.93 | 
    |            29 |            50 |            20 |          0.31 |       2800.47 | 
    |            29 |            50 |            20 |          0.30 |       2800.97 | 
    |            29 |            50 |            20 |          0.32 |       2801.47 | 
    |            29 |            50 |            20 |         22.01 |       2823.68 | 
    |            29 |            40 |            16 |          2.11 |       2825.91 | 
    |            29 |            48 |            19 |          0.26 |       2826.35 | 
    |            29 |            50 |            20 |          0.28 |       2826.83 | 
    |            29 |            50 |            20 |          0.29 |       2827.30 | 
    |            29 |            50 |            20 |          0.30 |       2827.78 | 
    |            29 |            50 |            20 |          0.31 |       2828.28 | 
    |            29 |            50 |            20 |          0.34 |       2828.81 | 
    |            29 |            50 |            20 |         22.01 |       2851.01 | 
    |            29 |            40 |            16 |          0.85 |       2851.98 | 
    |            29 |            48 |            20 |          0.30 |       2852.49 | 
    |            29 |            50 |            20 |          0.28 |       2852.94 | 
    |            29 |            50 |            20 |          0.35 |       2853.51 | 
    |            29 |            50 |            20 |          0.31 |       2854.00 | 
    |            29 |            50 |            20 |          0.28 |       2854.47 | 
    |            29 |            50 |            20 |          0.29 |       2854.94 | 
    |            29 |            50 |            20 |          0.28 |       2855.42 | 
    |            29 |            50 |            20 |          0.31 |       2855.94 | 
    |            29 |            50 |            20 |          0.31 |       2856.42 | 
    |            29 |            50 |            20 |         22.00 |       2878.63 | 
    |            29 |            40 |            16 |          0.14 |       2878.94 | 
    |            29 |            48 |            20 |          0.30 |       2879.45 | 
    |            29 |            50 |            20 |          0.35 |       2880.01 | Academic license - for non-commercial use only
Academic license - for non-commercial use only
Academic license - for non-commercial use only
Academic license - for non-commercial use only
Academic license - for non-commercial use only
Academic license - for non-commercial use only
Academic license - for non-commercial use only
Academic license - for non-commercial use only
Academic license - for non-commercial use only
Academic license - for non-commercial use only
Academic license - for non-commercial use only
Academic license - for non-commercial use only
Academic license - for non-commercial use only
Academic license - for non-commercial use only
Academic license - for non-commercial use only
Academic license - for non-commercial use only
Academic license - for non-commercial use only
Academic license - for non-commercial use only
Academic license - for non-commercial use only
Academic license - for non-commercial use only
Academic license - for non-commercial use only
Academic license - for non-commercial use only
Academic license - for non-commercial use only
Academic license - for non-commercial use only
Academic license - for non-commercial use only
Academic license - for non-commercial use only
Academic license - for non-commercial use only
Academic license - for non-commercial use only
Academic license - for non-commercial use only
Academic license - for non-commercial use only
Academic license - for non-commercial use only
Academic license - for non-commercial use only
Academic license - for non-commercial use only
Academic license - for non-commercial use only
Academic license - for non-commercial use only
Academic license - for non-commercial use only
Academic license - for non-commercial use only
Academic license - for non-commercial use only
Academic license - for non-commercial use only
Academic license - for non-commercial use only
Academic license - for non-commercial use only
Academic license - for non-commercial use only
Academic license - for non-commercial use only
Academic license - for non-commercial use only
Academic license - for non-commercial use only
Academic license - for non-commercial use only
Academic license - for non-commercial use only
Academic license - for non-commercial use only
Academic license - for non-commercial use only
Academic license - for non-commercial use only
Academic license - for non-commercial use only
Academic license - for non-commercial use only
Academic license - for non-commercial use only
Academic license - for non-commercial use only
Academic license - for non-commercial use only
Academic license - for non-commercial use only
Academic license - for non-commercial use only
Academic license - for non-commercial use only
Academic license - for non-commercial use only
Academic license - for non-commercial use only
Academic license - for non-commercial use only

    |            29 |            50 |            20 |          0.30 |       2880.54 | 
    |            29 |            50 |            20 |          0.34 |       2881.09 | 
    |            29 |            50 |            20 |          0.36 |       2881.68 | 
    |            29 |            50 |            20 |         22.01 |       2903.90 | 
    |            29 |            40 |            17 |          1.74 |       2905.79 | 
    |            29 |            48 |            20 |          0.29 |       2906.30 | 
    |            29 |            50 |            20 |         22.01 |       2928.46 | 
    |            29 |            40 |            16 |          2.70 |       2931.31 | 
    |            29 |            48 |            20 |          0.30 |       2931.87 | 
    |            29 |            50 |            20 |          0.29 |       2932.32 | 
    |            29 |            50 |            20 |          0.33 |       2932.86 | 
    |            29 |            50 |            20 |         22.01 |       2955.05 | 
    |            29 |            40 |            16 |          1.84 |       2957.04 | 
    |            29 |            48 |            19 |         22.01 |       2979.22 | 
    |            29 |            38 |            15 |          0.82 |       2980.14 | 
    |            29 |            45 |            18 |          0.22 |       2980.49 | 
    |            29 |            50 |            20 |          0.35 |       2981.17 | 
    |            29 |            50 |            20 |          0.26 |       2981.64 | 
    |            29 |            50 |            20 |          0.34 |       2982.15 | 
    |            29 |            50 |            20 |         22.00 |       3004.38 | 
    |            29 |            40 |            16 |          0.12 |       3004.59 | 
    |            29 |            48 |            20 |          0.30 |       3005.06 | 
    |            29 |            50 |            20 |          0.29 |       3005.59 | 
    |            29 |            50 |            20 |          0.34 |       3006.08 | 
    |            29 |            50 |            20 |          0.32 |       3006.58 | 
    |            29 |            50 |            20 |          0.30 |       3007.12 | 
    |            29 |            50 |            20 |         22.01 |       3029.29 | 
    |            29 |            40 |            16 |          0.77 |       3030.17 | 
    |            29 |            48 |            19 |         21.79 |       3052.21 | 
    |            29 |            50 |            20 |          0.28 |       3052.65 | 
    |            29 |            50 |            20 |          0.28 |       3053.10 | 
    |            29 |            50 |            20 |         16.52 |       3069.82 | 
    |            29 |            50 |            20 |         22.01 |       3092.00 | 
    |            29 |            40 |            16 |          5.35 |       3097.47 | 
    |            29 |            48 |            20 |          0.29 |       3097.96 | 
    |            29 |            50 |            20 |          0.27 |       3098.40 | 
    |            29 |            50 |            20 |         22.02 |       3120.56 | 
    |            29 |            40 |            16 |          0.41 |       3121.06 | 
    |            29 |            48 |            19 |         22.01 |       3143.23 | 
    |            29 |            38 |            16 |          1.09 |       3144.46 | 
    |            29 |            45 |            18 |         22.00 |       3166.60 | 
    |            29 |            36 |            14 |          0.33 |       3167.03 | 
    |            29 |            43 |            18 |          0.20 |       3167.37 | 
    |            29 |            50 |            20 |          0.30 |       3167.86 | 
    |            29 |            50 |            20 |          0.30 |       3168.33 | 
    |            29 |            50 |            20 |          0.31 |       3168.84 | 
    |            29 |            50 |            20 |          0.29 |       3169.31 | 
    |            29 |            50 |            20 |          0.31 |       3169.83 | 
    |            29 |            50 |            20 |          0.27 |       3170.27 | 
    |            29 |            50 |            20 |         16.78 |       3187.21 | 
    |            29 |            50 |            20 |          0.27 |       3187.64 | 
    |            29 |            50 |            20 |         22.01 |       3209.82 | 
    |            29 |            40 |            16 |          0.13 |       3210.11 | 
    |            29 |            48 |            19 |          0.24 |       3210.54 | 
    |            29 |            50 |            20 |          0.29 |       3211.01 | 
    |            29 |            50 |            20 |          0.30 |       3211.49 | 
    |            29 |            50 |            20 |         22.00 |       3233.68 | 
    |            29 |            40 |            16 |          0.11 |       3233.91 | 
    |            29 |            48 |            20 |          0.25 |       3234.39 | 
    |            29 |            50 |            20 |          0.23 |       3234.76 | 
    |            29 |            50 |            20 |          4.80 |       3239.69 | 
-10.344827586206897
