114,61.86,112,1288.51
59,3.21,59,3.21
30,7.89,29,2957.09
20,4.01,20,4.01
16,142.17,16,142.17
207,125.12,203,1149.38
77,254.11,77,254.11
77,23.09,77,23.09
55,357.63,55,357.63
25,143.56,23,1170.19
249,200.56,241,2965.09
115,11.29,112,915.68
69,272.14,65,1525.02
88,351.89,87,424.81
35,352.52,31,1427.92
260,199.17,246,3476.44
183,298.92,177,1723.17
141,266.17,135,2095.74
84,293.4,80,1657.91
83,174.27,81,2542.16
406,78.11,375,3346.92
142,316.64,130,2343.5299999999997
129,218.92,119,2548.0
138,235.46,130,3329.58
78,333.39,70,2991.43
