Instance: I_150_25_S_1-124_7_MTZ_KB.lp
Solver : Gurobi

Solver Settings (Time_Limit; Threads; MipGap; AbsMipGap) : 1800; 1; 0; 0,9999

Solution value  = 278
LB value  = 67,2005234496283
Solution time = 1809,64267730713
Solution status = Time_Limit

Variable	value

Cmax	278
Y_1_51	1
X_1_124_51	1
Y_1_65	1
X_1_135_65	1
Y_1_84	1
X_1_0_84	1
Y_1_117	1
X_1_84_117	1
Y_1_124	1
X_1_117_124	1
Y_1_135	1
X_1_51_135	1
Y_2_41	1
X_2_114_41	1
Y_2_70	1
X_2_147_70	1
Y_2_114	1
X_2_133_114	1
Y_2_116	1
X_2_41_116	1
Y_2_133	1
X_2_0_133	1
Y_2_147	1
X_2_116_147	1
Y_3_93	1
X_3_0_93	1
Y_3_98	1
X_3_144_98	1
Y_3_99	1
X_3_98_99	1
Y_3_121	1
X_3_93_121	1
Y_3_144	1
X_3_121_144	1
Y_4_59	1
X_4_141_59	1
Y_4_141	1
X_4_0_141	1
Y_5_23	1
X_5_101_23	1
Y_5_96	1
X_5_146_96	1
Y_5_101	1
X_5_96_101	1
Y_5_143	1
X_5_0_143	1
Y_5_146	1
X_5_143_146	1
Y_6_14	1
X_6_64_14	1
Y_6_15	1
X_6_68_15	1
Y_6_62	1
X_6_75_62	1
Y_6_64	1
X_6_76_64	1
Y_6_68	1
X_6_14_68	1
Y_6_75	1
X_6_15_75	1
Y_6_76	1
X_6_94_76	1
Y_6_94	1
X_6_0_94	1
Y_6_97	1
X_6_62_97	1
Y_7_50	1
X_7_115_50	1
Y_7_57	1
X_7_123_57	1
Y_7_92	1
X_7_0_92	1
Y_7_115	1
X_7_57_115	1
Y_7_123	1
X_7_132_123	1
Y_7_127	1
X_7_92_127	1
Y_7_132	1
X_7_149_132	1
Y_7_148	1
X_7_50_148	1
Y_7_149	1
X_7_127_149	1
Y_8_21	1
X_8_145_21	1
Y_8_33	1
X_8_138_33	1
Y_8_72	1
X_8_150_72	1
Y_8_78	1
X_8_72_78	1
Y_8_110	1
X_8_21_110	1
Y_8_138	1
X_8_0_138	1
Y_8_145	1
X_8_78_145	1
Y_8_150	1
X_8_33_150	1
Y_9_32	1
X_9_38_32	1
Y_9_38	1
X_9_0_38	1
Y_9_91	1
X_9_32_91	1
Y_10_5	1
X_10_61_5	1
Y_10_35	1
X_10_39_35	1
Y_10_39	1
X_10_48_39	1
Y_10_48	1
X_10_89_48	1
Y_10_49	1
X_10_105_49	1
Y_10_61	1
X_10_0_61	1
Y_10_89	1
X_10_5_89	1
Y_10_105	1
X_10_35_105	1
Y_11_4	1
X_11_52_4	1
Y_11_46	1
X_11_54_46	1
Y_11_52	1
X_11_77_52	1
Y_11_54	1
X_11_74_54	1
Y_11_66	1
X_11_83_66	1
Y_11_73	1
X_11_0_73	1
Y_11_74	1
X_11_73_74	1
Y_11_77	1
X_11_66_77	1
Y_11_83	1
X_11_46_83	1
Y_12_6	1
X_12_40_6	1
Y_12_7	1
X_12_86_7	1
Y_12_40	1
X_12_125_40	1
Y_12_86	1
X_12_95_86	1
Y_12_95	1
X_12_6_95	1
Y_12_104	1
X_12_7_104	1
Y_12_125	1
X_12_130_125	1
Y_12_130	1
X_12_0_130	1
Y_13_25	1
X_13_136_25	1
Y_13_26	1
X_13_67_26	1
Y_13_67	1
X_13_25_67	1
Y_13_136	1
X_13_0_136	1
Y_14_19	1
X_14_22_19	1
Y_14_22	1
X_14_119_22	1
Y_14_53	1
X_14_79_53	1
Y_14_79	1
X_14_134_79	1
Y_14_100	1
X_14_19_100	1
Y_14_119	1
X_14_140_119	1
Y_14_134	1
X_14_0_134	1
Y_14_140	1
X_14_53_140	1
Y_15_28	1
X_15_109_28	1
Y_15_63	1
X_15_0_63	1
Y_15_109	1
X_15_120_109	1
Y_15_120	1
X_15_63_120	1
Y_16_42	1
X_16_81_42	1
Y_16_44	1
X_16_0_44	1
Y_16_69	1
X_16_88_69	1
Y_16_81	1
X_16_69_81	1
Y_16_88	1
X_16_137_88	1
Y_16_137	1
X_16_142_137	1
Y_16_142	1
X_16_44_142	1
Y_17_3	1
X_17_31_3	1
Y_17_20	1
X_17_107_20	1
Y_17_29	1
X_17_3_29	1
Y_17_31	1
X_17_20_31	1
Y_17_107	1
X_17_0_107	1
Y_18_10	1
X_18_0_10	1
Y_18_43	1
X_18_82_43	1
Y_18_60	1
X_18_10_60	1
Y_18_82	1
X_18_128_82	1
Y_18_128	1
X_18_60_128	1
Y_19_9	1
X_19_85_9	1
Y_19_13	1
X_19_118_13	1
Y_19_34	1
X_19_9_34	1
Y_19_85	1
X_19_87_85	1
Y_19_87	1
X_19_13_87	1
Y_19_108	1
X_19_34_108	1
Y_19_118	1
X_19_0_118	1
Y_20_36	1
X_20_0_36	1
Y_20_45	1
X_20_80_45	1
Y_20_80	1
X_20_36_80	1
Y_21_18	1
X_21_129_18	1
Y_21_30	1
X_21_0_30	1
Y_21_129	1
X_21_30_129	1
Y_22_1	1
X_22_122_1	1
Y_22_2	1
X_22_24_2	1
Y_22_8	1
X_22_1_8	1
Y_22_24	1
X_22_103_24	1
Y_22_27	1
X_22_2_27	1
Y_22_90	1
X_22_27_90	1
Y_22_103	1
X_22_8_103	1
Y_22_106	1
X_22_111_106	1
Y_22_111	1
X_22_90_111	1
Y_22_122	1
X_22_0_122	1
Y_22_126	1
X_22_106_126	1
Y_23_16	1
X_23_139_16	1
Y_23_56	1
X_23_71_56	1
Y_23_58	1
X_23_113_58	1
Y_23_71	1
X_23_58_71	1
Y_23_112	1
X_23_0_112	1
Y_23_113	1
X_23_112_113	1
Y_23_139	1
X_23_56_139	1
Y_24_37	1
X_24_47_37	1
Y_24_47	1
X_24_102_47	1
Y_24_55	1
X_24_37_55	1
Y_24_102	1
X_24_0_102	1
Y_25_11	1
X_25_131_11	1
Y_25_12	1
X_25_11_12	1
Y_25_17	1
X_25_12_17	1
Y_25_131	1
X_25_0_131	1
X_1_65_0	1
X_2_70_0	1
X_3_99_0	1
X_4_59_0	1
X_5_23_0	1
X_6_97_0	1
X_7_148_0	1
X_8_110_0	1
X_9_91_0	1
X_10_49_0	1
X_11_4_0	1
X_12_104_0	1
X_13_26_0	1
X_14_100_0	1
X_15_28_0	1
X_16_42_0	1
X_17_29_0	1
X_18_43_0	1
X_19_108_0	1
X_20_45_0	1
X_21_18_0	1
X_22_126_0	1
X_23_16_0	1
X_24_55_0	1
X_25_17_0	1
U_1	0,999999999999716
U_2	5,00000000003513
U_3	148
U_4	149
U_5	0,999999999999943
U_6	145
U_7	148
U_8	1,99999999999804
U_9	147
U_11	0,999999999998266
U_12	1,99999999999824
U_13	0,999999999998408
U_14	2,99999999999935
U_15	146,000000000001
U_16	149
U_17	149,000000000001
U_18	149
U_19	148,000000000003
U_20	0,999999999999943
U_21	5,99999999999832
U_22	147,000000000003
U_23	149
U_24	4,00000000003519
U_25	0,999999999998209
U_26	149
U_27	6,00000000003513
U_28	149
U_29	149
U_31	1,99999999999966
U_32	0,999999999998437
U_33	0,999999999999943
U_34	148
U_35	4,99999999999974
U_37	1,99999999999949
U_39	3,99999999999974
U_40	1,99999999999827
U_41	146
U_42	149
U_43	149
U_45	149
U_46	144
U_47	0,999999999999773
U_48	2,99999999999974
U_49	149
U_50	6,99999999999744
U_51	147,000000000002
U_52	148
U_53	1,99999999999952
U_54	1,99999999999793
U_55	149
U_56	147,000000000001
U_57	4,99999999999807
U_58	1,99999999999821
U_59	0,999999999998408
U_60	0,999999999998408
U_62	148
U_64	1,9999999999998
U_65	149,000000000001
U_66	146
U_67	148
U_68	3,99999999999932
U_69	3,99999999999741
U_70	149
U_71	146,000000000001
U_72	2,99999999999946
U_74	0,999999999998408
U_75	147
U_76	0,999999999999659
U_77	147
U_78	3,99999999999903
U_79	0,999999999999687
U_80	148
U_81	148
U_82	148
U_83	145
U_85	2,99999999999835
U_86	147
U_87	1,99999999999835
U_88	2,99999999999761
U_89	1,99999999999994
U_90	7,0000000000349
U_91	149
U_95	146
U_96	147
U_97	149
U_98	2,99999999999807
U_99	149
U_100	149,000000000001
U_101	148
U_103	3,00000000003573
U_104	149
U_105	5,99999999999974
U_106	9,00000000003462
U_108	149
U_109	148
U_110	149
U_111	8,0000000000349
U_113	0,999999999998266
U_114	0,999999999999716
U_115	5,99999999999793
U_116	147
U_117	0,999999999999659
U_119	146,000000000003
U_120	147
U_121	0,999999999998408
U_123	3,99999999999807
U_124	2,00000000000651
U_125	0,999999999998323
U_126	149
U_127	0,99999999999855
U_128	147
U_129	148,000000000001
U_132	2,99999999999807
U_135	148,000000000002
U_137	1,99999999999778
U_139	148
U_140	2,99999999999952
U_142	0,999999999998181
U_144	1,99999999999829
U_145	4,99999999999872
U_146	0,999999999999687
U_147	148
U_148	149
U_149	1,99999999999815
U_150	1,99999999999977
