Instance: I_200_10_S_1-49_6_MTZ_KB.lp
Solver : Gurobi

Solver Settings (Time_Limit; Threads; MipGap; AbsMipGap) : 1800; 1; 0; 0,9999

Solution value  = 260
LB value  = 238
Solution time = 1800,15631484985
Solution status = Time_Limit

Variable	value

Cmax	260
Y_1_11	1
X_1_34_11	1
Y_1_23	1
X_1_118_23	1
Y_1_30	1
X_1_165_30	1
Y_1_34	1
X_1_67_34	1
Y_1_36	1
X_1_182_36	1
Y_1_57	1
X_1_168_57	1
Y_1_67	1
X_1_188_67	1
Y_1_76	1
X_1_124_76	1
Y_1_118	1
X_1_76_118	1
Y_1_119	1
X_1_0_119	1
Y_1_124	1
X_1_57_124	1
Y_1_165	1
X_1_36_165	1
Y_1_168	1
X_1_11_168	1
Y_1_182	1
X_1_119_182	1
Y_1_188	1
X_1_30_188	1
Y_2_13	1
X_2_107_13	1
Y_2_15	1
X_2_60_15	1
Y_2_29	1
X_2_198_29	1
Y_2_37	1
X_2_190_37	1
Y_2_46	1
X_2_149_46	1
Y_2_47	1
X_2_37_47	1
Y_2_60	1
X_2_0_60	1
Y_2_100	1
X_2_177_100	1
Y_2_107	1
X_2_46_107	1
Y_2_125	1
X_2_29_125	1
Y_2_149	1
X_2_192_149	1
Y_2_177	1
X_2_13_177	1
Y_2_190	1
X_2_100_190	1
Y_2_192	1
X_2_15_192	1
Y_2_198	1
X_2_47_198	1
Y_3_24	1
X_3_75_24	1
Y_3_32	1
X_3_105_32	1
Y_3_48	1
X_3_174_48	1
Y_3_52	1
X_3_199_52	1
Y_3_56	1
X_3_131_56	1
Y_3_69	1
X_3_164_69	1
Y_3_75	1
X_3_102_75	1
Y_3_86	1
X_3_32_86	1
Y_3_102	1
X_3_162_102	1
Y_3_105	1
X_3_158_105	1
Y_3_106	1
X_3_48_106	1
Y_3_111	1
X_3_172_111	1
Y_3_131	1
X_3_0_131	1
Y_3_152	1
X_3_106_152	1
Y_3_154	1
X_3_111_154	1
Y_3_158	1
X_3_69_158	1
Y_3_162	1
X_3_52_162	1
Y_3_164	1
X_3_154_164	1
Y_3_172	1
X_3_56_172	1
Y_3_174	1
X_3_24_174	1
Y_3_199	1
X_3_86_199	1
Y_4_1	1
X_4_157_1	1
Y_4_4	1
X_4_114_4	1
Y_4_6	1
X_4_151_6	1
Y_4_21	1
X_4_89_21	1
Y_4_26	1
X_4_97_26	1
Y_4_39	1
X_4_6_39	1
Y_4_44	1
X_4_26_44	1
Y_4_65	1
X_4_44_65	1
Y_4_72	1
X_4_145_72	1
Y_4_83	1
X_4_72_83	1
Y_4_89	1
X_4_194_89	1
Y_4_90	1
X_4_108_90	1
Y_4_97	1
X_4_90_97	1
Y_4_108	1
X_4_4_108	1
Y_4_114	1
X_4_142_114	1
Y_4_133	1
X_4_146_133	1
Y_4_142	1
X_4_148_142	1
Y_4_145	1
X_4_173_145	1
Y_4_146	1
X_4_39_146	1
Y_4_148	1
X_4_1_148	1
Y_4_151	1
X_4_65_151	1
Y_4_157	1
X_4_83_157	1
Y_4_173	1
X_4_21_173	1
Y_4_194	1
X_4_0_194	1
Y_5_2	1
X_5_7_2	1
Y_5_7	1
X_5_59_7	1
Y_5_8	1
X_5_31_8	1
Y_5_18	1
X_5_123_18	1
Y_5_28	1
X_5_184_28	1
Y_5_31	1
X_5_0_31	1
Y_5_59	1
X_5_136_59	1
Y_5_68	1
X_5_73_68	1
Y_5_73	1
X_5_121_73	1
Y_5_74	1
X_5_8_74	1
Y_5_93	1
X_5_179_93	1
Y_5_120	1
X_5_143_120	1
Y_5_121	1
X_5_28_121	1
Y_5_123	1
X_5_138_123	1
Y_5_132	1
X_5_93_132	1
Y_5_136	1
X_5_74_136	1
Y_5_138	1
X_5_2_138	1
Y_5_143	1
X_5_68_143	1
Y_5_179	1
X_5_120_179	1
Y_5_184	1
X_5_18_184	1
Y_6_41	1
X_6_127_41	1
Y_6_49	1
X_6_171_49	1
Y_6_51	1
X_6_126_51	1
Y_6_54	1
X_6_78_54	1
Y_6_78	1
X_6_185_78	1
Y_6_79	1
X_6_0_79	1
Y_6_80	1
X_6_54_80	1
Y_6_91	1
X_6_49_91	1
Y_6_99	1
X_6_41_99	1
Y_6_103	1
X_6_99_103	1
Y_6_112	1
X_6_51_112	1
Y_6_126	1
X_6_91_126	1
Y_6_127	1
X_6_153_127	1
Y_6_128	1
X_6_80_128	1
Y_6_150	1
X_6_103_150	1
Y_6_153	1
X_6_79_153	1
Y_6_156	1
X_6_175_156	1
Y_6_171	1
X_6_156_171	1
Y_6_175	1
X_6_150_175	1
Y_6_185	1
X_6_112_185	1
Y_7_20	1
X_7_95_20	1
Y_7_35	1
X_7_61_35	1
Y_7_40	1
X_7_82_40	1
Y_7_42	1
X_7_186_42	1
Y_7_53	1
X_7_62_53	1
Y_7_58	1
X_7_35_58	1
Y_7_61	1
X_7_53_61	1
Y_7_62	1
X_7_42_62	1
Y_7_63	1
X_7_137_63	1
Y_7_82	1
X_7_180_82	1
Y_7_84	1
X_7_129_84	1
Y_7_95	1
X_7_58_95	1
Y_7_109	1
X_7_167_109	1
Y_7_116	1
X_7_0_116	1
Y_7_117	1
X_7_63_117	1
Y_7_129	1
X_7_161_129	1
Y_7_137	1
X_7_20_137	1
Y_7_160	1
X_7_84_160	1
Y_7_161	1
X_7_117_161	1
Y_7_167	1
X_7_40_167	1
Y_7_180	1
X_7_160_180	1
Y_7_186	1
X_7_116_186	1
Y_8_9	1
X_8_14_9	1
Y_8_12	1
X_8_94_12	1
Y_8_14	1
X_8_66_14	1
Y_8_16	1
X_8_38_16	1
Y_8_17	1
X_8_0_17	1
Y_8_27	1
X_8_196_27	1
Y_8_38	1
X_8_141_38	1
Y_8_50	1
X_8_101_50	1
Y_8_66	1
X_8_77_66	1
Y_8_77	1
X_8_16_77	1
Y_8_87	1
X_8_166_87	1
Y_8_94	1
X_8_140_94	1
Y_8_101	1
X_8_12_101	1
Y_8_139	1
X_8_50_139	1
Y_8_140	1
X_8_147_140	1
Y_8_141	1
X_8_144_141	1
Y_8_144	1
X_8_87_144	1
Y_8_147	1
X_8_27_147	1
Y_8_159	1
X_8_17_159	1
Y_8_166	1
X_8_139_166	1
Y_8_196	1
X_8_159_196	1
Y_9_3	1
X_9_43_3	1
Y_9_10	1
X_9_193_10	1
Y_9_22	1
X_9_70_22	1
Y_9_25	1
X_9_183_25	1
Y_9_43	1
X_9_10_43	1
Y_9_55	1
X_9_176_55	1
Y_9_70	1
X_9_25_70	1
Y_9_85	1
X_9_135_85	1
Y_9_92	1
X_9_200_92	1
Y_9_135	1
X_9_155_135	1
Y_9_155	1
X_9_3_155	1
Y_9_163	1
X_9_181_163	1
Y_9_169	1
X_9_92_169	1
Y_9_170	1
X_9_0_170	1
Y_9_176	1
X_9_187_176	1
Y_9_181	1
X_9_55_181	1
Y_9_183	1
X_9_163_183	1
Y_9_187	1
X_9_170_187	1
Y_9_189	1
X_9_22_189	1
Y_9_193	1
X_9_169_193	1
Y_9_195	1
X_9_189_195	1
Y_9_200	1
X_9_195_200	1
Y_10_5	1
X_10_134_5	1
Y_10_19	1
X_10_178_19	1
Y_10_33	1
X_10_197_33	1
Y_10_45	1
X_10_0_45	1
Y_10_64	1
X_10_5_64	1
Y_10_71	1
X_10_98_71	1
Y_10_81	1
X_10_110_81	1
Y_10_88	1
X_10_113_88	1
Y_10_96	1
X_10_130_96	1
Y_10_98	1
X_10_81_98	1
Y_10_104	1
X_10_191_104	1
Y_10_110	1
X_10_45_110	1
Y_10_113	1
X_10_33_113	1
Y_10_115	1
X_10_88_115	1
Y_10_122	1
X_10_19_122	1
Y_10_130	1
X_10_71_130	1
Y_10_134	1
X_10_115_134	1
Y_10_178	1
X_10_96_178	1
Y_10_191	1
X_10_64_191	1
Y_10_197	1
X_10_122_197	1
X_1_23_0	1
X_2_125_0	1
X_3_152_0	1
X_4_133_0	1
X_5_132_0	1
X_6_128_0	1
X_7_109_0	1
X_8_9_0	1
X_9_85_0	1
X_10_104_0	1
U_1	7,99999999999736
U_2	186
U_3	196,000000000001
U_4	11,9999999999957
U_5	196
U_6	196,000000000001
U_7	185
U_8	0,999999999999829
U_9	199
U_10	194,000000000001
U_11	193
U_12	6,99999999999946
U_13	191,000000000005
U_14	198
U_15	0,999999999999886
U_16	195,000000000001
U_18	189
U_19	188,000000000001
U_20	8,9999999999969
U_21	1,9999999999998
U_22	187,000000000001
U_23	199
U_24	195,000000000001
U_25	185,000000000001
U_26	192,000000000001
U_27	2,99999999999957
U_28	191
U_29	198,000000000003
U_30	189,000000000001
U_32	8,99999999999528
U_33	191,000000000001
U_34	192
U_35	5,99999999999696
U_36	1,99999999999983
U_37	195,000000000003
U_38	194,000000000001
U_39	197,000000000001
U_40	197
U_41	2,99999999999824
U_42	1,99999999999991
U_43	195,000000000001
U_44	193,000000000001
U_46	189,000000000005
U_47	196,000000000003
U_48	197,000000000001
U_49	9,99999999999804
U_50	188,000000000003
U_51	193,000000000001
U_52	191,000000000001
U_53	3,99999999999869
U_54	197,000000000001
U_55	2,99999999999784
U_56	0,999999999998124
U_57	195
U_58	6,99999999999744
U_59	184
U_61	4,99999999999781
U_62	2,99999999999957
U_63	189,000000000001
U_64	197
U_65	194,000000000002
U_66	197,000000000001
U_67	191
U_68	194
U_69	5,99999999999528
U_70	186,000000000001
U_71	3,99999999999855
U_72	4,99999999999901
U_73	193
U_74	1,99999999999937
U_75	194,000000000001
U_76	197
U_77	196,000000000001
U_78	196,000000000001
U_80	198
U_81	1,99999999999983
U_82	196,000000000001
U_83	5,99999999999858
U_84	193,000000000001
U_85	199
U_86	9,99999999999528
U_87	191,000000000001
U_88	193
U_89	1
U_90	190,000000000001
U_91	10,999999999998
U_92	191,000000000001
U_93	198
U_94	5,99999999999957
U_95	7,9999999999981
U_96	186,000000000002
U_97	191,000000000001
U_98	2,99999999999949
U_99	3,99999999999824
U_100	193,000000000004
U_101	7,99999999999937
U_102	193,000000000001
U_103	4,99999999999824
U_104	199
U_105	7,9999999999954
U_106	198,000000000001
U_107	190,000000000005
U_108	189,000000000001
U_109	199
U_110	1
U_111	2,99999999999648
U_112	194,000000000001
U_113	192,000000000001
U_114	10,9999999999957
U_115	194
U_117	190,000000000001
U_118	198
U_120	196
U_121	192
U_122	189,000000000001
U_123	188
U_124	196
U_125	199,000000000001
U_126	11,999999999998
U_127	1,99999999999824
U_128	199
U_129	192,000000000001
U_130	185,000000000003
U_132	199
U_133	199
U_134	195
U_135	198,000000000001
U_136	2,99999999999926
U_137	9,9999999999969
U_138	187
U_139	189,000000000003
U_140	4,99999999999957
U_141	193,000000000001
U_142	9,99999999999616
U_143	195
U_144	192,000000000001
U_145	3,99999999999901
U_146	198,000000000001
U_147	3,99999999999957
U_148	8,99999999999736
U_149	2,99999999999972
U_150	5,99999999999824
U_151	195,000000000001
U_152	199,000000000003
U_153	0,999999999998295
U_154	3,99999999999557
U_155	197,000000000001
U_156	7,99999999999804
U_157	6,99999999999807
U_158	6,99999999999528
U_159	1
U_160	194,000000000001
U_161	191,000000000001
U_162	192,000000000001
U_163	4,99999999999773
U_164	4,9999999999954
U_165	2,99999999999943
U_166	190,000000000003
U_167	198
U_168	194
U_169	192,000000000001
U_171	8,99999999999804
U_172	1,99999999999739
U_173	2,99999999999952
U_174	196,000000000001
U_175	6,99999999999824
U_176	1,99999999999807
U_177	192,000000000005
U_178	187,000000000001
U_179	197
U_180	195,000000000001
U_181	3,99999999999773
U_182	1
U_183	5,99999999999773
U_184	190
U_185	195,000000000001
U_186	1
U_187	0,999999999998124
U_188	190
U_189	188,000000000001
U_190	194,000000000004
U_191	198
U_192	1,99999999999946
U_193	193,000000000001
U_195	189,000000000001
U_196	1,99999999999957
U_197	190,000000000001
U_198	197,000000000003
U_199	190,000000000001
U_200	190,000000000001
