25
4 87 83 60 38
6 62 7 59 61 92 96
5 89 72 34 99 32
4 35 50 19 1
5 54 31 2 43 56
3 44 91 0
4 98 36 55 46
4 88 9 11 5
3 64 52 66
3 82 68 53
5 26 57 20 33 76
4 22 80 12 14
4 4 8 97 25
5 86 93 79 37 18
2 67 69
4 73 81 45 75
5 78 6 47 21 15
3 58 94 77
5 23 85 74 30 51
4 42 71 29 27
3 40 24 41
3 16 90 3
5 49 84 65 13 48
3 70 28 63
4 17 95 39 10

Total makespan: 56
