30
8 27 111 222 136 161 209 237 86
10 48 189 174 172 206 233 5 178 30 106
8 204 220 153 134 211 240 82 148
7 95 246 78 181 28 57 135
11 169 18 221 125 47 218 235 196 104 91 184
7 60 83 38 245 236 152 102
11 120 193 58 140 159 243 101 9 122 175 177
8 68 231 226 15 1 13 166 164
10 158 168 35 179 25 114 207 163 239 39
5 182 133 227 137 55
10 4 71 224 108 96 176 99 54 22 64
9 34 241 130 124 244 84 202 98 85
6 62 242 75 187 45 162
9 127 12 117 0 77 144 100 201 215
6 129 10 216 197 210 69
10 151 33 195 139 191 170 213 118 214 228
8 20 234 31 92 190 116 156 150
8 143 147 225 109 248 232 79 247
8 157 21 183 132 192 74 155 113
10 229 107 26 188 160 81 126 105 110 80
8 41 249 103 70 212 61 199 167
10 56 66 123 219 115 37 53 146 23 32
6 186 49 36 173 29 119
7 205 89 87 93 223 73 8
8 200 131 51 42 128 50 17 11
9 72 142 171 112 194 141 46 138 59
7 238 67 198 217 203 90 208
9 2 88 180 65 6 76 63 16 121
8 149 7 43 97 230 14 40 165
9 154 52 94 3 19 185 145 44 24

Total makespan: 49
