10
25 128 43 147 89 95 1 123 164 125 50 15 88 162 60 195 134 205 122 211 175 71 190 113 146 184
30 84 245 188 174 36 94 130 165 200 220 103 64 61 82 213 248 78 8 69 230 109 115 189 76 11 235 23 97 38 156
22 68 198 111 16 28 221 232 178 26 199 59 37 241 172 29 243 118 3 228 66 161 225
28 144 249 41 155 2 135 53 33 80 177 160 142 212 47 13 10 210 182 207 238 19 99 6 105 171 129 143 67
24 39 127 246 83 110 62 227 209 244 27 56 98 233 206 100 48 90 145 52 74 237 150 204 187
18 170 153 120 163 154 12 247 25 201 173 93 34 112 92 121 106 86 79
26 159 151 191 9 132 57 17 51 87 168 58 229 119 116 46 32 14 176 194 240 203 73 196 70 236 185
31 222 183 49 55 21 215 4 117 223 234 216 42 20 217 186 44 30 114 138 242 193 63 91 104 75 158 85 180 139 136 0
21 179 169 167 131 157 192 40 81 226 202 218 231 214 45 22 5 35 166 149 77 152
25 18 141 31 7 137 107 219 96 65 124 224 140 133 54 108 197 208 24 101 181 126 239 72 102 148

Total makespan: 408
