30
3 25 10 83
4 94 23 61 77
4 65 68 89 57
3 14 60 4
3 42 5 15
2 2 55
3 79 97 78
3 72 99 28
2 32 62
5 7 36 22 84 3
5 85 53 12 81 64
2 40 17
2 38 1
2 18 0
3 41 54 8
4 90 13 92 58
3 69 30 24
3 20 45 93
3 6 56 35
3 66 88 16
5 98 46 31 33 67
4 76 34 19 39
3 70 52 80
5 63 27 71 43 51
4 26 59 87 75
3 44 95 82
2 11 50
3 74 96 73
4 91 9 48 37
5 21 86 29 49 47

Total makespan: 39
