15
14 53 98 191 129 70 6 240 131 128 184 73 168 74 176
10 37 211 0 140 30 159 61 109 4 55
16 89 1 5 210 15 221 195 49 25 169 99 60 190 152 11 54
13 68 203 231 81 87 249 143 124 38 2 71 230 200
13 130 64 110 17 247 116 144 77 206 204 178 180 58
13 103 235 232 248 122 226 97 114 95 205 218 126 41
21 76 196 174 43 108 138 225 125 234 7 228 151 94 57 62 242 229 246 155 59 34
21 170 217 139 78 56 66 135 112 105 72 67 121 32 238 24 142 145 241 146 36 18
17 198 224 181 8 91 75 245 194 82 52 22 83 153 13 215 28 102
22 185 46 172 236 223 154 237 162 50 33 150 134 101 166 27 182 16 202 189 160 69 244
18 90 79 177 45 47 183 243 3 119 123 227 175 115 193 209 222 111 113
17 88 188 92 167 186 179 219 156 104 187 208 14 239 65 161 84 141
19 233 117 29 147 149 80 21 106 44 214 23 197 137 10 132 20 173 220 48
19 163 9 171 213 118 96 158 31 148 42 127 207 107 51 100 19 216 86 85
17 192 201 164 133 165 35 63 157 40 199 212 12 120 93 39 136 26

Total makespan: 219
