30
3 37 21 99
5 48 7 46 17 30
3 41 9 97
3 36 71 84
3 93 66 57
3 77 91 6
2 85 87
4 83 1 90 80
5 81 89 34 14 20
2 67 95
2 53 42
4 29 69 56 59
2 44 12
2 78 75
3 62 60 10
2 52 54
2 8 92
4 73 82 63 58
3 45 74 96
5 27 72 51 38 98
3 76 88 79
3 47 68 18
3 24 33 31
4 0 40 43 11
5 5 35 26 3 39
4 65 15 64 22
5 61 32 49 94 13
5 25 19 86 16 28
2 55 4
4 2 50 23 70

Total makespan: 23
