25
8 79 234 22 81 206 214 235 46
10 197 189 109 246 98 21 239 187 14 82
11 182 143 97 52 228 99 6 177 88 126 23
10 140 159 15 102 69 160 123 78 4 101
11 193 156 230 104 212 45 227 225 20 127 10
12 147 165 152 132 158 142 87 93 3 179 67 110
9 54 68 80 221 198 41 44 71 223
8 232 17 57 65 203 49 238 151
11 85 210 245 63 7 40 86 42 139 53 213
7 148 248 37 19 171 38 172
10 175 119 76 36 196 28 59 191 216 195
10 114 56 84 89 153 141 96 137 108 30
9 72 243 162 25 211 247 138 183 51
7 32 240 150 29 163 200 74
7 220 70 205 50 249 164 134
11 128 91 157 218 95 155 90 66 201 122 242
10 181 103 92 9 173 94 233 73 209 64
7 124 107 48 167 115 186 190
12 208 33 146 55 184 180 62 174 144 161 27 111
14 120 39 226 222 13 131 2 229 100 176 178 26 75 169
13 43 241 231 35 60 61 16 237 204 136 77 224 113
13 5 168 12 1 236 31 18 149 105 185 219 145 199
9 166 117 135 194 207 58 83 106 192
9 116 215 170 24 133 0 202 188 118
12 217 130 121 34 154 47 129 244 8 112 11 125

Total makespan: 111
