15
7 35 68 45 78 48 85 22
7 9 8 15 30 17 44 28
7 64 56 77 84 71 21 91
8 43 14 99 6 41 60 27 0
7 61 37 20 72 87 75 93
8 53 79 24 51 96 76 94 49
6 92 90 70 19 11 23
6 2 82 7 47 40 73
5 52 16 88 18 69
7 46 3 1 5 98 89 59
9 13 95 65 39 26 62 31 86 55
4 66 58 54 38
5 29 34 50 36 42
7 33 67 10 12 83 57 4
7 80 25 32 81 97 63 74

Total makespan: 110
