25
6 57 13 4 89 130 43
6 25 108 115 72 93 15
7 42 128 0 75 70 113 18
6 141 29 86 61 45 100
6 116 28 140 148 5 1
6 54 118 127 145 78 102
7 68 106 137 60 96 38 133
5 19 104 77 44 105
3 82 79 56
8 9 53 7 103 73 49 69 144
6 37 41 32 121 95 30
7 119 88 101 59 136 74 112
5 146 14 22 76 12
7 149 81 131 107 97 20 91
6 47 46 51 120 109 85
7 98 34 129 84 135 83 90
5 134 87 50 3 99
8 2 21 40 110 94 139 114 17
7 48 52 117 92 10 143 67
6 147 125 55 124 11 58
5 80 16 6 35 23
4 142 63 123 111
5 24 138 132 62 26
5 71 39 33 126 31
7 122 65 64 8 36 27 66

Total makespan: 80
