20
4 62 34 49 29
7 40 58 20 2 98 30 41
6 16 8 0 6 47 93
6 17 11 86 9 76 77
6 5 99 97 46 54 12
6 59 28 95 36 13 57
3 3 43 15
5 66 91 75 48 71
5 60 96 24 27 85
6 53 37 68 94 31 56
3 89 74 69
5 92 32 35 61 18
5 65 39 26 45 14
5 64 70 4 19 7
3 72 1 80
5 25 88 23 55 84
6 83 21 90 10 79 22
3 82 38 87
5 52 51 78 33 81
6 63 42 50 73 67 44

Total makespan: 69
