20
6 1 75 79 119 91 110
8 65 139 60 108 107 82 146 54
7 29 3 16 148 70 44 52
8 77 45 24 61 6 84 116 124
5 87 69 20 127 134
9 30 130 48 4 49 64 63 58 31
7 27 67 92 132 105 33 106
8 128 140 5 15 53 145 73 38
9 98 19 28 102 8 18 111 68 72
8 115 34 17 93 96 85 109 23
10 125 40 43 10 143 114 62 137 39 147
6 71 74 133 59 90 57
7 100 97 142 66 136 122 94
5 37 14 95 86 2
7 88 55 112 13 11 78 41
8 120 50 129 36 138 80 47 144
7 126 32 26 46 21 113 131
7 22 7 42 104 117 12 135
11 149 76 56 99 51 141 123 35 25 89 121
7 118 103 83 9 101 81 0

Total makespan: 97
