20
3 21 24 37
4 2 27 41 8
3 31 47 4
2 29 25
3 28 18 23
2 12 7
3 9 15 5
2 43 38
2 0 17
2 45 13
3 20 48 49
2 26 6
3 1 36 35
3 44 42 3
1 30
3 46 34 22
3 39 11 32
2 16 19
1 10
3 14 40 33

Total makespan: 32
