20
7 3 19 40 33 81 76 91
5 8 68 9 31 92
6 41 4 5 93 7 78
4 29 22 67 15
5 58 13 70 71 88
6 84 34 1 35 96 99
3 44 65 64
5 72 86 60 16 61
7 42 17 27 98 18 69 46
6 77 43 83 73 56 39
5 80 0 38 87 28
3 85 54 36
4 30 45 48 82
6 10 25 89 51 97 62
6 32 20 49 94 26 6
4 23 59 14 47
3 52 53 50
5 11 21 79 95 63
3 57 37 75
7 90 24 74 55 12 66 2

Total makespan: 74
