20
10 90 182 30 138 96 18 241 75 192 119
12 4 198 163 230 79 146 22 181 36 102 164 213
11 235 185 48 93 24 85 153 211 176 177 173
15 216 141 121 57 39 61 155 40 143 20 159 1 170 6 133
14 92 80 140 17 68 2 83 58 78 232 201 237 162 37
12 239 179 124 233 186 228 184 165 188 27 91 122
13 49 194 28 137 123 69 229 72 183 108 236 217 174
13 116 226 167 26 23 118 210 196 86 19 15 63 59
15 127 154 193 161 104 234 53 52 95 203 113 129 199 64 77
13 200 187 11 29 12 25 34 180 221 246 175 60 112
14 47 208 142 134 107 103 16 5 225 44 67 32 156 71
11 151 50 158 160 70 222 178 38 204 87 212
11 82 0 207 73 219 13 132 97 209 190 152
11 135 31 224 157 245 88 214 55 115 247 195
12 243 148 136 54 46 41 197 240 33 220 66 223
11 43 51 65 74 248 120 249 191 130 227 35
10 145 172 215 7 218 21 10 205 81 76
13 244 166 89 9 149 171 84 98 8 3 242 94 202
14 56 206 111 139 99 144 114 100 42 169 128 117 101 14
15 45 150 131 110 238 62 168 147 125 105 189 126 231 109 106

Total makespan: 148
