25
7 54 15 138 120 167 80 95
9 178 44 137 41 123 165 46 68 22
10 30 157 14 102 161 57 4 0 159 195
8 191 85 121 63 142 93 74 190
7 27 43 2 180 5 103 71
9 67 18 117 171 58 3 56 77 34
9 175 192 146 1 105 50 21 154 155
6 11 60 33 114 100 135
10 189 51 128 107 38 45 84 66 79 118
7 40 69 182 13 160 31 8
9 170 17 134 145 12 81 47 127 113
9 92 199 73 109 106 116 188 70 10
6 91 23 184 88 110 104
9 59 76 78 187 174 176 166 183 158
7 98 185 151 87 96 197 16
9 48 37 148 130 83 141 24 162 144
6 52 65 163 19 147 193
9 36 143 7 108 62 35 168 156 29
8 94 26 55 139 125 42 72 75
8 124 53 89 99 28 86 132 49
9 32 149 9 153 111 196 61 152 169
7 119 136 20 140 97 131 181
7 198 115 64 122 173 82 179
7 39 126 194 101 177 6 150
8 112 164 133 25 172 90 186 129

Total makespan: 88
