25
7 43 7 104 66 87 3 145
8 10 13 49 85 83 35 34 27
4 46 20 131 120
4 73 144 133 78
5 80 126 130 110 107
6 48 40 99 52 137 141
7 69 37 134 92 15 22 56
5 1 39 105 59 9
5 121 100 103 82 96
9 135 25 31 119 90 139 4 17 67
10 65 71 57 70 14 132 112 129 32 38
6 41 95 118 53 6 36
6 117 2 79 72 58 68
6 114 62 23 148 88 24
8 16 64 18 21 102 28 60 81
5 143 125 61 142 47
7 116 19 91 146 113 45 63
6 74 42 115 0 138 111
5 149 8 5 97 109
5 106 94 75 89 124
4 29 127 140 136
9 51 86 33 54 26 50 55 123 98
4 11 12 30 44
3 84 93 108
6 101 76 122 77 128 147

Total makespan: 39
