25
13 46 205 47 63 241 35 50 86 55 87 119 249 117
10 151 142 93 0 160 147 90 238 146 157
8 52 4 152 161 125 39 148 95
9 5 156 49 134 127 99 185 174 132
10 38 239 3 106 218 141 129 233 58 78
9 74 216 234 236 109 60 16 57 139
8 100 20 102 155 56 101 189 84
12 24 122 247 219 18 75 228 212 213 200 172 181
11 137 34 124 89 188 79 180 214 217 191 140
14 138 62 17 98 120 220 81 70 203 115 32 131 243 206
10 237 158 135 105 204 179 193 201 92 165
10 1 85 210 114 103 207 61 110 27 83
7 176 33 29 15 123 25 229
10 68 245 54 164 107 167 82 190 121 153
8 226 183 244 231 2 187 227 28
8 21 31 64 108 48 197 113 150
11 40 128 65 30 41 45 37 162 72 196 232
12 178 77 26 14 116 235 215 248 136 53 73 111
9 71 198 202 118 12 88 168 11 130
10 96 221 67 242 175 194 126 154 144 143
9 177 94 97 66 166 145 19 173 9
10 208 184 199 223 80 42 91 23 133 209
10 13 36 6 186 112 182 8 230 76 51
13 149 104 170 7 44 171 246 169 222 22 69 224 195
9 225 163 211 10 159 240 192 43 59

Total makespan: 114
