15
7 60 72 39 22 38 51 33
8 1 70 11 13 19 14 45 50
7 48 79 63 3 90 10 53
5 12 34 18 88 27
6 47 5 74 56 59 28
7 54 8 65 29 55 73 35
5 43 2 67 41 20
7 32 91 0 57 66 76 99
8 96 37 17 4 86 24 61 31
6 98 46 16 30 42 78
4 89 52 69 95
7 26 64 80 58 93 7 92
5 75 6 84 97 85
9 62 44 40 21 94 83 77 71 49
9 15 25 68 87 82 36 23 81 9

Total makespan: 82
