25
2 25 35
2 21 46
1 41
2 42 2
2 18 19
1 4
2 39 1
2 37 36
2 0 24
2 13 6
4 49 28 47 5
2 45 44
1 32
3 29 48 16
2 43 27
1 33
2 38 23
3 30 17 34
1 15
1 10
2 26 31
4 40 3 14 12
1 8
2 20 22
3 7 11 9

Total makespan: 22
