20
4 47 44 22 25
1 6
2 15 26
2 16 24
3 7 33 9
2 2 43
2 29 19
2 23 37
4 35 0 5 11
3 38 30 20
3 8 49 14
3 48 42 27
3 1 28 45
1 4
2 41 39
2 32 40
2 31 12
3 3 34 18
3 10 21 13
3 46 17 36

Total makespan: 29
