15
8 12 24 48 92 22 90 11 16
5 2 88 98 0 84
6 38 74 35 49 17 3
5 18 89 57 83 13
5 60 20 58 50 73
5 82 72 34 94 44
4 54 51 69 77
9 61 76 15 8 47 4 79 65 37
7 86 36 68 96 81 43 97
9 80 63 23 14 7 26 70 67 21
8 66 64 99 59 25 1 33 6
6 27 19 9 71 62 55
7 46 45 78 5 91 10 95
8 56 40 39 53 29 85 41 93
8 75 28 52 30 42 31 87 32

Total makespan: 108
