10
24 123 104 81 120 82 77 199 18 68 174 99 71 178 97 90 195 191 15 111 49 134 78 179 164
18 161 114 144 147 38 151 149 89 171 42 140 58 192 55 127 40 6 187
18 157 70 156 145 20 34 25 152 103 194 112 37 13 95 154 24 10 69
20 46 122 130 48 184 54 106 63 105 14 116 56 52 198 142 50 159 150 35 128
21 101 108 29 137 117 19 7 32 131 31 2 12 181 107 135 124 193 143 169 9 36
19 162 183 133 53 85 1 190 11 91 27 5 98 141 94 51 176 197 17 59
19 76 118 30 92 79 73 129 126 102 125 172 74 110 155 96 175 121 180 3
23 132 61 4 186 8 100 28 173 83 182 136 177 115 119 113 163 21 41 47 22 148 196 185
17 189 93 39 88 45 165 84 64 153 16 33 62 72 109 166 44 167
21 0 66 170 57 168 146 158 160 23 67 86 75 26 65 80 188 87 138 60 139 43

Total makespan: 265
