15
21 64 224 117 181 186 226 134 18 99 83 195 2 214 57 35 183 52 17 74 148 113
19 200 63 36 153 73 24 47 61 112 136 176 34 245 180 12 104 192 46 234
15 103 244 3 211 128 135 229 203 236 105 125 149 44 14 161
20 0 151 216 225 26 75 22 108 223 107 152 42 221 28 54 209 106 144 140 126
13 184 171 191 189 102 207 77 9 188 162 21 212 143
11 173 164 218 233 71 30 10 110 37 202 177
18 205 232 133 59 58 56 50 178 94 95 197 82 76 242 163 8 241 231
15 69 53 92 219 80 90 147 60 121 118 240 40 238 172 246
18 243 1 217 185 127 91 155 228 145 55 220 41 168 210 4 119 208 230
18 247 170 88 31 45 198 160 43 25 86 100 194 33 7 175 29 84 67
17 66 201 51 179 111 141 193 150 93 39 48 213 235 239 159 114 227
16 5 85 65 131 13 249 138 187 70 97 122 248 98 96 157 78
14 23 109 204 68 124 49 81 146 32 237 166 129 20 16
18 132 174 199 27 196 169 11 62 137 123 222 115 6 215 165 190 158 79
17 116 154 87 142 38 15 120 89 182 130 101 206 156 19 139 72 167

Total makespan: 233
