25
10 140 126 201 139 124 170 88 75 222 219
9 192 26 42 51 244 159 175 55 129
10 155 153 48 116 11 212 35 117 185 229
10 231 5 61 240 186 18 24 204 172 14
9 46 193 166 145 190 135 232 69 22
12 97 93 31 165 21 63 237 235 106 146 60 120
12 118 72 178 142 243 122 30 76 163 133 15 113
12 36 217 52 197 202 227 86 25 43 239 87 99
8 220 17 23 84 102 32 103 107
9 216 49 104 148 110 119 228 182 27
9 160 20 242 57 41 132 176 141 203
9 156 151 169 214 241 248 28 89 174
10 47 162 45 206 161 168 131 71 19 208
13 196 62 105 67 177 128 144 247 171 77 100 134 147
8 96 218 198 226 189 58 65 123
11 194 9 81 59 34 94 188 79 130 92 143
7 233 82 7 78 236 249 245
11 83 173 137 70 234 127 12 66 85 68 150
11 29 98 38 91 108 225 109 191 8 164 187
11 1 95 74 80 114 154 205 54 3 207 50
9 125 4 10 152 115 209 6 183 121
10 40 56 211 111 44 195 224 210 199 2
8 0 101 223 230 200 90 157 238
12 215 213 16 180 112 33 167 138 64 221 246 73
10 179 184 13 181 136 149 37 53 158 39

Total makespan: 87
