30
3 79 61 96
4 44 59 11 81
4 49 84 26 50
4 3 73 45 56
3 72 48 51
3 6 20 92
2 0 63
3 28 25 37
4 43 97 93 17
4 2 24 62 66
4 83 22 38 60
3 18 99 42
4 78 5 4 70
3 23 33 35
6 12 27 65 82 58 13
3 1 36 32
4 76 47 21 87
2 30 53
4 52 77 15 95
3 10 14 94
3 31 68 16
2 55 85
2 40 57
4 9 7 98 90
2 29 86
4 41 67 8 88
3 34 80 19
3 46 69 71
4 89 64 74 75
3 39 91 54

Total makespan: 32
