10
11 0 23 136 1 31 55 139 30 58 72 26
16 120 75 12 10 116 141 60 33 126 114 43 138 68 78 17 133
14 54 97 59 36 71 88 47 57 74 103 76 128 44 131
19 111 50 107 79 19 15 63 69 143 45 39 66 3 22 95 117 2 145 90
15 81 9 61 115 85 52 38 67 35 119 27 32 125 65 106
22 25 100 102 96 51 89 94 112 122 137 16 40 121 28 149 11 99 91 108 130 34 101
12 135 64 87 109 73 144 123 13 98 124 146 18
13 49 21 104 20 37 127 70 56 92 86 83 134 105
15 41 29 132 80 93 4 82 6 8 48 7 14 62 113 53
13 147 24 118 84 5 140 42 129 142 110 46 77 148

Total makespan: 241
