20
8 70 100 43 14 9 83 139 134
7 78 1 42 116 130 62 108
7 114 95 57 15 31 26 2
10 51 103 107 38 71 44 90 127 113 76
7 122 138 133 47 5 94 27
9 79 82 89 120 85 35 41 131 54
8 106 4 147 56 49 102 59 129
9 6 142 93 84 10 60 19 17 97
9 8 64 121 23 132 0 63 86 99
10 104 141 92 81 101 149 118 77 28 98
7 123 66 117 50 74 7 72
10 16 46 110 126 58 73 13 69 109 29
7 53 48 30 119 25 111 87
6 137 12 65 88 140 37
4 144 55 61 52
4 11 105 96 112
7 24 34 67 45 124 21 20
6 125 128 145 91 148 146
8 22 80 115 75 18 136 40 68
7 3 39 135 33 36 32 143

Total makespan: 81
