30
2 29 16
1 26
3 7 46 6
2 44 19
2 18 24
1 43
2 34 15
1 25
1 35
3 14 48 36
1 22
2 38 40
2 8 49
2 17 3
1 37
2 5 42
3 41 10 1
1 33
1 28
1 13
1 21
2 12 9
1 23
1 4
1 39
2 45 20
1 32
2 30 27
2 2 11
3 31 47 0

Total makespan: 14
