30
4 4 94 97 53
6 81 18 66 70 30 137
5 87 69 16 9 20
5 64 147 103 55 29
4 123 126 115 36
5 91 46 17 52 98
6 113 79 85 13 1 145
6 114 14 131 73 106 67
5 27 136 88 121 105
4 130 26 124 142
5 148 74 0 104 96
4 82 78 92 49
5 48 89 35 65 120
6 54 102 11 99 75 51
5 138 10 42 125 60
5 129 144 107 101 59
3 21 50 24
5 58 19 8 119 83
5 149 100 6 134 22
5 77 31 38 2 28
7 56 15 86 140 135 146 117
4 122 90 40 132
6 5 139 3 109 63 68
6 41 95 110 143 62 12
4 133 34 116 72
5 32 43 7 23 47
7 128 84 71 76 33 112 57
5 25 108 39 37 93
3 45 118 80
5 127 111 61 44 141

Total makespan: 57
