20
14 143 64 47 109 235 173 72 113 206 123 108 11 176 180
13 189 230 163 216 218 66 195 10 132 8 79 128 226
13 179 158 203 52 126 88 116 80 157 149 56 145 16
12 105 85 41 60 117 214 77 26 50 247 23 38
16 24 208 44 160 0 17 238 59 201 103 187 148 196 193 236 67
15 169 200 249 243 166 175 183 106 98 86 93 242 4 96 152
11 177 53 97 234 82 127 212 90 135 165 3
14 225 70 51 100 14 89 73 71 171 134 29 54 95 186
12 114 37 159 222 168 2 170 155 211 62 142 150
18 119 191 210 147 55 162 133 245 5 84 202 39 136 122 164 129 112 7
10 6 215 30 22 227 118 124 125 174 27
12 217 58 221 36 34 139 182 94 87 18 153 99
10 28 228 241 146 78 69 204 31 115 21
12 12 239 231 178 167 25 161 63 199 13 233 184
8 140 194 120 101 223 246 229 198
14 68 35 131 209 156 224 205 185 213 76 104 237 248 111
10 83 32 75 220 57 61 130 46 15 45
12 188 92 197 81 141 102 49 240 121 192 107 33
14 9 144 42 40 190 110 19 74 154 172 43 20 232 181
10 65 1 244 137 138 219 151 91 48 207

Total makespan: 133
