25
13 86 1 74 208 18 89 225 191 145 88 220 185 129
14 93 28 13 128 186 241 66 56 212 180 21 12 149 24
7 223 70 133 137 73 16 233
11 45 214 79 232 246 235 202 81 146 52 47
10 245 51 164 209 195 92 135 205 218 82
10 38 43 11 227 76 54 221 96 49 190
8 111 120 22 198 39 217 50 143
10 2 83 161 113 127 230 114 108 243 222
9 10 77 239 20 109 160 53 144 181
9 23 30 224 101 33 98 237 106 118
12 187 192 175 154 57 219 60 6 130 84 14 226
12 35 184 55 72 248 177 126 58 132 40 134 68
9 170 63 123 157 182 48 61 90 7
8 153 95 172 67 42 0 117 122
8 97 78 138 59 5 210 124 112
16 240 107 36 110 44 155 140 27 87 100 19 171 139 169 26 102
11 147 176 211 105 188 29 115 31 64 167 242
13 234 121 228 163 46 203 194 215 69 151 166 249 173
8 37 152 150 75 204 71 158 156
12 201 247 116 62 178 119 189 136 104 141 41 165
9 183 197 162 85 148 159 213 168 174
5 4 25 99 125 34
9 238 94 216 9 207 91 142 179 80
9 244 17 15 193 103 131 199 206 229
8 3 196 32 65 236 8 200 231

Total makespan: 58
