25
2 47 34
1 20
2 24 8
3 41 40 36
2 30 10
2 1 48
2 6 4
1 31
1 27
2 37 43
2 29 39
2 45 26
2 17 25
1 21
2 13 28
3 14 2 16
4 5 9 15 19
2 0 3
3 7 11 35
2 22 18
2 32 42
2 12 38
2 49 46
2 44 33
1 23

Total makespan: 28
