10
8 94 92 36 89 58 73 9 52
8 32 8 77 27 15 69 18 48
10 60 79 23 14 46 41 29 50 44 84
12 59 81 22 85 95 30 2 63 74 90 37 28
12 35 78 86 82 24 40 65 19 80 4 87 42
11 45 98 43 64 5 47 83 20 97 16 1
7 21 6 68 93 3 88 55
13 70 91 34 13 25 62 66 71 96 76 31 7 57
9 39 72 0 12 10 17 26 99 33
10 38 67 11 51 49 56 75 53 61 54

Total makespan: 180
