10
7 8 74 99 83 72 57 55
10 36 82 47 19 26 68 95 39 59 25
11 91 24 16 92 17 6 29 5 75 94 84
12 14 58 73 7 3 93 30 85 66 89 86 27
9 52 56 18 21 53 50 11 76 97
13 13 69 12 71 98 1 34 88 40 10 63 0 65
8 9 60 45 70 43 90 81 2
11 77 32 64 61 15 46 20 80 62 48 67
8 23 4 37 44 41 35 96 31
11 87 38 22 79 33 54 78 28 49 42 51

Total makespan: 148
