25
5 108 125 10 41 109
8 81 114 90 105 16 124 30 20
6 46 53 132 40 104 139
4 85 94 143 92
8 135 31 113 43 26 48 82 22
5 5 36 100 59 96
7 117 107 67 127 145 76 66
5 112 144 50 61 116
6 28 122 130 37 6 142
5 4 86 83 141 29
6 64 138 133 23 118 39
6 77 110 74 93 3 98
5 99 137 42 17 34
8 111 51 126 136 38 58 7 120
8 70 45 14 1 60 89 73 56
5 140 47 131 12 84
9 87 103 9 134 55 54 121 129 68
6 91 62 18 49 11 88
7 106 2 78 128 95 148 32
4 72 35 33 123
5 63 65 79 21 19
6 80 102 119 52 57 97
5 146 75 25 8 69
6 149 71 101 24 0 13
5 44 27 15 115 147

Total makespan: 78
