15
15 151 179 153 5 185 52 48 144 115 84 128 78 30 95 23
11 87 50 92 134 112 39 106 89 64 70 82
14 111 135 170 147 66 88 67 193 53 188 93 80 149 195
11 25 35 96 189 165 33 36 77 171 150 102
19 15 2 38 90 24 72 18 113 196 133 119 173 156 175 79 60 37 3 158
12 105 54 152 186 138 4 69 45 197 190 121 118
12 142 34 28 183 194 145 26 61 162 57 19 100
13 63 51 44 136 166 21 94 55 71 187 148 103 161
15 199 169 58 110 154 85 137 59 97 68 164 16 76 117 176
16 109 43 129 75 160 86 7 146 143 40 178 47 0 31 172 191
13 116 168 42 13 130 73 12 49 124 14 74 159 141
12 8 22 11 132 198 177 157 56 174 163 107 6
13 122 182 10 99 1 184 29 126 20 108 81 123 104
11 32 120 27 180 17 140 139 131 125 41 167
13 83 9 46 155 98 101 91 62 181 127 65 114 192

Total makespan: 195
