20
2 4 16
2 28 47
2 46 41
2 45 39
3 14 35 49
2 37 42
3 34 23 17
3 25 21 19
4 11 6 13 36
2 31 30
2 18 7
3 26 27 12
2 24 48
2 20 8
3 32 0 9
1 2
4 22 44 3 43
3 29 38 1
3 33 40 10
2 15 5

Total makespan: 39
