20
8 105 188 142 81 123 184 28 98
10 63 132 173 199 40 73 13 135 66 39
10 171 112 26 178 177 127 33 136 194 80
11 23 41 97 183 148 50 113 172 121 59 42
10 76 192 157 160 109 153 164 152 107 14
14 154 111 117 83 35 62 90 57 49 51 130 126 174 138
12 182 147 129 95 137 88 3 161 7 124 94 1
8 119 185 158 11 165 140 118 53
5 69 47 195 0 27
13 170 85 101 74 67 176 38 128 149 93 92 156 191
14 134 43 61 162 79 122 12 144 100 77 180 115 108 31
10 8 190 166 110 68 159 70 99 175 48
10 34 78 9 120 4 104 150 21 102 169
10 65 151 198 91 18 30 143 168 167 155
12 58 25 75 179 54 5 139 196 20 2 116 89
10 186 163 141 189 19 125 10 145 106 55
6 6 60 96 64 46 32
11 44 22 29 87 131 187 17 45 71 181 24
8 16 114 15 37 133 56 146 197
8 82 103 36 193 84 52 86 72

Total makespan: 130
