25
2 9 47
2 30 16
2 38 26
1 15
3 29 33 7
2 44 10
4 18 49 32 13
2 22 17
2 45 36
2 37 25
1 4
3 27 23 46
2 6 0
2 21 48
1 8
1 40
2 2 41
2 43 5
3 1 31 24
1 42
2 39 34
3 3 28 11
1 12
2 19 20
2 35 14

Total makespan: 31
