20
11 158 121 133 135 157 172 181 26 96 71 16
10 147 64 161 35 28 139 31 11 100 167
7 73 0 5 56 111 97 46
11 165 170 29 53 4 1 81 194 27 80 175
11 141 177 134 33 154 85 20 178 197 104 51
11 99 92 122 106 140 2 41 58 82 117 103
9 72 114 156 49 128 146 166 188 127
9 171 137 62 57 77 84 78 183 162
13 14 189 109 76 129 66 74 136 24 113 179 108 159
10 145 163 19 198 164 196 152 91 87 25
9 67 38 131 102 75 115 118 55 69
8 44 48 187 8 160 125 65 40
10 120 89 116 169 3 98 61 123 144 15
7 112 126 190 17 30 184 192
12 168 42 95 119 10 110 173 105 39 186 18 45
13 155 107 12 34 153 143 43 148 199 7 94 185 68
11 21 182 90 88 36 180 54 6 83 149 176
9 150 60 37 138 9 70 132 86 59
7 32 193 191 101 93 124 151
12 50 23 142 13 52 47 22 130 195 79 63 174

Total makespan: 130
