15
9 7 47 54 27 55 88 131 38 29
9 21 84 83 48 144 115 50 78 143
10 127 36 93 5 35 4 0 60 39 80
9 12 140 126 123 64 3 69 20 24
8 18 104 43 31 10 65 148 85
9 128 68 109 92 102 66 77 16 30
11 56 70 111 90 45 9 141 73 76 75 58
13 46 53 63 17 44 103 59 89 97 121 61 32 11
10 49 23 133 132 139 82 67 71 119 137
14 95 106 124 51 1 25 41 122 99 101 118 86 129 74
9 91 113 116 134 125 15 114 147 52
11 81 62 145 110 149 100 37 33 120 28 42
10 142 87 146 19 2 108 107 79 72 14
10 112 34 138 13 57 8 6 130 136 94
8 22 96 40 105 98 135 26 117

Total makespan: 170
