15
8 17 170 45 59 164 105 71 129
15 21 79 153 115 183 95 80 172 145 7 58 199 53 102 118
11 151 150 25 138 48 195 54 65 122 141 169
13 11 36 28 99 15 4 75 42 128 24 143 81 39
13 30 49 97 113 110 107 35 91 106 175 69 132 47
15 190 51 52 23 177 127 134 155 50 119 67 9 77 19 185
16 93 64 130 197 144 167 116 124 94 192 57 154 10 194 188 142
14 156 136 109 63 117 163 27 121 198 78 72 103 191 62
17 26 14 40 44 158 98 6 0 87 55 104 146 135 18 186 90 92
12 89 182 187 8 3 181 83 76 13 100 147 70
10 37 168 56 137 140 73 112 174 178 131
16 85 82 133 149 152 193 114 34 160 139 38 123 16 31 74 60
13 173 157 189 166 43 176 88 101 148 2 125 120 20
15 32 5 196 179 108 33 165 22 84 12 171 126 46 1 41
12 159 162 29 184 61 86 111 68 96 66 180 161

Total makespan: 192
