15
20 143 9 91 18 104 228 63 23 102 200 129 76 219 176 60 206 147 46 72 207
18 247 35 107 139 199 108 122 215 37 150 210 178 175 32 188 96 26 74
16 239 218 198 179 137 243 114 89 47 190 148 154 163 221 196 65
17 212 21 105 171 231 158 54 4 2 6 244 152 174 125 184 87 50
12 189 75 134 155 110 229 131 59 119 109 232 3
16 44 68 98 222 19 168 51 45 195 124 236 112 123 70 138 52
13 77 144 48 209 85 100 227 169 79 99 160 245 240
15 226 241 36 90 246 149 86 172 84 33 193 203 230 13 56
24 64 186 20 0 205 22 10 151 238 242 204 220 157 194 192 38 31 133 16 159 136 191 73 161
14 156 39 53 216 106 167 17 15 66 92 101 208 130 55
20 117 61 162 166 213 135 211 111 141 5 34 62 170 164 30 28 249 1 120 180
16 118 11 81 97 24 132 115 248 80 173 201 197 126 177 116 140
14 12 113 128 40 95 223 7 153 121 237 82 182 146 94
20 185 41 43 58 103 71 214 187 233 145 127 69 183 234 57 14 93 235 83 49
15 217 202 225 8 165 67 29 78 25 142 42 27 181 224 88

Total makespan: 147
