15
12 31 40 116 50 22 13 145 34 35 26 146 19
11 36 23 110 53 96 140 134 10 49 104 106
9 52 42 56 86 123 25 55 149 84
11 5 139 24 63 8 28 83 65 29 129 27
12 6 68 7 21 61 66 30 80 135 16 60 87
8 37 91 144 108 45 18 105 64
11 85 138 130 97 128 113 75 72 69 2 14
10 141 112 100 92 132 51 147 143 73 20
11 98 58 79 9 76 94 33 89 148 121 99
16 77 32 3 111 115 125 101 122 119 46 88 107 142 133 41 17
6 57 103 136 74 47 114
8 43 78 44 12 0 67 62 118
7 48 93 11 71 1 59 4
8 102 120 70 131 126 82 54 39
10 109 124 127 81 38 15 137 90 117 95

Total makespan: 83
