25
7 120 30 180 82 158 149 141
9 1 54 126 134 184 168 174 16 181
6 47 2 13 139 11 60
9 89 131 86 7 198 103 111 145 27
9 190 28 0 32 84 9 166 35 170
7 12 130 57 43 93 56 135
9 70 31 33 196 64 52 118 4 58
11 39 102 125 119 148 22 186 195 25 142 99
10 38 97 117 110 15 23 191 143 65 77
5 113 8 178 21 91
11 100 88 169 154 36 157 96 164 163 62 140
9 199 106 73 171 109 132 75 45 115
7 48 175 74 124 122 194 46
9 50 67 144 66 197 108 44 68 20
6 187 182 105 101 153 150
7 37 104 192 83 156 6 94
7 87 92 81 69 19 176 112
10 147 10 26 188 165 41 71 172 116 80
6 42 127 17 173 29 129
7 189 79 55 34 185 61 114
8 18 161 95 160 72 85 78 128
8 98 136 53 49 133 152 24 63
10 179 159 59 162 51 76 193 14 121 90
8 177 151 40 3 123 183 5 138
5 107 167 155 146 137

Total makespan: 101
