25
5 27 78 21 20 71
2 63 2
5 14 54 53 13 9
6 95 97 36 38 35 67
3 40 25 37
1 50
2 91 76
4 77 60 47 7
5 57 82 84 92 41
4 90 48 98 79
3 34 5 19
5 70 1 80 93 4
4 87 8 61 46
3 17 23 16
4 11 59 49 31
5 24 88 51 56 52
6 28 74 65 45 96 29
5 64 72 0 32 44
6 62 94 69 6 30 10
3 18 99 55
3 39 85 12
3 3 42 89
5 22 73 66 33 68
4 75 58 26 83
4 81 86 15 43

Total makespan: 49
