20
7 75 31 146 100 67 74 50
4 37 72 25 58
6 102 103 142 126 2 45
6 38 55 63 21 20 84
10 104 15 149 77 91 62 33 1 6 30
7 136 28 59 93 13 12 118
8 122 18 85 135 138 139 78 57
7 41 143 123 121 129 94 26
6 51 88 56 101 14 16
11 53 27 109 117 107 69 112 127 90 114 22
8 29 131 125 39 130 87 34 92
10 81 116 36 35 95 24 44 145 42 10
9 96 11 49 54 43 5 105 65 0
7 8 64 47 83 111 52 61
8 23 86 140 70 144 113 7 3
8 141 108 137 80 98 40 89 73
5 134 19 32 148 115
7 99 124 79 97 147 17 119
9 82 76 60 106 68 71 110 128 133
7 132 66 120 46 9 4 48

Total makespan: 76
