30
1 9
2 3 2
1 21
1 11
2 19 28
3 20 34 43
2 40 32
2 6 22
2 7 27
1 5
1 30
2 49 13
2 44 38
1 48
2 42 17
4 10 29 33 26
1 18
1 47
2 46 1
2 4 25
2 23 12
2 45 35
2 31 8
1 37
2 0 15
1 14
1 36
2 16 24
1 39
1 41

Total makespan: 22
