30
4 52 24 16 73
4 121 71 54 116
5 94 19 132 7 128
5 4 127 57 43 64
5 68 112 27 80 39
4 28 144 56 37
5 103 76 91 146 40
3 55 137 125
4 140 3 133 47
6 108 123 51 86 129 110
6 74 88 2 106 100 59
3 23 78 77
6 117 45 22 67 115 8
5 99 31 134 60 124
3 111 143 145
6 12 32 6 17 53 41
7 21 97 98 34 66 118 30
6 25 33 65 113 135 107
7 101 50 36 148 13 95 122
4 85 139 10 147
7 61 15 81 20 42 89 38
6 72 131 126 75 5 96
6 92 29 35 105 142 14
5 44 58 120 18 102
7 1 9 49 104 83 63 114
6 48 69 70 130 93 11
4 82 149 84 119
3 46 136 62
3 138 141 109
5 26 79 0 90 87

Total makespan: 29
