30
8 37 155 93 176 16 146 11 208
8 168 240 71 141 247 158 198 112
6 156 165 68 82 89 90
8 245 215 173 135 239 223 206 3
5 67 9 10 20 210
11 98 154 79 22 87 222 6 196 227 59 76
6 60 237 129 170 25 106
6 231 241 133 70 143 102
9 18 103 8 184 199 34 234 172 66
11 52 150 229 28 69 7 130 81 134 136 57
8 12 30 58 56 86 21 220 120
8 101 243 95 211 137 104 77 63
9 179 100 217 180 190 0 187 128 181
8 110 152 139 205 65 207 54 46
11 228 164 40 132 238 153 188 126 36 219 216
9 72 4 119 242 235 124 221 121 14
8 42 163 225 64 167 31 159 177
9 5 157 248 17 39 142 149 171 61
7 212 108 49 189 75 175 147
11 123 13 35 43 160 55 246 105 15 214 213
9 244 224 169 32 182 38 148 192 74
6 48 236 53 116 117 115
8 249 185 109 23 195 233 62 194
8 24 78 161 84 94 1 41 88
11 191 44 200 209 96 97 151 73 232 80 201
10 29 51 183 166 218 203 118 174 230 19
9 26 204 125 85 202 50 144 122 127
10 114 99 162 92 113 91 226 111 83 2
7 178 197 140 27 33 45 138
6 47 193 131 186 145 107

Total makespan: 48
