25
3 44 16 10
2 30 20
2 34 42
2 22 15
2 0 35
1 17
2 8 26
2 32 27
2 4 3
2 33 39
2 31 21
3 6 9 13
2 11 29
1 18
2 48 14
1 40
2 5 37
2 19 7
2 12 41
3 38 47 24
2 49 46
2 43 45
2 28 25
2 2 36
2 23 1

Total makespan: 28
