10
13 124 100 23 5 123 96 11 57 58 91 99 72 67
12 18 115 71 82 17 81 118 14 36 127 46 41
17 26 9 79 95 29 108 116 122 20 8 78 98 32 107 138 53 101
16 133 62 3 129 34 4 146 38 83 27 69 47 128 148 125 35
14 25 147 59 51 40 103 140 15 75 135 44 12 84 97
15 109 28 1 137 112 143 139 63 30 61 0 42 60 10 90
17 24 80 65 39 6 110 134 104 16 76 149 50 85 31 145 77 49
16 37 88 111 117 126 56 121 45 48 22 130 64 86 68 120 52
12 136 141 66 87 19 144 142 7 93 94 43 132
18 89 54 2 105 114 33 102 13 70 55 131 74 92 113 21 106 73 119

Total makespan: 218
