30
4 21 79 19 16
5 37 89 96 52 11
4 67 5 42 7
6 23 6 50 22 91 58
4 92 62 65 48
4 68 78 46 60
3 87 83 18
2 0 71
3 51 53 93
4 86 77 59 38
2 10 35
3 61 55 1
5 40 81 8 15 80
2 99 76
3 84 44 49
2 97 36
2 13 54
4 43 39 94 69
4 70 72 88 98
5 14 85 32 74 29
3 26 66 63
2 4 45
3 25 95 90
2 73 27
3 31 12 24
4 30 34 64 47
3 9 17 56
2 82 28
3 41 2 33
4 3 75 20 57

Total makespan: 20
