30
5 122 15 127 103 46
5 69 144 16 74 1
5 125 85 4 87 33
5 89 117 7 140 29
8 111 36 143 62 118 106 86 11
5 61 6 128 5 115
4 104 9 119 17
7 121 82 105 39 41 78 107
5 18 70 81 58 42
6 21 146 67 129 0 83
3 25 76 32
5 91 54 19 84 49
5 28 51 60 77 98
5 90 20 47 34 102
5 57 138 132 40 120
4 139 97 149 110
5 52 48 109 8 38
3 59 55 113
5 141 23 145 130 3
5 114 135 133 45 63
5 37 14 123 112 95
4 30 99 96 93
5 31 101 24 27 126
9 136 12 53 100 116 50 79 56 94
6 68 44 92 124 64 80
3 35 134 73
4 108 148 26 142
6 75 43 65 137 131 66
4 72 2 22 71
4 88 147 10 13

Total makespan: 61
