10
27 218 178 52 241 210 42 40 203 8 155 134 214 244 248 130 188 212 66 96 39 246 81 159 94 131 47 98
23 127 106 204 160 110 28 59 21 166 19 230 56 245 65 43 167 117 226 153 238 101 140 68
25 31 99 199 7 53 182 190 23 164 146 72 90 49 129 26 87 183 77 48 220 221 184 76 61 147
28 208 228 54 121 27 34 137 192 107 17 44 163 82 25 46 227 240 158 229 14 71 165 177 100 63 83 154 89
26 223 38 37 124 119 16 162 108 50 57 33 60 132 4 150 173 209 233 1 143 11 0 198 45 234 136
25 197 120 202 242 213 78 216 215 138 102 15 175 2 111 74 79 113 73 206 22 195 145 170 185 6
25 109 125 93 239 114 169 51 217 55 95 193 75 187 149 200 115 35 112 123 236 168 133 18 176 237
18 172 122 148 5 36 118 3 232 139 10 201 141 191 70 235 249 91 97
25 105 225 174 84 116 92 231 80 157 222 13 128 88 126 156 151 243 211 180 30 152 85 194 224 207
28 86 186 9 58 12 24 179 196 171 219 161 247 62 64 103 135 32 29 142 20 104 144 67 181 41 205 69 189

Total makespan: 400
