15
18 224 24 194 109 132 40 240 166 87 220 75 100 227 151 204 11 29 188
15 105 18 121 101 205 246 85 46 202 38 99 70 33 146 21
20 242 17 19 141 78 49 69 23 199 62 219 119 128 27 53 131 135 41 154 13
17 148 142 208 74 226 81 236 76 118 86 79 34 55 14 247 183 207
17 223 5 147 16 232 248 108 198 47 155 82 71 241 218 190 231 31
16 37 113 178 104 26 32 60 95 210 59 48 122 106 185 61 195
15 212 8 117 12 169 229 170 213 162 150 103 20 120 186 42
14 216 56 44 90 50 134 97 181 156 138 88 124 140 159
15 184 175 96 171 112 222 63 94 93 215 98 239 36 209 107
19 84 149 54 164 187 228 15 125 163 139 9 43 67 66 214 133 110 152 168
18 189 51 182 244 2 153 64 192 45 127 173 237 230 22 211 6 200 1
24 238 89 161 144 221 4 174 180 115 65 80 52 177 72 179 25 157 126 225 77 30 57 160 68
14 167 245 3 35 58 176 28 203 243 114 206 83 129 102
16 158 235 73 39 92 201 145 165 143 234 191 91 197 172 249 196
12 193 10 217 123 136 111 233 137 0 116 130 7

Total makespan: 183
