30
9 77 138 42 123 184 178 69 155 31
8 39 151 4 11 97 180 156 110
7 114 98 75 174 70 126 86
5 188 64 136 116 2
5 44 102 94 15 111
6 1 150 182 163 41 131
8 80 24 198 141 101 20 35 196
6 117 127 128 162 118 164
8 124 109 30 53 171 0 193 3
7 170 12 57 104 29 65 67
6 176 81 144 165 100 103
8 152 85 63 149 89 72 158 159
8 45 14 186 137 78 161 91 56
7 187 148 154 95 177 132 119
6 172 47 168 145 115 190
6 199 51 8 5 108 179
9 38 74 18 120 50 46 88 61 87
8 92 107 43 167 16 28 192 146
5 197 113 10 194 169
8 181 62 19 195 122 9 23 59
7 33 140 105 185 173 40 22
6 58 32 134 135 48 84
6 49 52 96 55 60 34
8 73 66 143 191 36 13 25 90
5 183 125 129 21 93
5 27 17 76 139 37
6 71 130 106 112 157 83
5 6 189 79 121 68
6 7 133 153 166 99 54
6 160 175 147 26 82 142

Total makespan: 57
