30
9 145 45 105 13 124 166 73 7 23
8 160 216 202 199 232 3 225 33
11 84 168 151 78 32 19 242 111 240 40 1
8 155 219 8 132 41 117 47 211
9 236 204 234 129 44 228 193 72 144
10 46 14 165 102 38 121 170 119 63 197
7 191 98 17 35 26 6 227
9 109 206 243 59 91 231 69 65 194
6 56 207 54 51 94 159
9 203 218 74 75 77 184 83 2 118
5 86 50 214 189 101
7 196 169 31 127 43 5 122
11 248 229 185 21 27 39 28 239 220 177 140
9 205 192 210 18 107 20 133 49 137
8 48 235 123 128 190 181 224 79
8 153 209 15 176 110 87 0 62
9 57 222 186 230 187 80 131 103 22
8 93 11 42 88 237 82 25 67
9 163 115 55 188 136 10 147 154 97
7 58 152 70 135 16 161 90
7 164 241 24 95 116 171 138
9 99 37 247 149 60 158 126 195 106
10 212 76 148 113 12 53 112 208 238 198
8 172 183 139 167 178 100 146 36
7 223 246 179 245 180 4 96
8 134 61 130 156 173 34 175 89
10 162 249 143 226 141 233 71 64 85 182
7 29 217 244 92 66 104 81
8 221 201 157 30 142 174 9 213
9 150 108 114 125 215 120 68 200 52

Total makespan: 89
