10
18 80 5 54 15 44 89 53 90 73 18 29 176 72 137 181 14 186 107
21 173 35 112 11 128 88 192 75 8 57 94 188 10 66 194 103 27 151 33 199 134
21 161 108 195 183 23 38 55 175 154 1 189 171 185 141 129 120 58 83 37 155 68
19 165 167 157 131 149 152 52 79 34 127 21 166 104 91 142 86 69 16 172
22 170 64 169 63 184 71 132 48 17 121 174 41 145 105 31 77 65 124 13 113 92 159
17 81 28 50 99 136 30 144 4 118 182 45 140 56 148 87 115 198
22 61 179 180 197 163 193 42 164 109 126 130 96 43 0 82 49 26 135 78 153 110 93
17 146 32 3 122 6 114 138 123 156 177 139 117 100 160 19 46 9
20 22 36 47 39 70 143 95 102 40 97 111 25 106 178 24 67 190 74 7 191
23 2 162 196 84 85 147 158 150 168 98 119 12 187 125 60 59 20 133 51 116 76 62 101

Total makespan: 243
