15
17 233 180 8 18 13 19 37 149 188 92 51 247 141 71 167 12 102
15 170 166 69 235 196 191 130 113 42 212 192 101 116 238 34
16 119 50 195 211 174 140 230 229 45 118 117 241 216 146 240 182
14 74 198 205 55 226 48 32 58 6 183 21 223 153 176
17 172 219 147 4 155 85 104 143 59 121 66 7 156 159 14 122 78
13 83 106 96 151 10 163 202 137 154 40 91 135 245
18 64 82 44 234 103 206 24 190 70 203 30 186 9 27 99 177 112 86
18 39 173 108 157 225 88 127 65 77 54 31 197 164 246 90 171 161 210
17 98 109 111 36 217 114 160 181 168 228 193 184 175 178 43 215 28
17 75 80 124 148 3 5 199 11 249 26 79 61 16 221 129 33 57
17 222 94 231 139 150 52 97 107 232 169 95 41 20 144 145 208 224
16 123 105 187 214 134 128 38 179 110 68 239 67 120 218 76 237
21 23 200 207 89 162 136 47 60 132 25 115 131 126 63 87 204 73 138 93 84 194
17 62 185 46 227 201 72 22 248 49 100 1 0 142 158 213 125 15
17 165 152 2 133 243 56 29 35 81 242 209 17 53 236 220 244 189

Total makespan: 174
