20
14 243 93 221 16 11 232 242 110 13 87 77 111 195 235
10 51 41 40 180 23 50 12 149 216 26
13 80 58 238 148 82 175 244 34 133 67 226 188 28
13 135 220 142 165 131 33 120 136 234 151 112 157 79
13 162 113 146 46 61 71 164 156 217 187 173 140 159
12 147 223 10 96 30 128 29 78 59 139 184 86
11 9 105 194 186 97 210 132 22 209 84 155
12 123 15 70 190 83 44 95 36 76 14 53 17
14 38 231 200 212 63 225 161 166 35 2 32 94 24 121
11 233 74 158 107 240 90 20 198 199 178 47
17 81 72 137 169 0 143 246 154 206 237 56 211 55 145 52 45 21
12 177 167 127 241 201 193 182 62 227 170 116 42
10 181 27 31 88 100 103 108 122 1 65
11 134 152 118 224 5 183 7 125 150 197 115
11 185 43 214 6 189 126 73 207 196 98 119
14 204 39 179 229 89 3 219 248 130 92 168 228 25 249
15 117 109 60 176 203 91 239 208 54 174 69 4 153 171 18
12 236 85 218 192 163 37 48 49 191 138 222 106
11 129 247 57 245 215 230 172 205 144 75 64
14 101 8 124 102 104 213 19 68 202 114 99 160 66 141

Total makespan: 112
