10
17 58 85 76 89 149 100 75 105 34 80 101 135 65 145 37 3 13
16 147 121 114 61 87 62 60 6 55 18 88 117 94 20 41 57
14 81 49 107 124 122 10 93 91 66 102 96 131 67 64
12 142 144 42 125 143 51 78 111 77 69 22 8
14 136 128 54 44 148 130 83 133 26 137 120 1 4 21
15 134 17 46 109 19 86 70 7 84 90 43 63 35 97 98
13 31 103 47 138 52 104 118 14 16 132 127 95 113
13 108 112 141 123 119 2 12 126 106 59 139 38 25
20 73 36 39 32 28 23 110 50 48 40 30 99 56 0 140 9 116 15 24 29
16 11 53 92 45 82 71 115 72 74 33 79 5 146 129 68 27

Total makespan: 282
