30
9 6 176 102 204 199 106 60 245 127
10 223 243 3 163 104 237 75 63 67 153
14 183 84 234 239 170 219 1 43 211 229 19 154 55 105
5 151 58 247 81 54
5 203 188 78 39 140
12 56 79 152 32 59 0 26 23 233 97 5 35
8 179 195 191 129 25 130 156 227
9 87 200 241 180 231 116 177 100 155
8 18 178 173 69 51 224 27 201
8 8 210 9 149 57 205 167 83
6 91 136 49 147 121 15
8 226 137 249 72 93 113 218 120
9 10 185 213 41 217 52 44 65 12
9 61 68 182 146 22 71 48 21 117
8 206 238 16 76 228 47 197 101
8 122 142 29 109 166 221 33 128
12 38 77 220 148 189 181 190 50 118 138 13 157
7 62 207 165 198 161 141 89
7 95 230 66 107 248 108 133
7 20 169 225 53 162 144 115
8 42 164 103 123 208 40 184 242
8 175 193 232 7 17 212 222 24
6 216 64 125 168 99 31
9 235 135 171 46 215 112 11 160 143
8 236 187 73 14 4 2 158 172
7 134 124 214 98 174 34 88
7 202 126 192 159 70 94 246
8 139 96 30 82 36 74 110 194
9 240 131 37 90 114 92 145 45 132
11 196 186 28 86 85 244 209 150 80 111 119

Total makespan: 85
