20
16 54 43 60 221 105 19 69 219 162 194 46 151 199 130 169 117
11 163 93 4 55 100 138 31 108 30 18 142
15 181 98 201 53 150 61 120 189 94 103 122 125 211 25 216
15 165 210 129 203 249 88 51 155 23 89 137 248 79 33 37
10 234 8 193 153 140 176 158 229 101 99
11 242 204 240 27 246 3 42 28 236 13 110
17 77 65 132 20 243 206 149 118 247 190 95 97 139 218 174 184 50
13 231 12 107 131 44 198 9 167 16 87 141 156 21
10 36 81 235 39 90 148 1 230 74 80
13 112 15 147 172 182 227 113 58 11 84 175 152 157
11 75 237 187 212 7 217 179 134 228 38 232
9 45 32 170 188 207 59 34 114 115
13 238 96 48 41 73 200 57 92 49 111 225 52 83
12 29 128 126 209 239 24 14 116 135 104 144 143
15 123 197 161 233 168 214 224 82 222 17 67 146 121 185 154
11 85 91 68 22 109 76 171 177 6 186 71
13 223 192 166 2 102 159 133 196 127 106 220 173 64
10 145 124 78 244 226 195 63 56 178 136
11 208 5 62 66 215 160 202 164 86 26 47
14 245 119 10 70 0 180 35 191 213 183 72 241 205 40

Total makespan: 159
