20
3 46 17 26
3 44 31 11
2 45 41
2 3 49
3 32 10 39
2 30 43
2 18 0
3 35 8 24
2 5 9
2 47 21
1 40
3 27 14 42
1 6
3 28 33 16
4 37 2 22 7
3 20 38 29
3 4 36 19
2 12 34
3 13 1 48
3 15 25 23

Total makespan: 30
