15
10 97 141 78 45 101 99 80 76 103 49
12 139 11 54 70 88 124 137 22 129 68 41 106
9 69 105 72 71 9 83 0 2 1
11 30 126 53 73 48 66 5 143 3 7 8
10 130 87 46 12 121 28 140 95 82 50
9 60 40 20 145 142 134 110 84 108
11 16 33 113 18 17 86 75 118 98 128 51
14 74 117 127 39 55 123 57 107 29 89 144 116 38 13
10 81 43 42 77 56 135 23 120 119 61
9 19 96 102 62 67 58 92 111 146
8 133 91 27 35 132 4 125 136
11 131 44 47 93 122 149 100 14 37 31 6
9 85 138 59 25 52 36 79 112 90
11 10 104 109 147 148 34 64 26 115 114 63
6 94 21 15 65 32 24

Total makespan: 123
