10
8 28 44 6 96 75 97 26 80
10 29 91 58 38 18 21 43 71 3 62
8 88 81 95 79 10 23 99 94
9 8 77 98 67 25 86 66 1 19
14 15 53 5 20 27 12 22 84 24 93 35 61 60 87
12 57 46 78 32 65 85 31 72 82 11 45 41
8 68 83 37 74 30 59 9 47
8 50 49 17 39 7 0 70 69
12 76 14 54 36 42 51 55 33 4 16 40 89
11 13 2 56 90 63 34 73 92 48 52 64

Total makespan: 158
