25
11 36 200 156 195 213 134 248 175 249 12 95
10 154 231 9 246 85 102 19 117 66 234
9 179 197 199 63 42 184 10 48 163
10 205 56 33 229 138 73 70 139 132 235
10 3 69 59 60 136 215 91 228 98 241
13 151 124 82 232 209 164 125 16 112 172 165 140 79
9 20 61 202 148 178 187 149 214 127
9 15 218 118 99 86 55 142 161 137
10 206 96 71 203 23 126 7 72 64 54
7 27 157 128 105 204 123 78
10 37 40 94 88 207 122 22 247 169 68
11 239 240 135 155 21 130 67 186 80 6 141
14 111 212 244 220 1 222 226 4 81 87 224 198 201 14
11 219 216 41 191 196 45 119 108 170 115 50
9 28 245 46 110 152 109 93 0 171
9 38 77 44 242 29 150 121 75 162
7 120 90 17 225 34 174 182
10 129 208 177 192 8 185 5 194 221 13
11 230 189 107 188 173 101 166 113 83 58 25
8 103 223 237 106 144 146 65 131
10 84 233 116 217 18 167 210 159 51 39
7 133 158 43 147 74 160 97
14 57 11 145 236 183 227 35 190 104 114 47 100 176 153
10 62 53 238 24 143 89 193 180 243 76
11 32 30 181 211 49 52 26 31 2 92 168

Total makespan: 112
