15
9 22 50 127 39 75 80 100 138 41
10 77 119 46 6 82 34 33 101 53 81
10 18 84 3 139 47 141 4 109 96 105
11 56 130 86 90 124 65 131 1 14 85 102
11 103 11 132 67 63 83 68 135 99 121 143
9 115 92 111 23 146 140 0 125 45
12 12 60 107 25 76 32 54 94 52 15 89 38
11 35 69 128 10 49 30 70 120 134 62 59
10 21 9 118 144 126 110 142 44 95 58
6 74 78 148 29 28 17
11 91 64 72 149 8 40 133 42 112 106 13
9 57 104 71 26 113 122 20 97 129
11 147 43 108 55 88 7 61 24 145 36 5
12 93 114 51 117 123 19 37 137 79 48 2 98
8 136 116 66 27 31 87 73 16

Total makespan: 112
