30
2 28 126
6 49 148 94 59 112 53
3 51 39 34
6 72 55 109 57 79 93
4 145 63 127 136
5 58 36 42 102 76
5 71 100 41 83 81
5 40 80 6 23 61
5 95 96 14 133 60
6 129 134 104 0 97 139
7 19 123 120 1 70 114 62
5 32 118 30 64 87
4 37 5 137 13
8 2 113 91 47 20 110 26 138
6 147 88 66 77 4 82
4 86 124 125 17
4 84 98 45 35
6 56 99 7 52 89 142
5 73 115 68 27 128
4 103 101 50 65
6 85 78 143 21 46 144
5 74 67 105 31 119
4 12 15 111 122
6 130 43 33 117 108 140
6 10 75 149 146 16 3
6 69 54 116 90 11 18
4 38 25 24 135
4 9 22 29 107
4 106 92 44 8
5 131 132 48 141 121

Total makespan: 35
