20
6 21 47 36 86 87 97
6 34 90 38 80 12 42
5 28 29 81 53 19
5 8 99 84 16 55
6 13 68 9 77 91 31
6 41 67 17 25 72 15
4 88 35 27 59
6 30 95 61 7 49 26
5 96 46 44 78 54
6 64 75 82 11 40 58
4 43 39 70 5
5 52 85 51 20 37
5 2 45 14 76 94
4 23 62 18 1
4 57 89 32 65
5 4 50 93 74 10
5 83 56 60 66 24
6 79 6 69 22 71 63
4 33 98 73 3
3 0 48 92

Total makespan: 68
