10
10 56 40 25 83 47 90 13 41 19 96
8 81 76 30 78 92 39 75 1
9 16 61 6 58 29 20 62 73 5
9 89 15 68 50 52 48 28 63 94
11 74 37 67 99 80 71 32 51 69 21 86
10 77 95 33 24 70 91 11 17 27 57
12 72 55 2 64 49 53 45 4 54 42 12 88
9 31 79 35 18 66 98 26 38 0
10 9 23 97 46 93 7 8 10 65 87
12 34 84 43 82 14 59 85 44 60 3 36 22

Total makespan: 153
