15
6 9 61 14 50 28 82
6 64 87 97 24 81 35
7 49 0 53 80 20 57 3
7 52 77 90 21 27 32 25
8 74 51 13 72 85 98 71 69
8 65 45 7 76 91 84 48 23
5 66 68 36 41 15
8 8 63 5 18 29 11 79 75
6 67 96 12 88 94 16
8 86 6 39 34 42 47 55 1
4 60 31 46 26
7 33 22 73 62 43 99 30
6 38 89 70 56 59 83
8 19 4 93 95 10 78 54 37
6 92 2 44 17 40 58

Total makespan: 108
