10
10 53 63 94 22 18 30 1 14 58 98
12 28 12 40 8 46 47 25 65 55 61 39 73
8 80 69 32 75 89 23 5 20
11 37 60 50 48 86 87 35 83 78 45 93
10 13 41 2 64 7 34 67 96 49 9
11 85 72 6 95 26 88 10 66 33 44 99
7 82 81 59 42 51 16 71
11 31 52 68 27 19 11 97 84 36 4 17
11 90 0 15 43 57 74 3 38 70 21 79
9 29 56 91 92 54 77 24 76 62

Total makespan: 187
