20
3 23 38 28
3 2 39 9
4 36 45 37 27
4 26 10 14 18
1 3
3 41 29 42
2 7 46
2 17 47
2 20 40
2 0 13
2 34 12
2 6 21
3 25 49 22
1 31
3 33 43 15
3 35 8 30
3 1 11 24
2 44 5
3 48 32 16
2 4 19

Total makespan: 41
