30
5 125 179 42 213 193
10 127 188 189 45 224 222 166 13 155 76
7 129 158 201 175 58 221 53
10 83 237 136 61 88 79 191 85 194 44
11 56 230 153 49 226 164 216 181 75 33 8
7 86 105 184 219 133 110 120
9 116 109 218 214 65 138 52 156 64
10 200 123 96 9 10 186 16 192 92 147
8 135 198 84 74 26 77 60 78
9 199 108 150 46 15 63 247 43 225
8 90 6 119 71 132 140 47 18
9 173 48 209 20 137 217 67 160 149
8 41 234 69 229 169 190 176 206
8 22 210 122 27 134 102 167 28
9 195 40 208 32 12 81 30 68 95
8 107 126 202 118 168 241 152 111
7 87 3 89 232 54 114 99
7 66 235 113 73 233 39 211
7 165 207 242 240 34 174 170
11 212 238 55 59 7 80 145 131 35 249 103
10 98 248 215 246 38 11 223 37 144 180
6 157 205 220 203 146 115
9 178 151 227 162 91 245 72 139 185
7 62 143 161 154 141 25 142
7 19 94 70 5 236 124 100
9 112 17 104 117 228 159 2 4 14
8 182 50 31 51 57 24 244 187
7 36 21 97 243 171 148 197
13 177 239 163 82 1 231 172 196 130 204 128 106 93
6 0 23 29 121 183 101

Total makespan: 90
