20
4 8 14 26 2
3 4 29 44
2 24 16
2 17 6
4 22 21 25 23
2 19 12
3 27 5 45
2 0 30
3 34 18 13
2 41 39
2 31 32
2 10 15
2 47 7
2 38 35
4 40 43 46 48
2 42 49
3 37 1 36
2 20 11
2 3 9
2 28 33

Total makespan: 34
