15
18 9 206 204 219 143 46 228 63 176 104 207 25 60 27 23 102 18 129
17 96 188 199 215 115 32 108 107 247 139 51 150 210 178 74 122 1
15 221 94 35 196 198 239 65 89 190 148 243 179 137 47 114
16 231 105 140 146 6 229 125 147 68 202 152 184 87 85 212 54
16 246 76 134 163 3 120 110 75 99 189 155 21 2 59 119 232
15 138 236 109 123 244 112 52 195 124 154 205 222 19 70 249
14 79 227 169 48 144 72 240 77 100 91 28 185 245 209
14 84 203 149 4 90 36 241 172 230 13 56 193 226 86
23 16 192 191 73 64 22 161 0 38 186 157 12 159 136 133 220 156 151 238 31 242 194 10
15 130 53 216 50 33 208 20 66 106 39 162 98 55 158 167
19 49 211 61 45 17 111 141 34 62 213 182 166 117 118 180 44 164 5 170
18 201 135 81 24 132 126 177 175 197 168 97 116 248 160 218 80 26 173
13 7 153 128 40 237 82 121 30 174 223 95 113 131
20 69 145 14 71 214 37 187 57 93 43 58 183 234 235 103 101 11 83 41 233
17 88 78 181 224 8 15 171 92 142 165 225 42 200 217 127 29 67

Total makespan: 141
