77;70.34;77;428.95;751;499.29;-22.08
77;70.32;76;499.93;1058;570.25;-23.68
81;70.39;78;493.79;825;564.17;-20.51
81;70.42;76;695.97;1151;766.39;-23.68
81;70.40;78;376.44;805;446.84;-20.51
76;360.40;75;3239.60;263;3600.00;-25.33
77;360.42;76;3239.59;259;3600.01;-23.68
76;360.39;75;3239.61;272;3600.00;-25.33
77;360.37;77;3239.64;257;3600.00;-22.08
76;360.41;75;3239.59;259;3600.00;-25.33
