116;70.32;112;1326.67;1364;1396.99;-8.93
116;71.44;111;1107.59;1107;1179.02;-9.91
119;70.43;112;1729.57;1733;1800.00;-8.93
119;70.45;112;1729.57;1976;1800.02;-8.93
119;70.43;111;1729.57;1713;1800.00;-9.91
116;360.52;110;3239.83;264;3600.36;-10.91
115;360.42;110;3239.71;251;3600.13;-10.91
116;360.42;111;3239.59;243;3600.01;-9.91
114;360.43;110;3239.58;244;3600.00;-10.91
115;360.39;112;3239.63;263;3600.02;-8.93
